% f evaluations | g evaluations | best noise-free fitness - Fopt (9.294000000000e+001) + sum g_i+ | measured fitness | best measured fitness or single-digit g-values | x1 | x2...
1 0 +3.818209566e+002 +4.747609566e+002 +4.747609566e+002 -5.0000e+000 +5.0000e+000 +5.0000e+000
5 0 +2.753745125e+002 +3.683145125e+002 +3.683145125e+002 -6.2134e-002 +2.7768e+000 -2.7145e+000
6 0 +2.209152707e+002 +3.138552707e+002 +3.138552707e+002 -2.5940e+000 -1.9623e+000 -2.7932e-001
7 0 +6.201688654e+000 +9.914168865e+001 +9.914168865e+001 -7.8874e-001 -6.5848e-001 -3.4908e+000
9 0 +1.794082263e+000 +9.473408226e+001 +9.473408226e+001 +1.8560e-001 +1.6623e+000 +2.8463e+000
95 0 +1.605148975e+000 +9.454514897e+001 +9.454514897e+001 +7.8955e-002 +1.5485e+000 +2.5137e+000
102 0 +4.244114629e-001 +9.336441146e+001 +9.336441146e+001 -3.0439e-001 +9.9855e-001 +8.1275e-001
106 0 +3.715331200e-001 +9.331153312e+001 +9.331153312e+001 -2.1820e-001 +9.9323e-001 +7.8837e-001
140 0 +2.639081376e-001 +9.320390814e+001 +9.320390814e+001 -2.7674e-001 +8.8690e-001 +8.1618e-001
159 0 +2.570348089e-001 +9.319703481e+001 +9.319703481e+001 -3.8643e-001 +7.7510e-001 +4.9529e-001
205 0 +4.894420895e-002 +9.298894421e+001 +9.298894421e+001 -1.9353e-001 +8.4916e-001 +6.6416e-001
331 0 +8.105351632e-003 +9.294810535e+001 +9.294810535e+001 -2.2767e-001 +7.6997e-001 +4.6268e-001
421 0 +5.180641918e-003 +9.294518064e+001 +9.294518064e+001 -2.0298e-001 +7.5221e-001 +4.0732e-001
485 0 +3.227848726e-003 +9.294322785e+001 +9.294322785e+001 -2.1475e-001 +7.0680e-001 +1.4198e-001
542 0 +1.532909266e-007 +9.294000015e+001 +9.294000015e+001 -2.2146e-001 +7.3995e-001 +2.9152e-001
571 0 +1.161337906e-007 +9.294000012e+001 +9.294000012e+001 -2.3693e-001 +7.1121e-001 +2.7014e-001
594 0 +1.000312011e-008 +9.294000001e+001 +9.294000001e+001 -2.3556e-001 +7.1515e-001 +2.8242e-001
619 0 +2.517168696e-010 +9.294000000e+001 +9.294000000e+001 -2.2893e-001 +7.1072e-001 +2.8370e-001
% f evaluations | g evaluations | best noise-free fitness - Fopt (3.535000000000e+001) + sum g_i+ | measured fitness | best measured fitness or single-digit g-values | x1 | x2...
1 0 +2.475185469e+002 +2.828685469e+002 +2.828685469e+002 -5.0000e+000 +5.0000e+000 +5.0000e+000
6 0 +3.038917370e+001 +6.573917370e+001 +6.573917370e+001 +3.1485e+000 +1.3219e-002 +3.6864e+000
51 0 +9.672495942e+000 +4.502249594e+001 +4.502249594e+001 +2.2499e+000 +8.7995e-001 +2.8342e+000
67 0 +2.663779302e+000 +3.801377930e+001 +3.801377930e+001 +1.2904e+000 +1.7900e+000 +3.5879e+000
110 0 +1.971016355e-001 +3.554710164e+001 +3.554710164e+001 +1.6007e+000 +1.5075e+000 +4.4395e+000
164 0 +1.088735923e-001 +3.545887359e+001 +3.545887359e+001 +1.5058e+000 +1.6539e+000 +4.3084e+000
394 0 +5.918554663e-002 +3.540918555e+001 +3.540918555e+001 +1.7211e+000 +1.4950e+000 +4.2675e+000
396 0 +3.539213855e-002 +3.538539214e+001 +3.538539214e+001 +1.6775e+000 +1.5401e+000 +4.0131e+000
439 0 +1.472204181e-002 +3.536472204e+001 +3.536472204e+001 +1.8629e+000 +1.4172e+000 +3.6943e+000
565 0 +1.280385680e-002 +3.536280386e+001 +3.536280386e+001 +1.8241e+000 +1.4733e+000 +3.7468e+000
632 0 +3.200964201e-003 +3.535320096e+001 +3.535320096e+001 +1.8121e+000 +1.4837e+000 +3.8690e+000
789 0 +3.261039936e-007 +3.535000033e+001 +3.535000033e+001 +1.7472e+000 +1.4969e+000 +3.9341e+000
812 0 +3.199699279e-007 +3.535000032e+001 +3.535000032e+001 +1.7468e+000 +1.4970e+000 +3.9346e+000
816 0 +2.012099927e-007 +3.535000020e+001 +3.535000020e+001 +1.7449e+000 +1.4943e+000 +3.9469e+000
829 0 +1.850857885e-007 +3.535000019e+001 +3.535000019e+001 +1.7450e+000 +1.4942e+000 +3.9487e+000
832 0 +1.220841170e-007 +3.535000012e+001 +3.535000012e+001 +1.7333e+000 +1.5002e+000 +3.9767e+000
842 0 +3.802325921e-008 +3.535000004e+001 +3.535000004e+001 +1.7344e+000 +1.4976e+000 +3.9683e+000
861 0 +6.758881455e-009 +3.535000001e+001 +3.535000001e+001 +1.7354e+000 +1.4943e+000 +3.9657e+000
% f evaluations | g evaluations | best noise-free fitness - Fopt (3.820000000000e+000) + sum g_i+ | measured fitness | best measured fitness or single-digit g-values | x1 | x2...
1 0 +3.362670745e+003 +3.366490745e+003 +3.366490745e+003 -5.0000e+000 -5.0000e+000 -5.0000e+000
2 0 +1.442296921e+003 +1.446116921e+003 +1.446116921e+003 +5.0000e+000 -5.0000e+000 -5.0000e+000
4 0 +8.791751718e+002 +8.829951718e+002 +8.829951718e+002 -5.0000e+000 -5.0000e+000 +5.0000e+000
5 0 +8.061753656e+002 +8.099953656e+002 +8.099953656e+002 +5.0000e+000 -5.0000e+000 +5.0000e+000
6 0 +2.328613651e+002 +2.366813651e+002 +2.366813651e+002 +2.8237e-001 +1.2219e+000 +4.1839e+000
9 0 +1.443695626e+002 +1.481895626e+002 +1.481895626e+002 +1.6132e+000 -2.6601e+000 +3.2690e+000
10 0 +1.173447356e+002 +1.211647356e+002 +1.211647356e+002 +1.8234e+000 -2.8326e+000 +2.8762e+000
52 0 +8.151837750e+001 +8.533837750e+001 +8.533837750e+001 +7.2791e-001 -3.4693e+000 +1.4808e+000
67 0 +4.835735238e+001 +5.217735238e+001 +5.217735238e+001 +1.8570e+000 -3.4695e+000 +1.4810e+000
71 0 +4.212631006e+001 +4.594631006e+001 +4.594631006e+001 +2.1035e+000 -3.5050e+000 +9.3446e-001
72 0 +2.132862313e+001 +2.514862313e+001 +2.514862313e+001 +2.6985e+000 -3.3045e+000 +1.2719e+000
80 0 +2.030725617e+001 +2.412725617e+001 +2.412725617e+001 +2.7038e+000 -3.1286e+000 +1.9012e+000
107 0 +1.795865209e+001 +2.177865209e+001 +2.177865209e+001 +3.6191e+000 -3.1103e+000 +1.8108e+000
112 0 +6.980570439e+000 +1.080057044e+001 +1.080057044e+001 +4.0183e+000 -3.1397e+000 +1.7341e+000
135 0 +6.442438290e+000 +1.026243829e+001 +1.026243829e+001 +3.6050e+000 -3.1265e+000 +1.4151e+000
152 0 +2.111355383e+000 +5.931355383e+000 +5.931355383e+000 +4.5555e+000 -3.0971e+000 +1.2357e+000
255 0 +1.969046778e+000 +5.789046778e+000 +5.789046778e+000 +4.1708e+000 -2.2834e+000 +1.5882e+000
265 0 +1.524463232e+000 +5.344463232e+000 +5.344463232e+000 +4.0343e+000 -2.1520e+000 +1.6131e+000
448 0 +8.566554593e-001 +4.676655459e+000 +4.676655459e+000 +4.5086e+000 -1.1476e+000 +1.4506e+000
450 0 +5.579863326e-001 +4.377986333e+000 +4.377986333e+000 +4.4439e+000 -1.2982e+000 +1.4379e+000
456 0 +5.442438925e-001 +4.364243892e+000 +4.364243892e+000 +4.2211e+000 -5.1007e-001 +1.5226e+000
468 0 +5.154992767e-001 +4.335499277e+000 +4.335499277e+000 +4.1225e+000 -6.7069e-001 +1.7042e+000
474 0 +1.744712388e-001 +3.994471239e+000 +3.994471239e+000 +4.0098e+000 -1.9191e-001 +1.7397e+000
488 0 +1.625184118e-001 +3.982518412e+000 +3.982518412e+000 +4.0599e+000 -1.7548e-001 +1.6915e+000
498 0 +1.288499372e-001 +3.948849937e+000 +3.948849937e+000 +4.0758e+000 +1.5843e-001 +1.7245e+000
525 0 +3.221248429e-002 +3.852212484e+000 +3.852212484e+000 +4.0619e+000 +7.0289e-001 +1.7767e+000
715 0 +1.843348531e-002 +3.838433485e+000 +3.838433485e+000 +4.0122e+000 +1.2807e+000 +1.8750e+000
720 0 +6.717050601e-003 +3.826717051e+000 +3.826717051e+000 +3.9679e+000 +1.3606e+000 +1.8891e+000
783 0 +3.012404419e-007 +3.820000301e+000 +3.820000301e+000 +4.0149e+000 +1.1464e+000 +1.8652e+000
791 0 +1.269605798e-007 +3.820000127e+000 +3.820000127e+000 +4.0162e+000 +1.1639e+000 +1.8664e+000
819 0 +2.112925923e-008 +3.820000021e+000 +3.820000021e+000 +4.0149e+000 +1.1745e+000 +1.8659e+000
869 0 +7.447043870e-009 +3.820000007e+000 +3.820000007e+000 +4.0135e+000 +1.1774e+000 +1.8669e+000
% f evaluations | g evaluations | best noise-free fitness - Fopt (2.175000000000e+001) + sum g_i+ | measured fitness | best measured fitness or single-digit g-values | x1 | x2...
1 0 +3.242427835e+002 +3.459927835e+002 +3.459927835e+002 -5.0000e+000 +5.0000e+000 +5.0000e+000
3 0 +3.174415480e+002 +3.391915480e+002 +3.391915480e+002 -5.0000e+000 -5.0000e+000 +5.0000e+000
6 0 +1.347965398e+002 +1.565465398e+002 +1.565465398e+002 +1.1477e+000 +1.9650e+000 -7.3041e-001
7 0 +1.287612520e+002 +1.505112520e+002 +1.505112520e+002 +2.8733e+000 +4.7414e+000 -1.0079e+000
10 0 +6.140039073e+001 +8.315039073e+001 +8.315039073e+001 +8.6572e-001 +1.6299e+000 +2.8212e+000
11 0 +2.922063694e+001 +5.097063694e+001 +5.097063694e+001 +2.8481e+000 +5.0000e+000 +2.4305e+000
12 0 +1.617344500e+001 +3.792344500e+001 +3.792344500e+001 +2.3564e+000 +5.0000e+000 +2.4857e+000
51 0 +9.117410938e+000 +3.086741094e+001 +3.086741094e+001 +1.8478e+000 +2.9256e-001 +4.5769e-001
66 0 +4.608265976e+000 +2.635826598e+001 +2.635826598e+001 +2.5403e+000 -3.8734e-002 -1.9042e-001
161 0 +3.799711960e+000 +2.554971196e+001 +2.554971196e+001 +2.8720e+000 +8.6668e-001 -5.9728e-001
166 0 +2.339773726e+000 +2.408977373e+001 +2.408977373e+001 +2.7695e+000 +1.0663e+000 -4.1758e-001
176 0 +2.196770670e+000 +2.394677067e+001 +2.394677067e+001 +2.8152e+000 +1.3076e+000 -4.0489e-001
212 0 +1.086709086e+000 +2.283670909e+001 +2.283670909e+001 +2.8072e+000 +1.4132e+000 -3.6916e-001
342 0 +1.065601281e+000 +2.281560128e+001 +2.281560128e+001 +4.0499e+000 -7.1739e-002 -1.8632e+000
343 0 +9.729272103e-001 +2.272292721e+001 +2.272292721e+001 +3.8811e+000 +4.9447e-001 -1.1784e+000
345 0 +7.967987164e-001 +2.254679872e+001 +2.254679872e+001 +3.5540e+000 +1.1930e+000 -4.9742e-001
441 0 +4.859197849e-001 +2.223591978e+001 +2.223591978e+001 +3.4899e+000 +1.2969e+000 -4.2559e-001
458 0 +2.207205868e-001 +2.197072059e+001 +2.197072059e+001 +3.3909e+000 +1.5215e+000 -5.4914e-001
558 0 +1.805818029e-001 +2.193058180e+001 +2.193058180e+001 +3.6885e+000 +7.4619e-001 -1.0371e+000
562 0 +5.942644417e-002 +2.180942644e+001 +2.180942644e+001 +3.7650e+000 +8.1167e-001 -1.1003e+000
590 0 +5.718672323e-002 +2.180718672e+001 +2.180718672e+001 +3.8182e+000 +7.3702e-001 -1.1554e+000
622 0 +4.146837768e-002 +2.179146838e+001 +2.179146838e+001 +3.7926e+000 +7.8373e-001 -1.2117e+000
642 0 +2.306671322e-002 +2.177306671e+001 +2.177306671e+001 +3.8312e+000 +7.1317e-001 -1.2504e+000
648 0 +1.065601281e-002 +2.176065601e+001 +2.176065601e+001 +3.7903e+000 +7.6944e-001 -1.1883e+000
1068 0 +4.677033161e-007 +2.175000047e+001 +2.175000047e+001 +3.7693e+000 +8.3753e-001 -1.1213e+000
1076 0 +3.595130558e-007 +2.175000036e+001 +2.175000036e+001 +3.7658e+000 +8.5404e-001 -1.1049e+000
1078 0 +3.475037431e-007 +2.175000035e+001 +2.175000035e+001 +3.7766e+000 +8.5290e-001 -1.1027e+000
1080 0 +2.912266162e-007 +2.175000029e+001 +2.175000029e+001 +3.7771e+000 +8.5837e-001 -1.1042e+000
1082 0 +2.441363165e-007 +2.175000024e+001 +2.175000024e+001 +3.7754e+000 +8.6390e-001 -1.1041e+000
1087 0 +1.770654130e-007 +2.175000018e+001 +2.175000018e+001 +3.7742e+000 +9.0706e-001 -1.1126e+000
1096 0 +1.581953981e-007 +2.175000016e+001 +2.175000016e+001 +3.7755e+000 +9.0428e-001 -1.1143e+000
1098 0 +5.039437667e-008 +2.175000005e+001 +2.175000005e+001 +3.7772e+000 +8.8954e-001 -1.1255e+000
1120 0 +3.231761525e-010 +2.175000000e+001 +2.175000000e+001 +3.7728e+000 +8.8448e-001 -1.1291e+000
% f evaluations | g evaluations | best noise-free fitness - Fopt (6.479000000000e+001) + sum g_i+ | measured fitness | best measured fitness or single-digit g-values | x1 | x2...
1 0 +1.898443846e+003 +1.963233846e+003 +1.963233846e+003 +5.0000e+000 -5.0000e+000 +5.0000e+000
2 0 +5.018543128e+002 +5.666443128e+002 +5.666443128e+002 -5.0000e+000 -5.0000e+000 +5.0000e+000
9 0 +4.709678887e+001 +1.118867889e+002 +1.118867889e+002 -6.5548e-001 +3.2216e-001 +5.0000e+000
56 0 +4.672140330e+001 +1.115114033e+002 +1.115114033e+002 -6.1400e-001 +6.9748e-001 +5.0000e+000
93 0 +3.476913432e+001 +9.955913432e+001 +9.955913432e+001 -8.1095e-001 -7.1301e-001 +5.0000e+000
99 0 +2.587617076e+001 +9.066617076e+001 +9.066617076e+001 -8.9427e-001 -1.7098e+000 +5.0000e+000
172 0 +2.193728684e+001 +8.672728684e+001 +8.672728684e+001 -1.6515e+000 +1.1037e+000 -4.9844e+000
180 0 +2.140479131e+001 +8.619479131e+001 +8.619479131e+001 -1.6288e+000 -1.3832e+000 -2.6472e+000
182 0 +1.904123828e+001 +8.383123828e+001 +8.383123828e+001 -1.5762e+000 +1.6584e+000 -4.5887e+000
183 0 +2.361099200e+000 +6.715109920e+001 +6.715109920e+001 -1.7640e+000 -2.2419e+000 -1.2481e+000
186 0 +1.669737211e+000 +6.645973721e+001 +6.645973721e+001 -1.7503e+000 -2.1355e+000 -1.2481e+000
197 0 +1.487625863e+000 +6.627762586e+001 +6.627762586e+001 -1.6964e+000 -1.4143e+000 -1.2481e+000
245 0 +9.903786717e-001 +6.578037867e+001 +6.578037867e+001 -1.4495e+000 -1.4930e+000 -4.5498e-001
261 0 +3.719064659e-001 +6.516190647e+001 +6.516190647e+001 -1.8851e+000 -1.9012e+000 -4.5498e-001
312 0 +3.582677406e-002 +6.482582677e+001 +6.482582677e+001 -1.8723e+000 -2.0214e+000 -3.3366e-001
427 0 +2.376562524e-002 +6.481376563e+001 +6.481376563e+001 -1.8660e+000 -2.0446e+000 -2.1857e-001
512 0 +5.504590793e-003 +6.479550459e+001 +6.479550459e+001 -1.8602e+000 -2.0618e+000 -1.8218e-001
754 0 +4.794322450e-007 +6.479000048e+001 +6.479000048e+001 -1.8681e+000 -2.1142e+000 -1.5637e-001
755 0 +4.747766695e-007 +6.479000047e+001 +6.479000047e+001 -1.8675e+000 -2.1140e+000 -1.5618e-001
758 0 +9.901542342e-008 +6.479000010e+001 +6.479000010e+001 -1.8610e+000 -2.0943e+000 -1.2294e-001
766 0 +9.208811491e-008 +6.479000009e+001 +6.479000009e+001 -1.8602e+000 -2.0969e+000 -1.2063e-001
767 0 +6.426934362e-008 +6.479000006e+001 +6.479000006e+001 -1.8588e+000 -2.0895e+000 -1.2289e-001
769 0 +2.030751034e-008 +6.479000002e+001 +6.479000002e+001 -1.8502e+000 -2.0867e+000 -1.1839e-001
781 0 +2.922007525e-009 +6.479000000e+001 +6.479000000e+001 -1.8508e+000 -2.0901e+000 -1.1876e-001
% f evaluations | g evaluations | best noise-free fitness - Fopt (-1.000000000000e+003) + sum g_i+ | measured fitness | best measured fitness or single-digit g-values | x1 | x2...
1 0 +1.611839881e+003 +6.118398807e+002 +6.118398807e+002 -5.0000e+000 +5.0000e+000 +5.0000e+000
2 0 +5.240135069e+002 -4.759864931e+002 -4.759864931e+002 +5.0000e+000 +5.0000e+000 +5.0000e+000
3 0 +4.759308945e+002 -5.240691055e+002 -5.240691055e+002 -5.0000e+000 -5.0000e+000 +5.0000e+000
6 0 +2.058884120e+002 -7.941115880e+002 -7.941115880e+002 +8.3833e-001 +3.0540e+000 +2.2236e+000
13 0 +1.752061579e+002 -8.247938421e+002 -8.247938421e+002 -1.1359e+000 +1.3874e+000 +1.7790e+000
14 0 +1.599001287e+002 -8.400998713e+002 -8.400998713e+002 -1.1135e+000 +1.2716e+000 +1.6803e+000
15 0 +1.345189696e+002 -8.654810304e+002 -8.654810304e+002 -1.0988e+000 +1.1949e+000 +1.6125e+000
50 0 +2.414013794e+001 -9.758598621e+002 -9.758598621e+002 -4.3602e+000 -2.5355e+000 -4.2115e-001
79 0 +2.331518352e+001 -9.766848165e+002 -9.766848165e+002 -1.7746e+000 -3.7364e-001 -8.2952e-001
85 0 +1.577967738e+001 -9.842203226e+002 -9.842203226e+002 -3.1497e+000 -1.8045e+000 -1.5612e+000
98 0 +6.014856631e+000 -9.939851434e+002 -9.939851434e+002 -3.0757e+000 +5.4801e-001 -1.9374e+000
110 0 +1.531043137e+000 -9.984689569e+002 -9.984689569e+002 -3.4334e+000 -1.1472e+000 -1.8774e+000
129 0 +1.038914767e+000 -9.989610852e+002 -9.989610852e+002 -3.9628e+000 -1.2349e+000 -2.3935e+000
147 0 +9.716594271e-001 -9.990283406e+002 -9.990283406e+002 -4.0836e+000 -1.6292e+000 -1.7936e+000
183 0 +6.816870062e-001 -9.993183130e+002 -9.993183130e+002 -4.8619e+000 -2.1349e+000 -2.2071e+000
221 0 +5.318184950e-001 -9.994681815e+002 -9.994681815e+002 -4.4169e+000 -1.8410e+000 -2.3047e+000
247 0 +1.699910903e-001 -9.998300089e+002 -9.998300089e+002 -3.7126e+000 -9.8504e-001 -2.2367e+000
268 0 +8.035495906e-002 -9.999196450e+002 -9.999196450e+002 -3.5930e+000 -9.0902e-001 -2.2191e+000
290 0 +3.894044414e-002 -9.999610596e+002 -9.999610596e+002 -3.6887e+000 -1.1363e+000 -2.1935e+000
301 0 +2.968299949e-002 -9.999703170e+002 -9.999703170e+002 -3.9628e+000 -1.4046e+000 -2.1852e+000
309 0 +9.653086216e-003 -9.999903469e+002 -9.999903469e+002 -3.9790e+000 -1.4066e+000 -2.1353e+000
367 0 +6.816870062e-003 -9.999931831e+002 -9.999931831e+002 -3.9941e+000 -1.4258e+000 -2.1507e+000
733 0 +1.088300223e-007 -9.999999999e+002 -9.999999999e+002 -3.8712e+000 -1.3158e+000 -2.1587e+000
758 0 +2.216449957e-008 -1.000000000e+003 -1.000000000e+003 -3.8812e+000 -1.3127e+000 -2.1701e+000
776 0 +2.966089596e-009 -1.000000000e+003 -1.000000000e+003 -3.8824e+000 -1.3173e+000 -2.1639e+000
% f evaluations | g evaluations | best noise-free fitness - Fopt (1.640700000000e+002) + sum g_i+ | measured fitness | best measured fitness or single-digit g-values | x1 | x2...
1 0 +1.719762136e+003 +1.883832136e+003 +1.883832136e+003 -5.0000e+000 -5.0000e+000 -5.0000e+000
3 0 +6.798479264e+001 +2.320547926e+002 +2.320547926e+002 -5.0000e+000 +5.0000e+000 -5.0000e+000
10 0 +2.477357181e+001 +1.888435718e+002 +1.888435718e+002 -1.8062e+000 +2.8837e+000 -1.4463e+000
12 0 +1.772161661e+001 +1.817916166e+002 +1.817916166e+002 -1.8165e+000 +3.1416e+000 -1.4240e+000
95 0 +9.186392443e+000 +1.732563924e+002 +1.732563924e+002 -2.0751e+000 +3.7115e+000 -1.9018e+000
99 0 +8.628744940e+000 +1.726987449e+002 +1.726987449e+002 -1.8151e+000 +3.1356e+000 -1.8898e+000
101 0 +8.119499205e+000 +1.721894992e+002 +1.721894992e+002 -1.3102e+000 +3.1644e+000 -2.0181e+000
121 0 +3.284220547e+000 +1.673542205e+002 +1.673542205e+002 -2.8004e-001 +4.2710e+000 -2.5146e+000
125 0 +1.427217277e-001 +1.642127217e+002 +1.642127217e+002 -1.8162e+000 +4.0380e+000 -2.6389e+000
268 0 +1.313688219e-001 +1.642013688e+002 +1.642013688e+002 -1.6993e+000 +4.0160e+000 -2.6245e+000
290 0 +9.239277509e-002 +1.641623928e+002 +1.641623928e+002 -2.0941e+000 +3.8697e+000 -2.5784e+000
300 0 +6.617617358e-002 +1.641361762e+002 +1.641361762e+002 -2.1697e+000 +3.8877e+000 -2.6435e+000
323 0 +3.543990885e-002 +1.641054399e+002 +1.641054399e+002 -2.2336e+000 +3.9042e+000 -2.6457e+000
352 0 +7.327020749e-003 +1.640773270e+002 +1.640773270e+002 -2.0802e+000 +3.9339e+000 -2.6373e+000
462 0 +2.590711006e-007 +1.640700003e+002 +1.640700003e+002 -2.1839e+000 +3.9541e+000 -2.6537e+000
498 0 +1.846910891e-007 +1.640700002e+002 +1.640700002e+002 -2.1766e+000 +3.9520e+000 -2.6535e+000
508 0 +1.047318960e-007 +1.640700001e+002 +1.640700001e+002 -2.1685e+000 +3.9536e+000 -2.6520e+000
528 0 +1.854877496e-008 +1.640700000e+002 +1.640700000e+002 -2.1579e+000 +3.9288e+000 -2.6624e+000
555 0 +2.278937927e-009 +1.640700000e+002 +1.640700000e+002 -2.1600e+000 +3.9282e+000 -2.6630e+000
% f evaluations | g evaluations | best noise-free fitness - Fopt (-1.656800000000e+002) + sum g_i+ | measured fitness | best measured fitness or single-digit g-values | x1 | x2...
1 0 +9.918846705e+001 -6.649153295e+001 -6.649153295e+001 +5.0000e+000 -5.0000e+000 -5.0000e+000
7 0 +7.231934900e+001 -9.336065100e+001 -9.336065100e+001 +3.9367e+000 -4.9335e+000 -4.6959e+000
50 0 +6.369801641e+001 -1.019819836e+002 -1.019819836e+002 +3.9613e+000 -4.9335e+000 -4.6993e+000
74 0 +3.975249898e+001 -1.259275010e+002 -1.259275010e+002 +1.7097e+000 +3.1331e-001 +8.2420e-001
81 0 +3.836858400e+001 -1.273114160e+002 -1.273114160e+002 +1.5319e+000 +6.9065e-001 +1.2357e+000
86 0 +2.886409035e+001 -1.368159096e+002 -1.368159096e+002 +1.3972e+000 +6.9231e-001 +7.7458e-001
98 0 +9.638235119e+000 -1.560417649e+002 -1.560417649e+002 +1.1948e+000 -3.5586e-001 +1.1353e-001
102 0 +2.495213479e+000 -1.631847865e+002 -1.631847865e+002 -2.0634e+000 -3.5586e-001 +2.4911e+000
103 0 +2.253738289e+000 -1.634262617e+002 -1.634262617e+002 -2.6591e+000 -3.5586e-001 +2.9205e+000
139 0 +8.371286665e-001 -1.648428713e+002 -1.648428713e+002 -2.6713e+000 -3.7037e-001 +3.3981e+000
487 0 +6.313339650e-001 -1.650486660e+002 -1.650486660e+002 -1.8684e+000 -3.3032e-001 +2.5339e+000
491 0 +2.498254361e-001 -1.654301746e+002 -1.654301746e+002 -1.9306e+000 -2.5292e-001 +2.5802e+000
535 0 +1.801940702e-001 -1.654998059e+002 -1.654998059e+002 -1.3159e+000 -4.5317e-001 +1.6528e+000
616 0 +2.608860249e-002 -1.656539114e+002 -1.656539114e+002 -1.2045e+000 -4.2964e-001 +1.6408e+000
652 0 +2.093821129e-002 -1.656590618e+002 -1.656590618e+002 -1.1671e+000 -4.0594e-001 +1.6420e+000
673 0 +2.055907977e-002 -1.656594409e+002 -1.656594409e+002 -1.2259e+000 -4.4310e-001 +1.6860e+000
764 0 +8.371286665e-003 -1.656716287e+002 -1.656716287e+002 -1.1983e+000 -4.2387e-001 +1.7135e+000
1045 0 +6.904761942e-003 -1.656730952e+002 -1.656730952e+002 -1.0802e+000 -4.8669e-001 +1.5603e+000
1142 0 +3.562890925e-007 -1.656799996e+002 -1.656799996e+002 -1.0923e+000 -4.7028e-001 +1.5856e+000
1162 0 +3.253189220e-007 -1.656799997e+002 -1.656799997e+002 -1.0799e+000 -4.6164e-001 +1.5927e+000
1168 0 +2.718548160e-007 -1.656799997e+002 -1.656799997e+002 -1.0873e+000 -4.6368e-001 +1.5796e+000
1169 0 +2.353704076e-007 -1.656799998e+002 -1.656799998e+002 -1.0858e+000 -4.6592e-001 +1.5757e+000
1170 0 +2.340762251e-007 -1.656799998e+002 -1.656799998e+002 -1.0859e+000 -4.6616e-001 +1.5754e+000
1174 0 +6.791057672e-008 -1.656799999e+002 -1.656799999e+002 -1.0604e+000 -4.6606e-001 +1.5746e+000
1176 0 +6.603886504e-008 -1.656799999e+002 -1.656799999e+002 -1.0603e+000 -4.6624e-001 +1.5745e+000
1181 0 +4.224867212e-008 -1.656800000e+002 -1.656800000e+002 -1.0611e+000 -4.6752e-001 +1.5706e+000
1183 0 +2.332146209e-008 -1.656800000e+002 -1.656800000e+002 -1.0568e+000 -4.6971e-001 +1.5653e+000
1193 0 +1.458383281e-008 -1.656800000e+002 -1.656800000e+002 -1.0566e+000 -4.6992e-001 +1.5666e+000
1218 0 +1.304260877e-008 -1.656800000e+002 -1.656800000e+002 -1.0567e+000 -4.7031e-001 +1.5666e+000
1224 0 +2.989992254e-009 -1.656800000e+002 -1.656800000e+002 -1.0597e+000 -4.7236e-001 +1.5653e+000
% f evaluations | g evaluations | best noise-free fitness - Fopt (9.284000000000e+001) + sum g_i+ | measured fitness | best measured fitness or single-digit g-values | x1 | x2...
1 0 +5.247883624e+002 +6.176283624e+002 +6.176283624e+002 +5.0000e+000 -5.0000e+000 +5.0000e+000
4 0 +3.588446918e+002 +4.516846918e+002 +4.516846918e+002 +5.0000e+000 -5.0000e+000 -5.0000e+000
8 0 +4.684056049e+001 +1.396805605e+002 +1.396805605e+002 +5.0000e+000 -5.0000e+000 -2.3554e-002
46 0 +2.851125897e+001 +1.213512590e+002 +1.213512590e+002 +3.0005e+000 -4.6854e+000 -1.8386e-001
51 0 +1.805747741e+001 +1.108974774e+002 +1.108974774e+002 +3.0201e+000 -4.7488e+000 -4.1669e-001
52 0 +5.520670227e+000 +9.836067023e+001 +9.836067023e+001 +2.8675e+000 -3.0328e+000 -2.4396e+000
54 0 +1.230257437e+000 +9.407025744e+001 +9.407025744e+001 +2.3422e+000 -3.6475e+000 -2.7639e+000
399 0 +8.733279756e-001 +9.371332798e+001 +9.371332798e+001 +1.8885e+000 -3.3566e+000 -2.6404e+000
520 0 +8.440246278e-001 +9.368402463e+001 +9.368402463e+001 +2.1506e+000 -3.1073e+000 -2.5029e+000
583 0 +4.975215313e-001 +9.333752153e+001 +9.333752153e+001 +2.1448e+000 -3.1016e+000 -2.6366e+000
642 0 +3.075643593e-001 +9.314756436e+001 +9.314756436e+001 +2.1384e+000 -3.1585e+000 -2.6616e+000
740 0 +1.839121334e-001 +9.302391213e+001 +9.302391213e+001 +1.9449e+000 -2.5767e+000 -3.3293e+000
944 0 +6.400381790e-002 +9.290400382e+001 +9.290400382e+001 +2.0012e+000 -2.2822e+000 -3.5291e+000
967 0 +1.705967368e-002 +9.285705967e+001 +9.285705967e+001 +1.9458e+000 -1.9601e+000 -3.6684e+000
981 0 +1.635729102e-002 +9.285635729e+001 +9.285635729e+001 +1.9497e+000 -1.9422e+000 -3.6808e+000
984 0 +1.230257437e-002 +9.285230257e+001 +9.285230257e+001 +1.9556e+000 -1.9265e+000 -3.6864e+000
1034 0 +5.123329659e-003 +9.284512333e+001 +9.284512333e+001 +2.0096e+000 -2.0443e+000 -3.5639e+000
1063 0 +2.272759900e-007 +9.284000023e+001 +9.284000023e+001 +2.0000e+000 -2.0835e+000 -3.5739e+000
1098 0 +1.426629552e-007 +9.284000014e+001 +9.284000014e+001 +2.0013e+000 -2.0715e+000 -3.5771e+000
1135 0 +1.238405360e-007 +9.284000012e+001 +9.284000012e+001 +1.9935e+000 -2.0821e+000 -3.5836e+000
1167 0 +4.631854722e-008 +9.284000005e+001 +9.284000005e+001 +1.9945e+000 -2.0632e+000 -3.5928e+000
1175 0 +1.773376823e-008 +9.284000002e+001 +9.284000002e+001 +1.9950e+000 -2.0691e+000 -3.5888e+000
1201 0 +1.535781280e-009 +9.284000000e+001 +9.284000000e+001 +1.9946e+000 -2.0673e+000 -3.5899e+000
% f evaluations | g evaluations | best noise-free fitness - Fopt (-3.679200000000e+002) + sum g_i+ | measured fitness | best measured fitness or single-digit g-values | x1 | x2...
1 0 +1.657638016e+003 +1.289718016e+003 +1.289718016e+003 +5.0000e+000 +5.0000e+000 -5.0000e+000
3 0 +2.624860502e+002 -1.054339498e+002 -1.054339498e+002 +5.0000e+000 -5.0000e+000 -5.0000e+000
4 0 +1.011469765e+002 -2.667730235e+002 -2.667730235e+002 +5.0000e+000 +5.0000e+000 +5.0000e+000
9 0 +1.165204345e+001 -3.562679566e+002 -3.562679566e+002 +4.9289e+000 -3.2982e-001 +7.2671e-001
10 0 +8.073649744e+000 -3.598463503e+002 -3.598463503e+002 +3.5127e+000 -5.6486e-001 +6.7637e-001
68 0 +7.820979702e+000 -3.600990203e+002 -3.600990203e+002 +3.6605e+000 -6.2520e-001 +7.0166e-001
83 0 +4.753980899e+000 -3.631660191e+002 -3.631660191e+002 +3.9884e+000 +5.0545e-001 +1.6844e+000
1277 0 +1.665323103e+000 -3.662546769e+002 -3.662546769e+002 +2.3526e+000 -3.8846e-001 +2.2317e+000
1286 0 +7.615771819e-001 -3.671584228e+002 -3.671584228e+002 +1.8225e+000 -3.6543e-001 +2.2052e+000
1332 0 +3.980986809e-001 -3.675219013e+002 -3.675219013e+002 +4.3799e-001 -1.0585e+000 +2.2205e+000
1335 0 +1.967707122e-001 -3.677232293e+002 -3.677232293e+002 +5.5578e-001 -1.0668e+000 +2.2237e+000
1371 0 +1.721303026e-001 -3.677478697e+002 -3.677478697e+002 +5.1267e-001 -1.0918e+000 +2.2279e+000
1689 0 +1.260272183e-001 -3.677939728e+002 -3.677939728e+002 +3.7754e-001 -1.0558e+000 +2.4096e+000
1750 0 +2.361125525e-002 -3.678963887e+002 -3.678963887e+002 +9.4055e-001 -7.7759e-001 +2.3725e+000
1826 0 +2.248862704e-002 -3.678975114e+002 -3.678975114e+002 +7.0651e-001 -8.8643e-001 +2.3898e+000
1833 0 +1.649692802e-002 -3.679035031e+002 -3.679035031e+002 +7.5758e-001 -8.4728e-001 +2.4092e+000
1887 0 +5.849366366e-003 -3.679141506e+002 -3.679141506e+002 +8.2494e-001 -8.0272e-001 +2.3981e+000
1916 0 +4.400521902e-008 -3.679200000e+002 -3.679200000e+002 +8.3786e-001 -7.8408e-001 +2.4030e+000
1941 0 +4.287420552e-008 -3.679200000e+002 -3.679200000e+002 +8.3787e-001 -7.8425e-001 +2.4028e+000
1953 0 +1.149265927e-008 -3.679200000e+002 -3.679200000e+002 +8.4212e-001 -7.8522e-001 +2.4046e+000
2003 0 +2.537035471e-009 -3.679200000e+002 -3.679200000e+002 +8.4313e-001 -7.8481e-001 +2.4045e+000
% f evaluations | g evaluations | best noise-free fitness - Fopt (4.950000000000e+001) + sum g_i+ | measured fitness | best measured fitness or single-digit g-values | x1 | x2...
1 0 +1.240534783e+003 +1.290034783e+003 +1.290034783e+003 -5.0000e+000 -5.0000e+000 -5.0000e+000
2 0 +3.545346827e+002 +4.040346827e+002 +4.040346827e+002 +5.0000e+000 -5.0000e+000 -5.0000e+000
3 0 +1.854488432e+002 +2.349488432e+002 +2.349488432e+002 -5.0000e+000 +5.0000e+000 -5.0000e+000
4 0 +8.684038690e+001 +1.363403869e+002 +1.363403869e+002 -5.0000e+000 -5.0000e+000 +5.0000e+000
48 0 +5.469321342e+001 +1.041932134e+002 +1.041932134e+002 -4.8926e+000 -3.1216e+000 +7.7344e-001
58 0 +3.574974760e+001 +8.524974760e+001 +8.524974760e+001 -4.7218e+000 -2.9658e+000 +1.1143e+000
74 0 +1.556238148e+001 +6.506238148e+001 +6.506238148e+001 -3.4972e+000 -2.8749e+000 +7.5204e-001
78 0 +1.228626399e+001 +6.178626399e+001 +6.178626399e+001 -3.4849e+000 -3.5818e+000 +8.4396e-001
80 0 +4.622449773e+000 +5.412244977e+001 +5.412244977e+001 -1.6706e+000 -3.0946e+000 -1.4085e+000
121 0 +5.297263592e-001 +5.002972636e+001 +5.002972636e+001 -2.4891e+000 -2.5481e+000 -1.4067e+000
149 0 +3.009167738e-001 +4.980091677e+001 +4.980091677e+001 -2.3503e+000 -2.5216e+000 -1.5119e+000
196 0 +2.336272230e-001 +4.973362722e+001 +4.973362722e+001 -2.8188e+000 -2.2078e+000 -1.6467e+000
2693 0 +1.262359593e-001 +4.962623596e+001 +4.962623596e+001 -2.7727e+000 -1.3940e+000 -2.5342e+000
2697 0 +3.536916511e-002 +4.953536917e+001 +4.953536917e+001 -2.8155e+000 -1.7911e+000 -2.0670e+000
2806 0 +5.297263592e-003 +4.950529726e+001 +4.950529726e+001 -2.8397e+000 -1.5769e+000 -2.3313e+000
3028 0 +1.072675460e-007 +4.950000011e+001 +4.950000011e+001 -2.8381e+000 -1.5464e+000 -2.3834e+000
3065 0 +8.908283888e-008 +4.950000009e+001 +4.950000009e+001 -2.8458e+000 -1.5422e+000 -2.3777e+000
3086 0 +5.476781695e-008 +4.950000005e+001 +4.950000005e+001 -2.8444e+000 -1.5339e+000 -2.3923e+000
3093 0 +4.727370140e-008 +4.950000005e+001 +4.950000005e+001 -2.8448e+000 -1.5341e+000 -2.3911e+000
3173 0 +5.606459297e-009 +4.950000001e+001 +4.950000001e+001 -2.8352e+000 -1.5360e+000 -2.3908e+000
% f evaluations | g evaluations | best noise-free fitness - Fopt (-1.277000000000e+001) + sum g_i+ | measured fitness | best measured fitness or single-digit g-values | x1 | x2...
1 0 +1.547674634e+003 +1.534904634e+003 +1.534904634e+003 -5.0000e+000 -5.0000e+000 +5.0000e+000
2 0 +4.067629790e+002 +3.939929790e+002 +3.939929790e+002 +5.0000e+000 -5.0000e+000 +5.0000e+000
8 0 +8.047093681e+001 +6.770093681e+001 +6.770093681e+001 +2.8644e-016 +5.0000e+000 +1.4188e-015
11 0 +6.601490667e+001 +5.324490667e+001 +5.324490667e+001 +1.9766e+000 +2.4263e+000 +2.6698e+000
14 0 +3.660394893e+001 +2.383394893e+001 +2.383394893e+001 +1.6957e+000 +2.2304e+000 +2.7089e+000
51 0 +2.011865846e+000 -1.075813415e+001 -1.075813415e+001 +1.6935e+000 +2.2289e+000 +1.6828e+000
90 0 +2.509601325e-001 -1.251903987e+001 -1.251903987e+001 +1.3666e+000 +1.9964e+000 +1.7353e+000
102 0 +9.729940994e-002 -1.267270059e+001 -1.267270059e+001 +1.3558e+000 +1.9892e+000 +1.7376e+000
122 0 +9.133645272e-002 -1.267866355e+001 -1.267866355e+001 +1.3702e+000 +1.9997e+000 +1.6612e+000
153 0 +7.497700287e-002 -1.269502300e+001 -1.269502300e+001 +1.2902e+000 +2.0141e+000 +1.7242e+000
187 0 +4.821037797e-002 -1.272178962e+001 -1.272178962e+001 +1.2867e+000 +2.0417e+000 +1.6586e+000
243 0 +3.154536127e-002 -1.273845464e+001 -1.273845464e+001 +1.0979e+000 +2.0937e+000 +1.6057e+000
282 0 +2.849953910e-002 -1.274150046e+001 -1.274150046e+001 +1.3426e+000 +1.9436e+000 +1.6766e+000
289 0 +2.234663209e-002 -1.274765337e+001 -1.274765337e+001 +1.2372e+000 +1.9958e+000 +1.6779e+000
327 0 +1.085721993e-002 -1.275914278e+001 -1.275914278e+001 +1.2408e+000 +1.9911e+000 +1.6766e+000
386 0 +5.586658023e-003 -1.276441334e+001 -1.276441334e+001 +1.2644e+000 +1.9680e+000 +1.7111e+000
462 0 +2.924439304e-007 -1.276999971e+001 -1.276999971e+001 +1.3471e+000 +1.8642e+000 +1.8080e+000
463 0 +2.538571877e-007 -1.276999975e+001 -1.276999975e+001 +1.3035e+000 +1.9067e+000 +1.7959e+000
543 0 +1.492013872e-007 -1.276999985e+001 -1.276999985e+001 +1.3094e+000 +1.9005e+000 +1.8022e+000
559 0 +1.325586947e-007 -1.276999987e+001 -1.276999987e+001 +1.3242e+000 +1.8810e+000 +1.8166e+000
567 0 +4.046433766e-008 -1.276999996e+001 -1.276999996e+001 +1.3238e+000 +1.8833e+000 +1.8041e+000
666 0 +3.104966950e-008 -1.276999997e+001 -1.276999997e+001 +1.3216e+000 +1.8848e+000 +1.7953e+000
670 0 +6.189864621e-009 -1.276999999e+001 -1.276999999e+001 +1.3274e+000 +1.8899e+000 +1.8013e+000
% f evaluations | g evaluations | best noise-free fitness - Fopt (6.365000000000e+001) + sum g_i+ | measured fitness | best measured fitness or single-digit g-values | x1 | x2...
1 0 +3.283751119e+003 +3.347401119e+003 +3.347401119e+003 -5.0000e+000 -5.0000e+000 -5.0000e+000
2 0 +2.213014628e+001 +8.578014628e+001 +8.578014628e+001 +5.0000e+000 -5.0000e+000 -5.0000e+000
6 0 +1.773722151e+001 +8.138722151e+001 +8.138722151e+001 +3.2778e+000 -1.5015e+000 -4.2908e+000
51 0 +1.628242591e+001 +7.993242591e+001 +7.993242591e+001 +3.2778e+000 -1.4633e+000 -3.9816e+000
78 0 +9.261106508e+000 +7.291110651e+001 +7.291110651e+001 +3.4067e+000 -2.3977e+000 -3.8463e+000
83 0 +3.283076307e+000 +6.693307631e+001 +6.693307631e+001 +5.4767e-001 -1.0055e+000 -2.2039e+000
97 0 +2.619368375e+000 +6.626936838e+001 +6.626936838e+001 +7.3485e-001 -1.6311e+000 -2.2154e+000
118 0 +2.228844146e+000 +6.587884415e+001 +6.587884415e+001 +2.1608e-001 -1.6611e+000 -1.8441e+000
224 0 +2.026155131e+000 +6.567615513e+001 +6.567615513e+001 -1.0350e+000 -2.4769e-001 -1.2275e+000
270 0 +7.149204838e-001 +6.436492048e+001 +6.436492048e+001 -5.3513e-001 +2.5670e-001 -1.7237e+000
290 0 +2.901974312e-001 +6.394019743e+001 +6.394019743e+001 -1.5771e+000 +1.6148e-001 -9.2798e-001
396 0 +2.116233280e-001 +6.386162333e+001 +6.386162333e+001 -2.2856e+000 +1.0897e+000 -7.0673e-001
413 0 +1.823388481e-002 +6.366823388e+001 +6.366823388e+001 -2.1025e+000 +1.1473e+000 -8.0104e-001
637 0 +2.954696825e-007 +6.365000030e+001 +6.365000030e+001 -2.2336e+000 +1.2364e+000 -7.2123e-001
643 0 +1.509658176e-007 +6.365000015e+001 +6.365000015e+001 -2.2763e+000 +1.2230e+000 -6.9264e-001
685 0 +1.281693329e-007 +6.365000013e+001 +6.365000013e+001 -2.2738e+000 +1.2249e+000 -6.9436e-001
698 0 +5.262946701e-008 +6.365000005e+001 +6.365000005e+001 -2.2682e+000 +1.2203e+000 -6.9759e-001
738 0 +1.515793713e-009 +6.365000000e+001 +6.365000000e+001 -2.2638e+000 +1.2205e+000 -7.0074e-001
% f evaluations | g evaluations | best noise-free fitness - Fopt (6.991900000000e+002) + sum g_i+ | measured fitness | best measured fitness or single-digit g-values | x1 | x2...
1 0 +2.830799209e+003 +3.529989209e+003 +3.529989209e+003 -5.0000e+000 +5.0000e+000 +5.0000e+000
2 0 +4.450047990e+002 +1.144194799e+003 +1.144194799e+003 +5.0000e+000 +5.0000e+000 +5.0000e+000
6 0 +3.844207816e+002 +1.083610782e+003 +1.083610782e+003 -4.0448e-001 -2.6472e+000 -4.4428e+000
9 0 +1.894866053e+002 +8.886766053e+002 +8.886766053e+002 +4.3859e-001 -2.6070e+000 +5.0000e+000
10 0 +1.506079544e+002 +8.497979544e+002 +8.497979544e+002 +9.6445e-001 -5.0000e+000 +3.7964e+000
11 0 +1.170934262e+002 +8.162834262e+002 +8.162834262e+002 +1.1966e+000 -2.4519e+000 +3.5829e+000
71 0 +1.033989086e+002 +8.025889086e+002 +8.025889086e+002 +8.5665e-001 -7.0325e-001 +2.5415e+000
75 0 +9.301930790e+001 +7.922093079e+002 +7.922093079e+002 +9.2220e-001 -1.1402e+000 +2.5595e+000
76 0 +6.688310604e+001 +7.660731060e+002 +7.660731060e+002 +1.2664e+000 -1.8956e+000 +2.1935e+000
79 0 +5.338374082e+001 +7.525737408e+002 +7.525737408e+002 +1.1612e+000 -1.2096e+000 +1.8929e+000
87 0 +4.222177346e+001 +7.414117735e+002 +7.414117735e+002 +1.1251e+000 -3.3195e+000 +1.5908e+000
90 0 +1.183129354e+001 +7.110212935e+002 +7.110212935e+002 +1.1983e+000 -2.8995e+000 +4.4706e-001
92 0 +2.795089378e+000 +7.019850894e+002 +7.019850894e+002 +1.2919e+000 -2.4900e+000 -8.1143e-001
191 0 +2.103475263e+000 +7.012934753e+002 +7.012934753e+002 +1.4126e+000 -2.4905e+000 -1.3339e+000
674 0 +1.217180982e+000 +7.004071810e+002 +7.004071810e+002 +2.3378e+000 -1.0522e+000 -1.0865e+000
685 0 +7.383032537e-001 +6.999283033e+002 +6.999283033e+002 +2.2156e+000 -1.2411e+000 -1.2951e+000
712 0 +4.376570744e-001 +6.996276571e+002 +6.996276571e+002 +2.7272e+000 -2.8197e-001 -1.4737e+000
724 0 +2.736096811e-001 +6.994636097e+002 +6.994636097e+002 +2.7461e+000 -1.7962e-001 -1.6148e+000
739 0 +2.113701081e-001 +6.994013701e+002 +6.994013701e+002 +3.0689e+000 +4.6562e-001 -2.0166e+000
758 0 +1.408454714e-001 +6.993308455e+002 +6.993308455e+002 +3.0341e+000 +4.0771e-001 -1.9927e+000
770 0 +1.064864301e-001 +6.992964864e+002 +6.992964864e+002 +3.0947e+000 +5.0924e-001 -1.9833e+000
772 0 +3.521136784e-002 +6.992252114e+002 +6.992252114e+002 +3.1263e+000 +5.0608e-001 -2.0003e+000
797 0 +7.383032537e-003 +6.991973830e+002 +6.991973830e+002 +3.0706e+000 +3.8798e-001 -1.9474e+000
1026 0 +2.565492423e-007 +6.991900003e+002 +6.991900003e+002 +3.1543e+000 +5.3244e-001 -2.0017e+000
1030 0 +3.202558219e-009 +6.991900000e+002 +6.991900000e+002 +3.1578e+000 +5.6266e-001 -2.0041e+000
% f evaluations | g evaluations | best noise-free fitness - Fopt (1.000000000000e+003) + sum g_i+ | measured fitness | best measured fitness or single-digit g-values | x1 | x2...
1 0 +2.214682150e+003 +3.214682150e+003 +3.214682150e+003 -5.0000e+000 -5.0000e+000 +5.0000e+000
2 0 +1.203382343e+002 +1.120338234e+003 +1.120338234e+003 +5.0000e+000 -5.0000e+000 +5.0000e+000
10 0 +1.332301782e+001 +1.013323018e+003 +1.013323018e+003 +4.1702e-001 -2.2250e+000 +6.8580e-001
54 0 +7.329196749e+000 +1.007329197e+003 +1.007329197e+003 +1.1706e+000 -1.9405e+000 +5.7722e-001
100 0 +5.715605848e+000 +1.005715606e+003 +1.005715606e+003 +9.7474e-001 -1.4258e+000 +5.8782e-001
111 0 +3.731921551e+000 +1.003731922e+003 +1.003731922e+003 +1.2950e+000 -7.7998e-001 +6.3167e-001
128 0 +2.914843556e+000 +1.002914844e+003 +1.002914844e+003 +1.7614e+000 +7.7472e-003 +5.9772e-001
140 0 +1.654584345e+000 +1.001654584e+003 +1.001654584e+003 +1.4662e+000 -2.9733e-001 +7.9850e-001
154 0 +1.385364274e+000 +1.001385364e+003 +1.001385364e+003 +1.0461e+000 -1.7015e-001 +4.8065e-001
155 0 +1.149668019e+000 +1.001149668e+003 +1.001149668e+003 +7.8794e-001 -3.9564e-001 +4.5805e-001
192 0 +1.128294354e+000 +1.001128294e+003 +1.001128294e+003 +9.0853e-001 -3.5655e-001 +4.8682e-001
197 0 +9.296441993e-001 +1.000929644e+003 +1.000929644e+003 +9.5014e-001 -1.8394e-001 +4.9032e-001
326 0 +9.113606962e-001 +1.000911361e+003 +1.000911361e+003 +9.7199e-001 -1.3182e-001 +4.8854e-001
543 0 +6.111362496e-001 +1.000611136e+003 +1.000611136e+003 -1.2878e+000 +3.4936e-001 -1.0326e+000
545 0 +4.002299555e-001 +1.000400230e+003 +1.000400230e+003 -1.1304e+000 +4.9194e-001 -9.8379e-001
577 0 +2.931678700e-001 +1.000293168e+003 +1.000293168e+003 -2.4672e-001 +1.1249e-002 -3.0350e-001
595 0 +2.847571715e-001 +1.000284757e+003 +1.000284757e+003 -2.9758e-001 +2.0511e-001 -2.7355e-001
620 0 +1.708207438e-001 +1.000170821e+003 +1.000170821e+003 -7.5322e-001 +2.0520e-001 -5.9750e-001
639 0 +1.581075078e-001 +1.000158108e+003 +1.000158108e+003 -7.5175e-001 +3.2073e-001 -6.0664e-001
645 0 +1.237768138e-001 +1.000123777e+003 +1.000123777e+003 -1.0836e+000 +5.7842e-001 -8.6635e-001
675 0 +1.050687496e-001 +1.000105069e+003 +1.000105069e+003 -9.7045e-001 +6.1808e-001 -8.2323e-001
711 0 +1.403884016e-003 +1.000001404e+003 +1.000001404e+003 -5.5345e-001 +4.9630e-001 -5.0415e-001
739 0 +3.588393156e-007 +1.000000000e+003 +1.000000000e+003 -4.9985e-001 +4.7173e-001 -4.6990e-001
792 0 +3.505107316e-007 +1.000000000e+003 +1.000000000e+003 -4.9677e-001 +4.6905e-001 -4.6803e-001
842 0 +3.059327582e-007 +1.000000000e+003 +1.000000000e+003 -5.2656e-001 +4.8431e-001 -4.9420e-001
934 0 +2.613171546e-007 +1.000000000e+003 +1.000000000e+003 -5.2634e-001 +4.8192e-001 -5.0053e-001
938 0 +8.227198123e-008 +1.000000000e+003 +1.000000000e+003 -5.1545e-001 +4.5749e-001 -4.9845e-001
979 0 +6.458935786e-008 +1.000000000e+003 +1.000000000e+003 -5.2135e-001 +4.5921e-001 -5.0293e-001
1005 0 +6.409402431e-008 +1.000000000e+003 +1.000000000e+003 -5.2162e-001 +4.5930e-001 -5.0309e-001
1015 0 +2.903345830e-008 +1.000000000e+003 +1.000000000e+003 -5.0292e-001 +4.5021e-001 -5.0436e-001
1030 0 +2.667434273e-008 +1.000000000e+003 +1.000000000e+003 -5.0350e-001 +4.5030e-001 -5.0478e-001
1081 0 +1.983664788e-008 +1.000000000e+003 +1.000000000e+003 -5.0143e-001 +4.4720e-001 -5.0084e-001
1103 0 +1.687476470e-008 +1.000000000e+003 +1.000000000e+003 -5.1035e-001 +4.4989e-001 -5.0157e-001
1123 0 +3.564878170e-009 +1.000000000e+003 +1.000000000e+003 -5.1030e-001 +4.4769e-001 -4.9999e-001
