% f evaluations | g evaluations | best noise-free fitness - Fopt (-2.098800000000e+002) + sum g_i+ | measured fitness | best measured fitness or single-digit g-values | x1 | x2...
1 0 +1.302462180e+006 +1.302252300e+006 +1.302252300e+006 -5.1699e-001 -6.5042e-001
5 0 +5.001542938e+005 +4.999444138e+005 +4.999444138e+005 +4.9801e+000 +1.1700e+000
6 0 +1.251575374e+003 +1.041695374e+003 +1.041695374e+003 -5.0000e+000 +4.1482e-001
30 0 +3.312711044e+002 +1.213911044e+002 +1.213911044e+002 -3.6283e+000 +4.3070e-001
32 0 +2.996776735e+002 +8.979767347e+001 +8.979767347e+001 -3.3651e+000 +4.3162e-001
55 0 +1.162326664e+002 -9.364733360e+001 -9.364733360e+001 -4.8307e+000 +4.3826e-001
56 0 +1.135496353e+002 -9.633036474e+001 -9.633036474e+001 -4.9648e+000 +4.3845e-001
57 0 +3.440488421e+001 -1.754751158e+002 -1.754751158e+002 -5.0000e+000 +4.4785e-001
61 0 +1.431728663e+001 -1.955627134e+002 -1.955627134e+002 -2.5689e+000 +4.4785e-001
73 0 +7.730829541e+000 -2.021491705e+002 -2.021491705e+002 -1.5293e+000 +4.4711e-001
97 0 +5.140458826e+000 -2.047395412e+002 -2.047395412e+002 -7.3134e-001 +4.4687e-001
98 0 +5.081358517e+000 -2.047986415e+002 -2.047986415e+002 -7.3265e-001 +4.4689e-001
106 0 +3.368033454e+000 -2.065119665e+002 -2.065119665e+002 +5.0587e-001 +4.4625e-001
110 0 +1.853863658e+000 -2.080261363e+002 -2.080261363e+002 +4.2721e-001 +4.4683e-001
116 0 +1.280756469e+000 -2.085992435e+002 -2.085992435e+002 +8.6614e-001 +4.4690e-001
119 0 +7.155108593e-001 -2.091644891e+002 -2.091644891e+002 +9.2811e-001 +4.4716e-001
125 0 +1.076778525e-001 -2.097723221e+002 -2.097723221e+002 +1.2460e+000 +4.4767e-001
127 0 +9.988436538e-002 -2.097801156e+002 -2.097801156e+002 +1.2341e+000 +4.4768e-001
142 0 +5.316707069e-002 -2.098268329e+002 -2.098268329e+002 +1.3857e+000 +4.4786e-001
157 0 +4.378771651e-002 -2.098362123e+002 -2.098362123e+002 +1.2962e+000 +4.4780e-001
172 0 +3.630485322e-002 -2.098436951e+002 -2.098436951e+002 +1.2515e+000 +4.4780e-001
175 0 +3.422303525e-002 -2.098457770e+002 -2.098457770e+002 +1.2875e+000 +4.4783e-001
184 0 +2.301281006e-002 -2.098569872e+002 -2.098569872e+002 +1.2932e+000 +4.4788e-001
188 0 +3.053715707e-003 -2.098769463e+002 -2.098769463e+002 +1.2193e+000 +4.4805e-001
197 0 +2.369416468e-003 -2.098776306e+002 -2.098776306e+002 +1.1892e+000 +4.4804e-001
206 0 +2.112575577e-003 -2.098778874e+002 -2.098778874e+002 +1.1903e+000 +4.4804e-001
232 0 +1.623201003e-003 -2.098783768e+002 -2.098783768e+002 +1.1870e+000 +4.4804e-001
240 0 +1.261833369e-003 -2.098787382e+002 -2.098787382e+002 +1.1875e+000 +4.4803e-001
254 0 +1.697370368e-004 -2.098798303e+002 -2.098798303e+002 +1.2104e+000 +4.4801e-001
259 0 +1.629318511e-004 -2.098798371e+002 -2.098798371e+002 +1.2104e+000 +4.4801e-001
274 0 +1.507062743e-004 -2.098798493e+002 -2.098798493e+002 +1.2192e+000 +4.4800e-001
279 0 +1.435680635e-004 -2.098798564e+002 -2.098798564e+002 +1.2152e+000 +4.4801e-001
287 0 +1.080932228e-004 -2.098798919e+002 -2.098798919e+002 +1.1971e+000 +4.4800e-001
295 0 +1.019183954e-004 -2.098798981e+002 -2.098798981e+002 +1.1983e+000 +4.4799e-001
303 0 +9.426804760e-005 -2.098799057e+002 -2.098799057e+002 +1.2125e+000 +4.4799e-001
311 0 +5.369150330e-006 -2.098799946e+002 -2.098799946e+002 +1.2061e+000 +4.4800e-001
320 0 +1.711051056e-006 -2.098799983e+002 -2.098799983e+002 +1.2060e+000 +4.4800e-001
321 0 +9.132179457e-008 -2.098799999e+002 -2.098799999e+002 +1.2071e+000 +4.4800e-001
336 0 +7.313170158e-008 -2.098799999e+002 -2.098799999e+002 +1.2071e+000 +4.4800e-001
349 0 +5.818318982e-008 -2.098799999e+002 -2.098799999e+002 +1.2071e+000 +4.4800e-001
383 0 +3.040256047e-008 -2.098800000e+002 -2.098800000e+002 +1.2070e+000 +4.4800e-001
396 0 +1.211270728e-008 -2.098800000e+002 -2.098800000e+002 +1.2071e+000 +4.4800e-001
399 0 +1.112368864e-008 -2.098800000e+002 -2.098800000e+002 +1.2072e+000 +4.4800e-001
415 0 +7.724707984e-009 -2.098800000e+002 -2.098800000e+002 +1.2072e+000 +4.4800e-001
% f evaluations | g evaluations | best noise-free fitness - Fopt (-9.209000000000e+001) + sum g_i+ | measured fitness | best measured fitness or single-digit g-values | x1 | x2...
1 0 +1.599374855e+004 +1.590165855e+004 +1.590165855e+004 -1.8230e+000 +2.4990e+000
6 0 +2.115121284e+003 +2.023031284e+003 +2.023031284e+003 -9.4970e-001 +2.5785e+000
8 0 +3.666147000e+001 -5.542853000e+001 -5.542853000e+001 -1.0902e+000 +2.6160e+000
30 0 +6.609556862e+000 -8.548044314e+001 -8.548044314e+001 -1.4392e+000 +2.6231e+000
56 0 +8.156249676e-001 -9.127437503e+001 -9.127437503e+001 +1.9366e-001 +2.6208e+000
69 0 +3.459941148e-001 -9.174400589e+001 -9.174400589e+001 +9.7213e-002 +2.6215e+000
136 0 +2.670630456e-001 -9.182293695e+001 -9.182293695e+001 +1.9441e-001 +2.6216e+000
138 0 +3.696692965e-002 -9.205303307e+001 -9.205303307e+001 +5.9881e-001 +2.6215e+000
145 0 +3.711685014e-003 -9.208628831e+001 -9.208628831e+001 +7.0712e-001 +2.6215e+000
147 0 +2.834775312e-003 -9.208716522e+001 -9.208716522e+001 +7.1188e-001 +2.6216e+000
167 0 +1.504183029e-004 -9.208984958e+001 -9.208984958e+001 +7.1341e-001 +2.6216e+000
176 0 +6.411964885e-005 -9.208993588e+001 -9.208993588e+001 +7.1696e-001 +2.6216e+000
220 0 +6.098931497e-005 -9.208993901e+001 -9.208993901e+001 +7.1714e-001 +2.6216e+000
223 0 +3.848272699e-005 -9.208996152e+001 -9.208996152e+001 +7.1980e-001 +2.6216e+000
228 0 +3.647766221e-006 -9.208999635e+001 -9.208999635e+001 +7.2469e-001 +2.6216e+000
230 0 +3.104311105e-006 -9.208999690e+001 -9.208999690e+001 +7.2452e-001 +2.6216e+000
250 0 +7.415459322e-007 -9.208999926e+001 -9.208999926e+001 +7.2562e-001 +2.6216e+000
252 0 +2.225948492e-007 -9.208999978e+001 -9.208999978e+001 +7.2517e-001 +2.6216e+000
265 0 +5.765662081e-008 -9.208999994e+001 -9.208999994e+001 +7.2552e-001 +2.6216e+000
302 0 +4.679917254e-008 -9.208999995e+001 -9.208999995e+001 +7.2561e-001 +2.6216e+000
310 0 +3.078933730e-008 -9.208999997e+001 -9.208999997e+001 +7.2562e-001 +2.6216e+000
316 0 +2.293414525e-008 -9.208999998e+001 -9.208999998e+001 +7.2559e-001 +2.6216e+000
320 0 +2.034430224e-008 -9.208999998e+001 -9.208999998e+001 +7.2575e-001 +2.6216e+000
324 0 +9.960388070e-010 -9.209000000e+001 -9.209000000e+001 +7.2559e-001 +2.6216e+000
% f evaluations | g evaluations | best noise-free fitness - Fopt (-8.789000000000e+001) + sum g_i+ | measured fitness | best measured fitness or single-digit g-values | x1 | x2...
1 0 +9.999831706e+004 +9.991042706e+004 +9.991042706e+004 +4.2149e+000 +3.3344e+000
8 0 +8.138574029e+000 -7.975142597e+001 -7.975142597e+001 +1.3749e+000 +3.6482e+000
12 0 +1.347342472e+000 -8.654265753e+001 -8.654265753e+001 -5.3126e-001 +3.6446e+000
66 0 +7.432129427e-002 -8.781567871e+001 -8.781567871e+001 -2.2256e-002 +3.6455e+000
133 0 +6.773329635e-002 -8.782226670e+001 -8.782226670e+001 +1.0040e-001 +3.6458e+000
149 0 +4.566549466e-002 -8.784433451e+001 -8.784433451e+001 +3.6301e-002 +3.6457e+000
173 0 +3.304800782e-002 -8.785695199e+001 -8.785695199e+001 +1.0040e-001 +3.6457e+000
185 0 +3.182357595e-002 -8.785817642e+001 -8.785817642e+001 +9.8799e-002 +3.6457e+000
190 0 +3.005906778e-002 -8.785994093e+001 -8.785994093e+001 +7.8150e-002 +3.6456e+000
196 0 +1.365639969e-002 -8.787634360e+001 -8.787634360e+001 +1.2450e-001 +3.6456e+000
199 0 +1.194752518e-002 -8.787805247e+001 -8.787805247e+001 +1.3020e-001 +3.6456e+000
201 0 +2.549793371e-003 -8.788745021e+001 -8.788745021e+001 +1.9344e-001 +3.6456e+000
208 0 +8.999034120e-004 -8.788910010e+001 -8.788910010e+001 +2.1925e-001 +3.6456e+000
213 0 +4.756160445e-004 -8.788952438e+001 -8.788952438e+001 +2.2704e-001 +3.6456e+000
237 0 +3.998323671e-004 -8.788960017e+001 -8.788960017e+001 +2.4356e-001 +3.6456e+000
251 0 +3.713680625e-004 -8.788962863e+001 -8.788962863e+001 +2.4333e-001 +3.6456e+000
255 0 +2.587917887e-004 -8.788974121e+001 -8.788974121e+001 +2.4890e-001 +3.6456e+000
258 0 +3.683471596e-005 -8.788996317e+001 -8.788996317e+001 +2.4424e-001 +3.6456e+000
266 0 +2.908617401e-005 -8.788997091e+001 -8.788997091e+001 +2.4405e-001 +3.6456e+000
268 0 +2.511587739e-005 -8.788997488e+001 -8.788997488e+001 +2.4390e-001 +3.6456e+000
273 0 +1.251254301e-005 -8.788998749e+001 -8.788998749e+001 +2.4255e-001 +3.6456e+000
274 0 +2.338646766e-006 -8.788999766e+001 -8.788999766e+001 +2.4077e-001 +3.6456e+000
286 0 +2.264251052e-006 -8.788999774e+001 -8.788999774e+001 +2.3896e-001 +3.6456e+000
296 0 +6.780693269e-007 -8.788999932e+001 -8.788999932e+001 +2.3954e-001 +3.6456e+000
324 0 +3.590278084e-007 -8.788999964e+001 -8.788999964e+001 +2.3865e-001 +3.6456e+000
332 0 +2.942549884e-007 -8.788999971e+001 -8.788999971e+001 +2.3885e-001 +3.6456e+000
334 0 +1.485083629e-007 -8.788999985e+001 -8.788999985e+001 +2.3953e-001 +3.6456e+000
337 0 +1.060708144e-008 -8.788999999e+001 -8.788999999e+001 +2.3912e-001 +3.6456e+000
387 0 +6.855358947e-009 -8.788999999e+001 -8.788999999e+001 +2.3915e-001 +3.6456e+000
% f evaluations | g evaluations | best noise-free fitness - Fopt (3.201900000000e+002) + sum g_i+ | measured fitness | best measured fitness or single-digit g-values | x1 | x2...
1 0 +1.007718918e+007 +1.007750937e+007 +1.007750937e+007 +2.3937e+000 +9.0727e-001
4 0 +6.517563225e+006 +6.517883415e+006 +6.517883415e+006 -5.0000e+000 -5.0000e+000
6 0 +4.712353241e+004 +4.744372241e+004 +4.744372241e+004 +5.0000e+000 -2.1445e+000
8 0 +3.493671883e+004 +3.525690883e+004 +3.525690883e+004 -5.0000e+000 -2.1760e+000
9 0 +2.663717373e+003 +2.983907373e+003 +2.983907373e+003 -1.5241e+000 -2.4111e+000
30 0 +4.265531858e+001 +3.628453186e+002 +3.628453186e+002 -4.8010e+000 -2.3652e+000
64 0 +2.125130154e+001 +3.414413015e+002 +3.414413015e+002 -4.7965e+000 -2.3623e+000
73 0 +1.987624443e+001 +3.400662444e+002 +3.400662444e+002 +3.6939e+000 -2.3591e+000
82 0 +1.737147479e+001 +3.375614748e+002 +3.375614748e+002 +3.6945e+000 -2.3613e+000
91 0 +1.620432694e+001 +3.363943269e+002 +3.363943269e+002 +3.5921e+000 -2.3606e+000
109 0 +1.490670830e+001 +3.350967083e+002 +3.350967083e+002 +3.4497e+000 -2.3607e+000
110 0 +1.272410030e+001 +3.329141003e+002 +3.329141003e+002 +3.1440e+000 -2.3601e+000
119 0 +4.536837372e-001 +3.206436837e+002 +3.206436837e+002 +0.0000e+000 -2.3613e+000
124 0 +3.275053019e-002 +3.202227505e+002 +3.202227505e+002 -5.0825e-001 -2.3610e+000
138 0 +2.913716533e-002 +3.202191372e+002 +3.202191372e+002 -5.8302e-001 -2.3609e+000
142 0 +2.873677626e-002 +3.202187368e+002 +3.202187368e+002 -5.6914e-001 -2.3609e+000
146 0 +2.809649715e-002 +3.202180965e+002 +3.202180965e+002 -5.5284e-001 -2.3609e+000
150 0 +5.695051139e-003 +3.201956951e+002 +3.201956951e+002 -4.6403e-001 -2.3607e+000
165 0 +1.378735797e-003 +3.201913787e+002 +3.201913787e+002 -4.0325e-001 -2.3608e+000
179 0 +1.334308779e-003 +3.201913343e+002 +3.201913343e+002 -4.0297e-001 -2.3608e+000
188 0 +3.615979512e-004 +3.201903616e+002 +3.201903616e+002 -4.5173e-001 -2.3608e+000
219 0 +2.025932907e-004 +3.201902026e+002 +3.201902026e+002 -4.4611e-001 -2.3608e+000
228 0 +2.935666100e-005 +3.201900294e+002 +3.201900294e+002 -4.3032e-001 -2.3608e+000
278 0 +2.878939245e-005 +3.201900288e+002 +3.201900288e+002 -4.3100e-001 -2.3608e+000
287 0 +1.291625796e-005 +3.201900129e+002 +3.201900129e+002 -4.3538e-001 -2.3608e+000
289 0 +1.064476231e-005 +3.201900106e+002 +3.201900106e+002 -4.3452e-001 -2.3608e+000
295 0 +1.046511915e-005 +3.201900105e+002 +3.201900105e+002 -4.3414e-001 -2.3608e+000
302 0 +9.964804804e-007 +3.201900010e+002 +3.201900010e+002 -4.3358e-001 -2.3608e+000
307 0 +9.141735973e-007 +3.201900009e+002 +3.201900009e+002 -4.3378e-001 -2.3608e+000
313 0 +6.605291674e-007 +3.201900007e+002 +3.201900007e+002 -4.3358e-001 -2.3608e+000
314 0 +5.242964107e-008 +3.201900001e+002 +3.201900001e+002 -4.3303e-001 -2.3608e+000
318 0 +6.915001904e-009 +3.201900000e+002 +3.201900000e+002 -4.3287e-001 -2.3608e+000
% f evaluations | g evaluations | best noise-free fitness - Fopt (-1.042400000000e+002) + sum g_i+ | measured fitness | best measured fitness or single-digit g-values | x1 | x2...
1 0 +1.284786664e+007 +1.284776240e+007 +1.284776240e+007 +8.2496e-001 -2.7333e-001
3 0 +1.184075559e+007 +1.184065135e+007 +1.184065135e+007 -1.1638e+000 -3.9804e-001
4 0 +1.242782684e+006 +1.242678444e+006 +1.242678444e+006 +5.0000e+000 -5.0000e+000
6 0 +4.716828560e+004 +4.706404560e+004 +4.706404560e+004 -5.0000e+000 -3.7036e+000
10 0 +1.896921498e+004 +1.886497498e+004 +1.886497498e+004 +5.0000e+000 -3.7762e+000
14 0 +1.333039126e+003 +1.228799126e+003 +1.228799126e+003 +1.3114e+000 -3.9545e+000
16 0 +8.547970398e+001 -1.876029602e+001 -1.876029602e+001 +1.5136e+000 -3.9110e+000
51 0 +3.878251284e-001 -1.038521749e+002 -1.038521749e+002 +0.0000e+000 -3.9195e+000
72 0 +2.147936402e-001 -1.040252064e+002 -1.040252064e+002 -1.4642e-003 -3.9198e+000
119 0 +4.260401475e-002 -1.041973960e+002 -1.041973960e+002 +1.9421e-001 -3.9200e+000
135 0 +3.537500935e-002 -1.042046250e+002 -1.042046250e+002 +2.1831e-001 -3.9200e+000
175 0 +1.587213022e-003 -1.042384128e+002 -1.042384128e+002 +3.7083e-001 -3.9200e+000
193 0 +9.867984788e-004 -1.042390132e+002 -1.042390132e+002 +3.7083e-001 -3.9200e+000
202 0 +9.593564724e-004 -1.042390406e+002 -1.042390406e+002 +3.7017e-001 -3.9200e+000
207 0 +8.530588060e-004 -1.042391469e+002 -1.042391469e+002 +3.7813e-001 -3.9200e+000
215 0 +2.433832212e-005 -1.042399757e+002 -1.042399757e+002 +3.9538e-001 -3.9200e+000
234 0 +1.096157644e-005 -1.042399890e+002 -1.042399890e+002 +3.9627e-001 -3.9200e+000
253 0 +8.845210928e-006 -1.042399912e+002 -1.042399912e+002 +3.9626e-001 -3.9200e+000
281 0 +3.777485190e-006 -1.042399962e+002 -1.042399962e+002 +3.9606e-001 -3.9200e+000
284 0 +1.842073843e-006 -1.042399982e+002 -1.042399982e+002 +3.9415e-001 -3.9200e+000
287 0 +9.629695086e-007 -1.042399990e+002 -1.042399990e+002 +3.9521e-001 -3.9200e+000
290 0 +6.414856273e-007 -1.042399994e+002 -1.042399994e+002 +3.9522e-001 -3.9200e+000
299 0 +1.171687813e-008 -1.042400000e+002 -1.042400000e+002 +3.9451e-001 -3.9200e+000
353 0 +1.097888003e-008 -1.042400000e+002 -1.042400000e+002 +3.9449e-001 -3.9200e+000
364 0 +4.212125759e-009 -1.042400000e+002 -1.042400000e+002 +3.9438e-001 -3.9200e+000
% f evaluations | g evaluations | best noise-free fitness - Fopt (-6.785000000000e+001) + sum g_i+ | measured fitness | best measured fitness or single-digit g-values | x1 | x2...
1 0 +2.405067537e+007 +2.405060752e+007 +2.405060752e+007 +1.6201e+000 -1.9931e+000
2 0 +1.636867693e+007 +1.636860908e+007 +1.636860908e+007 +3.1230e+000 -1.0200e+000
4 0 +3.860052667e+006 +3.859984817e+006 +3.859984817e+006 -5.0000e+000 +5.0000e+000
6 0 +3.716167180e+004 +3.709382180e+004 +3.709382180e+004 -8.1236e-001 +3.2047e+000
22 0 +1.156830302e+003 +1.088980302e+003 +1.088980302e+003 -7.3334e-001 +2.9819e+000
27 0 +2.778854171e+000 -6.507114583e+001 -6.507114583e+001 -6.4322e-001 +3.0146e+000
107 0 +1.187718266e+000 -6.666228173e+001 -6.666228173e+001 +6.9467e-001 +3.0133e+000
111 0 +6.298441371e-001 -6.722015586e+001 -6.722015586e+001 +6.6386e-001 +3.0136e+000
148 0 +6.075201731e-001 -6.724247983e+001 -6.724247983e+001 +8.6999e-001 +3.0136e+000
151 0 +2.742721213e-001 -6.757572788e+001 -6.757572788e+001 +6.7689e-001 +3.0140e+000
166 0 +1.675769626e-001 -6.768242304e+001 -6.768242304e+001 +1.3123e+000 +3.0144e+000
171 0 +1.183173407e-001 -6.773168266e+001 -6.773168266e+001 +8.4293e-001 +3.0141e+000
190 0 +4.582542243e-003 -6.784541746e+001 -6.784541746e+001 +8.4293e-001 +3.0145e+000
228 0 +1.015547860e-003 -6.784898445e+001 -6.784898445e+001 +8.5118e-001 +3.0144e+000
248 0 +9.338454720e-004 -6.784906615e+001 -6.784906615e+001 +8.5712e-001 +3.0144e+000
260 0 +7.457498982e-004 -6.784925425e+001 -6.784925425e+001 +8.6757e-001 +3.0144e+000
267 0 +1.742883698e-004 -6.784982571e+001 -6.784982571e+001 +8.9242e-001 +3.0144e+000
301 0 +3.930629241e-005 -6.784996069e+001 -6.784996069e+001 +8.7624e-001 +3.0144e+000
332 0 +1.750032516e-005 -6.784998250e+001 -6.784998250e+001 +8.7984e-001 +3.0144e+000
333 0 +3.625194623e-006 -6.784999637e+001 -6.784999637e+001 +8.8143e-001 +3.0144e+000
371 0 +3.547964781e-006 -6.784999645e+001 -6.784999645e+001 +8.8149e-001 +3.0144e+000
378 0 +2.014593719e-007 -6.784999980e+001 -6.784999980e+001 +8.8201e-001 +3.0144e+000
407 0 +1.798361069e-007 -6.784999982e+001 -6.784999982e+001 +8.8143e-001 +3.0144e+000
422 0 +7.844489858e-008 -6.784999992e+001 -6.784999992e+001 +8.8167e-001 +3.0144e+000
444 0 +7.316465656e-008 -6.784999993e+001 -6.784999993e+001 +8.8167e-001 +3.0144e+000
446 0 +2.885049355e-008 -6.784999997e+001 -6.784999997e+001 +8.8143e-001 +3.0144e+000
452 0 +2.714735103e-008 -6.784999997e+001 -6.784999997e+001 +8.8145e-001 +3.0144e+000
463 0 +1.239442327e-009 -6.785000000e+001 -6.785000000e+001 +8.8163e-001 +3.0144e+000
% f evaluations | g evaluations | best noise-free fitness - Fopt (-3.639800000000e+002) + sum g_i+ | measured fitness | best measured fitness or single-digit g-values | x1 | x2...
1 0 +5.447494177e+007 +5.447457779e+007 +5.447457779e+007 +3.3057e+000 -4.5297e+000
2 0 +8.101642688e+004 +8.065244688e+004 +8.065244688e+004 -1.5173e+000 +2.9070e+000
8 0 +7.304333793e+003 +6.940353793e+003 +6.940353793e+003 +5.0000e+000 +3.0987e+000
10 0 +4.504584481e+001 -3.189341552e+002 -3.189341552e+002 +5.0000e+000 +3.1967e+000
18 0 +3.069372326e+001 -3.332862767e+002 -3.332862767e+002 +5.0000e+000 +3.1946e+000
27 0 +6.676186856e+000 -3.573038131e+002 -3.573038131e+002 +3.9693e+000 +3.1891e+000
47 0 +4.517719348e+000 -3.594622807e+002 -3.594622807e+002 +3.6207e+000 +3.1891e+000
52 0 +4.160179087e+000 -3.598198209e+002 -3.598198209e+002 +3.5131e+000 +3.1891e+000
78 0 +3.360238418e+000 -3.606197616e+002 -3.606197616e+002 +2.9014e+000 +3.1890e+000
90 0 +3.169561325e+000 -3.608104387e+002 -3.608104387e+002 +2.0011e+000 +3.1886e+000
93 0 +2.377965527e+000 -3.616020345e+002 -3.616020345e+002 +2.9382e+000 +3.1894e+000
97 0 +2.158340908e+000 -3.618216591e+002 -3.618216591e+002 +2.8714e+000 +3.1894e+000
98 0 +1.412771877e+000 -3.625672281e+002 -3.625672281e+002 +2.9070e+000 +3.1906e+000
100 0 +1.296535566e+000 -3.626834644e+002 -3.626834644e+002 +2.7346e+000 +3.1912e+000
102 0 +4.926603821e-001 -3.634873396e+002 -3.634873396e+002 +2.5008e+000 +3.1904e+000
103 0 +2.249070469e-001 -3.637550930e+002 -3.637550930e+002 +2.2727e+000 +3.1902e+000
118 0 +2.064568777e-001 -3.637735431e+002 -3.637735431e+002 +2.2551e+000 +3.1902e+000
139 0 +1.685641956e-002 -3.639631436e+002 -3.639631436e+002 +1.9305e+000 +3.1904e+000
161 0 +9.912811981e-003 -3.639700872e+002 -3.639700872e+002 +1.8838e+000 +3.1903e+000
162 0 +6.834755235e-003 -3.639731652e+002 -3.639731652e+002 +1.7290e+000 +3.1904e+000
166 0 +3.416513305e-003 -3.639765835e+002 -3.639765835e+002 +1.7589e+000 +3.1904e+000
197 0 +2.997758990e-003 -3.639770022e+002 -3.639770022e+002 +1.7748e+000 +3.1904e+000
205 0 +1.984381375e-003 -3.639780156e+002 -3.639780156e+002 +1.7779e+000 +3.1904e+000
211 0 +5.030653380e-004 -3.639794969e+002 -3.639794969e+002 +1.7943e+000 +3.1904e+000
216 0 +3.047777772e-004 -3.639796952e+002 -3.639796952e+002 +1.7967e+000 +3.1904e+000
235 0 +2.199814007e-004 -3.639797800e+002 -3.639797800e+002 +1.7974e+000 +3.1904e+000
256 0 +1.226416947e-004 -3.639798774e+002 -3.639798774e+002 +1.8007e+000 +3.1904e+000
259 0 +1.021855223e-005 -3.639799898e+002 -3.639799898e+002 +1.8106e+000 +3.1904e+000
288 0 +7.273166091e-006 -3.639799927e+002 -3.639799927e+002 +1.8111e+000 +3.1904e+000
316 0 +1.479559103e-006 -3.639799985e+002 -3.639799985e+002 +1.8108e+000 +3.1904e+000
334 0 +1.255718985e-006 -3.639799987e+002 -3.639799987e+002 +1.8108e+000 +3.1904e+000
342 0 +1.230010866e-006 -3.639799988e+002 -3.639799988e+002 +1.8117e+000 +3.1904e+000
347 0 +1.983061679e-007 -3.639799998e+002 -3.639799998e+002 +1.8116e+000 +3.1904e+000
356 0 +2.428237167e-009 -3.639800000e+002 -3.639800000e+002 +1.8112e+000 +3.1904e+000
% f evaluations | g evaluations | best noise-free fitness - Fopt (-1.865000000000e+001) + sum g_i+ | measured fitness | best measured fitness or single-digit g-values | x1 | x2...
1 0 +1.207938144e+007 +1.207936279e+007 +1.207936279e+007 -1.4300e+000 +1.0868e+000
2 0 +2.572628785e+006 +2.572610135e+006 +2.572610135e+006 +4.2264e+000 -3.9353e+000
3 0 +1.806068785e+006 +1.806050135e+006 +1.806050135e+006 +2.5251e-001 -3.7105e+000
6 0 +3.099717982e+004 +3.097852982e+004 +3.097852982e+004 -5.0000e+000 -2.2902e+000
8 0 +6.764807464e+002 +6.578307464e+002 +6.578307464e+002 -2.0704e+000 -2.4914e+000
10 0 +6.285272254e+002 +6.098772254e+002 +6.098772254e+002 -2.3563e+000 -2.4905e+000
12 0 +3.714872781e+001 +1.849872781e+001 +1.849872781e+001 -5.0000e+000 -2.4658e+000
24 0 +3.319171502e+000 -1.533082850e+001 -1.533082850e+001 +2.5145e+000 -2.4671e+000
69 0 +3.043677849e+000 -1.560632215e+001 -1.560632215e+001 +2.8926e+000 -2.4646e+000
77 0 +2.630893437e-001 -1.838691066e+001 -1.838691066e+001 +1.9038e+000 -2.4653e+000
79 0 +1.230736517e-001 -1.852692635e+001 -1.852692635e+001 +1.6705e+000 -2.4659e+000
99 0 +5.242132356e-002 -1.859757868e+001 -1.859757868e+001 +1.2516e+000 -2.4655e+000
118 0 +1.294320581e-003 -1.864870568e+001 -1.864870568e+001 +1.5002e+000 -2.4656e+000
164 0 +1.042979376e-003 -1.864895702e+001 -1.864895702e+001 +1.4908e+000 -2.4656e+000
168 0 +3.098807277e-004 -1.864969012e+001 -1.864969012e+001 +1.4849e+000 -2.4656e+000
203 0 +1.315054446e-004 -1.864986849e+001 -1.864986849e+001 +1.4555e+000 -2.4656e+000
208 0 +9.986056904e-005 -1.864990014e+001 -1.864990014e+001 +1.4568e+000 -2.4656e+000
225 0 +8.219200665e-005 -1.864991781e+001 -1.864991781e+001 +1.4615e+000 -2.4656e+000
228 0 +4.346696162e-005 -1.864995653e+001 -1.864995653e+001 +1.4683e+000 -2.4656e+000
246 0 +3.589926682e-005 -1.864996410e+001 -1.864996410e+001 +1.4688e+000 -2.4656e+000
250 0 +1.126612581e-005 -1.864998873e+001 -1.864998873e+001 +1.4693e+000 -2.4656e+000
282 0 +6.103756171e-006 -1.864999390e+001 -1.864999390e+001 +1.4647e+000 -2.4656e+000
291 0 +4.443452131e-006 -1.864999556e+001 -1.864999556e+001 +1.4650e+000 -2.4656e+000
303 0 +5.452467171e-007 -1.864999945e+001 -1.864999945e+001 +1.4674e+000 -2.4656e+000
306 0 +4.506699263e-007 -1.864999955e+001 -1.864999955e+001 +1.4668e+000 -2.4656e+000
310 0 +1.637665896e-007 -1.864999984e+001 -1.864999984e+001 +1.4673e+000 -2.4656e+000
330 0 +4.256335373e-008 -1.864999996e+001 -1.864999996e+001 +1.4672e+000 -2.4656e+000
348 0 +1.187608234e-009 -1.865000000e+001 -1.865000000e+001 +1.4672e+000 -2.4656e+000
% f evaluations | g evaluations | best noise-free fitness - Fopt (1.749200000000e+002) + sum g_i+ | measured fitness | best measured fitness or single-digit g-values | x1 | x2...
1 0 +8.279116971e+006 +8.279291891e+006 +8.279291891e+006 +4.0646e+000 -4.7985e+000
2 0 +1.830144629e+006 +1.830319549e+006 +1.830319549e+006 -1.2225e-001 -6.0923e-001
5 0 +2.182884358e+005 +2.184633558e+005 +2.184633558e+005 +1.9645e+000 -2.3072e+000
6 0 +5.771018238e+004 +5.788510238e+004 +5.788510238e+004 -5.0000e+000 -1.6043e+000
8 0 +2.953009798e+003 +3.127929798e+003 +3.127929798e+003 +5.0000e+000 -1.8989e+000
11 0 +5.707596884e+001 +2.319959688e+002 +2.319959688e+002 +3.1126e+000 -1.8383e+000
23 0 +2.401262305e+001 +1.989326230e+002 +1.989326230e+002 +2.0901e+000 -1.8483e+000
80 0 +6.455922677e+000 +1.813759227e+002 +1.813759227e+002 +7.6029e-001 -1.8466e+000
87 0 +2.485390190e+000 +1.774053902e+002 +1.774053902e+002 +5.5726e-001 -1.8447e+000
92 0 +1.289582906e+000 +1.762095829e+002 +1.762095829e+002 -2.2229e+000 -1.8445e+000
99 0 +8.316060718e-001 +1.757516061e+002 +1.757516061e+002 -2.0882e+000 -1.8448e+000
102 0 +6.824055604e-001 +1.756024056e+002 +1.756024056e+002 -2.0197e+000 -1.8449e+000
110 0 +2.325431015e-001 +1.751525431e+002 +1.751525431e+002 -1.2119e+000 -1.8443e+000
117 0 +1.302751761e-002 +1.749330275e+002 +1.749330275e+002 -1.1078e+000 -1.8447e+000
146 0 +1.095596638e-002 +1.749309560e+002 +1.749309560e+002 -1.1979e+000 -1.8447e+000
154 0 +9.148519182e-003 +1.749291485e+002 +1.749291485e+002 -1.1978e+000 -1.8447e+000
164 0 +8.073822115e-003 +1.749280738e+002 +1.749280738e+002 -1.1912e+000 -1.8447e+000
165 0 +4.283464437e-003 +1.749242835e+002 +1.749242835e+002 -1.1226e+000 -1.8447e+000
180 0 +4.247772815e-003 +1.749242478e+002 +1.749242478e+002 -1.1262e+000 -1.8447e+000
185 0 +2.649071919e-003 +1.749226491e+002 +1.749226491e+002 -1.1226e+000 -1.8448e+000
190 0 +1.349897934e-003 +1.749213499e+002 +1.749213499e+002 -1.1204e+000 -1.8448e+000
193 0 +8.603494845e-004 +1.749208603e+002 +1.749208603e+002 -1.1497e+000 -1.8448e+000
199 0 +7.270486693e-004 +1.749207270e+002 +1.749207270e+002 -1.1488e+000 -1.8448e+000
206 0 +4.421027457e-004 +1.749204421e+002 +1.749204421e+002 -1.1332e+000 -1.8448e+000
217 0 +1.702492199e-005 +1.749200170e+002 +1.749200170e+002 -1.1500e+000 -1.8448e+000
254 0 +9.108515059e-006 +1.749200091e+002 +1.749200091e+002 -1.1498e+000 -1.8448e+000
255 0 +2.939436257e-006 +1.749200029e+002 +1.749200029e+002 -1.1523e+000 -1.8448e+000
273 0 +2.382632260e-006 +1.749200024e+002 +1.749200024e+002 -1.1504e+000 -1.8448e+000
275 0 +1.965113000e-006 +1.749200020e+002 +1.749200020e+002 -1.1523e+000 -1.8448e+000
280 0 +1.651370184e-006 +1.749200017e+002 +1.749200017e+002 -1.1521e+000 -1.8448e+000
295 0 +7.417410188e-007 +1.749200007e+002 +1.749200007e+002 -1.1523e+000 -1.8448e+000
296 0 +3.355739864e-007 +1.749200003e+002 +1.749200003e+002 -1.1523e+000 -1.8448e+000
312 0 +6.771352901e-008 +1.749200001e+002 +1.749200001e+002 -1.1521e+000 -1.8448e+000
315 0 +5.606133868e-008 +1.749200001e+002 +1.749200001e+002 -1.1520e+000 -1.8448e+000
321 0 +3.326167075e-008 +1.749200000e+002 +1.749200000e+002 -1.1520e+000 -1.8448e+000
336 0 +2.113051778e-008 +1.749200000e+002 +1.749200000e+002 -1.1519e+000 -1.8448e+000
360 0 +1.235636660e-008 +1.749200000e+002 +1.749200000e+002 -1.1519e+000 -1.8448e+000
368 0 +4.514163265e-009 +1.749200000e+002 +1.749200000e+002 -1.1521e+000 -1.8448e+000
% f evaluations | g evaluations | best noise-free fitness - Fopt (-5.659600000000e+002) + sum g_i+ | measured fitness | best measured fitness or single-digit g-values | x1 | x2...
1 0 +1.863464663e+006 +1.862898703e+006 +1.862898703e+006 -4.3532e+000 +1.4886e+000
5 0 +8.918974897e+005 +8.913315297e+005 +8.913315297e+005 +1.3735e+000 +1.2058e+000
6 0 +1.424310126e+005 +1.418650526e+005 +1.418650526e+005 -1.4130e+000 +6.3305e-001
8 0 +1.800954511e+002 -3.858645489e+002 -3.858645489e+002 -3.2770e-001 +2.4921e-001
20 0 +1.617494478e+002 -4.042105522e+002 -4.042105522e+002 -8.7103e-001 +2.4857e-001
24 0 +3.312462432e+000 -5.626475376e+002 -5.626475376e+002 -9.3610e-001 +2.3781e-001
42 0 +2.115312754e+000 -5.638446872e+002 -5.638446872e+002 -1.1457e+000 +2.3756e-001
50 0 +2.843131311e-001 -5.656756869e+002 -5.656756869e+002 -1.2989e+000 +2.3639e-001
78 0 +4.900965667e-002 -5.659109903e+002 -5.659109903e+002 -1.0880e+000 +2.3582e-001
98 0 +1.247451981e-002 -5.659475255e+002 -5.659475255e+002 -8.6494e-001 +2.3606e-001
135 0 +3.728676201e-003 -5.659562713e+002 -5.659562713e+002 -9.8640e-001 +2.3595e-001
144 0 +2.431324620e-003 -5.659575687e+002 -5.659575687e+002 -9.1487e-001 +2.3597e-001
161 0 +9.565335354e-004 -5.659590435e+002 -5.659590435e+002 -9.3563e-001 +2.3598e-001
162 0 +6.390922096e-004 -5.659593609e+002 -5.659593609e+002 -9.6952e-001 +2.3602e-001
198 0 +2.432626505e-004 -5.659597567e+002 -5.659597567e+002 -9.4436e-001 +2.3599e-001
224 0 +9.623243704e-005 -5.659599038e+002 -5.659599038e+002 -9.5041e-001 +2.3599e-001
226 0 +4.031097740e-005 -5.659599597e+002 -5.659599597e+002 -9.5471e-001 +2.3599e-001
237 0 +6.235897899e-006 -5.659599938e+002 -5.659599938e+002 -9.6017e-001 +2.3600e-001
264 0 +3.762745109e-006 -5.659599962e+002 -5.659599962e+002 -9.5908e-001 +2.3600e-001
267 0 +1.685146572e-006 -5.659599983e+002 -5.659599983e+002 -9.5631e-001 +2.3600e-001
269 0 +1.169396000e-006 -5.659599988e+002 -5.659599988e+002 -9.5659e-001 +2.3600e-001
287 0 +4.970659120e-007 -5.659599995e+002 -5.659599995e+002 -9.5691e-001 +2.3600e-001
289 0 +3.704202527e-007 -5.659599996e+002 -5.659599996e+002 -9.5702e-001 +2.3600e-001
301 0 +9.513314581e-010 -5.659600000e+002 -5.659600000e+002 -9.5760e-001 +2.3600e-001
% f evaluations | g evaluations | best noise-free fitness - Fopt (7.095000000000e+001) + sum g_i+ | measured fitness | best measured fitness or single-digit g-values | x1 | x2...
1 0 +8.098643262e+006 +8.098714212e+006 +8.098714212e+006 -1.6041e+000 -1.8452e+000
3 0 +2.789857832e+005 +2.790567332e+005 +2.790567332e+005 +4.7858e+000 +5.2967e-001
5 0 +4.126558208e+004 +4.133653208e+004 +4.133653208e+004 +1.4857e+000 +1.2801e+000
6 0 +1.269768206e+002 +1.979268206e+002 +1.979268206e+002 +3.2171e+000 +1.0902e+000
8 0 +4.887831753e+001 +1.198283175e+002 +1.198283175e+002 -5.0000e+000 +1.0751e+000
22 0 +3.597454000e+001 +1.069245400e+002 +1.069245400e+002 -2.8302e+000 +1.0747e+000
34 0 +1.183310581e+001 +8.278310581e+001 +8.278310581e+001 -2.8302e+000 +1.0795e+000
41 0 +2.625365503e+000 +7.357536550e+001 +7.357536550e+001 -3.7305e-001 +1.0805e+000
54 0 +2.802746523e-001 +7.123027465e+001 +7.123027465e+001 +2.4162e-001 +1.0795e+000
80 0 +2.437759520e-001 +7.119377595e+001 +7.119377595e+001 +2.8878e-001 +1.0796e+000
97 0 +1.022973385e-002 +7.096022973e+001 +7.096022973e+001 +5.9124e-001 +1.0793e+000
117 0 +1.449790015e-003 +7.095144979e+001 +7.095144979e+001 +5.8664e-001 +1.0792e+000
182 0 +6.728588136e-004 +7.095067286e+001 +7.095067286e+001 +5.9803e-001 +1.0792e+000
183 0 +1.616607726e-004 +7.095016166e+001 +7.095016166e+001 +6.0202e-001 +1.0792e+000
196 0 +6.064812935e-005 +7.095006065e+001 +7.095006065e+001 +6.0608e-001 +1.0792e+000
222 0 +4.551907952e-005 +7.095004552e+001 +7.095004552e+001 +6.0781e-001 +1.0792e+000
230 0 +1.806856645e-005 +7.095001807e+001 +7.095001807e+001 +6.1079e-001 +1.0792e+000
236 0 +6.407149030e-006 +7.095000641e+001 +7.095000641e+001 +6.1180e-001 +1.0792e+000
238 0 +4.552314280e-006 +7.095000455e+001 +7.095000455e+001 +6.1232e-001 +1.0792e+000
245 0 +8.635349502e-008 +7.095000009e+001 +7.095000009e+001 +6.1444e-001 +1.0792e+000
266 0 +8.394337669e-008 +7.095000008e+001 +7.095000008e+001 +6.1446e-001 +1.0792e+000
277 0 +4.375237950e-010 +7.095000000e+001 +7.095000000e+001 +6.1439e-001 +1.0792e+000
% f evaluations | g evaluations | best noise-free fitness - Fopt (4.728000000000e+001) + sum g_i+ | measured fitness | best measured fitness or single-digit g-values | x1 | x2...
1 0 +8.950942551e+006 +8.950989831e+006 +8.950989831e+006 -3.4652e+000 +2.2471e+000
2 0 +3.812447887e+006 +3.812495167e+006 +3.812495167e+006 +4.2247e+000 -2.7094e+000
3 0 +2.841635683e+004 +2.846363683e+004 +2.846363683e+004 -4.5784e+000 -6.3712e-001
6 0 +2.541462207e+003 +2.588742207e+003 +2.588742207e+003 -5.0000e+000 -7.6004e-001
10 0 +1.797398573e+003 +1.844678573e+003 +1.844678573e+003 +9.5427e-001 -7.6402e-001
12 0 +9.599832149e+001 +1.432783215e+002 +1.432783215e+002 -5.0000e+000 -8.0208e-001
14 0 +9.526784870e+001 +1.425478487e+002 +1.425478487e+002 -5.0000e+000 -8.0215e-001
27 0 +3.372206211e+001 +8.100206211e+001 +8.100206211e+001 +3.5660e+000 -8.0025e-001
38 0 +3.051820478e+001 +7.779820478e+001 +7.779820478e+001 +3.2960e+000 -8.0058e-001
41 0 +9.365962084e-001 +4.821659621e+001 +4.821659621e+001 +3.2960e+000 -8.0732e-001
79 0 +7.806266708e-001 +4.806062667e+001 +4.806062667e+001 +3.3748e+000 -8.0726e-001
82 0 +5.368925530e-001 +4.781689255e+001 +4.781689255e+001 +4.3243e+000 -8.0611e-001
121 0 +4.443597992e-001 +4.772435980e+001 +4.772435980e+001 +4.2410e+000 -8.0673e-001
123 0 +2.753725630e-001 +4.755537256e+001 +4.755537256e+001 +3.8783e+000 -8.0685e-001
131 0 +1.682947027e-001 +4.744829470e+001 +4.744829470e+001 +3.7655e+000 -8.0678e-001
134 0 +1.264862463e-001 +4.740648625e+001 +4.740648625e+001 +4.0456e+000 -8.0633e-001
145 0 +6.499370324e-002 +4.734499370e+001 +4.734499370e+001 +3.9478e+000 -8.0642e-001
152 0 +3.935035335e-002 +4.731935035e+001 +4.731935035e+001 +3.8888e+000 -8.0638e-001
157 0 +6.313765987e-003 +4.728631377e+001 +4.728631377e+001 +3.6462e+000 -8.0633e-001
177 0 +2.518582743e-003 +4.728251858e+001 +4.728251858e+001 +3.7168e+000 -8.0644e-001
183 0 +2.322511189e-003 +4.728232251e+001 +4.728232251e+001 +3.7061e+000 -8.0636e-001
193 0 +9.928963240e-004 +4.728099290e+001 +4.728099290e+001 +3.6756e+000 -8.0637e-001
197 0 +9.371935688e-004 +4.728093719e+001 +4.728093719e+001 +3.7176e+000 -8.0642e-001
204 0 +1.437836211e-006 +4.728000144e+001 +4.728000144e+001 +3.6932e+000 -8.0640e-001
234 0 +5.195603308e-007 +4.728000052e+001 +4.728000052e+001 +3.6938e+000 -8.0640e-001
272 0 +4.725195311e-007 +4.728000047e+001 +4.728000047e+001 +3.6945e+000 -8.0640e-001
292 0 +5.663265767e-008 +4.728000006e+001 +4.728000006e+001 +3.6946e+000 -8.0640e-001
311 0 +2.208437877e-010 +4.728000000e+001 +4.728000000e+001 +3.6944e+000 -8.0640e-001
% f evaluations | g evaluations | best noise-free fitness - Fopt (-5.688800000000e+002) + sum g_i+ | measured fitness | best measured fitness or single-digit g-values | x1 | x2...
1 0 +1.995741741e+005 +1.990052941e+005 +1.990052941e+005 +4.4579e+000 -2.9796e+000
8 0 +2.184677184e+002 -3.504122816e+002 -3.504122816e+002 +1.1522e-001 -2.5279e+000
29 0 +4.091617079e+001 -5.279638292e+002 -5.279638292e+002 -3.2484e-001 -2.5480e+000
31 0 +3.834131141e+001 -5.305386886e+002 -5.305386886e+002 -3.4766e+000 -2.5400e+000
52 0 +2.450674776e+001 -5.443732522e+002 -5.443732522e+002 -1.7959e+000 -2.5401e+000
64 0 +1.864472382e+001 -5.502352762e+002 -5.502352762e+002 -1.8430e+000 -2.5422e+000
85 0 +9.719164065e+000 -5.591608359e+002 -5.591608359e+002 +1.7407e+000 -2.5454e+000
91 0 +7.347422062e+000 -5.615325779e+002 -5.615325779e+002 +2.0378e+000 -2.5451e+000
100 0 +5.330312025e+000 -5.635496880e+002 -5.635496880e+002 +1.0547e+000 -2.5441e+000
103 0 +4.131812695e+000 -5.647481873e+002 -5.647481873e+002 +2.3521e+000 -2.5405e+000
104 0 +1.439889103e-001 -5.687360111e+002 -5.687360111e+002 +2.8088e+000 -2.5422e+000
120 0 +2.531756096e-002 -5.688546824e+002 -5.688546824e+002 +2.6337e+000 -2.5424e+000
128 0 +1.557712208e-004 -5.688798442e+002 -5.688798442e+002 +2.4624e+000 -2.5424e+000
204 0 +2.983933143e-005 -5.688799702e+002 -5.688799702e+002 +2.4697e+000 -2.5424e+000
269 0 +2.268894309e-005 -5.688799773e+002 -5.688799773e+002 +2.4710e+000 -2.5424e+000
272 0 +1.530593192e-005 -5.688799847e+002 -5.688799847e+002 +2.4684e+000 -2.5424e+000
279 0 +1.411024573e-005 -5.688799859e+002 -5.688799859e+002 +2.4686e+000 -2.5424e+000
280 0 +8.381277098e-006 -5.688799916e+002 -5.688799916e+002 +2.4692e+000 -2.5424e+000
286 0 +2.662958423e-006 -5.688799973e+002 -5.688799973e+002 +2.4733e+000 -2.5424e+000
287 0 +1.210143864e-006 -5.688799988e+002 -5.688799988e+002 +2.4723e+000 -2.5424e+000
299 0 +8.759748198e-007 -5.688799991e+002 -5.688799991e+002 +2.4723e+000 -2.5424e+000
300 0 +4.758931027e-008 -5.688800000e+002 -5.688800000e+002 +2.4720e+000 -2.5424e+000
334 0 +1.617081580e-009 -5.688800000e+002 -5.688800000e+002 +2.4720e+000 -2.5424e+000
% f evaluations | g evaluations | best noise-free fitness - Fopt (2.069000000000e+001) + sum g_i+ | measured fitness | best measured fitness or single-digit g-values | x1 | x2...
1 0 +2.374605903e+007 +2.374607972e+007 +2.374607972e+007 -2.3896e+000 -4.8149e+000
2 0 +1.049318496e+006 +1.049339186e+006 +1.049339186e+006 -4.2211e+000 +1.1665e+000
3 0 +1.989728677e+005 +1.989935577e+005 +1.989935577e+005 +2.5249e+000 -2.8277e-001
6 0 +1.117176241e+002 +1.324076241e+002 +1.324076241e+002 -6.2837e-001 +1.6307e-001
14 0 +7.842640808e+001 +9.911640808e+001 +9.911640808e+001 -5.0000e+000 +1.5225e-001
22 0 +3.637123387e+001 +5.706123387e+001 +5.706123387e+001 -2.0885e+000 +1.5565e-001
25 0 +3.260659219e+001 +5.329659219e+001 +5.329659219e+001 -2.0885e+000 +1.5248e-001
34 0 +1.103110581e+001 +3.172110581e+001 +3.172110581e+001 +7.0559e-001 +1.5225e-001
43 0 +3.740083543e+000 +2.443008354e+001 +2.443008354e+001 +2.5249e+000 +1.5225e-001
44 0 +1.355171030e+000 +2.204517103e+001 +2.204517103e+001 +3.4034e+000 +1.5249e-001
57 0 +1.205666123e+000 +2.189566612e+001 +2.189566612e+001 +3.6631e+000 +1.5249e-001
58 0 +1.009220955e+000 +2.169922095e+001 +2.169922095e+001 +4.1717e+000 +1.5262e-001
59 0 +5.050298602e-001 +2.119502986e+001 +2.119502986e+001 +3.0332e+000 +1.5358e-001
82 0 +4.672214345e-001 +2.115722143e+001 +2.115722143e+001 +3.0597e+000 +1.5358e-001
84 0 +2.837050280e-002 +2.071837050e+001 +2.071837050e+001 +3.6552e+000 +1.5365e-001
98 0 +2.059465209e-002 +2.071059465e+001 +2.071059465e+001 +3.6778e+000 +1.5365e-001
118 0 +7.368727704e-003 +2.069736873e+001 +2.069736873e+001 +3.7422e+000 +1.5367e-001
126 0 +3.845639965e-003 +2.069384564e+001 +2.069384564e+001 +3.7419e+000 +1.5362e-001
138 0 +3.143250047e-003 +2.069314325e+001 +2.069314325e+001 +3.7482e+000 +1.5360e-001
154 0 +3.469003474e-004 +2.069034690e+001 +2.069034690e+001 +3.8005e+000 +1.5358e-001
173 0 +1.035767501e-004 +2.069010358e+001 +2.069010358e+001 +3.8093e+000 +1.5361e-001
177 0 +3.604325700e-005 +2.069003604e+001 +2.069003604e+001 +3.8018e+000 +1.5360e-001
183 0 +2.695816163e-005 +2.069002696e+001 +2.069002696e+001 +3.8108e+000 +1.5360e-001
198 0 +2.559048632e-005 +2.069002559e+001 +2.069002559e+001 +3.8104e+000 +1.5360e-001
218 0 +4.121833463e-006 +2.069000412e+001 +2.069000412e+001 +3.8043e+000 +1.5360e-001
222 0 +2.074811750e-006 +2.069000207e+001 +2.069000207e+001 +3.8060e+000 +1.5360e-001
244 0 +1.427808776e-006 +2.069000143e+001 +2.069000143e+001 +3.8046e+000 +1.5360e-001
259 0 +1.374651625e-006 +2.069000137e+001 +2.069000137e+001 +3.8044e+000 +1.5360e-001
268 0 +9.335274669e-007 +2.069000093e+001 +2.069000093e+001 +3.8047e+000 +1.5360e-001
272 0 +7.935855457e-007 +2.069000079e+001 +2.069000079e+001 +3.8051e+000 +1.5360e-001
275 0 +5.148967830e-008 +2.069000005e+001 +2.069000005e+001 +3.8058e+000 +1.5360e-001
284 0 +1.026053553e-008 +2.069000001e+001 +2.069000001e+001 +3.8057e+000 +1.5360e-001
299 0 +8.598018297e-009 +2.069000001e+001 +2.069000001e+001 +3.8056e+000 +1.5360e-001
% f evaluations | g evaluations | best noise-free fitness - Fopt (5.616700000000e+002) + sum g_i+ | measured fitness | best measured fitness or single-digit g-values | x1 | x2...
1 0 +2.947360758e+006 +2.947922428e+006 +2.947922428e+006 -2.3307e+000 -1.7117e+000
5 0 +2.416111127e+006 +2.416672797e+006 +2.416672797e+006 -7.5416e-001 +1.5697e+000
6 0 +3.393806645e+003 +3.955476645e+003 +3.955476645e+003 +5.0000e+000 -6.7182e-002
8 0 +6.263881804e+001 +6.243088180e+002 +6.243088180e+002 +4.1564e+000 -1.1451e-001
10 0 +4.169196659e+001 +6.033619666e+002 +6.033619666e+002 +2.5486e+000 -1.2443e-001
53 0 +2.117760744e+001 +5.828476074e+002 +5.828476074e+002 +2.6936e+000 -1.2135e-001
55 0 +1.066641405e+001 +5.723364140e+002 +5.723364140e+002 -5.0000e+000 -1.1979e-001
57 0 +2.060654355e+000 +5.637306544e+002 +5.637306544e+002 -3.8726e-001 -1.2033e-001
58 0 +2.005610388e+000 +5.636756104e+002 +5.636756104e+002 -4.1268e-001 -1.2030e-001
62 0 +4.814512182e-001 +5.621514512e+002 +5.621514512e+002 -1.9337e+000 -1.2064e-001
76 0 +4.304855519e-001 +5.621004856e+002 +5.621004856e+002 -1.7381e+000 -1.2065e-001
77 0 +1.257824911e-001 +5.617957825e+002 +5.617957825e+002 -1.6953e+000 -1.1966e-001
96 0 +6.038980475e-002 +5.617303898e+002 +5.617303898e+002 -1.9098e+000 -1.1986e-001
103 0 +4.953777463e-002 +5.617195378e+002 +5.617195378e+002 -1.4792e+000 -1.1998e-001
106 0 +1.915031227e-002 +5.616891503e+002 +5.616891503e+002 -1.6540e+000 -1.1986e-001
119 0 +2.886517011e-003 +5.616728865e+002 +5.616728865e+002 -1.6528e+000 -1.1999e-001
132 0 +2.297151998e-003 +5.616722972e+002 +5.616722972e+002 -1.7448e+000 -1.1999e-001
167 0 +1.566870803e-004 +5.616701567e+002 +5.616701567e+002 -1.6952e+000 -1.1999e-001
194 0 +3.822258486e-005 +5.616700382e+002 +5.616700382e+002 -1.7051e+000 -1.2000e-001
206 0 +3.619535778e-005 +5.616700362e+002 +5.616700362e+002 -1.7054e+000 -1.2000e-001
210 0 +3.324433942e-005 +5.616700332e+002 +5.616700332e+002 -1.6950e+000 -1.2000e-001
216 0 +1.339665152e-005 +5.616700134e+002 +5.616700134e+002 -1.7002e+000 -1.2000e-001
217 0 +3.735708674e-006 +5.616700037e+002 +5.616700037e+002 -1.7017e+000 -1.2000e-001
240 0 +3.631745130e-006 +5.616700036e+002 +5.616700036e+002 -1.7019e+000 -1.2000e-001
249 0 +1.615149245e-006 +5.616700016e+002 +5.616700016e+002 -1.7008e+000 -1.2000e-001
255 0 +5.233864613e-007 +5.616700005e+002 +5.616700005e+002 -1.7015e+000 -1.2000e-001
282 0 +7.459993867e-008 +5.616700001e+002 +5.616700001e+002 -1.7008e+000 -1.2000e-001
287 0 +4.190690106e-008 +5.616700000e+002 +5.616700000e+002 -1.7006e+000 -1.2000e-001
294 0 +1.619173418e-008 +5.616700000e+002 +5.616700000e+002 -1.7008e+000 -1.2000e-001
296 0 +1.162800345e-008 +5.616700000e+002 +5.616700000e+002 -1.7008e+000 -1.2000e-001
297 0 +1.083583356e-008 +5.616700000e+002 +5.616700000e+002 -1.7008e+000 -1.2000e-001
310 0 +8.583924682e-009 +5.616700000e+002 +5.616700000e+002 -1.7008e+000 -1.2000e-001
