% f evaluations | g evaluations | best noise-free fitness - Fopt (-1.000000000000e+003) + sum g_i+ | measured fitness | best measured fitness or single-digit g-values | x1 | x2...
1 0 +6.314390928e+001 -9.368560907e+002 -9.368560907e+002 -4.9437e+000 -1.0998e+000 +1.4963e-001
2 0 +3.271175902e+001 -9.672882410e+002 -9.672882410e+002 +4.4605e+000 +3.4254e+000 -3.4011e+000
11 0 +2.136494828e+001 -9.786350517e+002 -9.786350517e+002 -1.1578e+000 +1.6870e+000 +1.1858e+000
14 0 +3.062247338e+000 -9.969377527e+002 -9.969377527e+002 -3.2631e-003 +5.5530e-001 -3.5731e+000
44 0 +2.400743567e+000 -9.975992564e+002 -9.975992564e+002 -6.5249e-001 +3.8658e-002 -1.1903e+000
61 0 +1.952376772e+000 -9.980476232e+002 -9.980476232e+002 -4.3613e-001 -5.8447e-002 -1.3856e+000
68 0 +5.194448875e-001 -9.994805551e+002 -9.994805551e+002 +1.3436e-001 -6.6580e-001 +1.9883e+000
363 0 +4.914965986e-001 -9.995085034e+002 -9.995085034e+002 +1.1023e-001 -6.9119e-001 +1.8648e+000
364 0 +3.393263402e-002 -9.999660674e+002 -9.999660674e+002 +1.4801e-001 -1.1112e-001 +2.0550e+000
484 0 +3.253743766e-002 -9.999674626e+002 -9.999674626e+002 +1.3420e-001 -1.6992e-001 +2.0412e+000
540 0 +3.214000087e-002 -9.999678600e+002 -9.999678600e+002 +1.3336e-001 -1.7138e-001 +2.0411e+000
542 0 +3.134768269e-002 -9.999686523e+002 -9.999686523e+002 +1.5866e-001 -1.8098e-001 +2.0472e+000
544 0 +1.957231612e-002 -9.999804277e+002 -9.999804277e+002 +1.0031e-001 -9.9264e-002 +2.0637e+000
569 0 +1.814689641e-002 -9.999818531e+002 -9.999818531e+002 +9.8738e-002 -1.4428e-001 +2.0633e+000
584 0 +1.762710414e-002 -9.999823729e+002 -9.999823729e+002 +1.2842e-001 -1.2187e-001 +2.0922e+000
588 0 +1.494684717e-002 -9.999850532e+002 -9.999850532e+002 +1.6190e-001 -7.0324e-002 +2.0992e+000
597 0 +1.403823744e-002 -9.999859618e+002 -9.999859618e+002 +1.7910e-001 +4.5568e-003 +2.1324e+000
608 0 +1.355938999e-002 -9.999864406e+002 -9.999864406e+002 +2.1294e-001 +2.0089e-002 +2.1521e+000
615 0 +1.337701266e-002 -9.999866230e+002 -9.999866230e+002 +2.0735e-001 +2.4588e-002 +2.1464e+000
667 0 +1.308032542e-002 -9.999869197e+002 -9.999869197e+002 +2.1643e-001 +5.6468e-003 +2.1404e+000
677 0 +1.276867787e-002 -9.999872313e+002 -9.999872313e+002 +3.1200e-001 +7.5349e-002 +2.2039e+000
722 0 +1.206903900e-002 -9.999879310e+002 -9.999879310e+002 +6.0425e-001 +9.1025e-002 +2.2410e+000
724 0 +9.197130027e-003 -9.999908029e+002 -9.999908029e+002 +5.1600e-001 +3.5473e-002 +2.2248e+000
741 0 +8.206360101e-003 -9.999917936e+002 -9.999917936e+002 +5.1713e-001 +4.5380e-002 +2.2315e+000
756 0 +6.599070811e-003 -9.999934009e+002 -9.999934009e+002 +6.0453e-001 +1.0374e-001 +2.2536e+000
757 0 +4.559252704e-003 -9.999954407e+002 -9.999954407e+002 +5.5428e-001 +9.5080e-002 +2.2528e+000
774 0 +4.361996542e-003 -9.999956380e+002 -9.999956380e+002 +5.7943e-001 +1.0732e-001 +2.2662e+000
791 0 +2.699751388e-003 -9.999973002e+002 -9.999973002e+002 +7.1880e-001 +2.3841e-001 +2.3456e+000
807 0 +1.644896288e-003 -9.999983551e+002 -9.999983551e+002 +7.4263e-001 +3.1291e-001 +2.3777e+000
816 0 +1.027897849e-003 -9.999989721e+002 -9.999989721e+002 +8.9543e-001 +5.0358e-001 +2.4745e+000
819 0 +4.878889299e-004 -9.999995121e+002 -9.999995121e+002 +9.2114e-001 +5.2381e-001 +2.4731e+000
820 0 +5.595520918e-005 -9.999999440e+002 -9.999999440e+002 +1.1312e+000 +5.3551e-001 +2.5303e+000
850 0 +3.457407104e-005 -9.999999654e+002 -9.999999654e+002 +1.5616e+000 +8.5270e-001 +2.7352e+000
869 0 +1.834911302e-005 -9.999999817e+002 -9.999999817e+002 +1.4756e+000 +8.1911e-001 +2.7032e+000
870 0 +2.896583055e-006 -9.999999971e+002 -9.999999971e+002 +1.3964e+000 +7.6166e-001 +2.6651e+000
901 0 +1.801608391e-006 -9.999999982e+002 -9.999999982e+002 +1.3949e+000 +7.6040e-001 +2.6637e+000
908 0 +4.354801604e-007 -9.999999996e+002 -9.999999996e+002 +1.3564e+000 +7.3207e-001 +2.6444e+000
922 0 +2.316248811e-007 -9.999999998e+002 -9.999999998e+002 +1.3519e+000 +7.2304e-001 +2.6403e+000
923 0 +7.463620477e-008 -9.999999999e+002 -9.999999999e+002 +1.3346e+000 +7.1029e-001 +2.6314e+000
927 0 +6.213213055e-009 -1.000000000e+003 -1.000000000e+003 +1.3389e+000 +7.0815e-001 +2.6305e+000
1188 0 +0.000000000e+000 -1.000000000e+003 -1.000000000e+003 +1.3493e+000 +7.1817e-001 +2.6351e+000
% f evaluations | g evaluations | best noise-free fitness - Fopt (1.000000000000e+003) + sum g_i+ | measured fitness | best measured fitness or single-digit g-values | x1 | x2...
1 0 +6.922809621e+001 +1.069228096e+003 +1.069228096e+003 -1.9150e+000 -1.8659e+000 -1.7517e+000
2 0 +2.682893279e+001 +1.026828933e+003 +1.026828933e+003 +3.4136e+000 -9.7660e-001 +1.9427e+000
21 0 +1.267762708e+001 +1.012677627e+003 +1.012677627e+003 -1.0882e+000 -2.4201e+000 +3.7832e+000
64 0 +2.136151348e+000 +1.002136151e+003 +1.002136151e+003 -2.8338e+000 -2.5518e+000 +1.9343e+000
86 0 +2.077613408e+000 +1.002077613e+003 +1.002077613e+003 -3.2836e+000 -2.6544e+000 +2.2665e+000
210 0 +1.997944710e+000 +1.001997945e+003 +1.001997945e+003 -3.1398e+000 -2.3929e+000 +1.6851e+000
218 0 +1.685366170e+000 +1.001685366e+003 +1.001685366e+003 +5.3598e-002 -2.5632e+000 -1.8632e+000
278 0 +1.215416988e+000 +1.001215417e+003 +1.001215417e+003 -8.7306e-002 -2.1252e+000 -1.3754e+000
290 0 +7.864159488e-001 +1.000786416e+003 +1.000786416e+003 -1.3277e-001 -2.2562e+000 -1.4196e+000
357 0 +4.571301955e-001 +1.000457130e+003 +1.000457130e+003 -7.7317e-002 -2.2732e+000 -1.5303e+000
362 0 +1.296252248e-001 +1.000129625e+003 +1.000129625e+003 +1.2854e-001 -2.5003e+000 -2.2255e+000
370 0 +1.014903794e-001 +1.000101490e+003 +1.000101490e+003 +1.1063e-001 -2.4004e+000 -1.7417e+000
415 0 +8.760379527e-002 +1.000087604e+003 +1.000087604e+003 +3.4891e-001 -2.6012e+000 -1.9980e+000
423 0 +6.160543447e-002 +1.000061605e+003 +1.000061605e+003 +5.3645e-001 -2.8359e+000 -2.1588e+000
432 0 +4.480374382e-002 +1.000044804e+003 +1.000044804e+003 +4.8265e-001 -2.8421e+000 -2.2142e+000
499 0 +4.008169894e-002 +1.000040082e+003 +1.000040082e+003 +4.5926e-001 -2.8242e+000 -2.1594e+000
504 0 +3.221069440e-002 +1.000032211e+003 +1.000032211e+003 +4.2544e-001 -2.7783e+000 -2.1447e+000
533 0 +2.948605280e-002 +1.000029486e+003 +1.000029486e+003 +2.2555e-001 -2.5448e+000 -1.9210e+000
548 0 +2.143942084e-002 +1.000021439e+003 +1.000021439e+003 +2.5293e-001 -2.5928e+000 -2.0465e+000
558 0 +1.363724941e-002 +1.000013637e+003 +1.000013637e+003 +1.9211e-001 -2.4646e+000 -2.1683e+000
565 0 +1.255619032e-002 +1.000012556e+003 +1.000012556e+003 +1.7203e-001 -2.4413e+000 -2.1518e+000
574 0 +1.110141580e-002 +1.000011101e+003 +1.000011101e+003 +1.4789e-001 -2.4180e+000 -2.0772e+000
576 0 +1.036584709e-002 +1.000010366e+003 +1.000010366e+003 +1.3761e-001 -2.4222e+000 -2.0600e+000
625 0 +3.558422020e-003 +1.000003558e+003 +1.000003558e+003 -1.3595e-001 -2.0893e+000 -2.0025e+000
636 0 +9.355812751e-004 +1.000000936e+003 +1.000000936e+003 -5.8824e-001 -1.5905e+000 -2.0600e+000
637 0 +1.607857221e-004 +1.000000161e+003 +1.000000161e+003 -6.7004e-001 -1.4795e+000 -2.0575e+000
659 0 +1.206307086e-004 +1.000000121e+003 +1.000000121e+003 -6.5275e-001 -1.4994e+000 -2.0461e+000
664 0 +1.161456155e-004 +1.000000116e+003 +1.000000116e+003 -5.2379e-001 -1.6473e+000 -2.0492e+000
679 0 +8.310106591e-005 +1.000000083e+003 +1.000000083e+003 -5.9581e-001 -1.5614e+000 -2.0137e+000
704 0 +1.707346564e-005 +1.000000017e+003 +1.000000017e+003 -8.1880e-001 -1.2909e+000 -2.0329e+000
706 0 +6.657655604e-006 +1.000000007e+003 +1.000000007e+003 -5.7003e-001 -1.5751e+000 -2.0648e+000
708 0 +6.347737667e-006 +1.000000006e+003 +1.000000006e+003 -5.8011e-001 -1.5643e+000 -2.0604e+000
727 0 +2.162851274e-006 +1.000000002e+003 +1.000000002e+003 -6.0900e-001 -1.5285e+000 -2.0690e+000
732 0 +4.621678045e-007 +1.000000000e+003 +1.000000000e+003 -7.2522e-001 -1.3962e+000 -2.0412e+000
755 0 +4.081310863e-007 +1.000000000e+003 +1.000000000e+003 -7.4593e-001 -1.3692e+000 -2.0600e+000
786 0 +2.001855819e-007 +1.000000000e+003 +1.000000000e+003 -7.2276e-001 -1.3954e+000 -2.0640e+000
789 0 +1.941575647e-007 +1.000000000e+003 +1.000000000e+003 -7.0430e-001 -1.4163e+000 -2.0672e+000
794 0 +1.357822157e-007 +1.000000000e+003 +1.000000000e+003 -7.2203e-001 -1.3957e+000 -2.0637e+000
796 0 +4.179264579e-008 +1.000000000e+003 +1.000000000e+003 -7.0865e-001 -1.4131e+000 -2.0516e+000
800 0 +3.461980214e-008 +1.000000000e+003 +1.000000000e+003 -7.0478e-001 -1.4175e+000 -2.0522e+000
875 0 +2.419005796e-008 +1.000000000e+003 +1.000000000e+003 -7.0330e-001 -1.4190e+000 -2.0533e+000
876 0 +1.786838766e-008 +1.000000000e+003 +1.000000000e+003 -6.9368e-001 -1.4299e+000 -2.0531e+000
897 0 +1.682792572e-008 +1.000000000e+003 +1.000000000e+003 -6.9191e-001 -1.4318e+000 -2.0540e+000
899 0 +1.168655217e-008 +1.000000000e+003 +1.000000000e+003 -7.0476e-001 -1.4168e+000 -2.0536e+000
908 0 +2.560454959e-009 +1.000000000e+003 +1.000000000e+003 -7.1425e-001 -1.4048e+000 -2.0542e+000
% f evaluations | g evaluations | best noise-free fitness - Fopt (-4.913000000000e+001) + sum g_i+ | measured fitness | best measured fitness or single-digit g-values | x1 | x2...
1 0 +6.972944012e+001 +2.059944012e+001 +2.059944012e+001 -8.8302e-001 -2.1019e+000 +9.1710e-001
2 0 +4.678718374e+001 -2.342816262e+000 -2.342816262e+000 -3.5049e+000 -1.6263e+000 +2.1311e+000
9 0 +3.468280959e+001 -1.444719041e+001 -1.444719041e+001 +8.0034e-001 -2.7336e+000 -1.5290e+000
17 0 +1.207350434e+001 -3.705649566e+001 -3.705649566e+001 +5.1175e-001 +4.3986e+000 -3.1417e+000
34 0 +1.153094903e+001 -3.759905097e+001 -3.759905097e+001 +4.6428e-001 +4.3986e+000 -3.1417e+000
39 0 +8.690131293e+000 -4.043986871e+001 -4.043986871e+001 +7.5192e-001 -2.8941e+000 -3.5364e-001
58 0 +5.872799238e+000 -4.325720076e+001 -4.325720076e+001 -2.5537e-001 +3.4950e+000 -3.4898e+000
83 0 +5.225734597e+000 -4.390426540e+001 -4.390426540e+001 +1.2044e-001 +3.2780e+000 -3.8418e+000
85 0 +3.931657876e+000 -4.519834212e+001 -4.519834212e+001 +7.5898e-002 +4.1684e+000 -3.9886e+000
94 0 +3.344787322e+000 -4.578521268e+001 -4.578521268e+001 -4.0773e-001 +4.0113e+000 -3.8849e+000
115 0 +2.635938050e+000 -4.649406195e+001 -4.649406195e+001 -1.3573e-001 +3.8926e+000 -3.9410e+000
186 0 +2.600119849e+000 -4.652988015e+001 -4.652988015e+001 -7.0770e-002 +3.8166e+000 -3.9508e+000
3262 0 +1.296641168e-001 -4.900033588e+001 -4.900033588e+001 +2.8117e+000 +1.1802e+000 +3.6366e+000
3506 0 +1.933107897e-002 -4.911066892e+001 -4.911066892e+001 +3.8244e+000 +2.7312e+000 +3.6117e+000
3553 0 +1.491180548e-002 -4.911508819e+001 -4.911508819e+001 +3.1489e+000 +1.7492e+000 +3.1745e+000
3564 0 +4.452560243e-003 -4.912554744e+001 -4.912554744e+001 +4.3449e+000 +3.5196e+000 +3.3421e+000
3609 0 +1.485906397e-004 -4.912985141e+001 -4.912985141e+001 +3.9136e+000 +2.8448e+000 +3.3458e+000
3651 0 +1.014851156e-004 -4.912989851e+001 -4.912989851e+001 +3.8936e+000 +2.8179e+000 +3.3493e+000
3661 0 +8.169761410e-005 -4.912991830e+001 -4.912991830e+001 +3.7852e+000 +2.6586e+000 +3.3624e+000
3679 0 +5.988632722e-006 -4.912999401e+001 -4.912999401e+001 +3.7843e+000 +2.6673e+000 +3.3461e+000
3690 0 +1.590641020e-006 -4.912999841e+001 -4.912999841e+001 +3.8295e+000 +2.7377e+000 +3.3313e+000
3709 0 +1.341076278e-006 -4.912999866e+001 -4.912999866e+001 +3.7063e+000 +2.5612e+000 +3.3461e+000
3734 0 +3.732366665e-007 -4.912999963e+001 -4.912999963e+001 +3.7106e+000 +2.5681e+000 +3.3377e+000
3739 0 +4.991415636e-008 -4.912999995e+001 -4.912999995e+001 +3.7394e+000 +2.6070e+000 +3.3174e+000
3794 0 +4.688567401e-008 -4.912999995e+001 -4.912999995e+001 +3.7427e+000 +2.6117e+000 +3.3173e+000
3798 0 +3.070761068e-008 -4.912999997e+001 -4.912999997e+001 +3.7325e+000 +2.5977e+000 +3.3237e+000
3810 0 +1.154391072e-008 -4.912999999e+001 -4.912999999e+001 +3.7460e+000 +2.6175e+000 +3.3190e+000
3843 0 +5.186031160e-009 -4.912999999e+001 -4.912999999e+001 +3.7600e+000 +2.6374e+000 +3.3198e+000
% f evaluations | g evaluations | best noise-free fitness - Fopt (2.977300000000e+002) + sum g_i+ | measured fitness | best measured fitness or single-digit g-values | x1 | x2...
1 0 +5.384462169e+001 +3.515746217e+002 +3.515746217e+002 -4.0018e+000 -3.0964e+000 +2.8277e+000
6 0 +2.229123275e+001 +3.200212327e+002 +3.200212327e+002 -3.8721e+000 -2.7284e+000 -5.0059e-001
8 0 +1.937542268e+001 +3.171054227e+002 +3.171054227e+002 -7.6877e-001 -5.0000e+000 +4.0703e-001
9 0 +1.073931284e+000 +2.988039313e+002 +2.988039313e+002 -2.5057e+000 +1.2019e+000 +2.6430e+000
39 0 +1.001722614e+000 +2.987317226e+002 +2.987317226e+002 -2.4721e+000 +1.2055e+000 +2.6413e+000
68 0 +9.611561715e-001 +2.986911562e+002 +2.986911562e+002 -2.4506e+000 +1.2078e+000 +2.6403e+000
87 0 +9.376824854e-001 +2.986676825e+002 +2.986676825e+002 -1.6343e+000 +4.8287e+000 +1.1306e+000
128 0 +9.231751163e-001 +2.986531751e+002 +2.986531751e+002 -2.4280e+000 +1.2101e+000 +2.6392e+000
177 0 +7.208260475e-001 +2.984508260e+002 +2.984508260e+002 -2.4848e+000 +1.1501e+000 +2.6911e+000
239 0 +6.253458448e-001 +2.983553458e+002 +2.983553458e+002 -2.3946e+000 +1.1777e+000 +2.6752e+000
313 0 +5.014673504e-001 +2.982314674e+002 +2.982314674e+002 -2.4392e+000 +1.1623e+000 +2.8170e+000
355 0 +4.667999303e-001 +2.981967999e+002 +2.981967999e+002 -2.1984e+000 +1.1524e+000 +2.8241e+000
368 0 +1.709093499e-001 +2.979009093e+002 +2.979009093e+002 -2.2097e+000 +1.0761e+000 +2.8627e+000
411 0 +1.421298992e-001 +2.978721299e+002 +2.978721299e+002 -2.2906e+000 +1.0662e+000 +2.9263e+000
420 0 +1.375340383e-001 +2.978675340e+002 +2.978675340e+002 -2.3660e+000 +1.0574e+000 +2.9867e+000
440 0 +1.340830379e-001 +2.978640830e+002 +2.978640830e+002 -2.3665e+000 +1.0547e+000 +2.9880e+000
456 0 +4.690631314e-002 +2.977769063e+002 +2.977769063e+002 -1.9451e+000 +9.1991e-001 +3.1114e+000
486 0 +4.428316836e-002 +2.977742832e+002 +2.977742832e+002 -2.0349e+000 +8.9364e-001 +3.1531e+000
506 0 +3.178189299e-002 +2.977617819e+002 +2.977617819e+002 -2.1506e+000 +9.1778e-001 +3.1520e+000
514 0 +3.132651864e-002 +2.977613265e+002 +2.977613265e+002 -2.1490e+000 +9.1162e-001 +3.1594e+000
531 0 +1.731181282e-002 +2.977473118e+002 +2.977473118e+002 -2.3693e+000 +8.6071e-001 +3.3366e+000
549 0 +8.077767644e-003 +2.977380778e+002 +2.977380778e+002 -2.9411e+000 +7.2180e-001 +3.6681e+000
552 0 +2.781892824e-003 +2.977327819e+002 +2.977327819e+002 -3.0421e+000 +7.1059e-001 +3.6605e+000
568 0 +2.001084308e-003 +2.977320011e+002 +2.977320011e+002 -3.2289e+000 +7.7775e-001 +3.5987e+000
570 0 +1.906417355e-003 +2.977319064e+002 +2.977319064e+002 -3.2034e+000 +7.9242e-001 +3.5557e+000
581 0 +8.317248746e-004 +2.977308317e+002 +2.977308317e+002 -3.1755e+000 +7.6396e-001 +3.5925e+000
595 0 +3.438472415e-004 +2.977303438e+002 +2.977303438e+002 -3.3281e+000 +7.2489e-001 +3.6467e+000
623 0 +2.586706779e-004 +2.977302587e+002 +2.977302587e+002 -3.5386e+000 +6.9032e-001 +3.7262e+000
625 0 +1.507601479e-004 +2.977301508e+002 +2.977301508e+002 -3.5752e+000 +7.2489e-001 +3.6951e+000
631 0 +1.447792332e-004 +2.977301448e+002 +2.977301448e+002 -3.5112e+000 +7.2818e-001 +3.6800e+000
646 0 +8.375545838e-005 +2.977300838e+002 +2.977300838e+002 -3.5050e+000 +7.2280e-001 +3.7038e+000
647 0 +6.604266110e-005 +2.977300660e+002 +2.977300660e+002 -3.5156e+000 +7.1992e-001 +3.7081e+000
665 0 +2.790923480e-005 +2.977300279e+002 +2.977300279e+002 -3.6339e+000 +6.5618e-001 +3.8364e+000
674 0 +2.628484884e-005 +2.977300263e+002 +2.977300263e+002 -3.6347e+000 +6.5799e-001 +3.8344e+000
685 0 +2.455931650e-005 +2.977300246e+002 +2.977300246e+002 -3.8089e+000 +6.5330e-001 +3.8411e+000
696 0 +6.179283844e-006 +2.977300062e+002 +2.977300062e+002 -3.8915e+000 +6.3082e-001 +3.9075e+000
703 0 +1.204122725e-006 +2.977300012e+002 +2.977300012e+002 -3.7969e+000 +6.5971e-001 +3.8567e+000
722 0 +4.843612942e-007 +2.977300005e+002 +2.977300005e+002 -3.7802e+000 +6.6192e-001 +3.8490e+000
734 0 +4.202594823e-007 +2.977300004e+002 +2.977300004e+002 -3.7781e+000 +6.6237e-001 +3.8476e+000
767 0 +2.406056865e-007 +2.977300002e+002 +2.977300002e+002 -3.7929e+000 +6.5857e-001 +3.8552e+000
773 0 +1.561471095e-007 +2.977300002e+002 +2.977300002e+002 -3.7651e+000 +6.6086e-001 +3.8462e+000
817 0 +1.330022315e-009 +2.977300000e+002 +2.977300000e+002 -3.7957e+000 +6.5896e-001 +3.8472e+000
% f evaluations | g evaluations | best noise-free fitness - Fopt (5.157000000000e+001) + sum g_i+ | measured fitness | best measured fitness or single-digit g-values | x1 | x2...
1 0 +7.821188942e+001 +1.297818894e+002 +1.297818894e+002 -5.2670e-001 -7.4690e-001 -1.0290e+000
2 0 +1.000082805e+001 +6.157082805e+001 +6.157082805e+001 +2.8788e+000 -3.0743e+000 +4.3187e+000
19 0 +8.615721768e+000 +6.018572177e+001 +6.018572177e+001 +1.4214e+000 -1.0894e+000 +2.2406e+000
39 0 +8.436472709e+000 +6.000647271e+001 +6.000647271e+001 +1.4306e+000 -1.1284e+000 +2.2406e+000
41 0 +7.473315383e+000 +5.904331538e+001 +5.904331538e+001 +2.5029e+000 -8.8731e-001 +1.6179e+000
75 0 +2.136565266e+000 +5.370656527e+001 +5.370656527e+001 +2.0062e+000 -2.2354e+000 +4.9218e+000
78 0 +1.924238284e+000 +5.349423828e+001 +5.349423828e+001 +2.0872e+000 -2.2977e+000 +4.7475e+000
146 0 +1.215164126e+000 +5.278516413e+001 +5.278516413e+001 +2.0682e+000 -1.8656e+000 +4.4178e+000
168 0 +1.191504744e+000 +5.276150474e+001 +5.276150474e+001 +1.9357e+000 -2.2001e+000 +4.6013e+000
176 0 +8.013555178e-001 +5.237135552e+001 +5.237135552e+001 +1.9838e+000 -1.9983e+000 +4.4178e+000
319 0 +7.420905257e-001 +5.231209053e+001 +5.231209053e+001 +1.8806e+000 -2.0384e+000 +4.3379e+000
332 0 +7.353238079e-001 +5.230532381e+001 +5.230532381e+001 +1.8674e+000 -2.0206e+000 +4.3388e+000
386 0 +7.048496631e-001 +5.227484966e+001 +5.227484966e+001 +1.8888e+000 -1.9079e+000 +4.4886e+000
13041 0 +5.975845323e-001 +5.216758453e+001 +5.216758453e+001 +4.3842e+000 +5.0868e-001 +5.2161e-001
13042 0 +5.313621596e-001 +5.210136216e+001 +5.210136216e+001 +4.8226e+000 +5.2030e-001 +5.2565e-001
13056 0 +5.122350989e-001 +5.208223510e+001 +5.208223510e+001 +4.7599e+000 +5.9156e-001 +3.6504e-001
13131 0 +4.966793661e-001 +5.206667937e+001 +5.206667937e+001 +4.6783e+000 +5.8835e-001 +2.6220e-001
13209 0 +4.677460061e-001 +5.203774601e+001 +5.203774601e+001 +4.3950e+000 +6.7746e-001 -1.2020e-001
13214 0 +4.459409048e-001 +5.201594090e+001 +5.201594090e+001 +4.4387e+000 +6.7227e-001 -5.7210e-002
13220 0 +4.351001628e-001 +5.200510016e+001 +5.200510016e+001 +4.4387e+000 +6.7018e-001 -4.2329e-002
13240 0 +4.189855857e-001 +5.198898559e+001 +5.198898559e+001 +4.4310e+000 +6.5475e-001 +3.9551e-003
13248 0 +3.961496354e-001 +5.196614964e+001 +5.196614964e+001 +4.4137e+000 +6.6185e-001 -8.1059e-003
13267 0 +3.885483478e-001 +5.195854835e+001 +5.195854835e+001 +4.4042e+000 +6.5989e-001 -4.9985e-003
13280 0 +3.006541055e-001 +5.187065411e+001 +5.187065411e+001 +3.8814e+000 +8.6908e-001 -4.8132e-001
13283 0 +2.320120682e-001 +5.180201207e+001 +5.180201207e+001 +3.9003e+000 +7.9056e-001 -3.0488e-001
13288 0 +1.135113037e-001 +5.168351130e+001 +5.168351130e+001 +3.8370e+000 +8.2617e-001 -5.2500e-001
13297 0 +9.220486590e-002 +5.166220487e+001 +5.166220487e+001 +3.7226e+000 +8.6745e-001 -6.5247e-001
13312 0 +8.581638469e-002 +5.165581638e+001 +5.165581638e+001 +3.6916e+000 +8.8870e-001 -7.1786e-001
13313 0 +4.360500519e-002 +5.161360501e+001 +5.161360501e+001 +3.2634e+000 +1.0299e+000 -1.1522e+000
13319 0 +2.597730316e-002 +5.159597730e+001 +5.159597730e+001 +3.2023e+000 +1.0356e+000 -1.2128e+000
13321 0 +1.551001502e-002 +5.158551002e+001 +5.158551002e+001 +2.9776e+000 +1.1074e+000 -1.4543e+000
13322 0 +1.307302398e-002 +5.158307302e+001 +5.158307302e+001 +2.8877e+000 +1.1337e+000 -1.5553e+000
13350 0 +1.207534592e-002 +5.158207535e+001 +5.158207535e+001 +2.6510e+000 +1.1872e+000 -1.7216e+000
13352 0 +4.598240224e-003 +5.157459824e+001 +5.157459824e+001 +2.3740e+000 +1.2786e+000 -2.0487e+000
13359 0 +3.707210470e-003 +5.157370721e+001 +5.157370721e+001 +2.6318e+000 +1.1935e+000 -1.7872e+000
13368 0 +3.207082103e-003 +5.157320708e+001 +5.157320708e+001 +2.4476e+000 +1.2495e+000 -1.9822e+000
13381 0 +8.983672555e-004 +5.157089837e+001 +5.157089837e+001 +1.9186e+000 +1.3866e+000 -2.5141e+000
13391 0 +8.720219651e-004 +5.157087202e+001 +5.157087202e+001 +2.4339e+000 +1.2359e+000 -1.9882e+000
13421 0 +4.966832132e-004 +5.157049668e+001 +5.157049668e+001 +2.0152e+000 +1.3540e+000 -2.4141e+000
13423 0 +5.608001193e-005 +5.157005608e+001 +5.157005608e+001 +2.0704e+000 +1.3141e+000 -2.3071e+000
13434 0 +5.254512189e-005 +5.157005255e+001 +5.157005255e+001 +2.0253e+000 +1.3227e+000 -2.3476e+000
13454 0 +6.913585977e-006 +5.157000691e+001 +5.157000691e+001 +2.0870e+000 +1.2909e+000 -2.2530e+000
13516 0 +5.750675406e-006 +5.157000575e+001 +5.157000575e+001 +2.1273e+000 +1.2566e+000 -2.1586e+000
13525 0 +9.091235071e-007 +5.157000091e+001 +5.157000091e+001 +2.1229e+000 +1.2611e+000 -2.1653e+000
13531 0 +1.982495448e-007 +5.157000020e+001 +5.157000020e+001 +2.1072e+000 +1.2729e+000 -2.1962e+000
13538 0 +1.689383708e-007 +5.157000017e+001 +5.157000017e+001 +2.1037e+000 +1.2764e+000 -2.2039e+000
13584 0 +1.641853800e-007 +5.157000016e+001 +5.157000016e+001 +2.1026e+000 +1.2765e+000 -2.2046e+000
13592 0 +6.117755902e-008 +5.157000006e+001 +5.157000006e+001 +2.0579e+000 +1.2894e+000 -2.2453e+000
13602 0 +4.569310619e-008 +5.157000005e+001 +5.157000005e+001 +2.0602e+000 +1.2880e+000 -2.2414e+000
13615 0 +1.142209527e-008 +5.157000001e+001 +5.157000001e+001 +2.0642e+000 +1.2849e+000 -2.2310e+000
13623 0 +1.936179217e-009 +5.157000000e+001 +5.157000000e+001 +2.0833e+000 +1.2791e+000 -2.2120e+000
% f evaluations | g evaluations | best noise-free fitness - Fopt (1.527100000000e+002) + sum g_i+ | measured fitness | best measured fitness or single-digit g-values | x1 | x2...
1 0 +6.613791338e+001 +2.188479134e+002 +2.188479134e+002 -4.6820e+000 -2.4565e+000 -3.4136e+000
2 0 +5.820220323e+001 +2.109122032e+002 +2.109122032e+002 -2.7415e+000 -3.4240e+000 -1.5266e+000
4 0 +5.743114922e+001 +2.101411492e+002 +2.101411492e+002 +2.5459e+000 -1.6290e+000 +2.4494e+000
6 0 +4.352384978e+001 +1.962338498e+002 +1.962338498e+002 -9.3185e-001 -3.1369e+000 -2.4557e+000
10 0 +3.493217650e+001 +1.876421765e+002 +1.876421765e+002 -1.5815e-001 -5.0000e+000 -7.8142e-001
18 0 +2.561576946e+001 +1.783257695e+002 +1.783257695e+002 +2.7577e-001 -5.0000e+000 -3.1859e-001
20 0 +2.201239844e+001 +1.747223984e+002 +1.747223984e+002 -1.3757e-001 -5.0000e+000 -9.5688e-002
36 0 +9.862446412e+000 +1.625724464e+002 +1.625724464e+002 -1.3756e-001 -3.1369e+000 -9.5688e-002
45 0 +9.235985816e+000 +1.619459858e+002 +1.619459858e+002 -5.8273e-001 -2.5280e+000 -1.7293e-001
65 0 +8.662011128e+000 +1.613720111e+002 +1.613720111e+002 +3.7079e-001 -3.1369e+000 +1.4147e+000
81 0 +8.199863935e+000 +1.609098639e+002 +1.609098639e+002 -5.5230e-001 -2.9143e+000 -1.8434e-002
95 0 +9.035800660e-001 +1.536135801e+002 +1.536135801e+002 +6.9613e-001 -3.1369e+000 +2.3814e+000
357 0 +6.166329504e-001 +1.533266330e+002 +1.533266330e+002 +5.9437e-001 -3.2152e+000 +2.3420e+000
363 0 +6.047854507e-001 +1.533147855e+002 +1.533147855e+002 +5.8852e-001 -3.2374e+000 +2.3160e+000
395 0 +4.603997582e-001 +1.531703998e+002 +1.531703998e+002 -3.3914e-002 -2.8896e+000 +2.4201e+000
412 0 +3.265036018e-001 +1.530365036e+002 +1.530365036e+002 -2.2084e-001 -2.7650e+000 +2.4285e+000
422 0 +3.224894382e-001 +1.530324894e+002 +1.530324894e+002 -2.7187e-001 -2.8043e+000 +2.4087e+000
433 0 +2.922273574e-001 +1.530022274e+002 +1.530022274e+002 -2.1102e-001 -2.8312e+000 +2.3488e+000
437 0 +2.852660277e-001 +1.529952660e+002 +1.529952660e+002 -2.1671e-001 -2.8334e+000 +2.3455e+000
444 0 +1.484401348e-001 +1.528584401e+002 +1.528584401e+002 -5.5996e-001 -2.7615e+000 +2.3033e+000
451 0 +1.222284179e-001 +1.528322284e+002 +1.528322284e+002 -9.1820e-001 -2.6525e+000 +2.2245e+000
457 0 +1.195875124e-001 +1.528295875e+002 +1.528295875e+002 -2.5841e+000 -2.0594e+000 +2.2442e+000
458 0 +1.854121786e-002 +1.527285412e+002 +1.527285412e+002 -2.6522e+000 -1.7994e+000 +2.3385e+000
463 0 +1.587628146e-002 +1.527258763e+002 +1.527258763e+002 -2.6918e+000 -1.9005e+000 +2.2556e+000
477 0 +1.539976264e-002 +1.527253998e+002 +1.527253998e+002 -2.5361e+000 -1.9668e+000 +2.2562e+000
495 0 +1.808295566e-003 +1.527118083e+002 +1.527118083e+002 -2.5312e+000 -1.7203e+000 +2.5354e+000
521 0 +1.705744433e-003 +1.527117057e+002 +1.527117057e+002 -2.7075e+000 -1.6226e+000 +2.5637e+000
544 0 +1.495695376e-003 +1.527114957e+002 +1.527114957e+002 -2.7513e+000 -1.6032e+000 +2.5612e+000
550 0 +1.099022227e-003 +1.527110990e+002 +1.527110990e+002 -3.5146e+000 -1.3872e+000 +2.4466e+000
561 0 +2.409951384e-005 +1.527100241e+002 +1.527100241e+002 -2.9926e+000 -1.6290e+000 +2.4504e+000
565 0 +6.596112001e-006 +1.527100066e+002 +1.527100066e+002 -2.9769e+000 -1.6282e+000 +2.4514e+000
637 0 +5.889047316e-006 +1.527100059e+002 +1.527100059e+002 -2.9296e+000 -1.6411e+000 +2.4573e+000
640 0 +3.111241938e-006 +1.527100031e+002 +1.527100031e+002 -3.0300e+000 -1.5929e+000 +2.4594e+000
654 0 +1.447500040e-006 +1.527100014e+002 +1.527100014e+002 -3.0306e+000 -1.5890e+000 +2.4643e+000
664 0 +7.732580798e-008 +1.527100001e+002 +1.527100001e+002 -3.0337e+000 -1.5695e+000 +2.4890e+000
667 0 +4.864060088e-008 +1.527100000e+002 +1.527100000e+002 -3.1318e+000 -1.5327e+000 +2.4847e+000
716 0 +4.559333888e-008 +1.527100000e+002 +1.527100000e+002 -3.1211e+000 -1.5405e+000 +2.4822e+000
742 0 +4.289168487e-008 +1.527100000e+002 +1.527100000e+002 -3.1055e+000 -1.5479e+000 +2.4823e+000
749 0 +2.515568553e-008 +1.527100000e+002 +1.527100000e+002 -3.0245e+000 -1.5805e+000 +2.4805e+000
752 0 +1.401065219e-008 +1.527100000e+002 +1.527100000e+002 -3.0297e+000 -1.5793e+000 +2.4800e+000
766 0 +1.132403327e-008 +1.527100000e+002 +1.527100000e+002 -3.0473e+000 -1.5699e+000 +2.4835e+000
797 0 +9.128001466e-009 +1.527100000e+002 +1.527100000e+002 -3.0477e+000 -1.5699e+000 +2.4832e+000
% f evaluations | g evaluations | best noise-free fitness - Fopt (9.980000000000e+001) + sum g_i+ | measured fitness | best measured fitness or single-digit g-values | x1 | x2...
1 0 +3.668177363e+001 +1.364817736e+002 +1.364817736e+002 +4.2358e+000 -3.3156e+000 -1.0525e+000
13 0 +9.417135682e+000 +1.092171357e+002 +1.092171357e+002 +2.6851e+000 -2.2047e+000 +2.3614e+000
25 0 +2.233094086e+000 +1.020330941e+002 +1.020330941e+002 +3.8959e+000 -4.8451e+000 +3.9143e+000
61 0 +8.786987760e-001 +1.006786988e+002 +1.006786988e+002 +3.2765e+000 -3.8145e+000 +3.2952e+000
204 0 +7.060403131e-001 +1.005060403e+002 +1.005060403e+002 +3.3642e+000 -3.7714e+000 +3.3914e+000
1164 0 +5.943073744e-001 +1.003943074e+002 +1.003943074e+002 -9.2628e-001 +3.1518e-001 +3.8580e+000
1197 0 +4.448756727e-001 +1.002448757e+002 +1.002448757e+002 -7.8487e-001 +1.8604e-001 +3.8432e+000
1198 0 +3.301079120e-001 +1.001301079e+002 +1.001301079e+002 -3.8027e-001 +1.8422e-001 +3.8426e+000
1207 0 +1.317384943e-001 +9.993173849e+001 +9.993173849e+001 -5.2030e-001 +2.5528e-001 +3.8524e+000
1237 0 +1.228887611e-001 +9.992288876e+001 +9.992288876e+001 -4.7875e-001 +2.5913e-001 +3.7990e+000
1257 0 +1.124928909e-001 +9.991249289e+001 +9.991249289e+001 -4.5619e-001 +2.3648e-001 +3.7967e+000
1274 0 +1.075821393e-001 +9.990758214e+001 +9.990758214e+001 -4.8886e-001 +2.3894e-001 +3.7711e+000
1280 0 +1.057374048e-001 +9.990573740e+001 +9.990573740e+001 -5.2160e-001 +2.4423e-001 +3.7319e+000
1281 0 +1.045341553e-001 +9.990453416e+001 +9.990453416e+001 -5.1842e-001 +2.4264e-001 +3.7352e+000
1291 0 +1.020298026e-001 +9.990202980e+001 +9.990202980e+001 -4.5021e-001 +2.3992e-001 +3.7406e+000
1329 0 +9.294601357e-002 +9.989294601e+001 +9.989294601e+001 -4.7637e-001 +2.3301e-001 +3.7029e+000
1338 0 +9.097596047e-002 +9.989097596e+001 +9.989097596e+001 -4.7325e-001 +2.1824e-001 +3.7012e+000
1340 0 +8.580466237e-002 +9.988580466e+001 +9.988580466e+001 -4.9491e-001 +2.2042e-001 +3.6856e+000
1341 0 +8.253207868e-002 +9.988253208e+001 +9.988253208e+001 -4.7353e-001 +2.2294e-001 +3.6436e+000
1367 0 +7.892769590e-002 +9.987892770e+001 +9.987892770e+001 -4.8929e-001 +2.1712e-001 +3.6435e+000
1372 0 +7.294846965e-002 +9.987294847e+001 +9.987294847e+001 -5.2178e-001 +2.1652e-001 +3.5869e+000
1375 0 +6.731917170e-002 +9.986731917e+001 +9.986731917e+001 -6.0318e-001 +2.1615e-001 +3.5760e+000
1387 0 +6.508492633e-002 +9.986508493e+001 +9.986508493e+001 -6.7554e-001 +2.1480e-001 +3.5231e+000
1389 0 +6.171338634e-002 +9.986171339e+001 +9.986171339e+001 -6.7912e-001 +2.1207e-001 +3.5264e+000
1391 0 +6.137929481e-002 +9.986137929e+001 +9.986137929e+001 -5.7915e-001 +2.0284e-001 +3.5629e+000
1399 0 +5.926102463e-002 +9.985926102e+001 +9.985926102e+001 -5.9019e-001 +1.9874e-001 +3.5515e+000
1408 0 +3.561102128e-002 +9.983561102e+001 +9.983561102e+001 -7.8445e-001 +1.6864e-001 +3.3424e+000
1411 0 +3.194970988e-002 +9.983194971e+001 +9.983194971e+001 -8.2223e-001 +1.6158e-001 +3.2865e+000
1413 0 +3.113260972e-002 +9.983113261e+001 +9.983113261e+001 -9.1195e-001 +1.5975e-001 +3.2040e+000
1414 0 +3.017824933e-002 +9.983017825e+001 +9.983017825e+001 -8.5544e-001 +1.6282e-001 +3.2792e+000
1427 0 +2.925686931e-002 +9.982925687e+001 +9.982925687e+001 -9.6003e-001 +1.4182e-001 +3.0928e+000
1429 0 +2.267907586e-002 +9.982267908e+001 +9.982267908e+001 -9.6766e-001 +1.3858e-001 +3.1112e+000
1437 0 +1.960195967e-002 +9.981960196e+001 +9.981960196e+001 -1.0119e+000 +1.3838e-001 +3.1053e+000
1442 0 +1.911726629e-002 +9.981911727e+001 +9.981911727e+001 -1.1098e+000 +1.2775e-001 +3.0000e+000
1447 0 +1.756696375e-002 +9.981756696e+001 +9.981756696e+001 -1.1404e+000 +1.2175e-001 +2.9678e+000
1454 0 +1.577565009e-002 +9.981577565e+001 +9.981577565e+001 -1.0305e+000 +1.2171e-001 +3.0785e+000
1458 0 +4.425721463e-003 +9.980442572e+001 +9.980442572e+001 -1.3422e+000 +8.2349e-002 +2.8478e+000
1460 0 +4.180072754e-003 +9.980418007e+001 +9.980418007e+001 -1.6495e+000 +3.5870e-002 +2.4960e+000
1473 0 +3.123877535e-003 +9.980312388e+001 +9.980312388e+001 -1.5830e+000 +4.7516e-002 +2.7664e+000
1482 0 +1.051610453e-003 +9.980105161e+001 +9.980105161e+001 -1.6921e+000 +3.0433e-002 +2.6635e+000
1483 0 +1.163131048e-004 +9.980011631e+001 +9.980011631e+001 -2.1448e+000 -4.4297e-002 +2.1459e+000
1489 0 +9.743340227e-005 +9.980009743e+001 +9.980009743e+001 -2.1334e+000 -4.7974e-002 +2.2316e+000
1492 0 +1.605697986e-005 +9.980001606e+001 +9.980001606e+001 -2.0260e+000 -1.6168e-002 +2.3346e+000
1518 0 +1.715701615e-006 +9.980000172e+001 +9.980000172e+001 -2.1512e+000 -3.5743e-002 +2.2136e+000
1533 0 +5.138125800e-007 +9.980000051e+001 +9.980000051e+001 -2.2888e+000 -5.8287e-002 +2.1171e+000
1572 0 +2.814066136e-007 +9.980000028e+001 +9.980000028e+001 -2.2772e+000 -5.6066e-002 +2.1286e+000
1575 0 +1.173464881e-007 +9.980000012e+001 +9.980000012e+001 -2.2795e+000 -5.4631e-002 +2.1334e+000
1597 0 +1.175160946e-008 +9.980000001e+001 +9.980000001e+001 -2.2485e+000 -5.0324e-002 +2.1520e+000
1599 0 +1.319151011e-009 +9.980000000e+001 +9.980000000e+001 -2.2338e+000 -4.7409e-002 +2.1648e+000
% f evaluations | g evaluations | best noise-free fitness - Fopt (-1.194100000000e+002) + sum g_i+ | measured fitness | best measured fitness or single-digit g-values | x1 | x2...
1 0 +6.490185883e+001 -5.450814117e+001 -5.450814117e+001 -2.1571e+000 -1.3539e+000 -3.5722e+000
2 0 +2.564093313e+001 -9.376906687e+001 -9.376906687e+001 -1.4580e+000 +3.1818e+000 -5.6604e-001
4 0 +2.059001052e+001 -9.881998948e+001 -9.881998948e+001 +3.5614e+000 -2.4031e+000 +3.6770e+000
31 0 +1.482697385e+001 -1.045830262e+002 -1.045830262e+002 -2.2436e+000 +3.9701e+000 -1.5780e-001
36 0 +1.366713452e+001 -1.057428655e+002 -1.057428655e+002 -2.3582e+000 +3.8477e+000 -2.2643e-001
39 0 +1.210679338e+001 -1.073032066e+002 -1.073032066e+002 +3.5410e+000 -2.7300e+000 +2.5049e-001
41 0 +7.600439626e+000 -1.118095604e+002 -1.118095604e+002 -2.5167e+000 +2.7348e+000 -2.7131e+000
117 0 +3.942796919e+000 -1.154672031e+002 -1.154672031e+002 -2.6838e+000 +3.9198e+000 -1.4317e+000
200 0 +2.674753962e+000 -1.167352460e+002 -1.167352460e+002 -2.3204e+000 +4.0566e+000 -1.7513e+000
335 0 +2.626202573e+000 -1.167837974e+002 -1.167837974e+002 -2.2546e+000 +4.1345e+000 -1.5718e+000
837 0 +2.051161802e+000 -1.173588382e+002 -1.173588382e+002 +3.3200e+000 -2.7216e+000 +1.5864e+000
932 0 +2.001902433e+000 -1.174080976e+002 -1.174080976e+002 +3.5673e+000 -2.5033e+000 +2.0049e+000
946 0 +1.987678854e+000 -1.174223211e+002 -1.174223211e+002 +3.6931e+000 -2.5441e+000 +1.6976e+000
3461 0 +1.544156253e+000 -1.178658437e+002 -1.178658437e+002 +9.8944e-001 +6.1202e-001 +4.3514e+000
3478 0 +5.030690558e-001 -1.189069309e+002 -1.189069309e+002 +1.4121e+000 +8.4861e-001 +4.7743e+000
3507 0 +2.585995468e-001 -1.191514005e+002 -1.191514005e+002 +1.0704e+000 +7.7328e-001 +4.9823e+000
3567 0 +2.553435469e-001 -1.191546565e+002 -1.191546565e+002 +1.0718e+000 +7.7186e-001 +4.9799e+000
3619 0 +2.441159823e-001 -1.191658840e+002 -1.191658840e+002 +1.2277e+000 +7.8474e-001 +4.9543e+000
3627 0 +1.765244851e-001 -1.192334755e+002 -1.192334755e+002 +1.0855e+000 +7.7975e-001 +4.8099e+000
3634 0 +1.562969654e-001 -1.192537030e+002 -1.192537030e+002 +9.8643e-001 +7.7280e-001 +4.7437e+000
3755 0 +1.455628414e-001 -1.192644372e+002 -1.192644372e+002 +8.9594e-001 +7.0278e-001 +4.5915e+000
3767 0 +1.150923256e-001 -1.192949077e+002 -1.192949077e+002 +7.9812e-001 +7.1465e-001 +4.5899e+000
3777 0 +8.496673498e-002 -1.193250333e+002 -1.193250333e+002 +6.6927e-001 +7.0873e-001 +4.4265e+000
3783 0 +2.900553766e-004 -1.194097099e+002 -1.194097099e+002 -1.0139e+000 +5.0343e-001 +3.2598e+000
3792 0 +2.803197531e-004 -1.194097197e+002 -1.194097197e+002 -9.9909e-001 +5.0700e-001 +3.2776e+000
3827 0 +9.741600338e-005 -1.194099026e+002 -1.194099026e+002 -9.5706e-001 +5.1218e-001 +3.3607e+000
3858 0 +8.910347945e-005 -1.194099109e+002 -1.194099109e+002 -9.5571e-001 +5.1276e-001 +3.3701e+000
3861 0 +2.276485928e-005 -1.194099772e+002 -1.194099772e+002 -1.4840e+000 +4.4961e-001 +3.0416e+000
3868 0 +6.940703088e-006 -1.194099931e+002 -1.194099931e+002 -1.4508e+000 +4.5272e-001 +3.0684e+000
3923 0 +6.648391789e-006 -1.194099934e+002 -1.194099934e+002 -1.4021e+000 +4.6172e-001 +3.1248e+000
3926 0 +2.126028761e-006 -1.194099979e+002 -1.194099979e+002 -1.1543e+000 +4.8419e-001 +3.2477e+000
3936 0 +1.768266728e-006 -1.194099982e+002 -1.194099982e+002 -1.1691e+000 +4.8325e-001 +3.2352e+000
3943 0 +1.101081750e-007 -1.194099999e+002 -1.194099999e+002 -1.3389e+000 +4.6400e-001 +3.1452e+000
3964 0 +5.840192330e-008 -1.194099999e+002 -1.194099999e+002 -1.3297e+000 +4.6552e-001 +3.1519e+000
3974 0 +4.495248618e-008 -1.194100000e+002 -1.194100000e+002 -1.2904e+000 +4.7128e-001 +3.1762e+000
3986 0 +2.125553067e-008 -1.194100000e+002 -1.194100000e+002 -1.2891e+000 +4.7105e-001 +3.1759e+000
4002 0 +1.182553433e-008 -1.194100000e+002 -1.194100000e+002 -1.2875e+000 +4.7077e-001 +3.1756e+000
4022 0 +4.908173423e-009 -1.194100000e+002 -1.194100000e+002 -1.3054e+000 +4.6778e-001 +3.1680e+000
% f evaluations | g evaluations | best noise-free fitness - Fopt (1.077000000000e+001) + sum g_i+ | measured fitness | best measured fitness or single-digit g-values | x1 | x2...
1 0 +7.779778880e+001 +8.856778880e+001 +8.856778880e+001 +1.0927e+000 +1.3453e+000 -3.7544e+000
2 0 +5.031276096e+001 +6.108276096e+001 +6.108276096e+001 -2.6656e+000 +1.5583e+000 +3.5904e+000
4 0 +4.706177758e+001 +5.783177758e+001 +5.783177758e+001 +1.4182e+000 -3.3796e+000 -5.3521e-001
7 0 +2.757737746e+001 +3.834737746e+001 +3.834737746e+001 -2.3147e+000 -4.5492e-001 +2.3237e+000
26 0 +8.522849887e+000 +1.929284989e+001 +1.929284989e+001 -3.5479e-001 +5.0000e+000 +3.3729e+000
51 0 +8.318176341e+000 +1.908817634e+001 +1.908817634e+001 -2.0640e+000 +3.8983e+000 +2.2922e+000
59 0 +7.921513601e+000 +1.869151360e+001 +1.869151360e+001 -1.9953e+000 +3.8674e+000 +2.2052e+000
77 0 +1.977877076e+000 +1.274787708e+001 +1.274787708e+001 -1.1817e+000 +3.8939e+000 +2.6909e+000
122 0 +4.127492941e-003 +1.077412749e+001 +1.077412749e+001 +1.5172e+000 -1.5941e+000 -2.3451e-001
132 0 +2.770839213e-003 +1.077277084e+001 +1.077277084e+001 +1.5625e+000 -1.5152e+000 -5.0864e-001
180 0 +1.366693815e-004 +1.077013667e+001 +1.077013667e+001 +1.8925e+000 -1.4789e+000 -4.1163e-001
389 0 +8.774808200e-005 +1.077008775e+001 +1.077008775e+001 +1.6770e+000 -1.5154e+000 -4.1021e-001
392 0 +9.280433435e-007 +1.077000093e+001 +1.077000093e+001 +1.7173e+000 -1.5047e+000 -4.6107e-001
515 0 +8.321870659e-008 +1.077000008e+001 +1.077000008e+001 +1.7369e+000 -1.5017e+000 -4.5627e-001
562 0 +1.120329252e-008 +1.077000001e+001 +1.077000001e+001 +1.7472e+000 -1.5019e+000 -4.4940e-001
578 0 +4.931338893e-009 +1.077000000e+001 +1.077000000e+001 +1.7622e+000 -1.4970e+000 -4.6125e-001
% f evaluations | g evaluations | best noise-free fitness - Fopt (2.137000000000e+001) + sum g_i+ | measured fitness | best measured fitness or single-digit g-values | x1 | x2...
1 0 +7.599939118e+001 +9.736939118e+001 +9.736939118e+001 -1.9667e+000 +3.1666e+000 -8.1576e-001
2 0 +1.916064162e+000 +2.328606416e+001 +2.328606416e+001 +3.1918e+000 +2.3887e+000 -7.5469e-001
76 0 +1.357088562e-002 +2.138357089e+001 +2.138357089e+001 +1.9406e+000 +1.5528e+000 -1.2544e+000
127 0 +5.061245458e-003 +2.137506125e+001 +2.137506125e+001 +2.0496e+000 +1.6793e+000 -1.2498e+000
307 0 +4.994411619e-003 +2.137499441e+001 +2.137499441e+001 +2.1855e+000 +1.8428e+000 -1.2044e+000
313 0 +2.449862315e-003 +2.137244986e+001 +2.137244986e+001 +2.3219e+000 +2.0100e+000 -1.2376e+000
364 0 +1.749284708e-003 +2.137174928e+001 +2.137174928e+001 +2.3183e+000 +2.0074e+000 -1.2335e+000
393 0 +1.628442624e-003 +2.137162844e+001 +2.137162844e+001 +2.3193e+000 +2.0048e+000 -1.2273e+000
431 0 +1.246830330e-003 +2.137124683e+001 +2.137124683e+001 +2.3144e+000 +2.0187e+000 -1.2424e+000
448 0 +3.331073261e-004 +2.137033311e+001 +2.137033311e+001 +2.3950e+000 +2.1897e+000 -1.2709e+000
455 0 +1.576961251e-004 +2.137015770e+001 +2.137015770e+001 +2.4738e+000 +2.3170e+000 -1.2847e+000
464 0 +5.917112404e-005 +2.137005917e+001 +2.137005917e+001 +2.5029e+000 +2.3748e+000 -1.2875e+000
465 0 +6.303512507e-006 +2.137000630e+001 +2.137000630e+001 +2.5762e+000 +2.5142e+000 -1.3072e+000
467 0 +7.811350677e-007 +2.137000078e+001 +2.137000078e+001 +2.6650e+000 +2.6401e+000 -1.3068e+000
471 0 +1.233975162e-007 +2.137000012e+001 +2.137000012e+001 +2.6542e+000 +2.6597e+000 -1.3276e+000
526 0 +1.039737185e-009 +2.137000000e+001 +2.137000000e+001 +2.6767e+000 +2.6808e+000 -1.3230e+000
% f evaluations | g evaluations | best noise-free fitness - Fopt (1.673000000000e+001) + sum g_i+ | measured fitness | best measured fitness or single-digit g-values | x1 | x2...
1 0 +7.465012561e+001 +9.138012561e+001 +9.138012561e+001 +2.9569e+000 -2.9009e+000 -4.3847e+000
3 0 +6.263262061e+001 +7.936262061e+001 +7.936262061e+001 +6.4653e-001 -8.5556e-001 +1.9532e+000
6 0 +5.064152186e+001 +6.737152186e+001 +6.737152186e+001 +1.9972e+000 -1.3010e+000 -1.9416e+000
7 0 +3.504462507e+001 +5.177462507e+001 +5.177462507e+001 -9.6440e-001 -2.4843e+000 +4.4427e+000
8 0 +2.023755571e+001 +3.696755571e+001 +3.696755571e+001 -1.1410e-001 -5.0000e+000 -5.1800e-001
30 0 +1.486407617e+001 +3.159407617e+001 +3.159407617e+001 +5.0000e+000 -1.2022e+000 +1.0264e+000
36 0 +6.829361849e+000 +2.355936185e+001 +2.355936185e+001 +4.6127e+000 -6.2304e-001 -3.8125e-002
49 0 +5.166506024e+000 +2.189650602e+001 +2.189650602e+001 +3.1886e+000 +1.0499e+000 +1.2849e+000
51 0 +2.266627882e+000 +1.899662788e+001 +1.899662788e+001 +2.9366e+000 -1.8939e-001 +1.0181e+000
88 0 +1.707018447e+000 +1.843701845e+001 +1.843701845e+001 -1.3448e+000 -5.2544e-002 +0.0000e+000
201 0 +1.535413450e+000 +1.826541345e+001 +1.826541345e+001 +3.2591e+000 +8.8069e-002 +1.8609e+000
227 0 +7.467421031e-001 +1.747674210e+001 +1.747674210e+001 +3.1034e+000 +2.6505e-001 +1.3297e+000
252 0 +6.853516409e-001 +1.741535164e+001 +1.741535164e+001 -1.8029e+000 +9.8043e-001 +2.8557e-001
276 0 +4.917708158e-001 +1.722177082e+001 +1.722177082e+001 -1.8208e+000 +9.2583e-001 +3.9814e-003
355 0 +4.757202664e-001 +1.720572027e+001 +1.720572027e+001 -1.9807e+000 +5.1936e-001 -4.7622e-001
446 0 +3.914573055e-001 +1.712145731e+001 +1.712145731e+001 -1.9760e+000 +5.2390e-001 -4.9225e-001
452 0 +2.863661344e-001 +1.701636613e+001 +1.701636613e+001 -2.0103e+000 +5.7011e-001 -6.6375e-001
508 0 +2.709046463e-001 +1.700090465e+001 +1.700090465e+001 -2.0170e+000 +5.7440e-001 -6.2586e-001
515 0 +2.453220395e-001 +1.697532204e+001 +1.697532204e+001 -2.0002e+000 +5.6093e-001 -5.7690e-001
516 0 +2.006077937e-001 +1.693060779e+001 +1.693060779e+001 -1.9263e+000 +4.9448e-001 -6.4112e-001
563 0 +1.817335801e-001 +1.691173358e+001 +1.691173358e+001 -1.9727e+000 +5.3620e-001 -6.0080e-001
564 0 +1.702116648e-001 +1.690021166e+001 +1.690021166e+001 -1.9517e+000 +5.0077e-001 -5.5207e-001
566 0 +1.640972517e-001 +1.689409725e+001 +1.689409725e+001 -1.9554e+000 +5.0430e-001 -5.7549e-001
596 0 +1.531084533e-001 +1.688310845e+001 +1.688310845e+001 -1.9417e+000 +5.0465e-001 -5.9049e-001
611 0 +1.457700091e-001 +1.687577001e+001 +1.687577001e+001 -1.9305e+000 +5.2806e-001 -5.2681e-001
676 0 +1.393482213e-001 +1.686934822e+001 +1.686934822e+001 -1.9201e+000 +4.8831e-001 -5.5599e-001
690 0 +1.372641457e-001 +1.686726415e+001 +1.686726415e+001 -1.9134e+000 +4.8925e-001 -5.3054e-001
691 0 +1.345829288e-001 +1.686458293e+001 +1.686458293e+001 -1.9068e+000 +4.7350e-001 -5.3258e-001
720 0 +1.297462620e-001 +1.685974626e+001 +1.685974626e+001 -1.8348e+000 +4.2101e-001 -5.3054e-001
722 0 +1.099282535e-001 +1.683992825e+001 +1.683992825e+001 -1.8286e+000 +3.3571e-001 -5.8089e-001
726 0 +1.031997238e-001 +1.683319972e+001 +1.683319972e+001 -1.8208e+000 +3.1772e-001 -5.6312e-001
735 0 +9.544565416e-002 +1.682544565e+001 +1.682544565e+001 -1.7928e+000 +2.7471e-001 -5.7100e-001
740 0 +8.922670932e-002 +1.681922671e+001 +1.681922671e+001 -1.7796e+000 +2.4518e-001 -5.6226e-001
742 0 +8.555046119e-002 +1.681555046e+001 +1.681555046e+001 -1.7760e+000 +2.2768e-001 -5.7794e-001
760 0 +6.766406877e-002 +1.679766407e+001 +1.679766407e+001 -1.7510e+000 +1.3101e-001 -6.3807e-001
763 0 +5.741703550e-002 +1.678741704e+001 +1.678741704e+001 -1.7065e+000 +4.3842e-002 -6.5791e-001
764 0 +5.340573720e-002 +1.678340574e+001 +1.678340574e+001 -1.6999e+000 +1.0153e-002 -6.8807e-001
770 0 +4.860419250e-002 +1.677860419e+001 +1.677860419e+001 -1.6807e+000 -3.8504e-002 -6.9618e-001
788 0 +4.103562690e-002 +1.677103563e+001 +1.677103563e+001 -1.6371e+000 -1.4898e-001 -7.4115e-001
789 0 +3.922273963e-002 +1.676922274e+001 +1.676922274e+001 -1.6171e+000 -1.9208e-001 -7.5228e-001
793 0 +3.040575747e-002 +1.676040576e+001 +1.676040576e+001 -1.5873e+000 -3.1845e-001 -8.5819e-001
799 0 +1.820088772e-002 +1.674820089e+001 +1.674820089e+001 -1.5407e+000 -4.6415e-001 -9.0252e-001
805 0 +1.603918647e-002 +1.674603919e+001 +1.674603919e+001 -1.4716e+000 -6.3547e-001 -9.5615e-001
808 0 +1.314008920e-002 +1.674314009e+001 +1.674314009e+001 -1.3675e+000 -9.5038e-001 -1.1173e+000
809 0 +1.240001990e-002 +1.674240002e+001 +1.674240002e+001 -1.4284e+000 -8.0641e-001 -1.0801e+000
817 0 +7.249212288e-003 +1.673724921e+001 +1.673724921e+001 -1.4130e+000 -8.8979e-001 -1.1363e+000
825 0 +4.275491127e-003 +1.673427549e+001 +1.673427549e+001 -1.4713e+000 -8.1356e-001 -1.1564e+000
826 0 +4.032180815e-003 +1.673403218e+001 +1.673403218e+001 -1.4391e+000 -8.8744e-001 -1.1843e+000
827 0 +3.884020583e-003 +1.673388402e+001 +1.673388402e+001 -1.4937e+000 -8.1594e-001 -1.2031e+000
833 0 +3.862487551e-004 +1.673038625e+001 +1.673038625e+001 -1.3499e+000 -1.3648e+000 -1.5419e+000
835 0 +8.653281744e-005 +1.673008653e+001 +1.673008653e+001 -1.3020e+000 -1.5218e+000 -1.6150e+000
850 0 +6.550080419e-005 +1.673006550e+001 +1.673006550e+001 -1.3060e+000 -1.5127e+000 -1.6092e+000
852 0 +4.693872538e-005 +1.673004694e+001 +1.673004694e+001 -1.3015e+000 -1.5388e+000 -1.6290e+000
864 0 +4.020363988e-006 +1.673000402e+001 +1.673000402e+001 -1.2612e+000 -1.7363e+000 -1.7587e+000
877 0 +3.556838021e-006 +1.673000356e+001 +1.673000356e+001 -1.2492e+000 -1.7830e+000 -1.7857e+000
882 0 +5.542881887e-007 +1.673000055e+001 +1.673000055e+001 -1.2536e+000 -1.7065e+000 -1.7073e+000
883 0 +1.092853807e-007 +1.673000011e+001 +1.673000011e+001 -1.2504e+000 -1.7339e+000 -1.7300e+000
910 0 +8.033104137e-008 +1.673000008e+001 +1.673000008e+001 -1.2551e+000 -1.7189e+000 -1.7219e+000
916 0 +3.412027283e-008 +1.673000003e+001 +1.673000003e+001 -1.2607e+000 -1.7211e+000 -1.7325e+000
937 0 +2.901288099e-009 +1.673000000e+001 +1.673000000e+001 -1.2585e+000 -1.7206e+000 -1.7267e+000
% f evaluations | g evaluations | best noise-free fitness - Fopt (1.000000000000e+003) + sum g_i+ | measured fitness | best measured fitness or single-digit g-values | x1 | x2...
1 0 +4.361913900e+001 +1.043619139e+003 +1.043619139e+003 +3.1210e+000 -3.0865e+000 +8.4252e-001
6 0 +1.963628745e+001 +1.019636287e+003 +1.019636287e+003 +4.9204e+000 -1.7011e+000 -3.6002e+000
38 0 +1.191303515e+001 +1.011913035e+003 +1.011913035e+003 -1.8983e+000 -2.3440e+000 -1.2775e+000
79 0 +8.744961592e+000 +1.008744962e+003 +1.008744962e+003 -3.0939e+000 -2.7173e+000 -1.2268e+000
107 0 +7.170490240e+000 +1.007170490e+003 +1.007170490e+003 -2.5975e+000 -4.3598e+000 -8.0092e-001
162 0 +3.439380789e+000 +1.003439381e+003 +1.003439381e+003 -2.4562e+000 -3.3319e+000 -5.0225e-001
188 0 +3.310846021e+000 +1.003310846e+003 +1.003310846e+003 -2.3999e+000 -3.7642e+000 -5.4654e-001
200 0 +2.237382689e+000 +1.002237383e+003 +1.002237383e+003 -3.2855e+000 -3.6310e+000 -1.5024e+000
258 0 +2.159448342e+000 +1.002159448e+003 +1.002159448e+003 -3.0700e+000 -4.0025e+000 -1.4363e+000
284 0 +2.137805705e+000 +1.002137806e+003 +1.002137806e+003 -3.1317e+000 -4.0248e+000 -1.5108e+000
357 0 +1.988104299e+000 +1.001988104e+003 +1.001988104e+003 -3.9516e+000 -4.1547e+000 -2.5991e+000
403 0 +3.431169027e-003 +1.000003431e+003 +1.000003431e+003 -9.1948e-001 -3.2295e+000 +1.0707e+000
527 0 +1.225887914e-003 +1.000001226e+003 +1.000001226e+003 -1.2100e+000 -3.3095e+000 +1.3564e+000
552 0 +3.445929348e-004 +1.000000345e+003 +1.000000345e+003 -1.2341e+000 -3.2957e+000 +1.3169e+000
583 0 +1.760548329e-004 +1.000000176e+003 +1.000000176e+003 -1.4322e+000 -3.3284e+000 +1.5159e+000
589 0 +6.555549101e-005 +1.000000066e+003 +1.000000066e+003 -1.4515e+000 -3.3385e+000 +1.5021e+000
617 0 +3.781531609e-005 +1.000000038e+003 +1.000000038e+003 -1.5263e+000 -3.3534e+000 +1.6014e+000
627 0 +8.589213394e-006 +1.000000009e+003 +1.000000009e+003 -1.7587e+000 -3.4101e+000 +1.7805e+000
636 0 +1.691711304e-006 +1.000000002e+003 +1.000000002e+003 -1.7228e+000 -3.4042e+000 +1.7445e+000
645 0 +3.536562190e-007 +1.000000000e+003 +1.000000000e+003 -1.6224e+000 -3.3876e+000 +1.6436e+000
647 0 +2.017442284e-007 +1.000000000e+003 +1.000000000e+003 -1.6427e+000 -3.3922e+000 +1.6628e+000
678 0 +1.412875008e-007 +1.000000000e+003 +1.000000000e+003 -1.6668e+000 -3.3932e+000 +1.6915e+000
699 0 +1.455282472e-008 +1.000000000e+003 +1.000000000e+003 -1.6844e+000 -3.3991e+000 +1.7012e+000
718 0 +1.159787644e-008 +1.000000000e+003 +1.000000000e+003 -1.6797e+000 -3.3985e+000 +1.6957e+000
733 0 +3.390482561e-009 +1.000000000e+003 +1.000000000e+003 -1.6707e+000 -3.3961e+000 +1.6873e+000
% f evaluations | g evaluations | best noise-free fitness - Fopt (-1.079600000000e+002) + sum g_i+ | measured fitness | best measured fitness or single-digit g-values | x1 | x2...
1 0 +6.279279274e+001 -4.516720726e+001 -4.516720726e+001 +3.1592e-001 -1.6386e+000 -1.8964e+000
2 0 +5.846614572e+001 -4.949385428e+001 -4.949385428e+001 +3.6501e+000 -3.5034e+000 +2.3686e+000
11 0 +3.147311854e+001 -7.648688146e+001 -7.648688146e+001 -4.3550e+000 +4.4018e+000 -3.6248e+000
16 0 +2.150381356e+001 -8.645618644e+001 -8.645618644e+001 -5.0000e+000 +5.0000e+000 -1.3198e+000
21 0 +1.781663322e+000 -1.061783367e+002 -1.061783367e+002 -1.6959e+000 +3.3067e+000 -1.2640e+000
62 0 +5.816444955e-002 -1.079018356e+002 -1.079018356e+002 -1.2738e+000 +2.9950e+000 -1.2863e+000
480 0 +3.832946119e-002 -1.079216705e+002 -1.079216705e+002 -1.2058e+000 +2.9838e+000 -1.2900e+000
513 0 +3.640708643e-002 -1.079235929e+002 -1.079235929e+002 -1.2051e+000 +2.9600e+000 -1.2798e+000
535 0 +3.250477945e-002 -1.079274952e+002 -1.079274952e+002 -1.0727e+000 +2.8032e+000 -1.2987e+000
551 0 +1.514824054e-002 -1.079448518e+002 -1.079448518e+002 -1.0978e+000 +2.4730e+000 -1.1255e+000
564 0 +1.181362599e-002 -1.079481864e+002 -1.079481864e+002 -1.1797e+000 +2.0378e+000 -9.6909e-001
573 0 +9.263965752e-003 -1.079507360e+002 -1.079507360e+002 -1.1893e+000 +1.2131e+000 -5.6139e-001
583 0 +6.153952848e-003 -1.079538460e+002 -1.079538460e+002 -1.1828e+000 +1.1265e+000 -5.3477e-001
585 0 +2.558680446e-003 -1.079574413e+002 -1.079574413e+002 -1.1737e+000 +1.4917e+000 -6.9470e-001
604 0 +1.213944031e-003 -1.079587861e+002 -1.079587861e+002 -1.1739e+000 +1.5441e+000 -7.2154e-001
606 0 +6.279820911e-004 -1.079593720e+002 -1.079593720e+002 -1.0706e+000 +1.6533e+000 -8.5696e-001
613 0 +5.664493159e-005 -1.079599434e+002 -1.079599434e+002 -1.0028e+000 +1.1702e+000 -6.8377e-001
700 0 +4.872806301e-006 -1.079599951e+002 -1.079599951e+002 -1.0358e+000 +1.0747e+000 -6.2737e-001
741 0 +5.602542217e-007 -1.079599994e+002 -1.079599994e+002 -1.0436e+000 +1.0918e+000 -6.3652e-001
747 0 +5.197806843e-007 -1.079599995e+002 -1.079599995e+002 -1.0442e+000 +1.0947e+000 -6.3745e-001
748 0 +2.358483613e-007 -1.079599998e+002 -1.079599998e+002 -1.0475e+000 +1.0977e+000 -6.3560e-001
757 0 +1.995637433e-007 -1.079599998e+002 -1.079599998e+002 -1.0484e+000 +1.0973e+000 -6.3411e-001
766 0 +1.982558189e-007 -1.079599998e+002 -1.079599998e+002 -1.0487e+000 +1.0969e+000 -6.3385e-001
767 0 +1.661807403e-007 -1.079599998e+002 -1.079599998e+002 -1.0534e+000 +1.1063e+000 -6.3637e-001
774 0 +7.531315305e-008 -1.079599999e+002 -1.079599999e+002 -1.0639e+000 +1.1560e+000 -6.5079e-001
796 0 +2.758709172e-008 -1.079600000e+002 -1.079600000e+002 -1.0510e+000 +1.1455e+000 -6.5245e-001
811 0 +9.546184288e-009 -1.079600000e+002 -1.079600000e+002 -1.0533e+000 +1.1565e+000 -6.5545e-001
% f evaluations | g evaluations | best noise-free fitness - Fopt (-3.025900000000e+002) + sum g_i+ | measured fitness | best measured fitness or single-digit g-values | x1 | x2...
1 0 +6.879280958e+001 -2.337971904e+002 -2.337971904e+002 +3.7403e+000 -2.1828e+000 -3.1062e+000
4 0 +5.726869941e+001 -2.453213006e+002 -2.453213006e+002 +4.4667e+000 +3.6084e+000 -2.9345e+000
6 0 +4.378139822e+001 -2.588086018e+002 -2.588086018e+002 -2.0259e+000 -2.7704e+000 -2.1556e+000
13 0 +2.288871978e+001 -2.797012802e+002 -2.797012802e+002 -1.8330e+000 +1.6781e+000 +1.2235e+000
14 0 +9.793491780e+000 -2.927965082e+002 -2.927965082e+002 -4.4740e-001 +3.7006e-001 +2.8020e-001
15 0 +4.285053267e+000 -2.983049467e+002 -2.983049467e+002 +2.6841e+000 -4.4126e+000 -3.1390e+000
21 0 +2.186967428e+000 -3.004030326e+002 -3.004030326e+002 +3.2919e+000 +2.1602e+000 -3.5523e+000
49 0 +2.056952457e+000 -3.005330475e+002 -3.005330475e+002 -1.5879e+000 -9.0347e-001 -2.0159e-001
170 0 +1.487540077e-001 -3.024412460e+002 -3.024412460e+002 -6.1213e-001 -5.2357e-001 -8.3550e-001
257 0 +2.753398893e-002 -3.025624660e+002 -3.025624660e+002 +4.4856e-001 -1.2458e-001 -1.5297e+000
258 0 +1.509466930e-003 -3.025884905e+002 -3.025884905e+002 +4.4934e-001 +5.5878e-002 -1.6262e+000
404 0 +7.309688640e-004 -3.025892690e+002 -3.025892690e+002 +4.5010e-001 +6.0118e-002 -1.6197e+000
421 0 +8.424172051e-006 -3.025899916e+002 -3.025899916e+002 +4.1634e-001 -4.2933e-003 -1.5687e+000
518 0 +6.759894404e-006 -3.025899932e+002 -3.025899932e+002 +3.9986e-001 -1.6942e-002 -1.5576e+000
524 0 +1.641912888e-006 -3.025899984e+002 -3.025899984e+002 +4.0925e-001 +9.1778e-003 -1.5673e+000
568 0 +1.185205520e-006 -3.025899988e+002 -3.025899988e+002 +4.0693e-001 +1.0369e-002 -1.5638e+000
570 0 +1.268335268e-007 -3.025899999e+002 -3.025899999e+002 +4.0323e-001 +2.4395e-002 -1.5643e+000
592 0 +3.546000471e-008 -3.025900000e+002 -3.025900000e+002 +3.9969e-001 +4.6004e-002 -1.5620e+000
597 0 +1.493305035e-008 -3.025900000e+002 -3.025900000e+002 +3.9912e-001 +4.0147e-002 -1.5584e+000
660 0 +3.341313004e-009 -3.025900000e+002 -3.025900000e+002 +3.9953e-001 +4.3082e-002 -1.5602e+000
872 0 +0.000000000e+000 -3.025900000e+002 -3.025900000e+002 +4.0561e-001 +4.1677e-002 -1.5644e+000
% f evaluations | g evaluations | best noise-free fitness - Fopt (-3.065500000000e+002) + sum g_i+ | measured fitness | best measured fitness or single-digit g-values | x1 | x2...
1 0 +6.954208435e+001 -2.370079156e+002 -2.370079156e+002 -2.0018e+000 -4.9055e+000 +1.9964e+000
3 0 +6.182370922e+001 -2.447262908e+002 -2.447262908e+002 +1.7094e+000 -4.7637e-001 -9.9265e-001
9 0 +5.345466466e+001 -2.530953353e+002 -2.530953353e+002 -4.3682e+000 -2.7859e+000 +3.0837e+000
10 0 +5.053115297e+001 -2.560188470e+002 -2.560188470e+002 +1.5297e+000 +1.7366e-001 +2.2086e+000
14 0 +1.797437318e+001 -2.885756268e+002 -2.885756268e+002 +4.3047e+000 -1.4259e-001 +1.7633e+000
31 0 +3.867761214e+000 -3.026822388e+002 -3.026822388e+002 +2.8108e+000 -9.9580e-003 +3.6091e+000
80 0 +2.318099714e+000 -3.042319003e+002 -3.042319003e+002 +2.3469e+000 +1.0092e-001 +4.0254e+000
130 0 +1.974479176e+000 -3.045755208e+002 -3.045755208e+002 +3.0477e+000 -1.0799e-001 +2.7792e+000
181 0 +1.007749484e+000 -3.055422505e+002 -3.055422505e+002 +2.5103e+000 +1.6803e+000 +3.5675e+000
202 0 +8.995739549e-001 -3.056504260e+002 -3.056504260e+002 +2.5200e+000 +1.7330e+000 +3.5690e+000
316 0 +7.087782876e-001 -3.058412217e+002 -3.058412217e+002 +2.4252e+000 +1.8450e+000 +3.7365e+000
334 0 +7.075553351e-001 -3.058424447e+002 -3.058424447e+002 +2.4441e+000 +1.8649e+000 +3.7167e+000
1074 0 +5.448644871e-001 -3.060051355e+002 -3.060051355e+002 -1.1861e+000 -4.5783e+000 +6.2162e-001
1076 0 +5.166122166e-001 -3.060333878e+002 -3.060333878e+002 -1.3000e+000 -4.4941e+000 +1.0961e+000
1123 0 +4.898596114e-001 -3.060601404e+002 -3.060601404e+002 -1.3671e+000 -4.4835e+000 +9.6123e-001
1139 0 +4.745245648e-001 -3.060754754e+002 -3.060754754e+002 -1.5763e+000 -4.4890e+000 +1.1071e+000
1194 0 +3.656598639e-001 -3.061843401e+002 -3.061843401e+002 -1.7744e+000 -4.4455e+000 +1.0155e+000
1207 0 +1.574913669e-001 -3.063925086e+002 -3.063925086e+002 -2.7148e+000 -4.1506e+000 +2.0158e+000
1211 0 +1.233822753e-001 -3.064266177e+002 -3.064266177e+002 -2.8054e+000 -4.0393e+000 +2.2452e+000
1221 0 +1.063393517e-001 -3.064436606e+002 -3.064436606e+002 -2.6173e+000 -4.1065e+000 +2.0664e+000
1238 0 +4.790203958e-002 -3.065020980e+002 -3.065020980e+002 -2.9847e+000 -3.9930e+000 +2.6121e+000
1245 0 +1.639403876e-002 -3.065336060e+002 -3.065336060e+002 -2.8596e+000 -3.9949e+000 +2.6485e+000
1351 0 +1.306121883e-002 -3.065369388e+002 -3.065369388e+002 -3.0689e+000 -3.9130e+000 +2.9115e+000
1404 0 +1.121588901e-002 -3.065387841e+002 -3.065387841e+002 -3.0711e+000 -3.9072e+000 +2.9366e+000
1406 0 +7.570273287e-003 -3.065424297e+002 -3.065424297e+002 -2.7693e+000 -3.9323e+000 +2.9665e+000
1416 0 +3.605107177e-003 -3.065463949e+002 -3.065463949e+002 -2.8729e+000 -3.9092e+000 +3.0145e+000
1420 0 +1.203808562e-003 -3.065487962e+002 -3.065487962e+002 -3.3245e+000 -3.7333e+000 +3.6519e+000
1421 0 +8.941926889e-004 -3.065491058e+002 -3.065491058e+002 -3.5860e+000 -3.6528e+000 +3.8197e+000
1427 0 +8.596959982e-004 -3.065491403e+002 -3.065491403e+002 -3.5754e+000 -3.6556e+000 +3.8157e+000
1428 0 +7.089971272e-004 -3.065492910e+002 -3.065492910e+002 -3.5315e+000 -3.6727e+000 +3.7538e+000
1429 0 +2.053757943e-004 -3.065497946e+002 -3.065497946e+002 -3.2738e+000 -3.7583e+000 +3.5023e+000
1431 0 +5.291754491e-005 -3.065499471e+002 -3.065499471e+002 -3.4503e+000 -3.6442e+000 +3.9038e+000
1434 0 +3.679022944e-005 -3.065499632e+002 -3.065499632e+002 -3.3013e+000 -3.7390e+000 +3.5516e+000
1443 0 +3.508963243e-005 -3.065499649e+002 -3.065499649e+002 -3.2880e+000 -3.7436e+000 +3.5342e+000
1447 0 +2.605496655e-005 -3.065499739e+002 -3.065499739e+002 -3.3114e+000 -3.7320e+000 +3.5752e+000
1504 0 +2.561557977e-005 -3.065499744e+002 -3.065499744e+002 -3.2953e+000 -3.7371e+000 +3.5579e+000
1505 0 +2.495477872e-005 -3.065499750e+002 -3.065499750e+002 -3.3215e+000 -3.7280e+000 +3.5885e+000
1506 0 +5.542028191e-006 -3.065499945e+002 -3.065499945e+002 -3.3252e+000 -3.7176e+000 +3.5917e+000
1512 0 +1.818529483e-006 -3.065499982e+002 -3.065499982e+002 -3.3308e+000 -3.7120e+000 +3.6127e+000
1522 0 +2.875174800e-007 -3.065499997e+002 -3.065499997e+002 -3.3538e+000 -3.6974e+000 +3.6670e+000
1525 0 +8.574539834e-008 -3.065499999e+002 -3.065499999e+002 -3.3898e+000 -3.6763e+000 +3.7558e+000
1544 0 +6.037339517e-010 -3.065500000e+002 -3.065500000e+002 -3.3719e+000 -3.6878e+000 +3.7140e+000
