% f evaluations | g evaluations | best noise-free fitness - Fopt (-1.000000000000e+003) + sum g_i+ | measured fitness | best measured fitness or single-digit g-values | x1 | x2...
1 0 +6.647646623e+001 -9.335235338e+002 -9.335235338e+002 +2.5049e+000 +4.2477e-001
2 0 +4.877873314e+000 -9.951221267e+002 -9.951221267e+002 +1.9970e+000 -2.1658e+000
19 0 +2.045450634e+000 -9.979545494e+002 -9.979545494e+002 -4.5006e-001 +4.2420e+000
62 0 +2.008633428e+000 -9.979913666e+002 -9.979913666e+002 -5.3815e-001 +4.4906e+000
79 0 +1.985567059e+000 -9.980144329e+002 -9.980144329e+002 -5.1164e-001 +4.4409e+000
122 0 +1.877036498e+000 -9.981229635e+002 -9.981229635e+002 -4.6733e-001 +4.3945e+000
141 0 +1.823194737e+000 -9.981768053e+002 -9.981768053e+002 -4.0491e-001 +4.2192e+000
171 0 +1.673200002e+000 -9.983268000e+002 -9.983268000e+002 -4.0293e-001 +4.2747e+000
191 0 +1.305787839e+000 -9.986942122e+002 -9.986942122e+002 -3.1777e-001 +4.1276e+000
203 0 +1.253208022e+000 -9.987467920e+002 -9.987467920e+002 -3.0711e-001 +4.1061e+000
211 0 +1.096787138e+000 -9.989032129e+002 -9.989032129e+002 -2.6326e-001 +4.0335e+000
225 0 +9.629765574e-001 -9.990370234e+002 -9.990370234e+002 -1.1009e-002 +3.6198e+000
228 0 +8.854459867e-001 -9.991145540e+002 -9.991145540e+002 -2.7244e-002 +3.3889e+000
229 0 +4.479813092e-001 -9.995520187e+002 -9.995520187e+002 +2.3292e-001 +2.8946e+000
231 0 +3.417241398e-001 -9.996582759e+002 -9.996582759e+002 +1.8785e-001 +3.0470e+000
233 0 +2.603606586e-001 -9.997396393e+002 -9.997396393e+002 +2.2234e-001 +3.0135e+000
235 0 +1.616006369e-001 -9.998383994e+002 -9.998383994e+002 +5.5481e-001 +2.2251e+000
249 0 +1.100768367e-001 -9.998899232e+002 -9.998899232e+002 +6.5125e-001 +2.0447e+000
256 0 +6.161094192e-003 -9.999938389e+002 -9.999938389e+002 +9.0273e-001 +1.6322e+000
259 0 +7.920666205e-004 -9.999992079e+002 -9.999992079e+002 +1.5265e+000 +3.2942e-001
264 0 +2.089608804e-004 -9.999997910e+002 -9.999997910e+002 +1.5280e+000 +3.6549e-001
278 0 +1.516476332e-004 -9.999998484e+002 -9.999998484e+002 +1.5133e+000 +3.9513e-001
282 0 +4.331133255e-006 -9.999999957e+002 -9.999999957e+002 +1.2803e+000 +8.5867e-001
292 0 +1.980909019e-007 -9.999999998e+002 -9.999999998e+002 +1.3205e+000 +7.7487e-001
315 0 +4.748562787e-008 -1.000000000e+003 -1.000000000e+003 +1.3318e+000 +7.5234e-001
358 0 +1.928833626e-008 -1.000000000e+003 -1.000000000e+003 +1.3400e+000 +7.3529e-001
361 0 +9.710333870e-009 -1.000000000e+003 -1.000000000e+003 +1.3600e+000 +6.9907e-001
% f evaluations | g evaluations | best noise-free fitness - Fopt (1.000000000000e+003) + sum g_i+ | measured fitness | best measured fitness or single-digit g-values | x1 | x2...
1 0 +5.790929264e+001 +1.057909293e+003 +1.057909293e+003 +3.0675e+000 +2.8623e+000
2 0 +7.244565293e+000 +1.007244565e+003 +1.007244565e+003 -3.0914e+000 -2.4968e+000
10 0 +5.122855441e+000 +1.005122855e+003 +1.005122855e+003 -6.6640e-001 -1.6254e+000
12 0 +1.803637519e+000 +1.001803638e+003 +1.001803638e+003 -3.1305e-001 -1.4650e+000
30 0 +2.238994331e-001 +1.000223899e+003 +1.000223899e+003 -5.5333e-001 -1.5740e+000
43 0 +4.863813805e-002 +1.000048638e+003 +1.000048638e+003 -1.8732e+000 -7.7275e-001
50 0 +8.334072213e-004 +1.000000833e+003 +1.000000833e+003 -4.8096e-001 -1.5412e+000
256 0 +3.472856943e-004 +1.000000347e+003 +1.000000347e+003 -4.5879e-001 -1.5482e+000
260 0 +2.724170690e-005 +1.000000027e+003 +1.000000027e+003 -4.9638e-001 -1.5176e+000
288 0 +2.461359588e-005 +1.000000025e+003 +1.000000025e+003 -6.5843e-001 -1.4401e+000
302 0 +1.597917048e-006 +1.000000002e+003 +1.000000002e+003 -8.0006e-001 -1.3564e+000
312 0 +1.551861942e-006 +1.000000002e+003 +1.000000002e+003 -7.9658e-001 -1.3581e+000
319 0 +1.513478196e-006 +1.000000002e+003 +1.000000002e+003 -6.1092e-001 -1.4574e+000
326 0 +9.376897196e-007 +1.000000001e+003 +1.000000001e+003 -6.3065e-001 -1.4479e+000
372 0 +3.151236569e-007 +1.000000000e+003 +1.000000000e+003 -6.4892e-001 -1.4381e+000
432 0 +1.490586783e-007 +1.000000000e+003 +1.000000000e+003 -6.5475e-001 -1.4341e+000
451 0 +4.296225597e-010 +1.000000000e+003 +1.000000000e+003 -7.2182e-001 -1.3998e+000
% f evaluations | g evaluations | best noise-free fitness - Fopt (-4.913000000000e+001) + sum g_i+ | measured fitness | best measured fitness or single-digit g-values | x1 | x2...
1 0 +3.403672255e+001 -1.509327745e+001 -1.509327745e+001 +3.2728e+000 +2.2626e+000
2 0 +1.548613676e+001 -3.364386324e+001 -3.364386324e+001 -1.0090e+000 +1.5269e+000
7 0 +6.149492679e+000 -4.298050732e+001 -4.298050732e+001 -1.7772e+000 +9.8316e-001
12 0 +4.260390784e+000 -4.486960922e+001 -4.486960922e+001 -2.3049e+000 +1.2814e+000
24 0 +4.003326382e+000 -4.512667362e+001 -4.512667362e+001 -2.0587e+000 +1.0690e+000
31 0 +3.111330449e+000 -4.601866955e+001 -4.601866955e+001 -1.8850e+000 +1.2711e+000
67 0 +2.895596116e+000 -4.623440388e+001 -4.623440388e+001 -1.9514e+000 +1.2846e+000
69 0 +2.760761490e+000 -4.636923851e+001 -4.636923851e+001 -1.9259e+000 +1.3523e+000
74 0 +2.753433682e+000 -4.637656632e+001 -4.637656632e+001 -1.9228e+000 +1.3586e+000
107 0 +2.686473316e+000 -4.644352668e+001 -4.644352668e+001 -2.0617e+000 +1.4109e+000
126 0 +2.613489804e+000 -4.651651020e+001 -4.651651020e+001 -2.0098e+000 +1.4377e+000
494 0 +1.795006088e+000 -4.733499391e+001 -4.733499391e+001 +1.1978e+000 -2.2964e+000
578 0 +9.194416664e-001 -4.821055833e+001 -4.821055833e+001 +1.0638e+000 -1.9555e+000
579 0 +7.482519935e-001 -4.838174801e+001 -4.838174801e+001 +9.8949e-001 -2.1105e+000
625 0 +7.336594084e-001 -4.839634059e+001 -4.839634059e+001 +8.4250e-001 -1.9966e+000
639 0 +6.918795752e-001 -4.843812042e+001 -4.843812042e+001 +9.0547e-001 -2.0530e+000
1529 0 +1.481027063e-001 -4.898189729e+001 -4.898189729e+001 +2.9949e+000 +5.5468e-001
1656 0 +7.581132741e-002 -4.905418867e+001 -4.905418867e+001 +3.9134e+000 +3.2328e+000
1736 0 +3.481360947e-003 -4.912651864e+001 -4.912651864e+001 +3.8340e+000 +2.9189e+000
1894 0 +8.540941035e-005 -4.912991459e+001 -4.912991459e+001 +3.8669e+000 +2.9232e+000
1934 0 +6.727864893e-005 -4.912993272e+001 -4.912993272e+001 +3.8678e+000 +2.9358e+000
1938 0 +1.929914077e-006 -4.912999807e+001 -4.912999807e+001 +3.8014e+000 +2.7598e+000
2146 0 +1.357049022e-006 -4.912999864e+001 -4.912999864e+001 +3.7865e+000 +2.7041e+000
2157 0 +3.828568396e-008 -4.912999996e+001 -4.912999996e+001 +3.7747e+000 +2.6775e+000
2171 0 +5.444718454e-009 -4.912999999e+001 -4.912999999e+001 +3.7666e+000 +2.6595e+000
2324 0 +0.000000000e+000 -4.913000000e+001 -4.913000000e+001 +3.7603e+000 +2.6395e+000
% f evaluations | g evaluations | best noise-free fitness - Fopt (2.977300000000e+002) + sum g_i+ | measured fitness | best measured fitness or single-digit g-values | x1 | x2...
1 0 +2.839393934e+001 +3.261239393e+002 +3.261239393e+002 +3.3946e+000 -4.7584e-001
2 0 +7.112346759e+000 +3.048423468e+002 +3.048423468e+002 +1.7029e-001 +2.6022e+000
3 0 +2.788890038e+000 +3.005188900e+002 +3.005188900e+002 -1.5414e+000 -1.6746e+000
31 0 +1.896501616e+000 +2.996265016e+002 +2.996265016e+002 +1.6428e-001 +1.8952e+000
67 0 +5.444552608e-001 +2.982744553e+002 +2.982744553e+002 -8.1682e-001 +1.5459e+000
105 0 +5.025073999e-001 +2.982325074e+002 +2.982325074e+002 -1.1710e+000 +1.5176e+000
132 0 +3.598478400e-001 +2.980898478e+002 +2.980898478e+002 -1.2339e+000 +1.4369e+000
155 0 +1.554788815e-002 +2.977455479e+002 +2.977455479e+002 -3.1618e+000 +8.8930e-001
245 0 +8.855366593e-005 +2.977300886e+002 +2.977300886e+002 -3.4996e+000 +7.4280e-001
249 0 +4.065344115e-007 +2.977300004e+002 +2.977300004e+002 -3.8231e+000 +6.5090e-001
269 0 +1.443507358e-007 +2.977300001e+002 +2.977300001e+002 -3.8399e+000 +6.4202e-001
305 0 +4.780457630e-008 +2.977300000e+002 +2.977300000e+002 -3.8168e+000 +6.4898e-001
308 0 +3.479510724e-008 +2.977300000e+002 +2.977300000e+002 -3.7865e+000 +6.5808e-001
315 0 +3.324583986e-008 +2.977300000e+002 +2.977300000e+002 -3.7851e+000 +6.5852e-001
348 0 +6.456843948e-009 +2.977300000e+002 +2.977300000e+002 -3.7929e+000 +6.5665e-001
% f evaluations | g evaluations | best noise-free fitness - Fopt (5.157000000000e+001) + sum g_i+ | measured fitness | best measured fitness or single-digit g-values | x1 | x2...
1 0 +1.893144471e+001 +7.050144471e+001 +7.050144471e+001 +7.5539e-001 +4.7219e+000
3 0 +1.948798138e+000 +5.351879814e+001 +5.351879814e+001 +4.1723e+000 -2.4222e+000
22 0 +1.508725833e+000 +5.307872583e+001 +5.307872583e+001 +4.0305e+000 -2.5910e+000
26 0 +9.152636242e-001 +5.248526362e+001 +5.248526362e+001 +3.8462e+000 -2.2866e+000
29 0 +6.582285940e-001 +5.222822859e+001 +5.222822859e+001 -7.3022e-001 +2.5770e+000
31 0 +2.166204266e-003 +5.157216620e+001 +5.157216620e+001 +1.4402e+000 +1.5510e+000
193 0 +2.072780510e-003 +5.157207278e+001 +5.157207278e+001 +1.5094e+000 +1.5157e+000
230 0 +2.024634482e-003 +5.157202463e+001 +5.157202463e+001 +1.4134e+000 +1.5668e+000
245 0 +7.655650028e-004 +5.157076557e+001 +5.157076557e+001 +2.5194e+000 +1.0712e+000
256 0 +2.587508998e-004 +5.157025875e+001 +5.157025875e+001 +2.4713e+000 +1.1083e+000
297 0 +2.338064357e-004 +5.157023381e+001 +5.157023381e+001 +2.4500e+000 +1.1183e+000
308 0 +8.743702196e-005 +5.157008744e+001 +5.157008744e+001 +1.7863e+000 +1.4115e+000
312 0 +1.506557872e-006 +5.157000151e+001 +5.157000151e+001 +2.1203e+000 +1.2550e+000
330 0 +7.609297938e-007 +5.157000076e+001 +5.157000076e+001 +2.0951e+000 +1.2665e+000
352 0 +6.149134251e-007 +5.157000061e+001 +5.157000061e+001 +2.1029e+000 +1.2633e+000
360 0 +5.346479170e-007 +5.157000053e+001 +5.157000053e+001 +2.0996e+000 +1.2648e+000
376 0 +4.583031981e-007 +5.157000046e+001 +5.157000046e+001 +2.1143e+000 +1.2586e+000
380 0 +4.392159809e-007 +5.157000044e+001 +5.157000044e+001 +2.1133e+000 +1.2591e+000
384 0 +4.128186575e-007 +5.157000041e+001 +5.157000041e+001 +2.1129e+000 +1.2594e+000
387 0 +3.923743108e-007 +5.157000039e+001 +5.157000039e+001 +2.1118e+000 +1.2599e+000
398 0 +3.423983870e-007 +5.157000034e+001 +5.157000034e+001 +2.1163e+000 +1.2581e+000
418 0 +2.537232859e-007 +5.157000025e+001 +5.157000025e+001 +2.1217e+000 +1.2561e+000
428 0 +1.619632570e-007 +5.157000016e+001 +5.157000016e+001 +2.1096e+000 +1.2615e+000
437 0 +2.615288253e-008 +5.157000003e+001 +5.157000003e+001 +2.1098e+000 +1.2627e+000
440 0 +2.903910001e-009 +5.157000000e+001 +5.157000000e+001 +2.0939e+000 +1.2712e+000
577 0 +0.000000000e+000 +5.157000000e+001 +5.157000000e+001 +2.0756e+000 +1.2787e+000
% f evaluations | g evaluations | best noise-free fitness - Fopt (1.527100000000e+002) + sum g_i+ | measured fitness | best measured fitness or single-digit g-values | x1 | x2...
1 0 +6.138136657e+001 +2.140913666e+002 +2.140913666e+002 +1.6376e+000 +4.3997e+000
2 0 +4.699946012e+001 +1.997094601e+002 +1.997094601e+002 +3.9809e+000 -2.8679e+000
3 0 +3.626301654e+001 +1.889730165e+002 +1.889730165e+002 +1.3391e+000 +1.1787e+000
5 0 +1.281923239e+001 +1.655292324e+002 +1.655292324e+002 -1.5170e+000 -2.1360e+000
6 0 +6.000732960e+000 +1.587107330e+002 +1.587107330e+002 -2.8089e-001 -5.0000e+000
8 0 +3.313491992e+000 +1.560234920e+002 +1.560234920e+002 -4.9085e-001 -5.0000e+000
12 0 +1.617090345e+000 +1.543270903e+002 +1.543270903e+002 -5.2764e-001 -3.0325e+000
14 0 +4.822447754e-001 +1.531922448e+002 +1.531922448e+002 -4.8124e-001 -2.9582e+000
173 0 +4.294269309e-001 +1.531394269e+002 +1.531394269e+002 -6.0798e-001 -2.8901e+000
213 0 +4.129669850e-001 +1.531229670e+002 +1.531229670e+002 -6.4700e-001 -2.8606e+000
256 0 +3.964916987e-001 +1.531064917e+002 +1.531064917e+002 -6.6657e-001 -2.8704e+000
281 0 +3.565155405e-001 +1.530665155e+002 +1.530665155e+002 -7.1127e-001 -2.8432e+000
284 0 +3.479227695e-001 +1.530579228e+002 +1.530579228e+002 -7.5716e-001 -2.8298e+000
292 0 +3.242177647e-001 +1.530342178e+002 +1.530342178e+002 -7.7916e-001 -2.8163e+000
307 0 +2.969495589e-001 +1.530069496e+002 +1.530069496e+002 -8.0002e-001 -2.8018e+000
312 0 +1.708041770e-001 +1.528808042e+002 +1.528808042e+002 -1.0913e+000 -2.6584e+000
325 0 +1.327227240e-001 +1.528427227e+002 +1.528427227e+002 -1.3095e+000 -2.5456e+000
331 0 +1.117891521e-001 +1.528217892e+002 +1.528217892e+002 -1.4353e+000 -2.4759e+000
333 0 +1.087601745e-001 +1.528187602e+002 +1.528187602e+002 -1.5091e+000 -2.4405e+000
335 0 +8.213381166e-002 +1.527921338e+002 +1.527921338e+002 -1.6817e+000 -2.3492e+000
337 0 +6.527946014e-002 +1.527752795e+002 +1.527752795e+002 -1.8464e+000 -2.2636e+000
339 0 +2.233592261e-002 +1.527323359e+002 +1.527323359e+002 -1.8410e+000 -2.2267e+000
340 0 +4.268710046e-003 +1.527142687e+002 +1.527142687e+002 -2.7759e+000 -1.7515e+000
359 0 +4.081804252e-003 +1.527140818e+002 +1.527140818e+002 -2.6355e+000 -1.8241e+000
376 0 +3.635148300e-003 +1.527136351e+002 +1.527136351e+002 -2.8117e+000 -1.7296e+000
377 0 +3.515402780e-003 +1.527135154e+002 +1.527135154e+002 -2.8230e+000 -1.7223e+000
385 0 +3.464213710e-003 +1.527134642e+002 +1.527134642e+002 -2.8421e+000 -1.7120e+000
393 0 +2.556955013e-003 +1.527125570e+002 +1.527125570e+002 -2.6965e+000 -1.7854e+000
401 0 +1.637595431e-003 +1.527116376e+002 +1.527116376e+002 -2.9223e+000 -1.6655e+000
407 0 +1.085635563e-003 +1.527110856e+002 +1.527110856e+002 -2.7026e+000 -1.7781e+000
413 0 +9.164669786e-004 +1.527109165e+002 +1.527109165e+002 -2.7888e+000 -1.7319e+000
415 0 +9.007761356e-004 +1.527109008e+002 +1.527109008e+002 -2.7941e+000 -1.7288e+000
417 0 +7.398890849e-004 +1.527107399e+002 +1.527107399e+002 -3.0121e+000 -1.6118e+000
418 0 +5.493920750e-004 +1.527105494e+002 +1.527105494e+002 -2.9800e+000 -1.6278e+000
427 0 +2.565194602e-004 +1.527102565e+002 +1.527102565e+002 -3.0571e+000 -1.5837e+000
432 0 +5.938213741e-005 +1.527100594e+002 +1.527100594e+002 -3.1206e+000 -1.5439e+000
434 0 +2.816201908e-005 +1.527100282e+002 +1.527100282e+002 -3.1096e+000 -1.5482e+000
438 0 +2.671873028e-005 +1.527100267e+002 +1.527100267e+002 -2.9234e+000 -1.6464e+000
441 0 +1.926126743e-007 +1.527100002e+002 +1.527100002e+002 -3.0311e+000 -1.5833e+000
456 0 +3.632123935e-009 +1.527100000e+002 +1.527100000e+002 -3.0688e+000 -1.5619e+000
589 0 +0.000000000e+000 +1.527100000e+002 +1.527100000e+002 -3.0731e+000 -1.5586e+000
% f evaluations | g evaluations | best noise-free fitness - Fopt (9.980000000000e+001) + sum g_i+ | measured fitness | best measured fitness or single-digit g-values | x1 | x2...
1 0 +2.541141768e+000 +1.023411418e+002 +1.023411418e+002 -3.9163e-001 +5.5810e-001
40 0 +4.999445655e-001 +1.002999446e+002 +1.002999446e+002 -2.1773e-002 +8.9571e-001
69 0 +4.198531590e-001 +1.002198532e+002 +1.002198532e+002 -1.2211e+000 +5.0384e-001
99 0 +1.211629720e-001 +9.992116297e+001 +9.992116297e+001 -8.0405e-001 +5.5575e-001
139 0 +9.631358217e-002 +9.989631358e+001 +9.989631358e+001 -7.9578e-001 +5.6800e-001
140 0 +7.394640008e-002 +9.987394640e+001 +9.987394640e+001 -2.4622e+000 -2.1414e-001
148 0 +5.734019152e-002 +9.985734019e+001 +9.985734019e+001 -6.4723e-001 +6.8236e-001
208 0 +3.435287229e-003 +9.980343529e+001 +9.980343529e+001 -1.6470e+000 +2.0302e-001
248 0 +1.225353420e-004 +9.980012254e+001 +9.980012254e+001 -1.8937e+000 +1.0929e-001
264 0 +4.652206655e-005 +9.980004652e+001 +9.980004652e+001 -2.4642e+000 -1.4578e-001
294 0 +2.442049396e-005 +9.980002442e+001 +9.980002442e+001 -2.0553e+000 +3.0144e-002
310 0 +3.763813638e-006 +9.980000376e+001 +9.980000376e+001 -2.2689e+000 -6.7404e-002
383 0 +5.542567152e-007 +9.980000055e+001 +9.980000055e+001 -2.1959e+000 -3.2061e-002
401 0 +1.527141080e-007 +9.980000015e+001 +9.980000015e+001 -2.2223e+000 -4.3348e-002
434 0 +9.551254720e-008 +9.980000010e+001 +9.980000010e+001 -2.2253e+000 -4.4515e-002
435 0 +4.862422998e-008 +9.980000005e+001 +9.980000005e+001 -2.2810e+000 -6.8179e-002
469 0 +1.083013501e-008 +9.980000001e+001 +9.980000001e+001 -2.2647e+000 -6.0614e-002
471 0 +8.421210396e-010 +9.980000000e+001 +9.980000000e+001 -2.2500e+000 -5.3382e-002
545 0 +0.000000000e+000 +9.980000000e+001 +9.980000000e+001 -2.2343e+000 -4.6482e-002
% f evaluations | g evaluations | best noise-free fitness - Fopt (-1.194100000000e+002) + sum g_i+ | measured fitness | best measured fitness or single-digit g-values | x1 | x2...
1 0 +6.755418625e+001 -5.185581375e+001 -5.185581375e+001 +2.9562e+000 -2.3563e+000
2 0 +1.823581782e+001 -1.011741822e+002 -1.011741822e+002 +9.5447e-001 -1.2842e+000
3 0 +6.245485049e+000 -1.131645150e+002 -1.131645150e+002 -2.9190e-001 +2.2135e+000
6 0 +3.654805193e+000 -1.157551948e+002 -1.157551948e+002 -9.6288e-001 -7.5266e-001
10 0 +2.200699199e+000 -1.172093008e+002 -1.172093008e+002 -7.4915e-001 -7.7462e-001
14 0 +2.077224129e+000 -1.173327759e+002 -1.173327759e+002 -6.9785e-001 -7.6276e-001
20 0 +4.064432535e-001 -1.190035567e+002 -1.190035567e+002 -5.3292e-001 +4.8731e-001
59 0 +2.200510243e-001 -1.191899490e+002 -1.191899490e+002 -2.5290e-001 +6.8268e-001
75 0 +1.417693145e-002 -1.193958231e+002 -1.193958231e+002 -1.2940e-001 +6.3894e-001
174 0 +1.369789398e-003 -1.194086302e+002 -1.194086302e+002 -6.1365e-001 +5.6862e-001
195 0 +5.839648413e-004 -1.194094160e+002 -1.194094160e+002 -8.9843e-001 +5.3488e-001
210 0 +1.867457113e-004 -1.194098133e+002 -1.194098133e+002 -1.5172e+000 +4.2801e-001
276 0 +4.982862819e-005 -1.194099502e+002 -1.194099502e+002 -1.4011e+000 +4.4572e-001
294 0 +4.057550359e-005 -1.194099594e+002 -1.194099594e+002 -1.3827e+000 +4.4833e-001
306 0 +1.021210068e-007 -1.194099999e+002 -1.194099999e+002 -1.2269e+000 +4.7677e-001
346 0 +6.184183121e-008 -1.194099999e+002 -1.194099999e+002 -1.2345e+000 +4.7572e-001
392 0 +5.205502873e-008 -1.194099999e+002 -1.194099999e+002 -1.2427e+000 +4.7449e-001
397 0 +5.035938955e-008 -1.194099999e+002 -1.194099999e+002 -1.2546e+000 +4.7270e-001
423 0 +1.072635314e-010 -1.194100000e+002 -1.194100000e+002 -1.2797e+000 +4.7054e-001
% f evaluations | g evaluations | best noise-free fitness - Fopt (1.077000000000e+001) + sum g_i+ | measured fitness | best measured fitness or single-digit g-values | x1 | x2...
1 0 +8.285295879e+000 +1.905529588e+001 +1.905529588e+001 -2.1092e+000 -2.6309e+000
5 0 +7.390215330e+000 +1.816021533e+001 +1.816021533e+001 -9.0815e-001 +2.0223e+000
13 0 +6.600367722e+000 +1.737036772e+001 +1.737036772e+001 -1.4234e+000 +1.5185e+000
23 0 +3.445574912e+000 +1.421557491e+001 +1.421557491e+001 -1.1326e+000 -8.2386e-001
31 0 +8.372803500e-001 +1.160728035e+001 +1.160728035e+001 -7.4445e-001 -7.3830e-001
107 0 +8.194518688e-001 +1.158945187e+001 +1.158945187e+001 -1.2419e+000 -1.3155e+000
141 0 +7.639957230e-001 +1.153399572e+001 +1.153399572e+001 -1.1745e+000 -1.2178e+000
167 0 +1.242964730e-001 +1.089429647e+001 +1.089429647e+001 +8.1243e-001 -2.6098e+000
193 0 +3.787675577e-002 +1.080787676e+001 +1.080787676e+001 +7.1794e-001 -2.6298e+000
264 0 +3.140620542e-002 +1.080140621e+001 +1.080140621e+001 +8.5106e-001 -2.5227e+000
290 0 +2.972910281e-002 +1.079972910e+001 +1.079972910e+001 +8.0712e-001 -2.5599e+000
298 0 +1.717424113e-002 +1.078717424e+001 +1.078717424e+001 +8.9931e-001 -2.4538e+000
375 0 +1.348284647e-002 +1.078348285e+001 +1.078348285e+001 +1.0089e+000 -2.3391e+000
378 0 +1.203642367e-002 +1.078203642e+001 +1.078203642e+001 +1.0470e+000 -2.2631e+000
392 0 +3.671716691e-003 +1.077367172e+001 +1.077367172e+001 +1.1744e+000 -2.1395e+000
406 0 +3.612372648e-003 +1.077361237e+001 +1.077361237e+001 +1.1921e+000 -2.1284e+000
431 0 +3.322310452e-003 +1.077332231e+001 +1.077332231e+001 +1.2247e+000 -2.0840e+000
442 0 +8.501363441e-004 +1.077085014e+001 +1.077085014e+001 +1.4114e+000 -1.8744e+000
445 0 +3.269990723e-004 +1.077032700e+001 +1.077032700e+001 +1.4433e+000 -1.8506e+000
449 0 +2.718174047e-005 +1.077002718e+001 +1.077002718e+001 +1.9289e+000 -1.3202e+000
471 0 +2.658362070e-005 +1.077002658e+001 +1.077002658e+001 +1.8573e+000 -1.3930e+000
478 0 +6.680368605e-006 +1.077000668e+001 +1.077000668e+001 +1.6487e+000 -1.6296e+000
482 0 +6.526601297e-006 +1.077000653e+001 +1.077000653e+001 +1.6551e+000 -1.6239e+000
516 0 +1.127662285e-006 +1.077000113e+001 +1.077000113e+001 +1.7025e+000 -1.5692e+000
529 0 +8.272662697e-007 +1.077000083e+001 +1.077000083e+001 +1.7453e+000 -1.5202e+000
533 0 +5.467588284e-007 +1.077000055e+001 +1.077000055e+001 +1.7265e+000 -1.5419e+000
534 0 +5.105338374e-007 +1.077000051e+001 +1.077000051e+001 +1.7266e+000 -1.5419e+000
539 0 +2.710222127e-007 +1.077000027e+001 +1.077000027e+001 +1.7733e+000 -1.4906e+000
543 0 +5.801938308e-008 +1.077000006e+001 +1.077000006e+001 +1.7560e+000 -1.5108e+000
546 0 +4.210195925e-008 +1.077000004e+001 +1.077000004e+001 +1.7639e+000 -1.5024e+000
552 0 +1.293212115e-008 +1.077000001e+001 +1.077000001e+001 +1.7792e+000 -1.4861e+000
553 0 +1.146981177e-009 +1.077000000e+001 +1.077000000e+001 +1.7600e+000 -1.5088e+000
% f evaluations | g evaluations | best noise-free fitness - Fopt (2.137000000000e+001) + sum g_i+ | measured fitness | best measured fitness or single-digit g-values | x1 | x2...
1 0 +5.910518636e+001 +8.047518636e+001 +8.047518636e+001 -3.9784e-001 -4.6255e+000
2 0 +2.183151070e+001 +4.320151070e+001 +4.320151070e+001 -3.4154e+000 -3.2450e+000
5 0 +9.128227873e+000 +3.049822787e+001 +3.049822787e+001 +3.5206e+000 +3.1978e+000
22 0 +7.117878634e+000 +2.848787863e+001 +2.848787863e+001 +3.8446e+000 +2.6544e+000
67 0 +6.038862271e+000 +2.740886227e+001 +2.740886227e+001 +3.7813e+000 +2.5409e+000
80 0 +4.412683297e+000 +2.578268330e+001 +2.578268330e+001 +3.8257e+000 +1.6237e+000
90 0 +1.633289905e-001 +2.153332899e+001 +2.153332899e+001 +1.8415e+000 +1.9830e+000
198 0 +1.081586824e-001 +2.147815868e+001 +2.147815868e+001 +2.5289e+000 +2.6362e+000
199 0 +5.269600580e-002 +2.142269601e+001 +2.142269601e+001 +2.5389e+000 +2.6319e+000
233 0 +4.222490367e-002 +2.141222490e+001 +2.141222490e+001 +2.6353e+000 +2.7197e+000
248 0 +1.035190075e-002 +2.138035190e+001 +2.138035190e+001 +1.8932e+000 +1.9353e+000
279 0 +7.779869916e-005 +2.137007780e+001 +2.137007780e+001 +2.6387e+000 +2.6384e+000
332 0 +1.944872814e-005 +2.137001945e+001 +2.137001945e+001 +2.6721e+000 +2.6745e+000
343 0 +1.801802280e-005 +2.137001802e+001 +2.137001802e+001 +2.6699e+000 +2.6725e+000
380 0 +1.739306130e-005 +2.137001739e+001 +2.137001739e+001 +2.6704e+000 +2.6730e+000
385 0 +6.691146552e-007 +2.137000067e+001 +2.137000067e+001 +2.7159e+000 +2.7221e+000
431 0 +6.603378075e-007 +2.137000066e+001 +2.137000066e+001 +2.7160e+000 +2.7222e+000
437 0 +5.413080189e-007 +2.137000054e+001 +2.137000054e+001 +2.7116e+000 +2.7181e+000
446 0 +3.009048299e-008 +2.137000003e+001 +2.137000003e+001 +2.7131e+000 +2.7239e+000
520 0 +2.874116944e-009 +2.137000000e+001 +2.137000000e+001 +2.6998e+000 +2.7107e+000
% f evaluations | g evaluations | best noise-free fitness - Fopt (1.673000000000e+001) + sum g_i+ | measured fitness | best measured fitness or single-digit g-values | x1 | x2...
1 0 +2.998457229e+001 +4.671457229e+001 +4.671457229e+001 +3.9303e+000 +1.3049e+000
3 0 +1.976638684e+001 +3.649638684e+001 +3.649638684e+001 -8.4971e-001 +3.5489e+000
5 0 +6.317508731e+000 +2.304750873e+001 +2.304750873e+001 +2.0900e-002 +9.2743e-001
14 0 +4.022322012e+000 +2.075232201e+001 +2.075232201e+001 -2.3513e+000 -2.2520e-001
16 0 +9.698946682e-002 +1.682698947e+001 +1.682698947e+001 -2.6302e+000 -3.3607e-001
35 0 +1.867304332e-004 +1.673018673e+001 +1.673018673e+001 -1.3074e+000 -1.7036e+000
157 0 +1.999665911e-005 +1.673002000e+001 +1.673002000e+001 -1.1670e+000 -1.8364e+000
182 0 +2.083383428e-006 +1.673000208e+001 +1.673000208e+001 -1.1680e+000 -1.8299e+000
191 0 +7.649056499e-009 +1.673000001e+001 +1.673000001e+001 -1.2415e+000 -1.7534e+000
% f evaluations | g evaluations | best noise-free fitness - Fopt (1.000000000000e+003) + sum g_i+ | measured fitness | best measured fitness or single-digit g-values | x1 | x2...
1 0 +1.624474289e+001 +1.016244743e+003 +1.016244743e+003 -4.1862e+000 +2.7467e+000
17 0 +5.814547466e+000 +1.005814547e+003 +1.005814547e+003 -4.8217e+000 +9.7094e-002
66 0 +5.586945740e-001 +1.000558695e+003 +1.000558695e+003 +5.9957e-001 -4.0793e+000
112 0 +4.955765890e-001 +1.000495577e+003 +1.000495577e+003 +3.3132e-001 -4.1379e+000
122 0 +3.490006635e-001 +1.000349001e+003 +1.000349001e+003 +3.7533e-001 -4.1327e+000
132 0 +2.503654682e-001 +1.000250365e+003 +1.000250365e+003 +4.4479e-001 -4.0628e+000
171 0 +1.474840852e-001 +1.000147484e+003 +1.000147484e+003 +4.0196e-001 -4.1107e+000
181 0 +1.274837880e-001 +1.000127484e+003 +1.000127484e+003 -8.7767e-002 -3.9719e+000
219 0 +5.675523834e-002 +1.000056755e+003 +1.000056755e+003 -2.9853e-002 -3.9515e+000
222 0 +5.547281060e-002 +1.000055473e+003 +1.000055473e+003 -4.8446e-002 -3.9479e+000
242 0 +9.008878112e-004 +1.000000901e+003 +1.000000901e+003 -1.0962e+000 -3.5893e+000
307 0 +7.864233063e-004 +1.000000786e+003 +1.000000786e+003 -1.1495e+000 -3.5699e+000
324 0 +1.171314111e-004 +1.000000117e+003 +1.000000117e+003 -1.4003e+000 -3.4986e+000
329 0 +2.907863450e-005 +1.000000029e+003 +1.000000029e+003 -1.4486e+000 -3.4715e+000
350 0 +6.455370112e-006 +1.000000006e+003 +1.000000006e+003 -1.8060e+000 -3.3528e+000
352 0 +1.583652079e-006 +1.000000002e+003 +1.000000002e+003 -1.7344e+000 -3.3767e+000
386 0 +1.060069394e-006 +1.000000001e+003 +1.000000001e+003 -1.7571e+000 -3.3703e+000
398 0 +3.681738008e-007 +1.000000000e+003 +1.000000000e+003 -1.6832e+000 -3.3945e+000
411 0 +2.208588512e-007 +1.000000000e+003 +1.000000000e+003 -1.6902e+000 -3.3925e+000
419 0 +2.028674544e-007 +1.000000000e+003 +1.000000000e+003 -1.6821e+000 -3.3952e+000
421 0 +4.930632258e-008 +1.000000000e+003 +1.000000000e+003 -1.6823e+000 -3.3959e+000
438 0 +4.889238880e-008 +1.000000000e+003 +1.000000000e+003 -1.6821e+000 -3.3960e+000
441 0 +3.292598194e-009 +1.000000000e+003 +1.000000000e+003 -1.6866e+000 -3.3953e+000
553 0 +0.000000000e+000 +1.000000000e+003 +1.000000000e+003 -1.6797e+000 -3.3985e+000
% f evaluations | g evaluations | best noise-free fitness - Fopt (-1.079600000000e+002) + sum g_i+ | measured fitness | best measured fitness or single-digit g-values | x1 | x2...
1 0 +7.689160631e+000 -1.002708394e+002 -1.002708394e+002 +3.2627e+000 +4.8955e+000
15 0 +7.674365821e+000 -1.002856342e+002 -1.002856342e+002 +2.7513e+000 +4.7443e+000
19 0 +5.042419715e+000 -1.029175803e+002 -1.029175803e+002 +3.0461e+000 +1.9311e+000
29 0 +2.283988837e+000 -1.056760112e+002 -1.056760112e+002 +2.7968e+000 +7.2913e-001
42 0 +1.998018760e+000 -1.059619812e+002 -1.059619812e+002 +2.8101e+000 +6.2107e-001
55 0 +1.947309294e+000 -1.060126907e+002 -1.060126907e+002 +2.8480e+000 +7.2632e-001
74 0 +5.087198357e-001 -1.074512802e+002 -1.074512802e+002 +1.9728e+000 +5.9065e-001
182 0 +3.596100903e-001 -1.076003899e+002 -1.076003899e+002 +1.0896e+000 +8.0007e-001
256 0 +3.394984863e-001 -1.076205015e+002 -1.076205015e+002 +1.0846e+000 +7.9976e-001
321 0 +2.761820973e-001 -1.076838179e+002 -1.076838179e+002 +1.0736e+000 +7.9745e-001
332 0 +1.189006672e-001 -1.078410993e+002 -1.078410993e+002 +4.3072e-001 +9.2770e-001
348 0 +4.782742251e-002 -1.079121726e+002 -1.079121726e+002 +5.6343e-001 +8.4708e-001
364 0 +2.873989102e-002 -1.079312601e+002 -1.079312601e+002 +3.7139e-001 +8.8612e-001
368 0 +1.434648556e-002 -1.079456535e+002 -1.079456535e+002 -1.1053e+000 +1.2272e+000
381 0 +1.307174592e-002 -1.079469283e+002 -1.079469283e+002 -1.0326e+000 +1.2110e+000
399 0 +3.849385578e-003 -1.079561506e+002 -1.079561506e+002 -1.0941e+000 +1.2153e+000
410 0 +3.705742817e-003 -1.079562943e+002 -1.079562943e+002 -1.0628e+000 +1.2083e+000
437 0 +8.569273154e-004 -1.079591431e+002 -1.079591431e+002 -1.4314e+000 +1.2678e+000
439 0 +5.205567841e-005 -1.079599479e+002 -1.079599479e+002 -9.8010e-001 +1.1722e+000
475 0 +3.279520361e-005 -1.079599672e+002 -1.079599672e+002 -1.0566e+000 +1.1691e+000
511 0 +2.685487102e-005 -1.079599731e+002 -1.079599731e+002 -1.0946e+000 +1.1775e+000
517 0 +7.778336993e-006 -1.079599922e+002 -1.079599922e+002 -1.1047e+000 +1.1815e+000
531 0 +1.029327279e-006 -1.079599990e+002 -1.079599990e+002 -1.0697e+000 +1.1843e+000
537 0 +3.967950590e-008 -1.079600000e+002 -1.079600000e+002 -1.0870e+000 +1.1829e+000
542 0 +1.130054272e-008 -1.079600000e+002 -1.079600000e+002 -1.0935e+000 +1.1856e+000
552 0 +3.150006478e-009 -1.079600000e+002 -1.079600000e+002 -1.0851e+000 +1.1840e+000
% f evaluations | g evaluations | best noise-free fitness - Fopt (-3.025900000000e+002) + sum g_i+ | measured fitness | best measured fitness or single-digit g-values | x1 | x2...
1 0 +2.731590432e+001 -2.752740957e+002 -2.752740957e+002 -8.8935e-001 -1.4454e+000
6 0 +5.381857691e-001 -3.020518142e+002 -3.020518142e+002 -2.0395e-001 +1.0190e+000
16 0 +5.686570245e-002 -3.025331343e+002 -3.025331343e+002 +2.7404e-001 +4.1650e-001
18 0 +8.373744755e-004 -3.025891626e+002 -3.025891626e+002 +3.5111e-001 +1.8777e-001
29 0 +5.697020521e-004 -3.025894303e+002 -3.025894303e+002 +3.4948e-001 +1.8728e-001
136 0 +1.019538621e-004 -3.025898980e+002 -3.025898980e+002 +2.5722e-001 +3.1970e-001
155 0 +4.004375467e-005 -3.025899600e+002 -3.025899600e+002 +2.7634e-001 +2.8879e-001
225 0 +2.863309516e-005 -3.025899714e+002 -3.025899714e+002 +3.8064e-001 +7.2767e-002
247 0 +3.488849529e-007 -3.025899997e+002 -3.025899997e+002 +3.7318e-001 +1.0182e-001
299 0 +9.221588471e-008 -3.025899999e+002 -3.025899999e+002 +3.8895e-001 +7.1136e-002
318 0 +4.963413858e-008 -3.025900000e+002 -3.025900000e+002 +3.8543e-001 +7.9333e-002
365 0 +3.925850933e-008 -3.025900000e+002 -3.025900000e+002 +3.8489e-001 +8.3451e-002
381 0 +1.178972298e-008 -3.025900000e+002 -3.025900000e+002 +3.9541e-001 +6.0096e-002
402 0 +6.638742889e-010 -3.025900000e+002 -3.025900000e+002 +3.9799e-001 +5.7494e-002
% f evaluations | g evaluations | best noise-free fitness - Fopt (-3.065500000000e+002) + sum g_i+ | measured fitness | best measured fitness or single-digit g-values | x1 | x2...
1 0 +2.620791875e+001 -2.803420813e+002 -2.803420813e+002 +2.8186e-001 +1.6591e+000
2 0 +3.364597530e+000 -3.031854025e+002 -3.031854025e+002 -1.8130e+000 +7.2992e-001
12 0 +2.058020287e+000 -3.044919797e+002 -3.044919797e+002 +2.3684e-001 -5.0000e+000
14 0 +1.362840581e+000 -3.051871594e+002 -3.051871594e+002 +1.0550e-001 -5.0000e+000
34 0 +1.249383402e+000 -3.053006166e+002 -3.053006166e+002 -8.2768e-002 -5.0000e+000
73 0 +1.067079468e+000 -3.054829205e+002 -3.054829205e+002 -6.5638e-002 -4.9953e+000
94 0 +9.830721313e-001 -3.055669279e+002 -3.055669279e+002 -3.9710e-002 -4.9950e+000
133 0 +9.525359156e-001 -3.055974641e+002 -3.055974641e+002 -4.1167e-002 -4.9917e+000
151 0 +9.290851411e-001 -3.056209149e+002 -3.056209149e+002 -8.5436e-003 -4.9885e+000
192 0 +9.007518995e-001 -3.056492481e+002 -3.056492481e+002 -2.9364e-002 -4.9845e+000
212 0 +8.897727497e-001 -3.056602273e+002 -3.056602273e+002 -3.6529e-002 -4.9823e+000
214 0 +7.112991259e-001 -3.058387009e+002 -3.058387009e+002 -1.8654e-001 -4.9353e+000
227 0 +7.046821074e-001 -3.058453179e+002 -3.058453179e+002 -1.4558e-001 -4.9279e+000
239 0 +5.698869945e-001 -3.059801130e+002 -3.059801130e+002 -3.2108e-001 -4.8468e+000
250 0 +5.425856297e-001 -3.060074144e+002 -3.060074144e+002 -3.6649e-001 -4.8306e+000
251 0 +4.963156365e-001 -3.060536844e+002 -3.060536844e+002 -6.9881e-001 -4.6836e+000
253 0 +4.860049255e-001 -3.060639951e+002 -3.060639951e+002 -7.1791e-001 -4.6825e+000
271 0 +4.129712419e-001 -3.061370288e+002 -3.061370288e+002 -1.1038e+000 -4.5170e+000
272 0 +3.879893500e-001 -3.061620107e+002 -3.061620107e+002 -1.8638e+000 -4.1947e+000
276 0 +3.757254740e-001 -3.061742745e+002 -3.061742745e+002 -1.4791e+000 -4.3564e+000
289 0 +2.658191746e-001 -3.062841808e+002 -3.062841808e+002 -1.1406e+000 -4.5168e+000
296 0 +1.753646358e-001 -3.063746354e+002 -3.063746354e+002 -1.8641e+000 -4.2097e+000
297 0 +1.503306804e-001 -3.063996693e+002 -3.063996693e+002 -1.6727e+000 -4.2954e+000
299 0 +1.169729282e-001 -3.064330271e+002 -3.064330271e+002 -1.4310e+000 -4.4361e+000
310 0 +1.092519597e-001 -3.064407480e+002 -3.064407480e+002 -1.4934e+000 -4.4028e+000
316 0 +5.042235870e-002 -3.064995776e+002 -3.064995776e+002 -1.8473e+000 -4.2903e+000
318 0 +1.682436089e-002 -3.065331756e+002 -3.065331756e+002 -2.9786e+000 -3.7981e+000
341 0 +1.749738464e-003 -3.065482503e+002 -3.065482503e+002 -2.7914e+000 -3.8995e+000
342 0 +1.077735615e-003 -3.065489223e+002 -3.065489223e+002 -3.1690e+000 -3.7451e+000
343 0 +1.414935547e-004 -3.065498585e+002 -3.065498585e+002 -3.4514e+000 -3.6451e+000
361 0 +7.136816271e-005 -3.065499286e+002 -3.065499286e+002 -3.6568e+000 -3.5748e+000
381 0 +2.820491716e-006 -3.065499972e+002 -3.065499972e+002 -3.2634e+000 -3.7275e+000
439 0 +1.032384489e-008 -3.065500000e+002 -3.065500000e+002 -3.4005e+000 -3.6768e+000
446 0 +4.690548394e-009 -3.065500000e+002 -3.065500000e+002 -3.3890e+000 -3.6811e+000
557 0 +0.000000000e+000 -3.065500000e+002 -3.065500000e+002 -3.3771e+000 -3.6866e+000
