% f evaluations | g evaluations | best noise-free fitness - Fopt (-5.465000000000e+002) + sum g_i+ | measured fitness | best measured fitness or single-digit g-values | x1 | x2...
1 0 +1.164191714e+005 +1.158726714e+005 +1.158726714e+005 -1.0357e+000 -7.7327e-001 -4.0176e+000
2 0 +8.730042483e+003 +8.183542483e+003 +8.183542483e+003 -3.6463e+000 +7.2040e-002 +4.1699e+000
3 0 +1.143997948e+003 +5.974979480e+002 +5.974979480e+002 -3.9025e+000 +2.4089e+000 +1.9847e+000
6 0 +4.224856192e+000 -5.422751438e+002 -5.422751438e+002 -1.6585e+000 +2.0772e+000 +1.8293e+000
13 0 +2.824909776e+000 -5.436750902e+002 -5.436750902e+002 +7.8960e-001 +2.8370e+000 +1.5038e+000
73 0 +2.638794091e+000 -5.438612059e+002 -5.438612059e+002 +7.8960e-001 +2.8370e+000 +1.5176e+000
89 0 +2.325023700e+000 -5.441749763e+002 -5.441749763e+002 +1.5262e+000 +2.4189e+000 +1.4688e+000
106 0 +2.181170163e+000 -5.443188298e+002 -5.443188298e+002 +1.7246e+000 +3.0602e+000 +1.4722e+000
107 0 +1.976601715e+000 -5.445233983e+002 -5.445233983e+002 +1.5505e+000 +3.0676e+000 +1.5908e+000
121 0 +1.821952985e+000 -5.446780470e+002 -5.446780470e+002 +1.3394e+000 +3.0322e+000 +1.5402e+000
127 0 +1.814979901e+000 -5.446850201e+002 -5.446850201e+002 +1.3773e+000 +3.0577e+000 +1.5418e+000
143 0 +1.573833611e+000 -5.449261664e+002 -5.449261664e+002 +1.5172e+000 +3.1046e+000 +1.5147e+000
149 0 +1.451367626e+000 -5.450486324e+002 -5.450486324e+002 +1.5344e+000 +3.0932e+000 +1.5087e+000
191 0 +1.441149646e+000 -5.450588504e+002 -5.450588504e+002 +1.5650e+000 +3.0950e+000 +1.5173e+000
193 0 +1.297325206e+000 -5.452026748e+002 -5.452026748e+002 +1.5040e+000 +3.0317e+000 +1.5593e+000
213 0 +1.158906794e+000 -5.453410932e+002 -5.453410932e+002 +1.5119e+000 +3.0255e+000 +1.5437e+000
219 0 +1.139403984e+000 -5.453605960e+002 -5.453605960e+002 +1.4898e+000 +3.0032e+000 +1.5285e+000
281 0 +1.119000968e+000 -5.453809990e+002 -5.453809990e+002 +1.5141e+000 +3.0119e+000 +1.5355e+000
1905 0 +4.347820862e-001 -5.460652179e+002 -5.460652179e+002 -1.9597e+000 +2.1552e+000 +2.0691e+000
1946 0 +4.121421549e-001 -5.460878578e+002 -5.460878578e+002 -1.9816e+000 +2.1848e+000 +2.0695e+000
1971 0 +3.969982868e-001 -5.461030017e+002 -5.461030017e+002 -1.9752e+000 +2.1811e+000 +2.0736e+000
1984 0 +2.238243397e-001 -5.462761757e+002 -5.462761757e+002 -2.0320e+000 +2.1734e+000 +2.0840e+000
1993 0 +1.803399116e-001 -5.463196601e+002 -5.463196601e+002 -2.0111e+000 +2.1451e+000 +2.0836e+000
2017 0 +1.495710557e-001 -5.463504289e+002 -5.463504289e+002 -2.0190e+000 +2.1196e+000 +2.0887e+000
2022 0 +4.844478611e-002 -5.464515552e+002 -5.464515552e+002 -2.0630e+000 +2.1334e+000 +2.0944e+000
2048 0 +2.079939752e-002 -5.464792006e+002 -5.464792006e+002 -2.1154e+000 +2.1057e+000 +2.1150e+000
2105 0 +9.917182015e-003 -5.464900828e+002 -5.464900828e+002 -2.1086e+000 +2.1067e+000 +2.1118e+000
2108 0 +7.132759910e-003 -5.464928672e+002 -5.464928672e+002 -2.1014e+000 +2.1035e+000 +2.1115e+000
2109 0 +5.737441837e-003 -5.464942626e+002 -5.464942626e+002 -2.1014e+000 +2.1037e+000 +2.1107e+000
2131 0 +5.109080509e-003 -5.464948909e+002 -5.464948909e+002 -2.1009e+000 +2.1064e+000 +2.1098e+000
2134 0 +4.099213912e-003 -5.464959008e+002 -5.464959008e+002 -2.0979e+000 +2.1070e+000 +2.1087e+000
2153 0 +9.915214921e-004 -5.464990085e+002 -5.464990085e+002 -2.0972e+000 +2.1063e+000 +2.1045e+000
2167 0 +8.635836135e-004 -5.464991364e+002 -5.464991364e+002 -2.0978e+000 +2.1068e+000 +2.1048e+000
2184 0 +6.400576289e-004 -5.464993599e+002 -5.464993599e+002 -2.0995e+000 +2.1069e+000 +2.1052e+000
2203 0 +6.187846413e-004 -5.464993812e+002 -5.464993812e+002 -2.1055e+000 +2.1060e+000 +2.1028e+000
2221 0 +5.952004458e-004 -5.464994048e+002 -5.464994048e+002 -2.1056e+000 +2.1058e+000 +2.1029e+000
2226 0 +3.754736611e-004 -5.464996245e+002 -5.464996245e+002 -2.1024e+000 +2.1046e+000 +2.1037e+000
2228 0 +2.835549171e-004 -5.464997164e+002 -5.464997164e+002 -2.1032e+000 +2.1042e+000 +2.1040e+000
2231 0 +2.298677479e-004 -5.464997701e+002 -5.464997701e+002 -2.1030e+000 +2.1038e+000 +2.1045e+000
2235 0 +1.935607226e-004 -5.464998064e+002 -5.464998064e+002 -2.1030e+000 +2.1038e+000 +2.1054e+000
2238 0 +1.779329608e-004 -5.464998221e+002 -5.464998221e+002 -2.1034e+000 +2.1036e+000 +2.1049e+000
2250 0 +1.576634061e-004 -5.464998423e+002 -5.464998423e+002 -2.1029e+000 +2.1040e+000 +2.1049e+000
2256 0 +8.449244456e-005 -5.464999155e+002 -5.464999155e+002 -2.1070e+000 +2.1041e+000 +2.1049e+000
2257 0 +7.047906695e-005 -5.464999295e+002 -5.464999295e+002 -2.1068e+000 +2.1040e+000 +2.1050e+000
2273 0 +5.618990781e-005 -5.464999438e+002 -5.464999438e+002 -2.1045e+000 +2.1039e+000 +2.1050e+000
2281 0 +2.717377015e-006 -5.464999973e+002 -5.464999973e+002 -2.1046e+000 +2.1050e+000 +2.1047e+000
2332 0 +2.684354740e-006 -5.464999973e+002 -5.464999973e+002 -2.1046e+000 +2.1050e+000 +2.1047e+000
2348 0 +2.364889838e-006 -5.464999976e+002 -5.464999976e+002 -2.1047e+000 +2.1051e+000 +2.1048e+000
2351 0 +1.952583148e-006 -5.464999980e+002 -5.464999980e+002 -2.1047e+000 +2.1050e+000 +2.1047e+000
2356 0 +1.949006787e-006 -5.464999981e+002 -5.464999981e+002 -2.1047e+000 +2.1050e+000 +2.1047e+000
2363 0 +8.985031172e-007 -5.464999991e+002 -5.464999991e+002 -2.1047e+000 +2.1050e+000 +2.1048e+000
2378 0 +8.435825976e-007 -5.464999992e+002 -5.464999992e+002 -2.1048e+000 +2.1050e+000 +2.1048e+000
2379 0 +6.673575399e-007 -5.464999993e+002 -5.464999993e+002 -2.1048e+000 +2.1048e+000 +2.1049e+000
2383 0 +1.499928430e-007 -5.464999999e+002 -5.464999999e+002 -2.1048e+000 +2.1048e+000 +2.1049e+000
2426 0 +1.118861519e-007 -5.464999999e+002 -5.464999999e+002 -2.1048e+000 +2.1049e+000 +2.1048e+000
2430 0 +8.735787560e-008 -5.464999999e+002 -5.464999999e+002 -2.1049e+000 +2.1048e+000 +2.1048e+000
2439 0 +7.097924026e-008 -5.464999999e+002 -5.464999999e+002 -2.1048e+000 +2.1049e+000 +2.1048e+000
2463 0 +7.079233910e-008 -5.464999999e+002 -5.464999999e+002 -2.1049e+000 +2.1048e+000 +2.1049e+000
2467 0 +3.480670330e-008 -5.465000000e+002 -5.465000000e+002 -2.1049e+000 +2.1048e+000 +2.1048e+000
2473 0 +2.851299996e-008 -5.465000000e+002 -5.465000000e+002 -2.1049e+000 +2.1048e+000 +2.1048e+000
2490 0 +2.201875304e-008 -5.465000000e+002 -5.465000000e+002 -2.1048e+000 +2.1048e+000 +2.1048e+000
2497 0 +5.572474038e-009 -5.465000000e+002 -5.465000000e+002 -2.1049e+000 +2.1048e+000 +2.1048e+000
% f evaluations | g evaluations | best noise-free fitness - Fopt (1.000000000000e+003) + sum g_i+ | measured fitness | best measured fitness or single-digit g-values | x1 | x2...
1 0 +3.179113580e+004 +3.279113580e+004 +3.279113580e+004 -3.3410e+000 +4.3927e+000 +2.3912e+000
2 0 +2.687358767e+004 +2.787358767e+004 +2.787358767e+004 -1.2678e+000 +2.1479e+000 +1.9536e+000
4 0 +2.806178996e+003 +3.806178996e+003 +3.806178996e+003 +5.4792e-001 +4.2300e+000 -2.1613e+000
7 0 +1.853627551e+003 +2.853627551e+003 +2.853627551e+003 -3.6519e+000 +2.9612e+000 -1.2549e+000
16 0 +4.863295680e+002 +1.486329568e+003 +1.486329568e+003 -3.0271e+000 +2.6399e+000 -1.9734e+000
18 0 +2.919716678e+002 +1.291971668e+003 +1.291971668e+003 -2.9600e+000 +2.5140e+000 -1.9500e+000
26 0 +8.256291971e+001 +1.082562920e+003 +1.082562920e+003 -2.9293e+000 +2.1177e+000 -2.2461e+000
32 0 +3.735254762e+000 +1.003735255e+003 +1.003735255e+003 +1.8617e-001 +1.0092e+000 -2.3128e+000
48 0 +2.117539557e+000 +1.002117540e+003 +1.002117540e+003 -2.1110e+000 +1.5667e+000 -7.9698e-001
88 0 +1.985724285e+000 +1.001985724e+003 +1.001985724e+003 -2.1217e+000 +1.5758e+000 -7.8502e-001
151 0 +1.927658408e+000 +1.001927658e+003 +1.001927658e+003 -5.4358e-002 +5.9914e-001 -2.5078e+000
156 0 +1.859465256e+000 +1.001859465e+003 +1.001859465e+003 -5.3930e-002 +5.7753e-001 -2.5058e+000
158 0 +1.759342257e+000 +1.001759342e+003 +1.001759342e+003 -2.3410e-001 +5.1061e-001 -2.5111e+000
186 0 +1.706737503e+000 +1.001706738e+003 +1.001706738e+003 -2.6875e-001 +5.4672e-001 -2.4762e+000
206 0 +1.290690040e+000 +1.001290690e+003 +1.001290690e+003 -2.1662e+000 +5.4009e-001 -2.5332e+000
270 0 +1.186255321e+000 +1.001186255e+003 +1.001186255e+003 -2.0510e+000 +5.3012e-001 -2.5004e+000
294 0 +1.094013336e+000 +1.001094013e+003 +1.001094013e+003 -2.1417e+000 +5.3675e-001 -2.5145e+000
379 0 +1.046143355e+000 +1.001046143e+003 +1.001046143e+003 -2.1321e+000 +5.5618e-001 -2.5081e+000
414 0 +1.009402379e+000 +1.001009402e+003 +1.001009402e+003 -2.1340e+000 +5.5172e-001 -2.4904e+000
421 0 +9.973416089e-001 +1.000997342e+003 +1.000997342e+003 -2.0892e+000 +5.7935e-001 -2.4915e+000
2372 0 +9.204804740e-001 +1.000920480e+003 +1.000920480e+003 +1.5181e+000 +1.0098e+000 -2.3578e+000
2376 0 +8.303585811e-001 +1.000830359e+003 +1.000830359e+003 +1.5417e+000 +9.8814e-001 -2.3719e+000
2390 0 +8.075762401e-001 +1.000807576e+003 +1.000807576e+003 +1.5388e+000 +9.9231e-001 -2.3841e+000
2456 0 +7.935504515e-001 +1.000793550e+003 +1.000793550e+003 +1.5043e+000 +9.7861e-001 -2.3889e+000
3235 0 +7.425147090e-001 +1.000742515e+003 +1.000742515e+003 -2.1930e+000 +2.0449e+000 -1.0055e+000
3237 0 +6.299630025e-001 +1.000629963e+003 +1.000629963e+003 -2.1856e+000 +2.0794e+000 -9.9486e-001
3259 0 +5.563128138e-001 +1.000556313e+003 +1.000556313e+003 -2.1400e+000 +2.0856e+000 -9.9446e-001
3278 0 +5.475466194e-001 +1.000547547e+003 +1.000547547e+003 -2.1219e+000 +2.0941e+000 -9.9348e-001
3279 0 +5.148351419e-001 +1.000514835e+003 +1.000514835e+003 -2.0677e+000 +2.0912e+000 -9.8475e-001
3290 0 +4.444358967e-001 +1.000444436e+003 +1.000444436e+003 -2.0823e+000 +2.0942e+000 -9.7629e-001
3294 0 +4.278538292e-001 +1.000427854e+003 +1.000427854e+003 -2.1049e+000 +2.0925e+000 -9.7621e-001
3318 0 +4.256733312e-001 +1.000425673e+003 +1.000425673e+003 -2.1024e+000 +2.1026e+000 -9.7492e-001
3328 0 +4.097350691e-001 +1.000409735e+003 +1.000409735e+003 -2.0883e+000 +2.1199e+000 -9.5227e-001
3353 0 +4.026246553e-001 +1.000402625e+003 +1.000402625e+003 -2.0916e+000 +2.1115e+000 -9.6430e-001
3363 0 +3.974770111e-001 +1.000397477e+003 +1.000397477e+003 -2.1097e+000 +2.0971e+000 -9.6277e-001
7621 0 +5.208629842e-002 +1.000052086e+003 +1.000052086e+003 -2.0774e+000 +2.0862e+000 -2.1150e+000
7636 0 +5.036750106e-002 +1.000050368e+003 +1.000050368e+003 -2.0750e+000 +2.0883e+000 -2.1145e+000
7640 0 +3.409980297e-002 +1.000034100e+003 +1.000034100e+003 -2.0907e+000 +2.0858e+000 -2.1144e+000
7690 0 +8.970213847e-003 +1.000008970e+003 +1.000008970e+003 -2.0865e+000 +2.1142e+000 -2.0990e+000
7734 0 +6.083795430e-003 +1.000006084e+003 +1.000006084e+003 -2.0893e+000 +2.1037e+000 -2.1072e+000
7740 0 +1.902450923e-003 +1.000001902e+003 +1.000001902e+003 -2.0974e+000 +2.1035e+000 -2.1068e+000
7749 0 +1.431169163e-003 +1.000001431e+003 +1.000001431e+003 -2.0974e+000 +2.1053e+000 -2.1063e+000
7763 0 +8.627868486e-004 +1.000000863e+003 +1.000000863e+003 -2.1079e+000 +2.1074e+000 -2.1051e+000
7787 0 +6.609598590e-004 +1.000000661e+003 +1.000000661e+003 -2.1061e+000 +2.1044e+000 -2.1069e+000
7797 0 +3.459039856e-004 +1.000000346e+003 +1.000000346e+003 -2.1018e+000 +2.1051e+000 -2.1058e+000
7805 0 +1.892384672e-004 +1.000000189e+003 +1.000000189e+003 -2.1063e+000 +2.1049e+000 -2.1058e+000
7822 0 +1.377203647e-004 +1.000000138e+003 +1.000000138e+003 -2.1063e+000 +2.1050e+000 -2.1055e+000
7852 0 +1.270592142e-004 +1.000000127e+003 +1.000000127e+003 -2.1036e+000 +2.1039e+000 -2.1047e+000
7854 0 +6.082728817e-005 +1.000000061e+003 +1.000000061e+003 -2.1042e+000 +2.1042e+000 -2.1047e+000
7885 0 +3.120139638e-005 +1.000000031e+003 +1.000000031e+003 -2.1055e+000 +2.1041e+000 -2.1049e+000
7889 0 +2.174507495e-005 +1.000000022e+003 +1.000000022e+003 -2.1056e+000 +2.1042e+000 -2.1049e+000
7916 0 +1.511063863e-005 +1.000000015e+003 +1.000000015e+003 -2.1056e+000 +2.1044e+000 -2.1048e+000
7936 0 +1.085476276e-005 +1.000000011e+003 +1.000000011e+003 -2.1055e+000 +2.1044e+000 -2.1049e+000
7941 0 +5.670998121e-006 +1.000000006e+003 +1.000000006e+003 -2.1053e+000 +2.1048e+000 -2.1050e+000
7943 0 +2.593658451e-006 +1.000000003e+003 +1.000000003e+003 -2.1050e+000 +2.1048e+000 -2.1050e+000
7946 0 +1.269881750e-006 +1.000000001e+003 +1.000000001e+003 -2.1049e+000 +2.1048e+000 -2.1049e+000
7972 0 +1.149167929e-006 +1.000000001e+003 +1.000000001e+003 -2.1050e+000 +2.1048e+000 -2.1049e+000
7977 0 +8.439964176e-007 +1.000000001e+003 +1.000000001e+003 -2.1050e+000 +2.1048e+000 -2.1049e+000
7978 0 +1.609882929e-007 +1.000000000e+003 +1.000000000e+003 -2.1048e+000 +2.1049e+000 -2.1048e+000
8008 0 +1.056309884e-007 +1.000000000e+003 +1.000000000e+003 -2.1048e+000 +2.1049e+000 -2.1048e+000
8023 0 +6.354400739e-008 +1.000000000e+003 +1.000000000e+003 -2.1048e+000 +2.1049e+000 -2.1048e+000
8068 0 +5.771437372e-008 +1.000000000e+003 +1.000000000e+003 -2.1048e+000 +2.1049e+000 -2.1048e+000
8079 0 +4.627270300e-008 +1.000000000e+003 +1.000000000e+003 -2.1049e+000 +2.1049e+000 -2.1048e+000
8080 0 +2.148203748e-008 +1.000000000e+003 +1.000000000e+003 -2.1049e+000 +2.1049e+000 -2.1048e+000
8082 0 +2.090598628e-008 +1.000000000e+003 +1.000000000e+003 -2.1049e+000 +2.1049e+000 -2.1048e+000
8083 0 +1.693103968e-008 +1.000000000e+003 +1.000000000e+003 -2.1049e+000 +2.1049e+000 -2.1048e+000
8106 0 +1.270859684e-008 +1.000000000e+003 +1.000000000e+003 -2.1049e+000 +2.1049e+000 -2.1048e+000
8113 0 +1.105001957e-008 +1.000000000e+003 +1.000000000e+003 -2.1048e+000 +2.1049e+000 -2.1048e+000
8119 0 +3.973582352e-009 +1.000000000e+003 +1.000000000e+003 -2.1048e+000 +2.1048e+000 -2.1048e+000
% f evaluations | g evaluations | best noise-free fitness - Fopt (2.083800000000e+002) + sum g_i+ | measured fitness | best measured fitness or single-digit g-values | x1 | x2...
1 0 +8.763487845e+004 +8.784325845e+004 +8.784325845e+004 +4.6142e+000 -4.0449e+000 -1.3886e+000
2 0 +1.069672960e+004 +1.090510960e+004 +1.090510960e+004 -6.4365e-001 -3.0261e+000 +2.8101e+000
6 0 +9.955124214e+003 +1.016350421e+004 +1.016350421e+004 -1.5654e+000 -1.7512e+000 +4.5596e+000
7 0 +1.845721906e+002 +3.929521906e+002 +3.929521906e+002 -3.1715e+000 +3.0710e-001 +1.5930e+000
8 0 +3.191257980e+000 +2.115712580e+002 +2.115712580e+002 +4.7206e-002 +1.7901e+000 +2.1904e+000
24 0 +2.151391639e+000 +2.105313916e+002 +2.105313916e+002 -2.8409e-001 +2.5890e+000 +1.9054e+000
33 0 +1.556614238e+000 +2.099366142e+002 +2.099366142e+002 -2.5475e-001 +2.5269e+000 +1.9641e+000
76 0 +1.501933570e+000 +2.098819336e+002 +2.098819336e+002 -2.5805e-001 +2.5353e+000 +1.9632e+000
77 0 +1.372143511e+000 +2.097521435e+002 +2.097521435e+002 -2.8053e-001 +2.5951e+000 +1.9592e+000
87 0 +1.337184514e+000 +2.097171845e+002 +2.097171845e+002 -2.7858e-001 +2.5769e+000 +1.9623e+000
159 0 +1.270933365e+000 +2.096509334e+002 +2.096509334e+002 -2.9150e-001 +2.5836e+000 +1.9718e+000
181 0 +1.220761402e+000 +2.096007614e+002 +2.096007614e+002 -2.9852e-001 +2.5743e+000 +1.9823e+000
246 0 +1.197705448e+000 +2.095777054e+002 +2.095777054e+002 -3.0014e-001 +2.5551e+000 +1.9926e+000
1049 0 +1.149044304e+000 +2.095290443e+002 +2.095290443e+002 -1.0565e+000 +2.2807e+000 +2.0740e+000
1105 0 +1.135002252e+000 +2.095150023e+002 +2.095150023e+002 -1.0629e+000 +2.2831e+000 +2.0754e+000
1135 0 +1.079022273e+000 +2.094590223e+002 +2.094590223e+002 -1.1332e+000 +2.3179e+000 +2.0754e+000
1147 0 +1.015322009e+000 +2.093953220e+002 +2.093953220e+002 -1.1188e+000 +2.3156e+000 +2.0710e+000
1158 0 +8.394038314e-001 +2.092194038e+002 +2.092194038e+002 -1.0735e+000 +2.3274e+000 +2.0499e+000
1170 0 +8.290556267e-001 +2.092090556e+002 +2.092090556e+002 -1.0605e+000 +2.3291e+000 +2.0542e+000
1178 0 +7.844971774e-001 +2.091644972e+002 +2.091644972e+002 -1.0491e+000 +2.3485e+000 +2.0558e+000
1180 0 +7.625689400e-001 +2.091425689e+002 +2.091425689e+002 -1.0044e+000 +2.3612e+000 +2.0308e+000
1227 0 +7.550144834e-001 +2.091350145e+002 +2.091350145e+002 -9.8718e-001 +2.3725e+000 +2.0316e+000
1239 0 +7.332689160e-001 +2.091132689e+002 +2.091132689e+002 -1.0354e+000 +2.3659e+000 +2.0437e+000
1376 0 +7.243604117e-001 +2.091043604e+002 +2.091043604e+002 -1.0236e+000 +2.3733e+000 +2.0373e+000
3238 0 +6.843821203e-001 +2.090643821e+002 +2.090643821e+002 -2.0588e+000 +2.1418e+000 +9.1514e-001
3301 0 +5.798337350e-001 +2.089598337e+002 +2.089598337e+002 -2.0381e+000 +2.1659e+000 +9.3928e-001
3303 0 +4.935716553e-001 +2.088735717e+002 +2.088735717e+002 -2.1388e+000 +2.1132e+000 +9.3926e-001
3310 0 +4.445016597e-001 +2.088245017e+002 +2.088245017e+002 -2.1523e+000 +2.1078e+000 +9.5961e-001
3340 0 +4.309254431e-001 +2.088109254e+002 +2.088109254e+002 -2.1405e+000 +2.0956e+000 +9.5386e-001
3347 0 +4.128631126e-001 +2.087928631e+002 +2.087928631e+002 -2.1369e+000 +2.0975e+000 +9.6490e-001
3403 0 +4.000600630e-001 +2.087800601e+002 +2.087800601e+002 -2.1178e+000 +2.0977e+000 +9.5958e-001
3424 0 +3.977385822e-001 +2.087777386e+002 +2.087777386e+002 -2.1020e+000 +2.1127e+000 +9.5811e-001
6129 0 +7.583200753e-002 +2.084558320e+002 +2.084558320e+002 -2.1119e+000 +2.0737e+000 +2.0993e+000
6162 0 +1.619533661e-002 +2.083961953e+002 +2.083961953e+002 -2.1100e+000 +2.0997e+000 +2.0967e+000
6237 0 +9.458408022e-003 +2.083894584e+002 +2.083894584e+002 -2.1224e+000 +2.1087e+000 +2.1058e+000
6255 0 +6.327960585e-003 +2.083863280e+002 +2.083863280e+002 -2.1237e+000 +2.1016e+000 +2.1068e+000
6257 0 +4.709771810e-003 +2.083847098e+002 +2.083847098e+002 -2.1206e+000 +2.1016e+000 +2.1074e+000
6261 0 +3.397149468e-003 +2.083833971e+002 +2.083833971e+002 -2.1164e+000 +2.1014e+000 +2.1083e+000
6280 0 +3.295375895e-003 +2.083832954e+002 +2.083832954e+002 -2.1176e+000 +2.1044e+000 +2.1058e+000
6293 0 +1.962217645e-003 +2.083819622e+002 +2.083819622e+002 -2.1143e+000 +2.0999e+000 +2.1053e+000
6300 0 +1.429645724e-003 +2.083814296e+002 +2.083814296e+002 -2.1132e+000 +2.1008e+000 +2.1063e+000
6301 0 +1.381242416e-003 +2.083813812e+002 +2.083813812e+002 -2.1132e+000 +2.1010e+000 +2.1063e+000
6307 0 +1.304012089e-003 +2.083813040e+002 +2.083813040e+002 -2.1129e+000 +2.1010e+000 +2.1062e+000
6324 0 +1.236781907e-003 +2.083812368e+002 +2.083812368e+002 -2.1130e+000 +2.1014e+000 +2.1059e+000
6346 0 +9.486049493e-004 +2.083809486e+002 +2.083809486e+002 -2.1111e+000 +2.1031e+000 +2.1040e+000
6352 0 +6.965510397e-004 +2.083806966e+002 +2.083806966e+002 -2.1099e+000 +2.1033e+000 +2.1040e+000
6358 0 +3.488893157e-004 +2.083803489e+002 +2.083803489e+002 -2.1053e+000 +2.1072e+000 +2.1040e+000
6364 0 +2.450662753e-004 +2.083802451e+002 +2.083802451e+002 -2.1050e+000 +2.1069e+000 +2.1045e+000
6368 0 +2.329290216e-004 +2.083802329e+002 +2.083802329e+002 -2.1043e+000 +2.1069e+000 +2.1048e+000
6376 0 +1.264552112e-004 +2.083801265e+002 +2.083801265e+002 -2.1054e+000 +2.1055e+000 +2.1040e+000
6383 0 +3.207558237e-005 +2.083800321e+002 +2.083800321e+002 -2.1051e+000 +2.1052e+000 +2.1044e+000
6388 0 +2.693339212e-005 +2.083800269e+002 +2.083800269e+002 -2.1052e+000 +2.1052e+000 +2.1045e+000
6395 0 +2.166993539e-005 +2.083800217e+002 +2.083800217e+002 -2.1042e+000 +2.1050e+000 +2.1045e+000
6428 0 +4.975640621e-006 +2.083800050e+002 +2.083800050e+002 -2.1047e+000 +2.1052e+000 +2.1047e+000
6444 0 +3.732231960e-006 +2.083800037e+002 +2.083800037e+002 -2.1053e+000 +2.1048e+000 +2.1049e+000
6451 0 +2.868168565e-006 +2.083800029e+002 +2.083800029e+002 -2.1051e+000 +2.1049e+000 +2.1049e+000
6455 0 +1.637850886e-006 +2.083800016e+002 +2.083800016e+002 -2.1049e+000 +2.1050e+000 +2.1048e+000
6460 0 +6.531139718e-007 +2.083800007e+002 +2.083800007e+002 -2.1049e+000 +2.1047e+000 +2.1048e+000
6466 0 +6.367551180e-007 +2.083800006e+002 +2.083800006e+002 -2.1050e+000 +2.1048e+000 +2.1049e+000
6480 0 +4.606973789e-007 +2.083800005e+002 +2.083800005e+002 -2.1050e+000 +2.1048e+000 +2.1048e+000
6516 0 +4.561728133e-007 +2.083800005e+002 +2.083800005e+002 -2.1050e+000 +2.1048e+000 +2.1048e+000
6536 0 +3.973503908e-007 +2.083800004e+002 +2.083800004e+002 -2.1050e+000 +2.1048e+000 +2.1049e+000
6548 0 +2.366070078e-007 +2.083800002e+002 +2.083800002e+002 -2.1050e+000 +2.1048e+000 +2.1048e+000
6552 0 +2.055893447e-007 +2.083800002e+002 +2.083800002e+002 -2.1049e+000 +2.1048e+000 +2.1048e+000
6568 0 +2.014490121e-007 +2.083800002e+002 +2.083800002e+002 -2.1049e+000 +2.1048e+000 +2.1048e+000
6570 0 +1.100146676e-007 +2.083800001e+002 +2.083800001e+002 -2.1048e+000 +2.1049e+000 +2.1049e+000
6572 0 +9.271536783e-008 +2.083800001e+002 +2.083800001e+002 -2.1048e+000 +2.1048e+000 +2.1049e+000
6582 0 +7.825622106e-008 +2.083800001e+002 +2.083800001e+002 -2.1048e+000 +2.1048e+000 +2.1048e+000
6584 0 +2.733412430e-008 +2.083800000e+002 +2.083800000e+002 -2.1049e+000 +2.1049e+000 +2.1048e+000
6591 0 +1.663971716e-008 +2.083800000e+002 +2.083800000e+002 -2.1048e+000 +2.1049e+000 +2.1048e+000
6603 0 +9.275680668e-009 +2.083800000e+002 +2.083800000e+002 -2.1048e+000 +2.1049e+000 +2.1048e+000
% f evaluations | g evaluations | best noise-free fitness - Fopt (-1.449600000000e+002) + sum g_i+ | measured fitness | best measured fitness or single-digit g-values | x1 | x2...
1 0 +7.754833455e+002 +6.305233455e+002 +6.305233455e+002 -1.5120e+000 -2.7272e+000 -7.8658e-002
8 0 +4.218917587e+000 -1.407410824e+002 -1.407410824e+002 +1.1817e+000 -1.2921e+000 -1.4736e+000
14 0 +4.138157312e+000 -1.408218427e+002 -1.408218427e+002 +7.3878e-004 -1.4927e+000 -1.4428e+000
20 0 +2.637526822e+000 -1.423224732e+002 -1.423224732e+002 +1.4151e+000 -2.4075e+000 -1.4941e+000
22 0 +2.433924737e+000 -1.425260753e+002 -1.425260753e+002 +1.4564e+000 -2.3611e+000 -1.4956e+000
92 0 +2.330025392e+000 -1.426299746e+002 -1.426299746e+002 -3.1783e-001 -2.5753e+000 -1.6937e+000
93 0 +2.079222194e+000 -1.428807778e+002 -1.428807778e+002 -2.4115e-001 -2.5430e+000 -1.6420e+000
112 0 +1.889174678e+000 -1.430708253e+002 -1.430708253e+002 +0.0000e+000 -2.6791e+000 -2.0090e+000
129 0 +1.838902813e+000 -1.431210972e+002 -1.431210972e+002 +5.0335e-001 -2.6425e+000 -1.9642e+000
146 0 +1.424486738e+000 -1.435355133e+002 -1.435355133e+002 +1.8709e-001 -2.6478e+000 -1.9715e+000
177 0 +1.378807715e+000 -1.435811923e+002 -1.435811923e+002 +1.1068e-001 -2.6401e+000 -1.9860e+000
205 0 +1.089027417e+000 -1.438709726e+002 -1.438709726e+002 +6.9782e-001 -2.8157e+000 -1.9217e+000
238 0 +1.021723834e+000 -1.439382762e+002 -1.439382762e+002 +5.8833e-001 -2.7936e+000 -1.9339e+000
243 0 +9.976249202e-001 -1.439623751e+002 -1.439623751e+002 +6.1244e-001 -2.7952e+000 -1.9354e+000
273 0 +7.712168056e-001 -1.441887832e+002 -1.441887832e+002 +1.3774e+000 -3.0079e+000 -1.8652e+000
279 0 +5.202363969e-001 -1.444397636e+002 -1.444397636e+002 +1.5160e+000 -3.0414e+000 -1.8497e+000
308 0 +5.065005594e-001 -1.444534994e+002 -1.444534994e+002 +1.5464e+000 -3.0434e+000 -1.8517e+000
316 0 +4.590872178e-001 -1.445009128e+002 -1.445009128e+002 +1.5399e+000 -3.0362e+000 -1.8586e+000
330 0 +4.122423703e-001 -1.445477576e+002 -1.445477576e+002 +1.5170e+000 -3.0280e+000 -1.8757e+000
372 0 +3.999784537e-001 -1.445600215e+002 -1.445600215e+002 +1.5149e+000 -3.0195e+000 -1.8765e+000
383 0 +3.976982099e-001 -1.445623018e+002 -1.445623018e+002 +1.5173e+000 -3.0149e+000 -1.8744e+000
7159 0 +2.913793766e-001 -1.446686206e+002 -1.446686206e+002 -2.1066e+000 -2.0681e+000 -2.0770e+000
7160 0 +1.493791349e-001 -1.448106209e+002 -1.448106209e+002 -2.1044e+000 -2.0709e+000 -2.0902e+000
7162 0 +8.349258665e-002 -1.448765074e+002 -1.448765074e+002 -2.1123e+000 -2.0928e+000 -2.1293e+000
7170 0 +5.853007644e-002 -1.449014699e+002 -1.449014699e+002 -2.0983e+000 -2.0951e+000 -2.1247e+000
7179 0 +5.737272346e-002 -1.449026273e+002 -1.449026273e+002 -2.0636e+000 -2.0963e+000 -2.1147e+000
7185 0 +3.208260195e-002 -1.449279174e+002 -1.449279174e+002 -2.0614e+000 -2.1160e+000 -2.1038e+000
7208 0 +3.136975296e-002 -1.449286302e+002 -1.449286302e+002 -2.0616e+000 -2.1160e+000 -2.1027e+000
7212 0 +2.807352215e-002 -1.449319265e+002 -1.449319265e+002 -2.0766e+000 -2.1159e+000 -2.1112e+000
7221 0 +2.670040154e-002 -1.449332996e+002 -1.449332996e+002 -2.0747e+000 -2.1159e+000 -2.1101e+000
7225 0 +9.179805200e-003 -1.449508202e+002 -1.449508202e+002 -2.0943e+000 -2.1192e+000 -2.1018e+000
7271 0 +6.631066116e-003 -1.449533689e+002 -1.449533689e+002 -2.0938e+000 -2.1085e+000 -2.0987e+000
7276 0 +1.259539036e-003 -1.449587405e+002 -1.449587405e+002 -2.0966e+000 -2.1056e+000 -2.1043e+000
7299 0 +1.093508669e-003 -1.449589065e+002 -1.449589065e+002 -2.0973e+000 -2.1063e+000 -2.1053e+000
7310 0 +6.247794900e-004 -1.449593752e+002 -1.449593752e+002 -2.1104e+000 -2.1022e+000 -2.1059e+000
7312 0 +6.023264372e-004 -1.449593977e+002 -1.449593977e+002 -2.1102e+000 -2.1024e+000 -2.1060e+000
7317 0 +3.063582925e-004 -1.449596936e+002 -1.449596936e+002 -2.1082e+000 -2.1029e+000 -2.1059e+000
7324 0 +2.226729320e-004 -1.449597773e+002 -1.449597773e+002 -2.1043e+000 -2.1050e+000 -2.1059e+000
7327 0 +1.731868777e-004 -1.449598268e+002 -1.449598268e+002 -2.1050e+000 -2.1056e+000 -2.1056e+000
7338 0 +3.201877334e-005 -1.449599680e+002 -1.449599680e+002 -2.1052e+000 -2.1044e+000 -2.1053e+000
7393 0 +2.762058878e-005 -1.449599724e+002 -1.449599724e+002 -2.1043e+000 -2.1047e+000 -2.1052e+000
7413 0 +2.683814799e-005 -1.449599732e+002 -1.449599732e+002 -2.1043e+000 -2.1045e+000 -2.1052e+000
7436 0 +1.988762804e-005 -1.449599801e+002 -1.449599801e+002 -2.1054e+000 -2.1045e+000 -2.1052e+000
7439 0 +1.726084528e-005 -1.449599827e+002 -1.449599827e+002 -2.1053e+000 -2.1046e+000 -2.1052e+000
7441 0 +1.626455762e-005 -1.449599837e+002 -1.449599837e+002 -2.1054e+000 -2.1045e+000 -2.1052e+000
7442 0 +6.829408164e-006 -1.449599932e+002 -1.449599932e+002 -2.1054e+000 -2.1048e+000 -2.1050e+000
7444 0 +6.116831571e-006 -1.449599939e+002 -1.449599939e+002 -2.1054e+000 -2.1046e+000 -2.1049e+000
7446 0 +4.194308758e-007 -1.449599996e+002 -1.449599996e+002 -2.1049e+000 -2.1048e+000 -2.1049e+000
7453 0 +2.991267820e-007 -1.449599997e+002 -1.449599997e+002 -2.1049e+000 -2.1048e+000 -2.1049e+000
7530 0 +2.472675646e-007 -1.449599998e+002 -1.449599998e+002 -2.1048e+000 -2.1049e+000 -2.1048e+000
7540 0 +1.027758856e-007 -1.449599999e+002 -1.449599999e+002 -2.1049e+000 -2.1048e+000 -2.1048e+000
7541 0 +3.684669991e-008 -1.449600000e+002 -1.449600000e+002 -2.1049e+000 -2.1048e+000 -2.1049e+000
7591 0 +3.542606919e-008 -1.449600000e+002 -1.449600000e+002 -2.1049e+000 -2.1048e+000 -2.1049e+000
7621 0 +2.041613811e-008 -1.449600000e+002 -1.449600000e+002 -2.1048e+000 -2.1048e+000 -2.1049e+000
7636 0 +1.175965281e-008 -1.449600000e+002 -1.449600000e+002 -2.1048e+000 -2.1048e+000 -2.1049e+000
7646 0 +7.902315247e-009 -1.449600000e+002 -1.449600000e+002 -2.1048e+000 -2.1048e+000 -2.1048e+000
% f evaluations | g evaluations | best noise-free fitness - Fopt (-6.300000000000e+000) + sum g_i+ | measured fitness | best measured fitness or single-digit g-values | x1 | x2...
1 0 +2.780084091e+003 +2.773784091e+003 +2.773784091e+003 +4.0809e+000 +2.1644e+000 -2.7928e+000
10 0 +4.328193984e+000 -1.971806016e+000 -1.971806016e+000 +6.8098e-001 -2.6016e+000 -1.5455e+000
14 0 +4.255579010e+000 -2.044420990e+000 -2.044420990e+000 -8.0615e-001 -1.0186e+000 -2.0007e+000
16 0 +3.768128022e+000 -2.531871978e+000 -2.531871978e+000 -5.8381e-001 -1.0576e+000 -2.0373e+000
18 0 +3.363631042e+000 -2.936368958e+000 -2.936368958e+000 +2.9370e-002 -1.0671e+000 -2.0595e+000
20 0 +2.201434271e+000 -4.098565729e+000 -4.098565729e+000 +2.0287e+000 -1.1198e+000 -2.0423e+000
56 0 +2.135908086e+000 -4.164091914e+000 -4.164091914e+000 +2.1161e+000 -1.1241e+000 -2.0416e+000
57 0 +1.788468208e+000 -4.511531792e+000 -4.511531792e+000 +2.1808e+000 -1.5439e+000 -1.8985e+000
128 0 +1.630959418e+000 -4.669040582e+000 -4.669040582e+000 +2.1626e+000 -1.5272e+000 -1.9130e+000
131 0 +1.618974310e+000 -4.681025690e+000 -4.681025690e+000 +2.1619e+000 -1.5258e+000 -1.9121e+000
134 0 +1.507298196e+000 -4.792701804e+000 -4.792701804e+000 +2.1456e+000 -1.4884e+000 -1.9291e+000
194 0 +1.465715614e+000 -4.834284386e+000 -4.834284386e+000 +2.0345e+000 -1.0799e+000 -2.3356e+000
209 0 +1.067889294e+000 -5.232110706e+000 -5.232110706e+000 +2.1987e+000 -1.4334e+000 -2.2452e+000
253 0 +8.083964267e-001 -5.491603573e+000 -5.491603573e+000 +2.1396e+000 -1.4716e+000 -2.2452e+000
272 0 +7.900700608e-001 -5.509929939e+000 -5.509929939e+000 +2.1072e+000 -1.4589e+000 -2.2621e+000
293 0 +7.265974885e-001 -5.573402512e+000 -5.573402512e+000 +2.1079e+000 -1.4882e+000 -2.2564e+000
348 0 +2.435103607e-001 -6.056489639e+000 -6.056489639e+000 +2.1397e+000 -2.1320e+000 -2.1286e+000
349 0 +1.445858943e-001 -6.155414106e+000 -6.155414106e+000 +2.1607e+000 -2.1123e+000 -2.1231e+000
350 0 +6.458662839e-002 -6.235413372e+000 -6.235413372e+000 +2.1153e+000 -2.1010e+000 -2.1251e+000
352 0 +4.089245353e-002 -6.259107546e+000 -6.259107546e+000 +2.0606e+000 -2.1272e+000 -2.1021e+000
369 0 +2.977502795e-002 -6.270224972e+000 -6.270224972e+000 +2.0647e+000 -2.1222e+000 -2.1009e+000
442 0 +2.773958921e-002 -6.272260411e+000 -6.272260411e+000 +2.0644e+000 -2.1168e+000 -2.1030e+000
443 0 +2.684619191e-002 -6.273153808e+000 -6.273153808e+000 +2.0663e+000 -2.1203e+000 -2.0999e+000
457 0 +2.491408508e-002 -6.275085915e+000 -6.275085915e+000 +2.0685e+000 -2.1194e+000 -2.1040e+000
458 0 +9.173188385e-003 -6.290826812e+000 -6.290826812e+000 +2.1133e+000 -2.1144e+000 -2.1003e+000
468 0 +8.591849435e-003 -6.291408151e+000 -6.291408151e+000 +2.1149e+000 -2.1106e+000 -2.0990e+000
469 0 +7.076736489e-003 -6.292923264e+000 -6.292923264e+000 +2.1153e+000 -2.1010e+000 -2.1003e+000
486 0 +3.146164636e-003 -6.296853835e+000 -6.296853835e+000 +2.1143e+000 -2.0989e+000 -2.1040e+000
500 0 +2.191530125e-003 -6.297808470e+000 -6.297808470e+000 +2.1096e+000 -2.0991e+000 -2.1042e+000
514 0 +1.658013676e-003 -6.298341986e+000 -6.298341986e+000 +2.1090e+000 -2.0992e+000 -2.1050e+000
517 0 +4.522533866e-004 -6.299547747e+000 -6.299547747e+000 +2.1040e+000 -2.1055e+000 -2.1031e+000
537 0 +2.127556448e-004 -6.299787244e+000 -6.299787244e+000 +2.1023e+000 -2.1051e+000 -2.1040e+000
550 0 +1.954237723e-004 -6.299804576e+000 -6.299804576e+000 +2.1038e+000 -2.1043e+000 -2.1040e+000
587 0 +7.189145716e-005 -6.299928109e+000 -6.299928109e+000 +2.1036e+000 -2.1061e+000 -2.1046e+000
601 0 +3.263941730e-005 -6.299967361e+000 -6.299967361e+000 +2.1042e+000 -2.1056e+000 -2.1049e+000
631 0 +2.514769492e-005 -6.299974852e+000 -6.299974852e+000 +2.1038e+000 -2.1054e+000 -2.1046e+000
640 0 +1.307702245e-005 -6.299986923e+000 -6.299986923e+000 +2.1046e+000 -2.1045e+000 -2.1048e+000
654 0 +4.167661733e-006 -6.299995832e+000 -6.299995832e+000 +2.1044e+000 -2.1048e+000 -2.1049e+000
675 0 +2.620385775e-007 -6.299999738e+000 -6.299999738e+000 +2.1049e+000 -2.1049e+000 -2.1048e+000
755 0 +2.291648835e-007 -6.299999771e+000 -6.299999771e+000 +2.1049e+000 -2.1048e+000 -2.1048e+000
771 0 +1.080366507e-007 -6.299999892e+000 -6.299999892e+000 +2.1049e+000 -2.1049e+000 -2.1048e+000
808 0 +6.207336156e-008 -6.299999938e+000 -6.299999938e+000 +2.1048e+000 -2.1049e+000 -2.1048e+000
812 0 +4.828898348e-008 -6.299999952e+000 -6.299999952e+000 +2.1048e+000 -2.1048e+000 -2.1048e+000
814 0 +8.448798106e-009 -6.299999992e+000 -6.299999992e+000 +2.1049e+000 -2.1049e+000 -2.1048e+000
% f evaluations | g evaluations | best noise-free fitness - Fopt (-1.367600000000e+002) + sum g_i+ | measured fitness | best measured fitness or single-digit g-values | x1 | x2...
1 0 +3.294391420e+002 +1.926791420e+002 +1.926791420e+002 +3.4029e+000 -3.9741e-001 -2.3114e+000
4 0 +3.704539689e+000 -1.330554603e+002 -1.330554603e+002 +2.3149e+000 -5.5580e-001 -2.3579e+000
26 0 +3.514893834e+000 -1.332451062e+002 -1.332451062e+002 -1.4671e-001 -2.0532e+000 -1.4862e+000
54 0 +3.048127517e+000 -1.337118725e+002 -1.337118725e+002 -9.6122e-002 -1.9947e+000 -1.8178e+000
88 0 +1.194516829e+000 -1.355654832e+002 -1.355654832e+002 +1.9921e+000 -1.4739e+000 -2.2330e+000
129 0 +7.727008429e-001 -1.359872992e+002 -1.359872992e+002 +2.0761e+000 -1.4819e+000 -2.2512e+000
185 0 +7.538932430e-001 -1.360061068e+002 -1.360061068e+002 +2.0693e+000 -1.4916e+000 -2.2550e+000
189 0 +7.396897526e-001 -1.360203102e+002 -1.360203102e+002 +2.0797e+000 -1.4977e+000 -2.2512e+000
262 0 +7.242519038e-001 -1.360357481e+002 -1.360357481e+002 +2.1059e+000 -1.4968e+000 -2.2573e+000
993 0 +3.397968086e-001 -1.364202032e+002 -1.364202032e+002 +2.0191e+000 -2.1331e+000 -2.1339e+000
1017 0 +1.286715485e-001 -1.366313285e+002 -1.366313285e+002 +2.0399e+000 -2.1322e+000 -2.1156e+000
1023 0 +3.051760931e-002 -1.367294824e+002 -1.367294824e+002 +2.0680e+000 -2.1236e+000 -2.0960e+000
1044 0 +1.331338939e-003 -1.367586687e+002 -1.367586687e+002 +2.0994e+000 -2.1063e+000 -2.1067e+000
1052 0 +1.099648943e-003 -1.367589004e+002 -1.367589004e+002 +2.1006e+000 -2.1054e+000 -2.1069e+000
1088 0 +9.413572157e-004 -1.367590586e+002 -1.367590586e+002 +2.1020e+000 -2.1043e+000 -2.1070e+000
1102 0 +9.224026818e-004 -1.367590776e+002 -1.367590776e+002 +2.1037e+000 -2.1029e+000 -2.1073e+000
1107 0 +4.909262312e-004 -1.367595091e+002 -1.367595091e+002 +2.1034e+000 -2.1060e+000 -2.1061e+000
1142 0 +3.229945482e-004 -1.367596770e+002 -1.367596770e+002 +2.1044e+000 -2.1042e+000 -2.1063e+000
1158 0 +1.511541789e-004 -1.367598488e+002 -1.367598488e+002 +2.1029e+000 -2.1041e+000 -2.1047e+000
1186 0 +1.352398946e-004 -1.367598648e+002 -1.367598648e+002 +2.1029e+000 -2.1042e+000 -2.1049e+000
1187 0 +2.675333471e-005 -1.367599732e+002 -1.367599732e+002 +2.1044e+000 -2.1044e+000 -2.1052e+000
1193 0 +2.561953139e-005 -1.367599744e+002 -1.367599744e+002 +2.1046e+000 -2.1042e+000 -2.1051e+000
1196 0 +1.753261418e-005 -1.367599825e+002 -1.367599825e+002 +2.1056e+000 -2.1043e+000 -2.1049e+000
1212 0 +2.926810595e-006 -1.367599971e+002 -1.367599971e+002 +2.1052e+000 -2.1048e+000 -2.1048e+000
1233 0 +2.202206986e-007 -1.367599998e+002 -1.367599998e+002 +2.1049e+000 -2.1049e+000 -2.1048e+000
1304 0 +7.660727874e-008 -1.367599999e+002 -1.367599999e+002 +2.1048e+000 -2.1049e+000 -2.1049e+000
1307 0 +7.179684758e-008 -1.367599999e+002 -1.367599999e+002 +2.1048e+000 -2.1048e+000 -2.1048e+000
1344 0 +6.622374826e-008 -1.367599999e+002 -1.367599999e+002 +2.1048e+000 -2.1048e+000 -2.1048e+000
1348 0 +6.228890470e-008 -1.367599999e+002 -1.367599999e+002 +2.1048e+000 -2.1048e+000 -2.1048e+000
1362 0 +2.748564043e-008 -1.367600000e+002 -1.367600000e+002 +2.1048e+000 -2.1048e+000 -2.1048e+000
1378 0 +2.266165211e-008 -1.367600000e+002 -1.367600000e+002 +2.1048e+000 -2.1048e+000 -2.1048e+000
1389 0 +2.175394798e-008 -1.367600000e+002 -1.367600000e+002 +2.1048e+000 -2.1048e+000 -2.1048e+000
1396 0 +2.927549758e-009 -1.367600000e+002 -1.367600000e+002 +2.1048e+000 -2.1048e+000 -2.1048e+000
% f evaluations | g evaluations | best noise-free fitness - Fopt (3.667500000000e+002) + sum g_i+ | measured fitness | best measured fitness or single-digit g-values | x1 | x2...
1 0 +2.357591849e+004 +2.394266849e+004 +2.394266849e+004 +4.7749e+000 -1.3691e+000 -1.4858e+000
2 0 +1.159041968e+004 +1.195716968e+004 +1.195716968e+004 -6.2674e-001 +6.9192e-001 +4.5999e+000
6 0 +3.342147225e+003 +3.708897225e+003 +3.708897225e+003 +4.1053e+000 -4.7887e+000 +2.1199e+000
7 0 +2.829575967e+003 +3.196325967e+003 +3.196325967e+003 -4.7044e+000 -3.7193e-001 +3.1320e+000
8 0 +2.813100539e+003 +3.179850539e+003 +3.179850539e+003 +5.0000e+000 -7.9926e-001 +2.1543e+000
14 0 +4.234816125e+002 +7.902316125e+002 +7.902316125e+002 +1.1820e+000 -2.7576e+000 +2.3912e+000
16 0 +2.318211273e+002 +5.985711273e+002 +5.985711273e+002 +2.6735e+000 -2.6564e+000 +2.3256e+000
22 0 +1.029107854e+002 +4.696607854e+002 +4.696607854e+002 -4.2673e-001 -2.8811e+000 +2.1704e+000
28 0 +6.778357844e+001 +4.345335784e+002 +4.345335784e+002 -8.1909e-001 -2.4937e+000 +2.2583e+000
31 0 +4.523949753e+000 +3.712739498e+002 +3.712739498e+002 -7.8193e-001 -1.3691e+000 +1.8428e+000
38 0 +4.334037744e+000 +3.710840377e+002 +3.710840377e+002 -4.5498e-001 -1.7867e+000 +1.9195e+000
40 0 +2.707091533e+000 +3.694570915e+002 +3.694570915e+002 -8.3876e-001 -1.6971e+000 +2.2450e+000
86 0 +2.568516360e+000 +3.693185164e+002 +3.693185164e+002 -6.0628e-001 -2.5256e+000 +2.0642e+000
99 0 +1.408951934e+000 +3.681589519e+002 +3.681589519e+002 -8.2727e-001 -2.4627e+000 +2.0392e+000
155 0 +1.378498045e+000 +3.681284980e+002 +3.681284980e+002 -8.6454e-001 -2.4762e+000 +2.0368e+000
170 0 +1.284395878e+000 +3.680343959e+002 +3.680343959e+002 -8.2218e-001 -2.4088e+000 +2.0203e+000
183 0 +1.217004719e+000 +3.679670047e+002 +3.679670047e+002 -8.6114e-001 -2.4223e+000 +1.9983e+000
191 0 +9.952805904e-001 +3.677452806e+002 +3.677452806e+002 -9.3694e-001 -2.4370e+000 +2.0431e+000
198 0 +9.480081253e-001 +3.676980081e+002 +3.676980081e+002 -9.7304e-001 -2.4473e+000 +2.0236e+000
219 0 +9.216951372e-001 +3.676716951e+002 +3.676716951e+002 -9.9187e-001 -2.3907e+000 +2.0665e+000
222 0 +8.509310241e-001 +3.676009310e+002 +3.676009310e+002 -9.7979e-001 -2.4255e+000 +2.0140e+000
237 0 +7.920271887e-001 +3.675420272e+002 +3.675420272e+002 -1.0027e+000 -2.3612e+000 +2.0245e+000
239 0 +7.558689190e-001 +3.675058689e+002 +3.675058689e+002 -1.0340e+000 -2.3718e+000 +2.0251e+000
263 0 +7.288103259e-001 +3.674788103e+002 +3.674788103e+002 -1.0298e+000 -2.3810e+000 +2.0347e+000
386 0 +7.239543793e-001 +3.674739544e+002 +3.674739544e+002 -1.0183e+000 -2.3780e+000 +2.0362e+000
5496 0 +5.727477305e-001 +3.673227477e+002 +3.673227477e+002 -2.1543e+000 -9.3866e-002 +2.5870e+000
5501 0 +5.332553784e-001 +3.672832554e+002 +3.672832554e+002 -2.1524e+000 -8.0634e-002 +2.5896e+000
5569 0 +5.100661343e-001 +3.672600661e+002 +3.672600661e+002 -2.1493e+000 -5.4508e-002 +2.5954e+000
5571 0 +4.570538963e-001 +3.672070539e+002 +3.672070539e+002 -2.0913e+000 -5.0684e-002 +2.6049e+000
5602 0 +4.276016426e-001 +3.671776016e+002 +3.671776016e+002 -2.0922e+000 -6.6360e-002 +2.6017e+000
5633 0 +4.164898898e-001 +3.671664899e+002 +3.671664899e+002 -2.0937e+000 -7.5461e-002 +2.6014e+000
5702 0 +4.001619669e-001 +3.671501620e+002 +3.671501620e+002 -2.0992e+000 -8.0646e-002 +2.6086e+000
5707 0 +3.979719967e-001 +3.671479720e+002 +3.671479720e+002 -2.0983e+000 -7.1894e-002 +2.6093e+000
12590 0 +3.039253923e-001 +3.670539254e+002 +3.670539254e+002 -2.1842e+000 -2.0290e+000 +2.1090e+000
12592 0 +2.421465918e-001 +3.669921466e+002 +3.669921466e+002 -2.0468e+000 -2.0617e+000 +2.1063e+000
12602 0 +2.061936845e-001 +3.669561937e+002 +3.669561937e+002 -2.0503e+000 -2.0645e+000 +2.1093e+000
12610 0 +1.755947973e-001 +3.669255948e+002 +3.669255948e+002 -2.0455e+000 -2.0770e+000 +2.1232e+000
12614 0 +1.643302527e-001 +3.669143303e+002 +3.669143303e+002 -2.0332e+000 -2.0962e+000 +2.1228e+000
12622 0 +4.458395655e-002 +3.667945840e+002 +3.667945840e+002 -2.1300e+000 -2.0906e+000 +2.1219e+000
12637 0 +3.010855869e-002 +3.667801086e+002 +3.667801086e+002 -2.1239e+000 -2.0915e+000 +2.1191e+000
12645 0 +1.578686334e-002 +3.667657869e+002 +3.667657869e+002 -2.1017e+000 -2.0939e+000 +2.1146e+000
12649 0 +1.237525951e-002 +3.667623753e+002 +3.667623753e+002 -2.1152e+000 -2.0918e+000 +2.1134e+000
12657 0 +9.647150030e-003 +3.667596472e+002 +3.667596472e+002 -2.1119e+000 -2.0922e+000 +2.1119e+000
12668 0 +7.912451593e-003 +3.667579125e+002 +3.667579125e+002 -2.1085e+000 -2.0927e+000 +2.1103e+000
12679 0 +2.167183241e-003 +3.667521672e+002 +3.667521672e+002 -2.1121e+000 -2.1006e+000 +2.1083e+000
12685 0 +7.116835294e-004 +3.667507117e+002 +3.667507117e+002 -2.1046e+000 -2.1014e+000 +2.1064e+000
12732 0 +3.311759322e-004 +3.667503312e+002 +3.667503312e+002 -2.1039e+000 -2.1072e+000 +2.1049e+000
12754 0 +3.214606298e-004 +3.667503215e+002 +3.667503215e+002 -2.1036e+000 -2.1071e+000 +2.1050e+000
12783 0 +9.463177798e-005 +3.667500946e+002 +3.667500946e+002 -2.1031e+000 -2.1058e+000 +2.1042e+000
12791 0 +2.882518288e-005 +3.667500288e+002 +3.667500288e+002 -2.1047e+000 -2.1054e+000 +2.1044e+000
12795 0 +2.719483143e-005 +3.667500272e+002 +3.667500272e+002 -2.1047e+000 -2.1054e+000 +2.1044e+000
12832 0 +1.613246781e-005 +3.667500161e+002 +3.667500161e+002 -2.1055e+000 -2.1043e+000 +2.1050e+000
12844 0 +1.008986521e-005 +3.667500101e+002 +3.667500101e+002 -2.1051e+000 -2.1047e+000 +2.1046e+000
12888 0 +4.236808934e-006 +3.667500042e+002 +3.667500042e+002 -2.1046e+000 -2.1049e+000 +2.1047e+000
12914 0 +4.868264796e-007 +3.667500005e+002 +3.667500005e+002 -2.1047e+000 -2.1049e+000 +2.1048e+000
12943 0 +2.953680678e-007 +3.667500003e+002 +3.667500003e+002 -2.1048e+000 -2.1049e+000 +2.1048e+000
12958 0 +2.572954259e-007 +3.667500003e+002 +3.667500003e+002 -2.1048e+000 -2.1048e+000 +2.1048e+000
12960 0 +2.410623665e-007 +3.667500002e+002 +3.667500002e+002 -2.1048e+000 -2.1048e+000 +2.1048e+000
12964 0 +1.954780373e-007 +3.667500002e+002 +3.667500002e+002 -2.1048e+000 -2.1048e+000 +2.1048e+000
12975 0 +1.586555527e-007 +3.667500002e+002 +3.667500002e+002 -2.1048e+000 -2.1049e+000 +2.1048e+000
13000 0 +1.380682306e-007 +3.667500001e+002 +3.667500001e+002 -2.1048e+000 -2.1049e+000 +2.1048e+000
13003 0 +1.246675652e-007 +3.667500001e+002 +3.667500001e+002 -2.1048e+000 -2.1049e+000 +2.1048e+000
13004 0 +7.924802503e-008 +3.667500001e+002 +3.667500001e+002 -2.1048e+000 -2.1049e+000 +2.1048e+000
13044 0 +5.512964663e-008 +3.667500001e+002 +3.667500001e+002 -2.1048e+000 -2.1049e+000 +2.1048e+000
13070 0 +2.456306447e-008 +3.667500000e+002 +3.667500000e+002 -2.1048e+000 -2.1049e+000 +2.1048e+000
13082 0 +1.645184966e-008 +3.667500000e+002 +3.667500000e+002 -2.1048e+000 -2.1049e+000 +2.1048e+000
13086 0 +7.373557764e-009 +3.667500000e+002 +3.667500000e+002 -2.1049e+000 -2.1049e+000 +2.1048e+000
% f evaluations | g evaluations | best noise-free fitness - Fopt (-2.486900000000e+002) + sum g_i+ | measured fitness | best measured fitness or single-digit g-values | x1 | x2...
1 0 +1.266973633e+005 +1.264486733e+005 +1.264486733e+005 +2.1177e+000 +2.7575e+000 -3.6171e+000
2 0 +3.290383237e+000 -2.453996168e+002 -2.453996168e+002 +2.0911e+000 -1.8748e+000 +1.5067e+000
43 0 +3.023690472e+000 -2.456663095e+002 -2.456663095e+002 +1.9731e+000 +5.1836e-002 +2.2375e+000
92 0 +2.335898629e+000 -2.463541014e+002 -2.463541014e+002 +2.1671e+000 -1.6233e-001 +2.1791e+000
95 0 +1.774834756e+000 -2.469151652e+002 -2.469151652e+002 +2.2369e+000 -1.1542e-001 +2.2385e+000
113 0 +1.723871480e+000 -2.469661285e+002 -2.469661285e+002 +2.2356e+000 -1.1755e-001 +2.2506e+000
132 0 +1.625332069e+000 -2.470646679e+002 -2.470646679e+002 +2.2589e+000 -7.9716e-002 +2.2723e+000
146 0 +1.615012095e+000 -2.470749879e+002 -2.470749879e+002 +2.2511e+000 -8.6154e-002 +2.2726e+000
160 0 +1.423302796e+000 -2.472666972e+002 -2.472666972e+002 +2.1454e+000 -4.3665e-002 +2.3170e+000
171 0 +1.334588908e+000 -2.473554111e+002 -2.473554111e+002 +2.1318e+000 -7.7745e-002 +2.3025e+000
172 0 +1.243244201e+000 -2.474467558e+002 -2.474467558e+002 +2.1524e+000 -6.2641e-002 +2.2946e+000
176 0 +1.187926904e+000 -2.475020731e+002 -2.475020731e+002 +2.1465e+000 -8.6154e-002 +2.2713e+000
185 0 +1.174083491e+000 -2.475159165e+002 -2.475159165e+002 +2.0473e+000 -8.7584e-002 +2.2658e+000
197 0 +1.130579500e+000 -2.475594205e+002 -2.475594205e+002 +2.0836e+000 -7.4371e-002 +2.2641e+000
217 0 +1.121655771e+000 -2.475683442e+002 -2.475683442e+002 +2.0979e+000 -7.7779e-002 +2.2702e+000
1817 0 +5.129565878e-001 -2.481770434e+002 -2.481770434e+002 +2.1768e+000 -7.1586e-002 +2.6046e+000
1918 0 +4.843341081e-001 -2.482056659e+002 -2.482056659e+002 +2.0496e+000 -5.9521e-002 +2.6103e+000
1923 0 +4.715197452e-001 -2.482184803e+002 -2.482184803e+002 +2.0657e+000 -5.1738e-002 +2.6115e+000
1931 0 +4.670128359e-001 -2.482229872e+002 -2.482229872e+002 +2.0673e+000 -5.2054e-002 +2.6116e+000
1941 0 +4.438384238e-001 -2.482461616e+002 -2.482461616e+002 +2.0516e+000 -8.8557e-002 +2.6070e+000
1971 0 +4.185136731e-001 -2.482714863e+002 -2.482714863e+002 +2.1138e+000 -8.8621e-002 +2.6070e+000
1980 0 +4.150194538e-001 -2.482749805e+002 -2.482749805e+002 +2.0850e+000 -8.5927e-002 +2.6027e+000
2005 0 +4.026405826e-001 -2.482873594e+002 -2.482873594e+002 +2.1158e+000 -6.6681e-002 +2.6202e+000
2044 0 +3.979125673e-001 -2.482920874e+002 -2.482920874e+002 +2.0950e+000 -7.8281e-002 +2.6119e+000
5766 0 +8.512924625e-002 -2.486048708e+002 -2.486048708e+002 +2.0542e+000 -2.1156e+000 +2.0863e+000
5813 0 +7.857688417e-002 -2.486114231e+002 -2.486114231e+002 +2.0514e+000 -2.1029e+000 +2.0948e+000
5838 0 +1.502456380e-002 -2.486749754e+002 -2.486749754e+002 +2.1166e+000 -2.0900e+000 +2.1141e+000
5884 0 +1.218630640e-003 -2.486887814e+002 -2.486887814e+002 +2.1080e+000 -2.1066e+000 +2.1065e+000
5963 0 +1.071906832e-003 -2.486889281e+002 -2.486889281e+002 +2.1094e+000 -2.1056e+000 +2.1064e+000
5976 0 +6.550385844e-004 -2.486893450e+002 -2.486893450e+002 +2.1106e+000 -2.1045e+000 +2.1045e+000
6001 0 +4.960010206e-004 -2.486895040e+002 -2.486895040e+002 +2.1054e+000 -2.1029e+000 +2.1039e+000
6014 0 +2.490260644e-004 -2.486897510e+002 -2.486897510e+002 +2.1052e+000 -2.1036e+000 +2.1062e+000
6031 0 +1.025117012e-004 -2.486898975e+002 -2.486898975e+002 +2.1065e+000 -2.1054e+000 +2.1045e+000
6039 0 +2.997278995e-005 -2.486899700e+002 -2.486899700e+002 +2.1040e+000 -2.1056e+000 +2.1048e+000
6056 0 +1.095375464e-005 -2.486899890e+002 -2.486899890e+002 +2.1048e+000 -2.1045e+000 +2.1051e+000
6114 0 +5.889695387e-006 -2.486899941e+002 -2.486899941e+002 +2.1047e+000 -2.1046e+000 +2.1050e+000
6134 0 +5.629573195e-006 -2.486899944e+002 -2.486899944e+002 +2.1043e+000 -2.1048e+000 +2.1049e+000
6157 0 +4.369533315e-006 -2.486899956e+002 -2.486899956e+002 +2.1044e+000 -2.1049e+000 +2.1048e+000
6163 0 +1.325457276e-006 -2.486899987e+002 -2.486899987e+002 +2.1046e+000 -2.1049e+000 +2.1048e+000
6180 0 +1.259245721e-007 -2.486899999e+002 -2.486899999e+002 +2.1048e+000 -2.1049e+000 +2.1048e+000
6207 0 +7.873828167e-008 -2.486899999e+002 -2.486899999e+002 +2.1048e+000 -2.1049e+000 +2.1048e+000
6209 0 +5.695122240e-008 -2.486899999e+002 -2.486899999e+002 +2.1048e+000 -2.1049e+000 +2.1048e+000
6246 0 +3.895317491e-008 -2.486900000e+002 -2.486900000e+002 +2.1048e+000 -2.1048e+000 +2.1049e+000
6262 0 +2.403967869e-008 -2.486900000e+002 -2.486900000e+002 +2.1049e+000 -2.1048e+000 +2.1049e+000
6266 0 +2.354880735e-008 -2.486900000e+002 -2.486900000e+002 +2.1048e+000 -2.1049e+000 +2.1049e+000
6277 0 +2.288186352e-008 -2.486900000e+002 -2.486900000e+002 +2.1048e+000 -2.1049e+000 +2.1049e+000
6279 0 +1.137240702e-008 -2.486900000e+002 -2.486900000e+002 +2.1048e+000 -2.1048e+000 +2.1049e+000
6285 0 +1.107113690e-008 -2.486900000e+002 -2.486900000e+002 +2.1048e+000 -2.1048e+000 +2.1049e+000
6306 0 +5.452932328e-009 -2.486900000e+002 -2.486900000e+002 +2.1048e+000 -2.1048e+000 +2.1048e+000
% f evaluations | g evaluations | best noise-free fitness - Fopt (-6.786000000000e+001) + sum g_i+ | measured fitness | best measured fitness or single-digit g-values | x1 | x2...
1 0 +9.058035210e+004 +9.051249210e+004 +9.051249210e+004 -2.4600e+000 +2.4894e+000 -4.2038e+000
2 0 +1.200957555e+004 +1.194171555e+004 +1.194171555e+004 -4.8827e+000 -3.7645e+000 +1.5500e+000
4 0 +5.845253358e+002 +5.166653358e+002 +5.166653358e+002 -3.7065e+000 +7.9753e-001 +1.8172e+000
17 0 +3.013901272e+002 +2.335301272e+002 +2.335301272e+002 -3.3633e+000 +1.5235e+000 +1.7138e+000
26 0 +2.037858819e+002 +1.359258819e+002 +1.359258819e+002 +1.2152e-001 +3.2827e+000 +1.8320e+000
28 0 +3.597432584e+001 -3.188567416e+001 -3.188567416e+001 +1.6861e-001 +3.0520e+000 +1.8190e+000
48 0 +1.699789546e+000 -6.616021045e+001 -6.616021045e+001 +1.5925e+000 +2.9951e+000 +8.1108e-001
126 0 +1.682880121e+000 -6.617711988e+001 -6.617711988e+001 +1.6158e+000 +3.0234e+000 +8.0204e-001
146 0 +1.482080339e+000 -6.637791966e+001 -6.637791966e+001 +1.5331e+000 +2.9779e+000 +8.0770e-001
147 0 +1.137262098e+000 -6.672273790e+001 -6.672273790e+001 +1.6185e+000 +2.9860e+000 +7.5482e-001
188 0 +8.500403439e-001 -6.700995966e+001 -6.700995966e+001 +1.4604e+000 +2.9939e+000 +7.2930e-001
207 0 +8.237049167e-001 -6.703629508e+001 -6.703629508e+001 +1.4947e+000 +2.9823e+000 +7.3797e-001
215 0 +8.117161890e-001 -6.704828381e+001 -6.704828381e+001 +1.5288e+000 +3.0002e+000 +7.4423e-001
316 0 +7.923649771e-001 -6.706763502e+001 -6.706763502e+001 +1.5086e+000 +3.0073e+000 +7.3147e-001
2086 0 +7.057889654e-001 -6.715421103e+001 -6.715421103e+001 -2.1319e+000 +2.0241e+000 +9.6995e-001
2160 0 +6.778418675e-001 -6.718215813e+001 -6.718215813e+001 -2.1098e+000 +2.0810e+000 +9.2738e-001
2221 0 +6.015069551e-001 -6.725849304e+001 -6.725849304e+001 -2.1134e+000 +2.0835e+000 +9.3271e-001
2230 0 +5.439002657e-001 -6.731609973e+001 -6.731609973e+001 -2.1172e+000 +2.1158e+000 +9.2959e-001
2242 0 +5.162500207e-001 -6.734374998e+001 -6.734374998e+001 -2.1127e+000 +2.0887e+000 +9.3934e-001
2248 0 +5.111215616e-001 -6.734887844e+001 -6.734887844e+001 -2.1008e+000 +2.1508e+000 +9.4204e-001
2252 0 +4.785945269e-001 -6.738140547e+001 -6.738140547e+001 -2.1027e+000 +2.1360e+000 +9.3893e-001
2253 0 +4.386854667e-001 -6.742131453e+001 -6.742131453e+001 -2.1002e+000 +2.1336e+000 +9.4941e-001
2262 0 +4.328972435e-001 -6.742710276e+001 -6.742710276e+001 -2.0994e+000 +2.1327e+000 +9.5295e-001
2264 0 +3.971652430e-001 -6.746283476e+001 -6.746283476e+001 -2.1005e+000 +2.1115e+000 +9.5771e-001
12726 0 +2.613299237e-001 -6.759867008e+001 -6.759867008e+001 -2.0071e+000 +2.1690e+000 +2.0775e+000
12727 0 +2.346427120e-001 -6.762535729e+001 -6.762535729e+001 -2.0199e+000 +2.1590e+000 +2.0726e+000
12734 0 +1.944432565e-001 -6.766555674e+001 -6.766555674e+001 -2.0196e+000 +2.1637e+000 +2.0908e+000
12738 0 +1.359766849e-001 -6.772402332e+001 -6.772402332e+001 -2.1669e+000 +2.1259e+000 +2.0982e+000
12745 0 +1.133077739e-001 -6.774669223e+001 -6.774669223e+001 -2.1573e+000 +2.1272e+000 +2.0985e+000
12758 0 +6.326050599e-002 -6.779673949e+001 -6.779673949e+001 -2.1606e+000 +2.1054e+000 +2.1049e+000
12763 0 +2.153269570e-002 -6.783846730e+001 -6.783846730e+001 -2.1262e+000 +2.1150e+000 +2.0998e+000
12813 0 +1.316698788e-002 -6.784683301e+001 -6.784683301e+001 -2.1151e+000 +2.1166e+000 +2.1002e+000
12828 0 +1.216007827e-002 -6.784783992e+001 -6.784783992e+001 -2.1221e+000 +2.1108e+000 +2.1003e+000
12845 0 +1.057798553e-002 -6.784942201e+001 -6.784942201e+001 -2.1000e+000 +2.1158e+000 +2.0966e+000
12857 0 +5.731684976e-003 -6.785426832e+001 -6.785426832e+001 -2.1038e+000 +2.1146e+000 +2.1001e+000
12863 0 +4.716791905e-003 -6.785528321e+001 -6.785528321e+001 -2.1069e+000 +2.1135e+000 +2.1018e+000
12894 0 +4.282369951e-003 -6.785571763e+001 -6.785571763e+001 -2.1077e+000 +2.1129e+000 +2.1021e+000
12901 0 +4.091340411e-003 -6.785590866e+001 -6.785590866e+001 -2.1074e+000 +2.1127e+000 +2.1020e+000
12903 0 +2.825467389e-003 -6.785717453e+001 -6.785717453e+001 -2.1043e+000 +2.1122e+000 +2.1026e+000
12909 0 +2.747891075e-003 -6.785725211e+001 -6.785725211e+001 -2.1040e+000 +2.1122e+000 +2.1033e+000
12916 0 +2.317983173e-003 -6.785768202e+001 -6.785768202e+001 -2.0981e+000 +2.1119e+000 +2.1028e+000
12917 0 +1.327004955e-003 -6.785867300e+001 -6.785867300e+001 -2.1038e+000 +2.1100e+000 +2.1038e+000
12924 0 +1.195868291e-003 -6.785880413e+001 -6.785880413e+001 -2.1022e+000 +2.1100e+000 +2.1035e+000
12926 0 +1.148050792e-003 -6.785885195e+001 -6.785885195e+001 -2.1023e+000 +2.1099e+000 +2.1036e+000
12939 0 +1.015922137e-003 -6.785898408e+001 -6.785898408e+001 -2.1024e+000 +2.1096e+000 +2.1033e+000
12943 0 +8.816865852e-004 -6.785911831e+001 -6.785911831e+001 -2.0994e+000 +2.1081e+000 +2.1030e+000
12948 0 +2.723776980e-004 -6.785972762e+001 -6.785972762e+001 -2.1020e+000 +2.1058e+000 +2.1055e+000
12955 0 +2.231103013e-004 -6.785977689e+001 -6.785977689e+001 -2.1035e+000 +2.1064e+000 +2.1036e+000
12967 0 +1.068638815e-004 -6.785989314e+001 -6.785989314e+001 -2.1028e+000 +2.1052e+000 +2.1043e+000
12970 0 +5.287897255e-005 -6.785994712e+001 -6.785994712e+001 -2.1037e+000 +2.1048e+000 +2.1045e+000
12995 0 +5.038328889e-005 -6.785994962e+001 -6.785994962e+001 -2.1043e+000 +2.1054e+000 +2.1051e+000
13000 0 +1.898307664e-005 -6.785998102e+001 -6.785998102e+001 -2.1042e+000 +2.1053e+000 +2.1045e+000
13039 0 +1.471781985e-005 -6.785998528e+001 -6.785998528e+001 -2.1049e+000 +2.1053e+000 +2.1046e+000
13082 0 +1.418224478e-005 -6.785998582e+001 -6.785998582e+001 -2.1043e+000 +2.1052e+000 +2.1045e+000
13086 0 +7.697521198e-006 -6.785999230e+001 -6.785999230e+001 -2.1043e+000 +2.1052e+000 +2.1047e+000
13104 0 +7.041662315e-006 -6.785999296e+001 -6.785999296e+001 -2.1043e+000 +2.1051e+000 +2.1048e+000
13120 0 +6.648696740e-006 -6.785999335e+001 -6.785999335e+001 -2.1051e+000 +2.1051e+000 +2.1049e+000
13144 0 +6.198098376e-006 -6.785999380e+001 -6.785999380e+001 -2.1051e+000 +2.1051e+000 +2.1048e+000
13147 0 +5.558462504e-006 -6.785999444e+001 -6.785999444e+001 -2.1048e+000 +2.1051e+000 +2.1049e+000
13149 0 +3.332557881e-006 -6.785999667e+001 -6.785999667e+001 -2.1047e+000 +2.1050e+000 +2.1049e+000
13154 0 +2.802481006e-006 -6.785999720e+001 -6.785999720e+001 -2.1048e+000 +2.1051e+000 +2.1048e+000
13168 0 +1.202891667e-006 -6.785999880e+001 -6.785999880e+001 -2.1048e+000 +2.1048e+000 +2.1048e+000
13177 0 +7.672877018e-007 -6.785999923e+001 -6.785999923e+001 -2.1048e+000 +2.1048e+000 +2.1048e+000
13207 0 +5.806303136e-007 -6.785999942e+001 -6.785999942e+001 -2.1047e+000 +2.1048e+000 +2.1048e+000
13214 0 +2.977855758e-007 -6.785999970e+001 -6.785999970e+001 -2.1048e+000 +2.1049e+000 +2.1048e+000
13224 0 +9.705942716e-008 -6.785999990e+001 -6.785999990e+001 -2.1049e+000 +2.1049e+000 +2.1048e+000
13257 0 +5.230296551e-008 -6.785999995e+001 -6.785999995e+001 -2.1048e+000 +2.1049e+000 +2.1048e+000
13263 0 +3.812894533e-008 -6.785999996e+001 -6.785999996e+001 -2.1048e+000 +2.1049e+000 +2.1048e+000
13276 0 +3.427840056e-008 -6.785999997e+001 -6.785999997e+001 -2.1048e+000 +2.1049e+000 +2.1048e+000
13302 0 +3.239379964e-008 -6.785999997e+001 -6.785999997e+001 -2.1048e+000 +2.1049e+000 +2.1048e+000
13309 0 +2.342223127e-008 -6.785999998e+001 -6.785999998e+001 -2.1048e+000 +2.1048e+000 +2.1048e+000
13311 0 +1.584152187e-008 -6.785999998e+001 -6.785999998e+001 -2.1048e+000 +2.1048e+000 +2.1048e+000
13336 0 +1.473394207e-008 -6.785999999e+001 -6.785999999e+001 -2.1048e+000 +2.1048e+000 +2.1048e+000
13340 0 +1.045140152e-008 -6.785999999e+001 -6.785999999e+001 -2.1049e+000 +2.1048e+000 +2.1048e+000
13345 0 +8.860013168e-009 -6.785999999e+001 -6.785999999e+001 -2.1048e+000 +2.1048e+000 +2.1048e+000
% f evaluations | g evaluations | best noise-free fitness - Fopt (-2.329000000000e+001) + sum g_i+ | measured fitness | best measured fitness or single-digit g-values | x1 | x2...
1 0 +2.217020030e+004 +2.214691030e+004 +2.214691030e+004 +9.6856e-001 +9.7257e-001 +4.8671e+000
2 0 +1.624625522e+004 +1.622296522e+004 +1.622296522e+004 -4.6354e+000 +4.2259e+000 +3.5942e+000
6 0 +1.207920188e+004 +1.205591188e+004 +1.205591188e+004 +3.6196e+000 +6.1134e-001 +4.3047e+000
8 0 +2.506275434e+003 +2.482985434e+003 +2.482985434e+003 -5.0000e+000 +1.5255e+000 +1.5735e+000
12 0 +4.200126884e+000 -1.908987312e+001 -1.908987312e+001 -1.0303e+000 +1.8836e+000 +1.7791e+000
18 0 +3.700680062e+000 -1.958931994e+001 -1.958931994e+001 -3.6407e-001 +2.0983e+000 +1.6917e+000
22 0 +3.604777621e+000 -1.968522238e+001 -1.968522238e+001 -8.4092e-001 +2.2268e+000 +1.5340e+000
24 0 +3.281775099e+000 -2.000822490e+001 -2.000822490e+001 -3.5195e-001 +2.0205e+000 +2.0634e+000
46 0 +3.023091850e+000 -2.026690815e+001 -2.026690815e+001 -2.8306e-001 +2.0334e+000 +2.0626e+000
64 0 +2.134218568e+000 -2.115578143e+001 -2.115578143e+001 +2.2057e+000 +0.0000e+000 +2.0154e+000
94 0 +2.076164597e+000 -2.121383540e+001 -2.121383540e+001 +2.1996e+000 +3.1405e-003 +2.0215e+000
101 0 +1.985124516e+000 -2.130487548e+001 -2.130487548e+001 +4.5736e-002 +2.5572e+000 +2.0409e+000
102 0 +1.883420875e+000 -2.140657913e+001 -2.140657913e+001 +1.8925e-001 +2.5026e+000 +2.0342e+000
123 0 +1.458958668e+000 -2.183104133e+001 -2.183104133e+001 +3.3564e-003 +2.6629e+000 +1.9588e+000
188 0 +1.426185470e+000 -2.186381453e+001 -2.186381453e+001 +1.7317e-002 +2.6424e+000 +1.9576e+000
256 0 +1.299185753e+000 -2.199081425e+001 -2.199081425e+001 +2.4794e-001 +2.5645e+000 +1.9804e+000
303 0 +1.284710107e+000 -2.200528989e+001 -2.200528989e+001 +2.4862e-001 +2.5619e+000 +1.9926e+000
318 0 +1.205298353e+000 -2.208470165e+001 -2.208470165e+001 +3.4899e-001 +2.5329e+000 +2.0040e+000
326 0 +1.192100736e+000 -2.209789926e+001 -2.209789926e+001 +3.3081e-001 +2.5386e+000 +2.0002e+000
1758 0 +1.018008553e+000 -2.227199145e+001 -2.227199145e+001 +2.3285e+000 +1.9803e+000 +2.1384e+000
1832 0 +8.668480554e-001 -2.242315194e+001 -2.242315194e+001 +2.3240e+000 +2.0136e+000 +2.1104e+000
1872 0 +7.483201105e-001 -2.254167989e+001 -2.254167989e+001 +2.3105e+000 +2.0260e+000 +2.1085e+000
1904 0 +1.973430196e-001 -2.309265698e+001 -2.309265698e+001 +2.0376e+000 +2.0737e+000 +2.1089e+000
1927 0 +7.239201951e-002 -2.321760798e+001 -2.321760798e+001 +2.0911e+000 +2.0724e+000 +2.1099e+000
1933 0 +6.747628700e-002 -2.322252371e+001 -2.322252371e+001 +2.1115e+000 +2.0678e+000 +2.1117e+000
1941 0 +3.033680305e-002 -2.325966320e+001 -2.325966320e+001 +2.1039e+000 +2.0818e+000 +2.1138e+000
1974 0 +2.494130445e-002 -2.326505870e+001 -2.326505870e+001 +2.1245e+000 +2.0867e+000 +2.1167e+000
1978 0 +2.093083253e-002 -2.326906917e+001 -2.326906917e+001 +2.1271e+000 +2.0842e+000 +2.1117e+000
1988 0 +1.796088353e-002 -2.327203912e+001 -2.327203912e+001 +2.1236e+000 +2.1017e+000 +2.0972e+000
1996 0 +1.773917458e-002 -2.327226083e+001 -2.327226083e+001 +2.1240e+000 +2.1030e+000 +2.0972e+000
1998 0 +3.070216314e-003 -2.328692978e+001 -2.328692978e+001 +2.0940e+000 +2.1039e+000 +2.1036e+000
2018 0 +1.511178853e-003 -2.328848882e+001 -2.328848882e+001 +2.1101e+000 +2.1017e+000 +2.1033e+000
2020 0 +1.148388449e-003 -2.328885161e+001 -2.328885161e+001 +2.1028e+000 +2.1010e+000 +2.1065e+000
2021 0 +1.143922053e-003 -2.328885608e+001 -2.328885608e+001 +2.1077e+000 +2.1001e+000 +2.1069e+000
2044 0 +5.551317408e-004 -2.328944487e+001 -2.328944487e+001 +2.1075e+000 +2.1014e+000 +2.1053e+000
2069 0 +3.905691900e-004 -2.328960943e+001 -2.328960943e+001 +2.1087e+000 +2.1023e+000 +2.1058e+000
2072 0 +2.046119102e-004 -2.328979539e+001 -2.328979539e+001 +2.1073e+000 +2.1029e+000 +2.1052e+000
2085 0 +1.386106355e-004 -2.328986139e+001 -2.328986139e+001 +2.1064e+000 +2.1055e+000 +2.1042e+000
2112 0 +1.205826828e-004 -2.328987942e+001 -2.328987942e+001 +2.1065e+000 +2.1052e+000 +2.1043e+000
2113 0 +1.056840081e-004 -2.328989432e+001 -2.328989432e+001 +2.1066e+000 +2.1050e+000 +2.1043e+000
2137 0 +8.526725151e-005 -2.328991473e+001 -2.328991473e+001 +2.1066e+000 +2.1049e+000 +2.1045e+000
2147 0 +7.439602757e-005 -2.328992560e+001 -2.328992560e+001 +2.1067e+000 +2.1049e+000 +2.1047e+000
2152 0 +4.950865377e-005 -2.328995049e+001 -2.328995049e+001 +2.1055e+000 +2.1049e+000 +2.1044e+000
2160 0 +3.095520576e-005 -2.328996904e+001 -2.328996904e+001 +2.1056e+000 +2.1041e+000 +2.1052e+000
2168 0 +1.499782816e-005 -2.328998500e+001 -2.328998500e+001 +2.1044e+000 +2.1045e+000 +2.1050e+000
2175 0 +1.405008547e-005 -2.328998595e+001 -2.328998595e+001 +2.1044e+000 +2.1045e+000 +2.1049e+000
2180 0 +1.280360356e-005 -2.328998720e+001 -2.328998720e+001 +2.1044e+000 +2.1046e+000 +2.1049e+000
2184 0 +1.176696954e-005 -2.328998823e+001 -2.328998823e+001 +2.1053e+000 +2.1043e+000 +2.1049e+000
2188 0 +8.157791640e-006 -2.328999184e+001 -2.328999184e+001 +2.1052e+000 +2.1044e+000 +2.1049e+000
2221 0 +3.902316990e-006 -2.328999610e+001 -2.328999610e+001 +2.1053e+000 +2.1047e+000 +2.1048e+000
2222 0 +3.167143731e-006 -2.328999683e+001 -2.328999683e+001 +2.1052e+000 +2.1048e+000 +2.1049e+000
2248 0 +2.685826736e-006 -2.328999731e+001 -2.328999731e+001 +2.1051e+000 +2.1047e+000 +2.1050e+000
2264 0 +9.738697955e-007 -2.328999903e+001 -2.328999903e+001 +2.1049e+000 +2.1048e+000 +2.1049e+000
2290 0 +8.559588949e-007 -2.328999914e+001 -2.328999914e+001 +2.1049e+000 +2.1047e+000 +2.1049e+000
2295 0 +2.989857535e-007 -2.328999970e+001 -2.328999970e+001 +2.1049e+000 +2.1048e+000 +2.1049e+000
2325 0 +4.828120836e-008 -2.328999995e+001 -2.328999995e+001 +2.1048e+000 +2.1048e+000 +2.1049e+000
2337 0 +3.173825647e-008 -2.328999997e+001 -2.328999997e+001 +2.1048e+000 +2.1048e+000 +2.1048e+000
2345 0 +2.074307659e-008 -2.328999998e+001 -2.328999998e+001 +2.1048e+000 +2.1048e+000 +2.1048e+000
2367 0 +1.121935611e-008 -2.328999999e+001 -2.328999999e+001 +2.1049e+000 +2.1048e+000 +2.1048e+000
2380 0 +2.634852336e-009 -2.329000000e+001 -2.329000000e+001 +2.1049e+000 +2.1048e+000 +2.1048e+000
% f evaluations | g evaluations | best noise-free fitness - Fopt (-1.028000000000e+001) + sum g_i+ | measured fitness | best measured fitness or single-digit g-values | x1 | x2...
1 0 +2.043726094e+003 +2.033446094e+003 +2.033446094e+003 +1.1100e+000 -1.2311e+000 +1.0385e+000
6 0 +3.308370712e+002 +3.205570712e+002 +3.205570712e+002 -3.0538e+000 +4.0203e+000 +4.4414e-001
12 0 +3.517436870e+000 -6.762563130e+000 -6.762563130e+000 +1.8164e+000 +1.0956e+000 +1.9761e+000
24 0 +2.199676120e+000 -8.080323880e+000 -8.080323880e+000 +2.0652e+000 +1.1086e+000 +2.2706e+000
94 0 +1.082313171e+000 -9.197686829e+000 -9.197686829e+000 +2.1617e+000 +1.5332e+000 +2.2784e+000
95 0 +8.974280838e-001 -9.382571916e+000 -9.382571916e+000 +2.1351e+000 +1.5318e+000 +2.2655e+000
122 0 +7.903799718e-001 -9.489620028e+000 -9.489620028e+000 +2.1359e+000 +1.5098e+000 +2.2649e+000
147 0 +7.596793200e-001 -9.520320680e+000 -9.520320680e+000 +2.1241e+000 +1.4659e+000 +2.2658e+000
149 0 +7.577392585e-001 -9.522260742e+000 -9.522260742e+000 +2.1245e+000 +1.4672e+000 +2.2672e+000
187 0 +7.346436502e-001 -9.545356350e+000 -9.545356350e+000 +2.1163e+000 +1.4788e+000 +2.2606e+000
269 0 +7.244181636e-001 -9.555581836e+000 -9.555581836e+000 +2.1082e+000 +1.4906e+000 +2.2581e+000
2895 0 +2.000109756e-001 -1.007998902e+001 -1.007998902e+001 +2.1116e+000 +2.1129e+000 +2.1370e+000
2901 0 +8.626453275e-002 -1.019373547e+001 -1.019373547e+001 +2.1315e+000 +2.1227e+000 +2.1162e+000
2946 0 +7.429494693e-002 -1.020570505e+001 -1.020570505e+001 +2.1342e+000 +2.1221e+000 +2.1134e+000
2950 0 +2.180007321e-002 -1.025819993e+001 -1.025819993e+001 +2.1332e+000 +2.1084e+000 +2.1076e+000
2977 0 +2.084917980e-002 -1.025915082e+001 -1.025915082e+001 +2.1347e+000 +2.1076e+000 +2.1053e+000
2995 0 +5.817978444e-003 -1.027418202e+001 -1.027418202e+001 +2.1197e+000 +2.1073e+000 +2.1048e+000
2998 0 +4.879030883e-003 -1.027512097e+001 -1.027512097e+001 +2.1198e+000 +2.1053e+000 +2.1037e+000
3025 0 +2.881110087e-003 -1.027711889e+001 -1.027711889e+001 +2.1171e+000 +2.0999e+000 +2.1051e+000
3053 0 +2.787420492e-003 -1.027721258e+001 -1.027721258e+001 +2.1125e+000 +2.0997e+000 +2.1089e+000
3055 0 +2.716134185e-003 -1.027728387e+001 -1.027728387e+001 +2.1110e+000 +2.0971e+000 +2.1065e+000
3059 0 +6.041667502e-004 -1.027939583e+001 -1.027939583e+001 +2.0996e+000 +2.1047e+000 +2.1052e+000
3072 0 +5.022293648e-004 -1.027949777e+001 -1.027949777e+001 +2.1018e+000 +2.1036e+000 +2.1042e+000
3077 0 +4.284997977e-004 -1.027957150e+001 -1.027957150e+001 +2.1017e+000 +2.1059e+000 +2.1033e+000
3109 0 +2.598028347e-004 -1.027974020e+001 -1.027974020e+001 +2.1010e+000 +2.1063e+000 +2.1045e+000
3123 0 +1.220507073e-004 -1.027987795e+001 -1.027987795e+001 +2.1060e+000 +2.1038e+000 +2.1045e+000
3144 0 +6.426112247e-005 -1.027993574e+001 -1.027993574e+001 +2.1051e+000 +2.1057e+000 +2.1043e+000
3153 0 +4.764311678e-005 -1.027995236e+001 -1.027995236e+001 +2.1044e+000 +2.1058e+000 +2.1045e+000
3158 0 +1.129972550e-005 -1.027998870e+001 -1.027998870e+001 +2.1046e+000 +2.1053e+000 +2.1046e+000
3186 0 +1.014082368e-005 -1.027998986e+001 -1.027998986e+001 +2.1056e+000 +2.1046e+000 +2.1049e+000
3203 0 +2.622606393e-006 -1.027999738e+001 -1.027999738e+001 +2.1048e+000 +2.1051e+000 +2.1048e+000
3215 0 +2.255724942e-006 -1.027999774e+001 -1.027999774e+001 +2.1047e+000 +2.1051e+000 +2.1048e+000
3220 0 +1.595601105e-006 -1.027999840e+001 -1.027999840e+001 +2.1048e+000 +2.1050e+000 +2.1048e+000
3227 0 +1.346062477e-006 -1.027999865e+001 -1.027999865e+001 +2.1050e+000 +2.1047e+000 +2.1049e+000
3243 0 +1.235913984e-006 -1.027999876e+001 -1.027999876e+001 +2.1050e+000 +2.1047e+000 +2.1049e+000
3250 0 +4.551272408e-007 -1.027999954e+001 -1.027999954e+001 +2.1048e+000 +2.1048e+000 +2.1049e+000
3280 0 +3.728536324e-007 -1.027999963e+001 -1.027999963e+001 +2.1048e+000 +2.1048e+000 +2.1049e+000
3293 0 +3.610142674e-007 -1.027999964e+001 -1.027999964e+001 +2.1048e+000 +2.1048e+000 +2.1049e+000
3306 0 +3.107982600e-007 -1.027999969e+001 -1.027999969e+001 +2.1048e+000 +2.1048e+000 +2.1049e+000
3311 0 +4.866399905e-008 -1.027999995e+001 -1.027999995e+001 +2.1049e+000 +2.1048e+000 +2.1048e+000
3355 0 +4.723069402e-008 -1.027999995e+001 -1.027999995e+001 +2.1049e+000 +2.1048e+000 +2.1048e+000
3360 0 +2.392106779e-008 -1.027999998e+001 -1.027999998e+001 +2.1049e+000 +2.1049e+000 +2.1048e+000
3370 0 +2.299941215e-008 -1.027999998e+001 -1.027999998e+001 +2.1049e+000 +2.1048e+000 +2.1049e+000
3378 0 +1.593076249e-008 -1.027999998e+001 -1.027999998e+001 +2.1049e+000 +2.1048e+000 +2.1049e+000
3388 0 +1.097411051e-008 -1.027999999e+001 -1.027999999e+001 +2.1049e+000 +2.1048e+000 +2.1049e+000
3396 0 +9.320469729e-009 -1.027999999e+001 -1.027999999e+001 +2.1049e+000 +2.1048e+000 +2.1048e+000
% f evaluations | g evaluations | best noise-free fitness - Fopt (1.799700000000e+002) + sum g_i+ | measured fitness | best measured fitness or single-digit g-values | x1 | x2...
1 0 +4.136738037e+000 +1.841067380e+002 +1.841067380e+002 -1.8460e+000 +1.6789e+000 +1.7527e+000
34 0 +2.704144233e+000 +1.826741442e+002 +1.826741442e+002 -7.4123e-001 +1.8415e+000 +2.2199e+000
52 0 +1.926296846e+000 +1.818962968e+002 +1.818962968e+002 -1.1531e+000 +1.7813e+000 +2.2049e+000
64 0 +1.859697108e+000 +1.818296971e+002 +1.818296971e+002 -9.1862e-001 +1.7560e+000 +2.2256e+000
101 0 +1.669237298e+000 +1.816392373e+002 +1.816392373e+002 -1.9507e+000 +1.4514e+000 +2.2286e+000
117 0 +1.145247442e+000 +1.811152474e+002 +1.811152474e+002 -2.3659e+000 +2.0285e+000 +2.1501e+000
129 0 +7.729919686e-001 +1.807429920e+002 +1.807429920e+002 -2.2930e+000 +2.0517e+000 +2.0824e+000
188 0 +7.386628012e-001 +1.807086628e+002 +1.807086628e+002 -2.2671e+000 +2.0276e+000 +2.0854e+000
201 0 +5.043166130e-001 +1.804743166e+002 +1.804743166e+002 -2.2568e+000 +2.0324e+000 +2.1029e+000
213 0 +4.725732155e-001 +1.804425732e+002 +1.804425732e+002 -2.2452e+000 +2.0207e+000 +2.1381e+000
217 0 +4.516944249e-001 +1.804216944e+002 +1.804216944e+002 -2.2227e+000 +2.0150e+000 +2.1416e+000
238 0 +4.184617771e-001 +1.803884618e+002 +1.803884618e+002 -2.2207e+000 +2.0142e+000 +2.1294e+000
247 0 +3.341762054e-001 +1.803041762e+002 +1.803041762e+002 -2.2355e+000 +2.0404e+000 +2.1228e+000
263 0 +3.299728393e-001 +1.802999728e+002 +1.802999728e+002 -2.2371e+000 +2.0458e+000 +2.1130e+000
270 0 +2.656695302e-001 +1.802356695e+002 +1.802356695e+002 -2.2090e+000 +2.0401e+000 +2.1145e+000
278 0 +2.076420469e-001 +1.801776420e+002 +1.801776420e+002 -2.1261e+000 +2.0392e+000 +2.1126e+000
284 0 +1.739896252e-001 +1.801439896e+002 +1.801439896e+002 -2.1813e+000 +2.0486e+000 +2.1142e+000
286 0 +1.000902300e-001 +1.800700902e+002 +1.800700902e+002 -2.1812e+000 +2.0861e+000 +2.1134e+000
288 0 +7.767899516e-002 +1.800476790e+002 +1.800476790e+002 -2.1717e+000 +2.0812e+000 +2.1094e+000
296 0 +1.312736721e-002 +1.799831274e+002 +1.799831274e+002 -2.1321e+000 +2.1012e+000 +2.1064e+000
299 0 +9.923561776e-003 +1.799799236e+002 +1.799799236e+002 -2.1273e+000 +2.0945e+000 +2.1085e+000
323 0 +8.158271147e-003 +1.799781583e+002 +1.799781583e+002 -2.1106e+000 +2.1104e+000 +2.1089e+000
326 0 +1.434312420e-003 +1.799714343e+002 +1.799714343e+002 -2.0958e+000 +2.1063e+000 +2.1041e+000
344 0 +1.195507030e-003 +1.799711955e+002 +1.799711955e+002 -2.0970e+000 +2.1057e+000 +2.1038e+000
372 0 +8.587651655e-004 +1.799708588e+002 +1.799708588e+002 -2.1039e+000 +2.1090e+000 +2.1039e+000
392 0 +4.113589875e-004 +1.799704114e+002 +1.799704114e+002 -2.1081e+000 +2.1019e+000 +2.1057e+000
405 0 +1.920113595e-004 +1.799701920e+002 +1.799701920e+002 -2.1043e+000 +2.1047e+000 +2.1038e+000
440 0 +1.312134396e-004 +1.799701312e+002 +1.799701312e+002 -2.1042e+000 +2.1056e+000 +2.1039e+000
460 0 +1.068990569e-004 +1.799701069e+002 +1.799701069e+002 -2.1044e+000 +2.1055e+000 +2.1040e+000
475 0 +9.247096045e-005 +1.799700925e+002 +1.799700925e+002 -2.1040e+000 +2.1057e+000 +2.1040e+000
478 0 +8.824431390e-005 +1.799700882e+002 +1.799700882e+002 -2.1042e+000 +2.1062e+000 +2.1043e+000
495 0 +1.886594234e-005 +1.799700189e+002 +1.799700189e+002 -2.1040e+000 +2.1053e+000 +2.1046e+000
504 0 +1.477081341e-005 +1.799700148e+002 +1.799700148e+002 -2.1040e+000 +2.1052e+000 +2.1049e+000
530 0 +1.115849022e-005 +1.799700112e+002 +1.799700112e+002 -2.1040e+000 +2.1051e+000 +2.1048e+000
552 0 +9.949954489e-006 +1.799700099e+002 +1.799700099e+002 -2.1055e+000 +2.1046e+000 +2.1048e+000
577 0 +5.657832617e-006 +1.799700057e+002 +1.799700057e+002 -2.1043e+000 +2.1048e+000 +2.1049e+000
579 0 +4.460510070e-006 +1.799700045e+002 +1.799700045e+002 -2.1047e+000 +2.1046e+000 +2.1049e+000
582 0 +3.624332237e-006 +1.799700036e+002 +1.799700036e+002 -2.1047e+000 +2.1046e+000 +2.1049e+000
583 0 +8.566088638e-007 +1.799700009e+002 +1.799700009e+002 -2.1050e+000 +2.1049e+000 +2.1049e+000
601 0 +5.125080804e-007 +1.799700005e+002 +1.799700005e+002 -2.1050e+000 +2.1048e+000 +2.1049e+000
604 0 +3.108557962e-007 +1.799700003e+002 +1.799700003e+002 -2.1050e+000 +2.1048e+000 +2.1049e+000
624 0 +2.103851671e-007 +1.799700002e+002 +1.799700002e+002 -2.1049e+000 +2.1048e+000 +2.1049e+000
626 0 +1.026227494e-007 +1.799700001e+002 +1.799700001e+002 -2.1049e+000 +2.1049e+000 +2.1049e+000
634 0 +6.747231396e-008 +1.799700001e+002 +1.799700001e+002 -2.1049e+000 +2.1048e+000 +2.1048e+000
640 0 +6.352900073e-008 +1.799700001e+002 +1.799700001e+002 -2.1049e+000 +2.1048e+000 +2.1048e+000
648 0 +3.584236197e-008 +1.799700000e+002 +1.799700000e+002 -2.1049e+000 +2.1048e+000 +2.1048e+000
664 0 +3.190874054e-008 +1.799700000e+002 +1.799700000e+002 -2.1049e+000 +2.1048e+000 +2.1048e+000
684 0 +3.112154445e-008 +1.799700000e+002 +1.799700000e+002 -2.1049e+000 +2.1048e+000 +2.1048e+000
697 0 +2.807561827e-008 +1.799700000e+002 +1.799700000e+002 -2.1049e+000 +2.1048e+000 +2.1048e+000
703 0 +3.550525207e-009 +1.799700000e+002 +1.799700000e+002 -2.1048e+000 +2.1048e+000 +2.1048e+000
% f evaluations | g evaluations | best noise-free fitness - Fopt (8.376000000000e+001) + sum g_i+ | measured fitness | best measured fitness or single-digit g-values | x1 | x2...
1 0 +3.259942070e+003 +3.343702070e+003 +3.343702070e+003 -6.5119e-001 +3.2223e-001 +1.9261e-001
4 0 +7.039136173e+002 +7.876736173e+002 +7.876736173e+002 +1.7115e-001 +1.1488e+000 +2.8876e+000
10 0 +3.521194951e+002 +4.358794951e+002 +4.358794951e+002 -2.0770e+000 +2.8610e+000 +1.4893e+000
12 0 +7.264164624e+000 +9.102416462e+001 +9.102416462e+001 -2.5660e+000 +1.0996e+000 +1.6240e+000
14 0 +4.086246877e+000 +8.784624688e+001 +8.784624688e+001 -8.3700e-001 +1.9391e+000 +1.6243e+000
40 0 +2.753295688e+000 +8.651329569e+001 +8.651329569e+001 -2.0770e+000 +1.9243e+000 +1.5586e+000
59 0 +2.473181721e+000 +8.623318172e+001 +8.623318172e+001 -2.0994e+000 +1.9404e+000 +1.5581e+000
78 0 +2.378130881e+000 +8.613813088e+001 +8.613813088e+001 +2.3888e+000 +1.1408e+000 +2.3085e+000
211 0 +2.323245196e+000 +8.608324520e+001 +8.608324520e+001 +1.6480e+000 +1.0289e+000 +2.2791e+000
213 0 +2.051206927e+000 +8.581120693e+001 +8.581120693e+001 +1.6152e+000 +2.4495e+000 +1.6759e+000
247 0 +2.024058565e+000 +8.578405857e+001 +8.578405857e+001 +1.6002e+000 +2.4521e+000 +1.6732e+000
271 0 +1.861272154e+000 +8.562127215e+001 +8.562127215e+001 +1.5191e+000 +2.3868e+000 +1.6981e+000
528 0 +1.676488260e+000 +8.543648826e+001 +8.543648826e+001 +1.6079e+000 +2.3608e+000 +2.0770e+000
529 0 +1.649747652e+000 +8.540974765e+001 +8.540974765e+001 +1.6086e+000 +2.3636e+000 +2.0751e+000
534 0 +1.525390928e+000 +8.528539093e+001 +8.528539093e+001 +1.6059e+000 +2.3669e+000 +2.0648e+000
539 0 +1.444367256e+000 +8.520436726e+001 +8.520436726e+001 +1.6029e+000 +2.3714e+000 +2.0576e+000
540 0 +1.218864402e+000 +8.497886440e+001 +8.497886440e+001 +1.5187e+000 +2.3706e+000 +2.0563e+000
562 0 +1.191979269e+000 +8.495197927e+001 +8.495197927e+001 +1.5303e+000 +2.3756e+000 +2.0501e+000
567 0 +1.170940948e+000 +8.493094095e+001 +8.493094095e+001 +1.5415e+000 +2.3897e+000 +2.0456e+000
574 0 +1.139067400e+000 +8.489906740e+001 +8.489906740e+001 +1.5289e+000 +2.3890e+000 +2.0397e+000
603 0 +1.120709115e+000 +8.488070912e+001 +8.488070912e+001 +1.5065e+000 +2.4014e+000 +2.0324e+000
1247 0 +8.521860212e-001 +8.461218602e+001 +8.461218602e+001 -1.0769e+000 +2.3986e+000 +2.0314e+000
1290 0 +7.356343755e-001 +8.449563438e+001 +8.449563438e+001 -1.0002e+000 +2.3770e+000 +2.0314e+000
1519 0 +7.243195797e-001 +8.448431958e+001 +8.448431958e+001 -1.0173e+000 +2.3794e+000 +2.0355e+000
3325 0 +5.142690423e-001 +8.427426904e+001 +8.427426904e+001 +1.4991e+000 +3.0204e+000 +1.8507e+000
3343 0 +5.102420138e-001 +8.427024201e+001 +8.427024201e+001 +1.5055e+000 +3.0234e+000 +1.8505e+000
3366 0 +4.630359164e-001 +8.422303592e+001 +8.422303592e+001 +1.4553e+000 +3.0099e+000 +1.8817e+000
3379 0 +4.506917546e-001 +8.421069175e+001 +8.421069175e+001 +1.4573e+000 +3.0012e+000 +1.8850e+000
3385 0 +4.377354875e-001 +8.419773549e+001 +8.419773549e+001 +1.4644e+000 +3.0030e+000 +1.8840e+000
3389 0 +4.340338189e-001 +8.419403382e+001 +8.419403382e+001 +1.4662e+000 +3.0016e+000 +1.8844e+000
3392 0 +4.128655904e-001 +8.417286559e+001 +8.417286559e+001 +1.4967e+000 +3.0131e+000 +1.8857e+000
3448 0 +4.061702831e-001 +8.416617028e+001 +8.416617028e+001 +1.5041e+000 +2.9943e+000 +1.8794e+000
3466 0 +3.979211149e-001 +8.415792111e+001 +8.415792111e+001 +1.5064e+000 +3.0078e+000 +1.8829e+000
6387 0 +3.284439150e-001 +8.408844392e+001 +8.408844392e+001 -2.0536e+000 +2.1073e+000 +2.0625e+000
6389 0 +1.243743419e-001 +8.388437434e+001 +8.388437434e+001 -2.0705e+000 +2.1456e+000 +2.0774e+000
6409 0 +1.213831535e-001 +8.388138315e+001 +8.388138315e+001 -2.0690e+000 +2.1569e+000 +2.0950e+000
6452 0 +3.322656638e-002 +8.379322657e+001 +8.379322657e+001 -2.1256e+000 +2.1214e+000 +2.1027e+000
6458 0 +3.057634620e-002 +8.379057635e+001 +8.379057635e+001 -2.1262e+000 +2.1096e+000 +2.0934e+000
6468 0 +1.097981471e-002 +8.377097981e+001 +8.377097981e+001 -2.1198e+000 +2.1110e+000 +2.1068e+000
6499 0 +4.434480476e-003 +8.376443448e+001 +8.376443448e+001 -2.1133e+000 +2.1074e+000 +2.1077e+000
6517 0 +4.758891506e-004 +8.376047589e+001 +8.376047589e+001 -2.1054e+000 +2.1076e+000 +2.1039e+000
6534 0 +1.702201797e-004 +8.376017022e+001 +8.376017022e+001 -2.1046e+000 +2.1067e+000 +2.1045e+000
6545 0 +1.141959056e-004 +8.376011420e+001 +8.376011420e+001 -2.1041e+000 +2.1064e+000 +2.1046e+000
6596 0 +5.835257942e-005 +8.376005835e+001 +8.376005835e+001 -2.1058e+000 +2.1054e+000 +2.1045e+000
6615 0 +7.075718244e-006 +8.376000708e+001 +8.376000708e+001 -2.1045e+000 +2.1046e+000 +2.1049e+000
6616 0 +4.929412512e-006 +8.376000493e+001 +8.376000493e+001 -2.1054e+000 +2.1046e+000 +2.1049e+000
6671 0 +2.313035239e-006 +8.376000231e+001 +8.376000231e+001 -2.1047e+000 +2.1051e+000 +2.1048e+000
6702 0 +2.129287239e-006 +8.376000213e+001 +8.376000213e+001 -2.1048e+000 +2.1048e+000 +2.1047e+000
6741 0 +2.071768478e-006 +8.376000207e+001 +8.376000207e+001 -2.1048e+000 +2.1048e+000 +2.1048e+000
6752 0 +1.952312715e-006 +8.376000195e+001 +8.376000195e+001 -2.1050e+000 +2.1047e+000 +2.1048e+000
6763 0 +8.804071996e-007 +8.376000088e+001 +8.376000088e+001 -2.1046e+000 +2.1049e+000 +2.1048e+000
6775 0 +1.782572809e-007 +8.376000018e+001 +8.376000018e+001 -2.1048e+000 +2.1049e+000 +2.1048e+000
6782 0 +8.720252254e-008 +8.376000009e+001 +8.376000009e+001 -2.1049e+000 +2.1048e+000 +2.1048e+000
6801 0 +2.083510253e-009 +8.376000000e+001 +8.376000000e+001 -2.1048e+000 +2.1048e+000 +2.1048e+000
% f evaluations | g evaluations | best noise-free fitness - Fopt (-3.890100000000e+002) + sum g_i+ | measured fitness | best measured fitness or single-digit g-values | x1 | x2...
1 0 +2.941432095e+004 +2.902531095e+004 +2.902531095e+004 -1.9667e+000 -4.1109e+000 +2.3796e+000
2 0 +1.667532005e+004 +1.628631005e+004 +1.628631005e+004 -3.2026e+000 -4.2402e+000 -3.3101e+000
7 0 +1.254297334e+004 +1.215396334e+004 +1.215396334e+004 -2.1531e+000 +3.5085e+000 -1.5365e+000
10 0 +5.052990887e+000 -3.839570091e+002 -3.839570091e+002 +4.2297e-001 -2.4767e+000 -1.3807e+000
12 0 +2.376342397e+000 -3.866336576e+002 -3.866336576e+002 -1.1107e-001 -2.6133e+000 -1.6011e+000
74 0 +2.310501978e+000 -3.866994980e+002 -3.866994980e+002 +7.2766e-002 -2.5325e+000 -1.9552e+000
128 0 +2.255437430e+000 -3.867545626e+002 -3.867545626e+002 -7.7974e-001 -1.8298e+000 -2.1972e+000
147 0 +2.148775630e+000 -3.868612244e+002 -3.868612244e+002 -7.8835e-001 -1.8174e+000 -2.1880e+000
148 0 +1.636320990e+000 -3.873736790e+002 -3.873736790e+002 -4.5288e-001 -2.4564e+000 -2.0272e+000
173 0 +1.621256166e+000 -3.873887438e+002 -3.873887438e+002 -3.7310e-001 -2.5496e+000 -2.0429e+000
179 0 +1.317546740e+000 -3.876924533e+002 -3.876924533e+002 -3.6233e-001 -2.5589e+000 -2.0150e+000
248 0 +1.212708875e+000 -3.877972911e+002 -3.877972911e+002 -3.0277e-001 -2.5373e+000 -1.9955e+000
249 0 +1.196747958e+000 -3.878132520e+002 -3.878132520e+002 -3.1893e-001 -2.5439e+000 -1.9882e+000
1168 0 +4.782579780e-001 -3.885317420e+002 -3.885317420e+002 +1.4601e+000 -2.9824e+000 -1.8726e+000
1183 0 +4.336335861e-001 -3.885763664e+002 -3.885763664e+002 +1.4663e+000 -2.9995e+000 -1.8852e+000
1220 0 +4.235774100e-001 -3.885864226e+002 -3.885864226e+002 +1.4728e+000 -2.9995e+000 -1.8775e+000
1257 0 +4.062297299e-001 -3.886037703e+002 -3.886037703e+002 +1.5071e+000 -3.0181e+000 -1.8709e+000
1389 0 +3.980405297e-001 -3.886119595e+002 -3.886119595e+002 +1.5047e+000 -3.0137e+000 -1.8774e+000
20571 0 +3.285595991e-001 -3.886814404e+002 -3.886814404e+002 -2.0892e+000 -2.1700e+000 -2.0606e+000
20575 0 +2.834483130e-001 -3.887265517e+002 -3.887265517e+002 -2.1091e+000 -2.1565e+000 -2.0631e+000
20580 0 +2.759146531e-001 -3.887340853e+002 -3.887340853e+002 -2.0967e+000 -2.1534e+000 -2.0614e+000
20595 0 +1.184359322e-001 -3.888915641e+002 -3.888915641e+002 -2.0849e+000 -2.1558e+000 -2.0910e+000
20625 0 +6.620855483e-002 -3.889437914e+002 -3.889437914e+002 -2.0684e+000 -2.1408e+000 -2.0900e+000
20649 0 +6.082183676e-002 -3.889491782e+002 -3.889491782e+002 -2.0575e+000 -2.1334e+000 -2.0906e+000
20650 0 +5.643482888e-002 -3.889535652e+002 -3.889535652e+002 -2.0498e+000 -2.1234e+000 -2.0949e+000
20667 0 +3.701591154e-002 -3.889729841e+002 -3.889729841e+002 -2.0800e+000 -2.1334e+000 -2.0987e+000
20690 0 +1.408367725e-002 -3.889959163e+002 -3.889959163e+002 -2.0887e+000 -2.1113e+000 -2.0957e+000
20691 0 +1.227581026e-002 -3.889977242e+002 -3.889977242e+002 -2.1035e+000 -2.1070e+000 -2.1128e+000
20722 0 +2.911904495e-003 -3.890070881e+002 -3.890070881e+002 -2.0982e+000 -2.1127e+000 -2.1037e+000
20725 0 +8.315338409e-004 -3.890091685e+002 -3.890091685e+002 -2.1021e+000 -2.1024e+000 -2.1065e+000
20763 0 +2.975672227e-004 -3.890097024e+002 -3.890097024e+002 -2.1056e+000 -2.1046e+000 -2.1062e+000
20810 0 +1.901980095e-004 -3.890098098e+002 -3.890098098e+002 -2.1071e+000 -2.1042e+000 -2.1058e+000
20858 0 +1.096257254e-004 -3.890098904e+002 -3.890098904e+002 -2.1062e+000 -2.1042e+000 -2.1057e+000
20860 0 +5.357562020e-005 -3.890099464e+002 -3.890099464e+002 -2.1063e+000 -2.1039e+000 -2.1049e+000
20898 0 +4.695048904e-005 -3.890099530e+002 -3.890099530e+002 -2.1042e+000 -2.1042e+000 -2.1048e+000
20901 0 +4.252272379e-005 -3.890099575e+002 -3.890099575e+002 -2.1040e+000 -2.1046e+000 -2.1053e+000
20907 0 +1.529253547e-005 -3.890099847e+002 -3.890099847e+002 -2.1042e+000 -2.1053e+000 -2.1049e+000
20932 0 +1.510184075e-005 -3.890099849e+002 -3.890099849e+002 -2.1041e+000 -2.1053e+000 -2.1049e+000
20935 0 +1.404695070e-005 -3.890099860e+002 -3.890099860e+002 -2.1041e+000 -2.1053e+000 -2.1049e+000
20944 0 +8.881802557e-006 -3.890099911e+002 -3.890099911e+002 -2.1045e+000 -2.1051e+000 -2.1050e+000
20969 0 +7.593208693e-006 -3.890099924e+002 -3.890099924e+002 -2.1051e+000 -2.1051e+000 -2.1048e+000
20971 0 +7.186228402e-006 -3.890099928e+002 -3.890099928e+002 -2.1053e+000 -2.1049e+000 -2.1049e+000
20980 0 +3.730096125e-006 -3.890099963e+002 -3.890099963e+002 -2.1049e+000 -2.1050e+000 -2.1049e+000
21011 0 +2.718597329e-006 -3.890099973e+002 -3.890099973e+002 -2.1052e+000 -2.1048e+000 -2.1049e+000
21016 0 +2.146859629e-006 -3.890099979e+002 -3.890099979e+002 -2.1051e+000 -2.1047e+000 -2.1049e+000
21030 0 +1.896328911e-006 -3.890099981e+002 -3.890099981e+002 -2.1049e+000 -2.1048e+000 -2.1048e+000
21040 0 +1.487293900e-006 -3.890099985e+002 -3.890099985e+002 -2.1049e+000 -2.1047e+000 -2.1048e+000
21041 0 +1.383536414e-007 -3.890099999e+002 -3.890099999e+002 -2.1049e+000 -2.1048e+000 -2.1049e+000
21053 0 +9.737732398e-008 -3.890099999e+002 -3.890099999e+002 -2.1049e+000 -2.1048e+000 -2.1049e+000
21085 0 +8.961126241e-008 -3.890099999e+002 -3.890099999e+002 -2.1049e+000 -2.1048e+000 -2.1048e+000
21089 0 +7.527643220e-008 -3.890099999e+002 -3.890099999e+002 -2.1049e+000 -2.1048e+000 -2.1049e+000
21114 0 +5.102862133e-008 -3.890099999e+002 -3.890099999e+002 -2.1049e+000 -2.1048e+000 -2.1049e+000
21128 0 +4.623274208e-008 -3.890100000e+002 -3.890100000e+002 -2.1049e+000 -2.1048e+000 -2.1049e+000
21142 0 +3.265404303e-008 -3.890100000e+002 -3.890100000e+002 -2.1049e+000 -2.1048e+000 -2.1049e+000
21146 0 +3.117906999e-008 -3.890100000e+002 -3.890100000e+002 -2.1048e+000 -2.1048e+000 -2.1048e+000
21147 0 +2.971052027e-008 -3.890100000e+002 -3.890100000e+002 -2.1049e+000 -2.1048e+000 -2.1048e+000
21150 0 +3.851766905e-009 -3.890100000e+002 -3.890100000e+002 -2.1049e+000 -2.1048e+000 -2.1048e+000
% f evaluations | g evaluations | best noise-free fitness - Fopt (-1.455800000000e+002) + sum g_i+ | measured fitness | best measured fitness or single-digit g-values | x1 | x2...
1 0 +2.844003732e+004 +2.829445732e+004 +2.829445732e+004 -5.8666e-001 +4.5024e+000 +1.9133e+000
3 0 +2.387151932e+004 +2.372593932e+004 +2.372593932e+004 +3.1520e+000 -1.8517e+000 -1.7218e+000
6 0 +1.412204078e+004 +1.397646078e+004 +1.397646078e+004 -3.3354e-001 -4.5500e+000 -1.6076e+000
7 0 +1.729727856e+003 +1.584147856e+003 +1.584147856e+003 -3.3402e+000 -4.1517e+000 +2.2588e+000
9 0 +1.081955888e+003 +9.363758882e+002 +9.363758882e+002 +3.9484e+000 -3.3250e-001 +8.4777e-001
10 0 +1.766441523e+002 +3.106415228e+001 +3.106415228e+001 +4.3103e-001 -3.1149e+000 +1.2642e+000
14 0 +4.237257358e+000 -1.413427426e+002 -1.413427426e+002 -9.1062e-002 -1.5616e+000 +1.5065e+000
20 0 +3.837668496e+000 -1.417423315e+002 -1.417423315e+002 -5.6997e-001 -1.6160e+000 +1.5802e+000
26 0 +3.552082539e+000 -1.420279175e+002 -1.420279175e+002 -1.3350e+000 -2.2146e+000 +1.5037e+000
28 0 +3.435361205e+000 -1.421446388e+002 -1.421446388e+002 -1.3682e+000 -2.2160e+000 +1.5081e+000
41 0 +2.037661808e+000 -1.435423382e+002 -1.435423382e+002 -2.4063e-001 -2.7877e+000 +1.9136e+000
60 0 +1.317277067e+000 -1.442627229e+002 -1.442627229e+002 +1.8870e+000 -2.1077e+000 +2.0493e+000
89 0 +7.083985218e-001 -1.448716015e+002 -1.448716015e+002 +1.9716e+000 -2.0884e+000 +2.0661e+000
93 0 +6.598663872e-001 -1.449201336e+002 -1.449201336e+002 +1.9549e+000 -2.0818e+000 +2.0843e+000
117 0 +4.695095902e-001 -1.451104904e+002 -1.451104904e+002 +1.9406e+000 -2.1211e+000 +2.1097e+000
174 0 +4.234811393e-001 -1.451565189e+002 -1.451565189e+002 +2.0352e+000 -2.1866e+000 +2.0567e+000
186 0 +2.418495064e-001 -1.453381505e+002 -1.453381505e+002 +2.0746e+000 -2.1621e+000 +2.0664e+000
210 0 +9.907449711e-002 -1.454809255e+002 -1.454809255e+002 +2.0399e+000 -2.1420e+000 +2.0897e+000
221 0 +6.241010763e-002 -1.455175899e+002 -1.455175899e+002 +2.0493e+000 -2.1315e+000 +2.1019e+000
231 0 +4.057101996e-002 -1.455394290e+002 -1.455394290e+002 +2.1262e+000 -2.0756e+000 +2.1162e+000
245 0 +3.921488998e-002 -1.455407851e+002 -1.455407851e+002 +2.0904e+000 -2.1343e+000 +2.0961e+000
282 0 +2.480777109e-002 -1.455551922e+002 -1.455551922e+002 +2.0930e+000 -2.1127e+000 +2.1141e+000
295 0 +2.158048026e-002 -1.455584195e+002 -1.455584195e+002 +2.0987e+000 -2.1130e+000 +2.1133e+000
324 0 +1.220820623e-002 -1.455677918e+002 -1.455677918e+002 +2.1217e+000 -2.1062e+000 +2.0987e+000
327 0 +1.005720615e-002 -1.455699428e+002 -1.455699428e+002 +2.1211e+000 -2.1057e+000 +2.0996e+000
333 0 +6.229884120e-003 -1.455737701e+002 -1.455737701e+002 +2.1211e+000 -2.1057e+000 +2.1030e+000
342 0 +5.084171584e-003 -1.455749158e+002 -1.455749158e+002 +2.0930e+000 -2.1020e+000 +2.1079e+000
349 0 +2.531511487e-003 -1.455774685e+002 -1.455774685e+002 +2.0956e+000 -2.1037e+000 +2.1068e+000
372 0 +8.811766248e-004 -1.455791188e+002 -1.455791188e+002 +2.0994e+000 -2.1041e+000 +2.1060e+000
400 0 +5.000177383e-004 -1.455795000e+002 -1.455795000e+002 +2.1014e+000 -2.1034e+000 +2.1056e+000
401 0 +3.863053833e-004 -1.455796137e+002 -1.455796137e+002 +2.1028e+000 -2.1029e+000 +2.1053e+000
407 0 +1.323782814e-004 -1.455798676e+002 -1.455798676e+002 +2.1027e+000 -2.1049e+000 +2.1053e+000
469 0 +7.163088000e-005 -1.455799284e+002 -1.455799284e+002 +2.1047e+000 -2.1038e+000 +2.1049e+000
484 0 +4.543005289e-005 -1.455799546e+002 -1.455799546e+002 +2.1050e+000 -2.1039e+000 +2.1049e+000
492 0 +2.154713857e-005 -1.455799785e+002 -1.455799785e+002 +2.1054e+000 -2.1052e+000 +2.1049e+000
501 0 +1.706844853e-005 -1.455799829e+002 -1.455799829e+002 +2.1050e+000 -2.1052e+000 +2.1050e+000
506 0 +1.689555759e-005 -1.455799831e+002 -1.455799831e+002 +2.1050e+000 -2.1052e+000 +2.1050e+000
508 0 +2.797093970e-006 -1.455799972e+002 -1.455799972e+002 +2.1050e+000 -2.1047e+000 +2.1050e+000
516 0 +2.732213034e-006 -1.455799973e+002 -1.455799973e+002 +2.1050e+000 -2.1047e+000 +2.1050e+000
547 0 +2.299732103e-006 -1.455799977e+002 -1.455799977e+002 +2.1049e+000 -2.1048e+000 +2.1050e+000
556 0 +2.281741871e-006 -1.455799977e+002 -1.455799977e+002 +2.1049e+000 -2.1048e+000 +2.1050e+000
576 0 +1.383176908e-006 -1.455799986e+002 -1.455799986e+002 +2.1051e+000 -2.1047e+000 +2.1049e+000
589 0 +1.361050238e-006 -1.455799986e+002 -1.455799986e+002 +2.1051e+000 -2.1047e+000 +2.1049e+000
593 0 +1.088454070e-006 -1.455799989e+002 -1.455799989e+002 +2.1048e+000 -2.1047e+000 +2.1049e+000
600 0 +1.056767445e-006 -1.455799989e+002 -1.455799989e+002 +2.1048e+000 -2.1047e+000 +2.1049e+000
605 0 +3.953489340e-007 -1.455799996e+002 -1.455799996e+002 +2.1048e+000 -2.1048e+000 +2.1049e+000
606 0 +1.883007599e-007 -1.455799998e+002 -1.455799998e+002 +2.1048e+000 -2.1048e+000 +2.1048e+000
607 0 +1.568901666e-007 -1.455799998e+002 -1.455799998e+002 +2.1048e+000 -2.1048e+000 +2.1048e+000
621 0 +5.366769074e-008 -1.455799999e+002 -1.455799999e+002 +2.1048e+000 -2.1048e+000 +2.1048e+000
632 0 +3.450355734e-008 -1.455800000e+002 -1.455800000e+002 +2.1048e+000 -2.1048e+000 +2.1048e+000
637 0 +2.262504495e-008 -1.455800000e+002 -1.455800000e+002 +2.1049e+000 -2.1048e+000 +2.1048e+000
652 0 +1.831577379e-008 -1.455800000e+002 -1.455800000e+002 +2.1049e+000 -2.1048e+000 +2.1048e+000
662 0 +1.292070806e-008 -1.455800000e+002 -1.455800000e+002 +2.1048e+000 -2.1048e+000 +2.1048e+000
716 0 +9.050268091e-009 -1.455800000e+002 -1.455800000e+002 +2.1049e+000 -2.1048e+000 +2.1048e+000
