% f evaluations | g evaluations | best noise-free fitness - Fopt (7.948000000000e+001) + sum g_i+ | measured fitness | best measured fitness or single-digit g-values | x1 | x2...
1 0 +6.549809408e+001 +1.449780941e+002 +1.449780941e+002 -5.0000e+000 +5.0000e+000
2 0 +6.044209408e+001 +1.399220941e+002 +1.399220941e+002 +5.0000e+000 +5.0000e+000
3 0 +4.236209408e+001 +1.218420941e+002 +1.218420941e+002 -5.0000e+000 -5.0000e+000
4 0 +3.730609408e+001 +1.167860941e+002 +1.167860941e+002 +5.0000e+000 -5.0000e+000
5 0 +3.146999482e+001 +1.109499948e+002 +1.109499948e+002 -5.0000e+000 -3.1261e+000
6 0 +1.234156033e+001 +9.182156033e+001 +9.182156033e+001 -1.7963e+000 +1.6967e+000
7 0 +0.000000000e+000 +7.948000000e+001 +7.948000000e+001 +2.5280e-001 -1.1568e+000
% f evaluations | g evaluations | best noise-free fitness - Fopt (3.944800000000e+002) + sum g_i+ | measured fitness | best measured fitness or single-digit g-values | x1 | x2...
1 0 +8.363193472e+001 +4.781119347e+002 +4.781119347e+002 +5.0000e+000 -5.0000e+000
2 0 +5.663934720e+000 +4.001439347e+002 +4.001439347e+002 -5.0000e+000 -5.0000e+000
6 0 +0.000000000e+000 +3.944800000e+002 +3.944800000e+002 -3.8984e+000 -2.8904e+000
% f evaluations | g evaluations | best noise-free fitness - Fopt (-2.471100000000e+002) + sum g_i+ | measured fitness | best measured fitness or single-digit g-values | x1 | x2...
1 0 +2.851713280e+001 -2.185928672e+002 -2.185928672e+002 -5.0000e+000 -5.0000e+000
3 0 +2.445313280e+001 -2.226568672e+002 -2.226568672e+002 -5.0000e+000 +5.0000e+000
4 0 +1.088721851e+001 -2.362227815e+002 -2.362227815e+002 -2.3348e+000 -2.7540e+000
6 0 +0.000000000e+000 -2.471100000e+002 -2.471100000e+002 -3.7984e+000 +2.0320e-001
% f evaluations | g evaluations | best noise-free fitness - Fopt (-1.520400000000e+002) + sum g_i+ | measured fitness | best measured fitness or single-digit g-values | x1 | x2...
1 0 +6.366717184e+001 -8.837282816e+001 -8.837282816e+001 -5.0000e+000 -5.0000e+000
3 0 +3.518717184e+001 -1.168528282e+002 -1.168528282e+002 -5.0000e+000 +5.0000e+000
4 0 +4.618463514e+000 -1.474215365e+002 -1.474215365e+002 +1.6899e+000 +2.3118e+000
6 0 +0.000000000e+000 -1.520400000e+002 -1.520400000e+002 -2.6720e-001 +1.4240e+000
% f evaluations | g evaluations | best noise-free fitness - Fopt (-2.525000000000e+001) + sum g_i+ | measured fitness | best measured fitness or single-digit g-values | x1 | x2...
1 0 +1.059633664e+002 +8.071336640e+001 +8.071336640e+001 -5.0000e+000 -5.0000e+000
2 0 +3.367536640e+001 +8.425366400e+000 +8.425366400e+000 +5.0000e+000 -5.0000e+000
4 0 +2.097136640e+001 -4.278633600e+000 -4.278633600e+000 +5.0000e+000 +5.0000e+000
5 0 +1.972014935e+001 -5.529850647e+000 -5.529850647e+000 +5.0000e+000 +4.8542e+000
7 0 +0.000000000e+000 -2.525000000e+001 -2.525000000e+001 +3.6144e+000 +6.3520e-001
% f evaluations | g evaluations | best noise-free fitness - Fopt (1.830100000000e+002) + sum g_i+ | measured fitness | best measured fitness or single-digit g-values | x1 | x2...
1 0 +1.165843462e+002 +2.995943462e+002 +2.995943462e+002 +5.0000e+000 -5.0000e+000
2 0 +7.386434624e+001 +2.568743462e+002 +2.568743462e+002 -5.0000e+000 -5.0000e+000
3 0 +5.452034624e+001 +2.375303462e+002 +2.375303462e+002 +5.0000e+000 +5.0000e+000
4 0 +1.180034624e+001 +1.948103462e+002 +1.948103462e+002 -5.0000e+000 +5.0000e+000
7 0 +0.000000000e+000 +1.830100000e+002 +1.830100000e+002 -2.1360e+000 +3.1032e+000
% f evaluations | g evaluations | best noise-free fitness - Fopt (1.835200000000e+002) + sum g_i+ | measured fitness | best measured fitness or single-digit g-values | x1 | x2...
1 0 +1.047366771e+002 +2.882566771e+002 +2.882566771e+002 -5.0000e+000 +5.0000e+000
3 0 +2.590467712e+001 +2.094246771e+002 +2.094246771e+002 -5.0000e+000 -5.0000e+000
4 0 +9.157712728e+000 +1.926777127e+002 +1.926777127e+002 -3.0392e+000 -3.7146e+000
6 0 +0.000000000e+000 +1.835200000e+002 +1.835200000e+002 -2.1600e-002 -3.9416e+000
% f evaluations | g evaluations | best noise-free fitness - Fopt (-5.938400000000e+002) + sum g_i+ | measured fitness | best measured fitness or single-digit g-values | x1 | x2...
1 0 +8.325175552e+001 -5.105882445e+002 -5.105882445e+002 +5.0000e+000 -5.0000e+000
2 0 +3.185975552e+001 -5.619802445e+002 -5.619802445e+002 -5.0000e+000 -5.0000e+000
4 0 +2.997175552e+001 -5.638682445e+002 -5.638682445e+002 -5.0000e+000 +5.0000e+000
7 0 +0.000000000e+000 -5.938400000e+002 -5.938400000e+002 -2.5696e+000 +9.4400e-002
% f evaluations | g evaluations | best noise-free fitness - Fopt (-1.000000000000e+003) + sum g_i+ | measured fitness | best measured fitness or single-digit g-values | x1 | x2...
1 0 +7.951825408e+001 -9.204817459e+002 -9.204817459e+002 +5.0000e+000 +5.0000e+000
2 0 +2.654254080e+000 -9.973457459e+002 -9.973457459e+002 -5.0000e+000 +5.0000e+000
6 0 +0.000000000e+000 -1.000000000e+003 -1.000000000e+003 -3.8432e+000 +3.8528e+000
% f evaluations | g evaluations | best noise-free fitness - Fopt (-2.531000000000e+001) + sum g_i+ | measured fitness | best measured fitness or single-digit g-values | x1 | x2...
1 0 +4.497249280e+000 -2.081275072e+001 -2.081275072e+001 +5.0000e+000 +5.0000e+000
6 0 +0.000000000e+000 -2.531000000e+001 -2.531000000e+001 +3.4688e+000 +3.5328e+000
% f evaluations | g evaluations | best noise-free fitness - Fopt (2.228000000000e+001) + sum g_i+ | measured fitness | best measured fitness or single-digit g-values | x1 | x2...
1 0 +8.704902208e+001 +1.093290221e+002 +1.093290221e+002 -5.0000e+000 +5.0000e+000
2 0 +5.879302208e+001 +8.107302208e+001 +8.107302208e+001 +5.0000e+000 +5.0000e+000
3 0 +5.151302208e+001 +7.379302208e+001 +7.379302208e+001 -5.0000e+000 -5.0000e+000
4 0 +2.325702208e+001 +4.553702208e+001 +4.553702208e+001 +5.0000e+000 -5.0000e+000
6 0 +1.645923096e+001 +3.873923096e+001 +3.873923096e+001 +4.1858e+000 +1.1846e+000
7 0 +0.000000000e+000 +2.228000000e+001 +2.228000000e+001 +1.4128e+000 -1.7768e+000
% f evaluations | g evaluations | best noise-free fitness - Fopt (3.561400000000e+002) + sum g_i+ | measured fitness | best measured fitness or single-digit g-values | x1 | x2...
1 0 +7.223434560e+001 +4.283743456e+002 +4.283743456e+002 -5.0000e+000 +5.0000e+000
2 0 +4.306634560e+001 +3.992063456e+002 +3.992063456e+002 +5.0000e+000 +5.0000e+000
4 0 +3.257034560e+001 +3.887103456e+002 +3.887103456e+002 +5.0000e+000 -5.0000e+000
6 0 +1.725973591e+000 +3.578659736e+002 +3.578659736e+002 +1.8739e+000 -1.7711e+000
7 0 +0.000000000e+000 +3.561400000e+002 +3.561400000e+002 +1.4584e+000 -5.2480e-001
% f evaluations | g evaluations | best noise-free fitness - Fopt (-4.757000000000e+002) + sum g_i+ | measured fitness | best measured fitness or single-digit g-values | x1 | x2...
1 0 +6.362137216e+001 -4.120786278e+002 -4.120786278e+002 +5.0000e+000 +5.0000e+000
2 0 +4.702937216e+001 -4.286706278e+002 -4.286706278e+002 -5.0000e+000 +5.0000e+000
4 0 +3.814937216e+001 -4.375506278e+002 -4.375506278e+002 -5.0000e+000 -5.0000e+000
5 0 +1.991484745e+001 -4.557851526e+002 -4.557851526e+002 -5.0000e+000 -2.0323e+000
7 0 +0.000000000e+000 -4.757000000e+002 -4.757000000e+002 -8.2960e-001 -4.4400e-001
% f evaluations | g evaluations | best noise-free fitness - Fopt (-1.000000000000e+003) + sum g_i+ | measured fitness | best measured fitness or single-digit g-values | x1 | x2...
1 0 +1.467312723e+002 -8.532687277e+002 -8.532687277e+002 +5.0000e+000 -5.0000e+000
2 0 +7.068327232e+001 -9.293167277e+002 -9.293167277e+002 -5.0000e+000 -5.0000e+000
4 0 +4.251272320e+000 -9.957487277e+002 -9.957487277e+002 -5.0000e+000 +5.0000e+000
5 0 +4.046583829e+000 -9.959534162e+002 -9.959534162e+002 -5.0000e+000 +4.9379e+000
7 0 +0.000000000e+000 -1.000000000e+003 -1.000000000e+003 -3.8024e+000 +3.3216e+000
% f evaluations | g evaluations | best noise-free fitness - Fopt (-4.158000000000e+001) + sum g_i+ | measured fitness | best measured fitness or single-digit g-values | x1 | x2...
1 0 +9.299959360e+001 +5.141959360e+001 +5.141959360e+001 -5.0000e+000 -5.0000e+000
2 0 +8.104759360e+001 +3.946759360e+001 +3.946759360e+001 +5.0000e+000 -5.0000e+000
3 0 +3.594359360e+001 -5.636406400e+000 -5.636406400e+000 -5.0000e+000 +5.0000e+000
4 0 +2.399159360e+001 -1.758840640e+001 -1.758840640e+001 +5.0000e+000 +5.0000e+000
5 0 +1.635189341e+001 -2.522810659e+001 -2.522810659e+001 +4.0242e+000 +5.0000e+000
7 0 +0.000000000e+000 -4.158000000e+001 -4.158000000e+001 +5.9760e-001 +2.8528e+000
