% f evaluations | g evaluations | best noise-free fitness - Fopt (1.000000000000e+003) + sum g_i+ | measured fitness | best measured fitness or single-digit g-values | x1 | x2...
1 0 +5.607170072e+001 +1.056071701e+003 +1.056071701e+003 -3.2826e+000 +1.5811e+000 +2.8105e+000 +3.2324e+000 +2.8883e+000
154 0 +4.450479826e+001 +1.044504798e+003 +1.044504798e+003 -3.1820e+000 +3.1260e+000 +2.3052e+000 +3.3694e+000 +3.2583e+000
218 0 +4.186539024e+001 +1.041865390e+003 +1.041865390e+003 -3.0025e+000 +2.2119e+000 +4.2674e+000 +3.5873e+000 +2.5381e+000
222 0 +2.070048252e+001 +1.020700483e+003 +1.020700483e+003 -2.3738e+000 +2.4593e+000 +4.2364e+000 +4.0669e+000 +4.3337e+000
253 0 +1.446999934e+001 +1.014469999e+003 +1.014469999e+003 -3.0585e+000 +3.0816e+000 +4.3200e+000 +4.4650e+000 +3.5802e+000
1053 0 +1.301083651e+001 +1.013010837e+003 +1.013010837e+003 -2.9851e+000 +3.0405e+000 +4.3565e+000 +4.4662e+000 +3.5582e+000
1082 0 +1.270011323e+001 +1.012700113e+003 +1.012700113e+003 -3.0467e+000 +3.0602e+000 +4.3605e+000 +4.5035e+000 +3.5495e+000
1094 0 +1.223108868e+001 +1.012231089e+003 +1.012231089e+003 -2.9760e+000 +3.0905e+000 +4.3600e+000 +4.4596e+000 +3.5553e+000
1205 0 +1.120119991e+001 +1.011201200e+003 +1.011201200e+003 -3.0399e+000 +3.0552e+000 +4.3821e+000 +4.4525e+000 +3.5496e+000
1248 0 +1.024185521e+001 +1.010241855e+003 +1.010241855e+003 -3.0412e+000 +3.1019e+000 +4.3825e+000 +4.4661e+000 +3.5476e+000
1476 0 +1.001790157e+001 +1.010017902e+003 +1.010017902e+003 -3.0220e+000 +3.0925e+000 +4.3813e+000 +4.4758e+000 +3.5408e+000
1820 0 +9.994418991e+000 +1.009994419e+003 +1.009994419e+003 -3.0210e+000 +3.0927e+000 +4.3840e+000 +4.4742e+000 +3.5405e+000
5726 0 +7.326134057e+000 +1.007326134e+003 +1.007326134e+003 -2.8839e+000 +1.7261e+000 +3.8452e+000 +3.3199e+000 +3.2252e+000
5789 0 +7.221509861e+000 +1.007221510e+003 +1.007221510e+003 -2.8829e+000 +1.7234e+000 +3.8457e+000 +3.3020e+000 +3.2268e+000
5905 0 +6.230912597e+000 +1.006230913e+003 +1.006230913e+003 -2.8775e+000 +1.7227e+000 +3.8470e+000 +3.3130e+000 +3.2561e+000
5918 0 +5.886055212e+000 +1.005886055e+003 +1.005886055e+003 -2.8871e+000 +1.7227e+000 +3.8423e+000 +3.3135e+000 +3.2598e+000
6017 0 +5.688522509e+000 +1.005688523e+003 +1.005688523e+003 -2.9056e+000 +1.7347e+000 +3.8461e+000 +3.3131e+000 +3.2573e+000
6038 0 +5.252590643e+000 +1.005252591e+003 +1.005252591e+003 -2.9113e+000 +1.7344e+000 +3.8340e+000 +3.3108e+000 +3.2531e+000
6083 0 +5.229728393e+000 +1.005229728e+003 +1.005229728e+003 -2.9187e+000 +1.7364e+000 +3.8208e+000 +3.3201e+000 +3.2476e+000
6109 0 +4.938972291e+000 +1.004938972e+003 +1.004938972e+003 -2.9235e+000 +1.7386e+000 +3.8174e+000 +3.3139e+000 +3.2665e+000
6178 0 +4.786201886e+000 +1.004786202e+003 +1.004786202e+003 -2.9217e+000 +1.7464e+000 +3.8136e+000 +3.3190e+000 +3.2618e+000
6211 0 +4.611086398e+000 +1.004611086e+003 +1.004611086e+003 -2.9502e+000 +1.7602e+000 +3.7808e+000 +3.3323e+000 +3.2730e+000
6238 0 +4.524381357e+000 +1.004524381e+003 +1.004524381e+003 -2.9376e+000 +1.7753e+000 +3.7800e+000 +3.3350e+000 +3.2610e+000
6250 0 +4.410903798e+000 +1.004410904e+003 +1.004410904e+003 -2.9419e+000 +1.7866e+000 +3.7626e+000 +3.3324e+000 +3.2627e+000
6256 0 +4.228467073e+000 +1.004228467e+003 +1.004228467e+003 -2.9484e+000 +1.7887e+000 +3.7502e+000 +3.3417e+000 +3.2585e+000
6269 0 +4.152338927e+000 +1.004152339e+003 +1.004152339e+003 -2.9520e+000 +1.7944e+000 +3.7462e+000 +3.3448e+000 +3.2622e+000
6293 0 +4.047552341e+000 +1.004047552e+003 +1.004047552e+003 -2.9575e+000 +1.7962e+000 +3.7398e+000 +3.3457e+000 +3.2660e+000
6520 0 +3.980997157e+000 +1.003980997e+003 +1.003980997e+003 -2.9597e+000 +1.8046e+000 +3.7255e+000 +3.3475e+000 +3.2685e+000
19429 0 +3.597676111e+000 +1.003597676e+003 +1.003597676e+003 -2.6907e+000 +3.6763e+000 +2.7088e+000 +3.2205e+000 +2.9795e+000
19435 0 +3.513988115e+000 +1.003513988e+003 +1.003513988e+003 -2.6998e+000 +3.6750e+000 +2.7098e+000 +3.2183e+000 +2.9760e+000
19441 0 +3.397531333e+000 +1.003397531e+003 +1.003397531e+003 -2.7173e+000 +3.6961e+000 +2.6986e+000 +3.2157e+000 +2.9744e+000
19449 0 +3.167126836e+000 +1.003167127e+003 +1.003167127e+003 -2.7337e+000 +3.6810e+000 +2.7245e+000 +3.2006e+000 +2.9763e+000
19492 0 +3.123610143e+000 +1.003123610e+003 +1.003123610e+003 -2.7379e+000 +3.6805e+000 +2.7334e+000 +3.1987e+000 +2.9775e+000
19507 0 +3.054102413e+000 +1.003054102e+003 +1.003054102e+003 -2.7379e+000 +3.6861e+000 +2.7344e+000 +3.2027e+000 +2.9775e+000
19542 0 +3.017540054e+000 +1.003017540e+003 +1.003017540e+003 -2.7374e+000 +3.6786e+000 +2.7281e+000 +3.2054e+000 +2.9782e+000
% f evaluations | g evaluations | best noise-free fitness - Fopt (7.003000000000e+001) + sum g_i+ | measured fitness | best measured fitness or single-digit g-values | x1 | x2...
1 0 +4.611214478e+002 +5.311514478e+002 +5.311514478e+002 -2.1784e+000 +7.0966e-001 +1.5400e+000 +4.9828e+000 -5.4387e-002
2 0 +1.491651618e+002 +2.191951618e+002 +2.191951618e+002 +1.5240e+000 +3.4318e-001 -3.8198e+000 -3.4274e-001 -1.6649e-001
9 0 +1.090537495e+002 +1.790837495e+002 +1.790837495e+002 -3.5428e-001 -3.1784e+000 -4.9302e-001 -2.3296e+000 -4.9513e+000
15 0 +7.624653025e+001 +1.462765302e+002 +1.462765302e+002 -1.2581e-001 -3.6914e-001 +2.1875e-001 -4.0327e+000 -1.1593e+000
24 0 +4.380667801e+001 +1.138366780e+002 +1.138366780e+002 -1.6729e+000 -6.8887e-001 -1.0263e+000 -1.4804e+000 -1.5214e-002
190 0 +3.656512235e+001 +1.065951224e+002 +1.065951224e+002 -8.0057e-001 -4.6817e+000 -3.3801e+000 -2.2843e+000 -2.3446e-001
339 0 +3.513908597e+001 +1.051690860e+002 +1.051690860e+002 -8.5178e-001 -4.0310e+000 -3.4931e+000 -2.1887e+000 -7.8282e-001
491 0 +2.622397776e+001 +9.625397776e+001 +9.625397776e+001 -4.7868e-001 -3.3409e+000 -3.3304e+000 -2.0461e+000 +9.7853e-002
686 0 +2.507871541e+001 +9.510871541e+001 +9.510871541e+001 -8.4488e-001 -2.7105e+000 -4.1005e+000 -2.4688e+000 -7.0984e-001
746 0 +2.351229082e+001 +9.354229082e+001 +9.354229082e+001 -9.0863e-001 -2.5478e+000 -3.9429e+000 -1.5521e+000 -6.6633e-001
832 0 +1.956246833e+001 +8.959246833e+001 +8.959246833e+001 -9.6715e-001 -2.5285e+000 -3.8607e+000 -1.4769e+000 -7.2407e-001
931 0 +1.290002052e+001 +8.293002052e+001 +8.293002052e+001 -9.0731e-001 -2.5322e+000 -3.9384e+000 -1.4538e+000 -6.6693e-001
1051 0 +7.112781823e+000 +7.714278182e+001 +7.714278182e+001 -3.7023e-001 -2.5134e+000 -4.0698e+000 -2.1179e+000 -7.1488e-001
1062 0 +3.596512682e+000 +7.362651268e+001 +7.362651268e+001 -3.6633e-001 -2.4745e+000 -4.0706e+000 -2.1319e+000 -7.2641e-001
1156 0 +2.535521315e+000 +7.256552131e+001 +7.256552131e+001 -3.8132e-001 -2.4647e+000 -4.0867e+000 -2.1267e+000 -7.1780e-001
1199 0 +2.200939034e+000 +7.223093903e+001 +7.223093903e+001 -3.6685e-001 -2.4602e+000 -4.1069e+000 -2.1294e+000 -7.3494e-001
1346 0 +2.139358920e+000 +7.216935892e+001 +7.216935892e+001 -3.6648e-001 -2.4613e+000 -4.1089e+000 -2.1341e+000 -7.3280e-001
1446 0 +2.127107176e+000 +7.215710718e+001 +7.215710718e+001 -3.6647e-001 -2.4616e+000 -4.1080e+000 -2.1342e+000 -7.3260e-001
1554 0 +2.061781715e+000 +7.209178172e+001 +7.209178172e+001 -3.4848e-001 -2.4824e+000 -4.1158e+000 -2.1453e+000 -7.5695e-001
1575 0 +2.040743968e+000 +7.207074397e+001 +7.207074397e+001 -3.4597e-001 -2.4823e+000 -4.1214e+000 -2.1485e+000 -7.3204e-001
1653 0 +1.991522225e+000 +7.202152223e+001 +7.202152223e+001 -3.4832e-001 -2.4792e+000 -4.1164e+000 -2.1473e+000 -7.4199e-001
% f evaluations | g evaluations | best noise-free fitness - Fopt (-4.822000000000e+001) + sum g_i+ | measured fitness | best measured fitness or single-digit g-values | x1 | x2...
1 0 +3.517119188e+002 +3.034919188e+002 +3.034919188e+002 +4.3713e+000 -4.0451e+000 -1.9035e+000 -2.4519e+000 -3.9445e+000
2 0 +2.844433066e+002 +2.362233066e+002 +2.362233066e+002 +2.6392e+000 +4.0109e+000 -2.0116e+000 +3.5834e+000 -3.7148e+000
4 0 +1.032345526e+002 +5.501455262e+001 +5.501455262e+001 -3.5684e+000 -1.6583e+000 -3.3454e-002 -2.0290e+000 -1.7677e+000
21 0 +7.176795308e+001 +2.354795308e+001 +2.354795308e+001 -1.1148e+000 -8.3287e-001 -5.0000e+000 +1.2719e+000 -3.6727e+000
33 0 +5.832758375e+001 +1.010758375e+001 +1.010758375e+001 -3.7344e-001 -1.2445e+000 -3.8770e+000 +1.3515e-001 -4.3545e+000
42 0 +5.071935208e+001 +2.499352080e+000 +2.499352080e+000 -3.5941e-001 -1.1687e+000 -4.6580e+000 +5.9384e-001 -3.3439e+000
91 0 +4.488912169e+001 -3.330878308e+000 -3.330878308e+000 -3.3284e-001 -1.4154e+000 -4.9722e+000 +4.9537e-001 -3.5389e+000
133 0 +4.329887896e+001 -4.921121037e+000 -4.921121037e+000 -3.4633e-001 -1.4201e+000 -4.9967e+000 +5.0571e-001 -3.5275e+000
134 0 +3.452518012e+001 -1.369481988e+001 -1.369481988e+001 -3.8790e+000 -1.7075e+000 -1.6937e+000 +1.2425e+000 -4.9285e+000
177 0 +3.175751922e+001 -1.646248078e+001 -1.646248078e+001 -3.9211e+000 -1.7014e+000 -1.6991e+000 +1.2687e+000 -4.9814e+000
219 0 +3.121235672e+001 -1.700764328e+001 -1.700764328e+001 -3.9343e+000 -1.6991e+000 -1.6916e+000 +1.2803e+000 -4.9927e+000
302 0 +6.321435676e+000 -4.189856432e+001 -4.189856432e+001 -1.9548e+000 -8.6212e-001 -2.1585e+000 -5.9667e-001 -3.4624e+000
644 0 +6.241880836e+000 -4.197811916e+001 -4.197811916e+001 -1.9580e+000 -8.6235e-001 -2.1553e+000 -5.9617e-001 -3.4639e+000
748 0 +5.946747055e+000 -4.227325295e+001 -4.227325295e+001 -1.9480e+000 -8.5817e-001 -2.1573e+000 -5.9917e-001 -3.4562e+000
879 0 +5.328178359e+000 -4.289182164e+001 -4.289182164e+001 -1.9292e+000 -8.4741e-001 -2.1419e+000 -6.1664e-001 -3.4413e+000
890 0 +4.839745923e+000 -4.338025408e+001 -4.338025408e+001 -1.9448e+000 -8.4725e-001 -2.1436e+000 -5.9110e-001 -3.4394e+000
901 0 +4.735207503e+000 -4.348479250e+001 -4.348479250e+001 -1.9318e+000 -8.4619e-001 -2.1435e+000 -5.9702e-001 -3.4335e+000
903 0 +4.248580101e+000 -4.397141990e+001 -4.397141990e+001 -1.9073e+000 -8.2611e-001 -2.1496e+000 -6.1069e-001 -3.4167e+000
907 0 +4.163532819e+000 -4.405646718e+001 -4.405646718e+001 -1.9080e+000 -8.3094e-001 -2.1493e+000 -6.1629e-001 -3.4138e+000
959 0 +4.057521109e+000 -4.416247889e+001 -4.416247889e+001 -1.9101e+000 -8.3100e-001 -2.1527e+000 -6.1655e-001 -3.4065e+000
1006 0 +3.745796098e+000 -4.447420390e+001 -4.447420390e+001 -1.9171e+000 -8.3800e-001 -2.1497e+000 -6.2648e-001 -3.3957e+000
1008 0 +3.660988544e+000 -4.455901146e+001 -4.455901146e+001 -1.9213e+000 -8.3864e-001 -2.1541e+000 -6.2582e-001 -3.3867e+000
1009 0 +3.605724025e+000 -4.461427597e+001 -4.461427597e+001 -1.9260e+000 -8.3919e-001 -2.1527e+000 -6.1859e-001 -3.3922e+000
1037 0 +3.423944775e+000 -4.479605522e+001 -4.479605522e+001 -1.9299e+000 -8.3712e-001 -2.1410e+000 -6.2460e-001 -3.3788e+000
1042 0 +3.268568425e+000 -4.495143158e+001 -4.495143158e+001 -1.9393e+000 -8.3863e-001 -2.1367e+000 -6.2016e-001 -3.3862e+000
1046 0 +3.227953666e+000 -4.499204633e+001 -4.499204633e+001 -1.9534e+000 -8.3656e-001 -2.1414e+000 -6.4091e-001 -3.3830e+000
1076 0 +3.134525171e+000 -4.508547483e+001 -4.508547483e+001 -1.9495e+000 -8.2170e-001 -2.1111e+000 -6.5369e-001 -3.3953e+000
1090 0 +3.045527297e+000 -4.517447270e+001 -4.517447270e+001 -1.9492e+000 -8.2629e-001 -2.1174e+000 -6.5108e-001 -3.3989e+000
1214 0 +3.014453477e+000 -4.520554652e+001 -4.520554652e+001 -1.9499e+000 -8.2722e-001 -2.1181e+000 -6.4690e-001 -3.3966e+000
9916 0 +2.912463439e+000 -4.530753656e+001 -4.530753656e+001 -1.7264e+000 -8.5518e-001 -1.9594e+000 +5.9212e-001 -3.5033e+000
9985 0 +2.711781532e+000 -4.550821847e+001 -4.550821847e+001 -1.7415e+000 -8.5338e-001 -1.9739e+000 +5.7596e-001 -3.4870e+000
10012 0 +2.585781083e+000 -4.563421892e+001 -4.563421892e+001 -1.7259e+000 -8.5760e-001 -1.9445e+000 +5.6811e-001 -3.5175e+000
10054 0 +1.969061656e+000 -4.625093834e+001 -4.625093834e+001 -1.7633e+000 -8.7214e-001 -1.9518e+000 +5.9442e-001 -3.5334e+000
10086 0 +1.610460777e+000 -4.660953922e+001 -4.660953922e+001 -1.7825e+000 -8.6561e-001 -1.9672e+000 +5.9023e-001 -3.5205e+000
10120 0 +1.457864457e+000 -4.676213554e+001 -4.676213554e+001 -1.7797e+000 -8.6440e-001 -1.9529e+000 +6.0011e-001 -3.5456e+000
10148 0 +1.373919259e+000 -4.684608074e+001 -4.684608074e+001 -1.7745e+000 -8.4807e-001 -1.9681e+000 +5.8258e-001 -3.5394e+000
10149 0 +1.245053700e+000 -4.697494630e+001 -4.697494630e+001 -1.7580e+000 -8.4860e-001 -1.9691e+000 +5.7162e-001 -3.5410e+000
10190 0 +1.178142125e+000 -4.704185787e+001 -4.704185787e+001 -1.7536e+000 -8.5240e-001 -1.9541e+000 +5.8485e-001 -3.5389e+000
10203 0 +1.147688891e+000 -4.707231111e+001 -4.707231111e+001 -1.7669e+000 -8.4522e-001 -1.9540e+000 +5.8932e-001 -3.5428e+000
10212 0 +1.109399305e+000 -4.711060069e+001 -4.711060069e+001 -1.7655e+000 -8.4759e-001 -1.9537e+000 +5.7007e-001 -3.5356e+000
10221 0 +1.092918155e+000 -4.712708185e+001 -4.712708185e+001 -1.7678e+000 -8.5482e-001 -1.9570e+000 +5.8374e-001 -3.5356e+000
10255 0 +1.065739123e+000 -4.715426088e+001 -4.715426088e+001 -1.7718e+000 -8.5263e-001 -1.9389e+000 +5.8744e-001 -3.5480e+000
10268 0 +1.027784933e+000 -4.719221507e+001 -4.719221507e+001 -1.7729e+000 -8.5210e-001 -1.9412e+000 +5.8552e-001 -3.5449e+000
10324 0 +9.982190824e-001 -4.722178092e+001 -4.722178092e+001 -1.7713e+000 -8.5156e-001 -1.9437e+000 +5.7873e-001 -3.5428e+000
28566 0 +9.439041146e-001 -4.727609589e+001 -4.727609589e+001 -1.8339e+000 -9.9216e-001 -2.2326e+000 +1.8206e-001 -3.6007e+000
28621 0 +1.928262065e-001 -4.802717379e+001 -4.802717379e+001 -1.8408e+000 -1.0098e+000 -2.2191e+000 +2.0665e-001 -3.5885e+000
28675 0 +9.819683696e-002 -4.812180316e+001 -4.812180316e+001 -1.8440e+000 -1.0076e+000 -2.2345e+000 +2.0362e-001 -3.5820e+000
28724 0 +6.919702478e-002 -4.815080298e+001 -4.815080298e+001 -1.8437e+000 -1.0136e+000 -2.2458e+000 +2.1053e-001 -3.5816e+000
28745 0 +5.346580391e-002 -4.816653420e+001 -4.816653420e+001 -1.8430e+000 -1.0137e+000 -2.2385e+000 +2.1234e-001 -3.5829e+000
28759 0 +3.453036996e-002 -4.818546963e+001 -4.818546963e+001 -1.8422e+000 -1.0102e+000 -2.2430e+000 +2.1033e-001 -3.5892e+000
28801 0 +2.913242575e-002 -4.819086757e+001 -4.819086757e+001 -1.8399e+000 -1.0085e+000 -2.2381e+000 +2.1718e-001 -3.5889e+000
28850 0 +1.612579238e-002 -4.820387421e+001 -4.820387421e+001 -1.8415e+000 -1.0104e+000 -2.2401e+000 +2.1174e-001 -3.5863e+000
28859 0 +4.297975457e-003 -4.821570202e+001 -4.821570202e+001 -1.8423e+000 -1.0087e+000 -2.2364e+000 +2.1404e-001 -3.5887e+000
28876 0 +3.865708958e-003 -4.821613429e+001 -4.821613429e+001 -1.8429e+000 -1.0091e+000 -2.2373e+000 +2.1267e-001 -3.5882e+000
28999 0 +3.204786875e-003 -4.821679521e+001 -4.821679521e+001 -1.8430e+000 -1.0091e+000 -2.2364e+000 +2.1267e-001 -3.5886e+000
29022 0 +2.178483909e-003 -4.821782152e+001 -4.821782152e+001 -1.8425e+000 -1.0076e+000 -2.2365e+000 +2.1425e-001 -3.5892e+000
29050 0 +1.912730902e-003 -4.821808727e+001 -4.821808727e+001 -1.8435e+000 -1.0083e+000 -2.2351e+000 +2.1374e-001 -3.5897e+000
29078 0 +1.832179508e-003 -4.821816782e+001 -4.821816782e+001 -1.8446e+000 -1.0073e+000 -2.2337e+000 +2.1304e-001 -3.5911e+000
29084 0 +1.755569808e-003 -4.821824443e+001 -4.821824443e+001 -1.8444e+000 -1.0085e+000 -2.2350e+000 +2.1261e-001 -3.5895e+000
29098 0 +4.969043658e-004 -4.821950310e+001 -4.821950310e+001 -1.8434e+000 -1.0074e+000 -2.2354e+000 +2.1319e-001 -3.5898e+000
29161 0 +4.438576929e-004 -4.821955614e+001 -4.821955614e+001 -1.8432e+000 -1.0074e+000 -2.2354e+000 +2.1337e-001 -3.5899e+000
29170 0 +4.037119978e-004 -4.821959629e+001 -4.821959629e+001 -1.8435e+000 -1.0072e+000 -2.2347e+000 +2.1303e-001 -3.5899e+000
29173 0 +3.884383621e-004 -4.821961156e+001 -4.821961156e+001 -1.8434e+000 -1.0073e+000 -2.2350e+000 +2.1288e-001 -3.5897e+000
29186 0 +3.205869856e-004 -4.821967941e+001 -4.821967941e+001 -1.8431e+000 -1.0071e+000 -2.2348e+000 +2.1332e-001 -3.5902e+000
29187 0 +2.192050612e-004 -4.821978079e+001 -4.821978079e+001 -1.8432e+000 -1.0074e+000 -2.2350e+000 +2.1303e-001 -3.5898e+000
29218 0 +2.177845059e-004 -4.821978222e+001 -4.821978222e+001 -1.8431e+000 -1.0074e+000 -2.2350e+000 +2.1317e-001 -3.5898e+000
29219 0 +7.579824774e-005 -4.821992420e+001 -4.821992420e+001 -1.8423e+000 -1.0072e+000 -2.2352e+000 +2.1302e-001 -3.5898e+000
29322 0 +6.408177354e-005 -4.821993592e+001 -4.821993592e+001 -1.8421e+000 -1.0072e+000 -2.2353e+000 +2.1280e-001 -3.5897e+000
29352 0 +2.033228890e-005 -4.821997967e+001 -4.821997967e+001 -1.8424e+000 -1.0073e+000 -2.2354e+000 +2.1274e-001 -3.5895e+000
29374 0 +1.757502427e-005 -4.821998242e+001 -4.821998242e+001 -1.8424e+000 -1.0073e+000 -2.2353e+000 +2.1281e-001 -3.5896e+000
29420 0 +8.830361686e-006 -4.821999117e+001 -4.821999117e+001 -1.8423e+000 -1.0072e+000 -2.2353e+000 +2.1276e-001 -3.5896e+000
29426 0 +8.923700818e-007 -4.821999911e+001 -4.821999911e+001 -1.8424e+000 -1.0072e+000 -2.2352e+000 +2.1279e-001 -3.5896e+000
29594 0 +3.806244280e-007 -4.821999962e+001 -4.821999962e+001 -1.8424e+000 -1.0072e+000 -2.2352e+000 +2.1279e-001 -3.5896e+000
29620 0 +2.020925507e-007 -4.821999980e+001 -4.821999980e+001 -1.8424e+000 -1.0072e+000 -2.2352e+000 +2.1280e-001 -3.5896e+000
29642 0 +1.350676797e-007 -4.821999986e+001 -4.821999986e+001 -1.8424e+000 -1.0072e+000 -2.2352e+000 +2.1280e-001 -3.5896e+000
29652 0 +8.121989481e-008 -4.821999992e+001 -4.821999992e+001 -1.8424e+000 -1.0072e+000 -2.2352e+000 +2.1279e-001 -3.5896e+000
29720 0 +3.958729877e-008 -4.821999996e+001 -4.821999996e+001 -1.8424e+000 -1.0072e+000 -2.2352e+000 +2.1280e-001 -3.5896e+000
29723 0 +1.200452004e-008 -4.821999999e+001 -4.821999999e+001 -1.8424e+000 -1.0072e+000 -2.2352e+000 +2.1280e-001 -3.5896e+000
29751 0 +7.408274882e-009 -4.821999999e+001 -4.821999999e+001 -1.8424e+000 -1.0072e+000 -2.2352e+000 +2.1280e-001 -3.5896e+000
% f evaluations | g evaluations | best noise-free fitness - Fopt (2.547000000000e+001) + sum g_i+ | measured fitness | best measured fitness or single-digit g-values | x1 | x2...
1 0 +6.574034602e+002 +6.828734602e+002 +6.828734602e+002 +1.6438e+000 +3.3697e+000 +2.5542e+000 -6.5892e-002 -1.0773e+000
2 0 +1.784219709e+002 +2.038919709e+002 +2.038919709e+002 +2.3340e+000 +4.2977e-001 -9.9418e-002 -1.1262e+000 +2.1818e+000
5 0 +1.510198374e+002 +1.764898374e+002 +1.764898374e+002 +1.4455e+000 -1.3640e+000 -4.6132e+000 -2.1470e+000 +2.4831e+000
14 0 +7.926120872e+001 +1.047312087e+002 +1.047312087e+002 -3.6050e+000 +3.2921e-001 -3.6258e+000 -9.3736e-001 -3.6594e+000
21 0 +7.480487724e+001 +1.002748772e+002 +1.002748772e+002 -2.3445e+000 -1.4860e+000 -2.4635e+000 -2.7024e+000 +2.0764e+000
63 0 +6.310931722e+001 +8.857931722e+001 +8.857931722e+001 -2.7673e+000 -1.2531e+000 -3.1567e+000 -4.6362e+000 +3.0436e-001
83 0 +5.771048571e+001 +8.318048571e+001 +8.318048571e+001 -3.4092e+000 -2.0386e+000 -1.8887e+000 -3.4710e+000 +1.5054e+000
96 0 +5.281586589e+001 +7.828586589e+001 +7.828586589e+001 -1.4725e+000 -1.3980e+000 -4.0744e-001 -2.7318e+000 +1.7467e+000
190 0 +3.730092866e+001 +6.277092866e+001 +6.277092866e+001 -2.7713e+000 -1.7264e+000 -2.1327e+000 -1.6689e+000 -1.3640e-001
355 0 +2.450730989e+001 +4.997730989e+001 +4.997730989e+001 -2.9290e+000 -1.5403e+000 -2.0792e+000 -2.7206e+000 +5.7618e-002
486 0 +1.251906538e+001 +3.798906538e+001 +3.798906538e+001 -2.8920e+000 -1.5802e+000 -2.0895e+000 -2.7256e+000 -5.4417e-002
602 0 +1.215618641e+001 +3.762618641e+001 +3.762618641e+001 -2.7838e+000 -1.5350e+000 -2.1149e+000 -2.7249e+000 -1.0579e-001
803 0 +1.095519295e+001 +3.642519295e+001 +3.642519295e+001 -2.8064e+000 -1.5853e+000 -2.1204e+000 -2.7206e+000 -7.7060e-002
972 0 +1.066983802e+001 +3.613983802e+001 +3.613983802e+001 -2.8022e+000 -1.5808e+000 -2.1222e+000 -2.7084e+000 -8.4189e-002
1150 0 +1.032154453e+001 +3.579154453e+001 +3.579154453e+001 -2.8070e+000 -1.5471e+000 -2.1408e+000 -2.7170e+000 -1.0772e-001
1189 0 +1.013974361e+001 +3.560974361e+001 +3.560974361e+001 -2.8153e+000 -1.5565e+000 -2.1356e+000 -2.7053e+000 -1.0561e-001
1338 0 +9.966663684e+000 +3.543666368e+001 +3.543666368e+001 -2.8381e+000 -1.5715e+000 -2.1343e+000 -2.7086e+000 -1.0971e-001
10650 0 +8.108691253e+000 +3.357869125e+001 +3.357869125e+001 -2.4765e+000 -1.3074e+000 -1.6093e+000 -2.1923e+000 -1.3333e+000
11575 0 +6.287362028e+000 +3.175736203e+001 +3.175736203e+001 -2.5060e+000 -1.2991e+000 -1.6321e+000 -2.1907e+000 -1.3590e+000
11667 0 +4.212856858e+000 +2.968285686e+001 +2.968285686e+001 -2.4806e+000 -1.2885e+000 -1.6602e+000 -2.2070e+000 -1.3434e+000
11851 0 +4.137284986e+000 +2.960728499e+001 +2.960728499e+001 -2.4515e+000 -1.2692e+000 -1.6780e+000 -2.2076e+000 -1.3452e+000
11883 0 +3.765363515e+000 +2.923536351e+001 +2.923536351e+001 -2.4573e+000 -1.2890e+000 -1.6794e+000 -2.2056e+000 -1.3386e+000
11896 0 +3.637183817e+000 +2.910718382e+001 +2.910718382e+001 -2.4529e+000 -1.2833e+000 -1.6817e+000 -2.2093e+000 -1.3371e+000
11902 0 +3.537846874e+000 +2.900784687e+001 +2.900784687e+001 -2.4523e+000 -1.2830e+000 -1.6825e+000 -2.2093e+000 -1.3405e+000
11973 0 +3.356678954e+000 +2.882667895e+001 +2.882667895e+001 -2.4518e+000 -1.2880e+000 -1.6781e+000 -2.2138e+000 -1.3400e+000
11988 0 +3.307428838e+000 +2.877742884e+001 +2.877742884e+001 -2.4364e+000 -1.2896e+000 -1.6828e+000 -2.2153e+000 -1.3393e+000
12056 0 +3.153858467e+000 +2.862385847e+001 +2.862385847e+001 -2.4356e+000 -1.2856e+000 -1.7030e+000 -2.2184e+000 -1.3520e+000
12086 0 +3.081483537e+000 +2.855148354e+001 +2.855148354e+001 -2.4298e+000 -1.2979e+000 -1.7019e+000 -2.2246e+000 -1.3469e+000
12101 0 +3.004667893e+000 +2.847466789e+001 +2.847466789e+001 -2.4351e+000 -1.2980e+000 -1.7013e+000 -2.2244e+000 -1.3395e+000
33640 0 +2.942564224e+000 +2.841256422e+001 +2.841256422e+001 -3.4121e+000 -1.4703e+000 -1.1914e+000 -2.3630e+000 -1.5224e+000
33665 0 +2.564778699e+000 +2.803477870e+001 +2.803477870e+001 -3.3997e+000 -1.4720e+000 -1.1923e+000 -2.3632e+000 -1.5208e+000
33674 0 +2.085993185e+000 +2.755599318e+001 +2.755599318e+001 -3.3862e+000 -1.4705e+000 -1.1981e+000 -2.3610e+000 -1.5178e+000
33697 0 +1.720576354e+000 +2.719057635e+001 +2.719057635e+001 -3.3595e+000 -1.4714e+000 -1.2037e+000 -2.3609e+000 -1.5163e+000
33709 0 +1.334097149e+000 +2.680409715e+001 +2.680409715e+001 -3.3516e+000 -1.4671e+000 -1.2136e+000 -2.3642e+000 -1.4935e+000
33755 0 +1.158630589e+000 +2.662863059e+001 +2.662863059e+001 -3.3160e+000 -1.4467e+000 -1.2266e+000 -2.3701e+000 -1.5031e+000
33759 0 +1.087091163e+000 +2.655709116e+001 +2.655709116e+001 -3.3143e+000 -1.4518e+000 -1.2260e+000 -2.3642e+000 -1.4855e+000
33771 0 +1.063446432e+000 +2.653344643e+001 +2.653344643e+001 -3.3147e+000 -1.4487e+000 -1.2265e+000 -2.3630e+000 -1.4822e+000
33809 0 +1.011850573e+000 +2.648185057e+001 +2.648185057e+001 -3.3192e+000 -1.4448e+000 -1.2185e+000 -2.3635e+000 -1.4920e+000
33816 0 +9.969353412e-001 +2.646693534e+001 +2.646693534e+001 -3.3148e+000 -1.4430e+000 -1.2214e+000 -2.3651e+000 -1.4870e+000
% f evaluations | g evaluations | best noise-free fitness - Fopt (-1.008100000000e+002) + sum g_i+ | measured fitness | best measured fitness or single-digit g-values | x1 | x2...
1 0 +5.292937354e+002 +4.284837354e+002 +4.284837354e+002 -2.6673e+000 +6.8383e-001 +3.5299e+000 +8.4469e-001 -4.9413e+000
2 0 +1.250145208e+002 +2.420452078e+001 +2.420452078e+001 +2.8749e+000 -1.9867e+000 +4.6669e-001 +3.7225e+000 +3.3735e+000
18 0 +7.066920348e+001 -3.014079652e+001 -3.014079652e+001 +3.6176e-001 +6.4490e-002 +4.1446e-001 +1.5855e+000 +3.1516e-001
21 0 +5.975069315e+001 -4.105930685e+001 -4.105930685e+001 +3.8587e-001 +7.9315e-001 +3.5940e-001 +1.6531e+000 +3.9103e-001
57 0 +4.285149442e+001 -5.795850558e+001 -5.795850558e+001 +7.2490e-001 +4.4562e-001 +8.8410e-001 -1.1151e+000 +1.9819e+000
61 0 +3.539034908e+001 -6.541965092e+001 -6.541965092e+001 +7.1748e-001 +4.1851e-001 +9.0969e-001 -1.1332e+000 +1.9693e+000
93 0 +3.028140535e+001 -7.052859465e+001 -7.052859465e+001 -2.0634e-001 +3.5201e-001 +9.4859e-001 +2.1096e+000 +1.1910e+000
254 0 +2.982652079e+001 -7.098347921e+001 -7.098347921e+001 +8.2235e-001 +1.3054e+000 +1.4465e-001 -8.3843e-002 +1.6840e+000
580 0 +2.423646267e+001 -7.657353733e+001 -7.657353733e+001 +7.8628e-001 +3.9165e-001 +1.2983e+000 +4.2343e-001 +2.0176e+000
696 0 +2.234365297e+001 -7.846634703e+001 -7.846634703e+001 +7.6452e-001 +3.8873e-001 +1.2989e+000 +4.1194e-001 +2.0469e+000
706 0 +2.152200313e+001 -7.928799687e+001 -7.928799687e+001 +7.5463e-001 -3.1783e-002 +1.5124e+000 +4.0532e-001 +2.4014e+000
734 0 +2.030581688e+001 -8.050418312e+001 -8.050418312e+001 +7.2099e-001 -3.6291e-002 +1.5134e+000 +3.8756e-001 +2.4466e+000
743 0 +1.287843038e+001 -8.793156962e+001 -8.793156962e+001 +6.9367e-001 -4.4047e-002 +1.5953e+000 +3.6902e-001 +2.4540e+000
779 0 +1.106501856e+001 -8.974498144e+001 -8.974498144e+001 +6.9071e-001 -6.9029e-002 +1.6169e+000 +3.3947e-001 +2.4620e+000
783 0 +9.459842741e+000 -9.135015726e+001 -9.135015726e+001 +5.4419e-001 -9.8051e-001 +6.1145e-001 +1.2608e+000 +2.0420e+000
879 0 +7.329481718e+000 -9.348051828e+001 -9.348051828e+001 +6.0757e-001 -6.9029e-002 +1.6169e+000 +2.7173e-001 +2.4773e+000
999 0 +6.962780622e+000 -9.384721938e+001 -9.384721938e+001 +6.5458e-001 -7.2693e-002 +1.6258e+000 +2.5710e-001 +2.4873e+000
1037 0 +6.834088936e+000 -9.397591106e+001 -9.397591106e+001 +6.5714e-001 -7.1256e-002 +1.6238e+000 +2.6463e-001 +2.4856e+000
1115 0 +6.729263543e+000 -9.408073646e+001 -9.408073646e+001 +6.7520e-001 -1.0966e-001 +1.5793e+000 +2.9343e-001 +2.5007e+000
1130 0 +4.612519214e+000 -9.619748079e+001 -9.619748079e+001 +6.3695e-001 -7.1580e-002 +1.6077e+000 +2.7446e-001 +2.4991e+000
1180 0 +4.407398124e+000 -9.640260188e+001 -9.640260188e+001 +6.5906e-001 -4.3033e-002 +1.5945e+000 +2.8063e-001 +2.5064e+000
1185 0 +4.205077738e+000 -9.660492226e+001 -9.660492226e+001 +6.8246e-001 -1.1729e-002 +1.6148e+000 +2.7677e-001 +2.5013e+000
1259 0 +3.865044861e+000 -9.694495514e+001 -9.694495514e+001 +6.6728e-001 -2.4792e-002 +1.6216e+000 +2.7281e-001 +2.5169e+000
1279 0 +3.702510172e+000 -9.710748983e+001 -9.710748983e+001 +6.6535e-001 -2.0516e-002 +1.6225e+000 +2.7192e-001 +2.5233e+000
1280 0 +3.476798160e+000 -9.733320184e+001 -9.733320184e+001 +6.6113e-001 -2.8341e-002 +1.6153e+000 +2.7428e-001 +2.5304e+000
1284 0 +3.302260168e+000 -9.750773983e+001 -9.750773983e+001 +6.8600e-001 +1.1754e-004 +1.6266e+000 +2.6395e-001 +2.5616e+000
1285 0 +3.035967146e+000 -9.777403285e+001 -9.777403285e+001 +6.8246e-001 -1.4002e-003 +1.6327e+000 +2.5763e-001 +2.5763e+000
1286 0 +2.834580176e+000 -9.797541982e+001 -9.797541982e+001 +6.8357e-001 -2.4301e-002 +1.6302e+000 +2.5695e-001 +2.5695e+000
1330 0 +2.748139849e+000 -9.806186015e+001 -9.806186015e+001 +6.6113e-001 -4.3222e-002 +1.6298e+000 +2.5408e-001 +2.5677e+000
1333 0 +2.664055134e+000 -9.814594487e+001 -9.814594487e+001 +6.6637e-001 -4.0580e-002 +1.6332e+000 +2.4914e-001 +2.5818e+000
1349 0 +2.486301376e+000 -9.832369862e+001 -9.832369862e+001 +6.6329e-001 -2.9796e-002 +1.6340e+000 +2.4912e-001 +2.5847e+000
1358 0 +2.451990261e+000 -9.835800974e+001 -9.835800974e+001 +6.6525e-001 -2.8091e-002 +1.6350e+000 +2.4519e-001 +2.5933e+000
1378 0 +2.390665462e+000 -9.841933454e+001 -9.841933454e+001 +6.5787e-001 -2.2854e-002 +1.6411e+000 +2.3835e-001 +2.5986e+000
1392 0 +2.319305136e+000 -9.849069486e+001 -9.849069486e+001 +6.5232e-001 -1.6367e-002 +1.6282e+000 +2.4611e-001 +2.5766e+000
1398 0 +2.280813026e+000 -9.852918697e+001 -9.852918697e+001 +6.5494e-001 -1.6661e-002 +1.6303e+000 +2.4663e-001 +2.5767e+000
1427 0 +2.079464283e+000 -9.873053572e+001 -9.873053572e+001 +6.5801e-001 -2.4429e-002 +1.6284e+000 +2.3795e-001 +2.5728e+000
1498 0 +2.027014814e+000 -9.878298519e+001 -9.878298519e+001 +6.5346e-001 -1.3878e-002 +1.6361e+000 +2.2451e-001 +2.5871e+000
1664 0 +1.992008746e+000 -9.881799125e+001 -9.881799125e+001 +6.5497e-001 -1.4696e-002 +1.6316e+000 +2.2869e-001 +2.5797e+000
% f evaluations | g evaluations | best noise-free fitness - Fopt (-3.531300000000e+002) + sum g_i+ | measured fitness | best measured fitness or single-digit g-values | x1 | x2...
1 0 +2.793619226e+002 -7.376807736e+001 -7.376807736e+001 -6.0088e-001 -8.8132e-001 -4.8621e+000 +3.0393e+000 -4.1955e+000
5 0 +2.733739185e+002 -7.975608147e+001 -7.975608147e+001 -2.6849e+000 +4.6514e+000 +8.6171e-001 -2.1378e+000 +1.9363e+000
6 0 +1.805471707e+002 -1.725828293e+002 -1.725828293e+002 -1.1935e+000 +2.9131e+000 +1.9527e+000 -4.2891e+000 -1.2343e+000
12 0 +1.248335710e+002 -2.282964290e+002 -2.282964290e+002 -2.4030e+000 +9.2106e-001 -1.0147e+000 -2.9246e+000 -5.0000e+000
15 0 +5.580322109e+001 -2.973267789e+002 -2.973267789e+002 -3.6708e+000 +1.0087e+000 -2.2812e+000 -1.5955e+000 -6.1811e-001
60 0 +4.686861983e+001 -3.062613802e+002 -3.062613802e+002 -3.6671e+000 +8.0171e-001 -2.2185e+000 -1.6960e+000 -6.2563e-001
83 0 +2.776681390e+001 -3.253631861e+002 -3.253631861e+002 -3.9641e+000 +9.2438e-001 -2.4659e+000 -1.7095e+000 -6.1389e-001
174 0 +1.346895227e+001 -3.396610477e+002 -3.396610477e+002 -1.5682e+000 +1.1623e+000 -1.4050e+000 -4.2150e+000 +1.0162e+000
513 0 +1.232302244e+001 -3.408069776e+002 -3.408069776e+002 -1.5060e+000 +1.1673e+000 -1.3792e+000 -4.1542e+000 +1.1196e+000
531 0 +1.212480219e+001 -3.410051978e+002 -3.410051978e+002 -1.5250e+000 +1.1664e+000 -1.3689e+000 -4.2428e+000 +1.0584e+000
629 0 +1.196985713e+001 -3.411601429e+002 -3.411601429e+002 -1.5377e+000 +1.1721e+000 -1.3323e+000 -4.2205e+000 +1.0313e+000
640 0 +1.009169360e+001 -3.430383064e+002 -3.430383064e+002 -1.5462e+000 +1.1257e+000 -1.3121e+000 -4.2291e+000 +1.0126e+000
690 0 +9.807902256e+000 -3.433220977e+002 -3.433220977e+002 -1.5603e+000 +1.1316e+000 -1.3150e+000 -4.2327e+000 +1.0064e+000
922 0 +9.408893654e+000 -3.437211063e+002 -3.437211063e+002 -1.5604e+000 +1.1457e+000 -1.3087e+000 -4.1764e+000 +1.0361e+000
1028 0 +8.950033202e+000 -3.441799668e+002 -3.441799668e+002 -1.5805e+000 +1.1334e+000 -1.2777e+000 -4.2130e+000 +1.0128e+000
1156 0 +8.877946931e+000 -3.442520531e+002 -3.442520531e+002 -1.5700e+000 +1.1326e+000 -1.2783e+000 -4.1898e+000 +1.0183e+000
1230 0 +8.708511249e+000 -3.444214888e+002 -3.444214888e+002 -1.5782e+000 +1.1417e+000 -1.2681e+000 -4.1852e+000 +1.0171e+000
1566 0 +8.393572152e+000 -3.447364278e+002 -3.447364278e+002 -1.5708e+000 +1.1518e+000 -1.2605e+000 -4.1814e+000 +1.0385e+000
1623 0 +8.310783450e+000 -3.448192165e+002 -3.448192165e+002 -1.5751e+000 +1.1493e+000 -1.2596e+000 -4.1680e+000 +1.0424e+000
1743 0 +8.106435752e+000 -3.450235642e+002 -3.450235642e+002 -1.5798e+000 +1.1526e+000 -1.2434e+000 -4.1793e+000 +1.0810e+000
1803 0 +7.320149788e+000 -3.458098502e+002 -3.458098502e+002 -1.5885e+000 +1.1781e+000 -1.1970e+000 -4.1687e+000 +1.1183e+000
1881 0 +7.219102008e+000 -3.459108980e+002 -3.459108980e+002 -1.5856e+000 +1.1918e+000 -1.2409e+000 -4.1652e+000 +1.1470e+000
1891 0 +7.066393628e+000 -3.460636064e+002 -3.460636064e+002 -1.5918e+000 +1.1974e+000 -1.2173e+000 -4.1625e+000 +1.1618e+000
7909 0 +6.683387197e+000 -3.464466128e+002 -3.464466128e+002 -1.8589e+000 +9.2135e-002 -1.9602e+000 -3.8873e+000 +2.3632e-002
7927 0 +6.332947990e+000 -3.467970520e+002 -3.467970520e+002 -1.8584e+000 +9.1310e-002 -1.9712e+000 -3.8622e+000 +5.2102e-002
8094 0 +5.241045380e+000 -3.478889546e+002 -3.478889546e+002 -1.8523e+000 +8.9678e-002 -1.9721e+000 -3.8692e+000 +1.8555e-002
8187 0 +4.891958526e+000 -3.482380415e+002 -3.482380415e+002 -1.8521e+000 +8.2614e-002 -2.0151e+000 -3.8814e+000 +1.9853e-002
8194 0 +4.701297998e+000 -3.484287020e+002 -3.484287020e+002 -1.8523e+000 +1.0214e-001 -2.0070e+000 -3.8856e+000 +6.4067e-003
8199 0 +3.433854532e+000 -3.496961455e+002 -3.496961455e+002 -1.8454e+000 +1.1880e-001 -2.0398e+000 -3.8717e+000 -6.4616e-002
8218 0 +2.409217031e+000 -3.507207830e+002 -3.507207830e+002 -1.8345e+000 +1.0947e-001 -2.0011e+000 -3.8696e+000 -4.8094e-002
8242 0 +2.319243822e+000 -3.508107562e+002 -3.508107562e+002 -1.8436e+000 +9.8631e-002 -2.0136e+000 -3.8690e+000 -5.5017e-002
8329 0 +2.199598119e+000 -3.509304019e+002 -3.509304019e+002 -1.8787e+000 +1.0905e-001 -2.0221e+000 -3.8483e+000 -8.9233e-002
8338 0 +2.163818020e+000 -3.509661820e+002 -3.509661820e+002 -1.8676e+000 +1.0828e-001 -2.0363e+000 -3.8359e+000 -9.7786e-002
8426 0 +2.078049549e+000 -3.510519505e+002 -3.510519505e+002 -1.8565e+000 +1.0666e-001 -2.0147e+000 -3.8425e+000 -8.2317e-002
8460 0 +2.011905547e+000 -3.511180945e+002 -3.511180945e+002 -1.8553e+000 +1.0416e-001 -2.0221e+000 -3.8429e+000 -7.1030e-002
8614 0 +1.994541748e+000 -3.511354583e+002 -3.511354583e+002 -1.8590e+000 +1.0532e-001 -2.0223e+000 -3.8362e+000 -7.0457e-002
28857 0 +1.787205049e+000 -3.513427950e+002 -3.513427950e+002 -2.2295e+000 +4.6508e-001 -2.5474e+000 -3.7324e+000 -7.1081e-001
28906 0 +1.461517427e+000 -3.516684826e+002 -3.516684826e+002 -2.2275e+000 +4.7250e-001 -2.5424e+000 -3.7369e+000 -7.0952e-001
29095 0 +1.387920688e+000 -3.517420793e+002 -3.517420793e+002 -2.2283e+000 +4.7450e-001 -2.5425e+000 -3.7426e+000 -7.2217e-001
29106 0 +1.373239795e+000 -3.517567602e+002 -3.517567602e+002 -2.2282e+000 +4.6856e-001 -2.5424e+000 -3.7453e+000 -7.1593e-001
29138 0 +1.306629980e+000 -3.518233700e+002 -3.518233700e+002 -2.2342e+000 +4.7049e-001 -2.5334e+000 -3.7449e+000 -7.2042e-001
29142 0 +1.285603498e+000 -3.518443965e+002 -3.518443965e+002 -2.2343e+000 +4.7067e-001 -2.5333e+000 -3.7462e+000 -7.2094e-001
29143 0 +1.242505792e+000 -3.518874942e+002 -3.518874942e+002 -2.2354e+000 +4.7589e-001 -2.5418e+000 -3.7406e+000 -7.2498e-001
29144 0 +1.230233575e+000 -3.518997664e+002 -3.518997664e+002 -2.2356e+000 +4.7548e-001 -2.5418e+000 -3.7409e+000 -7.2532e-001
29145 0 +1.173467986e+000 -3.519565320e+002 -3.519565320e+002 -2.2330e+000 +4.7616e-001 -2.5388e+000 -3.7457e+000 -7.1077e-001
29167 0 +1.065074499e+000 -3.520649255e+002 -3.520649255e+002 -2.2382e+000 +4.7661e-001 -2.5477e+000 -3.7489e+000 -7.1025e-001
29229 0 +1.042780178e+000 -3.520872198e+002 -3.520872198e+002 -2.2410e+000 +4.7519e-001 -2.5435e+000 -3.7502e+000 -7.0536e-001
29242 0 +1.018806111e+000 -3.521111939e+002 -3.521111939e+002 -2.2419e+000 +4.7383e-001 -2.5439e+000 -3.7504e+000 -7.1042e-001
29341 0 +9.999106799e-001 -3.521300893e+002 -3.521300893e+002 -2.2447e+000 +4.7311e-001 -2.5467e+000 -3.7495e+000 -7.1784e-001
% f evaluations | g evaluations | best noise-free fitness - Fopt (8.716000000000e+001) + sum g_i+ | measured fitness | best measured fitness or single-digit g-values | x1 | x2...
1 0 +9.291119617e+002 +1.016271962e+003 +1.016271962e+003 -4.5991e+000 -4.8834e-001 +2.4386e+000 -4.0966e+000 -2.4975e+000
2 0 +3.671635669e+002 +4.543235669e+002 +4.543235669e+002 -4.8715e+000 +3.9293e-001 +1.9360e+000 +8.9500e-001 +7.3566e-001
6 0 +3.258635567e+002 +4.130235567e+002 +4.130235567e+002 -4.7698e+000 +2.8025e+000 -1.1001e+000 +4.4366e+000 -6.8687e-001
10 0 +1.622135680e+002 +2.493735680e+002 +2.493735680e+002 -3.3279e+000 +2.8558e+000 -2.9178e+000 +3.5558e-001 +3.5245e-001
12 0 +9.576464394e+001 +1.829246439e+002 +1.829246439e+002 -7.9362e-001 +4.7979e-001 -8.1956e-001 +5.0000e+000 +5.0000e+000
43 0 +6.569189398e+001 +1.528518940e+002 +1.528518940e+002 +7.6802e-001 -2.5929e-002 -3.7130e+000 +4.7256e+000 +6.8030e-001
59 0 +3.438069731e+001 +1.215406973e+002 +1.215406973e+002 +5.8261e-001 -1.3541e-001 -3.7324e+000 +4.8911e+000 +6.5540e-001
66 0 +2.669211690e+001 +1.138521169e+002 +1.138521169e+002 +5.6217e-001 -1.5793e-001 -3.6892e+000 +4.9847e+000 +6.5645e-001
241 0 +2.568464584e+001 +1.128446458e+002 +1.128446458e+002 +5.4175e-001 -1.7463e-001 -3.6876e+000 +4.9999e+000 +7.1675e-001
266 0 +2.142900400e+001 +1.085890040e+002 +1.085890040e+002 +5.2141e-001 -1.0719e-001 -3.6892e+000 +4.9847e+000 +7.0618e-001
316 0 +2.119103353e+001 +1.083510335e+002 +1.083510335e+002 +5.1235e-001 -1.0595e-001 -3.6892e+000 +4.9847e+000 +8.2883e-001
350 0 +2.044039286e+001 +1.076003929e+002 +1.076003929e+002 +5.4119e-001 -1.1724e-001 -3.6849e+000 +4.9937e+000 +8.2207e-001
379 0 +2.028892261e+001 +1.074489226e+002 +1.074489226e+002 +5.2937e-001 -6.1402e-002 -3.6503e+000 +4.9201e+000 +8.1836e-001
408 0 +1.928716154e+001 +1.064471615e+002 +1.064471615e+002 +5.3495e-001 -1.2348e-001 -3.6661e+000 +5.0000e+000 +8.1229e-001
504 0 +1.903064585e+001 +1.061906458e+002 +1.061906458e+002 +5.4574e-001 -1.1940e-001 -3.6661e+000 +4.9998e+000 +8.0992e-001
554 0 +1.841059455e+001 +1.055705946e+002 +1.055705946e+002 +5.5248e-001 -1.1726e-001 -3.6552e+000 +4.9997e+000 +8.0893e-001
564 0 +1.751690234e+001 +1.046769023e+002 +1.046769023e+002 +5.5279e-001 -1.1526e-001 -3.5869e+000 +4.9999e+000 +8.1124e-001
604 0 +1.737561034e+001 +1.045356103e+002 +1.045356103e+002 +5.6345e-001 -1.0504e-001 -3.6138e+000 +4.9997e+000 +8.3132e-001
733 0 +1.696063107e+001 +1.041206311e+002 +1.041206311e+002 +5.6614e-001 -1.0813e-001 -3.6033e+000 +4.9849e+000 +8.0886e-001
820 0 +1.638972640e+001 +1.035497264e+002 +1.035497264e+002 +5.6946e-001 -7.2029e-002 -3.6246e+000 +4.9736e+000 +7.8508e-001
827 0 +1.615482570e+001 +1.033148257e+002 +1.033148257e+002 +5.6482e-001 -6.6148e-002 -3.5956e+000 +4.9560e+000 +7.7522e-001
6583 0 +1.507858923e+001 +1.022385892e+002 +1.022385892e+002 +1.8323e+000 +8.2622e-001 -3.1747e+000 +3.7100e+000 +6.3941e-001
6701 0 +1.318572197e+001 +1.003457220e+002 +1.003457220e+002 +1.9235e+000 +8.8503e-001 -3.2019e+000 +3.7852e+000 +5.4336e-001
6758 0 +1.220130447e+001 +9.936130447e+001 +9.936130447e+001 +1.9127e+000 +9.1398e-001 -3.2095e+000 +3.7879e+000 +5.5252e-001
6817 0 +1.089867095e+001 +9.805867095e+001 +9.805867095e+001 +1.9197e+000 +8.5831e-001 -3.1889e+000 +3.7625e+000 +5.7823e-001
6854 0 +8.583946574e+000 +9.574394657e+001 +9.574394657e+001 +1.9830e+000 +8.8446e-001 -3.1410e+000 +3.7363e+000 +5.3716e-001
6856 0 +5.753821549e+000 +9.291382155e+001 +9.291382155e+001 +1.9670e+000 +8.9898e-001 -3.1531e+000 +3.7281e+000 +5.4582e-001
6965 0 +4.839810375e+000 +9.199981038e+001 +9.199981038e+001 +1.9955e+000 +9.1216e-001 -3.1597e+000 +3.7066e+000 +5.4209e-001
6979 0 +4.752122680e+000 +9.191212268e+001 +9.191212268e+001 +1.9968e+000 +9.1659e-001 -3.1587e+000 +3.7055e+000 +5.3521e-001
7030 0 +4.541003551e+000 +9.170100355e+001 +9.170100355e+001 +1.9984e+000 +9.2781e-001 -3.1504e+000 +3.7011e+000 +5.3078e-001
7106 0 +4.222066179e+000 +9.138206618e+001 +9.138206618e+001 +1.9917e+000 +9.2535e-001 -3.1489e+000 +3.6888e+000 +5.2953e-001
7132 0 +3.375308440e+000 +9.053530844e+001 +9.053530844e+001 +1.9637e+000 +9.3450e-001 -3.1614e+000 +3.7014e+000 +5.3416e-001
7231 0 +2.729053373e+000 +8.988905337e+001 +8.988905337e+001 +1.9343e+000 +9.3778e-001 -3.1668e+000 +3.6748e+000 +5.4857e-001
7254 0 +2.662606020e+000 +8.982260602e+001 +8.982260602e+001 +1.9369e+000 +9.4531e-001 -3.1590e+000 +3.6717e+000 +5.3906e-001
7276 0 +2.487266323e+000 +8.964726632e+001 +8.964726632e+001 +1.9291e+000 +9.4932e-001 -3.1648e+000 +3.6699e+000 +5.3448e-001
7361 0 +2.445449585e+000 +8.960544959e+001 +8.960544959e+001 +1.9266e+000 +9.5084e-001 -3.1645e+000 +3.6659e+000 +5.3361e-001
7380 0 +2.347627599e+000 +8.950762760e+001 +8.950762760e+001 +1.9291e+000 +9.4931e-001 -3.1851e+000 +3.6699e+000 +5.2413e-001
7398 0 +2.271602810e+000 +8.943160281e+001 +8.943160281e+001 +1.9266e+000 +9.5083e-001 -3.1866e+000 +3.6628e+000 +5.1793e-001
7429 0 +2.226231186e+000 +8.938623119e+001 +8.938623119e+001 +1.9320e+000 +9.5008e-001 -3.1702e+000 +3.6677e+000 +5.1803e-001
7431 0 +2.139376854e+000 +8.929937685e+001 +8.929937685e+001 +1.9361e+000 +9.5102e-001 -3.1714e+000 +3.6606e+000 +5.1792e-001
7435 0 +2.114250129e+000 +8.927425013e+001 +8.927425013e+001 +1.9301e+000 +9.5234e-001 -3.1746e+000 +3.6624e+000 +5.0975e-001
7438 0 +2.064874100e+000 +8.922487410e+001 +8.922487410e+001 +1.9310e+000 +9.7042e-001 -3.1753e+000 +3.6637e+000 +5.0103e-001
7465 0 +2.016236701e+000 +8.917623670e+001 +8.917623670e+001 +1.9385e+000 +9.7093e-001 -3.1748e+000 +3.6603e+000 +4.9745e-001
7611 0 +1.992137810e+000 +8.915213781e+001 +8.915213781e+001 +1.9357e+000 +9.6697e-001 -3.1736e+000 +3.6573e+000 +4.9860e-001
% f evaluations | g evaluations | best noise-free fitness - Fopt (-3.475000000000e+001) + sum g_i+ | measured fitness | best measured fitness or single-digit g-values | x1 | x2...
1 0 +6.626428063e+002 +6.278928063e+002 +6.278928063e+002 +7.3658e-001 +2.9894e-001 +4.0421e+000 -2.9255e+000 +2.8323e+000
2 0 +3.156580634e+002 +2.809080634e+002 +2.809080634e+002 -3.1124e-001 -4.6009e+000 -2.7438e+000 +1.2358e+000 -8.8989e-001
4 0 +2.033803746e+002 +1.686303746e+002 +1.686303746e+002 -2.8645e+000 +3.1625e+000 +2.5639e+000 -2.9961e-001 -1.2973e-001
6 0 +1.811933029e+002 +1.464433029e+002 +1.464433029e+002 -2.7456e-001 -3.7442e+000 -2.6060e+000 +1.2791e+000 -2.9994e+000
12 0 +1.717680663e+002 +1.370180663e+002 +1.370180663e+002 -1.0082e+000 +5.0000e+000 +5.0000e+000 +1.3642e+000 -5.0000e+000
16 0 +9.898548667e+001 +6.423548667e+001 +6.423548667e+001 +4.6390e-001 -1.0582e+000 -5.7895e-001 +3.5077e+000 -7.3167e-001
44 0 +6.586792414e+001 +3.111792414e+001 +3.111792414e+001 +1.5154e+000 +1.4603e+000 +2.6526e+000 +3.5677e+000 -8.9351e-001
72 0 +5.426318060e+001 +1.951318060e+001 +1.951318060e+001 -5.4105e-002 +3.3050e+000 +1.2157e-001 +2.5309e+000 -2.4206e+000
73 0 +3.171528815e+001 -3.034711849e+000 -3.034711849e+000 +1.8366e+000 +2.1567e+000 -3.0201e-002 +3.9326e+000 -2.2418e+000
261 0 +2.621358688e+001 -8.536413121e+000 -8.536413121e+000 +1.6079e+000 +1.8712e+000 -2.1485e-002 +4.0978e+000 -2.3258e+000
302 0 +2.261622770e+001 -1.213377230e+001 -1.213377230e+001 +2.2369e+000 +2.6460e+000 -2.7527e-001 +4.1638e+000 -2.0042e+000
641 0 +2.219042927e+001 -1.255957073e+001 -1.255957073e+001 +2.2375e+000 +2.6489e+000 -2.7582e-001 +4.1651e+000 -2.0027e+000
734 0 +1.842623813e+001 -1.632376187e+001 -1.632376187e+001 +2.1954e+000 +2.7943e+000 -1.7029e-001 +4.2173e+000 -2.0031e+000
815 0 +1.760027913e+001 -1.714972087e+001 -1.714972087e+001 +2.3103e+000 +2.8454e+000 -1.7004e-001 +2.8796e+000 -2.0240e+000
823 0 +1.484819883e+001 -1.990180117e+001 -1.990180117e+001 +3.0626e+000 +3.6562e+000 -6.9089e-001 +3.4750e+000 -1.8925e+000
831 0 +8.574482347e+000 -2.617551765e+001 -2.617551765e+001 +2.9444e+000 +3.6095e+000 -6.6510e-001 +3.4280e+000 -1.7622e+000
892 0 +8.100089693e+000 -2.664991031e+001 -2.664991031e+001 +2.9649e+000 +3.6273e+000 -6.4835e-001 +3.4114e+000 -1.7770e+000
1035 0 +7.942210817e+000 -2.680778918e+001 -2.680778918e+001 +2.9678e+000 +3.6301e+000 -6.9592e-001 +3.4074e+000 -1.7644e+000
1053 0 +6.407976382e+000 -2.834202362e+001 -2.834202362e+001 +2.9347e+000 +3.5771e+000 -6.5230e-001 +3.3881e+000 -1.7742e+000
1112 0 +6.238177434e+000 -2.851182257e+001 -2.851182257e+001 +2.9327e+000 +3.5757e+000 -6.5579e-001 +3.3949e+000 -1.7769e+000
1193 0 +5.472501268e+000 -2.927749873e+001 -2.927749873e+001 +3.0337e+000 +3.5669e+000 -7.1859e-001 +3.4221e+000 -1.7467e+000
1380 0 +5.368432118e+000 -2.938156788e+001 -2.938156788e+001 +3.0344e+000 +3.5710e+000 -7.1645e-001 +3.4161e+000 -1.7455e+000
1403 0 +5.197923348e+000 -2.955207665e+001 -2.955207665e+001 +3.0204e+000 +3.5711e+000 -7.1345e-001 +3.4118e+000 -1.7360e+000
1450 0 +5.114043673e+000 -2.963595633e+001 -2.963595633e+001 +3.0326e+000 +3.5763e+000 -7.1406e-001 +3.4168e+000 -1.7238e+000
1599 0 +5.007197806e+000 -2.974280219e+001 -2.974280219e+001 +3.0532e+000 +3.5946e+000 -7.4377e-001 +3.4120e+000 -1.7009e+000
6718 0 +4.846606032e+000 -2.990339397e+001 -2.990339397e+001 +2.8980e+000 +3.0705e+000 -7.6393e-001 +3.0567e+000 -2.1779e+000
6918 0 +4.626847382e+000 -3.012315262e+001 -3.012315262e+001 +2.8940e+000 +3.0659e+000 -7.6074e-001 +3.0572e+000 -2.1815e+000
7268 0 +4.549968000e+000 -3.020003200e+001 -3.020003200e+001 +2.8986e+000 +3.0651e+000 -7.6221e-001 +3.0574e+000 -2.1800e+000
7309 0 +4.443734854e+000 -3.030626515e+001 -3.030626515e+001 +2.9010e+000 +3.0665e+000 -7.6502e-001 +3.0591e+000 -2.1656e+000
7468 0 +3.507306744e+000 -3.124269326e+001 -3.124269326e+001 +2.9055e+000 +2.9957e+000 -7.0323e-001 +3.0732e+000 -2.1570e+000
7513 0 +2.478187875e+000 -3.227181212e+001 -3.227181212e+001 +2.9045e+000 +3.0144e+000 -7.4899e-001 +3.0932e+000 -2.1590e+000
7567 0 +2.413259041e+000 -3.233674096e+001 -3.233674096e+001 +2.9016e+000 +3.0221e+000 -7.5790e-001 +3.0782e+000 -2.1619e+000
7570 0 +2.197182694e+000 -3.255281731e+001 -3.255281731e+001 +2.8953e+000 +3.0060e+000 -7.5226e-001 +3.0787e+000 -2.1613e+000
7594 0 +2.154231248e+000 -3.259576875e+001 -3.259576875e+001 +2.8938e+000 +3.0059e+000 -7.6960e-001 +3.0809e+000 -2.1627e+000
7621 0 +2.097767996e+000 -3.265223200e+001 -3.265223200e+001 +2.8927e+000 +3.0031e+000 -7.7000e-001 +3.0807e+000 -2.1588e+000
7627 0 +2.071936192e+000 -3.267806381e+001 -3.267806381e+001 +2.8928e+000 +3.0003e+000 -7.6921e-001 +3.0811e+000 -2.1577e+000
7805 0 +2.018897284e+000 -3.273110272e+001 -3.273110272e+001 +2.8863e+000 +2.9911e+000 -7.6522e-001 +3.0819e+000 -2.1542e+000
8101 0 +1.995068050e+000 -3.275493195e+001 -3.275493195e+001 +2.8856e+000 +2.9883e+000 -7.7114e-001 +3.0794e+000 -2.1516e+000
% f evaluations | g evaluations | best noise-free fitness - Fopt (-1.000000000000e+003) + sum g_i+ | measured fitness | best measured fitness or single-digit g-values | x1 | x2...
1 0 +1.828230839e+002 -8.171769161e+002 -8.171769161e+002 -2.7148e+000 -1.3282e+000 -2.6059e+000 +5.7205e-001 -1.4154e+000
8 0 +9.561639065e+001 -9.043836093e+002 -9.043836093e+002 -3.7800e+000 -4.9936e+000 -2.8817e-001 +1.8947e-001 -6.7317e-001
48 0 +7.671249822e+001 -9.232875018e+002 -9.232875018e+002 -2.8546e+000 -2.0628e+000 +1.4873e+000 -2.5486e+000 +1.3046e+000
65 0 +5.834107164e+001 -9.416589284e+002 -9.416589284e+002 -3.2996e+000 -2.9259e+000 +4.0638e-001 -3.7973e+000 -2.3752e+000
77 0 +5.250177937e+001 -9.474982206e+002 -9.474982206e+002 -3.1056e+000 -2.2532e+000 -1.7621e+000 -2.5255e+000 -9.9043e-002
84 0 +4.652829412e+001 -9.534717059e+002 -9.534717059e+002 -3.3627e+000 -1.7651e+000 -9.0970e-001 -3.0748e+000 -9.0485e-001
164 0 +4.463442075e+001 -9.553655792e+002 -9.553655792e+002 -2.9660e+000 -2.8173e+000 +7.1637e-001 -3.9181e+000 -6.4261e-001
178 0 +4.045429947e+001 -9.595457005e+002 -9.595457005e+002 -3.0028e+000 -2.9451e+000 -6.2453e-001 -4.1598e+000 -1.0752e+000
225 0 +3.126926683e+001 -9.687307332e+002 -9.687307332e+002 -3.6379e+000 -3.0477e+000 -1.4198e-001 -4.1664e+000 -5.3895e-001
342 0 +2.774940328e+001 -9.722505967e+002 -9.722505967e+002 -3.6781e+000 -3.1012e+000 -1.7699e-001 -2.1364e+000 -6.7547e-001
345 0 +2.182319850e+001 -9.781768015e+002 -9.781768015e+002 -3.5569e+000 -3.1350e+000 +2.2668e-001 -1.0275e+000 -1.3951e+000
545 0 +1.639192695e+001 -9.836080731e+002 -9.836080731e+002 -3.7455e+000 -3.2347e+000 -4.7335e-003 -2.0739e+000 -7.8531e-001
582 0 +8.811104127e+000 -9.911888959e+002 -9.911888959e+002 -3.7870e+000 -3.2169e+000 -3.8217e-003 -2.0493e+000 -8.1721e-001
852 0 +7.097009202e+000 -9.929029908e+002 -9.929029908e+002 -3.8345e+000 -3.2368e+000 +4.1654e-002 -2.0592e+000 -8.4397e-001
873 0 +6.745807929e+000 -9.932541921e+002 -9.932541921e+002 -4.1314e+000 -3.3520e+000 +4.8783e-001 -1.5995e+000 -7.4924e-001
1019 0 +5.319590073e+000 -9.946804099e+002 -9.946804099e+002 -4.1381e+000 -3.3449e+000 +4.9486e-001 -1.6161e+000 -7.5133e-001
1181 0 +5.213381490e+000 -9.947866185e+002 -9.947866185e+002 -4.1379e+000 -3.3431e+000 +4.9829e-001 -1.6278e+000 -7.4902e-001
1194 0 +4.731896826e+000 -9.952681032e+002 -9.952681032e+002 -4.1440e+000 -3.3386e+000 +4.9703e-001 -1.6248e+000 -7.5374e-001
1201 0 +4.602449407e+000 -9.953975506e+002 -9.953975506e+002 -4.1505e+000 -3.3415e+000 +5.0466e-001 -1.6180e+000 -7.5443e-001
1246 0 +4.366575346e+000 -9.956334247e+002 -9.956334247e+002 -4.1678e+000 -3.3345e+000 +5.1435e-001 -1.6422e+000 -7.7140e-001
1275 0 +4.274999805e+000 -9.957250002e+002 -9.957250002e+002 -4.1700e+000 -3.3336e+000 +5.1357e-001 -1.6470e+000 -7.7220e-001
1284 0 +4.109130118e+000 -9.958908699e+002 -9.958908699e+002 -4.1645e+000 -3.3344e+000 +5.0707e-001 -1.6403e+000 -7.6798e-001
1347 0 +4.059816277e+000 -9.959401837e+002 -9.959401837e+002 -4.1638e+000 -3.3348e+000 +5.0676e-001 -1.6388e+000 -7.6143e-001
1363 0 +3.789607985e+000 -9.962103920e+002 -9.962103920e+002 -4.1677e+000 -3.3407e+000 +5.0125e-001 -1.6265e+000 -7.5776e-001
1374 0 +3.656377087e+000 -9.963436229e+002 -9.963436229e+002 -4.1701e+000 -3.3400e+000 +5.0168e-001 -1.6335e+000 -7.5917e-001
1379 0 +3.580790265e+000 -9.964192097e+002 -9.964192097e+002 -4.1844e+000 -3.3413e+000 +5.0009e-001 -1.6381e+000 -7.5959e-001
1380 0 +3.530711319e+000 -9.964692887e+002 -9.964692887e+002 -4.1660e+000 -3.3278e+000 +4.8442e-001 -1.6441e+000 -7.4817e-001
1393 0 +3.459068866e+000 -9.965409311e+002 -9.965409311e+002 -4.1768e+000 -3.3315e+000 +4.8295e-001 -1.6369e+000 -7.4594e-001
1430 0 +3.349459205e+000 -9.966505408e+002 -9.966505408e+002 -4.1774e+000 -3.3331e+000 +4.8313e-001 -1.6391e+000 -7.4171e-001
1439 0 +3.217925261e+000 -9.967820747e+002 -9.967820747e+002 -4.1738e+000 -3.3414e+000 +4.8287e-001 -1.6350e+000 -7.3470e-001
1451 0 +3.123573871e+000 -9.968764261e+002 -9.968764261e+002 -4.1729e+000 -3.3444e+000 +4.8269e-001 -1.6379e+000 -7.3664e-001
1530 0 +3.087657288e+000 -9.969123427e+002 -9.969123427e+002 -4.1753e+000 -3.3448e+000 +4.8583e-001 -1.6437e+000 -7.4418e-001
1559 0 +2.999622411e+000 -9.970003776e+002 -9.970003776e+002 -4.1761e+000 -3.3540e+000 +4.7705e-001 -1.6475e+000 -7.3371e-001
% f evaluations | g evaluations | best noise-free fitness - Fopt (-9.247000000000e+001) + sum g_i+ | measured fitness | best measured fitness or single-digit g-values | x1 | x2...
1 0 +5.074775664e+002 +4.150075664e+002 +4.150075664e+002 -2.7828e+000 -2.0124e+000 -3.9161e+000 +6.1326e-001 +4.0383e+000
2 0 +3.909940853e+002 +2.985240853e+002 +2.985240853e+002 -3.0065e+000 +1.9448e+000 +1.1962e+000 +1.6350e+000 +4.4945e-001
3 0 +3.778448628e+002 +2.853748628e+002 +2.853748628e+002 +4.7436e+000 -2.3534e+000 -3.5347e+000 -1.4217e+000 -4.0894e+000
5 0 +2.183766433e+002 +1.259066433e+002 +1.259066433e+002 +5.3084e-002 +2.2542e+000 +3.0916e-002 -1.3914e+000 -2.3035e-001
18 0 +1.035764288e+002 +1.110642885e+001 +1.110642885e+001 +1.9496e+000 +2.3669e-001 -1.0611e+000 -1.5973e+000 -5.7627e-001
19 0 +9.633561405e+001 +3.865614046e+000 +3.865614046e+000 -1.0245e-001 -1.2640e+000 +7.9437e-001 -5.1589e-001 -7.4415e-001
21 0 +8.767009872e+001 -4.799901281e+000 -4.799901281e+000 +1.3798e+000 -6.3521e-001 -3.2192e-001 -2.5940e+000 -5.9010e-001
36 0 +7.302040112e+001 -1.944959888e+001 -1.944959888e+001 +1.5454e+000 -5.9889e-001 +1.3111e-001 -1.5175e+000 -6.8962e-001
48 0 +6.810770576e+001 -2.436229424e+001 -2.436229424e+001 +2.4464e+000 -4.2729e-001 +4.6415e-001 -8.7750e-001 -9.0560e-001
97 0 +5.984326029e+001 -3.262673971e+001 -3.262673971e+001 +1.6015e+000 -7.1208e-001 +9.5588e-001 -1.0895e+000 -1.2753e+000
105 0 +5.744048760e+001 -3.502951240e+001 -3.502951240e+001 +8.0763e-001 +8.2809e-002 +7.5305e-001 -2.8288e+000 -1.7906e+000
179 0 +5.307022416e+001 -3.939977584e+001 -3.939977584e+001 +3.2610e+000 -2.0987e-001 +3.2979e+000 -1.4550e+000 -1.0776e+000
219 0 +3.263508013e+001 -5.983491987e+001 -5.983491987e+001 +3.2983e+000 -1.6945e-001 +3.3090e+000 -8.2948e-001 -1.0733e+000
229 0 +2.427394626e+001 -6.819605374e+001 -6.819605374e+001 +3.4611e+000 -2.3826e-001 +4.1877e+000 -5.7411e-001 -3.0591e-001
604 0 +2.349325486e+001 -6.897674514e+001 -6.897674514e+001 +3.4573e+000 -2.4026e-001 +4.1831e+000 -5.8019e-001 -3.0578e-001
666 0 +2.240989370e+001 -7.006010630e+001 -7.006010630e+001 +3.4525e+000 -2.4271e-001 +4.1775e+000 -5.8761e-001 -3.0563e-001
680 0 +2.201300719e+001 -7.045699281e+001 -7.045699281e+001 +3.8712e+000 -2.0728e-001 +4.1706e+000 -6.9590e-001 -6.5001e-001
773 0 +2.009677850e+001 -7.237322150e+001 -7.237322150e+001 +3.8982e+000 -2.0598e-001 +4.1706e+000 -7.0416e-001 -6.7304e-001
863 0 +1.925165300e+001 -7.321834700e+001 -7.321834700e+001 +3.9192e+000 -2.0557e-001 +4.1807e+000 -6.9238e-001 -6.7878e-001
874 0 +1.806276030e+001 -7.440723970e+001 -7.440723970e+001 +3.9801e+000 -1.7694e-001 +4.1581e+000 -6.5861e-001 -6.9189e-001
946 0 +1.471377660e+001 -7.775622340e+001 -7.775622340e+001 +3.9569e+000 -1.5268e-001 +4.1992e+000 -7.1138e-001 -6.8440e-001
1023 0 +1.379912428e+001 -7.867087572e+001 -7.867087572e+001 +3.9493e+000 -1.6742e-001 +4.1757e+000 -7.1008e-001 -6.4305e-001
1124 0 +1.347710436e+001 -7.899289564e+001 -7.899289564e+001 +3.9556e+000 -1.6335e-001 +4.1809e+000 -7.1019e-001 -6.5054e-001
1262 0 +1.317694770e+001 -7.929305230e+001 -7.929305230e+001 +3.9526e+000 -1.5390e-001 +4.1930e+000 -7.0577e-001 -6.5122e-001
4189 0 +1.212858516e+001 -8.034141484e+001 -8.034141484e+001 +2.6780e+000 -9.4469e-001 +3.2575e+000 -1.6528e-001 -2.8262e-001
4734 0 +8.881931638e+000 -8.358806836e+001 -8.358806836e+001 +2.7022e+000 -9.1257e-001 +3.1961e+000 -1.9163e-001 -3.1788e-001
4752 0 +6.528377508e+000 -8.594162249e+001 -8.594162249e+001 +2.5430e+000 -6.6324e-001 +2.7450e+000 -1.4116e+000 -3.0718e-001
4785 0 +5.661339174e+000 -8.680866083e+001 -8.680866083e+001 +2.7347e+000 -9.9365e-001 +3.1893e+000 -1.7347e-001 -2.9728e-001
4802 0 +4.999254992e+000 -8.747074501e+001 -8.747074501e+001 +2.7415e+000 -9.4154e-001 +3.1997e+000 -1.8468e-001 -2.8311e-001
4818 0 +4.194346715e+000 -8.827565329e+001 -8.827565329e+001 +2.7665e+000 -9.6427e-001 +3.2079e+000 -1.6300e-001 -2.8572e-001
5312 0 +3.970924113e+000 -8.849907589e+001 -8.849907589e+001 +2.7626e+000 -9.6144e-001 +3.2011e+000 -1.3411e-001 -2.8699e-001
5392 0 +3.844370234e+000 -8.862562977e+001 -8.862562977e+001 +2.7627e+000 -9.7540e-001 +3.1971e+000 -1.4238e-001 -2.8547e-001
5503 0 +3.753763022e+000 -8.871623698e+001 -8.871623698e+001 +2.7659e+000 -9.7444e-001 +3.1970e+000 -1.3699e-001 -2.8553e-001
5545 0 +3.659471109e+000 -8.881052889e+001 -8.881052889e+001 +2.7794e+000 -1.0049e+000 +3.1975e+000 -1.0907e-001 -2.8343e-001
5576 0 +3.598339998e+000 -8.887166000e+001 -8.887166000e+001 +2.7800e+000 -1.0010e+000 +3.1954e+000 -1.0863e-001 -2.8493e-001
5735 0 +3.516626836e+000 -8.895337316e+001 -8.895337316e+001 +2.7792e+000 -9.9406e-001 +3.1951e+000 -1.1479e-001 -2.8810e-001
5756 0 +3.464251689e+000 -8.900574831e+001 -8.900574831e+001 +2.7818e+000 -9.9143e-001 +3.1949e+000 -1.1580e-001 -2.8831e-001
5827 0 +3.330882750e+000 -8.913911725e+001 -8.913911725e+001 +2.7993e+000 -1.0080e+000 +3.1970e+000 -1.0136e-001 -3.0447e-001
5842 0 +3.247695879e+000 -8.922230412e+001 -8.922230412e+001 +2.8023e+000 -9.9530e-001 +3.1981e+000 -1.1454e-001 -3.0096e-001
5854 0 +3.230016263e+000 -8.923998374e+001 -8.923998374e+001 +2.7995e+000 -9.9304e-001 +3.1970e+000 -1.1139e-001 -2.9703e-001
5921 0 +3.110535586e+000 -8.935946441e+001 -8.935946441e+001 +2.8211e+000 -9.8898e-001 +3.2059e+000 -9.3987e-002 -3.0380e-001
5924 0 +3.080946618e+000 -8.938905338e+001 -8.938905338e+001 +2.8160e+000 -9.8841e-001 +3.2058e+000 -9.6369e-002 -3.0090e-001
5993 0 +3.016720926e+000 -8.945327907e+001 -8.945327907e+001 +2.8143e+000 -9.9286e-001 +3.2109e+000 -9.4163e-002 -3.0035e-001
% f evaluations | g evaluations | best noise-free fitness - Fopt (-2.153000000000e+002) + sum g_i+ | measured fitness | best measured fitness or single-digit g-values | x1 | x2...
1 0 +6.653802291e+002 +4.500802291e+002 +4.500802291e+002 -4.5945e+000 -2.0047e-001 -4.7692e+000 -4.4720e+000 -4.5793e+000
2 0 +9.164402727e+001 -1.236559727e+002 -1.236559727e+002 -4.8474e+000 +4.8282e+000 -2.4948e+000 +1.7060e+000 -2.1713e+000
12 0 +8.411888106e+001 -1.311811189e+002 -1.311811189e+002 -5.0000e+000 +1.1816e+000 +8.6679e-002 -1.7381e+000 +5.0000e+000
33 0 +7.865304725e+001 -1.366469527e+002 -1.366469527e+002 -2.5650e+000 +1.1011e+000 -2.6689e+000 -1.5569e+000 +2.4559e+000
36 0 +6.640114852e+001 -1.488988515e+002 -1.488988515e+002 -2.7678e+000 +1.0253e+000 -2.6643e+000 -1.5003e+000 +2.7875e+000
42 0 +5.558030767e+001 -1.597196923e+002 -1.597196923e+002 -2.3824e+000 +1.2307e+000 -2.4390e+000 -2.4555e+000 +1.2457e+000
48 0 +4.105375074e+001 -1.742462493e+002 -1.742462493e+002 -2.3095e+000 +1.7274e+000 -2.1998e+000 -1.5271e+000 +2.8735e+000
52 0 +3.829204207e+001 -1.770079579e+002 -1.770079579e+002 -2.2425e+000 +1.7023e+000 -2.1602e+000 -1.4401e+000 +2.8099e+000
115 0 +1.217004777e+001 -2.031299522e+002 -2.031299522e+002 -3.3650e+000 +1.5870e+000 -6.9981e-001 -2.0426e+000 +1.9142e+000
972 0 +8.372543288e+000 -2.069274567e+002 -2.069274567e+002 -3.3361e+000 +1.5867e+000 -7.0205e-001 -2.0429e+000 +1.9139e+000
1007 0 +7.337595162e+000 -2.079624048e+002 -2.079624048e+002 -3.3090e+000 +1.5865e+000 -7.0416e-001 -2.0432e+000 +1.9136e+000
1008 0 +7.155209515e+000 -2.081447905e+002 -2.081447905e+002 -3.3102e+000 +1.5864e+000 -7.0321e-001 -2.0421e+000 +1.9096e+000
1203 0 +7.009779127e+000 -2.082902209e+002 -2.082902209e+002 -3.3321e+000 +1.5978e+000 -7.1860e-001 -2.0467e+000 +1.9131e+000
1210 0 +6.790331658e+000 -2.085096683e+002 -2.085096683e+002 -3.3263e+000 +1.5980e+000 -7.2453e-001 -2.0528e+000 +1.9216e+000
1214 0 +6.725379514e+000 -2.085746205e+002 -2.085746205e+002 -3.3176e+000 +1.5884e+000 -7.3425e-001 -2.0642e+000 +1.9353e+000
1241 0 +6.556513556e+000 -2.087434864e+002 -2.087434864e+002 -3.3151e+000 +1.5740e+000 -7.2758e-001 -2.0627e+000 +1.9259e+000
1270 0 +6.426824638e+000 -2.088731754e+002 -2.088731754e+002 -3.3096e+000 +1.6189e+000 -7.0153e-001 -2.0429e+000 +1.9114e+000
1297 0 +6.228183825e+000 -2.090718162e+002 -2.090718162e+002 -3.3080e+000 +1.6210e+000 -7.0880e-001 -2.0454e+000 +1.9140e+000
1360 0 +6.142182579e+000 -2.091578174e+002 -2.091578174e+002 -3.3067e+000 +1.6425e+000 -7.0347e-001 -2.0416e+000 +1.9069e+000
1389 0 +6.019276020e+000 -2.092807240e+002 -2.092807240e+002 -3.3088e+000 +1.6460e+000 -6.9003e-001 -2.0224e+000 +1.8826e+000
8255 0 +5.796489710e+000 -2.095035103e+002 -2.095035103e+002 -2.5982e+000 +2.2879e+000 -9.2697e-001 -2.1306e+000 +1.7996e+000
8380 0 +5.370107853e+000 -2.099298921e+002 -2.099298921e+002 -2.6006e+000 +2.2814e+000 -9.2695e-001 -2.1272e+000 +1.7715e+000
8386 0 +5.176297149e+000 -2.101237029e+002 -2.101237029e+002 -2.6047e+000 +2.2867e+000 -9.3965e-001 -2.1217e+000 +1.7691e+000
8388 0 +4.433891410e+000 -2.108661086e+002 -2.108661086e+002 -2.5987e+000 +2.2941e+000 -9.4023e-001 -2.1133e+000 +1.7677e+000
8457 0 +4.271862664e+000 -2.110281373e+002 -2.110281373e+002 -2.6009e+000 +2.2826e+000 -9.4340e-001 -2.1062e+000 +1.7619e+000
8479 0 +4.026910938e+000 -2.112730891e+002 -2.112730891e+002 -2.5888e+000 +2.2855e+000 -9.3527e-001 -2.1107e+000 +1.7613e+000
8860 0 +3.981046430e+000 -2.113189536e+002 -2.113189536e+002 -2.5857e+000 +2.2892e+000 -9.4086e-001 -2.1070e+000 +1.7549e+000
49669 0 +3.256133459e+000 -2.120438665e+002 -2.120438665e+002 -2.6909e+000 +4.2101e+000 -1.4621e+000 -1.3902e+000 +2.3145e+000
49676 0 +2.654508204e+000 -2.126454918e+002 -2.126454918e+002 -2.6846e+000 +4.2107e+000 -1.4591e+000 -1.3803e+000 +2.2827e+000
49688 0 +2.357501862e+000 -2.129424981e+002 -2.129424981e+002 -2.7040e+000 +4.2293e+000 -1.4718e+000 -1.3424e+000 +2.2498e+000
49719 0 +2.227670221e+000 -2.130723298e+002 -2.130723298e+002 -2.7073e+000 +4.2348e+000 -1.4621e+000 -1.3399e+000 +2.2529e+000
49825 0 +2.092506307e+000 -2.132074937e+002 -2.132074937e+002 -2.6984e+000 +4.2380e+000 -1.4639e+000 -1.3463e+000 +2.2593e+000
49874 0 +2.082326618e+000 -2.132176734e+002 -2.132176734e+002 -2.6965e+000 +4.2375e+000 -1.4611e+000 -1.3512e+000 +2.2591e+000
50001 0 +2.036759364e+000 -2.132632406e+002 -2.132632406e+002 -2.6955e+000 +4.2497e+000 -1.4609e+000 -1.3485e+000 +2.2650e+000
50134 0 +1.995045257e+000 -2.133049547e+002 -2.133049547e+002 -2.6874e+000 +4.2535e+000 -1.4655e+000 -1.3530e+000 +2.2708e+000
% f evaluations | g evaluations | best noise-free fitness - Fopt (-5.449000000000e+001) + sum g_i+ | measured fitness | best measured fitness or single-digit g-values | x1 | x2...
1 0 +2.605691642e+002 +2.060791642e+002 +2.060791642e+002 +3.3296e+000 +3.6160e+000 -9.8216e-001 -1.6608e+000 +4.4181e+000
7 0 +1.606799806e+002 +1.061899806e+002 +1.061899806e+002 +5.0000e+000 -5.0000e+000 +5.0000e+000 -5.0000e+000 -5.0000e+000
24 0 +9.158309893e+001 +3.709309893e+001 +3.709309893e+001 +2.4385e+000 +2.9374e-001 -4.7483e-001 -3.9242e+000 -2.6645e+000
36 0 +8.404845490e+001 +2.955845490e+001 +2.955845490e+001 +2.4941e+000 -6.9104e-002 +1.6761e+000 -2.7277e+000 -2.5309e+000
42 0 +8.082230279e+001 +2.633230279e+001 +2.633230279e+001 +2.2664e+000 +6.9119e-001 +1.7103e+000 -1.5327e+000 -2.2604e+000
48 0 +5.030978206e+001 -4.180217936e+000 -4.180217936e+000 +2.4274e+000 +1.9905e-001 +1.3884e+000 -1.4609e+000 -2.2365e+000
222 0 +3.186714752e+001 -2.262285248e+001 -2.262285248e+001 +3.9742e+000 -1.9426e+000 +1.0332e+000 -3.5493e+000 -1.0258e+000
268 0 +2.663010257e+001 -2.785989743e+001 -2.785989743e+001 +3.1155e+000 -1.8604e+000 +1.7350e+000 -1.3636e+000 -2.6845e-002
390 0 +2.101893264e+001 -3.347106736e+001 -3.347106736e+001 +2.9608e+000 -1.4245e+000 +1.3512e+000 -2.1557e+000 -7.3442e-001
427 0 +2.018878126e+001 -3.430121874e+001 -3.430121874e+001 +2.9724e+000 -1.4490e+000 +1.3513e+000 -2.0908e+000 -9.1024e-001
469 0 +1.829734867e+001 -3.619265133e+001 -3.619265133e+001 +2.2484e+000 -9.3727e-001 +1.4831e+000 -1.2678e+000 -9.6513e-001
673 0 +1.776936897e+001 -3.672063103e+001 -3.672063103e+001 +2.2247e+000 -9.3466e-001 +1.4836e+000 -1.2590e+000 -9.7093e-001
715 0 +1.665065917e+001 -3.783934083e+001 -3.783934083e+001 +2.1934e+000 -9.0899e-001 +1.4817e+000 -1.2957e+000 -9.6341e-001
786 0 +1.370351627e+001 -4.078648373e+001 -4.078648373e+001 +2.2150e+000 -8.5045e-001 +1.4649e+000 -1.3105e+000 -9.9224e-001
874 0 +1.285006074e+001 -4.163993926e+001 -4.163993926e+001 +2.2098e+000 -8.8671e-001 +1.4729e+000 -1.2825e+000 -1.0028e+000
906 0 +1.149360385e+001 -4.299639615e+001 -4.299639615e+001 +2.1754e+000 -8.3443e-001 +1.4597e+000 -1.2508e+000 -1.0145e+000
965 0 +9.875235809e+000 -4.461476419e+001 -4.461476419e+001 +2.1849e+000 -8.7468e-001 +1.4416e+000 -1.2502e+000 -1.0049e+000
1028 0 +9.341424738e+000 -4.514857526e+001 -4.514857526e+001 +2.1923e+000 -8.5864e-001 +1.4261e+000 -1.2445e+000 -1.0069e+000
1037 0 +9.260242752e+000 -4.522975725e+001 -4.522975725e+001 +2.1968e+000 -8.6067e-001 +1.4139e+000 -1.2409e+000 -1.0167e+000
1058 0 +9.088762191e+000 -4.540123781e+001 -4.540123781e+001 +2.1911e+000 -8.5720e-001 +1.4257e+000 -1.2321e+000 -1.0232e+000
8504 0 +8.427552732e+000 -4.606244727e+001 -4.606244727e+001 +3.5550e+000 -5.5525e-001 +1.7441e+000 -4.3340e+000 -6.6189e-001
8527 0 +7.830566596e+000 -4.665943340e+001 -4.665943340e+001 +3.5540e+000 -5.5640e-001 +1.7408e+000 -4.3383e+000 -6.6121e-001
8532 0 +7.759261626e+000 -4.673073837e+001 -4.673073837e+001 +3.5544e+000 -5.5568e-001 +1.7406e+000 -4.3403e+000 -6.6085e-001
8538 0 +6.728482356e+000 -4.776151764e+001 -4.776151764e+001 +3.5637e+000 -5.5170e-001 +1.7237e+000 -4.3382e+000 -6.6210e-001
8580 0 +6.319973531e+000 -4.817002647e+001 -4.817002647e+001 +3.5774e+000 -5.5076e-001 +1.7181e+000 -4.3693e+000 -6.4494e-001
8598 0 +5.975183885e+000 -4.851481611e+001 -4.851481611e+001 +3.5826e+000 -5.5660e-001 +1.7366e+000 -4.3780e+000 -6.5839e-001
8650 0 +5.825123356e+000 -4.866487664e+001 -4.866487664e+001 +3.5877e+000 -5.6496e-001 +1.7280e+000 -4.3953e+000 -6.6541e-001
8663 0 +5.671881392e+000 -4.881811861e+001 -4.881811861e+001 +3.5927e+000 -5.6216e-001 +1.7094e+000 -4.3858e+000 -6.8174e-001
8666 0 +5.568529591e+000 -4.892147041e+001 -4.892147041e+001 +3.5856e+000 -5.6678e-001 +1.7283e+000 -4.3743e+000 -6.8530e-001
8678 0 +5.391164333e+000 -4.909883567e+001 -4.909883567e+001 +3.5911e+000 -5.5426e-001 +1.7241e+000 -4.3717e+000 -6.7520e-001
8688 0 +5.002101113e+000 -4.948789889e+001 -4.948789889e+001 +3.6072e+000 -5.6130e-001 +1.7237e+000 -4.3745e+000 -6.6210e-001
8704 0 +4.779759900e+000 -4.971024010e+001 -4.971024010e+001 +3.6172e+000 -5.6638e-001 +1.7329e+000 -4.3883e+000 -6.5688e-001
8714 0 +4.583246855e+000 -4.990675315e+001 -4.990675315e+001 +3.6208e+000 -5.7010e-001 +1.7276e+000 -4.3935e+000 -6.7228e-001
8722 0 +4.329488857e+000 -5.016051114e+001 -5.016051114e+001 +3.6517e+000 -5.7620e-001 +1.7359e+000 -4.3915e+000 -6.6300e-001
8794 0 +4.244276073e+000 -5.024572393e+001 -5.024572393e+001 +3.6541e+000 -5.7646e-001 +1.7314e+000 -4.3941e+000 -6.6234e-001
8863 0 +4.139663147e+000 -5.035033685e+001 -5.035033685e+001 +3.6735e+000 -5.7945e-001 +1.7315e+000 -4.4033e+000 -6.6168e-001
8885 0 +4.056398971e+000 -5.043360103e+001 -5.043360103e+001 +3.6717e+000 -5.8046e-001 +1.7333e+000 -4.4122e+000 -6.6462e-001
9149 0 +3.980804637e+000 -5.050919536e+001 -5.050919536e+001 +3.6788e+000 -5.7641e-001 +1.7317e+000 -4.4169e+000 -6.6931e-001
11467 0 +3.593701332e+000 -5.089629867e+001 -5.089629867e+001 +3.4175e+000 -1.2325e+000 +1.9511e+000 -3.2489e+000 -6.9670e-001
11472 0 +3.018641716e+000 -5.147135828e+001 -5.147135828e+001 +3.4312e+000 -1.2119e+000 +1.9323e+000 -3.2775e+000 -6.6183e-001
11680 0 +8.723102236e-001 -5.361768978e+001 -5.361768978e+001 +3.4198e+000 -1.1975e+000 +1.9529e+000 -3.2530e+000 -6.1506e-001
11762 0 +7.993793723e-001 -5.369062063e+001 -5.369062063e+001 +3.4187e+000 -1.1957e+000 +1.9590e+000 -3.2469e+000 -6.1817e-001
11770 0 +5.867016652e-001 -5.390329833e+001 -5.390329833e+001 +3.4164e+000 -1.1972e+000 +1.9563e+000 -3.2475e+000 -6.2943e-001
11940 0 +5.107809355e-001 -5.397921906e+001 -5.397921906e+001 +3.4121e+000 -1.1938e+000 +1.9605e+000 -3.2481e+000 -6.2103e-001
11970 0 +4.912398306e-001 -5.399876017e+001 -5.399876017e+001 +3.4115e+000 -1.1995e+000 +1.9571e+000 -3.2433e+000 -6.4472e-001
11975 0 +4.868601828e-001 -5.400313982e+001 -5.400313982e+001 +3.4114e+000 -1.2000e+000 +1.9580e+000 -3.2430e+000 -6.4546e-001
11990 0 +4.038462759e-001 -5.408615372e+001 -5.408615372e+001 +3.3859e+000 -1.1842e+000 +1.9618e+000 -3.2643e+000 -6.6308e-001
11998 0 +1.345028842e-001 -5.435549712e+001 -5.435549712e+001 +3.3858e+000 -1.1865e+000 +1.9677e+000 -3.2619e+000 -6.3621e-001
12011 0 +3.694842907e-002 -5.445305157e+001 -5.445305157e+001 +3.3901e+000 -1.1860e+000 +1.9601e+000 -3.2646e+000 -6.3270e-001
12050 0 +2.439914623e-002 -5.446560085e+001 -5.446560085e+001 +3.3919e+000 -1.1869e+000 +1.9613e+000 -3.2579e+000 -6.3476e-001
12053 0 +2.397329054e-002 -5.446602671e+001 -5.446602671e+001 +3.3911e+000 -1.1848e+000 +1.9615e+000 -3.2585e+000 -6.3375e-001
12061 0 +3.790818463e-003 -5.448620918e+001 -5.448620918e+001 +3.3894e+000 -1.1841e+000 +1.9576e+000 -3.2593e+000 -6.3858e-001
12150 0 +2.875720869e-003 -5.448712428e+001 -5.448712428e+001 +3.3904e+000 -1.1845e+000 +1.9586e+000 -3.2576e+000 -6.3793e-001
12152 0 +2.558831101e-003 -5.448744117e+001 -5.448744117e+001 +3.3899e+000 -1.1851e+000 +1.9583e+000 -3.2573e+000 -6.3743e-001
12153 0 +2.266650234e-003 -5.448773335e+001 -5.448773335e+001 +3.3891e+000 -1.1846e+000 +1.9583e+000 -3.2583e+000 -6.3798e-001
12220 0 +1.004202105e-003 -5.448899580e+001 -5.448899580e+001 +3.3887e+000 -1.1838e+000 +1.9575e+000 -3.2558e+000 -6.3835e-001
12251 0 +4.397391572e-004 -5.448956026e+001 -5.448956026e+001 +3.3885e+000 -1.1838e+000 +1.9579e+000 -3.2572e+000 -6.3790e-001
12270 0 +3.161670054e-004 -5.448968383e+001 -5.448968383e+001 +3.3886e+000 -1.1836e+000 +1.9579e+000 -3.2570e+000 -6.3793e-001
12297 0 +2.240986566e-004 -5.448977590e+001 -5.448977590e+001 +3.3881e+000 -1.1834e+000 +1.9579e+000 -3.2568e+000 -6.3802e-001
12331 0 +1.059395941e-004 -5.448989406e+001 -5.448989406e+001 +3.3884e+000 -1.1835e+000 +1.9577e+000 -3.2567e+000 -6.3778e-001
12346 0 +9.675608834e-005 -5.448990324e+001 -5.448990324e+001 +3.3883e+000 -1.1835e+000 +1.9577e+000 -3.2566e+000 -6.3776e-001
12374 0 +7.641522166e-005 -5.448992358e+001 -5.448992358e+001 +3.3880e+000 -1.1834e+000 +1.9575e+000 -3.2566e+000 -6.3778e-001
12378 0 +3.858595971e-005 -5.448996141e+001 -5.448996141e+001 +3.3882e+000 -1.1834e+000 +1.9577e+000 -3.2568e+000 -6.3764e-001
12395 0 +3.085266360e-005 -5.448996915e+001 -5.448996915e+001 +3.3880e+000 -1.1834e+000 +1.9577e+000 -3.2567e+000 -6.3767e-001
12443 0 +2.952809313e-005 -5.448997047e+001 -5.448997047e+001 +3.3881e+000 -1.1832e+000 +1.9577e+000 -3.2567e+000 -6.3775e-001
12444 0 +4.321123150e-006 -5.448999568e+001 -5.448999568e+001 +3.3881e+000 -1.1833e+000 +1.9576e+000 -3.2568e+000 -6.3764e-001
12453 0 +4.046626593e-006 -5.448999595e+001 -5.448999595e+001 +3.3880e+000 -1.1832e+000 +1.9576e+000 -3.2568e+000 -6.3763e-001
12475 0 +3.079424928e-006 -5.448999692e+001 -5.448999692e+001 +3.3880e+000 -1.1832e+000 +1.9576e+000 -3.2568e+000 -6.3761e-001
12503 0 +1.687284104e-006 -5.448999831e+001 -5.448999831e+001 +3.3880e+000 -1.1832e+000 +1.9576e+000 -3.2568e+000 -6.3762e-001
12511 0 +1.221545560e-006 -5.448999878e+001 -5.448999878e+001 +3.3880e+000 -1.1832e+000 +1.9576e+000 -3.2568e+000 -6.3761e-001
12521 0 +4.213735281e-007 -5.448999958e+001 -5.448999958e+001 +3.3880e+000 -1.1832e+000 +1.9576e+000 -3.2568e+000 -6.3762e-001
12528 0 +8.349051228e-008 -5.448999992e+001 -5.448999992e+001 +3.3880e+000 -1.1832e+000 +1.9576e+000 -3.2568e+000 -6.3761e-001
12644 0 +7.548602809e-008 -5.448999992e+001 -5.448999992e+001 +3.3880e+000 -1.1832e+000 +1.9576e+000 -3.2568e+000 -6.3761e-001
12648 0 +2.622843454e-008 -5.448999997e+001 -5.448999997e+001 +3.3880e+000 -1.1832e+000 +1.9576e+000 -3.2568e+000 -6.3760e-001
12672 0 +1.572891506e-008 -5.448999998e+001 -5.448999998e+001 +3.3880e+000 -1.1832e+000 +1.9576e+000 -3.2568e+000 -6.3760e-001
12739 0 +1.318137066e-008 -5.448999999e+001 -5.448999999e+001 +3.3880e+000 -1.1832e+000 +1.9576e+000 -3.2568e+000 -6.3760e-001
12759 0 +8.686292574e-009 -5.448999999e+001 -5.448999999e+001 +3.3880e+000 -1.1832e+000 +1.9576e+000 -3.2568e+000 -6.3760e-001
% f evaluations | g evaluations | best noise-free fitness - Fopt (5.049000000000e+001) + sum g_i+ | measured fitness | best measured fitness or single-digit g-values | x1 | x2...
1 0 +1.723423429e+002 +2.228323429e+002 +2.228323429e+002 +3.2741e+000 +3.3362e+000 +4.6407e+000 -4.8412e+000 +2.9999e+000
2 0 +1.442723956e+002 +1.947623956e+002 +1.947623956e+002 -2.5574e+000 -3.2113e-001 +1.4238e+000 -2.1023e+000 +2.2665e+000
46 0 +9.904810940e+001 +1.495381094e+002 +1.495381094e+002 +2.5589e+000 -2.1816e+000 +3.4800e+000 -2.1445e+000 +2.7508e+000
51 0 +9.439130854e+001 +1.448813085e+002 +1.448813085e+002 +1.2623e+000 +9.0072e-001 +2.4892e+000 -1.8514e+000 +2.0454e+000
65 0 +7.133537937e+001 +1.218253794e+002 +1.218253794e+002 -6.4463e-001 +3.5147e-001 +3.8634e+000 -3.5378e+000 +3.0627e+000
104 0 +6.933107375e+001 +1.198210737e+002 +1.198210737e+002 +7.4987e-002 +7.2953e-001 +3.7038e+000 -3.6465e+000 +3.4377e+000
118 0 +6.846578998e+001 +1.189557900e+002 +1.189557900e+002 +2.3701e+000 +5.7499e-001 +4.9736e+000 -1.7423e+000 +2.3500e+000
120 0 +6.239183727e+001 +1.128818373e+002 +1.128818373e+002 +2.0593e+000 -7.7442e-001 +2.1154e+000 -1.0605e+000 +2.2246e-001
122 0 +5.190004286e+001 +1.023900429e+002 +1.023900429e+002 +2.1123e+000 -7.5703e-001 +2.1180e+000 -9.5506e-001 +1.8089e-001
143 0 +3.499063362e+001 +8.548063362e+001 +8.548063362e+001 +5.0000e+000 -4.1586e-001 +2.5427e+000 -4.3992e-001 +2.5641e+000
163 0 +3.396801663e+001 +8.445801663e+001 +8.445801663e+001 +2.8876e+000 -4.1512e-001 +2.5433e+000 -4.4041e-001 +2.5634e+000
222 0 +2.881715400e+001 +7.930715400e+001 +7.930715400e+001 +2.4616e+000 -4.5946e-001 +4.3443e+000 -1.2886e-001 +1.2050e+000
289 0 +1.761956082e+001 +6.810956082e+001 +6.810956082e+001 +2.6479e+000 +3.3044e-001 +1.7611e+000 -5.7992e-001 +3.9721e+000
534 0 +1.269749382e+001 +6.318749382e+001 +6.318749382e+001 +2.6243e+000 +3.5190e-001 +1.7640e+000 -6.0492e-001 +4.0242e+000
849 0 +1.113866578e+001 +6.162866578e+001 +6.162866578e+001 +2.5843e+000 +3.7830e-001 +1.8092e+000 -6.4251e-001 +3.9884e+000
857 0 +9.852611232e+000 +6.034261123e+001 +6.034261123e+001 +2.6117e+000 +3.9025e-001 +1.8046e+000 -6.2275e-001 +4.0304e+000
872 0 +9.616491490e+000 +6.010649149e+001 +6.010649149e+001 +2.5891e+000 +4.2613e-001 +1.8299e+000 -6.4215e-001 +4.0179e+000
934 0 +9.212533705e+000 +5.970253371e+001 +5.970253371e+001 +2.5906e+000 +4.1287e-001 +1.8095e+000 -6.4782e-001 +4.0160e+000
1373 0 +9.003164675e+000 +5.949316467e+001 +5.949316467e+001 +2.6454e+000 +3.9912e-001 +1.7942e+000 -6.5794e-001 +3.9849e+000
7253 0 +5.872130366e+000 +5.636213037e+001 +5.636213037e+001 +4.0609e+000 -3.4296e-001 +2.7123e+000 +1.8774e-001 +4.4404e+000
7303 0 +4.906017012e+000 +5.539601701e+001 +5.539601701e+001 +4.0602e+000 -3.3997e-001 +2.7236e+000 +1.9573e-001 +4.4530e+000
7306 0 +4.558870578e+000 +5.504887058e+001 +5.504887058e+001 +4.0528e+000 -3.1633e-001 +2.7115e+000 +1.7907e-001 +4.4836e+000
7376 0 +3.878277801e+000 +5.436827780e+001 +5.436827780e+001 +4.0368e+000 -3.1738e-001 +2.7111e+000 +1.7715e-001 +4.4772e+000
7458 0 +3.724376300e+000 +5.421437630e+001 +5.421437630e+001 +4.0336e+000 -3.1113e-001 +2.7145e+000 +1.8045e-001 +4.4872e+000
7463 0 +2.777651250e+000 +5.326765125e+001 +5.326765125e+001 +4.0175e+000 -3.1488e-001 +2.7243e+000 +1.6742e-001 +4.5010e+000
7470 0 +2.738930267e+000 +5.322893027e+001 +5.322893027e+001 +4.0164e+000 -3.1560e-001 +2.7256e+000 +1.6671e-001 +4.5021e+000
7563 0 +2.664750579e+000 +5.315475058e+001 +5.315475058e+001 +4.0133e+000 -3.1742e-001 +2.7256e+000 +1.6326e-001 +4.4961e+000
7634 0 +2.596877998e+000 +5.308687800e+001 +5.308687800e+001 +4.0113e+000 -3.1719e-001 +2.7271e+000 +1.6486e-001 +4.4957e+000
7670 0 +2.463965132e+000 +5.295396513e+001 +5.295396513e+001 +3.9905e+000 -3.1849e-001 +2.7266e+000 +1.6375e-001 +4.4787e+000
7692 0 +2.404337772e+000 +5.289433777e+001 +5.289433777e+001 +4.0010e+000 -3.1875e-001 +2.7291e+000 +1.6333e-001 +4.4889e+000
7696 0 +2.382651883e+000 +5.287265188e+001 +5.287265188e+001 +3.9991e+000 -3.1934e-001 +2.7291e+000 +1.6216e-001 +4.4905e+000
7707 0 +2.308453931e+000 +5.279845393e+001 +5.279845393e+001 +3.9947e+000 -3.1941e-001 +2.7336e+000 +1.6275e-001 +4.4878e+000
7720 0 +2.283591414e+000 +5.277359141e+001 +5.277359141e+001 +3.9922e+000 -3.1939e-001 +2.7337e+000 +1.6282e-001 +4.4881e+000
7764 0 +2.206243935e+000 +5.269624394e+001 +5.269624394e+001 +3.9830e+000 -3.1705e-001 +2.7379e+000 +1.6386e-001 +4.4915e+000
7874 0 +2.152012573e+000 +5.264201257e+001 +5.264201257e+001 +3.9710e+000 -3.1321e-001 +2.7391e+000 +1.5285e-001 +4.4937e+000
7895 0 +2.078192046e+000 +5.256819205e+001 +5.256819205e+001 +3.9611e+000 -3.0407e-001 +2.7341e+000 +1.3863e-001 +4.5007e+000
7953 0 +2.029591933e+000 +5.251959193e+001 +5.251959193e+001 +3.9511e+000 -2.9476e-001 +2.7280e+000 +1.1526e-001 +4.5059e+000
8125 0 +1.994920789e+000 +5.248492079e+001 +5.248492079e+001 +3.9413e+000 -2.9677e-001 +2.7289e+000 +1.1463e-001 +4.5006e+000
% f evaluations | g evaluations | best noise-free fitness - Fopt (-3.641300000000e+002) + sum g_i+ | measured fitness | best measured fitness or single-digit g-values | x1 | x2...
1 0 +1.886201586e+002 -1.755098414e+002 -1.755098414e+002 -1.2110e+000 -4.1735e+000 -2.1279e+000 +4.4356e-001 +3.9878e+000
4 0 +1.768584357e+002 -1.872715643e+002 -1.872715643e+002 +1.4980e+000 +1.0587e+000 +3.6023e+000 +5.5265e-001 -5.6716e-001
22 0 +7.087881828e+001 -2.932511817e+002 -2.932511817e+002 -4.4196e+000 -2.5894e+000 +1.4725e+000 -1.0270e+000 +2.5878e+000
51 0 +5.980283205e+001 -3.043271680e+002 -3.043271680e+002 -4.8038e+000 -2.5597e+000 +1.4181e+000 -8.0797e-001 +2.8412e+000
79 0 +5.877146312e+001 -3.053585369e+002 -3.053585369e+002 -2.3729e+000 +1.4164e+000 +2.3584e+000 -1.7975e+000 +3.4399e+000
101 0 +3.544159431e+001 -3.286884057e+002 -3.286884057e+002 -4.9475e+000 -2.4952e+000 +1.5599e+000 -8.5803e-001 +2.7953e+000
112 0 +3.150263252e+001 -3.326273675e+002 -3.326273675e+002 -4.9739e+000 -2.5072e+000 +1.5661e+000 -8.4191e-001 +2.7737e+000
144 0 +2.871825264e+001 -3.354117474e+002 -3.354117474e+002 -4.9887e+000 -2.5268e+000 +1.5419e+000 -8.3409e-001 +2.7524e+000
344 0 +2.796390208e+001 -3.361660979e+002 -3.361660979e+002 -4.9994e+000 -2.5622e+000 +1.5343e+000 -8.3716e-001 +2.7621e+000
383 0 +2.738533360e+001 -3.367446664e+002 -3.367446664e+002 -4.9828e+000 -2.5598e+000 +1.5289e+000 -8.2199e-001 +2.7281e+000
433 0 +2.662250246e+001 -3.375074975e+002 -3.375074975e+002 -4.9973e+000 -2.5385e+000 +1.5101e+000 -8.3605e-001 +2.6845e+000
501 0 +2.600976477e+001 -3.381202352e+002 -3.381202352e+002 -4.9594e+000 -2.5438e+000 +1.4959e+000 -8.3561e-001 +2.7243e+000
603 0 +1.983978173e+001 -3.442902183e+002 -3.442902183e+002 -3.5106e+000 +2.3952e-001 +2.3749e+000 -1.2286e+000 +9.8853e-001
647 0 +1.848775026e+001 -3.456422497e+002 -3.456422497e+002 -3.4190e+000 +1.7746e-001 +2.3653e+000 -1.2047e+000 +1.0026e+000
661 0 +1.247777033e+001 -3.516522297e+002 -3.516522297e+002 -3.4114e+000 +2.4479e-001 +2.3772e+000 -1.2234e+000 +9.8047e-001
806 0 +1.207462302e+001 -3.520553770e+002 -3.520553770e+002 -3.3966e+000 +2.5270e-001 +2.3839e+000 -1.2239e+000 +9.7002e-001
807 0 +1.193835040e+001 -3.521916496e+002 -3.521916496e+002 -3.3431e+000 +2.5847e-001 +2.3879e+000 -1.2115e+000 +9.6266e-001
854 0 +1.107964081e+001 -3.530503592e+002 -3.530503592e+002 -3.3573e+000 +2.4149e-001 +2.4016e+000 -1.2024e+000 +9.8097e-001
1108 0 +1.096459935e+001 -3.531654006e+002 -3.531654006e+002 -3.3593e+000 +2.3225e-001 +2.4036e+000 -1.2023e+000 +9.9438e-001
9007 0 +1.008253424e+001 -3.540474658e+002 -3.540474658e+002 -2.3380e+000 -4.9497e-001 +8.2322e-001 -1.2272e+000 +2.0156e+000
9046 0 +4.871619850e+000 -3.592583801e+002 -3.592583801e+002 -2.8461e+000 -3.3454e-001 +1.3670e+000 -1.4614e+000 +1.6442e+000
9153 0 +4.597787051e+000 -3.595322129e+002 -3.595322129e+002 -2.8396e+000 -3.3661e-001 +1.3595e+000 -1.4551e+000 +1.6494e+000
9180 0 +3.863579689e+000 -3.602664203e+002 -3.602664203e+002 -2.8700e+000 -3.4679e-001 +1.3571e+000 -1.4562e+000 +1.6351e+000
9201 0 +3.594217041e+000 -3.605357830e+002 -3.605357830e+002 -2.8693e+000 -3.3233e-001 +1.3562e+000 -1.4547e+000 +1.6271e+000
9240 0 +3.277888595e+000 -3.608521114e+002 -3.608521114e+002 -2.8643e+000 -3.3648e-001 +1.3500e+000 -1.4519e+000 +1.6295e+000
9401 0 +3.030218325e+000 -3.610997817e+002 -3.610997817e+002 -2.8761e+000 -3.3713e-001 +1.3433e+000 -1.4459e+000 +1.6271e+000
9459 0 +2.801379129e+000 -3.613286209e+002 -3.613286209e+002 -2.8747e+000 -3.3137e-001 +1.3426e+000 -1.4421e+000 +1.6147e+000
9461 0 +2.661755224e+000 -3.614682448e+002 -3.614682448e+002 -2.8716e+000 -3.3551e-001 +1.3444e+000 -1.4437e+000 +1.6070e+000
9465 0 +2.435710302e+000 -3.616942897e+002 -3.616942897e+002 -2.8671e+000 -3.3464e-001 +1.3467e+000 -1.4249e+000 +1.6141e+000
9472 0 +2.358188663e+000 -3.617718113e+002 -3.617718113e+002 -2.8680e+000 -3.3715e-001 +1.3408e+000 -1.4253e+000 +1.6147e+000
9483 0 +2.251490524e+000 -3.618785095e+002 -3.618785095e+002 -2.8666e+000 -3.4185e-001 +1.3414e+000 -1.4220e+000 +1.6127e+000
9555 0 +2.216546253e+000 -3.619134537e+002 -3.619134537e+002 -2.8728e+000 -3.4629e-001 +1.3350e+000 -1.4223e+000 +1.6181e+000
9561 0 +2.177410507e+000 -3.619525895e+002 -3.619525895e+002 -2.8728e+000 -3.4627e-001 +1.3444e+000 -1.4223e+000 +1.6179e+000
9574 0 +2.131582459e+000 -3.619984175e+002 -3.619984175e+002 -2.8745e+000 -3.4984e-001 +1.3436e+000 -1.4213e+000 +1.6156e+000
9610 0 +2.070190895e+000 -3.620598091e+002 -3.620598091e+002 -2.8590e+000 -3.5993e-001 +1.3361e+000 -1.4222e+000 +1.6059e+000
9664 0 +2.035423888e+000 -3.620945761e+002 -3.620945761e+002 -2.8475e+000 -3.5457e-001 +1.3227e+000 -1.4298e+000 +1.6074e+000
9748 0 +1.993691872e+000 -3.621363081e+002 -3.621363081e+002 -2.8562e+000 -3.5848e-001 +1.3214e+000 -1.4282e+000 +1.6029e+000
18721 0 +1.740264720e+000 -3.623897353e+002 -3.623897353e+002 -4.2973e+000 -5.4715e-001 +9.8585e-001 -8.2870e-001 +1.6087e+000
18737 0 +1.578265736e+000 -3.625517343e+002 -3.625517343e+002 -4.2897e+000 -5.2730e-001 +9.9202e-001 -8.2952e-001 +1.6138e+000
18763 0 +1.229637726e+000 -3.629003623e+002 -3.629003623e+002 -4.3139e+000 -5.5346e-001 +9.9201e-001 -8.2905e-001 +1.6397e+000
18765 0 +1.064194344e+000 -3.630658057e+002 -3.630658057e+002 -4.3178e+000 -5.4868e-001 +9.9262e-001 -8.2736e-001 +1.6410e+000
19095 0 +1.023714693e+000 -3.631062853e+002 -3.631062853e+002 -4.3173e+000 -5.4569e-001 +9.8958e-001 -8.2683e-001 +1.6352e+000
19099 0 +1.009063028e+000 -3.631209370e+002 -3.631209370e+002 -4.3165e+000 -5.4543e-001 +9.8682e-001 -8.2513e-001 +1.6353e+000
19296 0 +9.979552804e-001 -3.631320447e+002 -3.631320447e+002 -4.3173e+000 -5.4464e-001 +9.8646e-001 -8.2654e-001 +1.6371e+000
% f evaluations | g evaluations | best noise-free fitness - Fopt (1.592700000000e+002) + sum g_i+ | measured fitness | best measured fitness or single-digit g-values | x1 | x2...
1 0 +3.458647134e+002 +5.051347134e+002 +5.051347134e+002 -2.2870e+000 -4.8190e+000 +4.4860e+000 +4.5352e+000 -2.3206e+000
2 0 +8.256396895e+001 +2.418339690e+002 +2.418339690e+002 -2.5829e+000 -7.4684e-001 +2.5542e+000 -2.9259e+000 -1.8129e-001
39 0 +5.722330837e+001 +2.164933084e+002 +2.164933084e+002 -6.8269e-001 -1.0618e-001 +5.0000e+000 -1.4970e+000 -2.5781e+000
48 0 +5.398822277e+001 +2.132582228e+002 +2.132582228e+002 -7.1753e-001 +1.8492e-001 +5.0000e+000 -1.6207e+000 -1.8341e+000
112 0 +3.789396261e+001 +1.971639626e+002 +1.971639626e+002 -2.5584e+000 -3.0728e-001 +3.7209e+000 -2.7267e+000 -2.2747e+000
174 0 +2.662540014e+001 +1.858954001e+002 +1.858954001e+002 -1.5236e+000 -1.1491e+000 +3.3766e+000 -2.4889e+000 -2.8014e+000
308 0 +2.524405898e+001 +1.845140590e+002 +1.845140590e+002 -1.5275e+000 -1.1429e+000 +3.3678e+000 -2.4950e+000 -2.8087e+000
314 0 +2.042013658e+001 +1.796901366e+002 +1.796901366e+002 -1.3768e+000 -1.2421e+000 +4.2198e+000 -1.9705e+000 -2.5546e+000
518 0 +1.780681724e+001 +1.770768172e+002 +1.770768172e+002 -7.5807e-001 -1.6776e+000 +3.9669e+000 -9.2954e-001 -2.6333e+000
540 0 +1.450718709e+001 +1.737771871e+002 +1.737771871e+002 -7.4026e-001 -1.6621e+000 +3.9800e+000 -9.6151e-001 -2.6361e+000
623 0 +1.171337913e+001 +1.709833791e+002 +1.709833791e+002 -7.6177e-001 -1.6569e+000 +3.9932e+000 -9.6530e-001 -2.6587e+000
798 0 +1.072144901e+001 +1.699914490e+002 +1.699914490e+002 -7.7435e-001 -1.6497e+000 +3.9958e+000 -9.8117e-001 -2.6415e+000
873 0 +1.033527576e+001 +1.696052758e+002 +1.696052758e+002 -7.4507e-001 -1.6310e+000 +4.0056e+000 -1.0155e+000 -2.6587e+000
885 0 +9.669152080e+000 +1.689391521e+002 +1.689391521e+002 -7.4898e-001 -1.6159e+000 +4.0306e+000 -1.0400e+000 -2.6444e+000
903 0 +8.982041469e+000 +1.682520415e+002 +1.682520415e+002 -3.4167e-001 -1.6741e+000 +4.0655e+000 -1.0472e+000 -2.9446e+000
946 0 +8.016057347e+000 +1.672860573e+002 +1.672860573e+002 -3.6016e-001 -1.6032e+000 +4.0571e+000 -1.1253e+000 -2.9683e+000
1009 0 +6.783134637e+000 +1.660531346e+002 +1.660531346e+002 -3.2832e-001 -1.6264e+000 +4.0900e+000 -1.0672e+000 -2.9912e+000
1012 0 +6.137807252e+000 +1.654078073e+002 +1.654078073e+002 -3.1692e-001 -1.6272e+000 +4.0608e+000 -1.0757e+000 -2.9846e+000
1212 0 +5.998686792e+000 +1.652686868e+002 +1.652686868e+002 -3.1869e-001 -1.6272e+000 +4.0649e+000 -1.0600e+000 -2.9686e+000
4618 0 +5.580944251e+000 +1.648509443e+002 +1.648509443e+002 -1.5868e+000 -9.9384e-001 +4.4874e+000 -1.8640e+000 -2.9790e+000
4650 0 +5.389021926e+000 +1.646590219e+002 +1.646590219e+002 -1.5867e+000 -9.9380e-001 +4.4849e+000 -1.8687e+000 -2.9754e+000
4675 0 +5.238061192e+000 +1.645080612e+002 +1.645080612e+002 -1.5703e+000 -1.0033e+000 +4.4502e+000 -1.8599e+000 -3.0189e+000
4676 0 +4.875371404e+000 +1.641453714e+002 +1.641453714e+002 -1.5451e+000 -1.0187e+000 +4.4890e+000 -1.8501e+000 -3.0281e+000
4711 0 +4.545165827e+000 +1.638151658e+002 +1.638151658e+002 -1.5391e+000 -1.0122e+000 +4.5012e+000 -1.8603e+000 -3.0278e+000
4761 0 +3.498920289e+000 +1.627689203e+002 +1.627689203e+002 -1.5827e+000 -9.8217e-001 +4.4641e+000 -1.9087e+000 -3.0107e+000
4774 0 +3.442521399e+000 +1.627125214e+002 +1.627125214e+002 -1.5670e+000 -1.0009e+000 +4.4850e+000 -1.8931e+000 -3.0124e+000
4791 0 +3.331433519e+000 +1.626014335e+002 +1.626014335e+002 -1.5594e+000 -1.0024e+000 +4.4946e+000 -1.9007e+000 -3.0141e+000
4802 0 +3.241509032e+000 +1.625115090e+002 +1.625115090e+002 -1.5592e+000 -1.0031e+000 +4.4969e+000 -1.9097e+000 -3.0189e+000
4838 0 +3.228550363e+000 +1.624985504e+002 +1.624985504e+002 -1.5590e+000 -1.0031e+000 +4.4959e+000 -1.9101e+000 -3.0194e+000
4896 0 +3.120201921e+000 +1.623902019e+002 +1.623902019e+002 -1.5657e+000 -1.0013e+000 +4.4903e+000 -1.9083e+000 -3.0223e+000
4970 0 +3.063868363e+000 +1.623338684e+002 +1.623338684e+002 -1.5677e+000 -1.0022e+000 +4.4932e+000 -1.9100e+000 -3.0321e+000
4994 0 +3.007281778e+000 +1.622772818e+002 +1.622772818e+002 -1.5650e+000 -1.0026e+000 +4.4779e+000 -1.9078e+000 -3.0382e+000
34640 0 +2.863494887e+000 +1.621334949e+002 +1.621334949e+002 -1.7789e+000 -1.2104e+000 +3.9765e+000 -1.8433e+000 -2.1745e+000
34662 0 +2.770994678e+000 +1.620409947e+002 +1.620409947e+002 -1.7895e+000 -1.2256e+000 +3.9736e+000 -1.8350e+000 -2.2046e+000
34744 0 +2.650272012e+000 +1.619202720e+002 +1.619202720e+002 -1.7906e+000 -1.2243e+000 +3.9503e+000 -1.8398e+000 -2.2068e+000
34778 0 +2.053506133e+000 +1.613235061e+002 +1.613235061e+002 -1.7775e+000 -1.2167e+000 +3.9627e+000 -1.8540e+000 -2.2058e+000
34806 0 +1.861908053e+000 +1.611319081e+002 +1.611319081e+002 -1.7677e+000 -1.2194e+000 +3.9465e+000 -1.8600e+000 -2.2267e+000
34810 0 +1.540055276e+000 +1.608100553e+002 +1.608100553e+002 -1.7641e+000 -1.2146e+000 +3.9622e+000 -1.8457e+000 -2.2196e+000
34833 0 +1.463171045e+000 +1.607331710e+002 +1.607331710e+002 -1.7343e+000 -1.2260e+000 +3.9782e+000 -1.8226e+000 -2.2343e+000
34846 0 +1.385379009e+000 +1.606553790e+002 +1.606553790e+002 -1.7482e+000 -1.2231e+000 +3.9613e+000 -1.8404e+000 -2.2119e+000
34885 0 +1.240669789e+000 +1.605106698e+002 +1.605106698e+002 -1.7503e+000 -1.2218e+000 +3.9793e+000 -1.8475e+000 -2.2157e+000
34911 0 +1.139248503e+000 +1.604092485e+002 +1.604092485e+002 -1.7366e+000 -1.2413e+000 +3.9809e+000 -1.8352e+000 -2.2482e+000
34952 0 +1.068491005e+000 +1.603384910e+002 +1.603384910e+002 -1.7417e+000 -1.2361e+000 +3.9735e+000 -1.8398e+000 -2.2390e+000
35021 0 +1.038500426e+000 +1.603085004e+002 +1.603085004e+002 -1.7374e+000 -1.2372e+000 +3.9702e+000 -1.8334e+000 -2.2360e+000
35128 0 +1.019804431e+000 +1.602898044e+002 +1.602898044e+002 -1.7393e+000 -1.2338e+000 +3.9719e+000 -1.8354e+000 -2.2337e+000
35482 0 +9.988480735e-001 +1.602688481e+002 +1.602688481e+002 -1.7302e+000 -1.2402e+000 +3.9884e+000 -1.8318e+000 -2.2299e+000
