% f evaluations | g evaluations | best noise-free fitness - Fopt (4.078000000000e+001) + sum g_i+ | measured fitness | best measured fitness or single-digit g-values | x1 | x2...
1 0 +1.009713876e+001 +5.087713876e+001 +5.087713876e+001 +1.0846e+000 +2.5558e+000
2 0 +7.464713209e+000 +4.824471321e+001 +4.824471321e+001 -1.0891e+000 -4.2098e+000
5 0 +2.058252487e+000 +4.283825249e+001 +4.283825249e+001 +4.6779e+000 -7.5998e-001
35 0 +1.674845388e+000 +4.245484539e+001 +4.245484539e+001 +3.1541e+000 +1.5012e+000
37 0 +1.589887966e+000 +4.236988797e+001 +4.236988797e+001 +3.1324e+000 +1.4752e+000
48 0 +1.563299155e+000 +4.234329915e+001 +4.234329915e+001 +3.0070e+000 +1.4177e+000
51 0 +1.509804344e+000 +4.228980434e+001 +4.228980434e+001 +3.0968e+000 +1.4446e+000
54 0 +1.465444375e+000 +4.224544437e+001 +4.224544437e+001 +3.0778e+000 +1.4220e+000
56 0 +1.421790726e+000 +4.220179073e+001 +4.220179073e+001 +3.2227e+000 +1.3831e+000
62 0 +1.269963998e+000 +4.204996400e+001 +4.204996400e+001 +3.1844e+000 +1.3014e+000
92 0 +1.247118884e+000 +4.202711888e+001 +4.202711888e+001 +3.1444e+000 +1.2881e+000
437 0 +9.700978053e-001 +4.175009781e+001 +4.175009781e+001 +4.2823e+000 +3.7830e-001
487 0 +9.440457665e-001 +4.172404577e+001 +4.172404577e+001 +4.2943e+000 +3.4423e-001
533 0 +9.313453544e-001 +4.171134535e+001 +4.171134535e+001 +4.3016e+000 +3.0370e-001
3326 0 +5.369293723e-001 +4.131692937e+001 +4.131692937e+001 -2.0306e+000 -1.6950e+000
3343 0 +1.636153113e-001 +4.094361531e+001 +4.094361531e+001 -1.9619e+000 -1.5257e+000
3344 0 +7.231534237e-002 +4.085231534e+001 +4.085231534e+001 -1.9019e+000 -1.3298e+000
3349 0 +1.160843815e-002 +4.079160844e+001 +4.079160844e+001 -2.2030e+000 -1.6101e+000
3351 0 +1.490815737e-004 +4.078014908e+001 +4.078014908e+001 -2.5786e+000 -1.8684e+000
3366 0 +9.677594982e-005 +4.078009678e+001 +4.078009678e+001 -2.4177e+000 -1.6950e+000
3373 0 +6.453357443e-006 +4.078000645e+001 +4.078000645e+001 -2.4958e+000 -1.7572e+000
3385 0 +4.271960421e-007 +4.078000043e+001 +4.078000043e+001 -2.5094e+000 -1.7748e+000
3400 0 +4.156017113e-007 +4.078000042e+001 +4.078000042e+001 -2.5098e+000 -1.7752e+000
3406 0 +1.687995521e-007 +4.078000017e+001 +4.078000017e+001 -2.5043e+000 -1.7734e+000
3430 0 +6.546130749e-008 +4.078000007e+001 +4.078000007e+001 -2.4991e+000 -1.7722e+000
3442 0 +5.880600185e-008 +4.078000006e+001 +4.078000006e+001 -2.5194e+000 -1.7856e+000
3448 0 +1.310313280e-008 +4.078000001e+001 +4.078000001e+001 -2.5168e+000 -1.7852e+000
3452 0 +2.493365514e-010 +4.078000000e+001 +4.078000000e+001 -2.5106e+000 -1.7838e+000
% f evaluations | g evaluations | best noise-free fitness - Fopt (-1.600000000000e+000) + sum g_i+ | measured fitness | best measured fitness or single-digit g-values | x1 | x2...
1 0 +7.286183367e+000 +5.686183367e+000 +5.686183367e+000 -1.2981e+000 -1.6855e+000
2 0 +1.978971044e+000 +3.789710443e-001 +3.789710443e-001 -1.4181e+000 +4.3488e-001
61 0 +1.946667325e+000 +3.466673246e-001 +3.466673246e-001 -1.1615e+000 +4.3488e-001
435 0 +1.883937536e+000 +2.839375361e-001 +2.839375361e-001 -2.7677e+000 -1.4613e+000
441 0 +1.670476398e+000 +7.047639753e-002 +7.047639753e-002 -3.5544e+000 +9.0319e-001
444 0 +1.641766283e+000 +4.176628259e-002 +4.176628259e-002 -3.5519e+000 +8.6146e-001
478 0 +1.599009333e+000 -9.906667598e-004 -9.906667598e-004 -3.5488e+000 +7.6838e-001
489 0 +1.544632090e+000 -5.536790989e-002 -5.536790989e-002 -2.6325e+000 -2.2717e+000
493 0 +9.386523105e-001 -6.613476895e-001 -6.613476895e-001 -2.7299e+000 -1.9268e+000
530 0 +9.323679650e-001 -6.676320350e-001 -6.676320350e-001 -2.7020e+000 -1.9255e+000
2500 0 +1.979690365e-002 -1.580203096e+000 -1.580203096e+000 +5.7679e-001 -1.9457e+000
2502 0 +1.233950033e-002 -1.587660500e+000 -1.587660500e+000 +6.9252e-001 -1.9457e+000
2506 0 +5.374106409e-003 -1.594625894e+000 -1.594625894e+000 +7.8717e-001 -1.9457e+000
2528 0 +2.294429433e-003 -1.597705571e+000 -1.597705571e+000 +9.6880e-001 -1.9523e+000
2536 0 +2.015715168e-003 -1.597984285e+000 -1.597984285e+000 +1.0698e+000 -1.9535e+000
2546 0 +8.868095816e-004 -1.599113190e+000 -1.599113190e+000 +1.3800e+000 -2.0202e+000
2548 0 +3.812982274e-004 -1.599618702e+000 -1.599618702e+000 +9.3515e-001 -2.0148e+000
2568 0 +1.248313262e-004 -1.599875169e+000 -1.599875169e+000 +1.0264e+000 -2.0271e+000
2581 0 +1.801129349e-005 -1.599981989e+000 -1.599981989e+000 +1.0370e+000 -2.0105e+000
2602 0 +8.118443664e-006 -1.599991882e+000 -1.599991882e+000 +1.0467e+000 -2.0101e+000
2613 0 +5.045204911e-006 -1.599994955e+000 -1.599994955e+000 +1.1531e+000 -2.0255e+000
2627 0 +4.683023433e-006 -1.599995317e+000 -1.599995317e+000 +1.1600e+000 -2.0252e+000
2629 0 +4.120071728e-006 -1.599995880e+000 -1.599995880e+000 +1.1590e+000 -2.0250e+000
2633 0 +2.226817575e-006 -1.599997773e+000 -1.599997773e+000 +1.0708e+000 -2.0116e+000
2637 0 +1.620621504e-008 -1.599999984e+000 -1.599999984e+000 +1.1111e+000 -2.0108e+000
2644 0 +1.494083612e-008 -1.599999985e+000 -1.599999985e+000 +1.1375e+000 -2.0105e+000
2647 0 +9.838870385e-009 -1.599999990e+000 -1.599999990e+000 +1.1350e+000 -2.0107e+000
% f evaluations | g evaluations | best noise-free fitness - Fopt (-3.708400000000e+002) + sum g_i+ | measured fitness | best measured fitness or single-digit g-values | x1 | x2...
1 0 +1.637126125e+001 -3.544687387e+002 -3.544687387e+002 +4.2669e+000 +2.7992e-001
3 0 +1.314222728e+001 -3.576977727e+002 -3.576977727e+002 +1.8122e+000 -1.1363e+000
4 0 +6.997162312e+000 -3.638428377e+002 -3.638428377e+002 +5.0000e+000 -5.0000e+000
7 0 +1.596474934e+000 -3.692435251e+002 -3.692435251e+002 -3.2132e-001 -4.7069e+000
35 0 +1.019397675e+000 -3.698206023e+002 -3.698206023e+002 +2.9334e+000 -4.3845e+000
37 0 +7.145055385e-001 -3.701254945e+002 -3.701254945e+002 +3.1166e+000 -4.3595e+000
39 0 +2.133675360e-001 -3.706266325e+002 -3.706266325e+002 +4.0688e+000 -1.1363e+000
64 0 +1.288645577e-001 -3.707111354e+002 -3.707111354e+002 +3.9662e+000 -1.1255e+000
72 0 +1.013814716e-002 -3.708298619e+002 -3.708298619e+002 +3.4335e+000 -8.7196e-001
82 0 +3.614755913e-003 -3.708363852e+002 -3.708363852e+002 +3.3939e+000 -8.7659e-001
112 0 +4.525176024e-005 -3.708399547e+002 -3.708399547e+002 +3.1366e+000 -8.4056e-001
141 0 +3.624573742e-005 -3.708399638e+002 -3.708399638e+002 +3.1724e+000 -8.5049e-001
162 0 +1.899505008e-005 -3.708399810e+002 -3.708399810e+002 +3.1618e+000 -8.4238e-001
166 0 +1.713345841e-005 -3.708399829e+002 -3.708399829e+002 +3.1675e+000 -8.4337e-001
171 0 +9.198095086e-008 -3.708399999e+002 -3.708399999e+002 +3.1366e+000 -8.1498e-001
219 0 +4.865586334e-008 -3.708400000e+002 -3.708400000e+002 +3.0992e+000 -7.9993e-001
225 0 +1.008544359e-008 -3.708400000e+002 -3.708400000e+002 +3.1125e+000 -8.1066e-001
237 0 +9.902692000e-010 -3.708400000e+002 -3.708400000e+002 +3.1127e+000 -8.0957e-001
322 0 +0.000000000e+000 -3.708400000e+002 -3.708400000e+002 +3.1147e+000 -8.0881e-001
% f evaluations | g evaluations | best noise-free fitness - Fopt (-3.256000000000e+001) + sum g_i+ | measured fitness | best measured fitness or single-digit g-values | x1 | x2...
1 0 +3.452702667e+001 +1.967026671e+000 +1.967026671e+000 -2.9077e+000 -2.5493e+000
2 0 +2.226028587e+001 -1.029971413e+001 -1.029971413e+001 +4.8817e-001 -2.3574e+000
3 0 +7.354226226e+000 -2.520577377e+001 -2.520577377e+001 -4.6395e+000 +3.3618e-001
8 0 +1.964176029e+000 -3.059582397e+001 -3.059582397e+001 -5.0000e+000 -3.1007e-001
10 0 +1.859109535e+000 -3.070089046e+001 -3.070089046e+001 -5.0000e+000 -3.6976e-001
33 0 +4.435255888e-001 -3.211647441e+001 -3.211647441e+001 +2.9956e-001 -3.8123e+000
46 0 +1.914514858e-001 -3.236854851e+001 -3.236854851e+001 +3.3181e-001 -3.8674e+000
50 0 +1.141299868e-001 -3.244587001e+001 -3.244587001e+001 +6.1110e-001 -3.8189e+000
51 0 +5.047938206e-002 -3.250952062e+001 -3.250952062e+001 +5.4445e-001 -3.7600e+000
55 0 +4.740084029e-002 -3.251259916e+001 -3.251259916e+001 +5.6147e-001 -3.7560e+000
64 0 +4.410532900e-002 -3.251589467e+001 -3.251589467e+001 +5.6147e-001 -3.6833e+000
82 0 +2.435892076e-002 -3.253564108e+001 -3.253564108e+001 +6.5136e-001 -3.6852e+000
87 0 +1.704679566e-002 -3.254295320e+001 -3.254295320e+001 +7.5436e-001 -3.6232e+000
109 0 +9.338752013e-003 -3.255066125e+001 -3.255066125e+001 +8.3531e-001 -3.5406e+000
116 0 +1.217155381e-003 -3.255878284e+001 -3.255878284e+001 +8.6714e-001 -3.4610e+000
122 0 +9.510581610e-004 -3.255904894e+001 -3.255904894e+001 +8.8331e-001 -3.4461e+000
123 0 +5.475867510e-004 -3.255945241e+001 -3.255945241e+001 +9.3769e-001 -3.3195e+000
132 0 +5.086177577e-004 -3.255949138e+001 -3.255949138e+001 +9.3955e-001 -3.3180e+000
140 0 +1.640198237e-004 -3.255983598e+001 -3.255983598e+001 +9.6208e-001 -3.3080e+000
143 0 +1.565907309e-005 -3.255998434e+001 -3.255998434e+001 +9.9363e-001 -3.3195e+000
157 0 +3.633593010e-006 -3.255999637e+001 -3.255999637e+001 +1.0036e+000 -3.2973e+000
173 0 +1.216645508e-006 -3.255999878e+001 -3.255999878e+001 +1.0315e+000 -3.2617e+000
179 0 +7.391536414e-007 -3.255999926e+001 -3.255999926e+001 +1.0371e+000 -3.2566e+000
187 0 +9.036088500e-008 -3.255999991e+001 -3.255999991e+001 +1.0636e+000 -3.2463e+000
190 0 +2.806274324e-009 -3.256000000e+001 -3.256000000e+001 +1.0518e+000 -3.2555e+000
% f evaluations | g evaluations | best noise-free fitness - Fopt (5.154000000000e+002) + sum g_i+ | measured fitness | best measured fitness or single-digit g-values | x1 | x2...
1 0 +1.039455700e+001 +5.257945570e+002 +5.257945570e+002 -2.8541e-001 -3.1136e+000
3 0 +5.881408881e+000 +5.212814089e+002 +5.212814089e+002 -1.9855e+000 +4.1100e+000
21 0 +2.219995251e+000 +5.176199953e+002 +5.176199953e+002 -2.8541e-001 +8.0972e-001
24 0 +2.020215850e+000 +5.174202159e+002 +5.174202159e+002 -3.0636e-001 +6.5685e-001
30 0 +1.133403643e+000 +5.165334036e+002 +5.165334036e+002 -2.5712e+000 -6.8005e-001
52 0 +9.534592801e-001 +5.163534593e+002 +5.163534593e+002 -2.5110e+000 -6.4250e-001
63 0 +2.142307764e-001 +5.156142308e+002 +5.156142308e+002 -3.4580e+000 -9.1933e-001
70 0 +2.021207893e-002 +5.154202121e+002 +5.154202121e+002 -3.2865e+000 -7.7228e-001
71 0 +1.285663872e-002 +5.154128566e+002 +5.154128566e+002 -3.6990e+000 -8.7945e-001
72 0 +1.588895932e-003 +5.154015889e+002 +5.154015889e+002 -3.6159e+000 -8.2278e-001
78 0 +9.200208331e-004 +5.154009200e+002 +5.154009200e+002 -3.6410e+000 -8.1864e-001
114 0 +7.746675162e-004 +5.154007747e+002 +5.154007747e+002 -3.6898e+000 -8.1143e-001
122 0 +2.680557624e-004 +5.154002681e+002 +5.154002681e+002 -3.6108e+000 -7.4733e-001
127 0 +1.959918060e-004 +5.154001960e+002 +5.154001960e+002 -3.5829e+000 -7.3831e-001
129 0 +8.470765351e-007 +5.154000008e+002 +5.154000008e+002 -3.4950e+000 -7.4290e-001
153 0 +4.806981906e-007 +5.154000005e+002 +5.154000005e+002 -3.4942e+000 -7.4154e-001
163 0 +1.512795507e-007 +5.154000002e+002 +5.154000002e+002 -3.5002e+000 -7.3738e-001
179 0 +8.454458111e-008 +5.154000001e+002 +5.154000001e+002 -3.4961e+000 -7.3747e-001
189 0 +1.574755970e-008 +5.154000000e+002 +5.154000000e+002 -3.4563e+000 -7.2281e-001
220 0 +1.173759756e-008 +5.154000000e+002 +5.154000000e+002 -3.4579e+000 -7.2427e-001
230 0 +9.550149116e-009 +5.154000000e+002 +5.154000000e+002 -3.4591e+000 -7.2424e-001
300 0 +0.000000000e+000 +5.154000000e+002 +5.154000000e+002 -3.4724e+000 -7.2866e-001
% f evaluations | g evaluations | best noise-free fitness - Fopt (-8.628000000000e+001) + sum g_i+ | measured fitness | best measured fitness or single-digit g-values | x1 | x2...
1 0 +2.448785507e+001 -6.179214493e+001 -6.179214493e+001 -4.9963e+000 +3.0751e+000
2 0 +9.373906618e+000 -7.690609338e+001 -7.690609338e+001 +3.7515e+000 -3.4219e+000
5 0 +1.801526308e+000 -8.447847369e+001 -8.447847369e+001 -2.4308e+000 -4.7258e+000
24 0 +1.265659911e+000 -8.501434009e+001 -8.501434009e+001 -2.4929e+000 -4.4504e+000
82 0 +1.245423511e+000 -8.503457649e+001 -8.503457649e+001 -2.5234e+000 -4.3906e+000
967 0 +9.958550257e-001 -8.528414497e+001 -8.528414497e+001 -2.6289e+000 +5.0000e+000
969 0 +9.428060318e-001 -8.533719397e+001 -8.533719397e+001 -2.6103e+000 +4.9047e+000
1011 0 +9.306636842e-001 -8.534933632e+001 -8.534933632e+001 -2.6621e+000 +4.9837e+000
1532 0 +8.095076119e-001 -8.547049239e+001 -8.547049239e+001 +1.2433e+000 -7.8377e-001
1536 0 +7.791795336e-001 -8.550082047e+001 -8.550082047e+001 +1.2783e+000 -7.5730e-001
1547 0 +7.012726458e-001 -8.557872735e+001 -8.557872735e+001 +1.2668e+000 -7.4586e-001
2110 0 +4.094628920e-002 -8.623905371e+001 -8.623905371e+001 -2.6497e+000 +2.8725e+000
2115 0 +1.648992192e-002 -8.626351008e+001 -8.626351008e+001 -2.6377e+000 +2.5336e+000
2129 0 +7.299157767e-003 -8.627270084e+001 -8.627270084e+001 -2.6619e+000 +2.7798e+000
2130 0 +2.612989056e-003 -8.627738701e+001 -8.627738701e+001 -2.6289e+000 +2.6348e+000
2148 0 +1.967686781e-003 -8.627803231e+001 -8.627803231e+001 -2.6272e+000 +2.6588e+000
2169 0 +1.926687113e-003 -8.627807331e+001 -8.627807331e+001 -2.6266e+000 +2.6591e+000
2170 0 +1.773157328e-003 -8.627822684e+001 -8.627822684e+001 -2.6233e+000 +2.6401e+000
2180 0 +1.430338008e-003 -8.627856966e+001 -8.627856966e+001 -2.6196e+000 +2.6499e+000
2181 0 +1.384858142e-003 -8.627861514e+001 -8.627861514e+001 -2.6187e+000 +2.6505e+000
2183 0 +1.206714874e-003 -8.627879329e+001 -8.627879329e+001 -2.6114e+000 +2.6555e+000
2186 0 +1.112240875e-003 -8.627888776e+001 -8.627888776e+001 -2.6121e+000 +2.6432e+000
2195 0 +1.037265456e-003 -8.627896273e+001 -8.627896273e+001 -2.6094e+000 +2.6391e+000
2196 0 +8.886639118e-004 -8.627911134e+001 -8.627911134e+001 -2.5953e+000 +2.6236e+000
2205 0 +8.423395496e-004 -8.627915766e+001 -8.627915766e+001 -2.5906e+000 +2.6146e+000
2207 0 +7.074348029e-004 -8.627929257e+001 -8.627929257e+001 -2.5833e+000 +2.6049e+000
2210 0 +4.789548690e-004 -8.627952105e+001 -8.627952105e+001 -2.5718e+000 +2.5970e+000
2225 0 +4.030823860e-004 -8.627959692e+001 -8.627959692e+001 -2.5688e+000 +2.5915e+000
2228 0 +1.607628713e-004 -8.627983924e+001 -8.627983924e+001 -2.5438e+000 +2.5524e+000
2229 0 +1.064156482e-004 -8.627989358e+001 -8.627989358e+001 -2.5371e+000 +2.5346e+000
2230 0 +1.013481504e-004 -8.627989865e+001 -8.627989865e+001 -2.5360e+000 +2.5325e+000
2232 0 +5.101487741e-005 -8.627994899e+001 -8.627994899e+001 -2.5232e+000 +2.5095e+000
2235 0 +3.362112277e-005 -8.627996638e+001 -8.627996638e+001 -2.5134e+000 +2.4843e+000
2236 0 +3.142205823e-005 -8.627996858e+001 -8.627996858e+001 -2.5110e+000 +2.4793e+000
2238 0 +2.934301122e-005 -8.627997066e+001 -8.627997066e+001 -2.5065e+000 +2.4699e+000
2247 0 +6.597236720e-006 -8.627999340e+001 -8.627999340e+001 -2.4951e+000 +2.4716e+000
2250 0 +4.011544519e-007 -8.627999960e+001 -8.627999960e+001 -2.4638e+000 +2.4181e+000
2253 0 +1.617215872e-007 -8.627999984e+001 -8.627999984e+001 -2.4615e+000 +2.4171e+000
2272 0 +1.669761218e-008 -8.627999998e+001 -8.627999998e+001 -2.4602e+000 +2.4265e+000
2279 0 +1.590792920e-008 -8.627999998e+001 -8.627999998e+001 -2.4600e+000 +2.4263e+000
2281 0 +1.286194617e-008 -8.627999999e+001 -8.627999999e+001 -2.4592e+000 +2.4253e+000
2282 0 +3.019522410e-010 -8.628000000e+001 -8.628000000e+001 -2.4491e+000 +2.4081e+000
% f evaluations | g evaluations | best noise-free fitness - Fopt (2.224000000000e+001) + sum g_i+ | measured fitness | best measured fitness or single-digit g-values | x1 | x2...
1 0 +4.403594224e+001 +6.627594224e+001 +6.627594224e+001 +4.8253e+000 +1.3723e-001
2 0 +1.368142706e+001 +3.592142706e+001 +3.592142706e+001 +3.1469e+000 -2.9618e+000
3 0 +1.125546532e+001 +3.349546532e+001 +3.349546532e+001 +5.8837e-002 -7.8162e-001
7 0 +8.709201474e+000 +3.094920147e+001 +3.094920147e+001 +2.2890e+000 +1.6143e+000
12 0 +2.347514512e+000 +2.458751451e+001 +2.458751451e+001 +6.7126e-001 +5.0000e+000
18 0 +1.974835481e+000 +2.421483548e+001 +2.421483548e+001 +1.7169e-001 +5.0000e+000
54 0 +1.099763873e+000 +2.333976387e+001 +2.333976387e+001 +3.1419e-001 +4.7544e+000
78 0 +1.068783159e+000 +2.330878316e+001 +2.330878316e+001 +3.0123e-001 +4.7544e+000
87 0 +9.513058986e-001 +2.319130590e+001 +2.319130590e+001 +2.7267e-001 +4.7277e+000
135 0 +8.994305440e-001 +2.313943054e+001 +2.313943054e+001 +2.8799e-001 +4.6165e+000
136 0 +8.868307737e-001 +2.312683077e+001 +2.312683077e+001 +2.8367e-001 +4.6232e+000
141 0 +8.531783109e-001 +2.309317831e+001 +2.309317831e+001 +2.3750e-001 +4.7021e+000
146 0 +8.427798067e-001 +2.308277981e+001 +2.308277981e+001 +2.3840e-001 +4.6937e+000
147 0 +8.282707700e-001 +2.306827077e+001 +2.306827077e+001 +2.4188e-001 +4.6765e+000
150 0 +8.067734284e-001 +2.304677343e+001 +2.304677343e+001 +2.4446e-001 +4.6142e+000
159 0 +7.591193124e-001 +2.299911931e+001 +2.299911931e+001 +2.1168e-001 +4.6059e+000
171 0 +7.522875018e-001 +2.299228750e+001 +2.299228750e+001 +2.0595e-001 +4.6147e+000
173 0 +7.192065288e-001 +2.295920653e+001 +2.295920653e+001 +1.6119e-001 +4.6267e+000
188 0 +7.072613779e-001 +2.294726138e+001 +2.294726138e+001 +1.1995e-001 +4.6270e+000
5502 0 +4.591920094e-001 +2.269919201e+001 +2.269919201e+001 +2.0294e+000 +1.0698e+000
5513 0 +2.487447413e-001 +2.248874474e+001 +2.248874474e+001 +2.0661e+000 +1.0648e+000
5522 0 +4.105028433e-002 +2.228105028e+001 +2.228105028e+001 +1.9923e+000 +7.7300e-001
5523 0 +3.569828481e-002 +2.227569828e+001 +2.227569828e+001 +1.9951e+000 +7.9033e-001
5534 0 +3.481450068e-002 +2.227481450e+001 +2.227481450e+001 +1.9914e+000 +7.9668e-001
5547 0 +3.365133853e-002 +2.227365134e+001 +2.227365134e+001 +2.0413e+000 +9.1202e-001
5549 0 +2.865239544e-002 +2.226865240e+001 +2.226865240e+001 +2.0091e+000 +8.4689e-001
5562 0 +2.596396710e-002 +2.226596397e+001 +2.226596397e+001 +2.0157e+000 +8.3866e-001
5564 0 +1.450571275e-002 +2.225450571e+001 +2.225450571e+001 +2.0958e+000 +9.0449e-001
5566 0 +1.438055511e-002 +2.225438056e+001 +2.225438056e+001 +2.0990e+000 +9.0829e-001
5572 0 +1.308459663e-002 +2.225308460e+001 +2.225308460e+001 +2.1199e+000 +8.8265e-001
5574 0 +3.765522355e-003 +2.224376552e+001 +2.224376552e+001 +2.2281e+000 +9.4194e-001
5582 0 +8.426646538e-004 +2.224084266e+001 +2.224084266e+001 +2.3591e+000 +1.0910e+000
5587 0 +2.369900165e-004 +2.224023699e+001 +2.224023699e+001 +2.3681e+000 +1.0697e+000
5616 0 +6.186790098e-005 +2.224006187e+001 +2.224006187e+001 +2.4266e+000 +1.1157e+000
5617 0 +4.948795947e-005 +2.224004949e+001 +2.224004949e+001 +2.4305e+000 +1.1178e+000
5618 0 +2.911916885e-005 +2.224002912e+001 +2.224002912e+001 +2.4428e+000 +1.1253e+000
5622 0 +2.045750520e-007 +2.224000020e+001 +2.224000020e+001 +2.4983e+000 +1.1462e+000
5656 0 +1.078242136e-007 +2.224000011e+001 +2.224000011e+001 +2.5029e+000 +1.1543e+000
5667 0 +6.927328400e-008 +2.224000007e+001 +2.224000007e+001 +2.5086e+000 +1.1593e+000
5684 0 +4.761510652e-008 +2.224000005e+001 +2.224000005e+001 +2.5047e+000 +1.1529e+000
5688 0 +2.282021683e-009 +2.224000000e+001 +2.224000000e+001 +2.5230e+000 +1.1669e+000
5771 0 +0.000000000e+000 +2.224000000e+001 +2.224000000e+001 +2.5231e+000 +1.1648e+000
% f evaluations | g evaluations | best noise-free fitness - Fopt (-2.301000000000e+001) + sum g_i+ | measured fitness | best measured fitness or single-digit g-values | x1 | x2...
1 0 +8.755157971e+000 -1.425484203e+001 -1.425484203e+001 +2.4603e+000 +3.8799e+000
2 0 +8.715434701e+000 -1.429456530e+001 -1.429456530e+001 +3.3934e+000 -6.9522e-001
8 0 +7.521577730e+000 -1.548842227e+001 -1.548842227e+001 +8.8478e-001 +6.0564e-001
19 0 +2.000413186e+000 -2.100958681e+001 -2.100958681e+001 +1.3755e+000 -3.6544e+000
47 0 +1.991680707e+000 -2.101831929e+001 -2.101831929e+001 +1.3818e+000 -3.6544e+000
48 0 +3.717510987e-001 -2.263824890e+001 -2.263824890e+001 +1.9856e+000 -3.4356e+000
59 0 +2.608636450e-001 -2.274913636e+001 -2.274913636e+001 +2.0516e+000 -3.3975e+000
80 0 +1.810294965e-001 -2.282897050e+001 -2.282897050e+001 +2.2135e+000 -3.3351e+000
133 0 +1.064691515e-001 -2.290353085e+001 -2.290353085e+001 +2.2714e+000 -3.2592e+000
143 0 +1.003285309e-001 -2.290967147e+001 -2.290967147e+001 +2.2433e+000 -3.2582e+000
147 0 +9.240178761e-002 -2.291759821e+001 -2.291759821e+001 +2.2944e+000 -3.2414e+000
155 0 +5.786314386e-002 -2.295213686e+001 -2.295213686e+001 +2.6550e+000 -3.0643e+000
156 0 +2.512429239e-002 -2.298487571e+001 -2.298487571e+001 +2.6719e+000 -3.0242e+000
158 0 +1.489560014e-002 -2.299510440e+001 -2.299510440e+001 +2.5431e+000 -2.9152e+000
160 0 +3.370291667e-003 -2.300662971e+001 -2.300662971e+001 +2.5870e+000 -2.9527e+000
176 0 +3.157394283e-004 -2.300968426e+001 -2.300968426e+001 +2.8941e+000 -2.7210e+000
185 0 +1.190556951e-007 -2.300999988e+001 -2.300999988e+001 +2.8771e+000 -2.7692e+000
189 0 +6.997286661e-008 -2.300999993e+001 -2.300999993e+001 +2.8651e+000 -2.7780e+000
205 0 +4.456253677e-008 -2.300999996e+001 -2.300999996e+001 +2.8672e+000 -2.7774e+000
269 0 +1.178478115e-008 -2.300999999e+001 -2.300999999e+001 +2.8818e+000 -2.7693e+000
274 0 +6.507406169e-009 -2.300999999e+001 -2.300999999e+001 +2.8800e+000 -2.7707e+000
% f evaluations | g evaluations | best noise-free fitness - Fopt (-3.323700000000e+002) + sum g_i+ | measured fitness | best measured fitness or single-digit g-values | x1 | x2...
1 0 +8.516628377e+000 -3.238533716e+002 -3.238533716e+002 -1.1261e+000 +6.9574e-001
3 0 +7.918306116e+000 -3.244516939e+002 -3.244516939e+002 +6.1846e-001 -1.7007e+000
6 0 +6.338418713e+000 -3.260315813e+002 -3.260315813e+002 +1.3478e+000 +1.3305e-001
7 0 +3.774732813e+000 -3.285952672e+002 -3.285952672e+002 -2.3000e+000 -4.0505e+000
10 0 +2.164629748e+000 -3.302053703e+002 -3.302053703e+002 +1.6208e+000 -2.3922e+000
12 0 +2.040754356e+000 -3.303292456e+002 -3.303292456e+002 +1.7772e+000 -2.4019e+000
29 0 +1.759913745e+000 -3.306100863e+002 -3.306100863e+002 +1.6059e+000 -2.4932e+000
35 0 +9.558570376e-001 -3.314141430e+002 -3.314141430e+002 +1.3476e+000 -2.5930e+000
39 0 +2.918474548e-001 -3.320781525e+002 -3.320781525e+002 +1.0174e+000 -3.0760e+000
41 0 +2.822352025e-001 -3.320877648e+002 -3.320877648e+002 +9.5627e-001 -3.1210e+000
43 0 +1.670243612e-002 -3.323532976e+002 -3.323532976e+002 +6.1846e-001 -3.2138e+000
50 0 +1.310452998e-002 -3.323568955e+002 -3.323568955e+002 +6.7707e-001 -3.1347e+000
68 0 +1.149802188e-002 -3.323585020e+002 -3.323585020e+002 +9.2898e-002 -3.4936e+000
69 0 +8.150611795e-004 -3.323691849e+002 -3.323691849e+002 +3.7143e-001 -3.2244e+000
71 0 +6.290115811e-004 -3.323693710e+002 -3.323693710e+002 +3.5524e-001 -3.3131e+000
78 0 +5.043887637e-005 -3.323699496e+002 -3.323699496e+002 +1.3937e-001 -3.3868e+000
95 0 +2.208273708e-005 -3.323699779e+002 -3.323699779e+002 +1.7805e-001 -3.3515e+000
97 0 +6.560277257e-006 -3.323699934e+002 -3.323699934e+002 +1.8318e-001 -3.3615e+000
98 0 +4.698813427e-008 -3.323700000e+002 -3.323700000e+002 +2.4223e-001 -3.3264e+000
145 0 +7.389644452e-013 -3.323700000e+002 -3.323700000e+002 +2.5157e-001 -3.3257e+000
219 0 +0.000000000e+000 -3.323700000e+002 -3.323700000e+002 +2.5082e-001 -3.3259e+000
% f evaluations | g evaluations | best noise-free fitness - Fopt (-1.231300000000e+002) + sum g_i+ | measured fitness | best measured fitness or single-digit g-values | x1 | x2...
1 0 +6.593084733e+000 -1.165369153e+002 -1.165369153e+002 -5.4050e-001 +1.4321e+000
4 0 +6.049918026e+000 -1.170800820e+002 -1.170800820e+002 +5.0000e+000 +5.0000e+000
11 0 +5.384194262e+000 -1.177458057e+002 -1.177458057e+002 +3.0667e-001 +1.9888e+000
13 0 +2.663461992e+000 -1.204665380e+002 -1.204665380e+002 +2.0131e+000 -4.4483e+000
15 0 +2.008276953e+000 -1.211217230e+002 -1.211217230e+002 -4.6956e+000 +3.7894e+000
80 0 +1.957832669e+000 -1.211721673e+002 -1.211721673e+002 -4.4559e+000 +3.8998e+000
94 0 +1.935323861e+000 -1.211946761e+002 -1.211946761e+002 -4.1512e+000 +4.0096e+000
99 0 +1.198653367e+000 -1.219313466e+002 -1.219313466e+002 -3.0698e+000 +4.3084e+000
109 0 +1.160702778e+000 -1.219692972e+002 -1.219692972e+002 -2.9712e+000 +4.3362e+000
116 0 +9.506752014e-001 -1.221793248e+002 -1.221793248e+002 -2.4087e+000 +4.4654e+000
199 0 +9.320410322e-001 -1.221979590e+002 -1.221979590e+002 -2.6090e+000 +4.4125e+000
4038 0 +5.206709508e-001 -1.226093290e+002 -1.226093290e+002 +2.1063e+000 -1.5131e+000
4039 0 +4.993742628e-001 -1.226306257e+002 -1.226306257e+002 +2.5066e+000 -1.3924e+000
4045 0 +4.691121125e-001 -1.226608879e+002 -1.226608879e+002 +3.1519e+000 -8.1618e-001
4070 0 +4.524889164e-001 -1.226775111e+002 -1.226775111e+002 +3.1546e+000 -8.2103e-001
4089 0 +9.208199471e-002 -1.230379180e+002 -1.230379180e+002 +3.0695e+000 -9.5173e-001
4091 0 +7.998753690e-002 -1.230500125e+002 -1.230500125e+002 +2.9686e+000 -9.4915e-001
4099 0 +7.272512333e-002 -1.230572749e+002 -1.230572749e+002 +2.9289e+000 -9.5411e-001
4106 0 +5.519571502e-002 -1.230748043e+002 -1.230748043e+002 +2.8069e+000 -9.7437e-001
4108 0 +1.555478046e-002 -1.231144452e+002 -1.231144452e+002 +2.6972e+000 -1.0349e+000
4115 0 +1.498431745e-002 -1.231150157e+002 -1.231150157e+002 +2.7232e+000 -1.0362e+000
4118 0 +1.422315395e-002 -1.231157768e+002 -1.231157768e+002 +2.1614e+000 -1.1620e+000
4121 0 +2.704138093e-003 -1.231272959e+002 -1.231272959e+002 +2.1700e+000 -1.1960e+000
4123 0 +1.941311885e-003 -1.231280587e+002 -1.231280587e+002 +2.3199e+000 -1.1500e+000
4138 0 +1.085441049e-004 -1.231298915e+002 -1.231298915e+002 +2.2384e+000 -1.2067e+000
4154 0 +8.735577870e-005 -1.231299126e+002 -1.231299126e+002 +2.2624e+000 -1.1995e+000
4155 0 +6.461845513e-005 -1.231299354e+002 -1.231299354e+002 +2.2728e+000 -1.1979e+000
4165 0 +2.763131126e-005 -1.231299724e+002 -1.231299724e+002 +2.2155e+000 -1.2417e+000
4166 0 +2.585328672e-005 -1.231299741e+002 -1.231299741e+002 +2.2193e+000 -1.2399e+000
4171 0 +5.749244139e-006 -1.231299943e+002 -1.231299943e+002 +2.2607e+000 -1.2176e+000
4189 0 +1.746931133e-006 -1.231299983e+002 -1.231299983e+002 +2.2922e+000 -1.2063e+000
4196 0 +1.541076884e-006 -1.231299985e+002 -1.231299985e+002 +2.2918e+000 -1.2075e+000
4199 0 +5.126884020e-007 -1.231299995e+002 -1.231299995e+002 +2.2981e+000 -1.2074e+000
4201 0 +4.330453720e-007 -1.231299996e+002 -1.231299996e+002 +2.2970e+000 -1.2083e+000
4216 0 +5.432848127e-008 -1.231299999e+002 -1.231299999e+002 +2.3043e+000 -1.2087e+000
4217 0 +1.198380062e-008 -1.231300000e+002 -1.231300000e+002 +2.3032e+000 -1.2119e+000
4237 0 +2.870180538e-009 -1.231300000e+002 -1.231300000e+002 +2.3141e+000 -1.2112e+000
% f evaluations | g evaluations | best noise-free fitness - Fopt (-1.537900000000e+002) + sum g_i+ | measured fitness | best measured fitness or single-digit g-values | x1 | x2...
1 0 +1.174648410e+001 -1.420435159e+002 -1.420435159e+002 -1.5327e+000 +2.5671e+000
2 0 +9.400667856e+000 -1.443893321e+002 -1.443893321e+002 +9.1576e-001 -2.0180e+000
3 0 +7.082489877e+000 -1.467075101e+002 -1.467075101e+002 +2.6123e+000 -2.8568e+000
5 0 +6.735493170e+000 -1.470545068e+002 -1.470545068e+002 +1.8823e+000 +1.1033e+000
14 0 +6.464218997e+000 -1.473257810e+002 -1.473257810e+002 +5.1710e-001 -4.8200e-001
15 0 +4.884910089e+000 -1.489050899e+002 -1.489050899e+002 +9.0272e-001 +9.8025e-001
26 0 +2.253914415e+000 -1.515360856e+002 -1.515360856e+002 +1.1583e+000 +1.9492e+000
38 0 +1.974423330e+000 -1.518155767e+002 -1.518155767e+002 +3.0598e+000 +3.3547e+000
74 0 +1.606927078e+000 -1.521830729e+002 -1.521830729e+002 +1.7375e+000 +2.3695e+000
106 0 +1.411790890e+000 -1.523782091e+002 -1.523782091e+002 +1.6706e+000 +2.3136e+000
122 0 +1.338639165e+000 -1.524513608e+002 -1.524513608e+002 +1.6192e+000 +2.1696e+000
131 0 +1.311703399e+000 -1.524782966e+002 -1.524782966e+002 +1.5883e+000 +2.1183e+000
157 0 +1.270907845e+000 -1.525190922e+002 -1.525190922e+002 +1.5546e+000 +2.0921e+000
158 0 +1.258689496e+000 -1.525313105e+002 -1.525313105e+002 +1.5180e+000 +2.0637e+000
594 0 +1.226576502e+000 -1.525634235e+002 -1.525634235e+002 -9.9238e-001 +1.8638e+000
603 0 +7.264783312e-003 -1.537827352e+002 -1.537827352e+002 -1.8120e+000 +2.0913e+000
611 0 +6.901972940e-003 -1.537830980e+002 -1.537830980e+002 -1.8170e+000 +2.0905e+000
656 0 +3.963248222e-003 -1.537860368e+002 -1.537860368e+002 -1.8512e+000 +2.1154e+000
667 0 +2.875300069e-003 -1.537871247e+002 -1.537871247e+002 -1.9157e+000 +2.1707e+000
668 0 +1.316518276e-003 -1.537886835e+002 -1.537886835e+002 -2.4656e+000 +2.4196e+000
670 0 +9.192599622e-004 -1.537890807e+002 -1.537890807e+002 -2.4398e+000 +2.4078e+000
683 0 +6.684433289e-004 -1.537893316e+002 -1.537893316e+002 -2.2353e+000 +2.2643e+000
689 0 +8.736532564e-005 -1.537899126e+002 -1.537899126e+002 -2.3032e+000 +2.3260e+000
696 0 +8.605369717e-005 -1.537899139e+002 -1.537899139e+002 -2.3026e+000 +2.3257e+000
697 0 +7.783749456e-005 -1.537899222e+002 -1.537899222e+002 -2.2938e+000 +2.3203e+000
701 0 +5.213710151e-005 -1.537899479e+002 -1.537899479e+002 -2.2851e+000 +2.3172e+000
710 0 +3.278074701e-007 -1.537899997e+002 -1.537899997e+002 -2.2336e+000 +2.3099e+000
713 0 +2.188471626e-011 -1.537900000e+002 -1.537900000e+002 -2.1993e+000 +2.2928e+000
% f evaluations | g evaluations | best noise-free fitness - Fopt (-4.860000000000e+001) + sum g_i+ | measured fitness | best measured fitness or single-digit g-values | x1 | x2...
1 0 +6.816646939e+000 -4.178335306e+001 -4.178335306e+001 +2.1058e+000 -3.6093e+000
7 0 +3.269271226e+000 -4.533072877e+001 -4.533072877e+001 -1.2930e+000 -2.1313e+000
16 0 +2.828472047e+000 -4.577152795e+001 -4.577152795e+001 -4.4567e-001 -2.2343e+000
18 0 +2.238931652e+000 -4.636106835e+001 -4.636106835e+001 -3.6473e-001 -2.1563e+000
19 0 +2.017474847e+000 -4.658252515e+001 -4.658252515e+001 +1.7792e+000 +3.0964e+000
27 0 +1.940518353e+000 -4.665948165e+001 -4.665948165e+001 +6.9803e-001 +3.6126e+000
32 0 +4.795076439e-001 -4.812049236e+001 -4.812049236e+001 -2.1567e+000 -1.2511e+000
34 0 +9.325348265e-005 -4.859990675e+001 -4.859990675e+001 -2.2660e+000 -1.4225e+000
83 0 +5.126071253e-005 -4.859994874e+001 -4.859994874e+001 -2.2225e+000 -1.4378e+000
114 0 +2.771073830e-005 -4.859997229e+001 -4.859997229e+001 -2.1044e+000 -1.5052e+000
115 0 +1.876650491e-005 -4.859998123e+001 -4.859998123e+001 -2.1166e+000 -1.4989e+000
136 0 +1.548803663e-005 -4.859998451e+001 -4.859998451e+001 -2.1250e+000 -1.5002e+000
137 0 +2.224671718e-007 -4.859999978e+001 -4.859999978e+001 -2.2190e+000 -1.4682e+000
145 0 +5.249773949e-010 -4.860000000e+001 -4.860000000e+001 -2.2098e+000 -1.4668e+000
194 0 +0.000000000e+000 -4.860000000e+001 -4.860000000e+001 -2.2063e+000 -1.4669e+000
% f evaluations | g evaluations | best noise-free fitness - Fopt (2.770000000000e+001) + sum g_i+ | measured fitness | best measured fitness or single-digit g-values | x1 | x2...
1 0 +8.645838396e+000 +3.634583840e+001 +3.634583840e+001 -4.8673e+000 +2.2069e+000
2 0 +7.578022686e-001 +2.845780227e+001 +2.845780227e+001 -2.9467e+000 -4.7843e+000
45 0 +7.258804711e-001 +2.842588047e+001 +2.842588047e+001 -2.9588e+000 -4.7740e+000
65 0 +6.952247177e-001 +2.839522472e+001 +2.839522472e+001 -3.1909e+000 -4.7740e+000
6984 0 +5.965743290e-001 +2.829657433e+001 +2.829657433e+001 +4.0410e+000 -3.2672e-002
6986 0 +3.329810346e-001 +2.803298103e+001 +2.803298103e+001 +4.2939e+000 -7.8991e-002
6998 0 +2.963569855e-001 +2.799635699e+001 +2.799635699e+001 +4.8415e+000 -2.5193e-001
7008 0 +2.089508054e-001 +2.790895081e+001 +2.790895081e+001 +4.8006e+000 -2.3941e-001
7016 0 +1.598950124e-001 +2.785989501e+001 +2.785989501e+001 +4.7525e+000 -1.8992e-001
7018 0 +1.260600723e-001 +2.782606007e+001 +2.782606007e+001 +4.5454e+000 -1.4741e-001
7035 0 +1.178091165e-001 +2.781780912e+001 +2.781780912e+001 +4.6411e+000 -1.9506e-001
7043 0 +9.322022089e-002 +2.779322022e+001 +2.779322022e+001 +4.5032e+000 -1.6846e-001
7054 0 +8.637564660e-002 +2.778637565e+001 +2.778637565e+001 +4.5581e+000 -1.9599e-001
7059 0 +5.685507886e-002 +2.775685508e+001 +2.775685508e+001 +4.4898e+000 -2.0615e-001
7066 0 +5.431793233e-002 +2.775431793e+001 +2.775431793e+001 +4.4928e+000 -2.1561e-001
7070 0 +2.513623257e-002 +2.772513623e+001 +2.772513623e+001 +4.2992e+000 -2.0207e-001
7071 0 +2.378090382e-002 +2.772378090e+001 +2.772378090e+001 +4.3736e+000 -2.5228e-001
7073 0 +1.341973850e-002 +2.771341974e+001 +2.771341974e+001 +4.2111e+000 -2.2121e-001
7079 0 +5.134265199e-003 +2.770513427e+001 +2.770513427e+001 +4.1928e+000 -2.6804e-001
7084 0 +3.253778983e-003 +2.770325378e+001 +2.770325378e+001 +4.0813e+000 -2.4931e-001
7088 0 +9.105987292e-004 +2.770091060e+001 +2.770091060e+001 +3.9418e+000 -2.5323e-001
7089 0 +4.999213657e-004 +2.770049992e+001 +2.770049992e+001 +3.8115e+000 -3.4177e-001
7099 0 +2.180441634e-004 +2.770021804e+001 +2.770021804e+001 +3.7635e+000 -3.3960e-001
7101 0 +4.688504641e-005 +2.770004689e+001 +2.770004689e+001 +3.7198e+000 -3.3113e-001
7110 0 +6.577282463e-006 +2.770000658e+001 +2.770000658e+001 +3.7128e+000 -3.0490e-001
7126 0 +1.195795161e-006 +2.770000120e+001 +2.770000120e+001 +3.7428e+000 -3.0321e-001
7148 0 +1.208172407e-008 +2.770000001e+001 +2.770000001e+001 +3.7862e+000 -3.0253e-001
7163 0 +2.086988360e-009 +2.770000000e+001 +2.770000000e+001 +3.7877e+000 -3.0477e-001
% f evaluations | g evaluations | best noise-free fitness - Fopt (2.993000000000e+001) + sum g_i+ | measured fitness | best measured fitness or single-digit g-values | x1 | x2...
1 0 +5.790418798e+000 +3.572041880e+001 +3.572041880e+001 -2.8090e+000 -1.4093e+000
3 0 +2.182756929e+000 +3.211275693e+001 +3.211275693e+001 +3.8674e-001 +3.4509e+000
8 0 +6.996595927e-001 +3.062965959e+001 +3.062965959e+001 -5.6431e-001 +8.8953e-001
28 0 +4.449497687e-001 +3.037494977e+001 +3.037494977e+001 -6.2695e-001 +8.8953e-001
46 0 +2.255265830e-001 +3.015552658e+001 +3.015552658e+001 -6.6586e-001 +8.9199e-001
57 0 +7.368862371e-002 +3.000368862e+001 +3.000368862e+001 -8.9455e-001 +1.0444e+000
63 0 +4.374689773e-002 +2.997374690e+001 +2.997374690e+001 -8.4312e-001 +1.0437e+000
77 0 +3.340005814e-002 +2.996340006e+001 +2.996340006e+001 -8.4178e-001 +1.0810e+000
89 0 +1.937000066e-002 +2.994937000e+001 +2.994937000e+001 -8.1575e-001 +1.2020e+000
96 0 +1.264613590e-002 +2.994264614e+001 +2.994264614e+001 -8.8359e-001 +1.2331e+000
101 0 +3.639177859e-003 +2.993363918e+001 +2.993363918e+001 -9.0204e-001 +1.6215e+000
104 0 +1.340559335e-004 +2.993013406e+001 +2.993013406e+001 -9.7340e-001 +1.7530e+000
108 0 +3.225068946e-005 +2.993003225e+001 +2.993003225e+001 -1.0012e+000 +1.6709e+000
110 0 +1.791273004e-005 +2.993001791e+001 +2.993001791e+001 -9.8017e-001 +1.6273e+000
125 0 +6.573757716e-006 +2.993000657e+001 +2.993000657e+001 -9.6715e-001 +1.6274e+000
136 0 +5.771838765e-006 +2.993000577e+001 +2.993000577e+001 -9.6723e-001 +1.6374e+000
142 0 +4.108331940e-006 +2.993000411e+001 +2.993000411e+001 -9.7035e-001 +1.6370e+000
149 0 +4.005388767e-007 +2.993000040e+001 +2.993000040e+001 -9.9478e-001 +1.7352e+000
151 0 +1.406105810e-008 +2.993000001e+001 +2.993000001e+001 -9.9153e-001 +1.7165e+000
156 0 +8.363443271e-011 +2.993000000e+001 +2.993000000e+001 -9.8910e-001 +1.7043e+000
% f evaluations | g evaluations | best noise-free fitness - Fopt (-1.983000000000e+001) + sum g_i+ | measured fitness | best measured fitness or single-digit g-values | x1 | x2...
1 0 +7.509053042e+000 -1.232094696e+001 -1.232094696e+001 -3.7123e+000 -2.6821e+000
2 0 +5.689642991e+000 -1.414035701e+001 -1.414035701e+001 -9.0733e-001 -3.8595e-001
28 0 +2.033189475e+000 -1.779681053e+001 -1.779681053e+001 -2.5919e+000 +3.1989e+000
30 0 +1.907621787e+000 -1.792237821e+001 -1.792237821e+001 -1.7209e+000 +4.3561e+000
33 0 +1.486060770e+000 -1.834393923e+001 -1.834393923e+001 -1.6188e+000 +4.7946e+000
49 0 +1.259920538e+000 -1.857007946e+001 -1.857007946e+001 -1.5495e+000 +4.8478e+000
70 0 +5.431089773e-001 -1.928689102e+001 -1.928689102e+001 -9.2221e-001 +1.5877e+000
82 0 +4.679956479e-001 -1.936200435e+001 -1.936200435e+001 -8.3048e-001 +1.6581e+000
83 0 +4.494250878e-001 -1.938057491e+001 -1.938057491e+001 -7.3062e-001 +1.7105e+000
88 0 +1.372123721e-001 -1.969278763e+001 -1.969278763e+001 -2.8313e-001 +1.4435e+000
94 0 +5.088141477e-002 -1.977911859e+001 -1.977911859e+001 -1.6186e-001 +1.4604e+000
123 0 +4.191153150e-002 -1.978808847e+001 -1.978808847e+001 -2.8263e-001 +1.5387e+000
129 0 +4.154971477e-002 -1.978845029e+001 -1.978845029e+001 -2.8096e-001 +1.5384e+000
133 0 +2.367135242e-002 -1.980632865e+001 -1.980632865e+001 -1.8354e-001 +1.5124e+000
151 0 +1.791075716e-002 -1.981208924e+001 -1.981208924e+001 -1.6542e-001 +1.5207e+000
153 0 +1.760322630e-002 -1.981239677e+001 -1.981239677e+001 -1.6811e-001 +1.5659e+000
155 0 +1.663917316e-002 -1.981336083e+001 -1.981336083e+001 -8.5310e-002 +1.5861e+000
160 0 +1.059959653e-003 -1.982894004e+001 -1.982894004e+001 +2.1985e-001 +1.4435e+000
161 0 +1.458585366e-005 -1.982998541e+001 -1.982998541e+001 +3.6620e-001 +1.4800e+000
177 0 +6.761325658e-006 -1.982999324e+001 -1.982999324e+001 +3.7616e-001 +1.4763e+000
179 0 +4.329725936e-006 -1.982999567e+001 -1.982999567e+001 +3.4528e-001 +1.4775e+000
180 0 +1.818307638e-007 -1.982999982e+001 -1.982999982e+001 +3.4430e-001 +1.4659e+000
181 0 +5.977776496e-008 -1.982999994e+001 -1.982999994e+001 +3.7334e-001 +1.4581e+000
229 0 +1.559867258e-008 -1.982999998e+001 -1.982999998e+001 +3.8309e-001 +1.4583e+000
253 0 +1.212701051e-008 -1.982999999e+001 -1.982999999e+001 +3.8079e-001 +1.4587e+000
256 0 +1.110546322e-008 -1.982999999e+001 -1.982999999e+001 +3.8028e-001 +1.4590e+000
262 0 +5.635563127e-009 -1.982999999e+001 -1.982999999e+001 +3.7709e-001 +1.4596e+000
307 0 +0.000000000e+000 -1.983000000e+001 -1.983000000e+001 +3.7417e-001 +1.4623e+000
