% f evaluations | g evaluations | best noise-free fitness - Fopt (1.026100000000e+002) + sum g_i+ | measured fitness | best measured fitness or single-digit g-values | x1 | x2...
1 0 +1.770828942e+001 +1.203182894e+002 +1.203182894e+002 -1.7303e+000 +9.3437e-001
9 0 +1.496814992e+001 +1.175781499e+002 +1.175781499e+002 +4.8755e+000 -2.7900e-001
16 0 +5.783049152e+000 +1.083930492e+002 +1.083930492e+002 +3.3973e+000 -1.5461e+000
22 0 +1.270349928e+000 +1.038803499e+002 +1.038803499e+002 -9.3383e-001 +1.5277e+000
852 0 +6.359172690e-001 +1.032459173e+002 +1.032459173e+002 -9.6036e-001 +1.5140e+000
978 0 +6.165181659e-001 +1.032265182e+002 +1.032265182e+002 -1.2423e+000 +1.5944e+000
1103 0 +5.978496589e-001 +1.032078497e+002 +1.032078497e+002 -1.2439e+000 +1.5940e+000
1149 0 +5.320013755e-001 +1.031420014e+002 +1.031420014e+002 -1.2474e+000 +1.5923e+000
1163 0 +5.114022190e-001 +1.031214022e+002 +1.031214022e+002 -1.2482e+000 +1.5917e+000
1176 0 +4.932622518e-001 +1.031032623e+002 +1.031032623e+002 -1.2491e+000 +1.5911e+000
1178 0 +4.851552967e-001 +1.030951553e+002 +1.030951553e+002 -1.2535e+000 +1.5893e+000
1210 0 +4.745469875e-001 +1.030845470e+002 +1.030845470e+002 -1.2511e+000 +1.5901e+000
1230 0 +4.654302100e-001 +1.030754302e+002 +1.030754302e+002 -1.2545e+000 +1.5885e+000
2101 0 +3.462382202e-001 +1.029562382e+002 +1.029562382e+002 -1.0996e+000 +1.2128e+000
2146 0 +1.770558294e-001 +1.027870558e+002 +1.027870558e+002 -1.1001e+000 +1.2134e+000
2184 0 +1.594375256e-001 +1.027694375e+002 +1.027694375e+002 -1.0966e+000 +1.2156e+000
2211 0 +1.557407129e-001 +1.027657407e+002 +1.027657407e+002 -1.0964e+000 +1.2157e+000
2253 0 +1.544907251e-001 +1.027644907e+002 +1.027644907e+002 -1.0959e+000 +1.2160e+000
2286 0 +1.207893420e-001 +1.027307893e+002 +1.027307893e+002 -1.0990e+000 +1.2145e+000
2313 0 +9.792776370e-002 +1.027079278e+002 +1.027079278e+002 -1.1011e+000 +1.2138e+000
2328 0 +9.384650089e-002 +1.027038465e+002 +1.027038465e+002 -1.1027e+000 +1.2134e+000
2379 0 +9.331940503e-002 +1.027033194e+002 +1.027033194e+002 -1.1022e+000 +1.2136e+000
5503 0 +7.921252539e-002 +1.026892125e+002 +1.026892125e+002 -1.2588e+000 +1.2458e+000
5519 0 +6.653603652e-002 +1.026765360e+002 +1.026765360e+002 -1.2579e+000 +1.2463e+000
5530 0 +3.874616863e-002 +1.026487462e+002 +1.026487462e+002 -1.2455e+000 +1.2517e+000
5541 0 +3.232794047e-002 +1.026423279e+002 +1.026423279e+002 -1.2462e+000 +1.2514e+000
5558 0 +5.120105458e-003 +1.026151201e+002 +1.026151201e+002 -1.2518e+000 +1.2489e+000
5570 0 +4.447520628e-003 +1.026144475e+002 +1.026144475e+002 -1.2505e+000 +1.2495e+000
5581 0 +1.127159923e-003 +1.026111272e+002 +1.026111272e+002 -1.2507e+000 +1.2498e+000
5600 0 +5.280900582e-004 +1.026105281e+002 +1.026105281e+002 -1.2507e+000 +1.2496e+000
5608 0 +4.807696002e-004 +1.026104808e+002 +1.026104808e+002 -1.2506e+000 +1.2496e+000
5618 0 +3.513210791e-004 +1.026103513e+002 +1.026103513e+002 -1.2506e+000 +1.2497e+000
5642 0 +2.482765631e-004 +1.026102483e+002 +1.026102483e+002 -1.2503e+000 +1.2498e+000
5665 0 +2.444029425e-004 +1.026102444e+002 +1.026102444e+002 -1.2502e+000 +1.2498e+000
5684 0 +1.681042796e-004 +1.026101681e+002 +1.026101681e+002 -1.2497e+000 +1.2502e+000
5690 0 +1.468659630e-004 +1.026101469e+002 +1.026101469e+002 -1.2500e+000 +1.2501e+000
5691 0 +1.231095673e-004 +1.026101231e+002 +1.026101231e+002 -1.2499e+000 +1.2501e+000
5694 0 +1.192157194e-004 +1.026101192e+002 +1.026101192e+002 -1.2497e+000 +1.2502e+000
5699 0 +1.159723222e-004 +1.026101160e+002 +1.026101160e+002 -1.2498e+000 +1.2501e+000
5707 0 +1.140470035e-004 +1.026101140e+002 +1.026101140e+002 -1.2498e+000 +1.2501e+000
5711 0 +4.098707443e-005 +1.026100410e+002 +1.026100410e+002 -1.2498e+000 +1.2501e+000
5715 0 +6.840178997e-006 +1.026100068e+002 +1.026100068e+002 -1.2501e+000 +1.2500e+000
5716 0 +2.943843484e-006 +1.026100029e+002 +1.026100029e+002 -1.2500e+000 +1.2500e+000
5730 0 +2.177429835e-006 +1.026100022e+002 +1.026100022e+002 -1.2500e+000 +1.2500e+000
5732 0 +1.607197916e-006 +1.026100016e+002 +1.026100016e+002 -1.2500e+000 +1.2500e+000
5738 0 +4.801522380e-007 +1.026100005e+002 +1.026100005e+002 -1.2500e+000 +1.2500e+000
5745 0 +3.670385240e-007 +1.026100004e+002 +1.026100004e+002 -1.2500e+000 +1.2500e+000
5768 0 +3.486850915e-007 +1.026100003e+002 +1.026100003e+002 -1.2500e+000 +1.2500e+000
5786 0 +5.365060929e-008 +1.026100001e+002 +1.026100001e+002 -1.2500e+000 +1.2500e+000
5796 0 +6.643645634e-009 +1.026100000e+002 +1.026100000e+002 -1.2500e+000 +1.2500e+000
% f evaluations | g evaluations | best noise-free fitness - Fopt (9.330000000000e+001) + sum g_i+ | measured fitness | best measured fitness or single-digit g-values | x1 | x2...
1 0 +8.825353770e+001 +1.815535377e+002 +1.815535377e+002 +3.4863e+000 -4.9603e+000
2 0 +1.930509485e+001 +1.126050949e+002 +1.126050949e+002 -1.0800e+000 +4.4476e+000
3 0 +1.355505761e+001 +1.068550576e+002 +1.068550576e+002 -2.4480e+000 +1.1333e+000
23 0 +9.688978925e+000 +1.029889789e+002 +1.029889789e+002 -6.4624e-002 +1.4776e+000
39 0 +9.454716941e+000 +1.027547169e+002 +1.027547169e+002 -1.5968e+000 +3.4079e+000
52 0 +6.817239852e+000 +1.001172399e+002 +1.001172399e+002 -2.6460e+000 +3.0890e+000
90 0 +6.672081546e+000 +9.997208155e+001 +9.997208155e+001 -2.6227e+000 +2.9872e+000
131 0 +6.106550151e+000 +9.940655015e+001 +9.940655015e+001 -1.9280e+000 +2.1800e+000
191 0 +4.769233923e+000 +9.806923392e+001 +9.806923392e+001 -1.9183e+000 +2.1708e+000
279 0 +3.117131654e+000 +9.641713165e+001 +9.641713165e+001 -1.6818e+000 +2.9595e+000
324 0 +2.860349777e+000 +9.616034978e+001 +9.616034978e+001 -3.5245e+000 +2.7590e+000
462 0 +2.168845778e+000 +9.546884578e+001 +9.546884578e+001 -3.4064e+000 +2.8939e+000
940 0 +2.122912743e+000 +9.542291274e+001 +9.542291274e+001 -2.6303e+000 +3.0280e+000
2238 0 +2.048722617e+000 +9.534872262e+001 +9.534872262e+001 -3.1919e+000 +2.9062e+000
3383 0 +1.837195784e+000 +9.513719578e+001 +9.513719578e+001 +1.6054e+000 -1.1564e+000
3877 0 +5.000599850e-001 +9.380005999e+001 +9.380005999e+001 +1.0647e+000 -1.0119e+000
4120 0 +3.461124194e-001 +9.364611242e+001 +9.364611242e+001 +1.0676e+000 -1.0219e+000
4754 0 +3.388339556e-001 +9.363883396e+001 +9.363883396e+001 +1.0696e+000 -1.0272e+000
7524 0 +3.006111232e-001 +9.360061112e+001 +9.360061112e+001 +1.0298e+000 -1.2448e+000
7527 0 +2.719331671e-001 +9.357193317e+001 +9.357193317e+001 +1.0303e+000 -1.2479e+000
7529 0 +2.267283535e-001 +9.352672835e+001 +9.352672835e+001 +1.0318e+000 -1.2523e+000
7537 0 +1.877588733e-001 +9.348775887e+001 +9.348775887e+001 +1.0337e+000 -1.2563e+000
23168 0 +1.447678772e-001 +9.344476788e+001 +9.344476788e+001 +1.3776e+000 -1.1368e+000
23290 0 +1.342151389e-001 +9.343421514e+001 +9.343421514e+001 +1.3772e+000 -1.1349e+000
23374 0 +1.308754146e-001 +9.343087541e+001 +9.343087541e+001 +1.3769e+000 -1.1350e+000
23398 0 +1.247760207e-001 +9.342477602e+001 +9.342477602e+001 +1.3766e+000 -1.1335e+000
23405 0 +1.213908289e-001 +9.342139083e+001 +9.342139083e+001 +1.3762e+000 -1.1325e+000
23444 0 +1.197605985e-001 +9.341976060e+001 +9.341976060e+001 +1.3758e+000 -1.1318e+000
42420 0 +4.758780193e-002 +9.334758780e+001 +9.334758780e+001 +1.2517e+000 -1.2528e+000
42480 0 +3.976613271e-002 +9.333976613e+001 +9.333976613e+001 +1.2518e+000 -1.2534e+000
42527 0 +3.813229869e-002 +9.333813230e+001 +9.333813230e+001 +1.2518e+000 -1.2535e+000
42586 0 +3.275699869e-002 +9.333275700e+001 +9.333275700e+001 +1.2521e+000 -1.2550e+000
42659 0 +2.954385224e-002 +9.332954385e+001 +9.332954385e+001 +1.2518e+000 -1.2538e+000
42672 0 +2.374244038e-002 +9.332374244e+001 +9.332374244e+001 +1.2518e+000 -1.2545e+000
42680 0 +2.038555279e-002 +9.332038555e+001 +9.332038555e+001 +1.2517e+000 -1.2547e+000
42689 0 +1.661007008e-002 +9.331661007e+001 +9.331661007e+001 +1.2515e+000 -1.2535e+000
42698 0 +1.372722777e-002 +9.331372723e+001 +9.331372723e+001 +1.2513e+000 -1.2528e+000
42701 0 +1.068412824e-002 +9.331068413e+001 +9.331068413e+001 +1.2513e+000 -1.2533e+000
42709 0 +7.201828953e-003 +9.330720183e+001 +9.330720183e+001 +1.2510e+000 -1.2528e+000
42713 0 +6.006618747e-003 +9.330600662e+001 +9.330600662e+001 +1.2509e+000 -1.2526e+000
42715 0 +4.982162081e-003 +9.330498216e+001 +9.330498216e+001 +1.2509e+000 -1.2521e+000
42718 0 +3.416523164e-003 +9.330341652e+001 +9.330341652e+001 +1.2507e+000 -1.2519e+000
42720 0 +1.343971000e-003 +9.330134397e+001 +9.330134397e+001 +1.2502e+000 -1.2509e+000
42721 0 +1.172959589e-003 +9.330117296e+001 +9.330117296e+001 +1.2503e+000 -1.2510e+000
42743 0 +1.327624008e-004 +9.330013276e+001 +9.330013276e+001 +1.2500e+000 -1.2500e+000
42744 0 +1.527155258e-005 +9.330001527e+001 +9.330001527e+001 +1.2500e+000 -1.2501e+000
42827 0 +2.486545853e-006 +9.330000249e+001 +9.330000249e+001 +1.2500e+000 -1.2500e+000
42830 0 +9.028859012e-007 +9.330000090e+001 +9.330000090e+001 +1.2500e+000 -1.2500e+000
42871 0 +1.751254786e-007 +9.330000018e+001 +9.330000018e+001 +1.2500e+000 -1.2500e+000
42915 0 +1.645522474e-007 +9.330000016e+001 +9.330000016e+001 +1.2500e+000 -1.2500e+000
42928 0 +1.054324343e-007 +9.330000011e+001 +9.330000011e+001 +1.2500e+000 -1.2500e+000
42930 0 +6.473510439e-008 +9.330000006e+001 +9.330000006e+001 +1.2500e+000 -1.2500e+000
42936 0 +5.156819327e-008 +9.330000005e+001 +9.330000005e+001 +1.2500e+000 -1.2500e+000
42989 0 +2.749760597e-008 +9.330000003e+001 +9.330000003e+001 +1.2500e+000 -1.2500e+000
42991 0 +8.243290495e-009 +9.330000001e+001 +9.330000001e+001 +1.2500e+000 -1.2500e+000
% f evaluations | g evaluations | best noise-free fitness - Fopt (1.364000000000e+001) + sum g_i+ | measured fitness | best measured fitness or single-digit g-values | x1 | x2...
1 0 +4.155283056e+001 +5.519283056e+001 +5.519283056e+001 +1.8580e+000 -3.8769e+000
4 0 +2.495336956e+001 +3.859336956e+001 +3.859336956e+001 -5.0000e+000 -5.0000e+000
8 0 +2.417709824e+001 +3.781709824e+001 +3.781709824e+001 -2.9228e+000 -5.0000e+000
9 0 +9.753500165e+000 +2.339350017e+001 +2.339350017e+001 +5.6377e-001 +5.7699e-001
10 0 +3.798557272e+000 +1.743855727e+001 +1.743855727e+001 -2.2737e+000 -2.2547e+000
569 0 +3.627152089e+000 +1.726715209e+001 +1.726715209e+001 -2.2843e+000 -1.6519e+000
834 0 +3.399954337e+000 +1.703995434e+001 +1.703995434e+001 -2.2809e+000 -1.6376e+000
890 0 +3.369648690e+000 +1.700964869e+001 +1.700964869e+001 -2.2776e+000 -1.6340e+000
932 0 +3.269811007e+000 +1.690981101e+001 +1.690981101e+001 -2.3140e+000 -1.8757e+000
970 0 +3.134909260e+000 +1.677490926e+001 +1.677490926e+001 -2.2253e+000 -1.9767e+000
1015 0 +2.867610638e+000 +1.650761064e+001 +1.650761064e+001 -1.9627e+000 -2.2447e+000
2731 0 +2.173704042e+000 +1.581370404e+001 +1.581370404e+001 -2.6325e+000 -2.7008e+000
3891 0 +2.099967053e+000 +1.573996705e+001 +1.573996705e+001 -2.6296e+000 -2.6902e+000
4013 0 +2.089081162e+000 +1.572908116e+001 +1.572908116e+001 -2.6296e+000 -2.6912e+000
17161 0 +3.067126674e-001 +1.394671267e+001 +1.394671267e+001 +1.4255e+000 +1.0704e+000
17341 0 +2.941887577e-001 +1.393418876e+001 +1.393418876e+001 +1.4259e+000 +1.0711e+000
17342 0 +2.739170932e-001 +1.391391709e+001 +1.391391709e+001 +1.4249e+000 +1.0677e+000
17376 0 +2.570666527e-001 +1.389706665e+001 +1.389706665e+001 +1.4255e+000 +1.0682e+000
17413 0 +2.564220406e-001 +1.389642204e+001 +1.389642204e+001 +1.4254e+000 +1.0675e+000
41366 0 +2.511498739e-001 +1.389114987e+001 +1.389114987e+001 +1.2150e+000 +1.0021e+000
46565 0 +1.892854263e-001 +1.382928543e+001 +1.382928543e+001 +1.3357e+000 +1.1499e+000
46620 0 +9.435051181e-002 +1.373435051e+001 +1.373435051e+001 +1.3359e+000 +1.1530e+000
46669 0 +8.285355193e-002 +1.372285355e+001 +1.372285355e+001 +1.3362e+000 +1.1550e+000
46773 0 +8.082448641e-002 +1.372082449e+001 +1.372082449e+001 +1.3366e+000 +1.1568e+000
46807 0 +7.916235790e-002 +1.371916236e+001 +1.371916236e+001 +1.3363e+000 +1.1547e+000
46813 0 +6.924459208e-002 +1.370924459e+001 +1.370924459e+001 +1.3370e+000 +1.1574e+000
46817 0 +6.725622022e-002 +1.370725622e+001 +1.370725622e+001 +1.3371e+000 +1.1573e+000
46848 0 +6.600888445e-002 +1.370600888e+001 +1.370600888e+001 +1.3377e+000 +1.1594e+000
46865 0 +6.408417216e-002 +1.370408417e+001 +1.370408417e+001 +1.3377e+000 +1.1589e+000
53235 0 +6.062426332e-002 +1.370062426e+001 +1.370062426e+001 +1.2472e+000 +1.2425e+000
53239 0 +5.968728659e-002 +1.369968729e+001 +1.369968729e+001 +1.2472e+000 +1.2427e+000
53245 0 +3.332302057e-002 +1.367332302e+001 +1.367332302e+001 +1.2503e+000 +1.2527e+000
53256 0 +2.961879183e-002 +1.366961879e+001 +1.366961879e+001 +1.2500e+000 +1.2520e+000
53274 0 +2.669789147e-002 +1.366669789e+001 +1.366669789e+001 +1.2485e+000 +1.2470e+000
53285 0 +2.628792208e-002 +1.366628792e+001 +1.366628792e+001 +1.2486e+000 +1.2471e+000
53303 0 +1.530779615e-002 +1.365530780e+001 +1.365530780e+001 +1.2493e+000 +1.2494e+000
53308 0 +1.470180682e-002 +1.365470181e+001 +1.365470181e+001 +1.2494e+000 +1.2494e+000
53317 0 +1.400769214e-002 +1.365400769e+001 +1.365400769e+001 +1.2494e+000 +1.2494e+000
53324 0 +1.337103385e-002 +1.365337103e+001 +1.365337103e+001 +1.2493e+000 +1.2492e+000
53329 0 +7.861203470e-003 +1.364786120e+001 +1.364786120e+001 +1.2491e+000 +1.2478e+000
53350 0 +6.837669913e-003 +1.364683767e+001 +1.364683767e+001 +1.2498e+000 +1.2504e+000
53356 0 +4.274218981e-003 +1.364427422e+001 +1.364427422e+001 +1.2502e+000 +1.2512e+000
53359 0 +3.331171553e-003 +1.364333117e+001 +1.364333117e+001 +1.2506e+000 +1.2519e+000
53361 0 +1.242835082e-003 +1.364124284e+001 +1.364124284e+001 +1.2504e+000 +1.2512e+000
53365 0 +6.363325259e-004 +1.364063633e+001 +1.364063633e+001 +1.2501e+000 +1.2505e+000
53393 0 +2.539261576e-004 +1.364025393e+001 +1.364025393e+001 +1.2500e+000 +1.2503e+000
53394 0 +5.113062503e-005 +1.364005113e+001 +1.364005113e+001 +1.2501e+000 +1.2502e+000
53421 0 +7.020947711e-006 +1.364000702e+001 +1.364000702e+001 +1.2500e+000 +1.2501e+000
53456 0 +5.403846979e-006 +1.364000540e+001 +1.364000540e+001 +1.2500e+000 +1.2501e+000
53471 0 +2.744600561e-006 +1.364000274e+001 +1.364000274e+001 +1.2500e+000 +1.2501e+000
53481 0 +1.141383891e-006 +1.364000114e+001 +1.364000114e+001 +1.2500e+000 +1.2500e+000
53530 0 +9.503432903e-007 +1.364000095e+001 +1.364000095e+001 +1.2500e+000 +1.2500e+000
53561 0 +9.260374476e-007 +1.364000093e+001 +1.364000093e+001 +1.2500e+000 +1.2500e+000
53562 0 +2.113032522e-007 +1.364000021e+001 +1.364000021e+001 +1.2500e+000 +1.2500e+000
53581 0 +1.018805982e-007 +1.364000010e+001 +1.364000010e+001 +1.2500e+000 +1.2500e+000
53598 0 +4.252733987e-008 +1.364000004e+001 +1.364000004e+001 +1.2500e+000 +1.2500e+000
53637 0 +9.701464521e-009 +1.364000001e+001 +1.364000001e+001 +1.2500e+000 +1.2500e+000
% f evaluations | g evaluations | best noise-free fitness - Fopt (1.948000000000e+002) + sum g_i+ | measured fitness | best measured fitness or single-digit g-values | x1 | x2...
1 0 +5.567933330e+001 +2.504793333e+002 +2.504793333e+002 -4.8695e+000 -3.9011e-001
2 0 +2.334238026e+001 +2.181423803e+002 +2.181423803e+002 +1.9645e+000 -1.1090e+000
3 0 +1.781783651e+001 +2.126178365e+002 +2.126178365e+002 +1.8905e+000 -3.0840e+000
15 0 +1.745722596e+001 +2.122572260e+002 +2.122572260e+002 -1.7365e+000 +9.6486e-001
16 0 +1.005726884e+001 +2.048572688e+002 +2.048572688e+002 +1.5272e+000 -2.7768e+000
21 0 +9.413522330e+000 +2.042135223e+002 +2.042135223e+002 -9.3409e-001 +4.4940e-002
44 0 +3.639277323e+000 +1.984392773e+002 +1.984392773e+002 +1.7495e+000 -3.7919e+000
116 0 +3.183518228e+000 +1.979835182e+002 +1.979835182e+002 +1.8498e+000 -2.1051e+000
147 0 +2.890585400e+000 +1.976905854e+002 +1.976905854e+002 +2.9872e+000 -3.8709e+000
218 0 +2.732687756e+000 +1.975326878e+002 +1.975326878e+002 -1.2214e+000 +9.7932e-001
386 0 +1.244583024e+000 +1.960445830e+002 +1.960445830e+002 -1.2489e+000 +1.0226e+000
423 0 +7.504157731e-001 +1.955504158e+002 +1.955504158e+002 -1.2785e+000 +1.0130e+000
558 0 +6.960769245e-001 +1.954960769e+002 +1.954960769e+002 -1.2611e+000 +1.0194e+000
996 0 +6.708906238e-001 +1.954708906e+002 +1.954708906e+002 -1.2596e+000 +1.0194e+000
1152 0 +6.441467035e-001 +1.954441467e+002 +1.954441467e+002 -1.2597e+000 +1.0189e+000
1153 0 +6.265721363e-001 +1.954265721e+002 +1.954265721e+002 -1.2608e+000 +1.0189e+000
1172 0 +6.095295349e-001 +1.954095295e+002 +1.954095295e+002 -1.2606e+000 +1.0185e+000
1175 0 +5.945538415e-001 +1.953945538e+002 +1.953945538e+002 -1.2610e+000 +1.0183e+000
1187 0 +5.722698979e-001 +1.953722699e+002 +1.953722699e+002 -1.2620e+000 +1.0182e+000
1197 0 +5.462202772e-001 +1.953462203e+002 +1.953462203e+002 -1.2624e+000 +1.0178e+000
1211 0 +5.242095712e-001 +1.953242096e+002 +1.953242096e+002 -1.2638e+000 +1.0175e+000
1221 0 +4.783256446e-001 +1.952783256e+002 +1.952783256e+002 -1.2656e+000 +1.0168e+000
1231 0 +3.907200799e-001 +1.951907201e+002 +1.951907201e+002 -1.2677e+000 +1.0153e+000
1249 0 +3.245045053e-001 +1.951245045e+002 +1.951245045e+002 -1.2707e+000 +1.0138e+000
1259 0 +2.876914622e-001 +1.950876915e+002 +1.950876915e+002 -1.2736e+000 +1.0128e+000
1262 0 +2.516041833e-001 +1.950516042e+002 +1.950516042e+002 -1.2766e+000 +1.0113e+000
1291 0 +2.446531487e-001 +1.950446531e+002 +1.950446531e+002 -1.2797e+000 +1.0100e+000
1302 0 +2.392298608e-001 +1.950392299e+002 +1.950392299e+002 -1.2785e+000 +1.0103e+000
8482 0 +1.872489457e-001 +1.949872489e+002 +1.949872489e+002 -1.0493e+000 +1.2345e+000
8550 0 +1.572283954e-001 +1.949572284e+002 +1.949572284e+002 -1.1522e+000 +1.2422e+000
8663 0 +1.461889774e-001 +1.949461890e+002 +1.949461890e+002 -1.1521e+000 +1.2422e+000
8666 0 +1.364538587e-001 +1.949364539e+002 +1.949364539e+002 -1.1523e+000 +1.2420e+000
8682 0 +5.031058484e-002 +1.948503106e+002 +1.948503106e+002 -1.1504e+000 +1.2419e+000
8788 0 +4.829775889e-002 +1.948482978e+002 +1.948482978e+002 -1.1499e+000 +1.2420e+000
8808 0 +4.680518878e-002 +1.948468052e+002 +1.948468052e+002 -1.1496e+000 +1.2422e+000
8816 0 +4.669524845e-002 +1.948466952e+002 +1.948466952e+002 -1.1495e+000 +1.2424e+000
8848 0 +4.545106965e-002 +1.948454511e+002 +1.948454511e+002 -1.1485e+000 +1.2426e+000
8859 0 +4.413806932e-002 +1.948441381e+002 +1.948441381e+002 -1.1483e+000 +1.2427e+000
8862 0 +4.260634044e-002 +1.948426063e+002 +1.948426063e+002 -1.1480e+000 +1.2430e+000
31113 0 +1.724563968e-002 +1.948172456e+002 +1.948172456e+002 -1.2491e+000 +1.2509e+000
31119 0 +9.043434892e-004 +1.948009043e+002 +1.948009043e+002 -1.2496e+000 +1.2501e+000
31120 0 +1.698237458e-004 +1.948001698e+002 +1.948001698e+002 -1.2500e+000 +1.2500e+000
31162 0 +1.457527970e-004 +1.948001458e+002 +1.948001458e+002 -1.2501e+000 +1.2500e+000
31176 0 +1.265435336e-004 +1.948001265e+002 +1.948001265e+002 -1.2501e+000 +1.2500e+000
31200 0 +1.044415269e-004 +1.948001044e+002 +1.948001044e+002 -1.2500e+000 +1.2500e+000
31207 0 +4.388697752e-005 +1.948000439e+002 +1.948000439e+002 -1.2501e+000 +1.2500e+000
31220 0 +1.158812927e-005 +1.948000116e+002 +1.948000116e+002 -1.2499e+000 +1.2500e+000
31233 0 +1.108302592e-005 +1.948000111e+002 +1.948000111e+002 -1.2500e+000 +1.2500e+000
31244 0 +1.285369081e-006 +1.948000013e+002 +1.948000013e+002 -1.2500e+000 +1.2500e+000
31256 0 +1.208323937e-006 +1.948000012e+002 +1.948000012e+002 -1.2500e+000 +1.2500e+000
31276 0 +5.614296583e-007 +1.948000006e+002 +1.948000006e+002 -1.2500e+000 +1.2500e+000
31285 0 +4.359853278e-008 +1.948000000e+002 +1.948000000e+002 -1.2500e+000 +1.2500e+000
31355 0 +3.260626613e-008 +1.948000000e+002 +1.948000000e+002 -1.2500e+000 +1.2500e+000
31369 0 +3.067543730e-008 +1.948000000e+002 +1.948000000e+002 -1.2500e+000 +1.2500e+000
31381 0 +3.254285730e-010 +1.948000000e+002 +1.948000000e+002 -1.2500e+000 +1.2500e+000
% f evaluations | g evaluations | best noise-free fitness - Fopt (-1.335900000000e+002) + sum g_i+ | measured fitness | best measured fitness or single-digit g-values | x1 | x2...
1 0 +4.463916045e+001 -8.895083955e+001 -8.895083955e+001 -2.2711e+000 -3.6465e+000
3 0 +1.279037749e+001 -1.207996225e+002 -1.207996225e+002 -8.3427e-001 +3.2139e+000
18 0 +1.032795769e+001 -1.232620423e+002 -1.232620423e+002 -1.8264e+000 +1.8879e+000
26 0 +1.006728080e+001 -1.235227192e+002 -1.235227192e+002 +1.6102e+000 -3.8799e-001
67 0 +7.095454768e+000 -1.264945452e+002 -1.264945452e+002 -7.6580e-001 +2.6991e+000
71 0 +6.037630191e+000 -1.275523698e+002 -1.275523698e+002 -3.0245e+000 +3.9338e+000
75 0 +5.107273560e+000 -1.284827264e+002 -1.284827264e+002 -1.7989e+000 +2.2222e+000
132 0 +5.009977486e+000 -1.285800225e+002 -1.285800225e+002 -1.3069e+000 +3.3316e+000
267 0 +3.152516542e+000 -1.304374835e+002 -1.304374835e+002 -2.4481e+000 +3.3297e+000
752 0 +3.031406714e+000 -1.305585933e+002 -1.305585933e+002 -3.1768e+000 +2.6406e+000
852 0 +2.308651686e+000 -1.312813483e+002 -1.312813483e+002 -2.4424e+000 +2.9802e+000
2144 0 +2.272006712e+000 -1.313179933e+002 -1.313179933e+002 -2.3543e+000 +2.8453e+000
2378 0 +2.228627917e+000 -1.313613721e+002 -1.313613721e+002 -2.4367e+000 +2.9826e+000
2611 0 +2.158767228e+000 -1.314312328e+002 -1.314312328e+002 -2.7226e+000 +2.8549e+000
2919 0 +2.102846402e+000 -1.314871536e+002 -1.314871536e+002 -2.7235e+000 +2.8545e+000
2935 0 +2.078521896e+000 -1.315114781e+002 -1.315114781e+002 -2.7259e+000 +2.8527e+000
3098 0 +2.038818072e+000 -1.315511819e+002 -1.315511819e+002 -2.7209e+000 +2.8582e+000
4225 0 +1.359726700e+000 -1.322302733e+002 -1.322302733e+002 +1.6993e+000 -1.0411e+000
4497 0 +1.332634167e+000 -1.322573658e+002 -1.322573658e+002 +1.6988e+000 -1.0415e+000
4557 0 +5.038543044e-001 -1.330861457e+002 -1.330861457e+002 +1.3153e+000 -1.0462e+000
4573 0 +2.419095248e-001 -1.333480905e+002 -1.333480905e+002 +1.3068e+000 -1.0502e+000
4915 0 +2.265851710e-001 -1.333634148e+002 -1.333634148e+002 +1.3125e+000 -1.0467e+000
4933 0 +2.211932965e-001 -1.333688067e+002 -1.333688067e+002 +1.3125e+000 -1.0465e+000
5071 0 +1.900699581e-001 -1.333999300e+002 -1.333999300e+002 +1.3101e+000 -1.0486e+000
5121 0 +1.854859441e-001 -1.334045141e+002 -1.334045141e+002 +1.3097e+000 -1.0488e+000
5372 0 +1.815342400e-001 -1.334084658e+002 -1.334084658e+002 +1.3088e+000 -1.0494e+000
5387 0 +1.777864477e-001 -1.334122136e+002 -1.334122136e+002 +1.3085e+000 -1.0497e+000
5404 0 +1.710422384e-001 -1.334189578e+002 -1.334189578e+002 +1.3069e+000 -1.0513e+000
24618 0 +1.676706196e-001 -1.334223294e+002 -1.334223294e+002 +1.3426e+000 -1.3786e+000
24644 0 +1.465748880e-001 -1.334434251e+002 -1.334434251e+002 +1.3371e+000 -1.3831e+000
24692 0 +1.396753184e-001 -1.334503247e+002 -1.334503247e+002 +1.3374e+000 -1.3830e+000
24715 0 +1.154460795e-001 -1.334745539e+002 -1.334745539e+002 +1.3398e+000 -1.3815e+000
24716 0 +1.086542669e-001 -1.334813457e+002 -1.334813457e+002 +1.3362e+000 -1.3846e+000
24732 0 +1.050561122e-001 -1.334849439e+002 -1.334849439e+002 +1.3382e+000 -1.3830e+000
24757 0 +1.035214926e-001 -1.334864785e+002 -1.334864785e+002 +1.3365e+000 -1.3848e+000
24881 0 +1.023246661e-001 -1.334876753e+002 -1.334876753e+002 +1.3372e+000 -1.3841e+000
52380 0 +9.994495625e-002 -1.334900550e+002 -1.334900550e+002 +1.3942e+000 -1.1854e+000
57200 0 +2.656155297e-003 -1.335873438e+002 -1.335873438e+002 +1.2500e+000 -1.2502e+000
57315 0 +2.451758333e-003 -1.335875482e+002 -1.335875482e+002 +1.2498e+000 -1.2504e+000
57372 0 +2.229744218e-003 -1.335877703e+002 -1.335877703e+002 +1.2492e+000 -1.2509e+000
57444 0 +1.107924851e-003 -1.335888921e+002 -1.335888921e+002 +1.2500e+000 -1.2501e+000
57454 0 +7.577689795e-004 -1.335892422e+002 -1.335892422e+002 +1.2497e+000 -1.2503e+000
57463 0 +5.108907533e-004 -1.335894891e+002 -1.335894891e+002 +1.2494e+000 -1.2504e+000
57469 0 +3.640235264e-004 -1.335896360e+002 -1.335896360e+002 +1.2496e+000 -1.2503e+000
57486 0 +6.471279036e-005 -1.335899353e+002 -1.335899353e+002 +1.2500e+000 -1.2499e+000
57496 0 +6.441310464e-005 -1.335899356e+002 -1.335899356e+002 +1.2500e+000 -1.2499e+000
57516 0 +5.785402408e-005 -1.335899421e+002 -1.335899421e+002 +1.2501e+000 -1.2499e+000
57544 0 +4.843183734e-005 -1.335899516e+002 -1.335899516e+002 +1.2502e+000 -1.2498e+000
57546 0 +1.133489548e-005 -1.335899887e+002 -1.335899887e+002 +1.2500e+000 -1.2500e+000
57563 0 +4.494800407e-006 -1.335899955e+002 -1.335899955e+002 +1.2500e+000 -1.2500e+000
57566 0 +2.807401955e-006 -1.335899972e+002 -1.335899972e+002 +1.2500e+000 -1.2500e+000
57576 0 +1.097563427e-006 -1.335899989e+002 -1.335899989e+002 +1.2500e+000 -1.2500e+000
57599 0 +1.047041621e-006 -1.335899990e+002 -1.335899990e+002 +1.2500e+000 -1.2500e+000
57603 0 +5.590917738e-007 -1.335899994e+002 -1.335899994e+002 +1.2500e+000 -1.2500e+000
57606 0 +6.582519063e-008 -1.335899999e+002 -1.335899999e+002 +1.2500e+000 -1.2500e+000
57665 0 +5.919210366e-008 -1.335899999e+002 -1.335899999e+002 +1.2500e+000 -1.2500e+000
57670 0 +5.848622209e-008 -1.335899999e+002 -1.335899999e+002 +1.2500e+000 -1.2500e+000
57671 0 +2.036816227e-008 -1.335900000e+002 -1.335900000e+002 +1.2500e+000 -1.2500e+000
57673 0 +1.861420174e-008 -1.335900000e+002 -1.335900000e+002 +1.2500e+000 -1.2500e+000
57706 0 +1.396352900e-008 -1.335900000e+002 -1.335900000e+002 +1.2500e+000 -1.2500e+000
57712 0 +1.260991667e-008 -1.335900000e+002 -1.335900000e+002 +1.2500e+000 -1.2500e+000
57717 0 +2.920899078e-009 -1.335900000e+002 -1.335900000e+002 +1.2500e+000 -1.2500e+000
% f evaluations | g evaluations | best noise-free fitness - Fopt (-3.085000000000e+001) + sum g_i+ | measured fitness | best measured fitness or single-digit g-values | x1 | x2...
1 0 +1.388503481e+001 -1.696496519e+001 -1.696496519e+001 +4.7562e+000 -2.9007e+000
4 0 +1.106247502e+001 -1.978752498e+001 -1.978752498e+001 +5.0000e+000 -5.0000e+000
30 0 +1.007307099e+001 -2.077692901e+001 -2.077692901e+001 +5.0000e+000 -4.6645e+000
47 0 +5.189192242e+000 -2.566080776e+001 -2.566080776e+001 +4.4108e+000 -1.8697e+000
227 0 +4.362201975e+000 -2.648779803e+001 -2.648779803e+001 +4.0933e+000 -1.8613e+000
310 0 +4.259227973e+000 -2.659077203e+001 -2.659077203e+001 +2.1599e+000 -3.2065e+000
399 0 +3.346422270e+000 -2.750357773e+001 -2.750357773e+001 +3.0829e+000 -3.8864e+000
477 0 +2.551816231e+000 -2.829818377e+001 -2.829818377e+001 +3.2087e+000 -3.5200e+000
995 0 +2.208760179e+000 -2.864123982e+001 -2.864123982e+001 +3.1596e+000 -3.3052e+000
1395 0 +2.123425374e+000 -2.872657463e+001 -2.872657463e+001 +3.1580e+000 -3.3049e+000
18360 0 +2.067980192e+000 -2.878201981e+001 -2.878201981e+001 +2.6122e+000 -2.8653e+000
21345 0 +2.040431088e+000 -2.880956891e+001 -2.880956891e+001 +2.7048e+000 -2.8017e+000
24249 0 +1.893583773e+000 -2.895641623e+001 -2.895641623e+001 -1.4205e+000 +1.0926e+000
24886 0 +1.806673191e+000 -2.904332681e+001 -2.904332681e+001 -9.3377e-001 +1.7304e+000
24991 0 +1.491559587e+000 -2.935844041e+001 -2.935844041e+001 -7.6460e-001 +1.0399e+000
25044 0 +1.374249491e+000 -2.947575051e+001 -2.947575051e+001 -7.6770e-001 +1.0525e+000
25064 0 +7.324202020e-001 -3.011757980e+001 -3.011757980e+001 -1.0921e+000 +1.0754e+000
25093 0 +2.786355623e-001 -3.057136444e+001 -3.057136444e+001 -1.0970e+000 +1.0809e+000
25459 0 +2.260165782e-001 -3.062398342e+001 -3.062398342e+001 -1.0991e+000 +1.0837e+000
25508 0 +2.230092475e-001 -3.062699075e+001 -3.062699075e+001 -1.0993e+000 +1.0841e+000
25561 0 +2.179280669e-001 -3.063207193e+001 -3.063207193e+001 -1.0987e+000 +1.0828e+000
25582 0 +2.111409351e-001 -3.063885906e+001 -3.063885906e+001 -1.1002e+000 +1.0852e+000
25598 0 +2.077490045e-001 -3.064225100e+001 -3.064225100e+001 -1.1002e+000 +1.0851e+000
25601 0 +2.028638914e-001 -3.064713611e+001 -3.064713611e+001 -1.0992e+000 +1.0830e+000
99076 0 +1.363897949e-001 -3.071361021e+001 -3.071361021e+001 -1.3391e+000 +1.1797e+000
99110 0 +1.090778984e-001 -3.074092210e+001 -3.074092210e+001 -1.3464e+000 +1.1940e+000
99111 0 +6.662860339e-002 -3.078337140e+001 -3.078337140e+001 -1.3434e+000 +1.1890e+000
99117 0 +5.208306244e-002 -3.079791694e+001 -3.079791694e+001 -1.3431e+000 +1.1879e+000
99184 0 +5.103181254e-002 -3.079896819e+001 -3.079896819e+001 -1.3429e+000 +1.1876e+000
148505 0 +1.307603967e-002 -3.083692396e+001 -3.083692396e+001 -1.2521e+000 +1.2534e+000
148513 0 +2.524194567e-003 -3.084747581e+001 -3.084747581e+001 -1.2501e+000 +1.2498e+000
148536 0 +2.225485851e-003 -3.084777451e+001 -3.084777451e+001 -1.2492e+000 +1.2489e+000
148546 0 +8.549260189e-004 -3.084914507e+001 -3.084914507e+001 -1.2502e+000 +1.2501e+000
148557 0 +3.158995530e-004 -3.084968410e+001 -3.084968410e+001 -1.2502e+000 +1.2501e+000
148586 0 +1.696354885e-004 -3.084983036e+001 -3.084983036e+001 -1.2500e+000 +1.2498e+000
148620 0 +8.053819899e-005 -3.084991946e+001 -3.084991946e+001 -1.2500e+000 +1.2499e+000
148633 0 +5.566602727e-005 -3.084994433e+001 -3.084994433e+001 -1.2501e+000 +1.2501e+000
148643 0 +4.268066618e-005 -3.084995732e+001 -3.084995732e+001 -1.2501e+000 +1.2501e+000
148659 0 +7.487732120e-006 -3.084999251e+001 -3.084999251e+001 -1.2500e+000 +1.2499e+000
148675 0 +1.627801453e-006 -3.084999837e+001 -3.084999837e+001 -1.2500e+000 +1.2500e+000
148711 0 +7.954072601e-008 -3.084999992e+001 -3.084999992e+001 -1.2500e+000 +1.2500e+000
148725 0 +5.434864292e-008 -3.084999995e+001 -3.084999995e+001 -1.2500e+000 +1.2500e+000
148749 0 +3.876101573e-008 -3.084999996e+001 -3.084999996e+001 -1.2500e+000 +1.2500e+000
148794 0 +5.394785063e-009 -3.084999999e+001 -3.084999999e+001 -1.2500e+000 +1.2500e+000
% f evaluations | g evaluations | best noise-free fitness - Fopt (-9.200000000000e+000) + sum g_i+ | measured fitness | best measured fitness or single-digit g-values | x1 | x2...
1 0 +4.264574626e+001 +3.344574626e+001 +3.344574626e+001 +4.4066e+000 +4.7766e+000
2 0 +3.494320607e+001 +2.574320607e+001 +2.574320607e+001 +1.5595e+000 +1.6577e+000
3 0 +2.254809266e+001 +1.334809266e+001 +1.334809266e+001 -1.0532e+000 -8.1835e-001
9 0 +2.089647011e+001 +1.169647011e+001 +1.169647011e+001 +1.6774e-001 +1.1289e+000
14 0 +8.207680253e+000 -9.923197475e-001 -9.923197475e-001 -3.5093e+000 +1.5033e+000
38 0 +6.736446362e+000 -2.463553638e+000 -2.463553638e+000 -3.9705e+000 +2.2181e+000
80 0 +2.983242445e+000 -6.216757555e+000 -6.216757555e+000 -3.3810e+000 +3.7296e+000
533 0 +2.732957787e+000 -6.467042213e+000 -6.467042213e+000 -3.3861e+000 +3.7340e+000
624 0 +2.484389306e+000 -6.715610694e+000 -6.715610694e+000 -2.4957e+000 +3.6969e+000
1252 0 +2.451403862e+000 -6.748596138e+000 -6.748596138e+000 -3.4060e+000 +3.6299e+000
1887 0 +2.387439483e+000 -6.812560517e+000 -6.812560517e+000 -3.4095e+000 +3.5180e+000
1940 0 +2.243319386e+000 -6.956680614e+000 -6.956680614e+000 -2.9904e+000 +3.2844e+000
1958 0 +2.221576403e+000 -6.978423597e+000 -6.978423597e+000 -2.9806e+000 +3.3375e+000
2033 0 +2.126062456e+000 -7.073937544e+000 -7.073937544e+000 -3.0224e+000 +2.5585e+000
2151 0 +2.009143735e+000 -7.190856265e+000 -7.190856265e+000 -2.9957e+000 +3.0009e+000
20026 0 +1.571136753e+000 -7.628863247e+000 -7.628863247e+000 +1.7079e+000 -1.3359e+000
20248 0 +1.171261804e+000 -8.028738196e+000 -8.028738196e+000 +1.6965e+000 -1.0982e+000
20375 0 +1.077076281e+000 -8.122923719e+000 -8.122923719e+000 +1.7074e+000 -1.0465e+000
20507 0 +1.061904458e+000 -8.138095542e+000 -8.138095542e+000 +1.7094e+000 -1.0478e+000
20531 0 +1.036897814e+000 -8.163102186e+000 -8.163102186e+000 +1.7123e+000 -1.0493e+000
20579 0 +1.023256811e+000 -8.176743189e+000 -8.176743189e+000 +1.7138e+000 -1.0497e+000
29888 0 +9.392575274e-001 -8.260742473e+000 -8.260742473e+000 +1.7105e+000 -1.1049e+000
39542 0 +9.190388789e-001 -8.280961121e+000 -8.280961121e+000 +1.7022e+000 -1.1585e+000
39592 0 +8.827216413e-001 -8.317278359e+000 -8.317278359e+000 +1.7030e+000 -1.1581e+000
39655 0 +8.689534875e-001 -8.331046512e+000 -8.331046512e+000 +1.7060e+000 -1.1599e+000
39844 0 +8.284825723e-001 -8.371517428e+000 -8.371517428e+000 +1.7030e+000 -1.2156e+000
40771 0 +4.516476806e-001 -8.748352319e+000 -8.748352319e+000 +1.2377e+000 -1.1285e+000
40812 0 +1.451178862e-001 -9.054882114e+000 -9.054882114e+000 +1.2580e+000 -1.0820e+000
40862 0 +1.407676879e-001 -9.059232312e+000 -9.059232312e+000 +1.2582e+000 -1.0821e+000
40864 0 +1.346005182e-001 -9.065399482e+000 -9.065399482e+000 +1.2584e+000 -1.0823e+000
40874 0 +1.176244318e-001 -9.082375568e+000 -9.082375568e+000 +1.2611e+000 -1.0847e+000
40891 0 +1.124875968e-001 -9.087512403e+000 -9.087512403e+000 +1.2606e+000 -1.0843e+000
40928 0 +1.118236643e-001 -9.088176336e+000 -9.088176336e+000 +1.2605e+000 -1.0841e+000
41881 0 +5.484529819e-002 -9.145154702e+000 -9.145154702e+000 +1.2553e+000 -1.1949e+000
41883 0 +5.114773708e-002 -9.148852263e+000 -9.148852263e+000 +1.2547e+000 -1.1946e+000
41914 0 +1.438582052e-002 -9.185614179e+000 -9.185614179e+000 +1.2544e+000 -1.1950e+000
41988 0 +1.380466099e-002 -9.186195339e+000 -9.186195339e+000 +1.2545e+000 -1.1951e+000
42011 0 +1.318153869e-002 -9.186818461e+000 -9.186818461e+000 +1.2544e+000 -1.1951e+000
42034 0 +1.265524446e-002 -9.187344756e+000 -9.187344756e+000 +1.2543e+000 -1.1951e+000
42080 0 +1.249483405e-002 -9.187505166e+000 -9.187505166e+000 +1.2538e+000 -1.1949e+000
42083 0 +1.230038232e-002 -9.187699618e+000 -9.187699618e+000 +1.2538e+000 -1.1949e+000
68707 0 +7.310725212e-003 -9.192689275e+000 -9.192689275e+000 +1.2514e+000 -1.2511e+000
68764 0 +5.901335127e-003 -9.194098665e+000 -9.194098665e+000 +1.2516e+000 -1.2511e+000
68802 0 +5.468190391e-003 -9.194531810e+000 -9.194531810e+000 +1.2520e+000 -1.2510e+000
68805 0 +5.148823508e-003 -9.194851176e+000 -9.194851176e+000 +1.2521e+000 -1.2513e+000
68889 0 +3.218721413e-003 -9.196781279e+000 -9.196781279e+000 +1.2516e+000 -1.2508e+000
68947 0 +2.808484729e-003 -9.197191515e+000 -9.197191515e+000 +1.2516e+000 -1.2509e+000
68963 0 +2.423467345e-003 -9.197576533e+000 -9.197576533e+000 +1.2515e+000 -1.2509e+000
68971 0 +1.918614133e-004 -9.199808139e+000 -9.199808139e+000 +1.2503e+000 -1.2501e+000
69012 0 +1.199580192e-004 -9.199880042e+000 -9.199880042e+000 +1.2502e+000 -1.2501e+000
69040 0 +7.533937163e-005 -9.199924661e+000 -9.199924661e+000 +1.2502e+000 -1.2501e+000
69044 0 +4.737355926e-005 -9.199952626e+000 -9.199952626e+000 +1.2502e+000 -1.2501e+000
69053 0 +1.167808325e-005 -9.199988322e+000 -9.199988322e+000 +1.2501e+000 -1.2501e+000
69066 0 +4.010531011e-006 -9.199995989e+000 -9.199995989e+000 +1.2499e+000 -1.2500e+000
69103 0 +2.608147836e-006 -9.199997392e+000 -9.199997392e+000 +1.2500e+000 -1.2500e+000
69109 0 +1.303508567e-006 -9.199998696e+000 -9.199998696e+000 +1.2500e+000 -1.2500e+000
69138 0 +1.280022019e-006 -9.199998720e+000 -9.199998720e+000 +1.2500e+000 -1.2500e+000
69148 0 +4.507578684e-007 -9.199999549e+000 -9.199999549e+000 +1.2500e+000 -1.2500e+000
69160 0 +2.810660611e-007 -9.199999719e+000 -9.199999719e+000 +1.2500e+000 -1.2500e+000
69176 0 +1.963987639e-007 -9.199999804e+000 -9.199999804e+000 +1.2500e+000 -1.2500e+000
69187 0 +1.739343354e-007 -9.199999826e+000 -9.199999826e+000 +1.2500e+000 -1.2500e+000
69205 0 +1.342355773e-007 -9.199999866e+000 -9.199999866e+000 +1.2500e+000 -1.2500e+000
69222 0 +1.267583158e-007 -9.199999873e+000 -9.199999873e+000 +1.2500e+000 -1.2500e+000
69224 0 +2.221969631e-008 -9.199999978e+000 -9.199999978e+000 +1.2500e+000 -1.2500e+000
69231 0 +7.601384411e-009 -9.199999992e+000 -9.199999992e+000 +1.2500e+000 -1.2500e+000
% f evaluations | g evaluations | best noise-free fitness - Fopt (-2.037600000000e+002) + sum g_i+ | measured fitness | best measured fitness or single-digit g-values | x1 | x2...
1 0 +2.440873461e+001 -1.793512654e+002 -1.793512654e+002 +1.0011e+000 +2.7682e+000
4 0 +1.912644423e+001 -1.846335558e+002 -1.846335558e+002 +5.0000e+000 +5.0000e+000
22 0 +7.109446381e+000 -1.966505536e+002 -1.966505536e+002 +3.1115e+000 +3.2572e+000
36 0 +4.558761613e+000 -1.992012384e+002 -1.992012384e+002 +4.3707e+000 +3.9599e+000
523 0 +4.095410184e+000 -1.996645898e+002 -1.996645898e+002 +4.3704e+000 +3.9561e+000
605 0 +3.720264492e+000 -2.000397355e+002 -2.000397355e+002 +4.3012e+000 +3.3569e+000
609 0 +3.435567209e+000 -2.003244328e+002 -2.003244328e+002 +4.1959e+000 +3.1814e+000
730 0 +3.329523020e+000 -2.004304770e+002 -2.004304770e+002 +4.1330e+000 +2.5917e+000
762 0 +3.020966687e+000 -2.007390333e+002 -2.007390333e+002 +3.9956e+000 +2.8386e+000
857 0 +2.924998476e+000 -2.008350015e+002 -2.008350015e+002 +3.9954e+000 +2.8378e+000
991 0 +2.879364109e+000 -2.008806359e+002 -2.008806359e+002 +3.8900e+000 +2.6570e+000
1025 0 +2.743805088e+000 -2.010161949e+002 -2.010161949e+002 +3.8919e+000 +2.6607e+000
1070 0 +2.626717829e+000 -2.011332822e+002 -2.011332822e+002 +3.6890e+000 +2.3126e+000
1197 0 +2.558229958e+000 -2.012017700e+002 -2.012017700e+002 +3.7843e+000 +2.7083e+000
1441 0 +2.511210924e+000 -2.012487891e+002 -2.012487891e+002 +3.7823e+000 +2.7066e+000
5763 0 +2.406253812e+000 -2.013537462e+002 -2.013537462e+002 +3.4215e+000 +2.5861e+000
5778 0 +2.277473276e+000 -2.014825267e+002 -2.014825267e+002 +2.9294e+000 +2.9416e+000
5971 0 +2.178095078e+000 -2.015819049e+002 -2.015819049e+002 +3.2431e+000 +3.2447e+000
6113 0 +2.136471943e+000 -2.016235281e+002 -2.016235281e+002 +3.2459e+000 +3.2482e+000
12804 0 +1.330316568e+000 -2.024296834e+002 -2.024296834e+002 -1.1038e+000 -1.4819e+000
12822 0 +3.755542718e-001 -2.033844457e+002 -2.033844457e+002 -1.1294e+000 -1.2879e+000
13125 0 +3.449382821e-001 -2.034150617e+002 -2.034150617e+002 -1.1293e+000 -1.2876e+000
13314 0 +3.136359077e-001 -2.034463641e+002 -2.034463641e+002 -1.1297e+000 -1.2879e+000
13315 0 +7.135373777e-002 -2.036886463e+002 -2.036886463e+002 -1.1294e+000 -1.2850e+000
13317 0 +6.813006040e-002 -2.036918699e+002 -2.036918699e+002 -1.1260e+000 -1.2814e+000
13323 0 +6.751893354e-002 -2.036924811e+002 -2.036924811e+002 -1.1261e+000 -1.2816e+000
13327 0 +6.554296326e-002 -2.036944570e+002 -2.036944570e+002 -1.1269e+000 -1.2824e+000
13429 0 +6.454539230e-002 -2.036954546e+002 -2.036954546e+002 -1.1274e+000 -1.2830e+000
18388 0 +3.859925150e-002 -2.037214007e+002 -2.037214007e+002 -1.2546e+000 -1.2550e+000
18389 0 +2.792366585e-002 -2.037320763e+002 -2.037320763e+002 -1.2541e+000 -1.2543e+000
18390 0 +1.229159236e-003 -2.037587708e+002 -2.037587708e+002 -1.2507e+000 -1.2508e+000
18417 0 +2.025095405e-004 -2.037597975e+002 -2.037597975e+002 -1.2498e+000 -1.2497e+000
18443 0 +1.192077598e-004 -2.037598808e+002 -2.037598808e+002 -1.2498e+000 -1.2498e+000
18482 0 +1.026949275e-004 -2.037598973e+002 -2.037598973e+002 -1.2499e+000 -1.2499e+000
18496 0 +5.666138406e-005 -2.037599433e+002 -2.037599433e+002 -1.2498e+000 -1.2499e+000
18509 0 +3.744076335e-005 -2.037599626e+002 -2.037599626e+002 -1.2499e+000 -1.2499e+000
18528 0 +1.765488375e-005 -2.037599823e+002 -2.037599823e+002 -1.2501e+000 -1.2501e+000
18531 0 +1.654980471e-005 -2.037599835e+002 -2.037599835e+002 -1.2501e+000 -1.2501e+000
18562 0 +1.604344101e-005 -2.037599840e+002 -2.037599840e+002 -1.2501e+000 -1.2501e+000
18567 0 +1.023619510e-005 -2.037599898e+002 -2.037599898e+002 -1.2501e+000 -1.2501e+000
18570 0 +9.766000119e-006 -2.037599902e+002 -2.037599902e+002 -1.2501e+000 -1.2501e+000
18574 0 +2.429827560e-006 -2.037599976e+002 -2.037599976e+002 -1.2500e+000 -1.2500e+000
18596 0 +1.353755835e-006 -2.037599986e+002 -2.037599986e+002 -1.2500e+000 -1.2500e+000
18602 0 +1.051919156e-006 -2.037599989e+002 -2.037599989e+002 -1.2500e+000 -1.2500e+000
18606 0 +2.385841356e-007 -2.037599998e+002 -2.037599998e+002 -1.2500e+000 -1.2500e+000
18636 0 +7.936850466e-008 -2.037599999e+002 -2.037599999e+002 -1.2500e+000 -1.2500e+000
18646 0 +1.871109134e-008 -2.037600000e+002 -2.037600000e+002 -1.2500e+000 -1.2500e+000
18671 0 +6.059707403e-009 -2.037600000e+002 -2.037600000e+002 -1.2500e+000 -1.2500e+000
% f evaluations | g evaluations | best noise-free fitness - Fopt (3.399000000000e+001) + sum g_i+ | measured fitness | best measured fitness or single-digit g-values | x1 | x2...
1 0 +4.112051140e+001 +7.511051140e+001 +7.511051140e+001 -4.6520e+000 +4.1701e+000
6 0 +2.492596512e+001 +5.891596512e+001 +5.891596512e+001 -5.0000e+000 +1.6428e+000
8 0 +2.152571016e+001 +5.551571016e+001 +5.551571016e+001 -5.0000e+000 +1.4649e+000
11 0 +1.913368950e+001 +5.312368950e+001 +5.312368950e+001 +1.3024e+000 +6.8939e-002
15 0 +9.855480682e+000 +4.384548068e+001 +4.384548068e+001 -6.2189e-001 +2.6850e+000
24 0 +8.806502193e+000 +4.279650219e+001 +4.279650219e+001 -6.0680e-001 +1.8351e+000
63 0 +4.972286479e+000 +3.896228648e+001 +3.896228648e+001 -1.5495e+000 +1.5819e+000
351 0 +3.890255157e+000 +3.788025516e+001 +3.788025516e+001 -4.3485e+000 +3.9286e+000
846 0 +3.675263181e+000 +3.766526318e+001 +3.766526318e+001 -2.9826e+000 +2.4625e+000
942 0 +2.130648455e+000 +3.612064845e+001 +3.612064845e+001 -2.6919e+000 +3.2524e+000
3705 0 +2.088090483e+000 +3.607809048e+001 +3.607809048e+001 -3.2765e+000 +3.0124e+000
7488 0 +2.041495362e+000 +3.603149536e+001 +3.603149536e+001 -2.6858e+000 +2.8341e+000
12363 0 +1.912646780e+000 +3.590264678e+001 +3.590264678e+001 +6.5966e-001 -1.0820e+000
12392 0 +1.771346930e+000 +3.576134693e+001 +3.576134693e+001 +6.5664e-001 -1.0799e+000
12404 0 +1.735809365e+000 +3.572580936e+001 +3.572580936e+001 +6.5681e-001 -1.0798e+000
12407 0 +1.695311635e+000 +3.568531163e+001 +3.568531163e+001 +6.5703e-001 -1.0798e+000
12420 0 +1.619255810e+000 +3.560925581e+001 +3.560925581e+001 +6.5814e-001 -1.0804e+000
12433 0 +1.571901810e+000 +3.556190181e+001 +3.556190181e+001 +6.5816e-001 -1.0765e+000
12446 0 +1.529548674e+000 +3.551954867e+001 +3.551954867e+001 +6.5936e-001 -1.0707e+000
16975 0 +1.444075908e+000 +3.543407591e+001 +3.543407591e+001 +7.1862e-001 -9.9707e-001
17037 0 +1.399304910e+000 +3.538930491e+001 +3.538930491e+001 +7.1694e-001 -1.0016e+000
17218 0 +1.380355728e+000 +3.537035573e+001 +3.537035573e+001 +7.1725e-001 -1.0025e+000
17716 0 +1.302984618e+000 +3.529298462e+001 +3.529298462e+001 +7.7536e-001 -9.3715e-001
21288 0 +1.245802146e+000 +3.523580215e+001 +3.523580215e+001 +7.2345e-001 -1.4225e+000
24627 0 +1.136836060e+000 +3.512683606e+001 +3.512683606e+001 +8.9241e-001 -1.2434e+000
24665 0 +9.530119010e-001 +3.494301190e+001 +3.494301190e+001 +8.9338e-001 -1.2494e+000
24782 0 +8.188054323e-001 +3.480880543e+001 +3.480880543e+001 +8.9561e-001 -1.2438e+000
24841 0 +7.767139414e-001 +3.476671394e+001 +3.476671394e+001 +8.9453e-001 -1.2449e+000
24904 0 +6.891424016e-001 +3.467914240e+001 +3.467914240e+001 +1.1866e+000 -8.8312e-001
24970 0 +5.475758547e-001 +3.453757585e+001 +3.453757585e+001 +1.1863e+000 -8.9684e-001
25068 0 +5.347410103e-001 +3.452474101e+001 +3.452474101e+001 +1.1863e+000 -8.9155e-001
31497 0 +5.069634368e-001 +3.449696344e+001 +3.449696344e+001 +1.1275e+000 -9.7128e-001
31521 0 +3.987781736e-001 +3.438877817e+001 +3.438877817e+001 +1.1286e+000 -9.5977e-001
31686 0 +3.970457220e-001 +3.438704572e+001 +3.438704572e+001 +1.1284e+000 -9.6083e-001
33250 0 +3.566843453e-001 +3.434668435e+001 +3.434668435e+001 +1.0696e+000 -1.0303e+000
33290 0 +3.305985223e-001 +3.432059852e+001 +3.432059852e+001 +1.0704e+000 -1.0266e+000
36679 0 +3.100230723e-001 +3.430002307e+001 +3.430002307e+001 +1.2473e+000 -1.2694e+000
36724 0 +2.583606240e-001 +3.424836062e+001 +3.424836062e+001 +1.2476e+000 -1.2677e+000
36798 0 +2.405111264e-001 +3.423051113e+001 +3.423051113e+001 +1.2476e+000 -1.2670e+000
36802 0 +2.367391256e-001 +3.422673913e+001 +3.422673913e+001 +1.2476e+000 -1.2668e+000
36809 0 +2.002683064e-001 +3.419026831e+001 +3.419026831e+001 +1.2478e+000 -1.2654e+000
36816 0 +1.860168587e-001 +3.417601686e+001 +3.417601686e+001 +1.2476e+000 -1.2619e+000
36821 0 +1.427952904e-001 +3.413279529e+001 +3.413279529e+001 +1.2480e+000 -1.2623e+000
36835 0 +1.260774468e-001 +3.411607745e+001 +3.411607745e+001 +1.2484e+000 -1.2625e+000
36836 0 +1.234580993e-001 +3.411345810e+001 +3.411345810e+001 +1.2485e+000 -1.2624e+000
36840 0 +2.037072068e-002 +3.401037072e+001 +3.401037072e+001 +1.2492e+000 -1.2542e+000
36851 0 +3.054235236e-003 +3.399305424e+001 +3.399305424e+001 +1.2502e+000 -1.2497e+000
36920 0 +2.136767710e-003 +3.399213677e+001 +3.399213677e+001 +1.2501e+000 -1.2486e+000
36938 0 +1.583941226e-003 +3.399158394e+001 +3.399158394e+001 +1.2501e+000 -1.2486e+000
36946 0 +1.173922028e-003 +3.399117392e+001 +3.399117392e+001 +1.2501e+000 -1.2489e+000
36963 0 +3.790694113e-004 +3.399037907e+001 +3.399037907e+001 +1.2500e+000 -1.2498e+000
36988 0 +7.217231551e-005 +3.399007217e+001 +3.399007217e+001 +1.2500e+000 -1.2501e+000
37052 0 +6.713797872e-005 +3.399006714e+001 +3.399006714e+001 +1.2500e+000 -1.2497e+000
37057 0 +5.838720855e-005 +3.399005839e+001 +3.399005839e+001 +1.2500e+000 -1.2498e+000
37065 0 +1.975368941e-005 +3.399001975e+001 +3.399001975e+001 +1.2500e+000 -1.2501e+000
37096 0 +1.852062610e-005 +3.399001852e+001 +3.399001852e+001 +1.2500e+000 -1.2502e+000
37101 0 +1.356829706e-005 +3.399001357e+001 +3.399001357e+001 +1.2500e+000 -1.2501e+000
37123 0 +5.157311733e-007 +3.399000052e+001 +3.399000052e+001 +1.2500e+000 -1.2500e+000
37144 0 +9.349612640e-009 +3.399000001e+001 +3.399000001e+001 +1.2500e+000 -1.2500e+000
% f evaluations | g evaluations | best noise-free fitness - Fopt (-1.000000000000e+003) + sum g_i+ | measured fitness | best measured fitness or single-digit g-values | x1 | x2...
1 0 +3.979423833e+001 -9.602057617e+002 -9.602057617e+002 -1.8668e-001 -4.5864e+000
4 0 +1.423066471e+001 -9.857693353e+002 -9.857693353e+002 -5.0000e+000 -5.0000e+000
10 0 +9.022883333e+000 -9.909771167e+002 -9.909771167e+002 -4.2119e+000 -1.0228e+000
33 0 +7.222952963e+000 -9.927770470e+002 -9.927770470e+002 -3.9880e-001 -1.7228e+000
56 0 +5.901911413e+000 -9.940980886e+002 -9.940980886e+002 -1.6907e+000 -3.3214e+000
337 0 +4.972911139e+000 -9.950270889e+002 -9.950270889e+002 -2.7862e+000 -8.9785e-001
408 0 +4.590994909e+000 -9.954090051e+002 -9.954090051e+002 -3.1207e+000 -2.2177e+000
413 0 +3.118034841e+000 -9.968819652e+002 -9.968819652e+002 -1.6960e+000 -3.3249e+000
423 0 +3.067727024e+000 -9.969322730e+002 -9.969322730e+002 -1.6966e+000 -3.3250e+000
1151 0 +2.857022797e+000 -9.971429772e+002 -9.971429772e+002 -3.6194e+000 -3.2073e+000
1185 0 +2.563640075e+000 -9.974363599e+002 -9.974363599e+002 -3.4462e+000 -3.1130e+000
1241 0 +2.247274006e+000 -9.977527260e+002 -9.977527260e+002 -3.5099e+000 -3.1419e+000
1418 0 +2.237213442e+000 -9.977627866e+002 -9.977627866e+002 -3.5099e+000 -3.1422e+000
3993 0 +1.784731763e+000 -9.982152682e+002 -9.982152682e+002 +7.4575e-001 +8.4653e-001
4124 0 +1.777339956e+000 -9.982226600e+002 -9.982226600e+002 +7.4574e-001 +8.4658e-001
4175 0 +1.729519989e+000 -9.982704800e+002 -9.982704800e+002 +7.4573e-001 +8.4692e-001
4180 0 +1.689162821e+000 -9.983108372e+002 -9.983108372e+002 +7.4558e-001 +8.4747e-001
4297 0 +1.657055995e+000 -9.983429440e+002 -9.983429440e+002 +7.4955e-001 +8.4664e-001
8401 0 +1.523271410e+000 -9.984767286e+002 -9.984767286e+002 +8.0532e-001 +8.7830e-001
8410 0 +1.505268510e+000 -9.984947315e+002 -9.984947315e+002 +7.8878e-001 +8.8422e-001
8421 0 +1.449541334e+000 -9.985504587e+002 -9.985504587e+002 +8.0367e-001 +8.7926e-001
8500 0 +1.419554952e+000 -9.985804450e+002 -9.985804450e+002 +8.0448e-001 +8.7992e-001
8538 0 +1.411805807e+000 -9.985881942e+002 -9.985881942e+002 +8.0405e-001 +8.7991e-001
8699 0 +1.376223070e+000 -9.986237769e+002 -9.986237769e+002 +7.9443e-001 +8.8365e-001
9809 0 +1.998448446e-001 -9.998001552e+002 -9.998001552e+002 +1.2881e+000 +1.2907e+000
9811 0 +1.226824428e-001 -9.998773176e+002 -9.998773176e+002 +1.2861e+000 +1.2907e+000
9845 0 +1.728767142e-002 -9.999827123e+002 -9.999827123e+002 +1.2939e+000 +1.2871e+000
9850 0 +1.557809536e-002 -9.999844219e+002 -9.999844219e+002 +1.2939e+000 +1.2873e+000
9900 0 +1.395133128e-002 -9.999860487e+002 -9.999860487e+002 +1.2957e+000 +1.2866e+000
9926 0 +1.365794624e-002 -9.999863421e+002 -9.999863421e+002 +1.2953e+000 +1.2868e+000
14824 0 +1.276699985e-002 -9.999872330e+002 -9.999872330e+002 +1.2476e+000 +1.2512e+000
15006 0 +4.396723422e-003 -9.999956033e+002 -9.999956033e+002 +1.2497e+000 +1.2499e+000
15030 0 +1.399559349e-003 -9.999986004e+002 -9.999986004e+002 +1.2492e+000 +1.2502e+000
15080 0 +1.205566487e-003 -9.999987944e+002 -9.999987944e+002 +1.2492e+000 +1.2502e+000
15135 0 +9.403730503e-004 -9.999990596e+002 -9.999990596e+002 +1.2496e+000 +1.2501e+000
15137 0 +5.192210335e-005 -9.999999481e+002 -9.999999481e+002 +1.2498e+000 +1.2500e+000
15158 0 +4.325681459e-005 -9.999999567e+002 -9.999999567e+002 +1.2499e+000 +1.2500e+000
15159 0 +3.304466600e-005 -9.999999670e+002 -9.999999670e+002 +1.2499e+000 +1.2500e+000
15199 0 +1.909013440e-005 -9.999999809e+002 -9.999999809e+002 +1.2500e+000 +1.2500e+000
15214 0 +1.616709937e-005 -9.999999838e+002 -9.999999838e+002 +1.2500e+000 +1.2500e+000
15220 0 +6.326143762e-006 -9.999999937e+002 -9.999999937e+002 +1.2501e+000 +1.2500e+000
15222 0 +6.165422064e-006 -9.999999938e+002 -9.999999938e+002 +1.2501e+000 +1.2500e+000
15225 0 +2.344434279e-006 -9.999999977e+002 -9.999999977e+002 +1.2500e+000 +1.2500e+000
15259 0 +3.255210004e-007 -9.999999997e+002 -9.999999997e+002 +1.2500e+000 +1.2500e+000
15274 0 +1.542608743e-007 -9.999999998e+002 -9.999999998e+002 +1.2500e+000 +1.2500e+000
15281 0 +1.470831421e-007 -9.999999999e+002 -9.999999999e+002 +1.2500e+000 +1.2500e+000
15284 0 +1.414680355e-007 -9.999999999e+002 -9.999999999e+002 +1.2500e+000 +1.2500e+000
15302 0 +7.812525382e-008 -9.999999999e+002 -9.999999999e+002 +1.2500e+000 +1.2500e+000
15330 0 +4.466733117e-008 -1.000000000e+003 -1.000000000e+003 +1.2500e+000 +1.2500e+000
15339 0 +2.357262474e-008 -1.000000000e+003 -1.000000000e+003 +1.2500e+000 +1.2500e+000
15341 0 +2.266210686e-008 -1.000000000e+003 -1.000000000e+003 +1.2500e+000 +1.2500e+000
15354 0 +1.659179816e-008 -1.000000000e+003 -1.000000000e+003 +1.2500e+000 +1.2500e+000
15365 0 +7.911353350e-009 -1.000000000e+003 -1.000000000e+003 +1.2500e+000 +1.2500e+000
% f evaluations | g evaluations | best noise-free fitness - Fopt (-1.000000000000e+003) + sum g_i+ | measured fitness | best measured fitness or single-digit g-values | x1 | x2...
1 0 +1.517913293e+001 -9.848208671e+002 -9.848208671e+002 -4.7961e-001 -8.4545e-001
10 0 +1.213145769e+001 -9.878685423e+002 -9.878685423e+002 -6.1468e-001 -1.5709e+000
12 0 +8.988329323e+000 -9.910116707e+002 -9.910116707e+002 -5.9138e-001 -1.5776e+000
14 0 +7.156720774e+000 -9.928432792e+002 -9.928432792e+002 -5.3591e-001 -1.5918e+000
24 0 +5.459476734e+000 -9.945405233e+002 -9.945405233e+002 -4.2340e+000 -2.7169e+000
53 0 +4.940927108e+000 -9.950590729e+002 -9.950590729e+002 -4.5844e+000 -4.0456e+000
125 0 +3.270311675e+000 -9.967296883e+002 -9.967296883e+002 -3.2039e+000 -2.0273e+000
239 0 +2.753729702e+000 -9.972462703e+002 -9.972462703e+002 -3.8932e+000 -2.8977e+000
256 0 +2.655556293e+000 -9.973444437e+002 -9.973444437e+002 -2.9956e+000 -2.7561e+000
988 0 +2.205775869e+000 -9.977942241e+002 -9.977942241e+002 -2.9899e+000 -2.7614e+000
1483 0 +2.164338198e+000 -9.978356618e+002 -9.978356618e+002 -2.9928e+000 -2.7607e+000
1850 0 +2.022047978e+000 -9.979779520e+002 -9.979779520e+002 -3.0037e+000 -2.7561e+000
3600 0 +1.316989213e+000 -9.986830108e+002 -9.986830108e+002 +1.3809e+000 +1.0335e+000
3760 0 +9.498432225e-001 -9.990501568e+002 -9.990501568e+002 +1.4386e+000 +1.0127e+000
4678 0 +7.152788776e-001 -9.992847211e+002 -9.992847211e+002 +1.4340e+000 +1.0155e+000
4686 0 +6.623839672e-001 -9.993376160e+002 -9.993376160e+002 +1.2890e+000 +1.5051e+000
4960 0 +6.000108008e-001 -9.993999892e+002 -9.993999892e+002 +1.2930e+000 +1.5078e+000
5107 0 +4.712729809e-001 -9.995287270e+002 -9.995287270e+002 +1.2932e+000 +1.5046e+000
5236 0 +3.238590642e-001 -9.996761409e+002 -9.996761409e+002 +1.2891e+000 +1.5069e+000
5285 0 +2.836991941e-001 -9.997163008e+002 -9.997163008e+002 +1.2855e+000 +1.5088e+000
5351 0 +2.779050496e-001 -9.997220950e+002 -9.997220950e+002 +1.2848e+000 +1.5089e+000
5399 0 +2.740665434e-001 -9.997259335e+002 -9.997259335e+002 +1.2827e+000 +1.5097e+000
7947 0 +5.342856729e-002 -9.999465714e+002 -9.999465714e+002 +1.1521e+000 +1.2342e+000
8110 0 +5.120665485e-002 -9.999487933e+002 -9.999487933e+002 +1.1520e+000 +1.2342e+000
8123 0 +4.867890903e-002 -9.999513211e+002 -9.999513211e+002 +1.1511e+000 +1.2344e+000
8140 0 +4.414151981e-002 -9.999558585e+002 -9.999558585e+002 +1.1543e+000 +1.2329e+000
8144 0 +4.214957205e-002 -9.999578504e+002 -9.999578504e+002 +1.1532e+000 +1.2335e+000
8173 0 +3.996945310e-002 -9.999600305e+002 -9.999600305e+002 +1.1522e+000 +1.2338e+000
8189 0 +3.959561021e-002 -9.999604044e+002 -9.999604044e+002 +1.1522e+000 +1.2337e+000
22699 0 +2.271590253e-002 -9.999772841e+002 -9.999772841e+002 +1.2450e+000 +1.2518e+000
22943 0 +7.344478362e-003 -9.999926555e+002 -9.999926555e+002 +1.2477e+000 +1.2510e+000
22957 0 +6.909530307e-003 -9.999930905e+002 -9.999930905e+002 +1.2479e+000 +1.2510e+000
22989 0 +6.317464314e-003 -9.999936825e+002 -9.999936825e+002 +1.2481e+000 +1.2509e+000
22992 0 +4.702958464e-003 -9.999952970e+002 -9.999952970e+002 +1.2486e+000 +1.2507e+000
23008 0 +3.389318261e-003 -9.999966107e+002 -9.999966107e+002 +1.2493e+000 +1.2505e+000
23012 0 +1.986687022e-003 -9.999980133e+002 -9.999980133e+002 +1.2486e+000 +1.2504e+000
23017 0 +4.094235668e-004 -9.999995906e+002 -9.999995906e+002 +1.2507e+000 +1.2497e+000
23040 0 +1.315105948e-004 -9.999998685e+002 -9.999998685e+002 +1.2504e+000 +1.2499e+000
23067 0 +4.754775557e-005 -9.999999525e+002 -9.999999525e+002 +1.2498e+000 +1.2501e+000
23079 0 +8.073229765e-007 -9.999999992e+002 -9.999999992e+002 +1.2500e+000 +1.2500e+000
23143 0 +1.024834546e-007 -9.999999999e+002 -9.999999999e+002 +1.2500e+000 +1.2500e+000
23191 0 +9.183338534e-008 -9.999999999e+002 -9.999999999e+002 +1.2500e+000 +1.2500e+000
23194 0 +5.139804671e-008 -9.999999999e+002 -9.999999999e+002 +1.2500e+000 +1.2500e+000
23237 0 +2.915066943e-008 -1.000000000e+003 -1.000000000e+003 +1.2500e+000 +1.2500e+000
23257 0 +1.127978067e-008 -1.000000000e+003 -1.000000000e+003 +1.2500e+000 +1.2500e+000
23258 0 +5.499828148e-009 -1.000000000e+003 -1.000000000e+003 +1.2500e+000 +1.2500e+000
% f evaluations | g evaluations | best noise-free fitness - Fopt (-1.272000000000e+001) + sum g_i+ | measured fitness | best measured fitness or single-digit g-values | x1 | x2...
1 0 +3.836802154e+001 +2.564802154e+001 +2.564802154e+001 +1.9294e+000 +3.2773e+000
5 0 +2.897555910e+001 +1.625555910e+001 +1.625555910e+001 +3.6777e-001 -3.1462e+000
9 0 +2.084829312e+001 +8.128293120e+000 +8.128293120e+000 +3.0575e+000 +1.8436e+000
20 0 +1.879777579e+001 +6.077775789e+000 +6.077775789e+000 -1.9735e-001 -9.1354e-001
22 0 +1.564798094e+001 +2.927980944e+000 +2.927980944e+000 -2.2144e+000 -1.4664e-001
41 0 +7.818475847e+000 -4.901524153e+000 -4.901524153e+000 -1.5570e+000 -3.5887e+000
55 0 +6.801495594e+000 -5.918504406e+000 -5.918504406e+000 -9.5976e-001 -1.6294e+000
196 0 +6.565333116e+000 -6.154666884e+000 -6.154666884e+000 +1.2564e+000 +2.3164e+000
239 0 +1.644407816e+000 -1.107559218e+001 -1.107559218e+001 +7.0009e-001 +1.3239e+000
1024 0 +1.618065403e+000 -1.110193460e+001 -1.110193460e+001 +9.6199e-001 +1.8164e+000
1323 0 +1.281668774e+000 -1.143833123e+001 -1.143833123e+001 +1.0549e+000 +1.5777e+000
1658 0 +1.192131569e+000 -1.152786843e+001 -1.152786843e+001 +1.0193e+000 +1.7224e+000
1733 0 +1.112367906e+000 -1.160763209e+001 -1.160763209e+001 +7.9087e-001 +1.1372e+000
1742 0 +1.003772497e+000 -1.171622750e+001 -1.171622750e+001 +7.9038e-001 +1.1360e+000
1996 0 +9.998893559e-001 -1.172011064e+001 -1.172011064e+001 +7.9010e-001 +1.1360e+000
2030 0 +9.705002451e-001 -1.174949975e+001 -1.174949975e+001 +7.8773e-001 +1.1357e+000
2055 0 +9.471612799e-001 -1.177283872e+001 -1.177283872e+001 +7.8467e-001 +1.1351e+000
6221 0 +9.215133215e-001 -1.179848668e+001 -1.179848668e+001 +1.4636e+000 +8.2454e-001
6256 0 +9.064377234e-001 -1.181356228e+001 -1.181356228e+001 +1.4632e+000 +8.2495e-001
11619 0 +8.908550908e-001 -1.182914491e+001 -1.182914491e+001 +8.2753e-001 +1.0402e+000
21927 0 +5.381011356e-001 -1.218189886e+001 -1.218189886e+001 +1.3688e+000 +1.0157e+000
21952 0 +5.118429645e-001 -1.220815704e+001 -1.220815704e+001 +1.3845e+000 +1.0167e+000
21964 0 +3.727056590e-001 -1.234729434e+001 -1.234729434e+001 +1.3793e+000 +1.0155e+000
21969 0 +3.616138435e-001 -1.235838616e+001 -1.235838616e+001 +1.3765e+000 +1.0156e+000
21972 0 +3.149697376e-001 -1.240503026e+001 -1.240503026e+001 +1.3628e+000 +1.0128e+000
22032 0 +3.051403380e-001 -1.241485966e+001 -1.241485966e+001 +1.3636e+000 +1.0134e+000
22045 0 +2.956161579e-001 -1.242438384e+001 -1.242438384e+001 +1.3696e+000 +1.0145e+000
22047 0 +2.820316517e-001 -1.243796835e+001 -1.243796835e+001 +1.3672e+000 +1.0137e+000
22050 0 +2.818011488e-001 -1.243819885e+001 -1.243819885e+001 +1.3682e+000 +1.0137e+000
23614 0 +2.707318949e-001 -1.244926811e+001 -1.244926811e+001 +1.3344e+000 +1.0597e+000
23637 0 +2.027616740e-001 -1.251723833e+001 -1.251723833e+001 +1.3484e+000 +1.0611e+000
23673 0 +1.906676310e-001 -1.252933237e+001 -1.252933237e+001 +1.3431e+000 +1.0605e+000
23693 0 +1.858541544e-001 -1.253414585e+001 -1.253414585e+001 +1.3452e+000 +1.0608e+000
23784 0 +1.805918035e-001 -1.253940820e+001 -1.253940820e+001 +1.3444e+000 +1.0609e+000
24967 0 +1.719128310e-001 -1.254808717e+001 -1.254808717e+001 +1.1822e+000 +1.3930e+000
24984 0 +1.534512504e-001 -1.256654875e+001 -1.256654875e+001 +1.1808e+000 +1.3927e+000
24989 0 +1.453464199e-001 -1.257465358e+001 -1.257465358e+001 +1.1831e+000 +1.3929e+000
24990 0 +1.273587835e-001 -1.259264122e+001 -1.259264122e+001 +1.1834e+000 +1.3920e+000
24995 0 +1.256982746e-001 -1.259430173e+001 -1.259430173e+001 +1.1834e+000 +1.3920e+000
25017 0 +1.025283591e-001 -1.261747164e+001 -1.261747164e+001 +1.1772e+000 +1.3915e+000
25033 0 +1.022075380e-001 -1.261779246e+001 -1.261779246e+001 +1.1773e+000 +1.3915e+000
33155 0 +5.358243952e-002 -1.266641756e+001 -1.266641756e+001 +1.2055e+000 +1.3450e+000
33248 0 +4.815845220e-002 -1.267184155e+001 -1.267184155e+001 +1.2045e+000 +1.3448e+000
33373 0 +4.752227296e-002 -1.267247773e+001 -1.267247773e+001 +1.2040e+000 +1.3447e+000
33393 0 +4.655001859e-002 -1.267344998e+001 -1.267344998e+001 +1.2039e+000 +1.3446e+000
33430 0 +4.494656031e-002 -1.267505344e+001 -1.267505344e+001 +1.2020e+000 +1.3444e+000
64160 0 +2.957111020e-002 -1.269042889e+001 -1.269042889e+001 +1.2277e+000 +1.2970e+000
64221 0 +2.562361729e-002 -1.269437638e+001 -1.269437638e+001 +1.2293e+000 +1.2979e+000
64248 0 +2.377303252e-002 -1.269622697e+001 -1.269622697e+001 +1.2293e+000 +1.2979e+000
64259 0 +2.288769333e-002 -1.269711231e+001 -1.269711231e+001 +1.2292e+000 +1.2979e+000
64260 0 +1.806796065e-002 -1.270193204e+001 -1.270193204e+001 +1.2289e+000 +1.2977e+000
64263 0 +1.450186711e-002 -1.270549813e+001 -1.270549813e+001 +1.2267e+000 +1.2975e+000
64269 0 +1.421305097e-002 -1.270578695e+001 -1.270578695e+001 +1.2243e+000 +1.2969e+000
64277 0 +1.392308312e-002 -1.270607692e+001 -1.270607692e+001 +1.2244e+000 +1.2970e+000
64288 0 +1.174985213e-002 -1.270825015e+001 -1.270825015e+001 +1.2255e+000 +1.2971e+000
64294 0 +1.171451925e-002 -1.270828548e+001 -1.270828548e+001 +1.2255e+000 +1.2972e+000
64354 0 +1.141233799e-002 -1.270858766e+001 -1.270858766e+001 +1.2264e+000 +1.2973e+000
64404 0 +1.119167834e-002 -1.270880832e+001 -1.270880832e+001 +1.2262e+000 +1.2972e+000
72227 0 +1.092239093e-002 -1.270907761e+001 -1.270907761e+001 +1.2533e+000 +1.2506e+000
72228 0 +9.313567107e-003 -1.271068643e+001 -1.271068643e+001 +1.2530e+000 +1.2506e+000
72235 0 +8.696271338e-003 -1.271130373e+001 -1.271130373e+001 +1.2526e+000 +1.2506e+000
72240 0 +6.341488253e-003 -1.271365851e+001 -1.271365851e+001 +1.2528e+000 +1.2504e+000
72268 0 +4.085619213e-003 -1.271591438e+001 -1.271591438e+001 +1.2520e+000 +1.2504e+000
72290 0 +3.992766983e-003 -1.271600723e+001 -1.271600723e+001 +1.2522e+000 +1.2503e+000
72503 0 +3.621955212e-003 -1.271637804e+001 -1.271637804e+001 +1.2518e+000 +1.2501e+000
72519 0 +3.183001320e-003 -1.271681700e+001 -1.271681700e+001 +1.2520e+000 +1.2502e+000
72531 0 +2.306330571e-003 -1.271769367e+001 -1.271769367e+001 +1.2517e+000 +1.2502e+000
72544 0 +2.126292926e-003 -1.271787371e+001 -1.271787371e+001 +1.2511e+000 +1.2503e+000
72553 0 +1.406675037e-003 -1.271859332e+001 -1.271859332e+001 +1.2513e+000 +1.2502e+000
72565 0 +1.267431548e-003 -1.271873257e+001 -1.271873257e+001 +1.2513e+000 +1.2502e+000
72567 0 +1.080903204e-003 -1.271891910e+001 -1.271891910e+001 +1.2512e+000 +1.2502e+000
72638 0 +7.656320602e-004 -1.271923437e+001 -1.271923437e+001 +1.2510e+000 +1.2501e+000
72656 0 +3.180217969e-004 -1.271968198e+001 -1.271968198e+001 +1.2506e+000 +1.2501e+000
72677 0 +3.625586123e-005 -1.271996374e+001 -1.271996374e+001 +1.2502e+000 +1.2500e+000
72683 0 +2.283094176e-005 -1.271997717e+001 -1.271997717e+001 +1.2499e+000 +1.2500e+000
72717 0 +1.674528037e-005 -1.271998325e+001 -1.271998325e+001 +1.2500e+000 +1.2500e+000
72730 0 +1.549866132e-005 -1.271998450e+001 -1.271998450e+001 +1.2500e+000 +1.2500e+000
72759 0 +5.028967131e-006 -1.271999497e+001 -1.271999497e+001 +1.2500e+000 +1.2500e+000
72761 0 +2.841792600e-006 -1.271999716e+001 -1.271999716e+001 +1.2501e+000 +1.2500e+000
72763 0 +7.150802901e-007 -1.271999928e+001 -1.271999928e+001 +1.2500e+000 +1.2500e+000
72770 0 +2.215455837e-007 -1.271999978e+001 -1.271999978e+001 +1.2500e+000 +1.2500e+000
72804 0 +4.151032407e-008 -1.271999996e+001 -1.271999996e+001 +1.2500e+000 +1.2500e+000
72850 0 +3.888779787e-008 -1.271999996e+001 -1.271999996e+001 +1.2500e+000 +1.2500e+000
72852 0 +3.377894409e-008 -1.271999997e+001 -1.271999997e+001 +1.2500e+000 +1.2500e+000
72861 0 +5.552001525e-009 -1.271999999e+001 -1.271999999e+001 +1.2500e+000 +1.2500e+000
% f evaluations | g evaluations | best noise-free fitness - Fopt (-5.954000000000e+001) + sum g_i+ | measured fitness | best measured fitness or single-digit g-values | x1 | x2...
1 0 +3.381381059e+001 -2.572618941e+001 -2.572618941e+001 -7.8350e-001 +4.9561e+000
3 0 +1.309950984e+001 -4.644049016e+001 -4.644049016e+001 +2.1796e+000 +4.5719e+000
37 0 +8.667264847e+000 -5.087273515e+001 -5.087273515e+001 +2.2161e+000 +2.3730e+000
48 0 +7.958960528e+000 -5.158103947e+001 -5.158103947e+001 +2.3000e+000 +2.3974e+000
58 0 +4.253814636e+000 -5.528618536e+001 -5.528618536e+001 +2.7639e+000 +4.7838e+000
136 0 +3.944056125e+000 -5.559594388e+001 -5.559594388e+001 +3.5970e+000 +4.3571e+000
155 0 +3.847471423e+000 -5.569252858e+001 -5.569252858e+001 +3.0906e+000 +4.1605e+000
235 0 +3.590123774e+000 -5.594987623e+001 -5.594987623e+001 +3.2810e+000 +4.1448e+000
298 0 +3.396712857e+000 -5.614328714e+001 -5.614328714e+001 +2.6496e+000 +4.4040e+000
864 0 +2.431863063e+000 -5.710813694e+001 -5.710813694e+001 +2.4625e+000 +3.3591e+000
1815 0 +2.260134146e+000 -5.727986585e+001 -5.727986585e+001 +2.4606e+000 +3.3584e+000
3470 0 +9.935652548e-001 -5.854643475e+001 -5.854643475e+001 -1.0758e+000 -1.0991e+000
3831 0 +9.064498393e-001 -5.863355016e+001 -5.863355016e+001 -1.0750e+000 -1.0984e+000
3851 0 +5.649731348e-001 -5.897502687e+001 -5.897502687e+001 -1.0753e+000 -1.1049e+000
3970 0 +5.181072637e-001 -5.902189274e+001 -5.902189274e+001 -1.0759e+000 -1.1051e+000
3977 0 +4.818430882e-001 -5.905815691e+001 -5.905815691e+001 -1.0762e+000 -1.1071e+000
4008 0 +4.737324647e-001 -5.906626754e+001 -5.906626754e+001 -1.0764e+000 -1.1077e+000
4021 0 +4.364361651e-001 -5.910356383e+001 -5.910356383e+001 -1.0768e+000 -1.1080e+000
4086 0 +4.215262063e-001 -5.911847379e+001 -5.911847379e+001 -1.0771e+000 -1.1080e+000
4094 0 +4.129495279e-001 -5.912705047e+001 -5.912705047e+001 -1.0774e+000 -1.1082e+000
4111 0 +4.004191605e-001 -5.913958084e+001 -5.913958084e+001 -1.0773e+000 -1.1089e+000
4139 0 +3.927224997e-001 -5.914727750e+001 -5.914727750e+001 -1.0774e+000 -1.1095e+000
4156 0 +3.762178270e-001 -5.916378217e+001 -5.916378217e+001 -1.0776e+000 -1.1105e+000
4160 0 +2.461142956e-001 -5.929388570e+001 -5.929388570e+001 -1.0800e+000 -1.1158e+000
4171 0 +2.443413923e-001 -5.929565861e+001 -5.929565861e+001 -1.0801e+000 -1.1160e+000
4173 0 +1.948061356e-001 -5.934519386e+001 -5.934519386e+001 -1.0817e+000 -1.1202e+000
4183 0 +1.888896476e-001 -5.935111035e+001 -5.935111035e+001 -1.0821e+000 -1.1214e+000
4185 0 +1.797040304e-001 -5.936029597e+001 -5.936029597e+001 -1.0836e+000 -1.1252e+000
4201 0 +1.758158360e-001 -5.936418416e+001 -5.936418416e+001 -1.0832e+000 -1.1237e+000
32275 0 +1.086599901e-001 -5.943134001e+001 -5.943134001e+001 -1.2757e+000 -1.1204e+000
32280 0 +8.801671268e-002 -5.945198329e+001 -5.945198329e+001 -1.2756e+000 -1.1210e+000
32294 0 +7.883293915e-002 -5.946116706e+001 -5.946116706e+001 -1.2743e+000 -1.1177e+000
32354 0 +7.151829950e-002 -5.946848170e+001 -5.946848170e+001 -1.2743e+000 -1.1186e+000
34233 0 +1.516569110e-002 -5.952483431e+001 -5.952483431e+001 -1.2498e+000 -1.2508e+000
34261 0 +3.521738822e-003 -5.953647826e+001 -5.953647826e+001 -1.2503e+000 -1.2513e+000
34295 0 +3.417264145e-003 -5.953658274e+001 -5.953658274e+001 -1.2503e+000 -1.2513e+000
34300 0 +2.266006726e-003 -5.953773399e+001 -5.953773399e+001 -1.2505e+000 -1.2515e+000
34312 0 +9.893974596e-004 -5.953901060e+001 -5.953901060e+001 -1.2503e+000 -1.2509e+000
34316 0 +7.241837473e-004 -5.953927582e+001 -5.953927582e+001 -1.2502e+000 -1.2507e+000
34365 0 +3.631714646e-004 -5.953963683e+001 -5.953963683e+001 -1.2500e+000 -1.2503e+000
34400 0 +8.605844187e-006 -5.953999139e+001 -5.953999139e+001 -1.2500e+000 -1.2499e+000
34432 0 +6.315515890e-006 -5.953999368e+001 -5.953999368e+001 -1.2500e+000 -1.2500e+000
34471 0 +1.257126932e-006 -5.953999874e+001 -5.953999874e+001 -1.2500e+000 -1.2500e+000
34498 0 +8.287742332e-007 -5.953999917e+001 -5.953999917e+001 -1.2500e+000 -1.2500e+000
34504 0 +3.471595420e-007 -5.953999965e+001 -5.953999965e+001 -1.2500e+000 -1.2500e+000
34510 0 +7.462355711e-008 -5.953999993e+001 -5.953999993e+001 -1.2500e+000 -1.2500e+000
34519 0 +6.945163733e-008 -5.953999993e+001 -5.953999993e+001 -1.2500e+000 -1.2500e+000
34529 0 +2.461488435e-008 -5.953999998e+001 -5.953999998e+001 -1.2500e+000 -1.2500e+000
34531 0 +1.501746283e-009 -5.954000000e+001 -5.954000000e+001 -1.2500e+000 -1.2500e+000
% f evaluations | g evaluations | best noise-free fitness - Fopt (-1.000000000000e+003) + sum g_i+ | measured fitness | best measured fitness or single-digit g-values | x1 | x2...
1 0 +2.450756715e+001 -9.754924329e+002 -9.754924329e+002 +4.5871e+000 -3.6084e+000
14 0 +1.782263050e+001 -9.821773695e+002 -9.821773695e+002 +2.7028e+000 -9.7705e-001
16 0 +1.436244052e+001 -9.856375595e+002 -9.856375595e+002 +2.4511e+000 -9.6091e-001
19 0 +1.117036883e+001 -9.888296312e+002 -9.888296312e+002 +9.5612e-001 -4.0978e+000
20 0 +4.565972349e+000 -9.954340277e+002 -9.954340277e+002 +1.9278e+000 -1.6669e+000
158 0 +3.920228236e+000 -9.960797718e+002 -9.960797718e+002 +3.8516e+000 -3.1662e+000
268 0 +2.705015834e+000 -9.972949842e+002 -9.972949842e+002 +3.1912e+000 -2.0729e+000
952 0 +2.495565964e+000 -9.975044340e+002 -9.975044340e+002 +3.6635e+000 -2.8086e+000
1789 0 +2.358493138e+000 -9.976415069e+002 -9.976415069e+002 +3.2464e+000 -2.7997e+000
1911 0 +2.325197265e+000 -9.976748027e+002 -9.976748027e+002 +2.8247e+000 -2.7907e+000
2030 0 +2.252373250e+000 -9.977476267e+002 -9.977476267e+002 +3.1059e+000 -2.7966e+000
2187 0 +2.225177872e+000 -9.977748221e+002 -9.977748221e+002 +3.1052e+000 -2.7959e+000
2203 0 +2.178329352e+000 -9.978216706e+002 -9.978216706e+002 +3.1036e+000 -2.7941e+000
2260 0 +2.111552480e+000 -9.978884475e+002 -9.978884475e+002 +3.1015e+000 -2.7923e+000
2278 0 +2.052613259e+000 -9.979473867e+002 -9.979473867e+002 +3.0975e+000 -2.7886e+000
2282 0 +2.033540678e+000 -9.979664593e+002 -9.979664593e+002 +3.0930e+000 -2.7834e+000
3500 0 +7.287780564e-001 -9.992712219e+002 -9.992712219e+002 -1.3407e+000 +9.0212e-001
3744 0 +3.981063951e-001 -9.996018936e+002 -9.996018936e+002 -1.1007e+000 +1.2348e+000
3797 0 +1.243174827e-001 -9.998756825e+002 -9.998756825e+002 -1.1087e+000 +1.2462e+000
4289 0 +1.120915108e-001 -9.998879085e+002 -9.998879085e+002 -1.1134e+000 +1.2508e+000
4364 0 +1.022030697e-001 -9.998977969e+002 -9.998977969e+002 -1.1072e+000 +1.2432e+000
4389 0 +9.882002415e-002 -9.999011800e+002 -9.999011800e+002 -1.1071e+000 +1.2433e+000
4398 0 +9.514405808e-002 -9.999048559e+002 -9.999048559e+002 -1.1108e+000 +1.2468e+000
4404 0 +8.726522691e-002 -9.999127348e+002 -9.999127348e+002 -1.1124e+000 +1.2488e+000
4415 0 +8.608393112e-002 -9.999139161e+002 -9.999139161e+002 -1.1119e+000 +1.2488e+000
4417 0 +8.249747715e-002 -9.999175025e+002 -9.999175025e+002 -1.1115e+000 +1.2484e+000
4421 0 +7.976416673e-002 -9.999202358e+002 -9.999202358e+002 -1.1096e+000 +1.2460e+000
4449 0 +7.882704083e-002 -9.999211730e+002 -9.999211730e+002 -1.1098e+000 +1.2463e+000
9042 0 +2.395029267e-002 -9.999760497e+002 -9.999760497e+002 -1.1818e+000 +1.2501e+000
9147 0 +2.277265498e-002 -9.999772273e+002 -9.999772273e+002 -1.1816e+000 +1.2498e+000
9152 0 +2.193370043e-002 -9.999780663e+002 -9.999780663e+002 -1.1811e+000 +1.2492e+000
9156 0 +2.166135291e-002 -9.999783386e+002 -9.999783386e+002 -1.1811e+000 +1.2493e+000
9174 0 +2.061483327e-002 -9.999793852e+002 -9.999793852e+002 -1.1806e+000 +1.2487e+000
9176 0 +2.000836197e-002 -9.999799916e+002 -9.999799916e+002 -1.1807e+000 +1.2491e+000
9188 0 +1.989395909e-002 -9.999801060e+002 -9.999801060e+002 -1.1807e+000 +1.2490e+000
32221 0 +1.905399814e-002 -9.999809460e+002 -9.999809460e+002 -1.2507e+000 +1.2500e+000
32248 0 +5.418373484e-003 -9.999945816e+002 -9.999945816e+002 -1.2515e+000 +1.2513e+000
32252 0 +1.011213896e-003 -9.999989888e+002 -9.999989888e+002 -1.2505e+000 +1.2507e+000
32591 0 +9.333938910e-004 -9.999990666e+002 -9.999990666e+002 -1.2507e+000 +1.2508e+000
32662 0 +3.678467727e-004 -9.999996322e+002 -9.999996322e+002 -1.2504e+000 +1.2505e+000
32809 0 +2.242214532e-005 -9.999999776e+002 -9.999999776e+002 -1.2500e+000 +1.2500e+000
32859 0 +2.015681355e-005 -9.999999798e+002 -9.999999798e+002 -1.2500e+000 +1.2500e+000
32894 0 +1.558285078e-005 -9.999999844e+002 -9.999999844e+002 -1.2500e+000 +1.2500e+000
32914 0 +1.456021596e-005 -9.999999854e+002 -9.999999854e+002 -1.2500e+000 +1.2500e+000
32930 0 +6.237186994e-006 -9.999999938e+002 -9.999999938e+002 -1.2500e+000 +1.2500e+000
32936 0 +4.190642812e-006 -9.999999958e+002 -9.999999958e+002 -1.2500e+000 +1.2500e+000
32938 0 +4.097194164e-006 -9.999999959e+002 -9.999999959e+002 -1.2500e+000 +1.2500e+000
32942 0 +2.534007990e-007 -9.999999997e+002 -9.999999997e+002 -1.2500e+000 +1.2500e+000
32948 0 +1.711307505e-007 -9.999999998e+002 -9.999999998e+002 -1.2500e+000 +1.2500e+000
32952 0 +1.562775651e-007 -9.999999998e+002 -9.999999998e+002 -1.2500e+000 +1.2500e+000
32983 0 +1.509520189e-007 -9.999999998e+002 -9.999999998e+002 -1.2500e+000 +1.2500e+000
33000 0 +7.238065791e-008 -9.999999999e+002 -9.999999999e+002 -1.2500e+000 +1.2500e+000
33008 0 +1.312685072e-008 -1.000000000e+003 -1.000000000e+003 -1.2500e+000 +1.2500e+000
33014 0 +2.635374585e-009 -1.000000000e+003 -1.000000000e+003 -1.2500e+000 +1.2500e+000
% f evaluations | g evaluations | best noise-free fitness - Fopt (4.303000000000e+001) + sum g_i+ | measured fitness | best measured fitness or single-digit g-values | x1 | x2...
1 0 +1.568024830e+001 +5.871024830e+001 +5.871024830e+001 -1.5766e+000 +4.4943e-001
12 0 +7.410703564e+000 +5.044070356e+001 +5.044070356e+001 -4.5987e+000 +1.5191e+000
47 0 +4.766199398e+000 +4.779619940e+001 +4.779619940e+001 -3.6660e+000 +1.9145e+000
194 0 +4.129330970e+000 +4.715933097e+001 +4.715933097e+001 -2.6959e+000 +4.4577e+000
240 0 +3.550064665e+000 +4.658006466e+001 +4.658006466e+001 -3.5183e+000 +3.4928e+000
418 0 +3.446320492e+000 +4.647632049e+001 +4.647632049e+001 -3.7107e+000 +3.7214e+000
700 0 +3.265337316e+000 +4.629533732e+001 +4.629533732e+001 -2.4954e+000 +4.1102e+000
763 0 +2.746525989e+000 +4.577652599e+001 +4.577652599e+001 -3.4532e+000 +2.0704e+000
800 0 +2.357019077e+000 +4.538701908e+001 +4.538701908e+001 -3.0880e+000 +2.6896e+000
2125 0 +2.237216458e+000 +4.526721646e+001 +4.526721646e+001 -3.0834e+000 +2.6941e+000
2226 0 +2.129315107e+000 +4.515931511e+001 +4.515931511e+001 -2.7728e+000 +3.3585e+000
3824 0 +2.077991425e+000 +4.510799142e+001 +4.510799142e+001 -2.8480e+000 +2.8847e+000
4456 0 +2.034825968e+000 +4.506482597e+001 +4.506482597e+001 -2.8493e+000 +2.8821e+000
5464 0 +1.564081161e+000 +4.459408116e+001 +4.459408116e+001 +1.3254e+000 -1.3925e+000
5486 0 +5.252615058e-001 +4.355526151e+001 +4.355526151e+001 +1.3276e+000 -1.3926e+000
5530 0 +3.845767409e-001 +4.341457674e+001 +4.341457674e+001 +1.3281e+000 -1.3927e+000
5568 0 +3.671077192e-001 +4.339710772e+001 +4.339710772e+001 +1.3281e+000 -1.3927e+000
5569 0 +2.038078063e-001 +4.323380781e+001 +4.323380781e+001 +1.3285e+000 -1.3934e+000
5575 0 +1.524312968e-001 +4.318243130e+001 +4.318243130e+001 +1.3285e+000 -1.3943e+000
5602 0 +1.478448794e-001 +4.317784488e+001 +4.317784488e+001 +1.3285e+000 -1.3943e+000
5613 0 +1.279472266e-001 +4.315794723e+001 +4.315794723e+001 +1.3286e+000 -1.3947e+000
5649 0 +1.214737671e-001 +4.315147377e+001 +4.315147377e+001 +1.3292e+000 -1.3950e+000
5661 0 +1.178092652e-001 +4.314780927e+001 +4.314780927e+001 +1.3289e+000 -1.3946e+000
5663 0 +1.173135551e-001 +4.314731356e+001 +4.314731356e+001 +1.3289e+000 -1.3946e+000
5707 0 +1.144197699e-001 +4.314441977e+001 +4.314441977e+001 +1.3292e+000 -1.3941e+000
5708 0 +1.117253122e-001 +4.314172531e+001 +4.314172531e+001 +1.3297e+000 -1.3938e+000
5713 0 +1.076552704e-001 +4.313765527e+001 +4.313765527e+001 +1.3302e+000 -1.3927e+000
5731 0 +1.069287482e-001 +4.313692875e+001 +4.313692875e+001 +1.3306e+000 -1.3919e+000
16629 0 +1.224862902e-002 +4.304224863e+001 +4.304224863e+001 +1.2482e+000 -1.2527e+000
16752 0 +8.014811256e-003 +4.303801481e+001 +4.303801481e+001 +1.2504e+000 -1.2499e+000
16763 0 +1.310706086e-003 +4.303131071e+001 +4.303131071e+001 +1.2499e+000 -1.2499e+000
16768 0 +1.201658987e-003 +4.303120166e+001 +4.303120166e+001 +1.2495e+000 -1.2510e+000
16776 0 +6.756803292e-004 +4.303067568e+001 +4.303067568e+001 +1.2498e+000 -1.2502e+000
16795 0 +3.288071029e-004 +4.303032881e+001 +4.303032881e+001 +1.2503e+000 -1.2496e+000
16808 0 +2.981177670e-004 +4.303029812e+001 +4.303029812e+001 +1.2501e+000 -1.2499e+000
16809 0 +2.107653864e-004 +4.303021077e+001 +4.303021077e+001 +1.2501e+000 -1.2498e+000
16818 0 +2.058021082e-004 +4.303020580e+001 +4.303020580e+001 +1.2501e+000 -1.2498e+000
16823 0 +2.026568459e-004 +4.303020266e+001 +4.303020266e+001 +1.2502e+000 -1.2498e+000
16827 0 +1.209940452e-004 +4.303012099e+001 +4.303012099e+001 +1.2500e+000 -1.2501e+000
16846 0 +5.242026323e-005 +4.303005242e+001 +4.303005242e+001 +1.2499e+000 -1.2502e+000
16857 0 +2.627197647e-005 +4.303002627e+001 +4.303002627e+001 +1.2499e+000 -1.2502e+000
16863 0 +7.571879991e-006 +4.303000757e+001 +4.303000757e+001 +1.2500e+000 -1.2501e+000
16892 0 +2.285009167e-006 +4.303000229e+001 +4.303000229e+001 +1.2500e+000 -1.2500e+000
16898 0 +2.218894366e-006 +4.303000222e+001 +4.303000222e+001 +1.2500e+000 -1.2500e+000
16912 0 +1.424162257e-006 +4.303000142e+001 +4.303000142e+001 +1.2500e+000 -1.2500e+000
16913 0 +1.404742839e-006 +4.303000140e+001 +4.303000140e+001 +1.2500e+000 -1.2500e+000
16922 0 +1.168968858e-006 +4.303000117e+001 +4.303000117e+001 +1.2500e+000 -1.2500e+000
16953 0 +3.082961655e-007 +4.303000031e+001 +4.303000031e+001 +1.2500e+000 -1.2500e+000
16994 0 +2.923701814e-007 +4.303000029e+001 +4.303000029e+001 +1.2500e+000 -1.2500e+000
16999 0 +2.868988105e-007 +4.303000029e+001 +4.303000029e+001 +1.2500e+000 -1.2500e+000
17004 0 +1.370754390e-007 +4.303000014e+001 +4.303000014e+001 +1.2500e+000 -1.2500e+000
17010 0 +1.232072293e-007 +4.303000012e+001 +4.303000012e+001 +1.2500e+000 -1.2500e+000
17011 0 +9.158747361e-008 +4.303000009e+001 +4.303000009e+001 +1.2500e+000 -1.2500e+000
17040 0 +7.986507455e-008 +4.303000008e+001 +4.303000008e+001 +1.2500e+000 -1.2500e+000
17042 0 +7.820976577e-008 +4.303000008e+001 +4.303000008e+001 +1.2500e+000 -1.2500e+000
17043 0 +5.489692256e-008 +4.303000005e+001 +4.303000005e+001 +1.2500e+000 -1.2500e+000
17047 0 +4.149971033e-008 +4.303000004e+001 +4.303000004e+001 +1.2500e+000 -1.2500e+000
17048 0 +3.355138034e-008 +4.303000003e+001 +4.303000003e+001 +1.2500e+000 -1.2500e+000
17060 0 +3.166678653e-008 +4.303000003e+001 +4.303000003e+001 +1.2500e+000 -1.2500e+000
17064 0 +2.533064958e-008 +4.303000003e+001 +4.303000003e+001 +1.2500e+000 -1.2500e+000
17070 0 +6.305924671e-010 +4.303000000e+001 +4.303000000e+001 +1.2500e+000 -1.2500e+000
