% f evaluations | g evaluations | best noise-free fitness - Fopt (-4.620900000000e+002) + sum g_i+ | measured fitness | best measured fitness or single-digit g-values | x1 | x2...
1 0 +7.400894913e+001 -3.880810509e+002 -3.880810509e+002 +1.7179e+000 +2.5386e+000 +4.0202e-001
4 0 +2.875783871e+001 -4.333321613e+002 -4.333321613e+002 +1.4776e+000 +2.7337e+000 +1.9738e+000
123 0 +2.426917077e+001 -4.378208292e+002 -4.378208292e+002 +2.2088e+000 +3.4849e+000 +2.2470e+000
189 0 +1.664709511e+001 -4.454429049e+002 -4.454429049e+002 +2.1696e+000 +3.4218e+000 +2.2464e+000
281 0 +1.375795236e+001 -4.483320476e+002 -4.483320476e+002 +2.3393e+000 +4.1393e+000 +2.1776e+000
388 0 +1.302361568e+001 -4.490663843e+002 -4.490663843e+002 +2.1287e+000 +2.2594e+000 +1.5204e+000
401 0 +1.188160078e+001 -4.502083992e+002 -4.502083992e+002 +2.1509e+000 +2.3056e+000 +1.5566e+000
471 0 +1.155152229e+001 -4.505384777e+002 -4.505384777e+002 +2.1507e+000 +2.2978e+000 +1.5519e+000
530 0 +7.720308665e+000 -4.543696913e+002 -4.543696913e+002 +2.2561e+000 +2.3214e+000 +1.5695e+000
635 0 +5.526183269e+000 -4.565638167e+002 -4.565638167e+002 +2.4451e+000 +2.2736e+000 +1.9129e+000
662 0 +1.570012504e+000 -4.605199875e+002 -4.605199875e+002 +2.3239e+000 +2.2945e+000 +1.8900e+000
734 0 +1.432448044e+000 -4.606575520e+002 -4.606575520e+002 +2.3230e+000 +2.3048e+000 +1.8920e+000
772 0 +1.183488992e+000 -4.609065110e+002 -4.609065110e+002 +2.3346e+000 +2.2949e+000 +1.8959e+000
819 0 +1.139077802e+000 -4.609509222e+002 -4.609509222e+002 +2.3355e+000 +2.2862e+000 +1.9014e+000
835 0 +1.091589711e+000 -4.609984103e+002 -4.609984103e+002 +2.3219e+000 +2.2937e+000 +1.9044e+000
837 0 +1.067042453e+000 -4.610229575e+002 -4.610229575e+002 +2.3261e+000 +2.2933e+000 +1.9045e+000
842 0 +1.041310083e+000 -4.610486899e+002 -4.610486899e+002 +2.3303e+000 +2.2932e+000 +1.9035e+000
901 0 +1.003856478e+000 -4.610861435e+002 -4.610861435e+002 +2.3341e+000 +2.3002e+000 +1.9043e+000
971 0 +9.971412331e-001 -4.610928588e+002 -4.610928588e+002 +2.3382e+000 +2.2991e+000 +1.9041e+000
5758 0 +5.905046712e-001 -4.614994953e+002 -4.614994953e+002 +2.3379e+000 +2.3151e+000 +2.1988e+000
5769 0 +4.555855873e-001 -4.616344144e+002 -4.616344144e+002 +2.3289e+000 +2.2993e+000 +2.1992e+000
5804 0 +4.147530404e-001 -4.616752470e+002 -4.616752470e+002 +2.3303e+000 +2.3031e+000 +2.1998e+000
5904 0 +3.748573479e-001 -4.617151427e+002 -4.617151427e+002 +2.3289e+000 +2.3031e+000 +2.2005e+000
5910 0 +3.578002648e-001 -4.617321997e+002 -4.617321997e+002 +2.3326e+000 +2.3029e+000 +2.2005e+000
5929 0 +2.744327109e-001 -4.618155673e+002 -4.618155673e+002 +2.3319e+000 +2.3028e+000 +2.2020e+000
5930 0 +1.423259589e-001 -4.619476740e+002 -4.619476740e+002 +2.3383e+000 +2.3047e+000 +2.2050e+000
5961 0 +1.384033460e-001 -4.619515967e+002 -4.619515967e+002 +2.3393e+000 +2.3074e+000 +2.2058e+000
5972 0 +1.212210624e-001 -4.619687789e+002 -4.619687789e+002 +2.3398e+000 +2.3072e+000 +2.2065e+000
5976 0 +1.159483234e-002 -4.620784052e+002 -4.620784052e+002 +2.3395e+000 +2.2998e+000 +2.2111e+000
5986 0 +5.299177831e-003 -4.620847008e+002 -4.620847008e+002 +2.3405e+000 +2.2988e+000 +2.2121e+000
6064 0 +2.003326951e-003 -4.620879967e+002 -4.620879967e+002 +2.3404e+000 +2.3001e+000 +2.2126e+000
6067 0 +1.120461859e-003 -4.620888795e+002 -4.620888795e+002 +2.3406e+000 +2.3009e+000 +2.2131e+000
6078 0 +2.792517784e-004 -4.620897207e+002 -4.620897207e+002 +2.3396e+000 +2.2998e+000 +2.2136e+000
6103 0 +5.326116934e-007 -4.620899995e+002 -4.620899995e+002 +2.3408e+000 +2.3000e+000 +2.2136e+000
6248 0 +4.059527896e-007 -4.620899996e+002 -4.620899996e+002 +2.3408e+000 +2.3000e+000 +2.2136e+000
6453 0 +3.527229637e-007 -4.620899996e+002 -4.620899996e+002 +2.3408e+000 +2.3000e+000 +2.2136e+000
6459 0 +2.519880127e-007 -4.620899997e+002 -4.620899997e+002 +2.3408e+000 +2.3000e+000 +2.2136e+000
6486 0 +2.379694024e-007 -4.620899998e+002 -4.620899998e+002 +2.3408e+000 +2.3000e+000 +2.2136e+000
6512 0 +2.297235255e-007 -4.620899998e+002 -4.620899998e+002 +2.3408e+000 +2.3000e+000 +2.2136e+000
6525 0 +2.200038693e-007 -4.620899998e+002 -4.620899998e+002 +2.3408e+000 +2.3000e+000 +2.2136e+000
6530 0 +1.845924089e-007 -4.620899998e+002 -4.620899998e+002 +2.3408e+000 +2.3000e+000 +2.2136e+000
6532 0 +1.388908117e-007 -4.620899999e+002 -4.620899999e+002 +2.3408e+000 +2.3000e+000 +2.2136e+000
6542 0 +1.364304012e-007 -4.620899999e+002 -4.620899999e+002 +2.3408e+000 +2.3000e+000 +2.2136e+000
6551 0 +1.334630610e-007 -4.620899999e+002 -4.620899999e+002 +2.3408e+000 +2.3000e+000 +2.2136e+000
6555 0 +6.295357480e-008 -4.620899999e+002 -4.620899999e+002 +2.3408e+000 +2.3000e+000 +2.2136e+000
6564 0 +3.721464736e-008 -4.620900000e+002 -4.620900000e+002 +2.3408e+000 +2.3000e+000 +2.2136e+000
6624 0 +2.856995707e-008 -4.620900000e+002 -4.620900000e+002 +2.3408e+000 +2.3000e+000 +2.2136e+000
6628 0 +2.455311687e-008 -4.620900000e+002 -4.620900000e+002 +2.3408e+000 +2.3000e+000 +2.2136e+000
6635 0 +9.460109140e-009 -4.620900000e+002 -4.620900000e+002 +2.3408e+000 +2.3000e+000 +2.2136e+000
% f evaluations | g evaluations | best noise-free fitness - Fopt (7.766000000000e+001) + sum g_i+ | measured fitness | best measured fitness or single-digit g-values | x1 | x2...
1 0 +1.344142202e+004 +1.351908202e+004 +1.351908202e+004 -3.1434e+000 +3.1498e+000 +4.9752e+000
2 0 +1.826570653e+002 +2.603170653e+002 +2.603170653e+002 +2.9835e+000 -3.8914e+000 -1.5768e+000
4 0 +1.645961549e+002 +2.422561549e+002 +2.422561549e+002 +7.1131e-001 +1.1355e+000 -2.1820e+000
13 0 +4.383684465e+001 +1.214968447e+002 +1.214968447e+002 +1.1442e+000 -1.7956e+000 +5.4661e-001
23 0 +3.071167449e+001 +1.083716745e+002 +1.083716745e+002 +1.4152e+000 -1.9263e+000 -1.8424e-001
47 0 +2.977242607e+001 +1.074324261e+002 +1.074324261e+002 +7.3991e-001 -1.8425e+000 +5.6438e-001
81 0 +2.257998974e+001 +1.002399897e+002 +1.002399897e+002 +1.4152e+000 -1.9263e+000 +1.1022e-001
111 0 +1.487705124e+001 +9.253705124e+001 +9.253705124e+001 +1.4152e+000 -1.9263e+000 +2.9867e-001
151 0 +7.851559599e+000 +8.551155960e+001 +8.551155960e+001 +2.3584e+000 -1.4422e+000 +1.0124e+000
236 0 +7.091541197e+000 +8.475154120e+001 +8.475154120e+001 +1.3331e+000 -1.3698e+000 +1.2454e+000
367 0 +6.565302921e+000 +8.422530292e+001 +8.422530292e+001 +1.3331e+000 -1.3831e+000 +1.2454e+000
459 0 +6.267929496e+000 +8.392792950e+001 +8.392792950e+001 +3.2175e-001 -8.6801e-001 +1.2527e+000
666 0 +1.492700392e+000 +7.915270039e+001 +7.915270039e+001 +1.3827e+000 -8.7673e-001 +1.2653e+000
742 0 +1.164238451e+000 +7.882423845e+001 +7.882423845e+001 +1.3871e+000 -8.6758e-001 +1.2719e+000
775 0 +1.122931178e+000 +7.878293118e+001 +7.878293118e+001 +1.3872e+000 -8.6473e-001 +1.2719e+000
856 0 +1.116675035e+000 +7.877667503e+001 +7.877667503e+001 +1.3866e+000 -8.6280e-001 +1.2713e+000
894 0 +1.096288566e+000 +7.875628857e+001 +7.875628857e+001 +1.3950e+000 -8.6735e-001 +1.2704e+000
932 0 +1.029349982e+000 +7.868934998e+001 +7.868934998e+001 +1.3983e+000 -8.4912e-001 +1.2713e+000
948 0 +1.008100869e+000 +7.866810087e+001 +7.866810087e+001 +1.4032e+000 -8.5794e-001 +1.2696e+000
1004 0 +9.967898664e-001 +7.865678987e+001 +7.865678987e+001 +1.4040e+000 -8.5605e-001 +1.2717e+000
5103 0 +6.699194037e-001 +7.832991940e+001 +7.832991940e+001 +2.3995e+000 -8.6084e-001 +1.2544e+000
5114 0 +6.195108661e-001 +7.827951087e+001 +7.827951087e+001 +2.3962e+000 -8.5838e-001 +1.2545e+000
5115 0 +4.571496072e-002 +7.770571496e+001 +7.770571496e+001 +2.3961e+000 -8.5854e-001 +1.2725e+000
5144 0 +4.089612908e-002 +7.770089613e+001 +7.770089613e+001 +2.3976e+000 -8.5950e-001 +1.2724e+000
5146 0 +3.086237040e-002 +7.769086237e+001 +7.769086237e+001 +2.3879e+000 -8.5980e-001 +1.2717e+000
5209 0 +1.705319876e-002 +7.767705320e+001 +7.767705320e+001 +2.3983e+000 -8.5080e-001 +1.2717e+000
5237 0 +9.486094127e-003 +7.766948609e+001 +7.766948609e+001 +2.3984e+000 -8.5225e-001 +1.2717e+000
5264 0 +4.143513620e-003 +7.766414351e+001 +7.766414351e+001 +2.3960e+000 -8.5401e-001 +1.2717e+000
5279 0 +3.544225500e-003 +7.766354423e+001 +7.766354423e+001 +2.3954e+000 -8.5445e-001 +1.2716e+000
5289 0 +3.047610071e-003 +7.766304761e+001 +7.766304761e+001 +2.3969e+000 -8.5496e-001 +1.2710e+000
5312 0 +2.427296378e-003 +7.766242730e+001 +7.766242730e+001 +2.3971e+000 -8.5456e-001 +1.2721e+000
5329 0 +1.227974500e-003 +7.766122797e+001 +7.766122797e+001 +2.3972e+000 -8.5584e-001 +1.2721e+000
5357 0 +1.164152288e-003 +7.766116415e+001 +7.766116415e+001 +2.3972e+000 -8.5585e-001 +1.2721e+000
5370 0 +1.017551678e-003 +7.766101755e+001 +7.766101755e+001 +2.3972e+000 -8.5580e-001 +1.2721e+000
5372 0 +5.883305862e-004 +7.766058833e+001 +7.766058833e+001 +2.3974e+000 -8.5535e-001 +1.2720e+000
5376 0 +2.431373085e-004 +7.766024314e+001 +7.766024314e+001 +2.3976e+000 -8.5555e-001 +1.2720e+000
5386 0 +6.775130450e-005 +7.766006775e+001 +7.766006775e+001 +2.3983e+000 -8.5577e-001 +1.2719e+000
5400 0 +4.606165948e-005 +7.766004606e+001 +7.766004606e+001 +2.3981e+000 -8.5580e-001 +1.2720e+000
5418 0 +1.161645960e-005 +7.766001162e+001 +7.766001162e+001 +2.3982e+000 -8.5593e-001 +1.2720e+000
5446 0 +1.005406045e-005 +7.766001005e+001 +7.766001005e+001 +2.3982e+000 -8.5593e-001 +1.2720e+000
5487 0 +8.674046995e-006 +7.766000867e+001 +7.766000867e+001 +2.3982e+000 -8.5594e-001 +1.2720e+000
5489 0 +5.497740773e-006 +7.766000550e+001 +7.766000550e+001 +2.3982e+000 -8.5597e-001 +1.2720e+000
5500 0 +5.383277482e-006 +7.766000538e+001 +7.766000538e+001 +2.3983e+000 -8.5608e-001 +1.2720e+000
5513 0 +4.919516797e-006 +7.766000492e+001 +7.766000492e+001 +2.3982e+000 -8.5598e-001 +1.2720e+000
5526 0 +4.834598386e-006 +7.766000483e+001 +7.766000483e+001 +2.3982e+000 -8.5600e-001 +1.2720e+000
5564 0 +4.599745665e-006 +7.766000460e+001 +7.766000460e+001 +2.3983e+000 -8.5598e-001 +1.2720e+000
5566 0 +4.523906895e-006 +7.766000452e+001 +7.766000452e+001 +2.3983e+000 -8.5601e-001 +1.2720e+000
5571 0 +4.244192581e-006 +7.766000424e+001 +7.766000424e+001 +2.3983e+000 -8.5600e-001 +1.2720e+000
5572 0 +2.392521807e-006 +7.766000239e+001 +7.766000239e+001 +2.3983e+000 -8.5604e-001 +1.2720e+000
5588 0 +2.336431265e-006 +7.766000234e+001 +7.766000234e+001 +2.3984e+000 -8.5595e-001 +1.2720e+000
5589 0 +1.900949016e-006 +7.766000190e+001 +7.766000190e+001 +2.3984e+000 -8.5598e-001 +1.2720e+000
5592 0 +1.815150540e-006 +7.766000182e+001 +7.766000182e+001 +2.3984e+000 -8.5597e-001 +1.2720e+000
5595 0 +1.015988772e-006 +7.766000102e+001 +7.766000102e+001 +2.3984e+000 -8.5598e-001 +1.2720e+000
5596 0 +8.360266435e-007 +7.766000084e+001 +7.766000084e+001 +2.3984e+000 -8.5599e-001 +1.2720e+000
5601 0 +4.840821362e-007 +7.766000048e+001 +7.766000048e+001 +2.3984e+000 -8.5600e-001 +1.2720e+000
5615 0 +4.019592978e-007 +7.766000040e+001 +7.766000040e+001 +2.3984e+000 -8.5599e-001 +1.2720e+000
5622 0 +3.575247121e-007 +7.766000036e+001 +7.766000036e+001 +2.3984e+000 -8.5602e-001 +1.2720e+000
5625 0 +1.146816828e-007 +7.766000011e+001 +7.766000011e+001 +2.3984e+000 -8.5599e-001 +1.2720e+000
5638 0 +1.096116335e-007 +7.766000011e+001 +7.766000011e+001 +2.3984e+000 -8.5599e-001 +1.2720e+000
5678 0 +6.749530712e-008 +7.766000007e+001 +7.766000007e+001 +2.3984e+000 -8.5601e-001 +1.2720e+000
5679 0 +6.393943863e-008 +7.766000006e+001 +7.766000006e+001 +2.3984e+000 -8.5601e-001 +1.2720e+000
5714 0 +4.697544398e-008 +7.766000005e+001 +7.766000005e+001 +2.3984e+000 -8.5600e-001 +1.2720e+000
5715 0 +4.369869089e-008 +7.766000004e+001 +7.766000004e+001 +2.3984e+000 -8.5599e-001 +1.2720e+000
5734 0 +3.386352887e-008 +7.766000003e+001 +7.766000003e+001 +2.3984e+000 -8.5600e-001 +1.2720e+000
5738 0 +2.069957361e-008 +7.766000002e+001 +7.766000002e+001 +2.3984e+000 -8.5600e-001 +1.2720e+000
5739 0 +2.029291579e-008 +7.766000002e+001 +7.766000002e+001 +2.3984e+000 -8.5600e-001 +1.2720e+000
5744 0 +5.112468671e-009 +7.766000001e+001 +7.766000001e+001 +2.3984e+000 -8.5600e-001 +1.2720e+000
% f evaluations | g evaluations | best noise-free fitness - Fopt (1.156800000000e+002) + sum g_i+ | measured fitness | best measured fitness or single-digit g-values | x1 | x2...
1 0 +8.814959651e+002 +9.971759651e+002 +9.971759651e+002 +2.5520e+000 -1.3302e+000 +1.1907e+000
2 0 +2.028177431e+002 +3.184977431e+002 +3.184977431e+002 +3.2159e+000 +3.3730e-001 -1.9732e+000
4 0 +9.102090667e+001 +2.067009067e+002 +2.067009067e+002 -2.7561e+000 +2.8537e+000 +2.9760e-001
6 0 +8.624474027e+001 +2.019247403e+002 +2.019247403e+002 -1.6486e+000 +3.5117e+000 +2.0901e-001
9 0 +6.885293887e+001 +1.845329389e+002 +1.845329389e+002 +2.5717e-001 -3.4134e+000 -1.4942e+000
34 0 +4.957790325e+001 +1.652579033e+002 +1.652579033e+002 -1.9231e+000 +3.4053e-001 -4.3192e-001
36 0 +2.673285983e+001 +1.424128598e+002 +1.424128598e+002 +4.7896e-001 +7.8794e-001 -3.9058e-001
115 0 +2.266045589e+001 +1.383404559e+002 +1.383404559e+002 +4.3422e-001 +7.9562e-001 -4.1163e-001
357 0 +1.904621750e+001 +1.347262175e+002 +1.347262175e+002 +1.0062e+000 -4.0972e-001 -4.2258e-001
425 0 +8.444715407e+000 +1.241247154e+002 +1.241247154e+002 +1.1102e+000 -4.4210e-001 -4.2671e-001
486 0 +7.024359657e+000 +1.227043597e+002 +1.227043597e+002 +1.1384e+000 -4.5129e-001 -4.2799e-001
531 0 +5.178319232e+000 +1.208583192e+002 +1.208583192e+002 +1.1956e+000 -9.7183e-001 -4.4823e-001
612 0 +4.503986810e+000 +1.201839868e+002 +1.201839868e+002 +1.1717e+000 -1.5948e+000 -8.8421e-002
624 0 +1.036996596e+000 +1.167169966e+002 +1.167169966e+002 +2.1795e+000 -1.5856e+000 +2.4390e-001
863 0 +1.009551888e+000 +1.166895519e+002 +1.166895519e+002 +2.1735e+000 -1.5837e+000 +2.4354e-001
901 0 +9.978820237e-001 +1.166778820e+002 +1.166778820e+002 +2.1763e+000 -1.5798e+000 +2.4376e-001
4881 0 +7.443101219e-001 +1.164243101e+002 +1.164243101e+002 +2.1769e+000 -9.8470e-001 +2.2536e-001
4893 0 +2.808320298e-001 +1.159608320e+002 +1.159608320e+002 +2.1648e+000 -9.7861e-001 +2.3373e-001
4899 0 +1.259537392e-001 +1.158059537e+002 +1.158059537e+002 +2.1706e+000 -9.7555e-001 +2.3834e-001
4906 0 +1.078568672e-001 +1.157878569e+002 +1.157878569e+002 +2.1714e+000 -9.7684e-001 +2.3845e-001
4911 0 +9.924429330e-002 +1.157792443e+002 +1.157792443e+002 +2.1769e+000 -9.7683e-001 +2.3848e-001
4931 0 +9.612235661e-002 +1.157761224e+002 +1.157761224e+002 +2.1691e+000 -9.8518e-001 +2.3827e-001
4941 0 +9.215226262e-002 +1.157721523e+002 +1.157721523e+002 +2.1690e+000 -9.8177e-001 +2.3848e-001
4967 0 +4.051492297e-002 +1.157205149e+002 +1.157205149e+002 +2.1762e+000 -9.8079e-001 +2.4091e-001
4994 0 +1.232144488e-002 +1.156923214e+002 +1.156923214e+002 +2.1764e+000 -9.8097e-001 +2.4272e-001
5014 0 +4.513998099e-003 +1.156845140e+002 +1.156845140e+002 +2.1749e+000 -9.8274e-001 +2.4387e-001
5064 0 +4.314747836e-003 +1.156843147e+002 +1.156843147e+002 +2.1749e+000 -9.8280e-001 +2.4390e-001
5084 0 +2.380322072e-003 +1.156823803e+002 +1.156823803e+002 +2.1764e+000 -9.8175e-001 +2.4432e-001
5092 0 +7.267258828e-004 +1.156807267e+002 +1.156807267e+002 +2.1774e+000 -9.8303e-001 +2.4433e-001
5118 0 +4.178824672e-004 +1.156804179e+002 +1.156804179e+002 +2.1778e+000 -9.8332e-001 +2.4442e-001
5119 0 +5.745994261e-005 +1.156800575e+002 +1.156800575e+002 +2.1782e+000 -9.8303e-001 +2.4468e-001
5186 0 +5.190305517e-005 +1.156800519e+002 +1.156800519e+002 +2.1782e+000 -9.8302e-001 +2.4469e-001
5195 0 +1.631177395e-005 +1.156800163e+002 +1.156800163e+002 +2.1784e+000 -9.8321e-001 +2.4471e-001
5237 0 +1.369046399e-005 +1.156800137e+002 +1.156800137e+002 +2.1783e+000 -9.8320e-001 +2.4472e-001
5247 0 +1.153472697e-005 +1.156800115e+002 +1.156800115e+002 +2.1782e+000 -9.8318e-001 +2.4477e-001
5277 0 +8.995346690e-006 +1.156800090e+002 +1.156800090e+002 +2.1782e+000 -9.8314e-001 +2.4477e-001
5305 0 +5.652608905e-006 +1.156800057e+002 +1.156800057e+002 +2.1783e+000 -9.8321e-001 +2.4476e-001
5307 0 +1.114649137e-007 +1.156800001e+002 +1.156800001e+002 +2.1784e+000 -9.8320e-001 +2.4480e-001
5386 0 +7.083173159e-008 +1.156800001e+002 +1.156800001e+002 +2.1784e+000 -9.8320e-001 +2.4480e-001
5409 0 +3.309712326e-008 +1.156800000e+002 +1.156800000e+002 +2.1784e+000 -9.8320e-001 +2.4480e-001
5414 0 +4.481989890e-009 +1.156800000e+002 +1.156800000e+002 +2.1784e+000 -9.8320e-001 +2.4480e-001
% f evaluations | g evaluations | best noise-free fitness - Fopt (-3.710000000000e+000) + sum g_i+ | measured fitness | best measured fitness or single-digit g-values | x1 | x2...
1 0 +1.393692651e+002 +1.356592651e+002 +1.356592651e+002 -2.5972e+000 +1.3748e+000 +7.3026e-001
9 0 +6.846946197e+001 +6.475946197e+001 +6.475946197e+001 +3.3742e+000 -2.8234e+000 -9.5933e-002
61 0 +6.677755060e+001 +6.306755060e+001 +6.306755060e+001 -1.3713e+000 -1.3559e+000 +1.5199e+000
66 0 +4.510947258e+001 +4.139947258e+001 +4.139947258e+001 +1.8660e+000 -2.0372e+000 +1.7127e+000
67 0 +3.231987057e+001 +2.860987057e+001 +2.860987057e+001 +1.8883e+000 -2.1498e+000 +1.7219e+000
69 0 +1.360483320e+001 +9.894833198e+000 +9.894833198e+000 +2.0368e+000 -2.8234e+000 +1.1503e+000
313 0 +1.038850754e+001 +6.678507535e+000 +6.678507535e+000 +2.0399e+000 -2.9568e+000 +1.1085e+000
365 0 +9.869894371e+000 +6.159894371e+000 +6.159894371e+000 +2.0455e+000 -2.9526e+000 +1.1090e+000
373 0 +6.051207369e+000 +2.341207369e+000 +2.341207369e+000 +2.1170e+000 -2.8942e+000 +1.1025e+000
438 0 +6.001150064e+000 +2.291150064e+000 +2.291150064e+000 +2.1273e+000 -2.8861e+000 +1.0995e+000
981 0 +5.041248448e+000 +1.331248448e+000 +1.331248448e+000 +2.1235e+000 -2.3059e+000 +1.0959e+000
1036 0 +5.003999603e+000 +1.293999603e+000 +1.293999603e+000 +2.1235e+000 -2.3025e+000 +1.0959e+000
1996 0 +1.454398381e+000 -2.255601619e+000 -2.255601619e+000 +3.1078e+000 -1.7765e+000 +1.7790e+000
2344 0 +1.112669935e+000 -2.597330065e+000 -2.597330065e+000 +3.1115e+000 -1.7691e+000 +1.7811e+000
2360 0 +1.083201518e+000 -2.626798482e+000 -2.626798482e+000 +3.1117e+000 -1.7683e+000 +1.7831e+000
2402 0 +1.013904492e+000 -2.696095508e+000 -2.696095508e+000 +3.1177e+000 -1.7636e+000 +1.7807e+000
2519 0 +9.984326225e-001 -2.711567378e+000 -2.711567378e+000 +3.1198e+000 -1.7614e+000 +1.7819e+000
11312 0 +3.781600948e-001 -3.331839905e+000 -3.331839905e+000 +3.1102e+000 -2.3157e+000 +1.7755e+000
11475 0 +2.067291272e-001 -3.503270873e+000 -3.503270873e+000 +3.1011e+000 -2.3060e+000 +1.7775e+000
11477 0 +1.736020688e-001 -3.536397931e+000 -3.536397931e+000 +3.0943e+000 -2.3019e+000 +1.7803e+000
11514 0 +1.527715437e-001 -3.557228456e+000 -3.557228456e+000 +3.1034e+000 -2.2856e+000 +1.7793e+000
11519 0 +1.413700905e-001 -3.568629910e+000 -3.568629910e+000 +3.1091e+000 -2.2843e+000 +1.7788e+000
11521 0 +9.852326314e-002 -3.611476737e+000 -3.611476737e+000 +3.1111e+000 -2.2861e+000 +1.7795e+000
11528 0 +2.761820251e-002 -3.682381797e+000 -3.682381797e+000 +3.1137e+000 -2.2908e+000 +1.7815e+000
11558 0 +2.467796952e-002 -3.685322030e+000 -3.685322030e+000 +3.1150e+000 -2.2913e+000 +1.7810e+000
11588 0 +2.278842026e-002 -3.687211580e+000 -3.687211580e+000 +3.1158e+000 -2.2916e+000 +1.7808e+000
11597 0 +1.696322938e-002 -3.693036771e+000 -3.693036771e+000 +3.1197e+000 -2.2900e+000 +1.7830e+000
11602 0 +5.814022806e-003 -3.704185977e+000 -3.704185977e+000 +3.1177e+000 -2.2931e+000 +1.7823e+000
11662 0 +1.789119732e-003 -3.708210880e+000 -3.708210880e+000 +3.1179e+000 -2.2962e+000 +1.7828e+000
11696 0 +1.397727148e-003 -3.708602273e+000 -3.708602273e+000 +3.1186e+000 -2.2964e+000 +1.7830e+000
11700 0 +1.271356949e-003 -3.708728643e+000 -3.708728643e+000 +3.1179e+000 -2.2958e+000 +1.7829e+000
11776 0 +5.834227719e-004 -3.709416577e+000 -3.709416577e+000 +3.1197e+000 -2.2959e+000 +1.7828e+000
11799 0 +5.373406294e-004 -3.709462659e+000 -3.709462659e+000 +3.1196e+000 -2.2956e+000 +1.7828e+000
11802 0 +5.302169514e-004 -3.709469783e+000 -3.709469783e+000 +3.1190e+000 -2.2947e+000 +1.7829e+000
11804 0 +4.905136163e-004 -3.709509486e+000 -3.709509486e+000 +3.1194e+000 -2.2947e+000 +1.7829e+000
11808 0 +4.238988580e-004 -3.709576101e+000 -3.709576101e+000 +3.1197e+000 -2.2946e+000 +1.7829e+000
11823 0 +3.420675093e-004 -3.709657932e+000 -3.709657932e+000 +3.1197e+000 -2.2948e+000 +1.7829e+000
11826 0 +2.316626468e-004 -3.709768337e+000 -3.709768337e+000 +3.1195e+000 -2.2951e+000 +1.7829e+000
11831 0 +2.168760942e-004 -3.709783124e+000 -3.709783124e+000 +3.1194e+000 -2.2951e+000 +1.7829e+000
11833 0 +1.963118570e-005 -3.709980369e+000 -3.709980369e+000 +3.1197e+000 -2.2951e+000 +1.7832e+000
11863 0 +1.742029550e-005 -3.709982580e+000 -3.709982580e+000 +3.1198e+000 -2.2951e+000 +1.7832e+000
11897 0 +1.094077565e-005 -3.709989059e+000 -3.709989059e+000 +3.1198e+000 -2.2952e+000 +1.7832e+000
11907 0 +9.160790607e-006 -3.709990839e+000 -3.709990839e+000 +3.1198e+000 -2.2953e+000 +1.7832e+000
11968 0 +8.602248394e-006 -3.709991398e+000 -3.709991398e+000 +3.1198e+000 -2.2952e+000 +1.7832e+000
11970 0 +5.255278933e-006 -3.709994745e+000 -3.709994745e+000 +3.1199e+000 -2.2951e+000 +1.7832e+000
11984 0 +7.717277275e-007 -3.709999228e+000 -3.709999228e+000 +3.1200e+000 -2.2952e+000 +1.7832e+000
12010 0 +2.688127014e-007 -3.709999731e+000 -3.709999731e+000 +3.1200e+000 -2.2952e+000 +1.7832e+000
12014 0 +7.361576237e-009 -3.709999993e+000 -3.709999993e+000 +3.1200e+000 -2.2952e+000 +1.7832e+000
% f evaluations | g evaluations | best noise-free fitness - Fopt (1.321800000000e+002) + sum g_i+ | measured fitness | best measured fitness or single-digit g-values | x1 | x2...
1 0 +1.706284218e+002 +3.028084218e+002 +3.028084218e+002 +4.0036e+000 -4.7636e+000 +2.2616e+000
6 0 +8.760945646e+001 +2.197894565e+002 +2.197894565e+002 +1.8710e+000 +2.4113e+000 +1.4313e+000
9 0 +8.348100534e+001 +2.156610053e+002 +2.156610053e+002 -1.4052e-001 +4.0607e+000 +1.6692e+000
38 0 +3.693127977e+001 +1.691112798e+002 +1.691112798e+002 -1.3403e+000 +4.2705e-001 +3.5160e+000
96 0 +3.350057395e+001 +1.656805740e+002 +1.656805740e+002 -1.3288e+000 +2.0943e+000 +3.1657e+000
149 0 +3.029179141e+001 +1.624717914e+002 +1.624717914e+002 +2.0530e+000 +1.3907e+000 +2.2939e+000
161 0 +2.582685136e+001 +1.580068514e+002 +1.580068514e+002 +1.5489e+000 +3.6099e-001 +2.5128e+000
230 0 +1.868305130e+001 +1.508630513e+002 +1.508630513e+002 +7.1583e-001 +4.2245e-001 +3.1107e+000
299 0 +1.598694785e+001 +1.481669479e+002 +1.481669479e+002 +2.6953e+000 +4.1801e-001 +2.7206e+000
311 0 +1.570872390e+001 +1.478887239e+002 +1.478887239e+002 +2.6744e+000 +1.4337e+000 +2.4868e+000
386 0 +1.548339502e+001 +1.476633950e+002 +1.476633950e+002 +2.6736e+000 +1.4694e+000 +2.4786e+000
390 0 +1.445588263e+001 +1.466358826e+002 +1.466358826e+002 +1.9235e+000 +4.3044e-001 +2.7789e+000
400 0 +1.419068169e+001 +1.463706817e+002 +1.463706817e+002 +1.6603e+000 +3.9457e-001 +2.7702e+000
583 0 +7.887153486e+000 +1.400671535e+002 +1.400671535e+002 +2.7686e+000 +8.6620e-001 +2.7404e+000
633 0 +7.726127729e+000 +1.399061277e+002 +1.399061277e+002 +2.7733e+000 +8.2189e-001 +2.7592e+000
682 0 +7.343782362e+000 +1.395237824e+002 +1.395237824e+002 +2.7680e+000 +8.9401e-001 +2.7447e+000
701 0 +6.235300175e+000 +1.384153002e+002 +1.384153002e+002 +2.7743e+000 +8.9440e-001 +2.7620e+000
703 0 +5.970409238e+000 +1.381504092e+002 +1.381504092e+002 +2.7682e+000 +8.8713e-001 +2.7739e+000
846 0 +5.565127707e+000 +1.377451277e+002 +1.377451277e+002 +2.7333e+000 +1.4722e+000 +2.7679e+000
848 0 +5.218421729e+000 +1.373984217e+002 +1.373984217e+002 +2.7494e+000 +1.4760e+000 +2.7667e+000
876 0 +4.976062104e+000 +1.371560621e+002 +1.371560621e+002 +2.7677e+000 +1.4817e+000 +2.7751e+000
1230 0 +2.285092731e+000 +1.344650927e+002 +1.344650927e+002 +2.7599e+000 +1.4955e+000 +3.1439e+000
1248 0 +2.133587962e+000 +1.343135880e+002 +1.343135880e+002 +2.7597e+000 +1.4958e+000 +3.1505e+000
1251 0 +2.018536212e+000 +1.341985362e+002 +1.341985362e+002 +2.7597e+000 +1.4824e+000 +3.1505e+000
1289 0 +1.124108048e+000 +1.333041080e+002 +1.333041080e+002 +2.7597e+000 +1.4870e+000 +3.4545e+000
1298 0 +1.099645798e+000 +1.332796458e+002 +1.332796458e+002 +2.7675e+000 +1.4870e+000 +3.4545e+000
1332 0 +1.041277156e+000 +1.332212772e+002 +1.332212772e+002 +2.7568e+000 +1.4824e+000 +3.4614e+000
1413 0 +1.010319687e+000 +1.331903197e+002 +1.331903197e+002 +2.7619e+000 +1.4802e+000 +3.4616e+000
1515 0 +9.977181394e-001 +1.331777181e+002 +1.331777181e+002 +2.7680e+000 +1.4825e+000 +3.4617e+000
16073 0 +2.500018002e-001 +1.324300018e+002 +1.324300018e+002 +3.7384e+000 +1.4821e+000 +3.4531e+000
16343 0 +2.199921012e-001 +1.323999921e+002 +1.323999921e+002 +3.7377e+000 +1.4753e+000 +3.4567e+000
16400 0 +1.469661481e-001 +1.323269661e+002 +1.323269661e+002 +3.7422e+000 +1.4787e+000 +3.4573e+000
16600 0 +1.299676013e-001 +1.323099676e+002 +1.323099676e+002 +3.7391e+000 +1.4856e+000 +3.4604e+000
16730 0 +1.008119325e-001 +1.322808119e+002 +1.322808119e+002 +3.7588e+000 +1.4763e+000 +3.4556e+000
16790 0 +2.836499342e-002 +1.322083650e+002 +1.322083650e+002 +3.7606e+000 +1.4763e+000 +3.4604e+000
16880 0 +2.653371015e-002 +1.322065337e+002 +1.322065337e+002 +3.7616e+000 +1.4763e+000 +3.4617e+000
16970 0 +2.524022265e-002 +1.322052402e+002 +1.322052402e+002 +3.7613e+000 +1.4763e+000 +3.4609e+000
17060 0 +2.417828867e-002 +1.322041783e+002 +1.322041783e+002 +3.7614e+000 +1.4763e+000 +3.4613e+000
17061 0 +2.211378100e-002 +1.322021138e+002 +1.322021138e+002 +3.7625e+000 +1.4772e+000 +3.4604e+000
17099 0 +9.602468082e-003 +1.321896025e+002 +1.321896025e+002 +3.7610e+000 +1.4799e+000 +3.4602e+000
17113 0 +5.764520548e-003 +1.321857645e+002 +1.321857645e+002 +3.7632e+000 +1.4832e+000 +3.4618e+000
17187 0 +2.407729357e-003 +1.321824077e+002 +1.321824077e+002 +3.7630e+000 +1.4824e+000 +3.4617e+000
17193 0 +9.946689185e-004 +1.321809947e+002 +1.321809947e+002 +3.7635e+000 +1.4836e+000 +3.4615e+000
17210 0 +8.560618208e-004 +1.321808561e+002 +1.321808561e+002 +3.7632e+000 +1.4834e+000 +3.4615e+000
17211 0 +7.372289925e-004 +1.321807372e+002 +1.321807372e+002 +3.7631e+000 +1.4833e+000 +3.4615e+000
17227 0 +5.932539522e-004 +1.321805933e+002 +1.321805933e+002 +3.7631e+000 +1.4832e+000 +3.4615e+000
17245 0 +5.540379359e-004 +1.321805540e+002 +1.321805540e+002 +3.7631e+000 +1.4832e+000 +3.4615e+000
17268 0 +3.407100281e-004 +1.321803407e+002 +1.321803407e+002 +3.7631e+000 +1.4830e+000 +3.4615e+000
17274 0 +3.018727634e-004 +1.321803019e+002 +1.321803019e+002 +3.7631e+000 +1.4829e+000 +3.4615e+000
17275 0 +2.144077441e-004 +1.321802144e+002 +1.321802144e+002 +3.7631e+000 +1.4826e+000 +3.4616e+000
17281 0 +1.219687189e-004 +1.321801220e+002 +1.321801220e+002 +3.7633e+000 +1.4822e+000 +3.4616e+000
17289 0 +1.196891576e-004 +1.321801197e+002 +1.321801197e+002 +3.7633e+000 +1.4825e+000 +3.4615e+000
17291 0 +1.174762606e-004 +1.321801175e+002 +1.321801175e+002 +3.7633e+000 +1.4825e+000 +3.4615e+000
17311 0 +5.400797605e-005 +1.321800540e+002 +1.321800540e+002 +3.7637e+000 +1.4826e+000 +3.4616e+000
17313 0 +2.077479775e-005 +1.321800208e+002 +1.321800208e+002 +3.7638e+000 +1.4825e+000 +3.4615e+000
17319 0 +1.248751622e-005 +1.321800125e+002 +1.321800125e+002 +3.7638e+000 +1.4823e+000 +3.4616e+000
17336 0 +1.059369208e-005 +1.321800106e+002 +1.321800106e+002 +3.7638e+000 +1.4824e+000 +3.4616e+000
17352 0 +8.215219424e-006 +1.321800082e+002 +1.321800082e+002 +3.7639e+000 +1.4825e+000 +3.4616e+000
17364 0 +7.711565388e-006 +1.321800077e+002 +1.321800077e+002 +3.7638e+000 +1.4824e+000 +3.4616e+000
17388 0 +6.601301692e-006 +1.321800066e+002 +1.321800066e+002 +3.7638e+000 +1.4824e+000 +3.4616e+000
17396 0 +6.159955035e-006 +1.321800062e+002 +1.321800062e+002 +3.7638e+000 +1.4824e+000 +3.4616e+000
17400 0 +5.244245017e-006 +1.321800052e+002 +1.321800052e+002 +3.7639e+000 +1.4824e+000 +3.4616e+000
17405 0 +4.719118209e-006 +1.321800047e+002 +1.321800047e+002 +3.7639e+000 +1.4825e+000 +3.4616e+000
17412 0 +3.846713042e-006 +1.321800038e+002 +1.321800038e+002 +3.7639e+000 +1.4825e+000 +3.4616e+000
17413 0 +1.869230346e-006 +1.321800019e+002 +1.321800019e+002 +3.7639e+000 +1.4824e+000 +3.4616e+000
17449 0 +1.805773167e-006 +1.321800018e+002 +1.321800018e+002 +3.7639e+000 +1.4824e+000 +3.4616e+000
17455 0 +9.211922816e-007 +1.321800009e+002 +1.321800009e+002 +3.7640e+000 +1.4824e+000 +3.4616e+000
17473 0 +8.973423178e-007 +1.321800009e+002 +1.321800009e+002 +3.7640e+000 +1.4824e+000 +3.4616e+000
17476 0 +8.867295094e-007 +1.321800009e+002 +1.321800009e+002 +3.7640e+000 +1.4824e+000 +3.4616e+000
17480 0 +6.456286883e-008 +1.321800001e+002 +1.321800001e+002 +3.7640e+000 +1.4824e+000 +3.4616e+000
17487 0 +6.017788223e-008 +1.321800001e+002 +1.321800001e+002 +3.7640e+000 +1.4824e+000 +3.4616e+000
17509 0 +5.231788691e-008 +1.321800001e+002 +1.321800001e+002 +3.7640e+000 +1.4824e+000 +3.4616e+000
17536 0 +4.437805501e-008 +1.321800000e+002 +1.321800000e+002 +3.7640e+000 +1.4824e+000 +3.4616e+000
17554 0 +1.680092510e-008 +1.321800000e+002 +1.321800000e+002 +3.7640e+000 +1.4824e+000 +3.4616e+000
17563 0 +7.898478316e-009 +1.321800000e+002 +1.321800000e+002 +3.7640e+000 +1.4824e+000 +3.4616e+000
% f evaluations | g evaluations | best noise-free fitness - Fopt (-3.930000000000e+001) + sum g_i+ | measured fitness | best measured fitness or single-digit g-values | x1 | x2...
1 0 +1.774160530e+003 +1.734860530e+003 +1.734860530e+003 -1.7463e+000 +2.6088e+000 +3.5105e+000
2 0 +5.956414766e+001 +2.026414766e+001 +2.026414766e+001 -1.0289e-001 -2.2466e+000 +1.2028e+000
31 0 +4.585265466e+001 +6.552654661e+000 +6.552654661e+000 +4.5142e-001 -1.7314e+000 +4.8626e-001
36 0 +2.993382268e+001 -9.366177322e+000 -9.366177322e+000 +1.5082e+000 -1.2040e+000 +1.2178e+000
60 0 +1.395194987e+001 -2.534805013e+001 -2.534805013e+001 +1.6006e+000 -1.2994e+000 +1.3736e+000
168 0 +7.804960509e+000 -3.149503949e+001 -3.149503949e+001 +2.4843e+000 -1.2451e+000 +1.6950e+000
228 0 +5.311829550e+000 -3.398817045e+001 -3.398817045e+001 +2.4843e+000 -1.2034e+000 +2.0582e+000
368 0 +4.617166885e+000 -3.468283311e+001 -3.468283311e+001 +2.4903e+000 -1.2020e+000 +2.0540e+000
550 0 +2.796090985e+000 -3.650390901e+001 -3.650390901e+001 +2.4852e+000 -1.2040e+000 +2.0387e+000
575 0 +2.194517880e+000 -3.710548212e+001 -3.710548212e+001 +2.4838e+000 -1.2048e+000 +2.0301e+000
588 0 +1.158437059e+000 -3.814156294e+001 -3.814156294e+001 +2.5319e+000 -1.2184e+000 +2.0262e+000
589 0 +1.084721735e+000 -3.821527827e+001 -3.821527827e+001 +2.5344e+000 -1.2184e+000 +2.0206e+000
632 0 +1.057801493e+000 -3.824219851e+001 -3.824219851e+001 +2.5171e+000 -1.2325e+000 +2.0212e+000
654 0 +1.028627501e+000 -3.827137250e+001 -3.827137250e+001 +2.5239e+000 -1.2242e+000 +2.0204e+000
685 0 +9.968705237e-001 -3.830312948e+001 -3.830312948e+001 +2.5307e+000 -1.2299e+000 +2.0203e+000
710 0 +2.667052270e-001 -3.903329477e+001 -3.903329477e+001 +2.5189e+000 -1.2473e+000 +2.3272e+000
712 0 +1.789967644e-001 -3.912100324e+001 -3.912100324e+001 +2.5219e+000 -1.2431e+000 +2.3265e+000
714 0 +1.479603181e-001 -3.915203968e+001 -3.915203968e+001 +2.5194e+000 -1.2393e+000 +2.3255e+000
722 0 +1.469926624e-001 -3.915300734e+001 -3.915300734e+001 +2.5194e+000 -1.2392e+000 +2.3255e+000
731 0 +9.278606793e-002 -3.920721393e+001 -3.920721393e+001 +2.5232e+000 -1.2373e+000 +2.3262e+000
776 0 +2.643080733e-002 -3.927356919e+001 -3.927356919e+001 +2.5221e+000 -1.2308e+000 +2.3300e+000
788 0 +2.547288460e-002 -3.927452712e+001 -3.927452712e+001 +2.5223e+000 -1.2308e+000 +2.3300e+000
798 0 +1.178836149e-002 -3.928821164e+001 -3.928821164e+001 +2.5273e+000 -1.2275e+000 +2.3297e+000
812 0 +3.683408181e-003 -3.929631659e+001 -3.929631659e+001 +2.5325e+000 -1.2275e+000 +2.3301e+000
844 0 +2.775168024e-003 -3.929722483e+001 -3.929722483e+001 +2.5303e+000 -1.2289e+000 +2.3301e+000
851 0 +1.824817288e-003 -3.929817518e+001 -3.929817518e+001 +2.5310e+000 -1.2298e+000 +2.3299e+000
901 0 +1.686615685e-003 -3.929831338e+001 -3.929831338e+001 +2.5307e+000 -1.2296e+000 +2.3302e+000
921 0 +1.581899216e-003 -3.929841810e+001 -3.929841810e+001 +2.5308e+000 -1.2299e+000 +2.3303e+000
932 0 +1.539025463e-003 -3.929846097e+001 -3.929846097e+001 +2.5309e+000 -1.2297e+000 +2.3302e+000
952 0 +1.495714853e-003 -3.929850429e+001 -3.929850429e+001 +2.5309e+000 -1.2296e+000 +2.3302e+000
955 0 +8.202800196e-004 -3.929917972e+001 -3.929917972e+001 +2.5317e+000 -1.2297e+000 +2.3301e+000
965 0 +5.964064214e-004 -3.929940359e+001 -3.929940359e+001 +2.5321e+000 -1.2297e+000 +2.3301e+000
1020 0 +5.819034113e-004 -3.929941810e+001 -3.929941810e+001 +2.5326e+000 -1.2298e+000 +2.3300e+000
1022 0 +3.109733478e-004 -3.929968903e+001 -3.929968903e+001 +2.5323e+000 -1.2296e+000 +2.3304e+000
1039 0 +1.529291300e-004 -3.929984707e+001 -3.929984707e+001 +2.5327e+000 -1.2297e+000 +2.3304e+000
1068 0 +7.384457771e-005 -3.929992616e+001 -3.929992616e+001 +2.5337e+000 -1.2296e+000 +2.3303e+000
1097 0 +2.710938477e-005 -3.929997289e+001 -3.929997289e+001 +2.5335e+000 -1.2297e+000 +2.3303e+000
1127 0 +2.642452929e-005 -3.929997358e+001 -3.929997358e+001 +2.5335e+000 -1.2297e+000 +2.3303e+000
1144 0 +1.502770723e-005 -3.929998497e+001 -3.929998497e+001 +2.5335e+000 -1.2297e+000 +2.3303e+000
1173 0 +1.049775606e-005 -3.929998950e+001 -3.929998950e+001 +2.5336e+000 -1.2297e+000 +2.3304e+000
1175 0 +5.946682819e-006 -3.929999405e+001 -3.929999405e+001 +2.5336e+000 -1.2297e+000 +2.3304e+000
1176 0 +5.685800296e-006 -3.929999431e+001 -3.929999431e+001 +2.5336e+000 -1.2297e+000 +2.3304e+000
1231 0 +3.628103855e-006 -3.929999637e+001 -3.929999637e+001 +2.5336e+000 -1.2297e+000 +2.3304e+000
1252 0 +3.284647605e-006 -3.929999672e+001 -3.929999672e+001 +2.5336e+000 -1.2297e+000 +2.3304e+000
1257 0 +1.244267636e-006 -3.929999876e+001 -3.929999876e+001 +2.5336e+000 -1.2296e+000 +2.3304e+000
1312 0 +2.548963707e-007 -3.929999975e+001 -3.929999975e+001 +2.5336e+000 -1.2296e+000 +2.3304e+000
1324 0 +2.371043166e-007 -3.929999976e+001 -3.929999976e+001 +2.5336e+000 -1.2296e+000 +2.3304e+000
1341 0 +1.673416392e-007 -3.929999983e+001 -3.929999983e+001 +2.5336e+000 -1.2296e+000 +2.3304e+000
1346 0 +1.145621411e-007 -3.929999989e+001 -3.929999989e+001 +2.5336e+000 -1.2296e+000 +2.3304e+000
1356 0 +7.008648595e-008 -3.929999993e+001 -3.929999993e+001 +2.5336e+000 -1.2296e+000 +2.3304e+000
1359 0 +6.260337670e-008 -3.929999994e+001 -3.929999994e+001 +2.5336e+000 -1.2296e+000 +2.3304e+000
1376 0 +6.123391927e-008 -3.929999994e+001 -3.929999994e+001 +2.5336e+000 -1.2296e+000 +2.3304e+000
1387 0 +5.992080077e-008 -3.929999994e+001 -3.929999994e+001 +2.5336e+000 -1.2296e+000 +2.3304e+000
1388 0 +2.885415995e-008 -3.929999997e+001 -3.929999997e+001 +2.5336e+000 -1.2296e+000 +2.3304e+000
1391 0 +1.576530195e-008 -3.929999998e+001 -3.929999998e+001 +2.5336e+000 -1.2296e+000 +2.3304e+000
1402 0 +9.475471074e-009 -3.929999999e+001 -3.929999999e+001 +2.5336e+000 -1.2296e+000 +2.3304e+000
% f evaluations | g evaluations | best noise-free fitness - Fopt (4.296000000000e+001) + sum g_i+ | measured fitness | best measured fitness or single-digit g-values | x1 | x2...
1 0 +2.332429019e+003 +2.375389019e+003 +2.375389019e+003 -2.9303e+000 -2.4155e+000 +4.3797e+000
2 0 +2.298198052e+003 +2.341158052e+003 +2.341158052e+003 +1.6791e+000 -3.9307e+000 +4.3412e+000
4 0 +1.635525490e+002 +2.065125490e+002 +2.065125490e+002 +6.2744e-001 -8.0211e-001 -7.3972e-001
13 0 +9.585165748e+001 +1.388116575e+002 +1.388116575e+002 -1.1240e+000 -1.3253e+000 +1.2998e+000
15 0 +8.326811449e+001 +1.262281145e+002 +1.262281145e+002 -6.7736e-001 -2.2418e+000 +2.2737e+000
31 0 +7.860686060e+001 +1.215668606e+002 +1.215668606e+002 -1.3927e+000 -1.0130e+000 +1.2692e+000
43 0 +6.710109271e+001 +1.100610927e+002 +1.100610927e+002 +4.8717e-001 -1.1419e+000 +1.2264e+000
90 0 +5.016217885e+001 +9.312217885e+001 +9.312217885e+001 -1.5750e+000 -1.6818e-001 +1.8117e+000
122 0 +4.062503249e+001 +8.358503249e+001 +8.358503249e+001 -2.3004e+000 +6.6414e-002 +2.8092e+000
212 0 +3.678033873e+001 +7.974033873e+001 +7.974033873e+001 -2.3197e+000 +1.5870e-001 +2.8102e+000
235 0 +1.516716077e+001 +5.812716077e+001 +5.812716077e+001 +6.4723e-001 +6.7485e-001 +2.0931e+000
385 0 +1.120405299e+001 +5.416405299e+001 +5.416405299e+001 +5.0782e-001 +1.9702e-001 +2.4519e+000
432 0 +7.976577622e+000 +5.093657762e+001 +5.093657762e+001 +5.3077e-001 +1.1363e+000 +2.0480e+000
437 0 +6.836422932e+000 +4.979642293e+001 +4.979642293e+001 +5.2803e-001 +1.0910e+000 +2.0823e+000
459 0 +6.655372210e+000 +4.961537221e+001 +4.961537221e+001 +5.2320e-001 +1.0960e+000 +2.0800e+000
580 0 +6.145090316e+000 +4.910509032e+001 +4.910509032e+001 +1.4348e+000 +1.1641e+000 +2.0881e+000
583 0 +5.982818013e+000 +4.894281801e+001 +4.894281801e+001 +1.4505e+000 +1.1714e+000 +2.0897e+000
592 0 +5.599672594e+000 +4.855967259e+001 +4.855967259e+001 +1.4658e+000 +1.1503e+000 +2.0924e+000
706 0 +5.376979588e+000 +4.833697959e+001 +4.833697959e+001 +1.4806e+000 +1.1462e+000 +2.0942e+000
723 0 +5.347108301e+000 +4.830710830e+001 +4.830710830e+001 +1.4823e+000 +1.1437e+000 +2.0943e+000
724 0 +5.084110461e+000 +4.804411046e+001 +4.804411046e+001 +1.4923e+000 +1.1407e+000 +2.0789e+000
800 0 +4.992253002e+000 +4.795225300e+001 +4.795225300e+001 +1.5088e+000 +1.1469e+000 +2.0845e+000
1185 0 +4.000398674e+000 +4.696039867e+001 +4.696039867e+001 +1.5128e+000 +1.1408e+000 +2.4893e+000
1227 0 +1.864945686e+000 +4.482494569e+001 +4.482494569e+001 +1.5128e+000 +1.1408e+000 +2.7492e+000
1232 0 +1.859279122e+000 +4.481927912e+001 +4.481927912e+001 +1.5127e+000 +1.1401e+000 +2.7492e+000
1239 0 +1.131963978e+000 +4.409196398e+001 +4.409196398e+001 +1.5071e+000 +1.1401e+000 +2.7616e+000
1261 0 +1.009883630e+000 +4.396988363e+001 +4.396988363e+001 +1.5038e+000 +1.1401e+000 +2.7697e+000
1390 0 +9.956261123e-001 +4.395562611e+001 +4.395562611e+001 +1.5123e+000 +1.1404e+000 +2.7699e+000
2417 0 +4.747211040e-001 +4.343472110e+001 +4.343472110e+001 +1.5128e+000 +1.7625e+000 +2.7704e+000
2516 0 +2.286512780e-001 +4.318865128e+001 +4.318865128e+001 +1.5128e+000 +1.7565e+000 +2.7704e+000
2526 0 +2.234387037e-001 +4.318343870e+001 +4.318343870e+001 +1.5128e+000 +1.7563e+000 +2.7704e+000
2532 0 +1.290871334e-001 +4.308908713e+001 +4.308908713e+001 +1.5128e+000 +1.7510e+000 +2.7704e+000
2541 0 +5.096047356e-002 +4.301096047e+001 +4.301096047e+001 +1.5128e+000 +1.7456e+000 +2.7704e+000
2545 0 +2.169733964e-002 +4.298169734e+001 +4.298169734e+001 +1.5128e+000 +1.7310e+000 +2.7704e+000
2549 0 +1.543409971e-003 +4.296154341e+001 +4.296154341e+001 +1.5128e+000 +1.7352e+000 +2.7704e+000
2550 0 +3.009587540e-005 +4.296003010e+001 +4.296003010e+001 +1.5128e+000 +1.7370e+000 +2.7704e+000
2595 0 +1.968337983e-006 +4.296000197e+001 +4.296000197e+001 +1.5128e+000 +1.7369e+000 +2.7704e+000
2655 0 +4.178336610e-007 +4.296000042e+001 +4.296000042e+001 +1.5128e+000 +1.7368e+000 +2.7704e+000
2737 0 +3.644112354e-007 +4.296000036e+001 +4.296000036e+001 +1.5128e+000 +1.7368e+000 +2.7704e+000
2741 0 +1.221177754e-007 +4.296000012e+001 +4.296000012e+001 +1.5128e+000 +1.7368e+000 +2.7704e+000
2749 0 +9.522790378e-008 +4.296000010e+001 +4.296000010e+001 +1.5128e+000 +1.7368e+000 +2.7704e+000
2770 0 +9.197130879e-008 +4.296000009e+001 +4.296000009e+001 +1.5128e+000 +1.7368e+000 +2.7704e+000
2771 0 +9.085865571e-008 +4.296000009e+001 +4.296000009e+001 +1.5128e+000 +1.7368e+000 +2.7704e+000
2787 0 +2.370706653e-008 +4.296000002e+001 +4.296000002e+001 +1.5128e+000 +1.7368e+000 +2.7704e+000
2898 0 +1.909353387e-008 +4.296000002e+001 +4.296000002e+001 +1.5128e+000 +1.7368e+000 +2.7704e+000
2900 0 +1.165300745e-008 +4.296000001e+001 +4.296000001e+001 +1.5128e+000 +1.7368e+000 +2.7704e+000
2901 0 +3.449812880e-009 +4.296000000e+001 +4.296000000e+001 +1.5128e+000 +1.7368e+000 +2.7704e+000
% f evaluations | g evaluations | best noise-free fitness - Fopt (2.842200000000e+002) + sum g_i+ | measured fitness | best measured fitness or single-digit g-values | x1 | x2...
1 0 +1.085120960e+002 +3.927320960e+002 +3.927320960e+002 -1.9213e+000 +4.2746e+000 -6.0194e-002
23 0 +1.011585055e+002 +3.853785055e+002 +3.853785055e+002 -3.4547e+000 +2.5912e+000 +1.1570e+000
32 0 +7.347356375e+001 +3.576935637e+002 +3.576935637e+002 -2.5809e-001 -3.3370e+000 +9.8667e-001
41 0 +6.773513350e+001 +3.519551335e+002 +3.519551335e+002 -4.4204e-001 -2.1752e+000 +6.7799e-001
43 0 +5.752945546e+001 +3.417494555e+002 +3.417494555e+002 +8.6289e-001 +1.3233e+000 +4.9540e-002
54 0 +5.207155610e+001 +3.362915561e+002 +3.362915561e+002 -6.0878e-001 +4.1985e-001 +6.3000e-001
95 0 +4.673600709e+001 +3.309560071e+002 +3.309560071e+002 -4.0943e-001 +2.7324e-002 +1.0186e+000
102 0 +3.437747165e+001 +3.185974717e+002 +3.185974717e+002 +5.6832e-002 +1.3040e+000 +3.6024e-001
124 0 +2.521533208e+001 +3.094353321e+002 +3.094353321e+002 +1.7996e+000 -9.7018e-001 +7.2417e-001
161 0 +2.505893550e+001 +3.092789355e+002 +3.092789355e+002 +1.8045e+000 -8.7490e-001 +6.7799e-001
237 0 +2.181643718e+001 +3.060364372e+002 +3.060364372e+002 -7.6381e-002 -1.7746e+000 +3.7061e-001
288 0 +1.295818161e+001 +2.971781816e+002 +2.971781816e+002 +2.9900e-001 -1.2715e-001 +1.0551e+000
392 0 +5.919003559e+000 +2.901390036e+002 +2.901390036e+002 +2.8685e-001 -2.1879e-001 +1.0517e+000
748 0 +5.005790334e+000 +2.892257903e+002 +2.892257903e+002 +8.2881e-002 -2.0948e-001 +1.0348e+000
751 0 +2.863381280e+000 +2.870833813e+002 +2.870833813e+002 +1.1531e+000 -1.9544e-001 +1.0352e+000
982 0 +2.189891899e+000 +2.864098919e+002 +2.864098919e+002 +1.1325e+000 -1.9621e-001 +1.0357e+000
1021 0 +1.598457754e+000 +2.858184578e+002 +2.858184578e+002 +1.1077e+000 -2.0183e-001 +1.0374e+000
1093 0 +1.569981664e+000 +2.857899817e+002 +2.857899817e+002 +1.0936e+000 -2.0222e-001 +1.0383e+000
1099 0 +1.407068916e+000 +2.856270689e+002 +2.856270689e+002 +1.1071e+000 -2.0969e-001 +1.0387e+000
1109 0 +1.265570448e+000 +2.854855704e+002 +2.854855704e+002 +1.0967e+000 -2.1314e-001 +1.0408e+000
1112 0 +9.274346351e-001 +2.851474346e+002 +2.851474346e+002 +2.0851e+000 -2.4985e-001 +1.0411e+000
1119 0 +5.328919738e-001 +2.847528920e+002 +2.847528920e+002 +2.0825e+000 -2.4495e-001 +1.0484e+000
1140 0 +5.237458586e-001 +2.847437459e+002 +2.847437459e+002 +2.0828e+000 -2.4472e-001 +1.0484e+000
1148 0 +1.507576650e-001 +2.843707577e+002 +2.843707577e+002 +2.0735e+000 -2.1817e-001 +1.0496e+000
1154 0 +1.257676073e-001 +2.843457676e+002 +2.843457676e+002 +2.0757e+000 -2.1780e-001 +1.0496e+000
1165 0 +9.950595443e-002 +2.843195060e+002 +2.843195060e+002 +2.0828e+000 -2.1465e-001 +1.0484e+000
1214 0 +8.134684267e-002 +2.843013468e+002 +2.843013468e+002 +2.0804e+000 -2.1688e-001 +1.0506e+000
1257 0 +8.090962937e-002 +2.843009096e+002 +2.843009096e+002 +2.0804e+000 -2.1830e-001 +1.0504e+000
1262 0 +7.046592966e-002 +2.842904659e+002 +2.842904659e+002 +2.0837e+000 -2.1360e-001 +1.0519e+000
1268 0 +3.658370300e-002 +2.842565837e+002 +2.842565837e+002 +2.0878e+000 -2.1658e-001 +1.0504e+000
1277 0 +2.834976981e-002 +2.842483498e+002 +2.842483498e+002 +2.0883e+000 -2.1905e-001 +1.0510e+000
1280 0 +1.894645875e-002 +2.842389465e+002 +2.842389465e+002 +2.0915e+000 -2.1944e-001 +1.0502e+000
1333 0 +1.630194049e-002 +2.842363019e+002 +2.842363019e+002 +2.0904e+000 -2.1853e-001 +1.0516e+000
1335 0 +1.590111001e-002 +2.842359011e+002 +2.842359011e+002 +2.0910e+000 -2.1660e-001 +1.0517e+000
1336 0 +1.574706225e-002 +2.842357471e+002 +2.842357471e+002 +2.0910e+000 -2.1663e-001 +1.0517e+000
1355 0 +1.353197494e-002 +2.842335320e+002 +2.842335320e+002 +2.0915e+000 -2.1735e-001 +1.0515e+000
1357 0 +1.006859019e-002 +2.842300686e+002 +2.842300686e+002 +2.0926e+000 -2.1869e-001 +1.0521e+000
1367 0 +9.256394426e-003 +2.842292564e+002 +2.842292564e+002 +2.0928e+000 -2.1889e-001 +1.0520e+000
1378 0 +9.103302576e-003 +2.842291033e+002 +2.842291033e+002 +2.0929e+000 -2.1906e-001 +1.0520e+000
1383 0 +5.022002725e-003 +2.842250220e+002 +2.842250220e+002 +2.0965e+000 -2.1892e-001 +1.0509e+000
1384 0 +3.610287034e-003 +2.842236103e+002 +2.842236103e+002 +2.0972e+000 -2.1895e-001 +1.0510e+000
1385 0 +2.240359657e-003 +2.842222404e+002 +2.842222404e+002 +2.0985e+000 -2.1910e-001 +1.0511e+000
1388 0 +1.773723498e-003 +2.842217737e+002 +2.842217737e+002 +2.0985e+000 -2.1936e-001 +1.0514e+000
1395 0 +1.437404135e-004 +2.842201437e+002 +2.842201437e+002 +2.0996e+000 -2.1842e-001 +1.0517e+000
1446 0 +9.102167695e-005 +2.842200910e+002 +2.842200910e+002 +2.0999e+000 -2.1828e-001 +1.0518e+000
1491 0 +6.273147108e-005 +2.842200627e+002 +2.842200627e+002 +2.0997e+000 -2.1817e-001 +1.0519e+000
1506 0 +4.762725399e-005 +2.842200476e+002 +2.842200476e+002 +2.0998e+000 -2.1813e-001 +1.0520e+000
1508 0 +4.442249769e-005 +2.842200444e+002 +2.842200444e+002 +2.0998e+000 -2.1837e-001 +1.0519e+000
1523 0 +4.334248604e-005 +2.842200433e+002 +2.842200433e+002 +2.1000e+000 -2.1836e-001 +1.0519e+000
1526 0 +3.203420209e-005 +2.842200320e+002 +2.842200320e+002 +2.0997e+000 -2.1836e-001 +1.0519e+000
1530 0 +2.769011434e-005 +2.842200277e+002 +2.842200277e+002 +2.0997e+000 -2.1832e-001 +1.0520e+000
1532 0 +1.523199177e-005 +2.842200152e+002 +2.842200152e+002 +2.0998e+000 -2.1840e-001 +1.0519e+000
1535 0 +1.237824239e-005 +2.842200124e+002 +2.842200124e+002 +2.0998e+000 -2.1845e-001 +1.0520e+000
1557 0 +4.588913896e-006 +2.842200046e+002 +2.842200046e+002 +2.0999e+000 -2.1845e-001 +1.0520e+000
1576 0 +3.119200812e-006 +2.842200031e+002 +2.842200031e+002 +2.0999e+000 -2.1839e-001 +1.0520e+000
1600 0 +2.478738622e-006 +2.842200025e+002 +2.842200025e+002 +2.0999e+000 -2.1837e-001 +1.0520e+000
1639 0 +2.063638590e-006 +2.842200021e+002 +2.842200021e+002 +2.1000e+000 -2.1839e-001 +1.0520e+000
1662 0 +1.956489371e-006 +2.842200020e+002 +2.842200020e+002 +2.1000e+000 -2.1844e-001 +1.0520e+000
1720 0 +1.796728441e-006 +2.842200018e+002 +2.842200018e+002 +2.1000e+000 -2.1844e-001 +1.0520e+000
1737 0 +1.044784597e-006 +2.842200010e+002 +2.842200010e+002 +2.1000e+000 -2.1840e-001 +1.0520e+000
1739 0 +9.136699646e-007 +2.842200009e+002 +2.842200009e+002 +2.1000e+000 -2.1840e-001 +1.0520e+000
1747 0 +5.614372185e-007 +2.842200006e+002 +2.842200006e+002 +2.1000e+000 -2.1840e-001 +1.0520e+000
1779 0 +2.711998377e-007 +2.842200003e+002 +2.842200003e+002 +2.1000e+000 -2.1840e-001 +1.0520e+000
1788 0 +2.481169759e-007 +2.842200002e+002 +2.842200002e+002 +2.1000e+000 -2.1841e-001 +1.0520e+000
1796 0 +2.436766522e-007 +2.842200002e+002 +2.842200002e+002 +2.1000e+000 -2.1841e-001 +1.0520e+000
1851 0 +2.190774353e-007 +2.842200002e+002 +2.842200002e+002 +2.1000e+000 -2.1839e-001 +1.0520e+000
1864 0 +1.983952416e-007 +2.842200002e+002 +2.842200002e+002 +2.1000e+000 -2.1840e-001 +1.0520e+000
1876 0 +1.684539370e-007 +2.842200002e+002 +2.842200002e+002 +2.1000e+000 -2.1840e-001 +1.0520e+000
1894 0 +7.339730246e-008 +2.842200001e+002 +2.842200001e+002 +2.1000e+000 -2.1840e-001 +1.0520e+000
1961 0 +5.944821169e-008 +2.842200001e+002 +2.842200001e+002 +2.1000e+000 -2.1840e-001 +1.0520e+000
1963 0 +5.691106253e-008 +2.842200001e+002 +2.842200001e+002 +2.1000e+000 -2.1840e-001 +1.0520e+000
1971 0 +5.281083304e-008 +2.842200001e+002 +2.842200001e+002 +2.1000e+000 -2.1839e-001 +1.0520e+000
1973 0 +2.159248425e-008 +2.842200000e+002 +2.842200000e+002 +2.1000e+000 -2.1840e-001 +1.0520e+000
2005 0 +1.049170351e-008 +2.842200000e+002 +2.842200000e+002 +2.1000e+000 -2.1840e-001 +1.0520e+000
2028 0 +7.600988283e-009 +2.842200000e+002 +2.842200000e+002 +2.1000e+000 -2.1840e-001 +1.0520e+000
% f evaluations | g evaluations | best noise-free fitness - Fopt (-3.217000000000e+001) + sum g_i+ | measured fitness | best measured fitness or single-digit g-values | x1 | x2...
1 0 +1.038903836e+003 +1.006733836e+003 +1.006733836e+003 +4.5672e+000 -1.2629e+000 -1.0997e+000
2 0 +1.589323164e+002 +1.267623164e+002 +1.267623164e+002 -2.1488e+000 +7.4627e-001 -2.9854e+000
15 0 +1.061282915e+002 +7.395829154e+001 +7.395829154e+001 -2.4440e+000 -7.9821e-001 -1.7682e+000
37 0 +1.031966139e+002 +7.102661392e+001 +7.102661392e+001 -8.6376e-001 +3.5933e+000 -2.0218e+000
38 0 +1.014802669e+002 +6.931026693e+001 +6.931026693e+001 -8.1194e-001 +3.7049e+000 -1.9996e+000
45 0 +8.047351120e+001 +4.830351120e+001 +4.830351120e+001 -1.7624e+000 -7.5744e-001 -3.7249e-001
48 0 +6.158488320e+001 +2.941488320e+001 +2.941488320e+001 -3.5005e+000 +3.0254e-001 -9.6612e-001
56 0 +5.029499517e+001 +1.812499517e+001 +1.812499517e+001 -2.5089e+000 +2.2158e+000 -7.3968e-001
57 0 +4.579699719e+001 +1.362699719e+001 +1.362699719e+001 -5.4396e-001 +2.7510e+000 -4.3553e-001
76 0 +4.305654501e+001 +1.088654501e+001 +1.088654501e+001 -1.5806e+000 -3.1385e-001 -1.2433e-001
129 0 +4.104890689e+001 +8.878906887e+000 +8.878906887e+000 -2.0650e+000 +1.9627e+000 +4.9723e-001
132 0 +3.366613361e+001 +1.496133611e+000 +1.496133611e+000 +7.8711e-001 +3.5667e+000 +4.3896e-001
174 0 +2.490169497e+001 -7.268305027e+000 -7.268305027e+000 +1.4661e+000 +3.0111e+000 +4.2444e-001
182 0 +2.282923410e+001 -9.340765903e+000 -9.340765903e+000 +4.9793e-001 +1.8980e+000 -6.7011e-002
197 0 +2.206254006e+001 -1.010745994e+001 -1.010745994e+001 +1.4505e+000 +2.4337e+000 -8.6473e-002
257 0 +1.900117368e+001 -1.316882632e+001 -1.316882632e+001 +1.4475e+000 +2.8914e+000 -1.2264e-001
449 0 +1.854372025e+001 -1.362627975e+001 -1.362627975e+001 +1.4484e+000 +2.8968e+000 -1.2256e-001
454 0 +1.788973840e+001 -1.428026160e+001 -1.428026160e+001 +1.4591e+000 +2.8733e+000 +2.0317e-001
499 0 +1.562793151e+001 -1.654206849e+001 -1.654206849e+001 +1.4582e+000 +2.8734e+000 +1.9324e-001
510 0 +1.365842263e+001 -1.851157737e+001 -1.851157737e+001 +1.4313e+000 +2.9745e+000 -2.3546e-001
529 0 +1.208947560e+001 -2.008052440e+001 -2.008052440e+001 +1.3780e+000 +2.8781e+000 +1.8748e-001
568 0 +1.168135478e+001 -2.048864522e+001 -2.048864522e+001 +1.5454e+000 +1.7850e+000 +3.8922e-001
570 0 +1.054980817e+001 -2.162019183e+001 -2.162019183e+001 +1.4347e+000 +2.9543e+000 -2.3011e-001
625 0 +8.514962143e+000 -2.365503786e+001 -2.365503786e+001 +5.2549e-001 +2.9030e+000 +1.4962e-001
718 0 +6.349279099e+000 -2.582072090e+001 -2.582072090e+001 +1.3756e+000 +2.9341e+000 +1.5279e-001
741 0 +1.796884695e+000 -3.037311530e+001 -3.037311530e+001 +1.4417e+000 +1.8287e+000 +4.3420e-001
1247 0 +1.049647827e+000 -3.112035217e+001 -3.112035217e+001 +1.4272e+000 +1.8407e+000 +4.3976e-001
1288 0 +5.752437908e-001 -3.159475621e+001 -3.159475621e+001 +1.4496e+000 +1.8485e+000 +4.4704e-001
1311 0 +4.952641289e-001 -3.167473587e+001 -3.167473587e+001 +1.4502e+000 +1.8498e+000 +4.5084e-001
1344 0 +2.695491037e-002 -3.214304509e+001 -3.214304509e+001 +1.4443e+000 +1.8480e+000 +4.5986e-001
1357 0 +2.268119954e-002 -3.214731880e+001 -3.214731880e+001 +1.4464e+000 +1.8484e+000 +4.6076e-001
1519 0 +1.444640811e-002 -3.215555359e+001 -3.215555359e+001 +1.4446e+000 +1.8509e+000 +4.5920e-001
1525 0 +1.381635711e-002 -3.215618364e+001 -3.215618364e+001 +1.4440e+000 +1.8518e+000 +4.5862e-001
1534 0 +9.918771154e-003 -3.216008123e+001 -3.216008123e+001 +1.4413e+000 +1.8518e+000 +4.6082e-001
1542 0 +9.534558315e-003 -3.216046544e+001 -3.216046544e+001 +1.4411e+000 +1.8520e+000 +4.6063e-001
1637 0 +8.983974666e-003 -3.216101603e+001 -3.216101603e+001 +1.4424e+000 +1.8541e+000 +4.5919e-001
1664 0 +6.060626758e-003 -3.216393937e+001 -3.216393937e+001 +1.4422e+000 +1.8547e+000 +4.5980e-001
1667 0 +3.135949675e-003 -3.216686405e+001 -3.216686405e+001 +1.4459e+000 +1.8527e+000 +4.5993e-001
1685 0 +1.359910278e-003 -3.216864009e+001 -3.216864009e+001 +1.4459e+000 +1.8535e+000 +4.6015e-001
1745 0 +1.045463336e-003 -3.216895454e+001 -3.216895454e+001 +1.4459e+000 +1.8535e+000 +4.6032e-001
1750 0 +1.471422215e-005 -3.216998529e+001 -3.216998529e+001 +1.4463e+000 +1.8544e+000 +4.6072e-001
1851 0 +1.009118712e-005 -3.216998991e+001 -3.216998991e+001 +1.4464e+000 +1.8545e+000 +4.6075e-001
1899 0 +8.087040662e-006 -3.216999191e+001 -3.216999191e+001 +1.4463e+000 +1.8545e+000 +4.6077e-001
1903 0 +6.944299052e-006 -3.216999306e+001 -3.216999306e+001 +1.4463e+000 +1.8545e+000 +4.6078e-001
1933 0 +6.075874488e-006 -3.216999392e+001 -3.216999392e+001 +1.4463e+000 +1.8544e+000 +4.6076e-001
1964 0 +3.554762877e-006 -3.216999645e+001 -3.216999645e+001 +1.4463e+000 +1.8544e+000 +4.6080e-001
1965 0 +2.139937187e-006 -3.216999786e+001 -3.216999786e+001 +1.4463e+000 +1.8544e+000 +4.6079e-001
1974 0 +1.933190184e-006 -3.216999807e+001 -3.216999807e+001 +1.4463e+000 +1.8544e+000 +4.6079e-001
1989 0 +5.246057810e-008 -3.216999995e+001 -3.216999995e+001 +1.4464e+000 +1.8544e+000 +4.6080e-001
2078 0 +4.644493856e-008 -3.216999995e+001 -3.216999995e+001 +1.4464e+000 +1.8544e+000 +4.6080e-001
2086 0 +8.423384656e-009 -3.216999999e+001 -3.216999999e+001 +1.4464e+000 +1.8544e+000 +4.6080e-001
% f evaluations | g evaluations | best noise-free fitness - Fopt (-5.858000000000e+001) + sum g_i+ | measured fitness | best measured fitness or single-digit g-values | x1 | x2...
1 0 +2.029136652e+003 +1.970556652e+003 +1.970556652e+003 +4.0924e-001 +3.7741e+000 +2.2260e+000
2 0 +4.473453848e+001 -1.384546152e+001 -1.384546152e+001 -1.5822e+000 -1.8752e+000 +7.4721e-001
3 0 +3.324007369e+001 -2.533992631e+001 -2.533992631e+001 +9.1546e-001 -1.4455e+000 +4.2950e-001
98 0 +1.302088438e+001 -4.555911562e+001 -4.555911562e+001 +4.4194e-001 -3.2130e+000 +9.7113e-001
266 0 +1.228676609e+001 -4.629323391e+001 -4.629323391e+001 +2.4361e+000 -3.1062e+000 +3.3030e-001
291 0 +1.108331713e+001 -4.749668287e+001 -4.749668287e+001 +1.5648e+000 -1.4929e+000 +1.0065e+000
371 0 +7.304413003e+000 -5.127558700e+001 -5.127558700e+001 +1.6554e+000 -1.4227e+000 +9.6997e-001
419 0 +5.815334629e+000 -5.276466537e+001 -5.276466537e+001 +1.5871e+000 -1.4628e+000 +9.6701e-001
456 0 +5.215693455e+000 -5.336430655e+001 -5.336430655e+001 +1.5930e+000 -1.4402e+000 +9.6205e-001
498 0 +4.995941257e+000 -5.358405874e+001 -5.358405874e+001 +1.5989e+000 -1.4452e+000 +9.7074e-001
852 0 +3.438435211e+000 -5.514156479e+001 -5.514156479e+001 +1.6039e+000 -3.0316e+000 +9.7166e-001
881 0 +2.193048648e+000 -5.638695135e+001 -5.638695135e+001 +1.6028e+000 -3.0801e+000 +9.6989e-001
900 0 +2.134811435e+000 -5.644518856e+001 -5.644518856e+001 +1.6100e+000 -3.0948e+000 +9.6959e-001
922 0 +2.009577821e+000 -5.657042218e+001 -5.657042218e+001 +1.5935e+000 -3.0954e+000 +9.7197e-001
935 0 +1.968844253e+000 -5.661115575e+001 -5.661115575e+001 +1.5876e+000 -2.5439e+000 +9.7115e-001
938 0 +1.906169603e+000 -5.667383040e+001 -5.667383040e+001 +1.5829e+000 -2.5423e+000 +9.7218e-001
939 0 +1.875801376e+000 -5.670419862e+001 -5.670419862e+001 +1.5828e+000 -2.5415e+000 +9.7002e-001
944 0 +1.660307551e+000 -5.691969245e+001 -5.691969245e+001 +1.5829e+000 -2.5374e+000 +9.7000e-001
950 0 +1.612194434e+000 -5.696780557e+001 -5.696780557e+001 +1.5820e+000 -2.5364e+000 +9.7136e-001
959 0 +1.211910102e+000 -5.736808990e+001 -5.736808990e+001 +1.5892e+000 -2.5242e+000 +9.6963e-001
962 0 +1.186063210e+000 -5.739393679e+001 -5.739393679e+001 +1.5898e+000 -2.5233e+000 +9.6995e-001
963 0 +1.031079266e+000 -5.754892073e+001 -5.754892073e+001 +1.5894e+000 -2.5032e+000 +9.6995e-001
983 0 +1.022906177e+000 -5.755709382e+001 -5.755709382e+001 +1.5900e+000 -2.5050e+000 +9.6982e-001
1029 0 +9.976227616e-001 -5.758237724e+001 -5.758237724e+001 +1.5964e+000 -2.5067e+000 +9.7250e-001
2091 0 +4.985324881e-001 -5.808146751e+001 -5.808146751e+001 +2.5419e+000 -2.5072e+000 +9.7280e-001
2274 0 +1.284535989e-001 -5.845154640e+001 -5.845154640e+001 +2.5928e+000 -2.5075e+000 +9.7284e-001
2282 0 +1.242508378e-001 -5.845574916e+001 -5.845574916e+001 +2.5927e+000 -2.5075e+000 +9.7284e-001
2291 0 +8.820057599e-003 -5.857117994e+001 -5.857117994e+001 +2.5834e+000 -2.5072e+000 +9.7283e-001
2318 0 +3.968430832e-003 -5.857603157e+001 -5.857603157e+001 +2.5864e+000 -2.5073e+000 +9.7284e-001
2322 0 +2.946141537e-003 -5.857705386e+001 -5.857705386e+001 +2.5869e+000 -2.5072e+000 +9.7284e-001
2327 0 +2.088724833e-003 -5.857791128e+001 -5.857791128e+001 +2.5874e+000 -2.5072e+000 +9.7284e-001
2346 0 +6.511625226e-004 -5.857934884e+001 -5.857934884e+001 +2.5886e+000 -2.5073e+000 +9.7281e-001
2352 0 +6.438631388e-005 -5.857993561e+001 -5.857993561e+001 +2.5899e+000 -2.5074e+000 +9.7278e-001
2416 0 +2.461516389e-005 -5.857997538e+001 -5.857997538e+001 +2.5902e+000 -2.5074e+000 +9.7278e-001
2460 0 +1.871511351e-005 -5.857998128e+001 -5.857998128e+001 +2.5903e+000 -2.5074e+000 +9.7277e-001
2464 0 +1.610187033e-005 -5.857998390e+001 -5.857998390e+001 +2.5902e+000 -2.5073e+000 +9.7276e-001
2472 0 +1.377710715e-005 -5.857998622e+001 -5.857998622e+001 +2.5902e+000 -2.5073e+000 +9.7278e-001
2507 0 +1.139703777e-005 -5.857998860e+001 -5.857998860e+001 +2.5903e+000 -2.5073e+000 +9.7276e-001
2539 0 +1.005990189e-005 -5.857998994e+001 -5.857998994e+001 +2.5903e+000 -2.5073e+000 +9.7275e-001
2558 0 +9.238689842e-006 -5.857999076e+001 -5.857999076e+001 +2.5904e+000 -2.5073e+000 +9.7275e-001
2564 0 +8.341037649e-006 -5.857999166e+001 -5.857999166e+001 +2.5904e+000 -2.5073e+000 +9.7276e-001
2577 0 +6.041305141e-006 -5.857999396e+001 -5.857999396e+001 +2.5904e+000 -2.5073e+000 +9.7276e-001
2594 0 +1.499271455e-006 -5.857999850e+001 -5.857999850e+001 +2.5904e+000 -2.5072e+000 +9.7277e-001
2607 0 +1.393047540e-006 -5.857999861e+001 -5.857999861e+001 +2.5903e+000 -2.5072e+000 +9.7278e-001
2609 0 +1.304751606e-006 -5.857999870e+001 -5.857999870e+001 +2.5904e+000 -2.5072e+000 +9.7278e-001
2610 0 +1.235765673e-006 -5.857999876e+001 -5.857999876e+001 +2.5904e+000 -2.5072e+000 +9.7278e-001
2613 0 +8.169553425e-007 -5.857999918e+001 -5.857999918e+001 +2.5904e+000 -2.5072e+000 +9.7278e-001
2624 0 +7.860311584e-007 -5.857999921e+001 -5.857999921e+001 +2.5904e+000 -2.5072e+000 +9.7278e-001
2634 0 +5.625303245e-007 -5.857999944e+001 -5.857999944e+001 +2.5904e+000 -2.5072e+000 +9.7278e-001
2678 0 +1.520762893e-007 -5.857999985e+001 -5.857999985e+001 +2.5904e+000 -2.5072e+000 +9.7279e-001
2693 0 +1.382967412e-007 -5.857999986e+001 -5.857999986e+001 +2.5904e+000 -2.5072e+000 +9.7279e-001
2750 0 +1.073209148e-007 -5.857999989e+001 -5.857999989e+001 +2.5904e+000 -2.5072e+000 +9.7280e-001
2751 0 +8.047579314e-008 -5.857999992e+001 -5.857999992e+001 +2.5904e+000 -2.5072e+000 +9.7280e-001
2757 0 +4.837777823e-008 -5.857999995e+001 -5.857999995e+001 +2.5904e+000 -2.5072e+000 +9.7280e-001
2768 0 +3.273093085e-008 -5.857999997e+001 -5.857999997e+001 +2.5904e+000 -2.5072e+000 +9.7280e-001
2769 0 +2.866112681e-008 -5.857999997e+001 -5.857999997e+001 +2.5904e+000 -2.5072e+000 +9.7280e-001
2813 0 +1.402121086e-008 -5.857999999e+001 -5.857999999e+001 +2.5904e+000 -2.5072e+000 +9.7280e-001
2816 0 +1.297444641e-008 -5.857999999e+001 -5.857999999e+001 +2.5904e+000 -2.5072e+000 +9.7280e-001
2847 0 +9.012929070e-009 -5.857999999e+001 -5.857999999e+001 +2.5904e+000 -2.5072e+000 +9.7280e-001
% f evaluations | g evaluations | best noise-free fitness - Fopt (-6.049200000000e+002) + sum g_i+ | measured fitness | best measured fitness or single-digit g-values | x1 | x2...
1 0 +3.367900303e+002 -2.681299697e+002 -2.681299697e+002 -2.1838e+000 -4.0192e+000 -3.3049e+000
4 0 +3.109061185e+002 -2.940138815e+002 -2.940138815e+002 +4.3080e-001 +1.9346e+000 -3.0359e+000
9 0 +2.900083511e+002 -3.149116489e+002 -3.149116489e+002 +1.7507e+000 -1.4236e-002 -2.6851e+000
10 0 +2.418508974e+002 -3.630691026e+002 -3.630691026e+002 -5.0000e+000 -7.9557e-002 -1.9313e+000
11 0 +1.119392934e+002 -4.929807066e+002 -4.929807066e+002 -4.4873e+000 +2.7433e+000 +1.4684e+000
27 0 +6.605352876e+001 -5.388664712e+002 -5.388664712e+002 -1.6614e+000 -7.4334e-001 +1.9258e+000
37 0 +5.825935554e+001 -5.466606445e+002 -5.466606445e+002 -7.8833e-001 -1.3981e+000 +3.1223e-001
43 0 +4.503577899e+001 -5.598842210e+002 -5.598842210e+002 -3.4339e+000 -9.7444e-001 +1.3527e+000
44 0 +3.175279866e+001 -5.731672013e+002 -5.731672013e+002 -2.9387e+000 -4.8321e-001 +1.1558e+000
82 0 +2.907565010e+001 -5.758443499e+002 -5.758443499e+002 -2.0826e+000 -9.8060e-001 +9.2337e-001
104 0 +2.596191677e+001 -5.789580832e+002 -5.789580832e+002 -2.8919e+000 -9.9264e-001 +1.7056e+000
124 0 +2.173187901e+001 -5.831881210e+002 -5.831881210e+002 -9.3500e-001 -1.0987e+000 +1.6781e+000
141 0 +1.092601751e+001 -5.939939825e+002 -5.939939825e+002 +1.2302e-001 -1.6496e+000 +1.7313e+000
155 0 +1.006366366e+001 -5.948563363e+002 -5.948563363e+002 +9.7299e-001 -1.6935e+000 +1.8147e+000
405 0 +8.448217435e+000 -5.964717826e+002 -5.964717826e+002 +9.9865e-001 -2.1201e+000 +1.7984e+000
412 0 +8.028064776e+000 -5.968919352e+002 -5.968919352e+002 +9.7829e-001 -2.1125e+000 +1.7975e+000
453 0 +4.772242998e+000 -6.001477570e+002 -6.001477570e+002 +9.7844e-001 -1.0623e+000 +1.7939e+000
481 0 +2.580914649e+000 -6.023390854e+002 -6.023390854e+002 +9.8433e-001 -1.0564e+000 +1.7522e+000
580 0 +1.895156420e+000 -6.030248436e+002 -6.030248436e+002 +9.8899e-001 -1.0443e+000 +1.7524e+000
602 0 +1.606904975e+000 -6.033130950e+002 -6.033130950e+002 +9.9067e-001 -1.0319e+000 +1.7510e+000
625 0 +1.559927765e+000 -6.033600722e+002 -6.033600722e+002 +9.9415e-001 -1.0400e+000 +1.7554e+000
627 0 +1.388557703e+000 -6.035314423e+002 -6.035314423e+002 +9.8627e-001 -1.0364e+000 +1.7696e+000
653 0 +1.168537339e+000 -6.037514627e+002 -6.037514627e+002 +9.8661e-001 -1.0302e+000 +1.7639e+000
660 0 +1.080301655e+000 -6.038396983e+002 -6.038396983e+002 +9.8791e-001 -1.0200e+000 +1.7680e+000
707 0 +1.060783861e+000 -6.038592161e+002 -6.038592161e+002 +9.8797e-001 -1.0233e+000 +1.7617e+000
767 0 +1.005589866e+000 -6.039144101e+002 -6.039144101e+002 +9.9051e-001 -1.0148e+000 +1.7636e+000
797 0 +9.996723431e-001 -6.039203277e+002 -6.039203277e+002 +9.9397e-001 -1.0150e+000 +1.7637e+000
8300 0 +1.017601071e-001 -6.048182399e+002 -6.048182399e+002 +9.8137e-001 -1.0072e+000 +2.0733e+000
8304 0 +2.452801990e-002 -6.048954720e+002 -6.048954720e+002 +9.9789e-001 -1.0141e+000 +2.0703e+000
8307 0 +1.572517857e-002 -6.049042748e+002 -6.049042748e+002 +9.9759e-001 -1.0150e+000 +2.0708e+000
8322 0 +7.836307902e-003 -6.049121637e+002 -6.049121637e+002 +9.9485e-001 -1.0133e+000 +2.0724e+000
8360 0 +7.632109862e-003 -6.049123679e+002 -6.049123679e+002 +9.9731e-001 -1.0173e+000 +2.0720e+000
8407 0 +7.366343129e-003 -6.049126337e+002 -6.049126337e+002 +9.9723e-001 -1.0171e+000 +2.0720e+000
8414 0 +5.258397464e-003 -6.049147416e+002 -6.049147416e+002 +9.9550e-001 -1.0143e+000 +2.0723e+000
8424 0 +3.619596395e-003 -6.049163804e+002 -6.049163804e+002 +9.9789e-001 -1.0146e+000 +2.0723e+000
8437 0 +2.292401279e-003 -6.049177076e+002 -6.049177076e+002 +9.9775e-001 -1.0138e+000 +2.0728e+000
8451 0 +1.916934459e-003 -6.049180831e+002 -6.049180831e+002 +9.9766e-001 -1.0167e+000 +2.0736e+000
8454 0 +1.567804074e-003 -6.049184322e+002 -6.049184322e+002 +9.9789e-001 -1.0167e+000 +2.0736e+000
8478 0 +9.688011851e-004 -6.049190312e+002 -6.049190312e+002 +9.9754e-001 -1.0163e+000 +2.0736e+000
8487 0 +8.369803571e-004 -6.049191630e+002 -6.049191630e+002 +9.9759e-001 -1.0150e+000 +2.0730e+000
8494 0 +8.306320575e-004 -6.049191694e+002 -6.049191694e+002 +9.9848e-001 -1.0160e+000 +2.0732e+000
8498 0 +6.545566195e-004 -6.049193454e+002 -6.049193454e+002 +9.9839e-001 -1.0159e+000 +2.0732e+000
8514 0 +2.127447094e-004 -6.049197873e+002 -6.049197873e+002 +9.9798e-001 -1.0154e+000 +2.0736e+000
8523 0 +6.622206206e-005 -6.049199338e+002 -6.049199338e+002 +9.9787e-001 -1.0152e+000 +2.0736e+000
8615 0 +6.383114066e-005 -6.049199362e+002 -6.049199362e+002 +9.9788e-001 -1.0152e+000 +2.0736e+000
8637 0 +5.986052861e-005 -6.049199401e+002 -6.049199401e+002 +9.9791e-001 -1.0152e+000 +2.0736e+000
8645 0 +4.718966147e-005 -6.049199528e+002 -6.049199528e+002 +9.9798e-001 -1.0153e+000 +2.0736e+000
8672 0 +1.440241033e-005 -6.049199856e+002 -6.049199856e+002 +9.9812e-001 -1.0152e+000 +2.0736e+000
8700 0 +1.146344050e-005 -6.049199885e+002 -6.049199885e+002 +9.9824e-001 -1.0152e+000 +2.0736e+000
8706 0 +5.519684237e-006 -6.049199945e+002 -6.049199945e+002 +9.9826e-001 -1.0152e+000 +2.0736e+000
8707 0 +2.281562729e-006 -6.049199977e+002 -6.049199977e+002 +9.9831e-001 -1.0152e+000 +2.0736e+000
8723 0 +1.048928425e-006 -6.049199990e+002 -6.049199990e+002 +9.9836e-001 -1.0152e+000 +2.0736e+000
8745 0 +9.804475667e-007 -6.049199990e+002 -6.049199990e+002 +9.9834e-001 -1.0152e+000 +2.0736e+000
8768 0 +7.027028914e-007 -6.049199993e+002 -6.049199993e+002 +9.9835e-001 -1.0152e+000 +2.0736e+000
8776 0 +6.721155614e-007 -6.049199993e+002 -6.049199993e+002 +9.9836e-001 -1.0152e+000 +2.0736e+000
8812 0 +3.609626447e-007 -6.049199996e+002 -6.049199996e+002 +9.9836e-001 -1.0152e+000 +2.0736e+000
8821 0 +2.659577376e-007 -6.049199997e+002 -6.049199997e+002 +9.9839e-001 -1.0152e+000 +2.0736e+000
8822 0 +1.445328053e-007 -6.049199999e+002 -6.049199999e+002 +9.9839e-001 -1.0152e+000 +2.0736e+000
8823 0 +4.881974291e-008 -6.049200000e+002 -6.049200000e+002 +9.9840e-001 -1.0152e+000 +2.0736e+000
8884 0 +2.764625151e-008 -6.049200000e+002 -6.049200000e+002 +9.9840e-001 -1.0152e+000 +2.0736e+000
8947 0 +1.512228209e-008 -6.049200000e+002 -6.049200000e+002 +9.9840e-001 -1.0152e+000 +2.0736e+000
8960 0 +1.412433903e-008 -6.049200000e+002 -6.049200000e+002 +9.9840e-001 -1.0152e+000 +2.0736e+000
8981 0 +3.771674528e-009 -6.049200000e+002 -6.049200000e+002 +9.9840e-001 -1.0152e+000 +2.0736e+000
% f evaluations | g evaluations | best noise-free fitness - Fopt (1.337000000000e+002) + sum g_i+ | measured fitness | best measured fitness or single-digit g-values | x1 | x2...
1 0 +1.430037928e+002 +2.767037928e+002 +2.767037928e+002 -1.3675e+000 -1.4434e+000 -2.7768e+000
7 0 +1.297259702e+002 +2.634259702e+002 +2.634259702e+002 -4.2109e+000 +3.2166e+000 +5.9610e-001
8 0 +1.073875043e+002 +2.410875043e+002 +2.410875043e+002 +7.6924e-001 +5.0000e+000 -1.3679e+000
9 0 +1.015985200e+002 +2.352985200e+002 +2.352985200e+002 -2.2788e+000 +1.8598e+000 -1.1824e+000
17 0 +8.366178047e+001 +2.173617805e+002 +2.173617805e+002 -2.6432e+000 +4.0287e+000 +3.8847e-001
19 0 +6.648480876e+001 +2.001848088e+002 +2.001848088e+002 +1.8758e+000 +3.5691e+000 -7.7636e-001
36 0 +6.109449020e+001 +1.947944902e+002 +1.947944902e+002 -1.3128e+000 -1.3686e+000 -5.0254e-001
41 0 +4.132513095e+001 +1.750251310e+002 +1.750251310e+002 -1.5537e+000 +2.7408e-001 -1.2942e-001
83 0 +2.366850020e+001 +1.573685002e+002 +1.573685002e+002 -1.4887e+000 +8.7165e-001 -3.2523e-001
101 0 +1.831727522e+001 +1.520172752e+002 +1.520172752e+002 -1.5302e+000 +9.0702e-001 +3.6078e-001
133 0 +8.233480981e+000 +1.419334810e+002 +1.419334810e+002 +2.5617e+000 -1.3529e-001 +3.6496e-001
382 0 +4.994756150e+000 +1.386947561e+002 +1.386947561e+002 +2.4618e+000 -1.0880e-001 +3.6311e-001
505 0 +4.816564690e+000 +1.385165647e+002 +1.385165647e+002 +2.4733e+000 -1.0843e-001 +3.6571e-001
662 0 +2.278030361e+000 +1.359780304e+002 +1.359780304e+002 +2.4394e+000 +3.4303e-001 +3.5649e-001
700 0 +1.173918463e+000 +1.348739185e+002 +1.348739185e+002 +2.4554e+000 +3.4260e-001 +3.7504e-001
723 0 +1.129907266e+000 +1.348299073e+002 +1.348299073e+002 +2.4601e+000 +3.4170e-001 +3.7745e-001
748 0 +1.121333886e+000 +1.348213339e+002 +1.348213339e+002 +2.4606e+000 +3.4219e-001 +3.7747e-001
780 0 +1.059418728e+000 +1.347594187e+002 +1.347594187e+002 +2.4602e+000 +3.5155e-001 +3.7706e-001
787 0 +1.024207725e+000 +1.347242077e+002 +1.347242077e+002 +2.4634e+000 +3.5612e-001 +3.7761e-001
799 0 +1.019331475e+000 +1.347193315e+002 +1.347193315e+002 +2.4646e+000 +3.6050e-001 +3.7726e-001
936 0 +9.982434043e-001 +1.346982434e+002 +1.346982434e+002 +2.4737e+000 +3.5532e-001 +3.7829e-001
1839 0 +1.526839901e-001 +1.338526840e+002 +1.338526840e+002 +2.4752e+000 +9.7037e-001 +3.7840e-001
1909 0 +1.028364562e-001 +1.338028365e+002 +1.338028365e+002 +2.4752e+000 +9.6706e-001 +3.7840e-001
1914 0 +6.589336511e-002 +1.337658934e+002 +1.337658934e+002 +2.4752e+000 +9.6464e-001 +3.7840e-001
1932 0 +5.422054326e-002 +1.337542205e+002 +1.337542205e+002 +2.4752e+000 +9.6352e-001 +3.7840e-001
1934 0 +2.322171906e-002 +1.337232217e+002 +1.337232217e+002 +2.4752e+000 +9.6081e-001 +3.7840e-001
1935 0 +1.361368085e-002 +1.337136137e+002 +1.337136137e+002 +2.4752e+000 +9.5869e-001 +3.7840e-001
1938 0 +3.999660287e-003 +1.337039997e+002 +1.337039997e+002 +2.4752e+000 +9.5678e-001 +3.7840e-001
1950 0 +1.269776701e-003 +1.337012698e+002 +1.337012698e+002 +2.4752e+000 +9.5595e-001 +3.7840e-001
1963 0 +5.144722284e-004 +1.337005145e+002 +1.337005145e+002 +2.4752e+000 +9.5530e-001 +3.7840e-001
1967 0 +1.249890471e-004 +1.337001250e+002 +1.337001250e+002 +2.4752e+000 +9.5485e-001 +3.7840e-001
1992 0 +6.645722061e-005 +1.337000665e+002 +1.337000665e+002 +2.4752e+000 +9.5472e-001 +3.7840e-001
2008 0 +2.242296986e-005 +1.337000224e+002 +1.337000224e+002 +2.4752e+000 +9.5420e-001 +3.7840e-001
2031 0 +9.530303572e-006 +1.337000095e+002 +1.337000095e+002 +2.4752e+000 +9.5453e-001 +3.7840e-001
2042 0 +9.111284385e-006 +1.337000091e+002 +1.337000091e+002 +2.4752e+000 +9.5428e-001 +3.7840e-001
2048 0 +4.484939211e-006 +1.337000045e+002 +1.337000045e+002 +2.4752e+000 +9.5432e-001 +3.7840e-001
2091 0 +3.953223597e-007 +1.337000004e+002 +1.337000004e+002 +2.4752e+000 +9.5442e-001 +3.7840e-001
2125 0 +5.859993735e-008 +1.337000001e+002 +1.337000001e+002 +2.4752e+000 +9.5440e-001 +3.7840e-001
2263 0 +5.608885090e-008 +1.337000001e+002 +1.337000001e+002 +2.4752e+000 +9.5440e-001 +3.7840e-001
2264 0 +5.481231824e-008 +1.337000001e+002 +1.337000001e+002 +2.4752e+000 +9.5440e-001 +3.7840e-001
2270 0 +2.587231052e-008 +1.337000000e+002 +1.337000000e+002 +2.4752e+000 +9.5440e-001 +3.7840e-001
2275 0 +2.561964152e-008 +1.337000000e+002 +1.337000000e+002 +2.4752e+000 +9.5440e-001 +3.7840e-001
2317 0 +8.307381449e-010 +1.337000000e+002 +1.337000000e+002 +2.4752e+000 +9.5440e-001 +3.7840e-001
% f evaluations | g evaluations | best noise-free fitness - Fopt (-2.098000000000e+001) + sum g_i+ | measured fitness | best measured fitness or single-digit g-values | x1 | x2...
1 0 +3.749660413e+002 +3.539860413e+002 +3.539860413e+002 +3.1344e+000 +4.1672e+000 -4.0583e+000
2 0 +7.579685693e+001 +5.481685693e+001 +5.481685693e+001 +4.2090e-001 -1.6510e+000 -3.6123e-001
19 0 +5.306281622e+001 +3.208281622e+001 +3.208281622e+001 +4.8552e-001 +4.8491e+000 -1.4802e-003
34 0 +2.612947456e+001 +5.149474558e+000 +5.149474558e+000 +1.0438e+000 +2.8621e+000 +2.6841e-001
50 0 +1.777897444e+001 -3.201025563e+000 -3.201025563e+000 +1.0365e+000 +2.4033e+000 -1.1831e-001
171 0 +1.236139910e+001 -8.618600901e+000 -8.618600901e+000 +1.6947e-001 +3.0164e+000 -6.3141e-002
351 0 +5.795529600e+000 -1.518447040e+001 -1.518447040e+001 +1.0564e+000 +1.8408e+000 -6.3141e-002
402 0 +5.055172803e+000 -1.592482720e+001 -1.592482720e+001 +1.0541e+000 +1.8760e+000 -7.1867e-002
452 0 +4.526210916e+000 -1.645378908e+001 -1.645378908e+001 +1.0541e+000 +1.9583e+000 -7.1392e-002
492 0 +4.222522227e+000 -1.675747777e+001 -1.675747777e+001 +1.0259e+000 +1.9454e+000 -6.7170e-002
494 0 +3.778318875e+000 -1.720168113e+001 -1.720168113e+001 +1.0464e+000 +1.9427e+000 -6.8196e-002
538 0 +3.484369815e+000 -1.749563019e+001 -1.749563019e+001 +1.0578e+000 +1.9569e+000 -6.2633e-002
539 0 +3.173757557e+000 -1.780624244e+001 -1.780624244e+001 +1.0227e+000 +1.9244e+000 -5.9659e-002
542 0 +2.661212597e+000 -1.831878740e+001 -1.831878740e+001 +1.0520e+000 +1.9524e+000 -4.2872e-002
553 0 +2.104269105e+000 -1.887573090e+001 -1.887573090e+001 +1.0757e+000 +1.9201e+000 -4.1250e-002
569 0 +2.072588987e+000 -1.890741101e+001 -1.890741101e+001 +1.0763e+000 +1.9179e+000 -4.3285e-002
570 0 +2.036129700e+000 -1.894387030e+001 -1.894387030e+001 +1.0605e+000 +1.9220e+000 -4.2053e-002
589 0 +1.990232590e+000 -1.898976741e+001 -1.898976741e+001 +1.0642e+000 +1.9188e+000 -4.6009e-002
3223 0 +1.111849432e+000 -1.986815057e+001 -1.986815057e+001 +2.0356e+000 +1.9192e+000 -4.5874e-002
3313 0 +1.095525293e+000 -1.988447471e+001 -1.988447471e+001 +2.0373e+000 +1.9185e+000 -4.5929e-002
3501 0 +1.016803672e+000 -1.996319633e+001 -1.996319633e+001 +2.0570e+000 +1.9196e+000 -4.8630e-002
3517 0 +9.967426995e-001 -1.998325730e+001 -1.998325730e+001 +2.0570e+000 +1.9192e+000 -4.5874e-002
6413 0 +2.580857875e-001 -2.072191421e+001 -2.072191421e+001 +2.0507e+000 +1.9338e+000 +2.5597e-001
6420 0 +2.459530139e-001 -2.073404699e+001 -2.073404699e+001 +2.0484e+000 +1.9344e+000 +2.5758e-001
6458 0 +2.454210068e-001 -2.073457899e+001 -2.073457899e+001 +2.0483e+000 +1.9346e+000 +2.5781e-001
6465 0 +2.109335703e-001 -2.076906643e+001 -2.076906643e+001 +2.0496e+000 +1.9066e+000 +2.5672e-001
6466 0 +1.963153298e-001 -2.078368467e+001 -2.078368467e+001 +2.0516e+000 +1.9070e+000 +2.5675e-001
6467 0 +1.042614634e-001 -2.087573854e+001 -2.087573854e+001 +2.0533e+000 +1.9154e+000 +2.5707e-001
6491 0 +8.547049197e-002 -2.089452951e+001 -2.089452951e+001 +2.0605e+000 +1.9169e+000 +2.5763e-001
6501 0 +7.792453277e-002 -2.090207547e+001 -2.090207547e+001 +2.0477e+000 +1.9224e+000 +2.5976e-001
6510 0 +7.654125580e-002 -2.090345874e+001 -2.090345874e+001 +2.0477e+000 +1.9224e+000 +2.5983e-001
6516 0 +5.671688825e-002 -2.092328311e+001 -2.092328311e+001 +2.0545e+000 +1.9176e+000 +2.5947e-001
6548 0 +1.608790975e-002 -2.096391209e+001 -2.096391209e+001 +2.0532e+000 +1.9204e+000 +2.6209e-001
6559 0 +9.071130672e-003 -2.097092887e+001 -2.097092887e+001 +2.0569e+000 +1.9182e+000 +2.6214e-001
6578 0 +6.014252549e-003 -2.097398575e+001 -2.097398575e+001 +2.0581e+000 +1.9187e+000 +2.6237e-001
6612 0 +3.866325506e-003 -2.097613367e+001 -2.097613367e+001 +2.0577e+000 +1.9190e+000 +2.6278e-001
6636 0 +1.514164377e-003 -2.097848584e+001 -2.097848584e+001 +2.0585e+000 +1.9198e+000 +2.6339e-001
6644 0 +1.439787143e-003 -2.097856021e+001 -2.097856021e+001 +2.0588e+000 +1.9200e+000 +2.6341e-001
6645 0 +3.810822804e-004 -2.097961892e+001 -2.097961892e+001 +2.0600e+000 +1.9187e+000 +2.6368e-001
6724 0 +1.360828118e-004 -2.097986392e+001 -2.097986392e+001 +2.0599e+000 +1.9189e+000 +2.6377e-001
6725 0 +1.237948085e-004 -2.097987621e+001 -2.097987621e+001 +2.0599e+000 +1.9190e+000 +2.6376e-001
6757 0 +6.882107924e-005 -2.097993118e+001 -2.097993118e+001 +2.0600e+000 +1.9193e+000 +2.6381e-001
6790 0 +5.306612673e-005 -2.097994693e+001 -2.097994693e+001 +2.0600e+000 +1.9192e+000 +2.6384e-001
6816 0 +3.522037478e-005 -2.097996478e+001 -2.097996478e+001 +2.0599e+000 +1.9192e+000 +2.6387e-001
6831 0 +4.442543009e-006 -2.097999556e+001 -2.097999556e+001 +2.0599e+000 +1.9192e+000 +2.6399e-001
6869 0 +3.020140323e-006 -2.097999698e+001 -2.097999698e+001 +2.0599e+000 +1.9192e+000 +2.6399e-001
6890 0 +2.783932729e-006 -2.097999722e+001 -2.097999722e+001 +2.0600e+000 +1.9192e+000 +2.6397e-001
6924 0 +2.530409919e-006 -2.097999747e+001 -2.097999747e+001 +2.0600e+000 +1.9192e+000 +2.6397e-001
6932 0 +5.547759265e-007 -2.097999945e+001 -2.097999945e+001 +2.0600e+000 +1.9192e+000 +2.6399e-001
6938 0 +1.929833573e-007 -2.097999981e+001 -2.097999981e+001 +2.0600e+000 +1.9192e+000 +2.6399e-001
6960 0 +1.190140075e-007 -2.097999988e+001 -2.097999988e+001 +2.0600e+000 +1.9192e+000 +2.6399e-001
7014 0 +1.072588631e-007 -2.097999989e+001 -2.097999989e+001 +2.0600e+000 +1.9192e+000 +2.6399e-001
7016 0 +6.667328734e-008 -2.097999993e+001 -2.097999993e+001 +2.0600e+000 +1.9192e+000 +2.6400e-001
7039 0 +5.216247345e-008 -2.097999995e+001 -2.097999995e+001 +2.0600e+000 +1.9192e+000 +2.6400e-001
7085 0 +2.236440366e-009 -2.098000000e+001 -2.098000000e+001 +2.0600e+000 +1.9192e+000 +2.6400e-001
% f evaluations | g evaluations | best noise-free fitness - Fopt (1.353300000000e+002) + sum g_i+ | measured fitness | best measured fitness or single-digit g-values | x1 | x2...
1 0 +1.573963725e+003 +1.709293725e+003 +1.709293725e+003 +4.2235e+000 +2.8712e+000 -3.6172e+000
2 0 +6.560503854e+002 +7.913803854e+002 +7.913803854e+002 +2.7522e+000 +4.6971e+000 -8.5412e-001
3 0 +1.635654561e+002 +2.988954561e+002 +2.988954561e+002 -1.7708e+000 +3.4803e-001 -2.4237e+000
14 0 +1.414487375e+002 +2.767787375e+002 +2.767787375e+002 -2.1195e+000 +3.9891e-001 -2.2243e+000
25 0 +6.773583590e+001 +2.030658359e+002 +2.030658359e+002 -2.6387e+000 -3.8009e+000 +9.4370e-001
41 0 +4.297958434e+001 +1.783095843e+002 +1.783095843e+002 +6.4838e-001 +5.5220e-001 -3.1033e-001
46 0 +3.701916507e+001 +1.723491651e+002 +1.723491651e+002 -4.5956e-001 -1.0507e+000 -1.1136e-001
67 0 +2.224286471e+001 +1.575728647e+002 +1.575728647e+002 +2.4473e-001 -1.4070e-002 +2.3997e-001
132 0 +1.565724421e+001 +1.509872442e+002 +1.509872442e+002 -1.2928e+000 +6.0605e-001 +2.5167e-001
192 0 +1.447005532e+001 +1.498000553e+002 +1.498000553e+002 -1.2524e+000 +6.0605e-001 +2.8690e-001
278 0 +1.106531620e+001 +1.463953162e+002 +1.463953162e+002 -1.5535e+000 +5.5885e-001 +2.9647e-001
378 0 +1.070543767e+001 +1.460354377e+002 +1.460354377e+002 -1.5300e+000 +5.6743e-001 +3.0032e-001
466 0 +1.043137814e+001 +1.457613781e+002 +1.457613781e+002 -1.5239e+000 +5.5872e-001 +3.0133e-001
467 0 +9.642192661e+000 +1.449721927e+002 +1.449721927e+002 -1.4874e+000 +5.6186e-001 +2.9660e-001
491 0 +8.962308446e+000 +1.442923084e+002 +1.442923084e+002 -1.4051e+000 +5.5802e-001 +2.8793e-001
608 0 +8.449642775e+000 +1.437796428e+002 +1.437796428e+002 -1.3771e+000 +3.6959e-002 +2.7615e-001
615 0 +8.241338704e+000 +1.435713387e+002 +1.435713387e+002 -1.3785e+000 +2.7448e-002 +2.7882e-001
642 0 +8.007067609e+000 +1.433370676e+002 +1.433370676e+002 -1.4127e+000 +2.3336e-002 +2.8389e-001
1055 0 +6.876302349e+000 +1.422063023e+002 +1.422063023e+002 -1.3444e+000 +5.4362e-001 +6.5986e-001
1090 0 +5.539699661e+000 +1.408696997e+002 +1.408696997e+002 -1.3444e+000 +2.4000e-002 +6.5986e-001
1159 0 +5.105720515e+000 +1.404357205e+002 +1.404357205e+002 -1.4110e+000 +2.4000e-002 +6.5986e-001
1209 0 +4.024339011e+000 +1.393543390e+002 +1.393543390e+002 -1.4110e+000 +2.4000e-002 +9.7249e-001
1311 0 +3.980101911e+000 +1.393101019e+002 +1.393101019e+002 -1.4112e+000 +2.4000e-002 +9.7645e-001
2051 0 +3.312894418e+000 +1.386428944e+002 +1.386428944e+002 +4.1717e-001 +2.4000e-002 +9.7680e-001
2115 0 +2.479126304e+000 +1.378091263e+002 +1.378091263e+002 -3.8855e-001 +2.4000e-002 +9.7680e-001
2152 0 +1.683409448e+000 +1.370134094e+002 +1.370134094e+002 +4.4669e-001 +2.4000e-002 +9.7680e-001
2193 0 +1.302992711e+000 +1.366329927e+002 +1.366329927e+002 +4.5606e-001 +2.4000e-002 +9.7680e-001
2194 0 +6.733551672e-001 +1.360033552e+002 +1.360033552e+002 +4.8295e-001 +2.3999e-002 +9.7680e-001
2202 0 +5.656163230e-001 +1.358956163e+002 +1.358956163e+002 +4.9125e-001 +2.3998e-002 +9.7680e-001
2205 0 +2.292154178e-002 +1.353529215e+002 +1.353529215e+002 +5.3372e-001 +2.3998e-002 +9.7680e-001
2222 0 +1.170178119e-002 +1.353417018e+002 +1.353417018e+002 +5.3645e-001 +2.3998e-002 +9.7680e-001
2226 0 +9.556424146e-003 +1.353395564e+002 +1.353395564e+002 +5.3734e-001 +2.3998e-002 +9.7680e-001
2249 0 +3.982410739e-003 +1.353339824e+002 +1.353339824e+002 +5.4072e-001 +2.3998e-002 +9.7680e-001
2260 0 +6.239290877e-004 +1.353306239e+002 +1.353306239e+002 +5.4298e-001 +2.3998e-002 +9.7680e-001
2281 0 +3.020259252e-004 +1.353303020e+002 +1.353303020e+002 +5.4356e-001 +2.3998e-002 +9.7680e-001
2286 0 +3.009011882e-004 +1.353303009e+002 +1.353303009e+002 +5.4356e-001 +2.3998e-002 +9.7680e-001
2295 0 +8.951983258e-005 +1.353300895e+002 +1.353300895e+002 +5.4413e-001 +2.3998e-002 +9.7680e-001
2306 0 +8.820811220e-005 +1.353300882e+002 +1.353300882e+002 +5.4414e-001 +2.3998e-002 +9.7680e-001
2307 0 +5.948962831e-005 +1.353300595e+002 +1.353300595e+002 +5.4430e-001 +2.3998e-002 +9.7680e-001
2383 0 +1.275639372e-005 +1.353300128e+002 +1.353300128e+002 +5.4453e-001 +2.3997e-002 +9.7680e-001
2385 0 +3.204134515e-006 +1.353300032e+002 +1.353300032e+002 +5.4468e-001 +2.3997e-002 +9.7680e-001
2388 0 +1.217298291e-006 +1.353300012e+002 +1.353300012e+002 +5.4473e-001 +2.3997e-002 +9.7680e-001
2399 0 +1.136003846e-006 +1.353300011e+002 +1.353300011e+002 +5.4474e-001 +2.3997e-002 +9.7680e-001
2419 0 +3.385264904e-007 +1.353300003e+002 +1.353300003e+002 +5.4478e-001 +2.3998e-002 +9.7680e-001
2461 0 +2.960294694e-007 +1.353300003e+002 +1.353300003e+002 +5.4479e-001 +2.3998e-002 +9.7680e-001
2467 0 +1.285685300e-007 +1.353300001e+002 +1.353300001e+002 +5.4479e-001 +2.3998e-002 +9.7680e-001
2504 0 +4.241945817e-008 +1.353300000e+002 +1.353300000e+002 +5.4480e-001 +2.3996e-002 +9.7680e-001
2566 0 +1.038443997e-008 +1.353300000e+002 +1.353300000e+002 +5.4480e-001 +2.3996e-002 +9.7680e-001
2602 0 +9.797275879e-009 +1.353300000e+002 +1.353300000e+002 +5.4479e-001 +2.3998e-002 +9.7680e-001
% f evaluations | g evaluations | best noise-free fitness - Fopt (4.066000000000e+001) + sum g_i+ | measured fitness | best measured fitness or single-digit g-values | x1 | x2...
1 0 +8.862274630e+002 +9.268874630e+002 +9.268874630e+002 +4.0315e+000 +1.3666e+000 -4.8150e+000
2 0 +5.577897230e+002 +5.984497230e+002 +5.984497230e+002 +1.7304e+000 +5.5138e-001 -3.7170e+000
3 0 +4.852356568e+002 +5.258956568e+002 +5.258956568e+002 +4.1983e+000 -4.5366e+000 -5.7360e-001
4 0 +2.183204960e+001 +6.249204960e+001 +6.249204960e+001 -3.2586e-003 +2.1873e-001 +3.8689e+000
83 0 +1.361035237e+001 +5.427035237e+001 +5.427035237e+001 -3.3210e-003 +1.4252e-001 +3.9184e+000
502 0 +2.792008799e+000 +4.345200880e+001 +4.345200880e+001 +2.0390e+000 +1.2517e+000 +3.5980e+000
804 0 +1.999264073e+000 +4.265926407e+001 +4.265926407e+001 +2.0498e+000 +1.2487e+000 +3.9013e+000
900 0 +1.523356360e+000 +4.218335636e+001 +4.218335636e+001 +2.0781e+000 +1.2293e+000 +3.9155e+000
907 0 +6.235101736e-001 +4.128351017e+001 +4.128351017e+001 +3.0184e+000 +1.2237e+000 +3.9201e+000
914 0 +4.609431770e-001 +4.112094318e+001 +4.112094318e+001 +3.0216e+000 +1.2600e+000 +3.9144e+000
976 0 +1.399724058e-001 +4.079997241e+001 +4.079997241e+001 +3.0316e+000 +1.2562e+000 +3.9225e+000
1015 0 +1.314248325e-001 +4.079142483e+001 +4.079142483e+001 +3.0299e+000 +1.2515e+000 +3.9207e+000
1023 0 +8.731777724e-002 +4.074731778e+001 +4.074731778e+001 +3.0381e+000 +1.2498e+000 +3.9197e+000
1035 0 +8.260667270e-002 +4.074260667e+001 +4.074260667e+001 +3.0374e+000 +1.2504e+000 +3.9202e+000
1040 0 +1.734112537e-002 +4.067734113e+001 +4.067734113e+001 +3.0448e+000 +1.2498e+000 +3.9225e+000
1106 0 +7.185819857e-003 +4.066718582e+001 +4.066718582e+001 +3.0473e+000 +1.2482e+000 +3.9232e+000
1146 0 +4.037061841e-003 +4.066403706e+001 +4.066403706e+001 +3.0481e+000 +1.2473e+000 +3.9235e+000
1185 0 +1.984094767e-003 +4.066198409e+001 +4.066198409e+001 +3.0509e+000 +1.2466e+000 +3.9231e+000
1189 0 +1.905489607e-003 +4.066190549e+001 +4.066190549e+001 +3.0515e+000 +1.2486e+000 +3.9234e+000
1197 0 +1.507600622e-003 +4.066150760e+001 +4.066150760e+001 +3.0514e+000 +1.2462e+000 +3.9234e+000
1212 0 +1.353934134e-003 +4.066135393e+001 +4.066135393e+001 +3.0516e+000 +1.2462e+000 +3.9234e+000
1228 0 +9.642673569e-004 +4.066096427e+001 +4.066096427e+001 +3.0515e+000 +1.2466e+000 +3.9235e+000
1232 0 +7.373503063e-004 +4.066073735e+001 +4.066073735e+001 +3.0516e+000 +1.2469e+000 +3.9235e+000
1246 0 +5.607585752e-004 +4.066056076e+001 +4.066056076e+001 +3.0508e+000 +1.2471e+000 +3.9236e+000
1252 0 +1.144113617e-004 +4.066011441e+001 +4.066011441e+001 +3.0516e+000 +1.2471e+000 +3.9238e+000
1260 0 +8.877665037e-005 +4.066008878e+001 +4.066008878e+001 +3.0515e+000 +1.2474e+000 +3.9239e+000
1290 0 +4.322186196e-005 +4.066004322e+001 +4.066004322e+001 +3.0516e+000 +1.2472e+000 +3.9239e+000
1294 0 +2.679747710e-005 +4.066002680e+001 +4.066002680e+001 +3.0518e+000 +1.2472e+000 +3.9239e+000
1324 0 +7.670384484e-006 +4.066000767e+001 +4.066000767e+001 +3.0518e+000 +1.2471e+000 +3.9240e+000
1336 0 +6.025582167e-006 +4.066000603e+001 +4.066000603e+001 +3.0519e+000 +1.2472e+000 +3.9240e+000
1343 0 +3.787069275e-006 +4.066000379e+001 +4.066000379e+001 +3.0520e+000 +1.2471e+000 +3.9240e+000
1346 0 +3.625509677e-006 +4.066000363e+001 +4.066000363e+001 +3.0520e+000 +1.2471e+000 +3.9240e+000
1350 0 +2.432252892e-006 +4.066000243e+001 +4.066000243e+001 +3.0519e+000 +1.2472e+000 +3.9240e+000
1392 0 +2.342118542e-006 +4.066000234e+001 +4.066000234e+001 +3.0519e+000 +1.2472e+000 +3.9240e+000
1397 0 +1.909913614e-006 +4.066000191e+001 +4.066000191e+001 +3.0520e+000 +1.2472e+000 +3.9240e+000
1439 0 +1.491809535e-006 +4.066000149e+001 +4.066000149e+001 +3.0520e+000 +1.2472e+000 +3.9240e+000
1472 0 +1.445708222e-006 +4.066000145e+001 +4.066000145e+001 +3.0520e+000 +1.2472e+000 +3.9240e+000
1474 0 +7.728916529e-007 +4.066000077e+001 +4.066000077e+001 +3.0519e+000 +1.2472e+000 +3.9240e+000
1487 0 +4.075724931e-007 +4.066000041e+001 +4.066000041e+001 +3.0520e+000 +1.2472e+000 +3.9240e+000
1491 0 +1.003894070e-007 +4.066000010e+001 +4.066000010e+001 +3.0520e+000 +1.2472e+000 +3.9240e+000
1497 0 +5.295684247e-008 +4.066000005e+001 +4.066000005e+001 +3.0520e+000 +1.2472e+000 +3.9240e+000
1503 0 +5.149969695e-008 +4.066000005e+001 +4.066000005e+001 +3.0520e+000 +1.2472e+000 +3.9240e+000
1504 0 +2.238830632e-008 +4.066000002e+001 +4.066000002e+001 +3.0520e+000 +1.2472e+000 +3.9240e+000
1510 0 +1.681828365e-008 +4.066000002e+001 +4.066000002e+001 +3.0520e+000 +1.2472e+000 +3.9240e+000
1553 0 +1.140825390e-008 +4.066000001e+001 +4.066000001e+001 +3.0520e+000 +1.2472e+000 +3.9240e+000
1570 0 +1.025306062e-009 +4.066000000e+001 +4.066000000e+001 +3.0520e+000 +1.2472e+000 +3.9240e+000
