% f evaluations | g evaluations | best noise-free fitness - Fopt (-4.620900000000e+002) + sum g_i+ | measured fitness | best measured fitness or single-digit g-values | x1 | x2...
1 0 +1.254104760e+003 +7.920147598e+002 +7.920147598e+002 +5.0000e+000 -5.0000e+000
2 0 +5.302919149e+002 +6.820191487e+001 +6.820191487e+001 -5.0000e+000 -5.0000e+000
4 0 +1.350690056e+002 -3.270209944e+002 -3.270209944e+002 -5.0000e+000 +5.0000e+000
5 0 +1.110533882e+002 -3.510366118e+002 -3.510366118e+002 -1.6177e-001 +5.0000e+000
6 0 +6.388168070e+001 -3.982083193e+002 -3.982083193e+002 -3.8996e+000 +8.2853e-001
7 0 +4.414546886e+001 -4.179445311e+002 -4.179445311e+002 -2.4153e+000 +2.8437e+000
10 0 +4.100870042e+001 -4.210812996e+002 -4.210812996e+002 -3.9756e+000 +2.8620e+000
23 0 +3.239767185e+001 -4.296923281e+002 -4.296923281e+002 -1.8733e+000 +2.2351e+000
24 0 +3.092586774e+001 -4.311641323e+002 -4.311641323e+002 -1.7099e+000 +2.1988e+000
43 0 +1.853649202e+001 -4.435535080e+002 -4.435535080e+002 -1.5592e+000 +2.3289e+000
77 0 +8.426092267e+000 -4.536639077e+002 -4.536639077e+002 +5.4725e-001 +2.6308e+000
126 0 +8.257938882e+000 -4.538320611e+002 -4.538320611e+002 +5.4419e-001 +2.6296e+000
133 0 +6.482817732e+000 -4.556071823e+002 -4.556071823e+002 +5.0686e-001 +1.9845e+000
166 0 +5.146590672e+000 -4.569434093e+002 -4.569434093e+002 +4.2479e-001 +1.9926e+000
202 0 +4.980776705e+000 -4.571092233e+002 -4.571092233e+002 +3.8698e-001 +1.9916e+000
242 0 +3.708068381e+000 -4.583819316e+002 -4.583819316e+002 +2.3526e+000 +1.9859e+000
286 0 +2.967160492e+000 -4.591228395e+002 -4.591228395e+002 +2.3413e+000 +1.9623e+000
308 0 +2.902015703e+000 -4.591879843e+002 -4.591879843e+002 +2.3268e+000 +2.0177e+000
315 0 +2.865161383e+000 -4.592248386e+002 -4.592248386e+002 +2.3253e+000 +2.0174e+000
318 0 +2.103441782e+000 -4.599865582e+002 -4.599865582e+002 +2.2856e+000 +1.9760e+000
320 0 +1.026296460e+000 -4.610637035e+002 -4.610637035e+002 +2.3298e+000 +1.9883e+000
326 0 +1.013388033e+000 -4.610766120e+002 -4.610766120e+002 +2.3307e+000 +1.9899e+000
367 0 +9.949901514e-001 -4.610950098e+002 -4.610950098e+002 +2.3404e+000 +1.9901e+000
369 0 +7.551248169e-001 -4.613348752e+002 -4.613348752e+002 +2.3058e+000 +2.2847e+000
378 0 +3.341532024e-001 -4.617558468e+002 -4.617558468e+002 +2.3140e+000 +2.2897e+000
389 0 +2.304924605e-001 -4.618595075e+002 -4.618595075e+002 +2.3093e+000 +2.2970e+000
396 0 +9.001165319e-003 -4.620809988e+002 -4.620809988e+002 +2.3404e+000 +2.2978e+000
422 0 +5.789207125e-004 -4.620894211e+002 -4.620894211e+002 +2.3405e+000 +2.3005e+000
453 0 +2.369367216e-004 -4.620897631e+002 -4.620897631e+002 +2.3397e+000 +2.2999e+000
480 0 +6.843774838e-005 -4.620899316e+002 -4.620899316e+002 +2.3404e+000 +2.2999e+000
486 0 +5.638773371e-005 -4.620899436e+002 -4.620899436e+002 +2.3404e+000 +2.2999e+000
493 0 +2.418550281e-005 -4.620899758e+002 -4.620899758e+002 +2.3407e+000 +2.2999e+000
536 0 +8.207813778e-006 -4.620899918e+002 -4.620899918e+002 +2.3406e+000 +2.3000e+000
573 0 +3.653815270e-006 -4.620899963e+002 -4.620899963e+002 +2.3407e+000 +2.3000e+000
579 0 +6.989630492e-007 -4.620899993e+002 -4.620899993e+002 +2.3407e+000 +2.3000e+000
580 0 +1.494868229e-008 -4.620900000e+002 -4.620900000e+002 +2.3408e+000 +2.3000e+000
612 0 +6.301149824e-009 -4.620900000e+002 -4.620900000e+002 +2.3408e+000 +2.3000e+000
792 0 +0.000000000e+000 -4.620900000e+002 -4.620900000e+002 +2.3408e+000 +2.3000e+000
% f evaluations | g evaluations | best noise-free fitness - Fopt (7.766000000000e+001) + sum g_i+ | measured fitness | best measured fitness or single-digit g-values | x1 | x2...
1 0 +4.132420865e+002 +4.909020865e+002 +4.909020865e+002 -5.0000e+000 +5.0000e+000
3 0 +2.251302039e+002 +3.027902039e+002 +3.027902039e+002 -5.0000e+000 -5.0000e+000
6 0 +5.075061675e+001 +1.284106168e+002 +1.284106168e+002 -5.3338e-001 +4.7347e-001
7 0 +2.492565571e+001 +1.025856557e+002 +1.025856557e+002 -2.7093e+000 -8.5200e-001
69 0 +1.760488827e+001 +9.526488827e+001 +9.526488827e+001 -1.4917e+000 -8.7124e-001
115 0 +1.664090444e+001 +9.430090444e+001 +9.430090444e+001 -1.5368e+000 -8.7158e-001
144 0 +6.807396800e+000 +8.446739680e+001 +8.446739680e+001 +5.4159e-001 -5.2640e-001
148 0 +6.060507828e+000 +8.372050783e+001 +8.372050783e+001 +5.4436e-001 -5.4372e-001
158 0 +5.312878416e+000 +8.297287842e+001 +8.297287842e+001 +2.2963e+000 -5.8209e-001
165 0 +1.562624575e+000 +7.922262458e+001 +7.922262458e+001 +2.3479e+000 -5.4579e-001
200 0 +1.497668772e+000 +7.915766877e+001 +7.915766877e+001 +2.3515e+000 -5.4672e-001
264 0 +1.155961931e+000 +7.881596193e+001 +7.881596193e+001 +2.3803e+000 -5.4331e-001
294 0 +1.088594213e+000 +7.874859421e+001 +7.874859421e+001 +2.3846e+000 -5.4507e-001
353 0 +1.049561750e+000 +7.870956175e+001 +7.870956175e+001 +2.3829e+000 -5.4882e-001
390 0 +9.970208134e-001 +7.865702081e+001 +7.865702081e+001 +2.3960e+000 -5.5108e-001
1362 0 +4.617243377e-002 +7.770617243e+001 +7.770617243e+001 +2.3847e+000 -8.5410e-001
1371 0 +2.437406841e-002 +7.768437407e+001 +7.768437407e+001 +2.3884e+000 -8.5789e-001
1399 0 +1.326470203e-002 +7.767326470e+001 +7.767326470e+001 +2.3897e+000 -8.5649e-001
1419 0 +6.715253182e-003 +7.766671525e+001 +7.766671525e+001 +2.3928e+000 -8.5571e-001
1439 0 +4.095535041e-003 +7.766409554e+001 +7.766409554e+001 +2.3948e+000 -8.5521e-001
1538 0 +7.399454330e-004 +7.766073995e+001 +7.766073995e+001 +2.3976e+000 -8.5544e-001
1555 0 +6.201141233e-004 +7.766062011e+001 +7.766062011e+001 +2.3979e+000 -8.5547e-001
1566 0 +7.951488534e-005 +7.766007951e+001 +7.766007951e+001 +2.3983e+000 -8.5621e-001
1586 0 +4.203358404e-005 +7.766004203e+001 +7.766004203e+001 +2.3980e+000 -8.5602e-001
1594 0 +3.501403492e-005 +7.766003501e+001 +7.766003501e+001 +2.3980e+000 -8.5603e-001
1602 0 +3.391519145e-005 +7.766003392e+001 +7.766003392e+001 +2.3980e+000 -8.5605e-001
1611 0 +1.918364124e-005 +7.766001918e+001 +7.766001918e+001 +2.3981e+000 -8.5601e-001
1618 0 +3.559869313e-006 +7.766000356e+001 +7.766000356e+001 +2.3983e+000 -8.5599e-001
1622 0 +3.028579414e-007 +7.766000030e+001 +7.766000030e+001 +2.3984e+000 -8.5600e-001
1654 0 +2.425614269e-007 +7.766000024e+001 +7.766000024e+001 +2.3984e+000 -8.5600e-001
1659 0 +1.321699017e-008 +7.766000001e+001 +7.766000001e+001 +2.3984e+000 -8.5600e-001
1708 0 +1.245459202e-008 +7.766000001e+001 +7.766000001e+001 +2.3984e+000 -8.5600e-001
1726 0 +4.050377811e-010 +7.766000000e+001 +7.766000000e+001 +2.3984e+000 -8.5600e-001
% f evaluations | g evaluations | best noise-free fitness - Fopt (1.156800000000e+002) + sum g_i+ | measured fitness | best measured fitness or single-digit g-values | x1 | x2...
1 0 +2.269954816e+002 +3.426754816e+002 +3.426754816e+002 -5.0000e+000 -5.0000e+000
4 0 +1.745644940e+002 +2.902444940e+002 +2.902444940e+002 -5.0000e+000 -4.4551e+000
5 0 +1.324838673e+002 +2.481638673e+002 +2.481638673e+002 -3.9542e+000 -3.7526e+000
6 0 +7.168005288e+001 +1.873600529e+002 +1.873600529e+002 -5.0000e+000 -7.8957e-001
8 0 +3.992837323e+001 +1.556083732e+002 +1.556083732e+002 -4.1775e+000 -1.0270e+000
35 0 +3.819893752e+001 +1.538789375e+002 +1.538789375e+002 -4.2220e+000 -9.5573e-001
42 0 +1.891164361e+001 +1.345916436e+002 +1.345916436e+002 -6.5829e-001 -1.3072e+000
56 0 +1.578654668e+001 +1.314665467e+002 +1.314665467e+002 +2.0465e+000 -1.5769e+000
65 0 +6.399127372e+000 +1.220791274e+002 +1.220791274e+002 +3.3811e-001 -1.3004e+000
187 0 +5.240310154e+000 +1.209203102e+002 +1.209203102e+002 +2.1438e+000 -1.6429e+000
238 0 +4.223130092e+000 +1.199031301e+002 +1.199031301e+002 +2.1492e+000 -1.6772e+000
295 0 +4.162575082e+000 +1.198425751e+002 +1.198425751e+002 +2.1612e+000 -1.6795e+000
337 0 +2.749417687e+000 +1.184294177e+002 +1.184294177e+002 +2.1604e+000 -1.3188e+000
339 0 +1.572607613e+000 +1.172526076e+002 +1.172526076e+002 +2.1570e+000 -1.3067e+000
345 0 +1.083645349e+000 +1.167636453e+002 +1.167636453e+002 +2.1572e+000 -1.2924e+000
351 0 +1.062477823e+000 +1.167424778e+002 +1.167424778e+002 +2.1602e+000 -1.2927e+000
366 0 +1.030503721e+000 +1.167105037e+002 +1.167105037e+002 +2.1666e+000 -1.2949e+000
378 0 +9.960678633e-001 +1.166760679e+002 +1.166760679e+002 +2.1760e+000 -1.2930e+000
2289 0 +9.596645196e-001 +1.166396645e+002 +1.166396645e+002 +2.1011e+000 -9.8320e-001
2339 0 +3.841109728e-001 +1.160641110e+002 +1.160641110e+002 +2.1372e+000 -9.8320e-001
2360 0 +1.475066327e-001 +1.158275066e+002 +1.158275066e+002 +2.1513e+000 -9.8320e-001
2371 0 +1.558812812e-008 +1.156800000e+002 +1.156800000e+002 +2.1784e+000 -9.8320e-001
2498 0 +1.545858197e-008 +1.156800000e+002 +1.156800000e+002 +2.1784e+000 -9.8320e-001
2549 0 +1.411535777e-009 +1.156800000e+002 +1.156800000e+002 +2.1784e+000 -9.8320e-001
% f evaluations | g evaluations | best noise-free fitness - Fopt (-3.710000000000e+000) + sum g_i+ | measured fitness | best measured fitness or single-digit g-values | x1 | x2...
1 0 +9.028365096e+002 +8.991265096e+002 +8.991265096e+002 +5.0000e+000 +5.0000e+000
2 0 +6.452978083e+002 +6.415878083e+002 +6.415878083e+002 -5.0000e+000 +5.0000e+000
3 0 +4.031507164e+002 +3.994407164e+002 +3.994407164e+002 +5.0000e+000 -5.0000e+000
4 0 +1.456120152e+002 +1.419020152e+002 +1.419020152e+002 -5.0000e+000 -5.0000e+000
5 0 +8.934426003e+001 +8.563426003e+001 +8.563426003e+001 -5.0000e+000 -3.3258e+000
7 0 +7.279609791e+001 +6.908609791e+001 +6.908609791e+001 -3.6155e+000 -2.4889e+000
9 0 +4.759863925e+001 +4.388863925e+001 +4.388863925e+001 -3.3016e+000 -2.5331e+000
13 0 +4.565893231e+001 +4.194893231e+001 +4.194893231e+001 -3.0011e+000 -2.3439e+000
15 0 +4.101856720e+001 +3.730856720e+001 +3.730856720e+001 -3.0124e+000 -2.3105e+000
23 0 +1.602359420e+001 +1.231359420e+001 +1.231359420e+001 -1.1085e-001 -2.2978e+000
49 0 +1.028066310e+001 +6.570663099e+000 +6.570663099e+000 +2.1143e+000 -2.0511e+000
75 0 +5.098809686e+000 +1.388809686e+000 +1.388809686e+000 +1.1314e+000 -1.9867e+000
145 0 +9.057757017e-001 -2.804224298e+000 -2.804224298e+000 +3.0538e+000 -2.3050e+000
224 0 +2.890005954e-001 -3.420999405e+000 -3.420999405e+000 +3.1027e+000 -2.3063e+000
393 0 +1.643461972e-001 -3.545653803e+000 -3.545653803e+000 +3.1026e+000 -2.3030e+000
399 0 +8.158094250e-002 -3.628419057e+000 -3.628419057e+000 +3.1027e+000 -2.2983e+000
402 0 +5.739334237e-002 -3.652606658e+000 -3.652606658e+000 +3.1035e+000 -2.2944e+000
418 0 +1.813137050e-002 -3.691868629e+000 -3.691868629e+000 +3.1112e+000 -2.2968e+000
420 0 +2.752407396e-003 -3.707247593e+000 -3.707247593e+000 +3.1165e+000 -2.2953e+000
421 0 +5.571581257e-004 -3.709442842e+000 -3.709442842e+000 +3.1184e+000 -2.2954e+000
429 0 +1.599295902e-004 -3.709840070e+000 -3.709840070e+000 +3.1194e+000 -2.2954e+000
469 0 +1.250385948e-004 -3.709874961e+000 -3.709874961e+000 +3.1195e+000 -2.2954e+000
477 0 +4.191865727e-005 -3.709958081e+000 -3.709958081e+000 +3.1196e+000 -2.2952e+000
491 0 +3.651918108e-005 -3.709963481e+000 -3.709963481e+000 +3.1198e+000 -2.2951e+000
499 0 +1.890520254e-005 -3.709981095e+000 -3.709981095e+000 +3.1200e+000 -2.2952e+000
504 0 +1.760655219e-006 -3.709998239e+000 -3.709998239e+000 +3.1199e+000 -2.2952e+000
508 0 +1.007334067e-006 -3.709998993e+000 -3.709998993e+000 +3.1199e+000 -2.2952e+000
511 0 +9.458644885e-007 -3.709999054e+000 -3.709999054e+000 +3.1199e+000 -2.2952e+000
535 0 +2.313863647e-007 -3.709999769e+000 -3.709999769e+000 +3.1200e+000 -2.2952e+000
561 0 +1.135590377e-008 -3.709999989e+000 -3.709999989e+000 +3.1200e+000 -2.2952e+000
581 0 +3.759071276e-009 -3.709999996e+000 -3.709999996e+000 +3.1200e+000 -2.2952e+000
% f evaluations | g evaluations | best noise-free fitness - Fopt (1.321800000000e+002) + sum g_i+ | measured fitness | best measured fitness or single-digit g-values | x1 | x2...
1 0 +5.890173764e+002 +7.211973764e+002 +7.211973764e+002 +5.0000e+000 -5.0000e+000
2 0 +4.750072534e+002 +6.071872534e+002 +6.071872534e+002 -5.0000e+000 -5.0000e+000
3 0 +3.243180476e+002 +4.564980476e+002 +4.564980476e+002 +5.0000e+000 +5.0000e+000
4 0 +2.103079246e+002 +3.424879246e+002 +3.424879246e+002 -5.0000e+000 +5.0000e+000
5 0 +2.059619999e+002 +3.381419999e+002 +3.381419999e+002 -5.0000e+000 +4.8261e+000
7 0 +4.785763749e+001 +1.800376375e+002 +1.800376375e+002 -2.7909e-001 +2.5273e+000
11 0 +3.790677939e+001 +1.700867794e+002 +1.700867794e+002 -1.0065e+000 +1.1421e+000
24 0 +2.249764284e+001 +1.546776428e+002 +1.546776428e+002 +7.1246e-001 +2.4223e+000
47 0 +1.036553813e+001 +1.425455381e+002 +1.425455381e+002 +3.8746e+000 +2.0715e+000
57 0 +7.015521569e+000 +1.391955216e+002 +1.391955216e+002 +2.8062e+000 +1.7450e+000
79 0 +1.513475808e+000 +1.336934758e+002 +1.336934758e+002 +2.7387e+000 +1.4919e+000
214 0 +1.416008422e+000 +1.335960084e+002 +1.335960084e+002 +2.7412e+000 +1.4906e+000
264 0 +1.051238308e+000 +1.332312383e+002 +1.332312383e+002 +3.7320e+000 +1.4617e+000
277 0 +4.109590663e-001 +1.325909591e+002 +1.325909591e+002 +3.7394e+000 +1.4702e+000
285 0 +3.528949381e-001 +1.325328949e+002 +1.325328949e+002 +3.7289e+000 +1.4759e+000
314 0 +3.430700387e-001 +1.325230700e+002 +1.325230700e+002 +3.7447e+000 +1.4706e+000
325 0 +1.965528059e-001 +1.323765528e+002 +1.323765528e+002 +3.7354e+000 +1.4789e+000
333 0 +1.580648394e-001 +1.323380648e+002 +1.323380648e+002 +3.7363e+000 +1.4837e+000
339 0 +1.336305704e-001 +1.323136306e+002 +1.323136306e+002 +3.7381e+000 +1.4831e+000
358 0 +1.182622221e-001 +1.322982622e+002 +1.322982622e+002 +3.7397e+000 +1.4836e+000
367 0 +1.299758594e-003 +1.321812998e+002 +1.321812998e+002 +3.7618e+000 +1.4828e+000
396 0 +9.887600932e-004 +1.321809888e+002 +1.321809888e+002 +3.7618e+000 +1.4822e+000
416 0 +2.280750171e-004 +1.321802281e+002 +1.321802281e+002 +3.7639e+000 +1.4821e+000
428 0 +7.562214307e-006 +1.321800076e+002 +1.321800076e+002 +3.7639e+000 +1.4825e+000
452 0 +1.457914550e-006 +1.321800015e+002 +1.321800015e+002 +3.7640e+000 +1.4824e+000
473 0 +1.218895164e-006 +1.321800012e+002 +1.321800012e+002 +3.7640e+000 +1.4824e+000
502 0 +1.168602068e-007 +1.321800001e+002 +1.321800001e+002 +3.7640e+000 +1.4824e+000
518 0 +5.199154884e-009 +1.321800000e+002 +1.321800000e+002 +3.7640e+000 +1.4824e+000
% f evaluations | g evaluations | best noise-free fitness - Fopt (-3.930000000000e+001) + sum g_i+ | measured fitness | best measured fitness or single-digit g-values | x1 | x2...
1 0 +1.996759797e+002 +1.603759797e+002 +1.603759797e+002 -5.0000e+000 -5.0000e+000
5 0 +6.128643191e+001 +2.198643191e+001 +2.198643191e+001 -5.0000e+000 -1.2803e+000
6 0 +2.974007357e+001 -9.559926433e+000 -9.559926433e+000 -1.5409e+000 -8.0955e-001
9 0 +2.539104822e+001 -1.390895178e+001 -1.390895178e+001 -2.6094e+000 -1.2183e+000
23 0 +2.192607876e+001 -1.737392124e+001 -1.737392124e+001 -1.5987e+000 -9.1864e-001
79 0 +1.979049939e+001 -1.950950061e+001 -1.950950061e+001 +2.8408e-001 -1.1571e+000
81 0 +1.810096540e+001 -2.119903460e+001 -2.119903460e+001 -6.3408e-001 -9.6997e-001
98 0 +1.387651726e+001 -2.542348274e+001 -2.542348274e+001 -4.4603e-001 -8.7474e-001
100 0 +1.082519408e+001 -2.847480592e+001 -2.847480592e+001 -4.8164e-001 -9.0572e-001
106 0 +9.993872666e+000 -2.930612733e+001 -2.930612733e+001 -5.0526e-001 -9.2368e-001
143 0 +5.353958833e+000 -3.394604117e+001 -3.394604117e+001 +1.5679e+000 -6.5131e-001
206 0 +5.207113525e+000 -3.409288648e+001 -3.409288648e+001 +1.5199e+000 -6.4341e-001
223 0 +5.080022222e+000 -3.421997778e+001 -3.421997778e+001 +1.5333e+000 -6.4378e-001
241 0 +4.974987102e+000 -3.432501290e+001 -3.432501290e+001 +1.5374e+000 -6.4972e-001
729 0 +3.299378276e+000 -3.600062172e+001 -3.600062172e+001 +1.5635e+000 -8.9760e-001
748 0 +3.215479323e+000 -3.608452068e+001 -3.608452068e+001 +1.5573e+000 -8.9717e-001
791 0 +2.689958355e+000 -3.661004164e+001 -3.661004164e+001 +1.5090e+000 -9.0914e-001
808 0 +2.033075737e+000 -3.726692426e+001 -3.726692426e+001 +1.5382e+000 -9.1929e-001
830 0 +1.990012447e+000 -3.730998755e+001 -3.730998755e+001 +1.5371e+000 -9.2377e-001
849 0 +1.304505175e+000 -3.799549482e+001 -3.799549482e+001 +2.5043e+000 -9.1555e-001
871 0 +1.205021558e+000 -3.809497844e+001 -3.809497844e+001 +2.5166e+000 -9.1496e-001
889 0 +1.045782929e+000 -3.825421707e+001 -3.825421707e+001 +2.5190e+000 -9.2579e-001
930 0 +1.015167591e+000 -3.828483241e+001 -3.828483241e+001 +2.5231e+000 -9.2430e-001
931 0 +9.996735320e-001 -3.830032647e+001 -3.830032647e+001 +2.5294e+000 -9.2347e-001
2480 0 +3.893599226e-002 -3.926106401e+001 -3.926106401e+001 +2.5198e+000 -1.2296e+000
2533 0 +6.215482802e-004 -3.929937845e+001 -3.929937845e+001 +2.5318e+000 -1.2296e+000
2566 0 +2.392123875e-004 -3.929976079e+001 -3.929976079e+001 +2.5325e+000 -1.2296e+000
2578 0 +7.224691609e-005 -3.929992775e+001 -3.929992775e+001 +2.5330e+000 -1.2296e+000
2584 0 +1.240109596e-005 -3.929998760e+001 -3.929998760e+001 +2.5333e+000 -1.2296e+000
2592 0 +1.394361760e-006 -3.929999861e+001 -3.929999861e+001 +2.5335e+000 -1.2296e+000
2638 0 +1.378860155e-006 -3.929999862e+001 -3.929999862e+001 +2.5335e+000 -1.2296e+000
2652 0 +1.155847876e-006 -3.929999884e+001 -3.929999884e+001 +2.5335e+000 -1.2296e+000
2654 0 +4.217265683e-007 -3.929999958e+001 -3.929999958e+001 +2.5336e+000 -1.2296e+000
2663 0 +4.098807409e-007 -3.929999959e+001 -3.929999959e+001 +2.5336e+000 -1.2296e+000
2670 0 +2.407544599e-007 -3.929999976e+001 -3.929999976e+001 +2.5336e+000 -1.2296e+000
2672 0 +1.350602474e-008 -3.929999999e+001 -3.929999999e+001 +2.5336e+000 -1.2296e+000
2678 0 +7.634852750e-010 -3.930000000e+001 -3.930000000e+001 +2.5336e+000 -1.2296e+000
% f evaluations | g evaluations | best noise-free fitness - Fopt (4.296000000000e+001) + sum g_i+ | measured fitness | best measured fitness or single-digit g-values | x1 | x2...
1 0 +4.434035510e+002 +4.863635510e+002 +4.863635510e+002 -5.0000e+000 -5.0000e+000
3 0 +1.414617956e+002 +1.844217956e+002 +1.844217956e+002 -5.0000e+000 +5.0000e+000
4 0 +8.108624993e+001 +1.240462499e+002 +1.240462499e+002 -5.0000e+000 +3.2374e+000
5 0 +6.961110978e+001 +1.125711098e+002 +1.125711098e+002 -5.0000e+000 +3.3947e+000
6 0 +4.592749045e+001 +8.888749045e+001 +8.888749045e+001 +2.7926e-001 +6.3035e-001
7 0 +3.333765154e+001 +7.629765154e+001 +7.629765154e+001 -2.2719e+000 +1.8227e+000
9 0 +1.906687431e+001 +6.202687431e+001 +6.202687431e+001 -2.5585e+000 +2.0496e+000
30 0 +1.634572821e+001 +5.930572821e+001 +5.930572821e+001 -1.5542e+000 +2.3582e+000
48 0 +1.448630694e+001 +5.744630694e+001 +5.744630694e+001 +7.4175e-001 +2.0285e+000
54 0 +1.562068171e+000 +4.452206817e+001 +4.452206817e+001 +1.4829e+000 +1.4149e+000
131 0 +1.172520366e+000 +4.413252037e+001 +4.413252037e+001 +1.6087e+000 +1.7333e+000
324 0 +7.549199210e-001 +4.371491992e+001 +4.371491992e+001 +1.4604e+000 +1.7469e+000
349 0 +6.673891245e-001 +4.362738912e+001 +4.362738912e+001 +1.4615e+000 +1.7280e+000
364 0 +4.845217642e-001 +4.344452176e+001 +4.344452176e+001 +1.4655e+000 +1.7379e+000
383 0 +9.233657852e-002 +4.305233658e+001 +4.305233658e+001 +1.4914e+000 +1.7381e+000
403 0 +7.493778341e-003 +4.296749378e+001 +4.296749378e+001 +1.5085e+000 +1.7380e+000
486 0 +4.345714336e-005 +4.296004346e+001 +4.296004346e+001 +1.5125e+000 +1.7369e+000
754 0 +3.459243846e-005 +4.296003459e+001 +4.296003459e+001 +1.5124e+000 +1.7368e+000
774 0 +4.594017845e-006 +4.296000459e+001 +4.296000459e+001 +1.5127e+000 +1.7368e+000
788 0 +4.078576303e-006 +4.296000408e+001 +4.296000408e+001 +1.5127e+000 +1.7368e+000
797 0 +8.918597629e-007 +4.296000089e+001 +4.296000089e+001 +1.5127e+000 +1.7368e+000
799 0 +6.719286105e-007 +4.296000067e+001 +4.296000067e+001 +1.5128e+000 +1.7368e+000
834 0 +7.056512885e-008 +4.296000007e+001 +4.296000007e+001 +1.5128e+000 +1.7368e+000
852 0 +1.341141598e-008 +4.296000001e+001 +4.296000001e+001 +1.5128e+000 +1.7368e+000
854 0 +7.816090886e-009 +4.296000001e+001 +4.296000001e+001 +1.5128e+000 +1.7368e+000
% f evaluations | g evaluations | best noise-free fitness - Fopt (2.842200000000e+002) + sum g_i+ | measured fitness | best measured fitness or single-digit g-values | x1 | x2...
1 0 +1.114785564e+003 +1.399005564e+003 +1.399005564e+003 +5.0000e+000 +5.0000e+000
2 0 +3.361098612e+002 +6.203298612e+002 +6.203298612e+002 -5.0000e+000 +5.0000e+000
4 0 +2.818184917e+002 +5.660384917e+002 +5.660384917e+002 -5.0000e+000 -5.0000e+000
5 0 +1.442737243e+002 +4.284937243e+002 +4.284937243e+002 -5.0000e+000 +2.4815e+000
7 0 +6.488757682e+001 +3.491075768e+002 +3.491075768e+002 -5.0000e+000 -2.8709e-001
8 0 +5.896072952e+001 +3.431807295e+002 +3.431807295e+002 -5.0000e+000 -5.2758e-001
17 0 +5.158380105e+001 +3.358038010e+002 +3.358038010e+002 -3.8744e+000 -2.6646e-001
23 0 +4.164761880e+001 +3.258676188e+002 +3.258676188e+002 -4.2390e+000 -5.7326e-001
34 0 +3.565369806e+001 +3.198736981e+002 +3.198736981e+002 -3.0786e+000 -3.0408e-001
37 0 +2.560091238e+001 +3.098209124e+002 +3.098209124e+002 -1.1974e+000 -2.6646e-001
57 0 +1.996680215e+001 +3.041868021e+002 +3.041868021e+002 +5.1587e-001 -2.6646e-001
65 0 +1.810323922e+001 +3.023232392e+002 +3.023232392e+002 -8.6647e-001 -2.9100e-001
66 0 +1.099299025e+001 +2.952129903e+002 +2.952129903e+002 +6.5326e-002 -5.7620e-001
88 0 +7.941281636e+000 +2.921612816e+002 +2.921612816e+002 +4.5848e-002 -5.5629e-001
97 0 +5.782572790e+000 +2.900025728e+002 +2.900025728e+002 +2.0031e-001 -5.4209e-001
119 0 +5.450821835e+000 +2.896708218e+002 +2.896708218e+002 +1.7486e-001 -5.1607e-001
124 0 +4.984269704e+000 +2.892042697e+002 +2.892042697e+002 +1.4189e-001 -5.2642e-001
207 0 +3.985697530e+000 +2.882056975e+002 +2.882056975e+002 +1.5184e-001 -2.1848e-001
249 0 +3.979962934e+000 +2.881999629e+002 +2.881999629e+002 +1.4447e-001 -2.1867e-001
575 0 +3.676936577e+000 +2.878969366e+002 +2.878969366e+002 +1.0209e+000 -2.1840e-001
594 0 +5.609454019e-001 +2.847809454e+002 +2.847809454e+002 +2.0468e+000 -2.1840e-001
800 0 +5.473464449e-001 +2.847673464e+002 +2.847673464e+002 +2.0479e+000 -2.1839e-001
814 0 +5.332575583e-001 +2.847532576e+002 +2.847532576e+002 +2.0490e+000 -2.1838e-001
825 0 +5.229825878e-001 +2.847429826e+002 +2.847429826e+002 +2.0497e+000 -2.1837e-001
828 0 +4.880211145e-001 +2.847080211e+002 +2.847080211e+002 +2.0523e+000 -2.1835e-001
832 0 +4.703786523e-001 +2.846903787e+002 +2.846903787e+002 +2.0535e+000 -2.1834e-001
835 0 +4.649454606e-001 +2.846849455e+002 +2.846849455e+002 +2.0538e+000 -2.1834e-001
844 0 +4.510297537e-001 +2.846710298e+002 +2.846710298e+002 +2.0547e+000 -2.1835e-001
845 0 +4.102483482e-001 +2.846302483e+002 +2.846302483e+002 +2.0573e+000 -2.1833e-001
847 0 +3.667463234e-001 +2.845867463e+002 +2.845867463e+002 +2.0598e+000 -2.1832e-001
851 0 +3.597464004e-001 +2.845797464e+002 +2.845797464e+002 +2.0602e+000 -2.1831e-001
852 0 +3.319891294e-001 +2.845519891e+002 +2.845519891e+002 +2.0617e+000 -2.1830e-001
856 0 +3.266087213e-001 +2.845466087e+002 +2.845466087e+002 +2.0620e+000 -2.1830e-001
857 0 +2.598413230e-001 +2.844798413e+002 +2.844798413e+002 +2.0657e+000 -2.1824e-001
868 0 +1.879146102e-001 +2.844079146e+002 +2.844079146e+002 +2.0700e+000 -2.1825e-001
869 0 +1.110524920e-001 +2.843310525e+002 +2.843310525e+002 +2.0761e+000 -2.1822e-001
870 0 +4.371614212e-002 +2.842637161e+002 +2.842637161e+002 +2.0855e+000 -2.1822e-001
872 0 +4.313316221e-002 +2.842631332e+002 +2.842631332e+002 +2.0856e+000 -2.1822e-001
875 0 +2.906226158e-002 +2.842490623e+002 +2.842490623e+002 +2.0878e+000 -2.1820e-001
878 0 +1.061016855e-002 +2.842306102e+002 +2.842306102e+002 +2.0921e+000 -2.1819e-001
885 0 +6.903708320e-004 +2.842206904e+002 +2.842206904e+002 +2.0983e+000 -2.1815e-001
958 0 +2.351546355e-004 +2.842202352e+002 +2.842202352e+002 +2.0989e+000 -2.1828e-001
959 0 +6.158241820e-005 +2.842200616e+002 +2.842200616e+002 +2.0996e+000 -2.1828e-001
974 0 +2.576220328e-005 +2.842200258e+002 +2.842200258e+002 +2.0999e+000 -2.1829e-001
1056 0 +1.638567625e-005 +2.842200164e+002 +2.842200164e+002 +2.0999e+000 -2.1832e-001
1072 0 +1.348600784e-005 +2.842200135e+002 +2.842200135e+002 +2.1000e+000 -2.1832e-001
1083 0 +9.309507789e-006 +2.842200093e+002 +2.842200093e+002 +2.0999e+000 -2.1835e-001
1084 0 +6.109789865e-006 +2.842200061e+002 +2.842200061e+002 +2.0999e+000 -2.1837e-001
1103 0 +5.678859338e-006 +2.842200057e+002 +2.842200057e+002 +2.0998e+000 -2.1838e-001
1109 0 +2.597437060e-006 +2.842200026e+002 +2.842200026e+002 +2.0999e+000 -2.1839e-001
1127 0 +1.257772908e-006 +2.842200013e+002 +2.842200013e+002 +2.0999e+000 -2.1841e-001
1129 0 +9.660591331e-007 +2.842200010e+002 +2.842200010e+002 +2.0999e+000 -2.1841e-001
1130 0 +5.755277357e-007 +2.842200006e+002 +2.842200006e+002 +2.1000e+000 -2.1840e-001
1149 0 +2.893750093e-007 +2.842200003e+002 +2.842200003e+002 +2.1000e+000 -2.1841e-001
1193 0 +1.655710662e-007 +2.842200002e+002 +2.842200002e+002 +2.1000e+000 -2.1841e-001
1195 0 +1.320243541e-007 +2.842200001e+002 +2.842200001e+002 +2.1000e+000 -2.1840e-001
1198 0 +8.015786079e-008 +2.842200001e+002 +2.842200001e+002 +2.1000e+000 -2.1840e-001
1200 0 +3.976668950e-008 +2.842200000e+002 +2.842200000e+002 +2.1000e+000 -2.1840e-001
1205 0 +3.550758265e-008 +2.842200000e+002 +2.842200000e+002 +2.1000e+000 -2.1840e-001
1208 0 +3.498843171e-008 +2.842200000e+002 +2.842200000e+002 +2.1000e+000 -2.1840e-001
1228 0 +1.727607923e-008 +2.842200000e+002 +2.842200000e+002 +2.1000e+000 -2.1840e-001
1233 0 +2.362980922e-009 +2.842200000e+002 +2.842200000e+002 +2.1000e+000 -2.1840e-001
% f evaluations | g evaluations | best noise-free fitness - Fopt (-3.217000000000e+001) + sum g_i+ | measured fitness | best measured fitness or single-digit g-values | x1 | x2...
1 0 +1.454088911e+002 +1.132388911e+002 +1.132388911e+002 -5.0000e+000 +5.0000e+000
4 0 +1.138402643e+002 +8.167026430e+001 +8.167026430e+001 -3.6687e+000 +4.3839e+000
5 0 +1.013114724e+002 +6.914147238e+001 +6.914147238e+001 -3.7090e+000 +4.0998e+000
6 0 +5.038162473e+001 +1.821162473e+001 +1.821162473e+001 -4.3065e+000 +1.8659e+000
11 0 +4.895574207e+001 +1.678574207e+001 +1.678574207e+001 -4.2091e+000 +1.5375e+000
23 0 +4.696836419e+001 +1.479836419e+001 +1.479836419e+001 -4.0993e+000 +1.1676e+000
40 0 +2.955233582e+001 -2.617664183e+000 -2.617664183e+000 -3.5233e+000 +1.8947e+000
52 0 +2.151044085e+001 -1.065955915e+001 -1.065955915e+001 +2.8038e-001 +1.1009e+000
56 0 +1.522566109e+001 -1.694433891e+001 -1.694433891e+001 -1.6254e-001 +1.5394e+000
112 0 +1.407819133e+001 -1.809180867e+001 -1.809180867e+001 -1.8458e-001 +1.5431e+000
143 0 +6.175366133e+000 -2.599463387e+001 -2.599463387e+001 -4.0351e-001 +1.5378e+000
190 0 +3.942163067e+000 -2.822783693e+001 -2.822783693e+001 +3.8834e-001 +1.5576e+000
211 0 +2.024140896e+000 -3.014585910e+001 -3.014585910e+001 +4.5476e-001 +1.5476e+000
288 0 +1.375330381e+000 -3.079466962e+001 -3.079466962e+001 +4.6601e-001 +1.8662e+000
324 0 +1.258282438e+000 -3.091171756e+001 -3.091171756e+001 +4.3918e-001 +1.8435e+000
375 0 +1.011083494e+000 -3.115891651e+001 -3.115891651e+001 +4.4765e-001 +1.8573e+000
377 0 +8.388715304e-001 -3.133112847e+001 -3.133112847e+001 +1.3855e+000 +1.8637e+000
458 0 +5.440006842e-001 -3.162599932e+001 -3.162599932e+001 +1.4016e+000 +1.8616e+000
478 0 +2.838557401e-001 -3.188614426e+001 -3.188614426e+001 +1.4144e+000 +1.8604e+000
505 0 +2.774298022e-001 -3.189257020e+001 -3.189257020e+001 +1.4148e+000 +1.8604e+000
525 0 +8.887572081e-002 -3.208112428e+001 -3.208112428e+001 +1.4251e+000 +1.8548e+000
727 0 +7.702947696e-002 -3.209297052e+001 -3.209297052e+001 +1.4267e+000 +1.8546e+000
730 0 +8.575371093e-003 -3.216142463e+001 -3.216142463e+001 +1.4395e+000 +1.8545e+000
735 0 +5.409758582e-003 -3.216459024e+001 -3.216459024e+001 +1.4416e+000 +1.8542e+000
736 0 +4.532754091e-003 -3.216546725e+001 -3.216546725e+001 +1.4421e+000 +1.8541e+000
755 0 +4.424962567e-003 -3.216557504e+001 -3.216557504e+001 +1.4421e+000 +1.8545e+000
756 0 +1.755806276e-004 -3.216982442e+001 -3.216982442e+001 +1.4454e+000 +1.8545e+000
760 0 +1.508280839e-004 -3.216984917e+001 -3.216984917e+001 +1.4455e+000 +1.8545e+000
767 0 +8.547194759e-005 -3.216991453e+001 -3.216991453e+001 +1.4458e+000 +1.8545e+000
776 0 +7.340910430e-005 -3.216992659e+001 -3.216992659e+001 +1.4459e+000 +1.8545e+000
777 0 +7.229730280e-005 -3.216992770e+001 -3.216992770e+001 +1.4459e+000 +1.8545e+000
788 0 +1.442890984e-005 -3.216998557e+001 -3.216998557e+001 +1.4462e+000 +1.8545e+000
806 0 +1.092237780e-005 -3.216998908e+001 -3.216998908e+001 +1.4463e+000 +1.8545e+000
822 0 +9.815952978e-006 -3.216999018e+001 -3.216999018e+001 +1.4463e+000 +1.8545e+000
823 0 +8.774333722e-006 -3.216999123e+001 -3.216999123e+001 +1.4463e+000 +1.8545e+000
843 0 +6.294675551e-006 -3.216999371e+001 -3.216999371e+001 +1.4463e+000 +1.8544e+000
857 0 +1.495030496e-006 -3.216999850e+001 -3.216999850e+001 +1.4463e+000 +1.8544e+000
869 0 +2.223058644e-007 -3.216999978e+001 -3.216999978e+001 +1.4464e+000 +1.8544e+000
873 0 +1.901385147e-007 -3.216999981e+001 -3.216999981e+001 +1.4464e+000 +1.8544e+000
891 0 +6.931692553e-009 -3.216999999e+001 -3.216999999e+001 +1.4464e+000 +1.8544e+000
% f evaluations | g evaluations | best noise-free fitness - Fopt (-5.858000000000e+001) + sum g_i+ | measured fitness | best measured fitness or single-digit g-values | x1 | x2...
1 0 +6.846201411e+002 +6.260401411e+002 +6.260401411e+002 -5.0000e+000 +5.0000e+000
3 0 +1.359840348e+002 +7.740403484e+001 +7.740403484e+001 -5.0000e+000 -5.0000e+000
5 0 +7.755527635e+001 +1.897527635e+001 +1.897527635e+001 -5.0000e+000 -1.7418e+000
7 0 +4.411135403e+001 -1.446864597e+001 -1.446864597e+001 -1.0888e+000 -2.4028e+000
10 0 +2.694761236e+001 -3.163238764e+001 -3.163238764e+001 -2.4324e+000 -2.4820e+000
34 0 +2.025498421e+001 -3.832501579e+001 -3.832501579e+001 +1.3295e+000 -2.4750e+000
39 0 +1.287438093e+001 -4.570561907e+001 -4.570561907e+001 +6.5191e-001 -1.8723e+000
53 0 +7.618858574e+000 -5.096114143e+001 -5.096114143e+001 +1.6648e+000 -2.4599e+000
54 0 +5.846501194e+000 -5.273349881e+001 -5.273349881e+001 +5.6068e-001 -2.1880e+000
103 0 +5.733834032e+000 -5.284616597e+001 -5.284616597e+001 +5.6498e-001 -2.1892e+000
139 0 +4.013802020e+000 -5.456619798e+001 -5.456619798e+001 +6.5191e-001 -2.5087e+000
220 0 +3.980436247e+000 -5.459956375e+001 -5.459956375e+001 +6.3347e-001 -2.5067e+000
428 0 +9.544694484e-003 -5.857045531e+001 -5.857045531e+001 +2.5829e+000 -2.5072e+000
560 0 +5.998243541e-003 -5.857400176e+001 -5.857400176e+001 +2.5852e+000 -2.5072e+000
576 0 +1.880703276e-003 -5.857811930e+001 -5.857811930e+001 +2.5874e+000 -2.5072e+000
595 0 +1.750131495e-003 -5.857824987e+001 -5.857824987e+001 +2.5874e+000 -2.5072e+000
596 0 +2.799298677e-006 -5.857999720e+001 -5.857999720e+001 +2.5903e+000 -2.5072e+000
624 0 +2.367532375e-006 -5.857999763e+001 -5.857999763e+001 +2.5903e+000 -2.5072e+000
667 0 +3.338677459e-007 -5.857999967e+001 -5.857999967e+001 +2.5904e+000 -2.5072e+000
690 0 +1.758618424e-007 -5.857999982e+001 -5.857999982e+001 +2.5904e+000 -2.5072e+000
746 0 +8.659342399e-008 -5.857999991e+001 -5.857999991e+001 +2.5904e+000 -2.5072e+000
748 0 +4.427291600e-008 -5.857999996e+001 -5.857999996e+001 +2.5904e+000 -2.5072e+000
754 0 +1.405602745e-009 -5.858000000e+001 -5.858000000e+001 +2.5904e+000 -2.5072e+000
% f evaluations | g evaluations | best noise-free fitness - Fopt (-6.049200000000e+002) + sum g_i+ | measured fitness | best measured fitness or single-digit g-values | x1 | x2...
1 0 +4.236755503e+002 -1.812444497e+002 -1.812444497e+002 -5.0000e+000 +5.0000e+000
3 0 +2.223274011e+002 -3.825925989e+002 -3.825925989e+002 -5.0000e+000 -5.0000e+000
5 0 +1.307624471e+002 -4.741575529e+002 -4.741575529e+002 -4.7416e+000 -3.9158e+000
6 0 +3.688324130e+001 -5.680367587e+002 -5.680367587e+002 -3.3969e+000 -1.0136e+000
8 0 +3.157930760e+001 -5.733406924e+002 -5.733406924e+002 -3.8784e+000 -9.8837e-001
39 0 +2.906266743e+001 -5.758573326e+002 -5.758573326e+002 -4.0748e+000 -6.5534e-001
51 0 +2.847938048e+001 -5.764406195e+002 -5.764406195e+002 -4.0555e+000 -6.6452e-001
88 0 +2.736887304e+001 -5.775511270e+002 -5.775511270e+002 -4.0598e+000 -9.7739e-001
105 0 +2.689986281e+001 -5.780201372e+002 -5.780201372e+002 -4.1034e+000 -9.7959e-001
119 0 +2.494791504e+001 -5.799720850e+002 -5.799720850e+002 -4.0864e+000 -1.0203e+000
340 0 +2.014805692e+001 -5.847719431e+002 -5.847719431e+002 +4.5102e-001 -1.0130e+000
375 0 +6.143049521e+000 -5.987769505e+002 -5.987769505e+002 -8.0648e-001 -1.0152e+000
383 0 +1.907620262e+000 -6.030123797e+002 -6.030123797e+002 +8.9556e-001 -1.0152e+000
414 0 +8.933280052e-001 -6.040266720e+002 -6.040266720e+002 +9.2394e-001 -1.0152e+000
421 0 +2.594424021e-001 -6.046605576e+002 -6.046605576e+002 +9.6414e-001 -1.0152e+000
452 0 +8.833558035e-003 -6.049111664e+002 -6.049111664e+002 +9.9132e-001 -1.0152e+000
508 0 +4.980673481e-003 -6.049150193e+002 -6.049150193e+002 +9.9383e-001 -1.0151e+000
530 0 +1.381290581e-003 -6.049186187e+002 -6.049186187e+002 +9.9579e-001 -1.0150e+000
569 0 +8.169492510e-004 -6.049191831e+002 -6.049191831e+002 +9.9681e-001 -1.0156e+000
572 0 +6.966538944e-004 -6.049193033e+002 -6.049193033e+002 +9.9661e-001 -1.0154e+000
575 0 +4.005626956e-004 -6.049195994e+002 -6.049195994e+002 +9.9765e-001 -1.0156e+000
581 0 +2.951344678e-004 -6.049197049e+002 -6.049197049e+002 +9.9717e-001 -1.0152e+000
582 0 +1.811924672e-004 -6.049198188e+002 -6.049198188e+002 +9.9761e-001 -1.0150e+000
599 0 +1.501344151e-004 -6.049198499e+002 -6.049198499e+002 +9.9757e-001 -1.0151e+000
600 0 +1.443934716e-004 -6.049198556e+002 -6.049198556e+002 +9.9848e-001 -1.0152e+000
602 0 +1.150136172e-004 -6.049198850e+002 -6.049198850e+002 +9.9761e-001 -1.0152e+000
608 0 +6.932750216e-005 -6.049199307e+002 -6.049199307e+002 +9.9787e-001 -1.0152e+000
609 0 +3.909519296e-005 -6.049199609e+002 -6.049199609e+002 +9.9799e-001 -1.0152e+000
612 0 +5.532147611e-006 -6.049199945e+002 -6.049199945e+002 +9.9826e-001 -1.0152e+000
617 0 +4.250774623e-006 -6.049199957e+002 -6.049199957e+002 +9.9841e-001 -1.0152e+000
620 0 +2.329493441e-006 -6.049199977e+002 -6.049199977e+002 +9.9829e-001 -1.0152e+000
621 0 +9.408312280e-007 -6.049199991e+002 -6.049199991e+002 +9.9837e-001 -1.0152e+000
636 0 +6.898031870e-007 -6.049199993e+002 -6.049199993e+002 +9.9835e-001 -1.0152e+000
674 0 +5.890425427e-007 -6.049199994e+002 -6.049199994e+002 +9.9835e-001 -1.0152e+000
677 0 +5.978222362e-008 -6.049199999e+002 -6.049199999e+002 +9.9838e-001 -1.0152e+000
698 0 +4.677758625e-009 -6.049200000e+002 -6.049200000e+002 +9.9840e-001 -1.0152e+000
% f evaluations | g evaluations | best noise-free fitness - Fopt (1.337000000000e+002) + sum g_i+ | measured fitness | best measured fitness or single-digit g-values | x1 | x2...
1 0 +3.748725611e+002 +5.085725611e+002 +5.085725611e+002 -5.0000e+000 -5.0000e+000
3 0 +2.236713784e+002 +3.573713784e+002 +3.573713784e+002 -5.0000e+000 +5.0000e+000
4 0 +1.123057559e+002 +2.460057559e+002 +2.460057559e+002 -5.0000e+000 +3.0252e+000
7 0 +2.096210970e+001 +1.546621097e+002 +1.546621097e+002 -6.1345e-001 +8.6121e-001
24 0 +1.999692416e+001 +1.536969242e+002 +1.536969242e+002 -1.4278e+000 +1.3030e+000
36 0 +1.349228037e+001 +1.471922804e+002 +1.471922804e+002 +1.3348e+000 +9.0195e-001
47 0 +1.218673993e+001 +1.458867399e+002 +1.458867399e+002 +1.4971e+000 +1.9419e+000
76 0 +1.003862355e+001 +1.437386235e+002 +1.437386235e+002 +1.3348e+000 +1.2796e+000
98 0 +3.570821894e+000 +1.372708219e+002 +1.372708219e+002 +1.4569e+000 +6.6816e-001
104 0 +2.035517349e+000 +1.357355173e+002 +1.357355173e+002 +1.4887e+000 +9.7647e-001
176 0 +1.010594811e+000 +1.347105948e+002 +1.347105948e+002 +1.4846e+000 +9.5334e-001
275 0 +9.949730395e-001 +1.346949730e+002 +1.346949730e+002 +1.4789e+000 +9.5445e-001
615 0 +9.667131872e-001 +1.346667132e+002 +1.346667132e+002 +2.3976e+000 +9.5440e-001
671 0 +9.095992386e-001 +1.346095992e+002 +1.346095992e+002 +2.4000e+000 +9.5440e-001
676 0 +8.562514329e-001 +1.345562514e+002 +1.345562514e+002 +2.4025e+000 +9.5440e-001
683 0 +8.448692363e-001 +1.345448692e+002 +1.345448692e+002 +2.4030e+000 +9.5440e-001
686 0 +5.329199189e-001 +1.342329199e+002 +1.342329199e+002 +2.4242e+000 +9.5440e-001
687 0 +1.385455507e-001 +1.338385456e+002 +1.338385456e+002 +2.4488e+000 +9.5440e-001
689 0 +6.161240901e-003 +1.337061612e+002 +1.337061612e+002 +2.4699e+000 +9.5440e-001
713 0 +8.987579419e-004 +1.337008988e+002 +1.337008988e+002 +2.4730e+000 +9.5440e-001
725 0 +4.008824861e-004 +1.337004009e+002 +1.337004009e+002 +2.4738e+000 +9.5440e-001
746 0 +2.998771058e-004 +1.337002999e+002 +1.337002999e+002 +2.4740e+000 +9.5440e-001
750 0 +2.981794100e-005 +1.337000298e+002 +1.337000298e+002 +2.4748e+000 +9.5440e-001
797 0 +1.370019410e-005 +1.337000137e+002 +1.337000137e+002 +2.4749e+000 +9.5440e-001
807 0 +1.978382528e-006 +1.337000020e+002 +1.337000020e+002 +2.4751e+000 +9.5440e-001
869 0 +1.571411133e-006 +1.337000016e+002 +1.337000016e+002 +2.4751e+000 +9.5440e-001
878 0 +4.930720365e-008 +1.337000000e+002 +1.337000000e+002 +2.4752e+000 +9.5440e-001
900 0 +9.575757076e-009 +1.337000000e+002 +1.337000000e+002 +2.4752e+000 +9.5440e-001
% f evaluations | g evaluations | best noise-free fitness - Fopt (-2.098000000000e+001) + sum g_i+ | measured fitness | best measured fitness or single-digit g-values | x1 | x2...
1 0 +5.022187976e+002 +4.812387976e+002 +4.812387976e+002 -5.0000e+000 -5.0000e+000
3 0 +1.703582754e+002 +1.493782754e+002 +1.493782754e+002 -5.0000e+000 +5.0000e+000
6 0 +1.501096021e+002 +1.291296021e+002 +1.291296021e+002 -3.5587e+000 -1.2317e+000
7 0 +6.408890242e+001 +4.310890242e+001 +4.310890242e+001 -3.9856e+000 +1.7818e+000
11 0 +5.926054243e+001 +3.828054243e+001 +3.828054243e+001 -4.1090e+000 +1.7765e+000
15 0 +5.346775738e+001 +3.248775738e+001 +3.248775738e+001 -4.4495e+000 +1.6941e+000
17 0 +5.173669397e+001 +3.075669397e+001 +3.075669397e+001 -4.4255e+000 +1.6910e+000
22 0 +4.255890746e+001 +2.157890746e+001 +2.157890746e+001 -4.3754e+000 +2.4822e+000
46 0 +3.879771645e+001 +1.781771645e+001 +1.781771645e+001 -4.1722e+000 +1.6255e+000
69 0 +3.605837322e+001 +1.507837322e+001 +1.507837322e+001 -4.3097e+000 +1.9185e+000
213 0 +2.746376662e+001 +6.483766617e+000 +6.483766617e+000 +3.0033e-001 +2.0702e+000
215 0 +2.001087848e+001 -9.691215208e-001 -9.691215208e-001 -8.0506e-001 +1.9649e+000
224 0 +1.711418609e+001 -3.865813915e+000 -3.865813915e+000 -8.1376e-001 +1.9537e+000
232 0 +1.250958203e+001 -8.470417971e+000 -8.470417971e+000 -1.0266e-001 +2.5094e+000
235 0 +5.937491259e+000 -1.504250874e+001 -1.504250874e+001 +2.2640e+000 +2.2262e+000
298 0 +2.611398616e+000 -1.836860138e+001 -1.836860138e+001 +2.1505e+000 +2.2276e+000
318 0 +1.461954688e+000 -1.951804531e+001 -1.951804531e+001 +2.0328e+000 +1.8932e+000
395 0 +5.268474717e-001 -2.045315253e+001 -2.045315253e+001 +2.0119e+000 +1.9231e+000
433 0 +1.026227652e-001 -2.087737723e+001 -2.087737723e+001 +2.0371e+000 +1.9199e+000
444 0 +3.632706171e-003 -2.097636729e+001 -2.097636729e+001 +2.0576e+000 +1.9203e+000
472 0 +1.739469224e-003 -2.097826053e+001 -2.097826053e+001 +2.0571e+000 +1.9194e+000
496 0 +4.976723039e-004 -2.097950233e+001 -2.097950233e+001 +2.0586e+000 +1.9189e+000
547 0 +1.589768800e-004 -2.097984102e+001 -2.097984102e+001 +2.0596e+000 +1.9195e+000
554 0 +1.405489390e-004 -2.097985945e+001 -2.097985945e+001 +2.0591e+000 +1.9192e+000
558 0 +8.061621896e-005 -2.097991938e+001 -2.097991938e+001 +2.0600e+000 +1.9191e+000
559 0 +2.033361442e-005 -2.097997967e+001 -2.097997967e+001 +2.0597e+000 +1.9192e+000
580 0 +1.663410752e-005 -2.097998337e+001 -2.097998337e+001 +2.0597e+000 +1.9192e+000
609 0 +3.275517049e-006 -2.097999672e+001 -2.097999672e+001 +2.0599e+000 +1.9192e+000
617 0 +2.483948268e-006 -2.097999752e+001 -2.097999752e+001 +2.0599e+000 +1.9192e+000
632 0 +1.420370950e-007 -2.097999986e+001 -2.097999986e+001 +2.0600e+000 +1.9192e+000
647 0 +6.628082971e-008 -2.097999993e+001 -2.097999993e+001 +2.0600e+000 +1.9192e+000
648 0 +1.195495614e-008 -2.097999999e+001 -2.097999999e+001 +2.0600e+000 +1.9192e+000
669 0 +1.655958926e-009 -2.098000000e+001 -2.098000000e+001 +2.0600e+000 +1.9192e+000
% f evaluations | g evaluations | best noise-free fitness - Fopt (1.353300000000e+002) + sum g_i+ | measured fitness | best measured fitness or single-digit g-values | x1 | x2...
1 0 +3.043920118e+002 +4.397220118e+002 +4.397220118e+002 -5.0000e+000 +5.0000e+000
3 0 +3.042555565e+002 +4.395855565e+002 +4.395855565e+002 -5.0000e+000 -5.0000e+000
4 0 +7.967759336e+001 +2.150075934e+002 +2.150075934e+002 -5.0000e+000 +1.6112e+000
7 0 +9.854505917e+000 +1.451845059e+002 +1.451845059e+002 -2.4450e+000 +2.3950e-002
77 0 +7.089686678e+000 +1.424196867e+002 +1.424196867e+002 -1.5560e+000 -2.8470e-001
106 0 +3.988969730e+000 +1.393189697e+002 +1.393189697e+002 -1.4206e+000 +2.3950e-002
262 0 +3.980145240e+000 +1.393101452e+002 +1.393101452e+002 -1.4120e+000 +2.4330e-002
494 0 +1.888786850e+000 +1.372187868e+002 +1.372187868e+002 +4.4234e-001 +2.4000e-002
550 0 +4.059569564e-001 +1.357359570e+002 +1.357359570e+002 +5.0233e-001 +2.4000e-002
580 0 +1.615480544e-001 +1.354915481e+002 +1.354915481e+002 +5.1663e-001 +2.4000e-002
606 0 +8.442400891e-002 +1.354144240e+002 +1.354144240e+002 +5.2405e-001 +2.4000e-002
612 0 +8.662121430e-003 +1.353386621e+002 +1.353386621e+002 +5.3781e-001 +2.4000e-002
613 0 +2.588297335e-004 +1.353302588e+002 +1.353302588e+002 +5.4364e-001 +2.4000e-002
667 0 +1.190497301e-008 +1.353300000e+002 +1.353300000e+002 +5.4479e-001 +2.4000e-002
836 0 +5.171273187e-009 +1.353300000e+002 +1.353300000e+002 +5.4480e-001 +2.4000e-002
% f evaluations | g evaluations | best noise-free fitness - Fopt (4.066000000000e+001) + sum g_i+ | measured fitness | best measured fitness or single-digit g-values | x1 | x2...
1 0 +4.324321871e+002 +4.730921871e+002 +4.730921871e+002 -5.0000e+000 -5.0000e+000
3 0 +2.176760288e+002 +2.583360288e+002 +2.583360288e+002 -5.0000e+000 +5.0000e+000
4 0 +8.858837888e+001 +1.292483789e+002 +1.292483789e+002 -5.0000e+000 +8.1656e-001
7 0 +4.563642527e+001 +8.629642527e+001 +8.629642527e+001 -2.3631e+000 +1.1615e+000
11 0 +3.347026364e+001 +7.413026364e+001 +7.413026364e+001 -2.3170e+000 +1.2344e+000
49 0 +3.265207936e+001 +7.331207936e+001 +7.331207936e+001 -2.2982e+000 +1.2636e+000
64 0 +3.177659122e+001 +7.243659122e+001 +7.243659122e+001 -2.2523e+000 +1.5765e+000
77 0 +2.607506034e+001 +6.673506034e+001 +6.673506034e+001 -1.9456e+000 +1.2523e+000
96 0 +1.839556833e+001 +5.905556833e+001 +5.905556833e+001 -9.2981e-001 +9.1361e-001
119 0 +1.714558469e+001 +5.780558469e+001 +5.780558469e+001 -9.2815e-001 +1.2223e+000
132 0 +1.538997308e+001 +5.604997308e+001 +5.604997308e+001 -1.5493e-001 +1.5501e+000
143 0 +5.365106108e+000 +4.602510611e+001 +4.602510611e+001 +1.0870e+000 +1.5398e+000
147 0 +5.166513779e+000 +4.582651378e+001 +4.582651378e+001 +1.0793e+000 +1.5442e+000
196 0 +2.552405184e+000 +4.321240518e+001 +4.321240518e+001 +2.0803e+000 +1.5409e+000
200 0 +2.344375640e+000 +4.300437564e+001 +4.300437564e+001 +2.0580e+000 +1.5403e+000
219 0 +2.194351572e+000 +4.285435157e+001 +4.285435157e+001 +2.0565e+000 +1.2223e+000
233 0 +1.172101273e+000 +4.183210127e+001 +4.183210127e+001 +2.0767e+000 +1.2462e+000
284 0 +1.105141559e+000 +4.176514156e+001 +4.176514156e+001 +2.0609e+000 +1.2396e+000
311 0 +9.958656053e-001 +4.165586561e+001 +4.165586561e+001 +2.0551e+000 +1.2466e+000
845 0 +5.716928429e-001 +4.123169284e+001 +4.123169284e+001 +3.0088e+000 +1.2558e+000
888 0 +3.551150754e-001 +4.101511508e+001 +4.101511508e+001 +3.0128e+000 +1.2490e+000
947 0 +1.886030364e-001 +4.084860304e+001 +4.084860304e+001 +3.0242e+000 +1.2510e+000
962 0 +1.753354636e-001 +4.083533546e+001 +4.083533546e+001 +3.0260e+000 +1.2514e+000
969 0 +1.705686607e-001 +4.083056866e+001 +4.083056866e+001 +3.0262e+000 +1.2513e+000
981 0 +1.577855844e-001 +4.081778558e+001 +4.081778558e+001 +3.0244e+000 +1.2486e+000
988 0 +1.495544213e-001 +4.080955442e+001 +4.080955442e+001 +3.0247e+000 +1.2471e+000
1000 0 +2.491990179e-002 +4.068491990e+001 +4.068491990e+001 +3.0405e+000 +1.2472e+000
1006 0 +7.645640053e-003 +4.066764564e+001 +4.066764564e+001 +3.0457e+000 +1.2472e+000
1011 0 +6.252168785e-004 +4.066062522e+001 +4.066062522e+001 +3.0502e+000 +1.2473e+000
1052 0 +1.077020618e-004 +4.066010770e+001 +4.066010770e+001 +3.0514e+000 +1.2473e+000
1070 0 +9.846034706e-005 +4.066009846e+001 +4.066009846e+001 +3.0520e+000 +1.2474e+000
1110 0 +3.061379684e-005 +4.066003061e+001 +4.066003061e+001 +3.0516e+000 +1.2472e+000
1118 0 +2.742570138e-005 +4.066002743e+001 +4.066002743e+001 +3.0517e+000 +1.2472e+000
1176 0 +7.737917812e-006 +4.066000774e+001 +4.066000774e+001 +3.0518e+000 +1.2472e+000
1188 0 +6.294513184e-006 +4.066000629e+001 +4.066000629e+001 +3.0518e+000 +1.2472e+000
1190 0 +6.074711010e-006 +4.066000607e+001 +4.066000607e+001 +3.0518e+000 +1.2472e+000
1191 0 +5.760384632e-006 +4.066000576e+001 +4.066000576e+001 +3.0518e+000 +1.2472e+000
1192 0 +4.017472307e-006 +4.066000402e+001 +4.066000402e+001 +3.0519e+000 +1.2472e+000
1194 0 +3.298971123e-006 +4.066000330e+001 +4.066000330e+001 +3.0519e+000 +1.2472e+000
1230 0 +3.049962842e-006 +4.066000305e+001 +4.066000305e+001 +3.0519e+000 +1.2472e+000
1311 0 +1.083998683e-006 +4.066000108e+001 +4.066000108e+001 +3.0519e+000 +1.2472e+000
1319 0 +2.253408482e-007 +4.066000023e+001 +4.066000023e+001 +3.0520e+000 +1.2472e+000
1326 0 +1.299349961e-007 +4.066000013e+001 +4.066000013e+001 +3.0520e+000 +1.2472e+000
1334 0 +8.491162617e-008 +4.066000008e+001 +4.066000008e+001 +3.0520e+000 +1.2472e+000
1337 0 +7.234580579e-008 +4.066000007e+001 +4.066000007e+001 +3.0520e+000 +1.2472e+000
1338 0 +3.827706507e-008 +4.066000004e+001 +4.066000004e+001 +3.0520e+000 +1.2472e+000
1357 0 +3.257315484e-008 +4.066000003e+001 +4.066000003e+001 +3.0520e+000 +1.2472e+000
1370 0 +3.216437250e-008 +4.066000003e+001 +4.066000003e+001 +3.0520e+000 +1.2472e+000
1373 0 +1.027270713e-008 +4.066000001e+001 +4.066000001e+001 +3.0520e+000 +1.2472e+000
1376 0 +8.232831306e-009 +4.066000001e+001 +4.066000001e+001 +3.0520e+000 +1.2472e+000
