% f evaluations | g evaluations | best noise-free fitness - Fopt (-2.098800000000e+002) + sum g_i+ | measured fitness | best measured fitness or single-digit g-values | x1 | x2...
1 0 +2.756261218e+007 +2.756240230e+007 +2.756240230e+007 +5.0000e+000 -5.0000e+000
3 0 +2.065071032e+007 +2.065050044e+007 +2.065050044e+007 +5.0000e+000 +5.0000e+000
4 0 +1.028463266e+007 +1.028442278e+007 +1.028442278e+007 +5.0000e+000 +3.7497e+000
6 0 +4.466369227e+006 +4.466159347e+006 +4.466159347e+006 +3.4775e+000 -1.6785e+000
7 0 +1.438235515e+004 +1.417247515e+004 +1.417247515e+004 +5.0000e+000 +3.3031e-001
9 0 +4.772241374e+003 +4.562361374e+003 +4.562361374e+003 -5.0000e+000 +3.7212e-001
11 0 +4.295528625e+003 +4.085648625e+003 +4.085648625e+003 -5.0000e+000 +3.7641e-001
13 0 +3.864456666e+003 +3.654576666e+003 +3.654576666e+003 -5.0000e+000 +3.8104e-001
15 0 +3.494235916e+003 +3.284355916e+003 +3.284355916e+003 -5.0000e+000 +3.8577e-001
28 0 +2.909171870e+003 +2.699291870e+003 +2.699291870e+003 -4.0067e+000 +3.9437e-001
34 0 +1.928297181e+003 +1.718417181e+003 +1.718417181e+003 -5.0000e+000 +4.0742e-001
56 0 +1.220021205e+003 +1.010141205e+003 +1.010141205e+003 -5.0000e+000 +4.1518e-001
59 0 +1.017719621e+003 +8.078396208e+002 +8.078396208e+002 -4.7739e+000 +4.8213e-001
64 0 +1.345488537e+002 -7.533114630e+001 -7.533114630e+001 -4.7612e+000 +4.5809e-001
65 0 +7.390092271e+001 -1.359790773e+002 -1.359790773e+002 -4.5154e+000 +4.4097e-001
83 0 +4.105010534e+001 -1.688298947e+002 -1.688298947e+002 -4.8431e+000 +4.4513e-001
97 0 +3.636394745e+001 -1.735160526e+002 -1.735160526e+002 -4.8518e+000 +4.4609e-001
98 0 +3.536352073e+001 -1.745164793e+002 -1.745164793e+002 -4.8447e+000 +4.4641e-001
103 0 +1.642088419e+001 -1.934591158e+002 -1.934591158e+002 +5.0000e+000 +4.4647e-001
105 0 +1.603729324e+001 -1.938427068e+002 -1.938427068e+002 +4.9763e+000 +4.4654e-001
125 0 +1.553612752e+001 -1.943438725e+002 -1.943438725e+002 +4.9885e+000 +4.4675e-001
132 0 +1.438866590e+001 -1.954913341e+002 -1.954913341e+002 +4.9963e+000 +4.4748e-001
139 0 +6.045121681e+000 -2.038348783e+002 -2.038348783e+002 -8.4500e-001 +4.4665e-001
142 0 +4.491744099e+000 -2.053882559e+002 -2.053882559e+002 -8.3085e-001 +4.4855e-001
146 0 +2.109583273e+000 -2.077704167e+002 -2.077704167e+002 +2.7438e+000 +4.4806e-001
171 0 +3.438418064e-001 -2.095361582e+002 -2.095361582e+002 +1.3715e+000 +4.4748e-001
178 0 +1.311668076e-001 -2.097488332e+002 -2.097488332e+002 +8.5986e-001 +4.4806e-001
215 0 +1.314210390e-002 -2.098668579e+002 -2.098668579e+002 +1.2986e+000 +4.4807e-001
275 0 +8.351471717e-003 -2.098716485e+002 -2.098716485e+002 +1.2692e+000 +4.4793e-001
286 0 +2.601166334e-003 -2.098773988e+002 -2.098773988e+002 +1.2441e+000 +4.4796e-001
315 0 +2.379816306e-003 -2.098776202e+002 -2.098776202e+002 +1.2439e+000 +4.4796e-001
329 0 +5.823011647e-004 -2.098794177e+002 -2.098794177e+002 +1.1846e+000 +4.4799e-001
376 0 +5.662866575e-004 -2.098794337e+002 -2.098794337e+002 +1.1851e+000 +4.4799e-001
389 0 +4.595260386e-004 -2.098795405e+002 -2.098795405e+002 +1.1877e+000 +4.4799e-001
390 0 +1.936867767e-004 -2.098798063e+002 -2.098798063e+002 +1.2182e+000 +4.4799e-001
399 0 +1.376185583e-004 -2.098798624e+002 -2.098798624e+002 +1.2168e+000 +4.4799e-001
403 0 +5.780789402e-005 -2.098799422e+002 -2.098799422e+002 +1.2008e+000 +4.4800e-001
431 0 +4.655639191e-005 -2.098799534e+002 -2.098799534e+002 +1.2124e+000 +4.4800e-001
437 0 +4.175690174e-005 -2.098799582e+002 -2.098799582e+002 +1.2139e+000 +4.4800e-001
438 0 +1.666418564e-005 -2.098799833e+002 -2.098799833e+002 +1.2046e+000 +4.4800e-001
458 0 +7.323485050e-006 -2.098799927e+002 -2.098799927e+002 +1.2046e+000 +4.4800e-001
462 0 +3.382519935e-006 -2.098799966e+002 -2.098799966e+002 +1.2090e+000 +4.4800e-001
481 0 +1.257449554e-006 -2.098799987e+002 -2.098799987e+002 +1.2061e+000 +4.4800e-001
495 0 +5.684823350e-007 -2.098799994e+002 -2.098799994e+002 +1.2075e+000 +4.4800e-001
513 0 +4.254496844e-007 -2.098799996e+002 -2.098799996e+002 +1.2074e+000 +4.4800e-001
516 0 +9.625748021e-008 -2.098799999e+002 -2.098799999e+002 +1.2071e+000 +4.4800e-001
526 0 +5.451528295e-008 -2.098799999e+002 -2.098799999e+002 +1.2074e+000 +4.4800e-001
531 0 +1.481319600e-008 -2.098800000e+002 -2.098800000e+002 +1.2073e+000 +4.4800e-001
569 0 +1.254227300e-008 -2.098800000e+002 -2.098800000e+002 +1.2073e+000 +4.4800e-001
611 0 +1.209164679e-008 -2.098800000e+002 -2.098800000e+002 +1.2073e+000 +4.4800e-001
612 0 +4.149569577e-009 -2.098800000e+002 -2.098800000e+002 +1.2072e+000 +4.4800e-001
% f evaluations | g evaluations | best noise-free fitness - Fopt (-9.209000000000e+001) + sum g_i+ | measured fitness | best measured fitness or single-digit g-values | x1 | x2...
1 0 +5.281149670e+007 +5.281140461e+007 +5.281140461e+007 -5.0000e+000 -5.0000e+000
2 0 +5.281148514e+007 +5.281139305e+007 +5.281139305e+007 +5.0000e+000 -5.0000e+000
3 0 +6.376370385e+006 +6.376278295e+006 +6.376278295e+006 -5.0000e+000 +5.0000e+000
7 0 +2.627845147e+000 -8.946215485e+001 -8.946215485e+001 +6.0517e-001 +2.6200e+000
83 0 +1.895531197e+000 -9.019446880e+001 -9.019446880e+001 +6.0241e-001 +2.6202e+000
121 0 +2.123701702e-001 -9.187762983e+001 -9.187762983e+001 +6.1197e-001 +2.6220e+000
151 0 +5.399861782e-002 -9.203600138e+001 -9.203600138e+001 +6.1475e-001 +2.6218e+000
222 0 +1.573950939e-002 -9.207426049e+001 -9.207426049e+001 +6.4425e-001 +2.6217e+000
262 0 +1.032374653e-002 -9.207967625e+001 -9.207967625e+001 +7.1748e-001 +2.6217e+000
268 0 +4.690802508e-003 -9.208530920e+001 -9.208530920e+001 +7.2550e-001 +2.6217e+000
288 0 +1.322699728e-003 -9.208867730e+001 -9.208867730e+001 +7.5900e-001 +2.6216e+000
295 0 +4.634987397e-004 -9.208953650e+001 -9.208953650e+001 +7.0791e-001 +2.6216e+000
304 0 +3.607132658e-004 -9.208963929e+001 -9.208963929e+001 +7.0940e-001 +2.6216e+000
307 0 +3.180958469e-004 -9.208968190e+001 -9.208968190e+001 +7.2032e-001 +2.6216e+000
337 0 +1.327596306e-004 -9.208986724e+001 -9.208986724e+001 +7.2833e-001 +2.6216e+000
346 0 +1.018032543e-004 -9.208989820e+001 -9.208989820e+001 +7.2582e-001 +2.6216e+000
348 0 +2.720548640e-005 -9.208997279e+001 -9.208997279e+001 +7.2149e-001 +2.6216e+000
369 0 +1.654427192e-005 -9.208998346e+001 -9.208998346e+001 +7.2530e-001 +2.6216e+000
391 0 +4.832318439e-006 -9.208999517e+001 -9.208999517e+001 +7.2715e-001 +2.6216e+000
397 0 +4.291044249e-006 -9.208999571e+001 -9.208999571e+001 +7.2731e-001 +2.6216e+000
401 0 +6.778170132e-007 -9.208999932e+001 -9.208999932e+001 +7.2601e-001 +2.6216e+000
410 0 +4.395569135e-007 -9.208999956e+001 -9.208999956e+001 +7.2607e-001 +2.6216e+000
421 0 +2.338507414e-007 -9.208999977e+001 -9.208999977e+001 +7.2607e-001 +2.6216e+000
430 0 +1.923743866e-007 -9.208999981e+001 -9.208999981e+001 +7.2602e-001 +2.6216e+000
444 0 +5.120919866e-008 -9.208999995e+001 -9.208999995e+001 +7.2572e-001 +2.6216e+000
460 0 +2.522800457e-008 -9.208999997e+001 -9.208999997e+001 +7.2569e-001 +2.6216e+000
479 0 +1.420936258e-008 -9.208999999e+001 -9.208999999e+001 +7.2569e-001 +2.6216e+000
489 0 +6.139629249e-009 -9.208999999e+001 -9.208999999e+001 +7.2557e-001 +2.6216e+000
% f evaluations | g evaluations | best noise-free fitness - Fopt (-8.789000000000e+001) + sum g_i+ | measured fitness | best measured fitness or single-digit g-values | x1 | x2...
1 0 +7.291308127e+007 +7.291299338e+007 +7.291299338e+007 -5.0000e+000 -5.0000e+000
2 0 +7.291307776e+007 +7.291298987e+007 +7.291298987e+007 +5.0000e+000 -5.0000e+000
3 0 +1.981273586e+006 +1.981185696e+006 +1.981185696e+006 -5.0000e+000 +5.0000e+000
7 0 +7.983821418e+002 +7.104921418e+002 +7.104921418e+002 +1.8961e-001 +3.6720e+000
17 0 +1.382408756e+002 +5.035087559e+001 +5.035087559e+001 +5.4059e-001 +3.6573e+000
43 0 +8.193026959e+001 -5.959730414e+000 -5.959730414e+000 +7.1664e-001 +3.6359e+000
54 0 +1.162438653e+001 -7.626561347e+001 -7.626561347e+001 +7.4792e-001 +3.6491e+000
78 0 +4.523284006e+000 -8.336671599e+001 -8.336671599e+001 +9.9154e-001 +3.6435e+000
107 0 +3.139447491e+000 -8.475055251e+001 -8.475055251e+001 -8.8521e-001 +3.6443e+000
111 0 +2.391509548e+000 -8.549849045e+001 -8.549849045e+001 -6.9859e-001 +3.6443e+000
118 0 +2.316268168e+000 -8.557373183e+001 -8.557373183e+001 -7.0826e-001 +3.6444e+000
128 0 +1.722026088e+000 -8.616797391e+001 -8.616797391e+001 -9.0608e-001 +3.6451e+000
137 0 +5.230801230e-001 -8.736691988e+001 -8.736691988e+001 +9.9154e-001 +3.6457e+000
191 0 +4.610661441e-001 -8.742893386e+001 -8.742893386e+001 -2.3524e-001 +3.6452e+000
194 0 +1.067230002e-001 -8.778327700e+001 -8.778327700e+001 +4.7220e-001 +3.6454e+000
214 0 +9.497738138e-002 -8.779502262e+001 -8.779502262e+001 +3.7251e-002 +3.6454e+000
216 0 +6.657095091e-002 -8.782342905e+001 -8.782342905e+001 +4.0493e-001 +3.6458e+000
266 0 +3.824636572e-002 -8.785175363e+001 -8.785175363e+001 +3.3542e-001 +3.6458e+000
274 0 +2.338346731e-002 -8.786661653e+001 -8.786661653e+001 +2.9130e-001 +3.6457e+000
283 0 +1.748694062e-002 -8.787251306e+001 -8.787251306e+001 +2.7346e-001 +3.6457e+000
286 0 +6.328046559e-003 -8.788367195e+001 -8.788367195e+001 +1.5338e-001 +3.6456e+000
287 0 +2.086049432e-004 -8.788979140e+001 -8.788979140e+001 +2.2770e-001 +3.6456e+000
293 0 +1.820558511e-004 -8.788981794e+001 -8.788981794e+001 +2.2886e-001 +3.6456e+000
318 0 +1.362208747e-004 -8.788986378e+001 -8.788986378e+001 +2.4749e-001 +3.6456e+000
321 0 +8.886872513e-005 -8.788991113e+001 -8.788991113e+001 +2.4624e-001 +3.6456e+000
340 0 +5.832843027e-005 -8.788994167e+001 -8.788994167e+001 +2.4402e-001 +3.6456e+000
342 0 +5.483743936e-005 -8.788994516e+001 -8.788994516e+001 +2.4427e-001 +3.6456e+000
345 0 +5.276044364e-005 -8.788994724e+001 -8.788994724e+001 +2.4522e-001 +3.6456e+000
346 0 +2.274965522e-005 -8.788997725e+001 -8.788997725e+001 +2.3555e-001 +3.6456e+000
356 0 +3.931444994e-006 -8.788999607e+001 -8.788999607e+001 +2.4043e-001 +3.6456e+000
368 0 +2.397353455e-006 -8.788999760e+001 -8.788999760e+001 +2.4085e-001 +3.6456e+000
374 0 +3.643309014e-007 -8.788999964e+001 -8.788999964e+001 +2.3980e-001 +3.6456e+000
395 0 +1.476629166e-007 -8.788999985e+001 -8.788999985e+001 +2.3883e-001 +3.6456e+000
418 0 +1.008051100e-007 -8.788999990e+001 -8.788999990e+001 +2.3889e-001 +3.6456e+000
420 0 +6.520573947e-008 -8.788999993e+001 -8.788999993e+001 +2.3894e-001 +3.6456e+000
427 0 +3.528239745e-008 -8.788999996e+001 -8.788999996e+001 +2.3911e-001 +3.6456e+000
441 0 +3.372689150e-008 -8.788999997e+001 -8.788999997e+001 +2.3924e-001 +3.6456e+000
450 0 +1.112080383e-008 -8.788999999e+001 -8.788999999e+001 +2.3923e-001 +3.6456e+000
461 0 +9.829506098e-010 -8.789000000e+001 -8.789000000e+001 +2.3921e-001 +3.6456e+000
% f evaluations | g evaluations | best noise-free fitness - Fopt (3.201900000000e+002) + sum g_i+ | measured fitness | best measured fitness or single-digit g-values | x1 | x2...
1 0 +6.517571506e+006 +6.517891696e+006 +6.517891696e+006 +5.0000e+000 -5.0000e+000
2 0 +6.517563225e+006 +6.517883415e+006 +6.517883415e+006 -5.0000e+000 -5.0000e+000
6 0 +4.922308620e+006 +4.922628810e+006 +4.922628810e+006 -2.0556e+000 -4.6236e+000
7 0 +8.968442142e+004 +9.000461142e+004 +9.000461142e+004 -4.2100e-001 -2.6574e+000
9 0 +2.544782663e+004 +2.576801663e+004 +2.576801663e+004 +5.0000e+000 -2.5109e+000
17 0 +2.377043147e+004 +2.409062147e+004 +2.409062147e+004 -5.0000e+000 -2.5059e+000
19 0 +2.330126628e+004 +2.362145628e+004 +2.362145628e+004 -5.0000e+000 -2.5046e+000
21 0 +1.968326437e+004 +2.000345437e+004 +2.000345437e+004 -5.0000e+000 -2.4941e+000
28 0 +2.918616930e+003 +3.238806930e+003 +3.238806930e+003 +2.1546e+000 -2.3117e+000
44 0 +1.209371362e+003 +1.529561362e+003 +1.529561362e+003 +2.5011e+000 -2.3232e+000
58 0 +9.401185708e+002 +1.260308571e+003 +1.260308571e+003 -3.8596e+000 -2.3905e+000
59 0 +3.353262158e+002 +6.555162158e+002 +6.555162158e+002 -3.9655e+000 -2.3420e+000
77 0 +2.105575122e+001 +3.412457512e+002 +3.412457512e+002 -4.8381e+000 -2.3621e+000
86 0 +2.004996544e+001 +3.402399654e+002 +3.402399654e+002 -4.9236e+000 -2.3606e+000
153 0 +1.905271637e+001 +3.392427164e+002 +3.392427164e+002 -4.7919e+000 -2.3605e+000
157 0 +1.568556305e+001 +3.358755630e+002 +3.358755630e+002 -4.3388e+000 -2.3614e+000
185 0 +1.534290882e+001 +3.355329088e+002 +3.355329088e+002 -4.3389e+000 -2.3609e+000
196 0 +1.342288106e+001 +3.336128811e+002 +3.336128811e+002 -4.0042e+000 -2.3617e+000
205 0 +1.246909667e+001 +3.326590967e+002 +3.326590967e+002 -3.9775e+000 -2.3608e+000
210 0 +1.226703812e+001 +3.324570381e+002 +3.324570381e+002 -3.9374e+000 -2.3611e+000
212 0 +1.182832155e+001 +3.320183216e+002 +3.320183216e+002 -3.8257e+000 -2.3615e+000
216 0 +7.477778139e+000 +3.276677781e+002 +3.276677781e+002 -3.1701e+000 -2.3601e+000
233 0 +5.903399961e+000 +3.260934000e+002 +3.260934000e+002 -2.4011e+000 -2.3622e+000
240 0 +4.048277512e+000 +3.242382775e+002 +3.242382775e+002 -2.3953e+000 -2.3611e+000
251 0 +1.705452164e+000 +3.218954522e+002 +3.218954522e+002 -1.6209e+000 -2.3605e+000
265 0 +1.650175744e+000 +3.218401757e+002 +3.218401757e+002 -1.5261e+000 -2.3602e+000
277 0 +1.024318293e+000 +3.212143183e+002 +3.212143183e+002 -8.3234e-001 -2.3618e+000
290 0 +1.006742776e+000 +3.211967428e+002 +3.211967428e+002 +5.6866e-001 -2.3608e+000
292 0 +3.700778038e-001 +3.205600778e+002 +3.205600778e+002 -1.0908e-001 -2.3603e+000
293 0 +1.430880305e-001 +3.203330880e+002 +3.203330880e+002 -3.2829e-001 -2.3605e+000
310 0 +1.161003426e-001 +3.203061003e+002 +3.203061003e+002 -4.3063e-001 -2.3605e+000
321 0 +9.664230344e-002 +3.202866423e+002 +3.202866423e+002 -7.2152e-001 -2.3607e+000
324 0 +7.134452107e-002 +3.202613445e+002 +3.202613445e+002 -2.7373e-001 -2.3606e+000
325 0 +1.451179049e-002 +3.202045118e+002 +3.202045118e+002 -4.8257e-001 -2.3607e+000
326 0 +5.800078714e-003 +3.201958001e+002 +3.201958001e+002 -4.1418e-001 -2.3607e+000
347 0 +8.572600263e-004 +3.201908573e+002 +3.201908573e+002 -4.6136e-001 -2.3608e+000
350 0 +8.253218268e-004 +3.201908253e+002 +3.201908253e+002 -4.6060e-001 -2.3608e+000
380 0 +5.727231640e-004 +3.201905727e+002 +3.201905727e+002 -4.5522e-001 -2.3608e+000
384 0 +4.588738889e-004 +3.201904589e+002 +3.201904589e+002 -4.5119e-001 -2.3608e+000
392 0 +2.972721671e-005 +3.201900297e+002 +3.201900297e+002 -4.2806e-001 -2.3608e+000
420 0 +1.975166538e-005 +3.201900198e+002 +3.201900198e+002 -4.2911e-001 -2.3608e+000
443 0 +9.204135267e-007 +3.201900009e+002 +3.201900009e+002 -4.3193e-001 -2.3608e+000
462 0 +6.828764754e-007 +3.201900007e+002 +3.201900007e+002 -4.3205e-001 -2.3608e+000
466 0 +3.247246241e-007 +3.201900003e+002 +3.201900003e+002 -4.3316e-001 -2.3608e+000
470 0 +5.545575732e-008 +3.201900001e+002 +3.201900001e+002 -4.3284e-001 -2.3608e+000
515 0 +1.108668357e-008 +3.201900000e+002 +3.201900000e+002 -4.3283e-001 -2.3608e+000
517 0 +7.453309081e-009 +3.201900000e+002 +3.201900000e+002 -4.3288e-001 -2.3608e+000
% f evaluations | g evaluations | best noise-free fitness - Fopt (-1.042400000000e+002) + sum g_i+ | measured fitness | best measured fitness or single-digit g-values | x1 | x2...
1 0 +1.242788719e+006 +1.242684479e+006 +1.242684479e+006 -5.0000e+000 -5.0000e+000
2 0 +1.242782684e+006 +1.242678444e+006 +1.242678444e+006 +5.0000e+000 -5.0000e+000
5 0 +3.580587424e+004 +3.570163424e+004 +3.570163424e+004 -4.7264e+000 -4.1020e+000
6 0 +7.970404682e+003 +7.866164682e+003 +7.866164682e+003 +3.2342e-001 -3.8323e+000
8 0 +6.604980506e+003 +6.500740506e+003 +6.500740506e+003 -5.0000e+000 -3.8370e+000
9 0 +1.696818788e+003 +1.592578788e+003 +1.592578788e+003 +4.5131e+000 -3.9582e+000
29 0 +1.628852465e+000 -1.026111475e+002 -1.026111475e+002 +1.4689e+000 -3.9194e+000
132 0 +1.020341338e+000 -1.032196587e+002 -1.032196587e+002 +3.8378e-001 -3.9210e+000
133 0 +4.502407164e-001 -1.037897593e+002 -1.037897593e+002 +4.2717e-001 -3.9207e+000
139 0 +8.843960027e-002 -1.041515604e+002 -1.041515604e+002 +3.5122e-001 -3.9203e+000
161 0 +5.664626370e-002 -1.041833537e+002 -1.041833537e+002 +2.2822e-001 -3.9202e+000
180 0 +7.891151554e-003 -1.042321088e+002 -1.042321088e+002 +4.6459e-001 -3.9201e+000
252 0 +2.875408777e-003 -1.042371246e+002 -1.042371246e+002 +3.4177e-001 -3.9200e+000
278 0 +1.068151149e-004 -1.042398932e+002 -1.042398932e+002 +3.8366e-001 -3.9200e+000
309 0 +6.967758772e-005 -1.042399303e+002 -1.042399303e+002 +3.8590e-001 -3.9200e+000
360 0 +5.763146696e-005 -1.042399424e+002 -1.042399424e+002 +3.9755e-001 -3.9200e+000
417 0 +5.504897702e-005 -1.042399450e+002 -1.042399450e+002 +3.9535e-001 -3.9200e+000
419 0 +3.930078357e-005 -1.042399607e+002 -1.042399607e+002 +3.9725e-001 -3.9200e+000
428 0 +3.075792512e-005 -1.042399692e+002 -1.042399692e+002 +3.9580e-001 -3.9200e+000
433 0 +2.745022481e-005 -1.042399725e+002 -1.042399725e+002 +3.9907e-001 -3.9200e+000
436 0 +2.041301897e-005 -1.042399796e+002 -1.042399796e+002 +3.9855e-001 -3.9200e+000
437 0 +1.349773837e-005 -1.042399865e+002 -1.042399865e+002 +3.9789e-001 -3.9200e+000
443 0 +9.268347483e-006 -1.042399907e+002 -1.042399907e+002 +3.9139e-001 -3.9200e+000
446 0 +3.900526721e-006 -1.042399961e+002 -1.042399961e+002 +3.9292e-001 -3.9200e+000
448 0 +2.443324462e-006 -1.042399976e+002 -1.042399976e+002 +3.9291e-001 -3.9200e+000
456 0 +1.715690658e-006 -1.042399983e+002 -1.042399983e+002 +3.9330e-001 -3.9200e+000
468 0 +1.380213035e-006 -1.042399986e+002 -1.042399986e+002 +3.9346e-001 -3.9200e+000
471 0 +3.689627874e-007 -1.042399996e+002 -1.042399996e+002 +3.9406e-001 -3.9200e+000
474 0 +1.066849222e-007 -1.042399999e+002 -1.042399999e+002 +3.9467e-001 -3.9200e+000
505 0 +7.974807659e-008 -1.042399999e+002 -1.042399999e+002 +3.9411e-001 -3.9200e+000
513 0 +4.738012649e-009 -1.042400000e+002 -1.042400000e+002 +3.9445e-001 -3.9200e+000
% f evaluations | g evaluations | best noise-free fitness - Fopt (-6.785000000000e+001) + sum g_i+ | measured fitness | best measured fitness or single-digit g-values | x1 | x2...
1 0 +3.860038371e+006 +3.859970521e+006 +3.859970521e+006 +5.0000e+000 +5.0000e+000
4 0 +3.860027491e+006 +3.859959641e+006 +3.859959641e+006 +3.2110e+000 +5.0000e+000
5 0 +1.774114867e+006 +1.774047017e+006 +1.774047017e+006 -4.7271e+000 +4.2256e+000
6 0 +1.126897499e+004 +1.120112499e+004 +1.120112499e+004 +7.8137e-001 +3.1133e+000
8 0 +3.815600001e+000 -6.403440000e+001 -6.403440000e+001 +5.1653e-001 +3.0124e+000
26 0 +3.345450427e+000 -6.450454957e+001 -6.450454957e+001 +5.0628e-001 +3.0126e+000
68 0 +1.709876410e+000 -6.614012359e+001 -6.614012359e+001 +5.2196e-001 +3.0131e+000
71 0 +4.201602517e-001 -6.742983975e+001 -6.742983975e+001 +3.2528e-001 +3.0140e+000
110 0 +2.332670130e-001 -6.761673299e+001 -6.761673299e+001 +4.0037e-001 +3.0144e+000
186 0 +1.822720613e-001 -6.766772794e+001 -6.766772794e+001 +5.0628e-001 +3.0142e+000
187 0 +9.511109310e-002 -6.775488891e+001 -6.775488891e+001 +5.7922e-001 +3.0144e+000
188 0 +9.041746538e-002 -6.775958253e+001 -6.775958253e+001 +5.8997e-001 +3.0143e+000
200 0 +3.699975580e-002 -6.781300024e+001 -6.781300024e+001 +7.2460e-001 +3.0143e+000
203 0 +2.242224645e-002 -6.782757775e+001 -6.782757775e+001 +8.1613e-001 +3.0143e+000
211 0 +1.382440515e-002 -6.783617559e+001 -6.783617559e+001 +8.4209e-001 +3.0143e+000
240 0 +3.861620017e-003 -6.784613838e+001 -6.784613838e+001 +8.5260e-001 +3.0145e+000
244 0 +2.533419841e-003 -6.784746658e+001 -6.784746658e+001 +8.8626e-001 +3.0144e+000
251 0 +9.061205531e-004 -6.784909388e+001 -6.784909388e+001 +8.5869e-001 +3.0144e+000
280 0 +3.897897800e-004 -6.784961021e+001 -6.784961021e+001 +8.8109e-001 +3.0144e+000
288 0 +3.851348537e-004 -6.784961487e+001 -6.784961487e+001 +8.8091e-001 +3.0144e+000
290 0 +4.164089658e-005 -6.784995836e+001 -6.784995836e+001 +8.7603e-001 +3.0144e+000
312 0 +2.634657989e-005 -6.784997365e+001 -6.784997365e+001 +8.8115e-001 +3.0144e+000
315 0 +2.423551297e-005 -6.784997576e+001 -6.784997576e+001 +8.8096e-001 +3.0144e+000
338 0 +8.522334298e-006 -6.784999148e+001 -6.784999148e+001 +8.8097e-001 +3.0144e+000
339 0 +7.260385772e-006 -6.784999274e+001 -6.784999274e+001 +8.8122e-001 +3.0144e+000
350 0 +5.391623858e-006 -6.784999461e+001 -6.784999461e+001 +8.8135e-001 +3.0144e+000
352 0 +4.892033999e-006 -6.784999511e+001 -6.784999511e+001 +8.8112e-001 +3.0144e+000
363 0 +4.082789474e-006 -6.784999592e+001 -6.784999592e+001 +8.8135e-001 +3.0144e+000
377 0 +1.449076308e-006 -6.784999855e+001 -6.784999855e+001 +8.8130e-001 +3.0144e+000
386 0 +9.345431806e-008 -6.784999991e+001 -6.784999991e+001 +8.8147e-001 +3.0144e+000
450 0 +3.802443871e-008 -6.784999996e+001 -6.784999996e+001 +8.8173e-001 +3.0144e+000
456 0 +1.896538038e-008 -6.784999998e+001 -6.784999998e+001 +8.8172e-001 +3.0144e+000
468 0 +1.867078936e-009 -6.785000000e+001 -6.785000000e+001 +8.8163e-001 +3.0144e+000
% f evaluations | g evaluations | best noise-free fitness - Fopt (-3.639800000000e+002) + sum g_i+ | measured fitness | best measured fitness or single-digit g-values | x1 | x2...
1 0 +2.870397765e+006 +2.870033785e+006 +2.870033785e+006 +5.0000e+000 +5.0000e+000
4 0 +2.337262905e+005 +2.333623105e+005 +2.333623105e+005 -4.9291e+000 +3.6785e+000
6 0 +3.945236790e+003 +3.581256790e+003 +3.581256790e+003 +5.0000e+000 +3.2585e+000
8 0 +3.651245975e+003 +3.287265975e+003 +3.287265975e+003 +5.0000e+000 +3.2509e+000
10 0 +3.626021588e+003 +3.262041588e+003 +3.262041588e+003 +5.0000e+000 +3.2494e+000
23 0 +2.935823886e+002 -7.039761143e+001 -7.039761143e+001 -5.0000e+000 +3.2068e+000
32 0 +2.606860482e+002 -1.032939518e+002 -1.032939518e+002 -5.0000e+000 +3.2052e+000
33 0 +2.150529319e+002 -1.489270681e+002 -1.489270681e+002 +2.6775e+000 +3.2050e+000
35 0 +7.868384518e+001 -2.852961548e+002 -2.852961548e+002 +1.2680e+000 +3.1990e+000
38 0 +2.688350060e+001 -3.370964994e+002 -3.370964994e+002 +5.0000e+000 +3.1943e+000
39 0 +1.071212462e+001 -3.532678754e+002 -3.532678754e+002 +5.0000e+000 +3.1914e+000
80 0 +1.043759276e+001 -3.535424072e+002 -3.535424072e+002 +4.9481e+000 +3.1914e+000
88 0 +6.689160430e-001 -3.633110840e+002 -3.633110840e+002 +2.5965e+000 +3.1900e+000
126 0 +4.831960674e-001 -3.634968039e+002 -3.634968039e+002 +2.1205e+000 +3.1898e+000
138 0 +3.163887663e-001 -3.636636112e+002 -3.636636112e+002 +2.2135e+000 +3.1900e+000
143 0 +9.727562303e-002 -3.638827244e+002 -3.638827244e+002 +2.0438e+000 +3.1902e+000
152 0 +8.829797514e-002 -3.638917020e+002 -3.638917020e+002 +1.5214e+000 +3.1903e+000
168 0 +5.752098447e-002 -3.639224790e+002 -3.639224790e+002 +1.5824e+000 +3.1903e+000
169 0 +5.335801507e-002 -3.639266420e+002 -3.639266420e+002 +1.5910e+000 +3.1903e+000
187 0 +4.682534167e-002 -3.639331747e+002 -3.639331747e+002 +1.6057e+000 +3.1903e+000
210 0 +3.510583041e-002 -3.639448942e+002 -3.639448942e+002 +1.9874e+000 +3.1903e+000
221 0 +3.035852986e-002 -3.639496415e+002 -3.639496415e+002 +1.8285e+000 +3.1902e+000
237 0 +1.516674180e-002 -3.639648333e+002 -3.639648333e+002 +1.7870e+000 +3.1903e+000
239 0 +1.500868686e-002 -3.639649913e+002 -3.639649913e+002 +1.7565e+000 +3.1903e+000
248 0 +5.992247309e-003 -3.639740078e+002 -3.639740078e+002 +1.7541e+000 +3.1905e+000
256 0 +3.278244977e-003 -3.639767218e+002 -3.639767218e+002 +1.7519e+000 +3.1904e+000
266 0 +4.328174833e-005 -3.639799567e+002 -3.639799567e+002 +1.8111e+000 +3.1904e+000
286 0 +3.012758924e-005 -3.639799699e+002 -3.639799699e+002 +1.8111e+000 +3.1904e+000
300 0 +1.181224496e-005 -3.639799882e+002 -3.639799882e+002 +1.8104e+000 +3.1904e+000
309 0 +1.317095894e-006 -3.639799987e+002 -3.639799987e+002 +1.8111e+000 +3.1904e+000
326 0 +7.536445423e-007 -3.639799992e+002 -3.639799992e+002 +1.8114e+000 +3.1904e+000
392 0 +2.201270490e-007 -3.639799998e+002 -3.639799998e+002 +1.8113e+000 +3.1904e+000
406 0 +2.156929213e-008 -3.639800000e+002 -3.639800000e+002 +1.8113e+000 +3.1904e+000
452 0 +1.843221753e-008 -3.639800000e+002 -3.639800000e+002 +1.8113e+000 +3.1904e+000
454 0 +1.522050752e-008 -3.639800000e+002 -3.639800000e+002 +1.8113e+000 +3.1904e+000
482 0 +1.273713224e-008 -3.639800000e+002 -3.639800000e+002 +1.8113e+000 +3.1904e+000
501 0 +4.817820809e-009 -3.639800000e+002 -3.639800000e+002 +1.8113e+000 +3.1904e+000
% f evaluations | g evaluations | best noise-free fitness - Fopt (-1.865000000000e+001) + sum g_i+ | measured fitness | best measured fitness or single-digit g-values | x1 | x2...
1 0 +6.014793553e+007 +6.014791688e+007 +6.014791688e+007 -5.0000e+000 +5.0000e+000
2 0 +6.014791035e+007 +6.014789170e+007 +6.014789170e+007 +5.0000e+000 +5.0000e+000
3 0 +6.018392072e+006 +6.018373422e+006 +6.018373422e+006 -5.0000e+000 -5.0000e+000
7 0 +2.646391624e+004 +2.644526624e+004 +2.644526624e+004 +1.3671e+000 -2.3008e+000
9 0 +1.686407991e+003 +1.667757991e+003 +1.667757991e+003 +5.0000e+000 -2.4240e+000
11 0 +5.020590925e+002 +4.834090925e+002 +4.834090925e+002 +5.0000e+000 -2.4879e+000
37 0 +3.856373124e+001 +1.991373124e+001 +1.991373124e+001 +4.3911e+000 -2.4598e+000
43 0 +1.350319941e+001 -5.146800587e+000 -5.146800587e+000 +4.5725e+000 -2.4678e+000
79 0 +1.338930361e+001 -5.260696386e+000 -5.260696386e+000 +4.6108e+000 -2.4677e+000
92 0 +9.594193422e+000 -9.055806578e+000 -9.055806578e+000 +4.5860e+000 -2.4661e+000
114 0 +9.310624714e+000 -9.339375286e+000 -9.339375286e+000 +4.5890e+000 -2.4658e+000
145 0 +8.596111475e+000 -1.005388852e+001 -1.005388852e+001 +3.2086e+000 -2.4681e+000
151 0 +7.833495342e+000 -1.081650466e+001 -1.081650466e+001 +3.2717e+000 -2.4679e+000
152 0 +2.351476545e+000 -1.629852346e+001 -1.629852346e+001 +2.8832e+000 -2.4661e+000
153 0 +2.065990955e+000 -1.658400905e+001 -1.658400905e+001 +2.6891e+000 -2.4651e+000
160 0 +1.774185775e+000 -1.687581423e+001 -1.687581423e+001 +2.6056e+000 -2.4651e+000
180 0 +7.956136219e-001 -1.785438638e+001 -1.785438638e+001 +1.3264e+000 -2.4665e+000
186 0 +6.194269296e-001 -1.803057307e+001 -1.803057307e+001 +1.8920e+000 -2.4663e+000
187 0 +5.545258273e-001 -1.809547417e+001 -1.809547417e+001 +7.9329e-001 -2.4660e+000
206 0 +2.661793526e-001 -1.838382065e+001 -1.838382065e+001 +1.3750e+000 -2.4651e+000
247 0 +1.876924831e-001 -1.846230752e+001 -1.846230752e+001 +1.4220e+000 -2.4652e+000
254 0 +1.859707331e-002 -1.863140293e+001 -1.863140293e+001 +1.5937e+000 -2.4657e+000
263 0 +1.290513750e-002 -1.863709486e+001 -1.863709486e+001 +1.5489e+000 -2.4657e+000
265 0 +7.654644863e-003 -1.864234536e+001 -1.864234536e+001 +1.3750e+000 -2.4656e+000
274 0 +4.079660422e-003 -1.864592034e+001 -1.864592034e+001 +1.3975e+000 -2.4656e+000
277 0 +5.630401941e-004 -1.864943696e+001 -1.864943696e+001 +1.4461e+000 -2.4656e+000
290 0 +6.495001823e-005 -1.864993505e+001 -1.864993505e+001 +1.4697e+000 -2.4656e+000
315 0 +4.192208558e-005 -1.864995808e+001 -1.864995808e+001 +1.4615e+000 -2.4656e+000
358 0 +3.472546489e-005 -1.864996527e+001 -1.864996527e+001 +1.4714e+000 -2.4656e+000
377 0 +2.161158856e-005 -1.864997839e+001 -1.864997839e+001 +1.4684e+000 -2.4656e+000
399 0 +2.021738364e-005 -1.864997978e+001 -1.864997978e+001 +1.4681e+000 -2.4656e+000
427 0 +1.994738812e-005 -1.864998005e+001 -1.864998005e+001 +1.4680e+000 -2.4656e+000
432 0 +1.464736991e-005 -1.864998535e+001 -1.864998535e+001 +1.4688e+000 -2.4656e+000
437 0 +1.202254980e-005 -1.864998798e+001 -1.864998798e+001 +1.4687e+000 -2.4656e+000
443 0 +1.146303423e-005 -1.864998854e+001 -1.864998854e+001 +1.4683e+000 -2.4656e+000
450 0 +1.036645600e-005 -1.864998963e+001 -1.864998963e+001 +1.4685e+000 -2.4656e+000
455 0 +7.406787976e-006 -1.864999259e+001 -1.864999259e+001 +1.4683e+000 -2.4656e+000
459 0 +2.504864977e-006 -1.864999750e+001 -1.864999750e+001 +1.4687e+000 -2.4656e+000
467 0 +1.603803174e-006 -1.864999840e+001 -1.864999840e+001 +1.4684e+000 -2.4656e+000
468 0 +1.264718527e-006 -1.864999874e+001 -1.864999874e+001 +1.4682e+000 -2.4656e+000
480 0 +7.215091813e-007 -1.864999928e+001 -1.864999928e+001 +1.4676e+000 -2.4656e+000
486 0 +6.826604242e-007 -1.864999932e+001 -1.864999932e+001 +1.4677e+000 -2.4656e+000
488 0 +5.826384211e-007 -1.864999942e+001 -1.864999942e+001 +1.4666e+000 -2.4656e+000
489 0 +5.623040877e-008 -1.864999994e+001 -1.864999994e+001 +1.4673e+000 -2.4656e+000
507 0 +5.020200433e-008 -1.864999995e+001 -1.864999995e+001 +1.4673e+000 -2.4656e+000
520 0 +3.106551105e-008 -1.864999997e+001 -1.864999997e+001 +1.4670e+000 -2.4656e+000
528 0 +2.060371429e-009 -1.865000000e+001 -1.865000000e+001 +1.4672e+000 -2.4656e+000
% f evaluations | g evaluations | best noise-free fitness - Fopt (1.749200000000e+002) + sum g_i+ | measured fitness | best measured fitness or single-digit g-values | x1 | x2...
1 0 +5.100180152e+007 +5.100197644e+007 +5.100197644e+007 +5.0000e+000 +5.0000e+000
2 0 +5.100177724e+007 +5.100195216e+007 +5.100195216e+007 -5.0000e+000 +5.0000e+000
3 0 +9.599312105e+006 +9.599487025e+006 +9.599487025e+006 +5.0000e+000 -5.0000e+000
5 0 +6.232669135e+006 +6.232844055e+006 +6.232844055e+006 -3.1025e+000 -4.4253e+000
8 0 +9.000556847e+003 +9.175476847e+003 +9.175476847e+003 -5.0000e+000 -1.9439e+000
34 0 +5.773491642e+003 +5.948411642e+003 +5.948411642e+003 +5.0000e+000 -1.9279e+000
38 0 +5.741882450e+003 +5.916802450e+003 +5.916802450e+003 -2.5705e+000 -1.9279e+000
41 0 +4.668626741e+003 +4.843546741e+003 +4.843546741e+003 -1.5610e+000 -1.9201e+000
43 0 +2.217930522e+003 +2.392850522e+003 +2.392850522e+003 +4.1363e+000 -1.8888e+000
52 0 +6.066860260e+001 +2.355886026e+002 +2.355886026e+002 -8.4410e-001 -1.8371e+000
72 0 +4.385601933e+000 +1.793056019e+002 +1.793056019e+002 -7.3009e-001 -1.8469e+000
97 0 +3.398845534e+000 +1.783188455e+002 +1.783188455e+002 -2.3131e+000 -1.8433e+000
148 0 +2.115647013e+000 +1.770356470e+002 +1.770356470e+002 +3.9207e-001 -1.8448e+000
241 0 +6.798244716e-003 +1.749267982e+002 +1.749267982e+002 -1.1189e+000 -1.8449e+000
287 0 +1.396349986e-003 +1.749213963e+002 +1.749213963e+002 -1.1868e+000 -1.8448e+000
302 0 +1.355972319e-003 +1.749213560e+002 +1.749213560e+002 -1.1866e+000 -1.8448e+000
318 0 +3.587687643e-004 +1.749203588e+002 +1.749203588e+002 -1.1698e+000 -1.8448e+000
362 0 +2.384023652e-004 +1.749202384e+002 +1.749202384e+002 -1.1670e+000 -1.8448e+000
365 0 +1.922402967e-004 +1.749201922e+002 +1.749201922e+002 -1.1650e+000 -1.8448e+000
382 0 +1.556284319e-004 +1.749201556e+002 +1.749201556e+002 -1.1558e+000 -1.8448e+000
389 0 +8.455616342e-005 +1.749200846e+002 +1.749200846e+002 -1.1545e+000 -1.8448e+000
393 0 +6.462289943e-005 +1.749200646e+002 +1.749200646e+002 -1.1489e+000 -1.8448e+000
397 0 +3.463497589e-005 +1.749200346e+002 +1.749200346e+002 -1.1506e+000 -1.8448e+000
412 0 +3.317475918e-005 +1.749200332e+002 +1.749200332e+002 -1.1515e+000 -1.8448e+000
430 0 +1.180316119e-005 +1.749200118e+002 +1.749200118e+002 -1.1504e+000 -1.8448e+000
473 0 +1.152674295e-005 +1.749200115e+002 +1.749200115e+002 -1.1505e+000 -1.8448e+000
478 0 +1.005492723e-005 +1.749200101e+002 +1.749200101e+002 -1.1533e+000 -1.8448e+000
485 0 +6.056532754e-006 +1.749200061e+002 +1.749200061e+002 -1.1532e+000 -1.8448e+000
492 0 +4.605422532e-006 +1.749200046e+002 +1.749200046e+002 -1.1530e+000 -1.8448e+000
493 0 +1.133528940e-006 +1.749200011e+002 +1.749200011e+002 -1.1528e+000 -1.8448e+000
503 0 +3.396298496e-007 +1.749200003e+002 +1.749200003e+002 -1.1516e+000 -1.8448e+000
555 0 +2.781365538e-007 +1.749200003e+002 +1.749200003e+002 -1.1517e+000 -1.8448e+000
559 0 +2.411615014e-007 +1.749200002e+002 +1.749200002e+002 -1.1518e+000 -1.8448e+000
560 0 +3.445967423e-008 +1.749200000e+002 +1.749200000e+002 -1.1522e+000 -1.8448e+000
580 0 +2.605847271e-008 +1.749200000e+002 +1.749200000e+002 -1.1521e+000 -1.8448e+000
597 0 +1.547701345e-008 +1.749200000e+002 +1.749200000e+002 -1.1520e+000 -1.8448e+000
600 0 +1.343116196e-008 +1.749200000e+002 +1.749200000e+002 -1.1520e+000 -1.8448e+000
622 0 +2.364600959e-009 +1.749200000e+002 +1.749200000e+002 -1.1520e+000 -1.8448e+000
% f evaluations | g evaluations | best noise-free fitness - Fopt (-5.659600000000e+002) + sum g_i+ | measured fitness | best measured fitness or single-digit g-values | x1 | x2...
1 0 +2.239803992e+007 +2.239747396e+007 +2.239747396e+007 -5.0000e+000 +5.0000e+000
4 0 +1.337444355e+007 +1.337387759e+007 +1.337387759e+007 +4.8019e+000 +3.9448e+000
6 0 +3.692171255e+003 +3.126211255e+003 +3.126211255e+003 -5.0000e+000 +1.7092e-001
8 0 +3.293936666e+003 +2.727976666e+003 +2.727976666e+003 +3.9836e-001 +1.7616e-001
10 0 +3.034351985e+003 +2.468391985e+003 +2.468391985e+003 +4.2363e-001 +1.8008e-001
12 0 +2.938970589e+003 +2.373010589e+003 +2.373010589e+003 +5.2947e-001 +1.8155e-001
13 0 +5.599408866e+002 -6.019113412e+000 -6.019113412e+000 +4.0664e-001 +2.5868e-001
30 0 +1.764273108e+001 -5.483172689e+002 -5.483172689e+002 +3.7914e-001 +2.3982e-001
84 0 +9.090536554e+000 -5.568694634e+002 -5.568694634e+002 +1.6473e+000 +2.3741e-001
106 0 +7.171587977e+000 -5.587884120e+002 -5.587884120e+002 -1.8955e+000 +2.3835e-001
108 0 +6.976769514e+000 -5.589832305e+002 -5.589832305e+002 -1.8023e+000 +2.3836e-001
144 0 +3.631949736e+000 -5.623280503e+002 -5.623280503e+002 +2.8596e-001 +2.3466e-001
166 0 +2.978644044e+000 -5.629813560e+002 -5.629813560e+002 +3.0461e-001 +2.3492e-001
191 0 +8.967179615e-003 -5.659510328e+002 -5.659510328e+002 -9.4620e-001 +2.3609e-001
291 0 +3.108405072e-003 -5.659568916e+002 -5.659568916e+002 -9.4620e-001 +2.3606e-001
406 0 +3.044338805e-003 -5.659569557e+002 -5.659569557e+002 -9.4624e-001 +2.3605e-001
414 0 +2.309116249e-003 -5.659576909e+002 -5.659576909e+002 -9.2419e-001 +2.3596e-001
424 0 +1.365668827e-003 -5.659586343e+002 -5.659586343e+002 -9.4289e-001 +2.3597e-001
443 0 +9.248869958e-004 -5.659590751e+002 -5.659590751e+002 -9.6785e-001 +2.3597e-001
456 0 +6.190173455e-004 -5.659593810e+002 -5.659593810e+002 -9.6518e-001 +2.3597e-001
461 0 +3.181984550e-005 -5.659599682e+002 -5.659599682e+002 -9.5190e-001 +2.3600e-001
490 0 +1.988380063e-006 -5.659599980e+002 -5.659599980e+002 -9.5677e-001 +2.3600e-001
540 0 +1.668093319e-006 -5.659599983e+002 -5.659599983e+002 -9.5770e-001 +2.3600e-001
541 0 +1.082256972e-006 -5.659599989e+002 -5.659599989e+002 -9.5771e-001 +2.3600e-001
564 0 +9.388015769e-007 -5.659599991e+002 -5.659599991e+002 -9.5743e-001 +2.3600e-001
571 0 +5.937414471e-007 -5.659599994e+002 -5.659599994e+002 -9.5741e-001 +2.3600e-001
579 0 +8.509346117e-008 -5.659599999e+002 -5.659599999e+002 -9.5745e-001 +2.3600e-001
582 0 +3.404932158e-008 -5.659600000e+002 -5.659600000e+002 -9.5757e-001 +2.3600e-001
590 0 +2.211550054e-009 -5.659600000e+002 -5.659600000e+002 -9.5759e-001 +2.3600e-001
% f evaluations | g evaluations | best noise-free fitness - Fopt (7.095000000000e+001) + sum g_i+ | measured fitness | best measured fitness or single-digit g-values | x1 | x2...
1 0 +1.523763258e+007 +1.523770353e+007 +1.523770353e+007 +5.0000e+000 +5.0000e+000
4 0 +1.523762357e+007 +1.523769452e+007 +1.523769452e+007 +3.9137e+000 +5.0000e+000
5 0 +7.617635328e+006 +7.617706278e+006 +7.617706278e+006 -4.6024e+000 +3.7643e+000
6 0 +7.738079889e+003 +7.809029889e+003 +7.809029889e+003 +4.6557e-001 +9.8542e-001
14 0 +7.470884407e+003 +7.541834407e+003 +7.541834407e+003 -8.8941e-002 +9.8667e-001
16 0 +7.375716780e+003 +7.446666780e+003 +7.446666780e+003 -1.1395e-001 +9.8713e-001
22 0 +3.013791095e+002 +3.723291095e+002 +3.723291095e+002 -2.2191e-001 +1.0621e+000
34 0 +2.237263015e+002 +2.946763015e+002 +2.946763015e+002 +2.5401e+000 +1.0647e+000
52 0 +1.245296424e+002 +1.954796424e+002 +1.954796424e+002 +2.2904e+000 +1.0903e+000
60 0 +3.894663028e+000 +7.484466303e+001 +7.484466303e+001 +5.8655e-001 +1.0771e+000
72 0 +3.177493189e+000 +7.412749319e+001 +7.412749319e+001 +1.0256e+000 +1.0774e+000
83 0 +1.921003170e+000 +7.287100317e+001 +7.287100317e+001 +9.9662e-001 +1.0779e+000
120 0 +1.365232244e+000 +7.231523224e+001 +7.231523224e+001 +6.0489e-001 +1.0780e+000
136 0 +9.564124429e-001 +7.190641244e+001 +7.190641244e+001 +8.9572e-001 +1.0782e+000
142 0 +5.718971966e-001 +7.152189720e+001 +7.152189720e+001 +5.2694e-001 +1.0784e+000
179 0 +4.885216138e-001 +7.143852161e+001 +7.143852161e+001 +5.2694e-001 +1.0785e+000
188 0 +1.104758083e-001 +7.106047581e+001 +7.106047581e+001 +7.0707e-001 +1.0789e+000
190 0 +2.485211061e-002 +7.097485211e+001 +7.097485211e+001 +4.7530e-001 +1.0793e+000
216 0 +2.159303897e-002 +7.097159304e+001 +7.097159304e+001 +5.4387e-001 +1.0791e+000
218 0 +1.311233795e-002 +7.096311234e+001 +7.096311234e+001 +5.0163e-001 +1.0792e+000
221 0 +6.688116442e-003 +7.095668812e+001 +7.095668812e+001 +5.3619e-001 +1.0792e+000
241 0 +3.990726114e-003 +7.095399073e+001 +7.095399073e+001 +5.5301e-001 +1.0792e+000
264 0 +3.768620883e-003 +7.095376862e+001 +7.095376862e+001 +5.5179e-001 +1.0792e+000
269 0 +2.027447598e-003 +7.095202745e+001 +7.095202745e+001 +5.7508e-001 +1.0792e+000
272 0 +1.988509073e-004 +7.095019885e+001 +7.095019885e+001 +6.1250e-001 +1.0792e+000
276 0 +1.685576705e-004 +7.095016856e+001 +7.095016856e+001 +6.0902e-001 +1.0792e+000
299 0 +1.232484085e-004 +7.095012325e+001 +7.095012325e+001 +6.0837e-001 +1.0792e+000
301 0 +6.458038018e-005 +7.095006458e+001 +7.095006458e+001 +6.0578e-001 +1.0792e+000
322 0 +3.772420087e-005 +7.095003772e+001 +7.095003772e+001 +6.0860e-001 +1.0792e+000
357 0 +2.880489541e-005 +7.095002880e+001 +7.095002880e+001 +6.1044e-001 +1.0792e+000
384 0 +2.028579964e-005 +7.095002029e+001 +7.095002029e+001 +6.1795e-001 +1.0792e+000
393 0 +9.078960929e-006 +7.095000908e+001 +7.095000908e+001 +6.1407e-001 +1.0792e+000
397 0 +7.367191813e-006 +7.095000737e+001 +7.095000737e+001 +6.1249e-001 +1.0792e+000
398 0 +5.063351693e-006 +7.095000506e+001 +7.095000506e+001 +6.1256e-001 +1.0792e+000
402 0 +1.704010231e-006 +7.095000170e+001 +7.095000170e+001 +6.1331e-001 +1.0792e+000
404 0 +5.791578843e-007 +7.095000058e+001 +7.095000058e+001 +6.1376e-001 +1.0792e+000
409 0 +2.803807035e-007 +7.095000028e+001 +7.095000028e+001 +6.1452e-001 +1.0792e+000
413 0 +2.747874248e-007 +7.095000027e+001 +7.095000027e+001 +6.1453e-001 +1.0792e+000
423 0 +4.859735725e-008 +7.095000005e+001 +7.095000005e+001 +6.1419e-001 +1.0792e+000
458 0 +4.757005456e-008 +7.095000005e+001 +7.095000005e+001 +6.1420e-001 +1.0792e+000
459 0 +1.525675941e-008 +7.095000002e+001 +7.095000002e+001 +6.1435e-001 +1.0792e+000
496 0 +8.177110544e-009 +7.095000001e+001 +7.095000001e+001 +6.1431e-001 +1.0792e+000
% f evaluations | g evaluations | best noise-free fitness - Fopt (4.728000000000e+001) + sum g_i+ | measured fitness | best measured fitness or single-digit g-values | x1 | x2...
1 0 +3.377697497e+007 +3.377702225e+007 +3.377702225e+007 -5.0000e+000 +5.0000e+000
2 0 +3.377690289e+007 +3.377695017e+007 +3.377695017e+007 +5.0000e+000 +5.0000e+000
3 0 +1.764733887e+007 +1.764738615e+007 +1.764738615e+007 -5.0000e+000 -5.0000e+000
5 0 +1.728251592e+007 +1.728256320e+007 +1.728256320e+007 +4.3433e+000 -4.9545e+000
6 0 +5.260820132e+005 +5.261292932e+005 +5.261292932e+005 +5.0000e+000 -2.2293e-002
8 0 +2.701724294e+001 +7.429724294e+001 +7.429724294e+001 +5.0000e+000 -8.0165e-001
12 0 +9.274120638e+000 +5.655412064e+001 +5.655412064e+001 +5.0000e+000 -8.0342e-001
26 0 +3.642890478e+000 +5.092289048e+001 +5.092289048e+001 +4.7643e+000 -8.0476e-001
27 0 +3.213995396e+000 +5.049399540e+001 +5.049399540e+001 +4.8110e+000 -8.0499e-001
30 0 +6.736642030e-001 +4.795366420e+001 +4.795366420e+001 +4.4997e+000 -8.0675e-001
60 0 +6.604025129e-001 +4.794040251e+001 +4.794040251e+001 +4.4391e+000 -8.0677e-001
77 0 +3.624959103e-001 +4.764249591e+001 +4.764249591e+001 +3.2164e+000 -8.0605e-001
91 0 +3.175306111e-001 +4.759753061e+001 +4.759753061e+001 +3.3066e+000 -8.0602e-001
96 0 +1.104445650e-001 +4.739044456e+001 +4.739044456e+001 +3.4148e+000 -8.0623e-001
107 0 +1.058586912e-001 +4.738585869e+001 +4.738585869e+001 +3.7673e+000 -8.0672e-001
123 0 +4.850015906e-002 +4.732850016e+001 +4.732850016e+001 +3.8424e+000 -8.0657e-001
150 0 +2.337489190e-002 +4.730337489e+001 +4.730337489e+001 +3.8153e+000 -8.0649e-001
153 0 +1.455808098e-002 +4.729455808e+001 +4.729455808e+001 +3.7450e+000 -8.0630e-001
220 0 +4.632060672e-003 +4.728463206e+001 +4.728463206e+001 +3.7521e+000 -8.0637e-001
238 0 +1.612323418e-003 +4.728161232e+001 +4.728161232e+001 +3.6632e+000 -8.0638e-001
260 0 +1.178824767e-003 +4.728117882e+001 +4.728117882e+001 +3.6826e+000 -8.0637e-001
320 0 +6.314722278e-004 +4.728063147e+001 +4.728063147e+001 +3.6885e+000 -8.0638e-001
336 0 +4.932652091e-004 +4.728049327e+001 +4.728049327e+001 +3.6834e+000 -8.0638e-001
337 0 +9.554444579e-005 +4.728009554e+001 +4.728009554e+001 +3.7001e+000 -8.0641e-001
343 0 +8.923311916e-005 +4.728008923e+001 +4.728008923e+001 +3.6997e+000 -8.0641e-001
356 0 +8.416723949e-005 +4.728008417e+001 +4.728008417e+001 +3.6860e+000 -8.0639e-001
360 0 +5.873360756e-005 +4.728005873e+001 +4.728005873e+001 +3.6879e+000 -8.0640e-001
367 0 +5.611500955e-005 +4.728005612e+001 +4.728005612e+001 +3.6993e+000 -8.0639e-001
371 0 +5.189637354e-005 +4.728005190e+001 +4.728005190e+001 +3.6876e+000 -8.0640e-001
396 0 +4.928819993e-005 +4.728004929e+001 +4.728004929e+001 +3.6878e+000 -8.0640e-001
397 0 +3.041343798e-005 +4.728003041e+001 +4.728003041e+001 +3.6987e+000 -8.0640e-001
406 0 +2.337322631e-005 +4.728002337e+001 +4.728002337e+001 +3.6904e+000 -8.0640e-001
411 0 +4.024893030e-006 +4.728000402e+001 +4.728000402e+001 +3.6924e+000 -8.0640e-001
425 0 +3.045643560e-006 +4.728000305e+001 +4.728000305e+001 +3.6927e+000 -8.0640e-001
467 0 +2.080091782e-006 +4.728000208e+001 +4.728000208e+001 +3.6936e+000 -8.0640e-001
468 0 +2.630886939e-007 +4.728000026e+001 +4.728000026e+001 +3.6947e+000 -8.0640e-001
471 0 +1.903085689e-008 +4.728000002e+001 +4.728000002e+001 +3.6943e+000 -8.0640e-001
475 0 +1.800669480e-008 +4.728000002e+001 +4.728000002e+001 +3.6943e+000 -8.0640e-001
503 0 +1.721718945e-008 +4.728000002e+001 +4.728000002e+001 +3.6943e+000 -8.0640e-001
533 0 +1.549087614e-008 +4.728000002e+001 +4.728000002e+001 +3.6944e+000 -8.0640e-001
541 0 +2.816449296e-009 +4.728000000e+001 +4.728000000e+001 +3.6944e+000 -8.0640e-001
% f evaluations | g evaluations | best noise-free fitness - Fopt (-5.688800000000e+002) + sum g_i+ | measured fitness | best measured fitness or single-digit g-values | x1 | x2...
1 0 +6.107925124e+007 +6.107868236e+007 +6.107868236e+007 -5.0000e+000 +5.0000e+000
2 0 +6.107920791e+007 +6.107863903e+007 +6.107863903e+007 +5.0000e+000 +5.0000e+000
3 0 +5.680352641e+006 +5.679783761e+006 +5.679783761e+006 -5.0000e+000 -5.0000e+000
6 0 +5.607343485e+005 +5.601654685e+005 +5.601654685e+005 -3.2898e+000 -1.7194e+000
7 0 +5.122098883e+003 +4.553218883e+003 +4.553218883e+003 +2.0926e+000 -2.6213e+000
9 0 +3.174368578e+003 +2.605488578e+003 +2.605488578e+003 -5.0000e+000 -2.5997e+000
39 0 +1.792611123e+003 +1.223731123e+003 +1.223731123e+003 +5.0000e+000 -2.5818e+000
43 0 +3.012746314e+002 -2.676053686e+002 -2.676053686e+002 +3.5696e+000 -2.5243e+000
50 0 +1.021523244e+002 -4.667276756e+002 -4.667276756e+002 -3.2656e+000 -2.5341e+000
59 0 +3.185989996e+001 -5.370201000e+002 -5.370201000e+002 -3.2847e+000 -2.5437e+000
103 0 +2.818719493e+001 -5.406928051e+002 -5.406928051e+002 -3.0225e+000 -2.5419e+000
105 0 +2.814621941e+001 -5.407337806e+002 -5.407337806e+002 -2.9836e+000 -2.5431e+000
126 0 +2.395514708e+001 -5.449248529e+002 -5.449248529e+002 -2.2731e+000 -2.5409e+000
127 0 +2.287015224e+001 -5.460098478e+002 -5.460098478e+002 -2.3414e+000 -2.5429e+000
143 0 +2.115160071e+001 -5.477283993e+002 -5.477283993e+002 -2.1580e+000 -2.5422e+000
150 0 +1.506844587e+001 -5.538115541e+002 -5.538115541e+002 -1.2039e+000 -2.5412e+000
166 0 +1.459612421e+001 -5.542838758e+002 -5.542838758e+002 -9.8269e-001 -2.5441e+000
169 0 +1.042204113e+001 -5.584579589e+002 -5.584579589e+002 -7.7870e-001 -2.5428e+000
187 0 +5.092180716e+000 -5.637878193e+002 -5.637878193e+002 +2.5647e-001 -2.5429e+000
200 0 +4.477806491e+000 -5.644021935e+002 -5.644021935e+002 +3.9056e-001 -2.5420e+000
202 0 +4.299692382e+000 -5.645803076e+002 -5.645803076e+002 +4.1232e-001 -2.5422e+000
203 0 +4.259963571e+000 -5.646200364e+002 -5.646200364e+002 +4.2837e-001 -2.5426e+000
237 0 +3.766641355e+000 -5.651133586e+002 -5.651133586e+002 +1.3954e+000 -2.5440e+000
245 0 +3.003520738e+000 -5.658764793e+002 -5.658764793e+002 +1.1549e+000 -2.5434e+000
261 0 +2.909795849e+000 -5.659702042e+002 -5.659702042e+002 +1.3604e+000 -2.5437e+000
267 0 +4.010091111e-001 -5.684789909e+002 -5.684789909e+002 +2.2133e+000 -2.5429e+000
272 0 +3.331483387e-001 -5.685468517e+002 -5.685468517e+002 +2.5821e+000 -2.5429e+000
291 0 +2.079467980e-001 -5.686720532e+002 -5.686720532e+002 +2.0308e+000 -2.5425e+000
310 0 +1.211592214e-001 -5.687588408e+002 -5.687588408e+002 +2.1529e+000 -2.5425e+000
330 0 +1.192508776e-001 -5.687607491e+002 -5.687607491e+002 +2.1565e+000 -2.5425e+000
331 0 +4.106717840e-002 -5.688389328e+002 -5.688389328e+002 +2.2902e+000 -2.5425e+000
354 0 +1.988115623e-002 -5.688601188e+002 -5.688601188e+002 +2.3681e+000 -2.5425e+000
359 0 +1.276335212e-002 -5.688672366e+002 -5.688672366e+002 +2.3821e+000 -2.5425e+000
369 0 +4.468652011e-003 -5.688755313e+002 -5.688755313e+002 +2.4115e+000 -2.5424e+000
388 0 +2.854408479e-003 -5.688771456e+002 -5.688771456e+002 +2.4420e+000 -2.5424e+000
390 0 +2.292621154e-003 -5.688777074e+002 -5.688777074e+002 +2.4268e+000 -2.5424e+000
396 0 +2.252905334e-003 -5.688777471e+002 -5.688777471e+002 +2.4272e+000 -2.5424e+000
399 0 +1.934769031e-003 -5.688780652e+002 -5.688780652e+002 +2.4310e+000 -2.5424e+000
404 0 +2.072291247e-004 -5.688797928e+002 -5.688797928e+002 +2.4854e+000 -2.5424e+000
450 0 +1.864804744e-004 -5.688798135e+002 -5.688798135e+002 +2.4819e+000 -2.5424e+000
452 0 +1.165047896e-004 -5.688798835e+002 -5.688798835e+002 +2.4774e+000 -2.5424e+000
477 0 +9.632866613e-005 -5.688799037e+002 -5.688799037e+002 +2.4796e+000 -2.5424e+000
499 0 +4.078216375e-005 -5.688799592e+002 -5.688799592e+002 +2.4739e+000 -2.5424e+000
511 0 +4.230577815e-006 -5.688799958e+002 -5.688799958e+002 +2.4721e+000 -2.5424e+000
524 0 +3.077770202e-006 -5.688799969e+002 -5.688799969e+002 +2.4721e+000 -2.5424e+000
535 0 +2.886489142e-006 -5.688799971e+002 -5.688799971e+002 +2.4720e+000 -2.5424e+000
538 0 +3.058897846e-007 -5.688799997e+002 -5.688799997e+002 +2.4725e+000 -2.5424e+000
601 0 +3.004390692e-008 -5.688800000e+002 -5.688800000e+002 +2.4720e+000 -2.5424e+000
602 0 +1.953867468e-008 -5.688800000e+002 -5.688800000e+002 +2.4719e+000 -2.5424e+000
622 0 +1.138005246e-009 -5.688800000e+002 -5.688800000e+002 +2.4720e+000 -2.5424e+000
% f evaluations | g evaluations | best noise-free fitness - Fopt (2.069000000000e+001) + sum g_i+ | measured fitness | best measured fitness or single-digit g-values | x1 | x2...
1 0 +2.309392761e+007 +2.309394830e+007 +2.309394830e+007 +5.0000e+000 +5.0000e+000
6 0 +2.073285067e+007 +2.073287136e+007 +2.073287136e+007 -2.4324e+000 +4.7156e+000
7 0 +1.245699691e+003 +1.266389691e+003 +1.266389691e+003 +2.9482e+000 +1.2010e-001
34 0 +8.226227584e+002 +8.433127584e+002 +8.433127584e+002 -2.2902e+000 +1.2583e-001
49 0 +2.610378150e+002 +2.817278150e+002 +2.817278150e+002 +5.0000e+000 +1.3785e-001
66 0 +6.039749653e+000 +2.672974965e+001 +2.672974965e+001 +2.6511e+000 +1.5137e-001
88 0 +5.250005136e-001 +2.121500051e+001 +2.121500051e+001 +3.9131e+000 +1.5287e-001
134 0 +4.813947412e-001 +2.117139474e+001 +2.117139474e+001 +4.0296e+000 +1.5426e-001
161 0 +4.185141689e-001 +2.110851417e+001 +2.110851417e+001 +4.1277e+000 +1.5416e-001
164 0 +3.456370819e-001 +2.103563708e+001 +2.103563708e+001 +4.2756e+000 +1.5396e-001
176 0 +1.609845184e-001 +2.085098452e+001 +2.085098452e+001 +4.1865e+000 +1.5344e-001
232 0 +1.323860998e-001 +2.082238610e+001 +2.082238610e+001 +3.7918e+000 +1.5395e-001
236 0 +9.371772047e-002 +2.078371772e+001 +2.078371772e+001 +3.8377e+000 +1.5391e-001
239 0 +5.602984441e-002 +2.074602984e+001 +2.074602984e+001 +3.8364e+000 +1.5385e-001
243 0 +5.252369861e-003 +2.069525237e+001 +2.069525237e+001 +3.7571e+000 +1.5355e-001
249 0 +4.677586421e-003 +2.069467759e+001 +2.069467759e+001 +3.7597e+000 +1.5355e-001
301 0 +3.323754200e-003 +2.069332375e+001 +2.069332375e+001 +3.7836e+000 +1.5365e-001
303 0 +1.705661713e-004 +2.069017057e+001 +2.069017057e+001 +3.8108e+000 +1.5359e-001
330 0 +4.798697610e-006 +2.069000480e+001 +2.069000480e+001 +3.8053e+000 +1.5360e-001
377 0 +2.990977332e-006 +2.069000299e+001 +2.069000299e+001 +3.8054e+000 +1.5360e-001
394 0 +2.238349140e-006 +2.069000224e+001 +2.069000224e+001 +3.8055e+000 +1.5360e-001
406 0 +7.968440094e-007 +2.069000080e+001 +2.069000080e+001 +3.8053e+000 +1.5360e-001
428 0 +7.765632866e-007 +2.069000078e+001 +2.069000078e+001 +3.8051e+000 +1.5360e-001
430 0 +5.942950771e-007 +2.069000059e+001 +2.069000059e+001 +3.8050e+000 +1.5360e-001
468 0 +5.564622576e-007 +2.069000056e+001 +2.069000056e+001 +3.8054e+000 +1.5360e-001
470 0 +2.280022713e-007 +2.069000023e+001 +2.069000023e+001 +3.8053e+000 +1.5360e-001
472 0 +1.946104611e-007 +2.069000019e+001 +2.069000019e+001 +3.8053e+000 +1.5360e-001
490 0 +1.142319555e-007 +2.069000011e+001 +2.069000011e+001 +3.8057e+000 +1.5360e-001
493 0 +5.527060765e-008 +2.069000006e+001 +2.069000006e+001 +3.8058e+000 +1.5360e-001
525 0 +3.128025128e-008 +2.069000003e+001 +2.069000003e+001 +3.8058e+000 +1.5360e-001
529 0 +1.569626917e-008 +2.069000002e+001 +2.069000002e+001 +3.8057e+000 +1.5360e-001
530 0 +9.748749363e-009 +2.069000001e+001 +2.069000001e+001 +3.8056e+000 +1.5360e-001
% f evaluations | g evaluations | best noise-free fitness - Fopt (5.616700000000e+002) + sum g_i+ | measured fitness | best measured fitness or single-digit g-values | x1 | x2...
1 0 +2.556828739e+007 +2.556884906e+007 +2.556884906e+007 -5.0000e+000 +5.0000e+000
3 0 +2.305522772e+007 +2.305578939e+007 +2.305578939e+007 -5.0000e+000 -5.0000e+000
4 0 +8.866253632e+005 +8.871870332e+005 +8.871870332e+005 -5.0000e+000 +8.4824e-001
7 0 +1.244854584e+001 +5.741185458e+002 +5.741185458e+002 -5.0000e+000 -1.2135e-001
9 0 +1.120852775e+001 +5.728785278e+002 +5.728785278e+002 -5.0000e+000 -1.2080e-001
11 0 +1.068037222e+001 +5.723503722e+002 +5.723503722e+002 -5.0000e+000 -1.2026e-001
59 0 +3.373539006e+000 +5.650435390e+002 +5.650435390e+002 +2.0364e-001 -1.1990e-001
118 0 +2.277522257e+000 +5.639475223e+002 +5.639475223e+002 -2.4840e+000 -1.1858e-001
122 0 +7.049352862e-001 +5.623749353e+002 +5.623749353e+002 -2.4840e+000 -1.1958e-001
148 0 +6.834418544e-001 +5.623534419e+002 +5.623534419e+002 -2.3283e+000 -1.2055e-001
173 0 +5.554934108e-001 +5.622254934e+002 +5.622254934e+002 -8.9423e-001 -1.1990e-001
209 0 +3.203502026e-002 +5.617020350e+002 +5.617020350e+002 -1.7991e+000 -1.2015e-001
241 0 +9.939251805e-003 +5.616799393e+002 +5.616799393e+002 -1.7653e+000 -1.1992e-001
244 0 +4.315609161e-003 +5.616743156e+002 +5.616743156e+002 -1.7273e+000 -1.1994e-001
275 0 +3.164490830e-003 +5.616731645e+002 +5.616731645e+002 -1.7241e+000 -1.1995e-001
291 0 +1.933629973e-003 +5.616719336e+002 +5.616719336e+002 -1.7378e+000 -1.2002e-001
295 0 +1.441162592e-003 +5.616714412e+002 +5.616714412e+002 -1.7364e+000 -1.2000e-001
316 0 +1.166123171e-003 +5.616711661e+002 +5.616711661e+002 -1.7276e+000 -1.2002e-001
326 0 +8.357674996e-004 +5.616708358e+002 +5.616708358e+002 -1.7231e+000 -1.2002e-001
335 0 +4.638218396e-004 +5.616704638e+002 +5.616704638e+002 -1.7103e+000 -1.2002e-001
350 0 +1.074869738e-005 +5.616700107e+002 +5.616700107e+002 -1.7029e+000 -1.2000e-001
357 0 +8.376857863e-006 +5.616700084e+002 +5.616700084e+002 -1.6983e+000 -1.2000e-001
398 0 +2.263642386e-006 +5.616700023e+002 +5.616700023e+002 -1.7014e+000 -1.2000e-001
416 0 +7.819417078e-007 +5.616700008e+002 +5.616700008e+002 -1.7005e+000 -1.2000e-001
437 0 +3.760778782e-007 +5.616700004e+002 +5.616700004e+002 -1.7002e+000 -1.2000e-001
444 0 +2.677605835e-007 +5.616700003e+002 +5.616700003e+002 -1.7003e+000 -1.2000e-001
457 0 +1.502745590e-007 +5.616700002e+002 +5.616700002e+002 -1.7006e+000 -1.2000e-001
470 0 +1.685759798e-008 +5.616700000e+002 +5.616700000e+002 -1.7009e+000 -1.2000e-001
487 0 +1.639386937e-008 +5.616700000e+002 +5.616700000e+002 -1.7009e+000 -1.2000e-001
505 0 +4.467779036e-009 +5.616700000e+002 +5.616700000e+002 -1.7008e+000 -1.2000e-001
