% f evaluations | g evaluations | best noise-free fitness - Fopt (-4.620900000000e+002) + sum g_i+ | measured fitness | best measured fitness or single-digit g-values | x1 | x2...
1 0 +7.220110791e+002 +2.599210791e+002 +2.599210791e+002 +5.0000e+000 -5.0000e+000 -5.0000e+000
2 0 +6.732351876e+002 +2.111451876e+002 +2.111451876e+002 -5.0000e+000 -5.0000e+000 -5.0000e+000
3 0 +5.975983875e+002 +1.355083875e+002 +1.355083875e+002 +5.0000e+000 +5.0000e+000 -5.0000e+000
4 0 +4.142755489e+002 -4.781445112e+001 -4.781445112e+001 +5.0000e+000 -5.0000e+000 +5.0000e+000
5 0 +2.410869657e+002 -2.210030343e+002 -2.210030343e+002 -5.0000e+000 +5.0000e+000 +5.0000e+000
6 0 +1.843775351e+002 -2.777124649e+002 -2.777124649e+002 -3.3234e+000 +3.3234e+000 +5.0000e+000
8 0 +1.057544097e+002 -3.563355903e+002 -3.563355903e+002 +4.3211e+000 +3.7357e+000 +9.5020e-001
10 0 +7.652004681e+001 -3.855699532e+002 -3.855699532e+002 -3.4563e+000 +4.7440e+000 +3.7122e+000
11 0 +3.261660098e+001 -4.294733990e+002 -4.294733990e+002 -1.6442e+000 +1.6290e+000 +1.4349e+000
27 0 +3.132863439e+001 -4.307613656e+002 -4.307613656e+002 -1.3317e+000 +2.1080e+000 +1.4442e+000
41 0 +2.433428780e+001 -4.377557122e+002 -4.377557122e+002 -1.9059e+000 +1.7453e+000 +2.8227e+000
48 0 +2.336609485e+001 -4.387239052e+002 -4.387239052e+002 -1.6523e+000 +1.8294e+000 +2.8163e+000
54 0 +1.578429891e+001 -4.463057011e+002 -4.463057011e+002 -1.3343e+000 +1.8922e+000 +2.8295e+000
71 0 +1.524422952e+001 -4.468457705e+002 -4.468457705e+002 -1.3656e+000 +1.8841e+000 +2.8292e+000
76 0 +1.412277367e+001 -4.479672263e+002 -4.479672263e+002 -4.0968e+000 +1.7513e+000 +2.2684e+000
151 0 +1.359957671e+001 -4.484904233e+002 -4.484904233e+002 -2.8747e-001 +2.3671e+000 +2.9117e+000
220 0 +9.999146985e+000 -4.520908530e+002 -4.520908530e+002 -2.2880e+000 +1.8181e+000 +2.6422e+000
320 0 +3.201106612e+000 -4.588888934e+002 -4.588888934e+002 -2.2653e+000 +1.6770e+000 +2.5824e+000
366 0 +2.651504306e+000 -4.594384957e+002 -4.594384957e+002 -2.2894e+000 +1.6947e+000 +2.5717e+000
407 0 +1.995710186e+000 -4.600942898e+002 -4.600942898e+002 -2.3386e+000 +1.7036e+000 +2.5775e+000
468 0 +1.994476831e+000 -4.600955232e+002 -4.600955232e+002 -2.3378e+000 +1.7025e+000 +2.5767e+000
876 0 +1.031866479e+000 -4.610581335e+002 -4.610581335e+002 -2.3300e+000 +1.7023e+000 +2.2166e+000
894 0 +1.008624845e+000 -4.610813752e+002 -4.610813752e+002 -2.3408e+000 +1.7023e+000 +2.2166e+000
921 0 +9.963104107e-001 -4.610936896e+002 -4.610936896e+002 -2.3389e+000 +1.7029e+000 +2.2140e+000
1383 0 +8.950954232e-003 -4.620810490e+002 -4.620810490e+002 -2.3408e+000 +2.3038e+000 +2.2136e+000
1660 0 +8.618794538e-003 -4.620813812e+002 -4.620813812e+002 -2.3408e+000 +2.2965e+000 +2.2136e+000
1686 0 +1.967450885e-005 -4.620899803e+002 -4.620899803e+002 -2.3408e+000 +2.2998e+000 +2.2136e+000
1701 0 +7.471373181e-006 -4.620899925e+002 -4.620899925e+002 -2.3408e+000 +2.3001e+000 +2.2136e+000
1762 0 +4.274669038e-006 -4.620899957e+002 -4.620899957e+002 -2.3408e+000 +2.3001e+000 +2.2136e+000
1786 0 +2.600201526e-006 -4.620899974e+002 -4.620899974e+002 -2.3408e+000 +2.2999e+000 +2.2136e+000
1790 0 +2.307427849e-008 -4.620900000e+002 -4.620900000e+002 -2.3408e+000 +2.3000e+000 +2.2136e+000
1825 0 +2.278085276e-008 -4.620900000e+002 -4.620900000e+002 -2.3408e+000 +2.3000e+000 +2.2136e+000
1943 0 +1.614506573e-008 -4.620900000e+002 -4.620900000e+002 -2.3408e+000 +2.3000e+000 +2.2136e+000
1950 0 +5.761876309e-009 -4.620900000e+002 -4.620900000e+002 -2.3408e+000 +2.3000e+000 +2.2136e+000
% f evaluations | g evaluations | best noise-free fitness - Fopt (7.766000000000e+001) + sum g_i+ | measured fitness | best measured fitness or single-digit g-values | x1 | x2...
1 0 +2.677290419e+002 +3.453890419e+002 +3.453890419e+002 -5.0000e+000 -5.0000e+000 -5.0000e+000
2 0 +2.383601752e+002 +3.160201752e+002 +3.160201752e+002 +5.0000e+000 -5.0000e+000 -5.0000e+000
6 0 +1.853572674e+002 +2.630172674e+002 +2.630172674e+002 -2.9083e+000 -2.3970e+000 -5.0000e+000
7 0 +8.470875600e+001 +1.623687560e+002 +1.623687560e+002 -1.7437e+000 -3.1745e+000 -2.9573e+000
8 0 +8.097266752e+001 +1.586326675e+002 +1.586326675e+002 +5.0000e+000 -1.4418e+000 -3.2848e+000
13 0 +7.222423045e+001 +1.498842304e+002 +1.498842304e+002 +4.4908e+000 -1.5378e+000 -3.3800e+000
36 0 +5.240217129e+001 +1.300621713e+002 +1.300621713e+002 +1.3865e-001 -2.1835e+000 -2.2693e+000
45 0 +4.392056912e+001 +1.215805691e+002 +1.215805691e+002 +1.5413e+000 -1.5155e+000 -2.6361e+000
47 0 +3.355412762e+001 +1.112141276e+002 +1.112141276e+002 -6.2195e-001 -1.5110e+000 -2.1567e+000
63 0 +2.189203653e+001 +9.955203653e+001 +9.955203653e+001 -7.6051e-001 -1.4775e+000 -2.2266e+000
104 0 +1.745887975e+001 +9.511887975e+001 +9.511887975e+001 +2.2975e+000 -1.5846e+000 -1.1894e+000
133 0 +1.577583330e+001 +9.343583330e+001 +9.343583330e+001 +1.4428e+000 -2.3856e+000 -8.4228e-001
165 0 +1.426094684e+001 +9.192094684e+001 +9.192094684e+001 +1.4898e+000 -2.4126e+000 -8.8097e-001
204 0 +1.174217775e+001 +8.940217775e+001 +8.940217775e+001 +1.3863e+000 -2.4369e+000 -8.9323e-001
254 0 +1.099818613e+001 +8.865818613e+001 +8.865818613e+001 +3.2154e-001 -1.9178e+000 -1.5828e+000
293 0 +1.022129112e+001 +8.788129112e+001 +8.788129112e+001 +3.7454e-001 -1.9290e+000 -1.5656e+000
336 0 +5.491439952e+000 +8.315143995e+001 +8.315143995e+001 +3.7151e-001 -8.5830e-001 -1.5802e+000
388 0 +3.564624083e+000 +8.122462408e+001 +8.122462408e+001 +3.4383e+000 -8.4930e-001 -1.5924e+000
395 0 +2.598599178e+000 +8.025859918e+001 +8.025859918e+001 +3.4225e+000 -8.6215e-001 -1.5875e+000
546 0 +2.473076808e+000 +8.013307681e+001 +8.013307681e+001 +3.4205e+000 -8.6462e-001 -1.5840e+000
556 0 +2.319269384e+000 +7.997926938e+001 +7.997926938e+001 +2.3962e+000 -8.8713e-001 -1.5656e+000
572 0 +3.776223485e-001 +7.803762235e+001 +7.803762235e+001 +2.4077e+000 -8.6363e-001 -1.2579e+000
732 0 +3.324538732e-001 +7.799245387e+001 +7.799245387e+001 +2.3870e+000 -8.7793e-001 -1.2746e+000
738 0 +2.545117071e-001 +7.791451171e+001 +7.791451171e+001 +2.3824e+000 -8.7153e-001 -1.2672e+000
770 0 +2.476794883e-001 +7.790767949e+001 +7.790767949e+001 +2.3806e+000 -8.6913e-001 -1.2652e+000
799 0 +1.271931130e-001 +7.778719311e+001 +7.778719311e+001 +2.3921e+000 -8.6735e-001 -1.2673e+000
802 0 +1.236968943e-001 +7.778369689e+001 +7.778369689e+001 +2.3904e+000 -8.6498e-001 -1.2653e+000
818 0 +1.146110593e-001 +7.777461106e+001 +7.777461106e+001 +2.3909e+000 -8.6573e-001 -1.2661e+000
832 0 +5.636600403e-002 +7.771636600e+001 +7.771636600e+001 +2.3966e+000 -8.6498e-001 -1.2691e+000
833 0 +2.929846631e-002 +7.768929847e+001 +7.768929847e+001 +2.3945e+000 -8.6139e-001 -1.2702e+000
839 0 +2.883173754e-002 +7.768883174e+001 +7.768883174e+001 +2.3959e+000 -8.6303e-001 -1.2719e+000
864 0 +2.632366647e-002 +7.768632367e+001 +7.768632367e+001 +2.3958e+000 -8.6246e-001 -1.2715e+000
867 0 +1.591038900e-002 +7.767591039e+001 +7.767591039e+001 +2.3917e+000 -8.5919e-001 -1.2727e+000
868 0 +5.460413400e-003 +7.766546041e+001 +7.766546041e+001 +2.3936e+000 -8.5586e-001 -1.2718e+000
922 0 +4.429684678e-003 +7.766442968e+001 +7.766442968e+001 +2.3973e+000 -8.5777e-001 -1.2709e+000
950 0 +3.028582955e-003 +7.766302858e+001 +7.766302858e+001 +2.3996e+000 -8.5402e-001 -1.2719e+000
951 0 +2.177685367e-004 +7.766021777e+001 +7.766021777e+001 +2.3974e+000 -8.5619e-001 -1.2720e+000
981 0 +1.670533828e-004 +7.766016705e+001 +7.766016705e+001 +2.3975e+000 -8.5591e-001 -1.2719e+000
983 0 +1.384393092e-004 +7.766013844e+001 +7.766013844e+001 +2.3976e+000 -8.5593e-001 -1.2719e+000
984 0 +2.786847219e-006 +7.766000279e+001 +7.766000279e+001 +2.3984e+000 -8.5605e-001 -1.2720e+000
1068 0 +2.304183312e-006 +7.766000230e+001 +7.766000230e+001 +2.3984e+000 -8.5604e-001 -1.2720e+000
1074 0 +2.908459038e-007 +7.766000029e+001 +7.766000029e+001 +2.3984e+000 -8.5599e-001 -1.2720e+000
1101 0 +2.649229884e-007 +7.766000026e+001 +7.766000026e+001 +2.3984e+000 -8.5599e-001 -1.2720e+000
1125 0 +1.692522744e-007 +7.766000017e+001 +7.766000017e+001 +2.3984e+000 -8.5601e-001 -1.2720e+000
1194 0 +6.862080681e-009 +7.766000001e+001 +7.766000001e+001 +2.3984e+000 -8.5600e-001 -1.2720e+000
% f evaluations | g evaluations | best noise-free fitness - Fopt (1.156800000000e+002) + sum g_i+ | measured fitness | best measured fitness or single-digit g-values | x1 | x2...
1 0 +1.245379248e+003 +1.361059248e+003 +1.361059248e+003 +5.0000e+000 +5.0000e+000 +5.0000e+000
2 0 +1.187427939e+003 +1.303107939e+003 +1.303107939e+003 -5.0000e+000 +5.0000e+000 +5.0000e+000
3 0 +1.009438074e+003 +1.125118074e+003 +1.125118074e+003 +5.0000e+000 -5.0000e+000 +5.0000e+000
4 0 +6.294748562e+002 +7.451548562e+002 +7.451548562e+002 +5.0000e+000 +5.0000e+000 -5.0000e+000
5 0 +3.355823732e+002 +4.512623732e+002 +4.512623732e+002 -5.0000e+000 -5.0000e+000 -5.0000e+000
7 0 +3.164590570e+002 +4.321390570e+002 +4.321390570e+002 +1.2793e+000 +1.2793e+000 -5.0000e+000
8 0 +6.933742529e+001 +1.850174253e+002 +1.850174253e+002 -1.2494e+000 -4.9156e+000 -5.3475e-001
11 0 +5.225749662e+001 +1.679374966e+002 +1.679374966e+002 -2.2955e+000 -1.6428e+000 -1.4379e+000
40 0 +4.327819554e+001 +1.589581955e+002 +1.589581955e+002 -2.4626e+000 +1.2600e+000 +6.0566e-001
55 0 +3.533926440e+001 +1.510192644e+002 +1.510192644e+002 -3.2147e+000 +1.0260e+000 -3.0713e-001
68 0 +1.437321724e+001 +1.300532172e+002 +1.300532172e+002 -2.0530e+000 -8.2504e-001 +2.2063e-001
79 0 +9.262577128e+000 +1.249425771e+002 +1.249425771e+002 -2.2415e+000 -1.6218e+000 +9.7546e-001
147 0 +8.452890640e+000 +1.241328906e+002 +1.241328906e+002 -2.2244e+000 -1.5843e+000 +9.7544e-001
165 0 +5.624118841e+000 +1.213041188e+002 +1.213041188e+002 -4.2461e+000 -9.8056e-001 +2.6049e-001
176 0 +4.283954515e+000 +1.199639545e+002 +1.199639545e+002 -4.1688e+000 -9.8232e-001 +2.5542e-001
265 0 +4.248255003e+000 +1.199282550e+002 +1.199282550e+002 -4.1686e+000 -9.8214e-001 +2.5419e-001
357 0 +4.017973478e+000 +1.196979735e+002 +1.196979735e+002 -4.1417e+000 -9.7681e-001 +2.4720e-001
428 0 +3.911312693e+000 +1.195913127e+002 +1.195913127e+002 -2.1227e+000 -9.3229e-001 +2.7976e-001
429 0 +3.503845118e+000 +1.191838451e+002 +1.191838451e+002 -2.1172e+000 -9.3643e-001 +2.7746e-001
431 0 +3.369326916e+000 +1.190493269e+002 +1.190493269e+002 -2.1211e+000 -9.3713e-001 +2.7519e-001
432 0 +1.529497987e+000 +1.172094980e+002 +1.172094980e+002 -2.1046e+000 -9.4920e-001 +2.3728e-001
460 0 +1.334579931e+000 +1.170145799e+002 +1.170145799e+002 -2.1222e+000 -9.4796e-001 +2.3886e-001
482 0 +1.054627203e+000 +1.167346272e+002 +1.167346272e+002 -2.2243e+000 -9.5016e-001 +2.3886e-001
497 0 +1.694879142e-001 +1.158494879e+002 +1.158494879e+002 -2.1756e+000 -9.8284e-001 +2.3499e-001
519 0 +1.170111563e-001 +1.157970112e+002 +1.157970112e+002 -2.1809e+000 -9.7401e-001 +2.3922e-001
541 0 +4.915001737e-002 +1.157291500e+002 +1.157291500e+002 -2.1850e+000 -9.7599e-001 +2.4747e-001
542 0 +2.180042771e-003 +1.156821800e+002 +1.156821800e+002 -2.1766e+000 -9.8182e-001 +2.4531e-001
577 0 +8.510732704e-005 +1.156800851e+002 +1.156800851e+002 -2.1789e+000 -9.8302e-001 +2.4487e-001
602 0 +7.574929057e-005 +1.156800757e+002 +1.156800757e+002 -2.1789e+000 -9.8302e-001 +2.4476e-001
637 0 +2.531924142e-005 +1.156800253e+002 +1.156800253e+002 -2.1786e+000 -9.8337e-001 +2.4483e-001
644 0 +6.229457085e-006 +1.156800062e+002 +1.156800062e+002 -2.1785e+000 -9.8317e-001 +2.4484e-001
651 0 +3.419366834e-007 +1.156800003e+002 +1.156800003e+002 -2.1784e+000 -9.8321e-001 +2.4481e-001
674 0 +2.281013707e-007 +1.156800002e+002 +1.156800002e+002 -2.1784e+000 -9.8319e-001 +2.4480e-001
678 0 +2.165637056e-007 +1.156800002e+002 +1.156800002e+002 -2.1784e+000 -9.8319e-001 +2.4480e-001
687 0 +1.831488561e-007 +1.156800002e+002 +1.156800002e+002 -2.1784e+000 -9.8318e-001 +2.4480e-001
696 0 +1.438628203e-007 +1.156800001e+002 +1.156800001e+002 -2.1784e+000 -9.8319e-001 +2.4480e-001
708 0 +1.091484592e-008 +1.156800000e+002 +1.156800000e+002 -2.1784e+000 -9.8320e-001 +2.4480e-001
726 0 +9.308763538e-009 +1.156800000e+002 +1.156800000e+002 -2.1784e+000 -9.8320e-001 +2.4480e-001
820 0 +0.000000000e+000 +1.156800000e+002 +1.156800000e+002 -2.1784e+000 -9.8320e-001 +2.4480e-001
% f evaluations | g evaluations | best noise-free fitness - Fopt (-3.710000000000e+000) + sum g_i+ | measured fitness | best measured fitness or single-digit g-values | x1 | x2...
1 0 +4.617236407e+002 +4.580136407e+002 +4.580136407e+002 +5.0000e+000 -5.0000e+000 -5.0000e+000
4 0 +2.736786270e+002 +2.699686270e+002 +2.699686270e+002 +5.0000e+000 -5.0000e+000 +5.0000e+000
7 0 +5.932912322e+001 +5.561912322e+001 +5.561912322e+001 +4.8312e+000 -4.5550e+000 +1.2856e+000
10 0 +4.005485273e+001 +3.634485273e+001 +3.634485273e+001 +5.0000e+000 -4.5983e+000 +7.8749e-001
14 0 +3.039910215e+001 +2.668910215e+001 +2.668910215e+001 +5.0000e+000 -3.8518e+000 +7.9975e-001
27 0 +2.978538373e+001 +2.607538373e+001 +2.607538373e+001 +5.0000e+000 -3.8789e+000 +8.0791e-001
42 0 +2.941036238e+001 +2.570036238e+001 +2.570036238e+001 +5.0000e+000 -3.8155e+000 +8.0940e-001
53 0 +1.947854793e+001 +1.576854793e+001 +1.576854793e+001 +3.2390e+000 -3.9165e+000 +2.0780e+000
56 0 +1.523245543e+001 +1.152245543e+001 +1.152245543e+001 +4.1932e+000 -3.0254e+000 +1.4464e+000
68 0 +7.339829555e+000 +3.629829555e+000 +3.629829555e+000 +4.1932e+000 -2.9018e+000 +1.4590e+000
210 0 +6.463127680e+000 +2.753127680e+000 +2.753127680e+000 +3.0308e+000 -2.8312e+000 +1.5032e+000
265 0 +5.511038535e+000 +1.801038535e+000 +1.801038535e+000 +4.1119e+000 -2.8898e+000 +1.4418e+000
272 0 +4.439234862e+000 +7.292348624e-001 +7.292348624e-001 +3.2320e+000 -2.9240e+000 +1.7675e+000
290 0 +4.256005598e+000 +5.460055975e-001 +5.460055975e-001 +3.2457e+000 -2.9222e+000 +1.7773e+000
343 0 +3.801307953e+000 +9.130795284e-002 +9.130795284e-002 +3.1134e+000 -2.9287e+000 +1.4504e+000
411 0 +3.075317855e+000 -6.346821451e-001 -6.346821451e-001 +4.1059e+000 -2.8894e+000 +1.4732e+000
425 0 +2.242010462e+000 -1.467989538e+000 -1.467989538e+000 +3.1831e+000 -2.9291e+000 +1.7778e+000
473 0 +1.938585574e+000 -1.771414426e+000 -1.771414426e+000 +3.1647e+000 -2.9310e+000 +1.7817e+000
475 0 +1.316793256e+000 -2.393206744e+000 -2.393206744e+000 +3.1168e+000 -2.9206e+000 +1.7887e+000
509 0 +1.112074504e+000 -2.597925496e+000 -2.597925496e+000 +3.1262e+000 -2.9023e+000 +1.7900e+000
522 0 +1.043395905e+000 -2.666604095e+000 -2.666604095e+000 +3.1146e+000 -2.9021e+000 +1.7850e+000
523 0 +1.006348272e+000 -2.703651728e+000 -2.703651728e+000 +3.1222e+000 -2.8889e+000 +1.7852e+000
548 0 +9.973590344e-001 -2.712640966e+000 -2.712640966e+000 +3.1176e+000 -2.8906e+000 +1.7840e+000
2650 0 +9.161664115e-001 -2.793833588e+000 -2.793833588e+000 +3.1694e+000 -2.3143e+000 +1.7753e+000
2663 0 +3.978143911e-001 -3.312185609e+000 -3.312185609e+000 +3.1179e+000 -2.2977e+000 +1.7693e+000
2684 0 +3.728992481e-001 -3.337100752e+000 -3.337100752e+000 +3.1219e+000 -2.3169e+000 +1.7764e+000
2715 0 +3.240974405e-001 -3.385902560e+000 -3.385902560e+000 +3.1307e+000 -2.3096e+000 +1.7735e+000
2757 0 +6.274569586e-002 -3.647254304e+000 -3.647254304e+000 +3.1360e+000 -2.2986e+000 +1.7815e+000
2763 0 +5.773359401e-002 -3.652266406e+000 -3.652266406e+000 +3.1133e+000 -2.3044e+000 +1.7817e+000
2765 0 +2.926165620e-002 -3.680738344e+000 -3.680738344e+000 +3.1135e+000 -2.2936e+000 +1.7801e+000
2786 0 +1.028134856e-003 -3.708971865e+000 -3.708971865e+000 +3.1197e+000 -2.2938e+000 +1.7833e+000
2787 0 +8.344858439e-004 -3.709165514e+000 -3.709165514e+000 +3.1199e+000 -2.2952e+000 +1.7839e+000
2817 0 +5.443269565e-004 -3.709455673e+000 -3.709455673e+000 +3.1198e+000 -2.2945e+000 +1.7836e+000
2870 0 +1.149794520e-004 -3.709885021e+000 -3.709885021e+000 +3.1199e+000 -2.2948e+000 +1.7832e+000
2886 0 +3.734121671e-005 -3.709962659e+000 -3.709962659e+000 +3.1196e+000 -2.2952e+000 +1.7832e+000
2893 0 +5.085407047e-007 -3.709999491e+000 -3.709999491e+000 +3.1200e+000 -2.2952e+000 +1.7832e+000
2923 0 +1.901559790e-007 -3.709999810e+000 -3.709999810e+000 +3.1200e+000 -2.2952e+000 +1.7832e+000
2959 0 +1.242215468e-007 -3.709999876e+000 -3.709999876e+000 +3.1200e+000 -2.2952e+000 +1.7832e+000
2989 0 +4.509626006e-009 -3.709999995e+000 -3.709999995e+000 +3.1200e+000 -2.2952e+000 +1.7832e+000
% f evaluations | g evaluations | best noise-free fitness - Fopt (1.321800000000e+002) + sum g_i+ | measured fitness | best measured fitness or single-digit g-values | x1 | x2...
1 0 +7.874745473e+002 +9.196545473e+002 +9.196545473e+002 -5.0000e+000 +5.0000e+000 -5.0000e+000
4 0 +1.152513015e+002 +2.474313015e+002 +2.474313015e+002 -5.0000e+000 +5.0000e+000 +5.0000e+000
7 0 +7.051705898e+001 +2.026970590e+002 +2.026970590e+002 -3.8899e+000 +4.7894e+000 +2.3004e+000
10 0 +3.704366616e+001 +1.692236662e+002 +1.692236662e+002 -1.9562e+000 +8.7885e-001 +3.2932e+000
12 0 +1.724290363e+001 +1.494229036e+002 +1.494229036e+002 -2.8803e+000 +1.0215e+000 +3.1896e+000
24 0 +1.195168602e+001 +1.441316860e+002 +1.441316860e+002 -4.8958e+000 +9.2056e-001 +3.1801e+000
37 0 +1.028555802e+001 +1.424655580e+002 +1.424655580e+002 -4.8411e+000 +9.3826e-001 +3.1936e+000
67 0 +9.614528988e+000 +1.417945290e+002 +1.417945290e+002 -4.8411e+000 +8.7020e-001 +3.1936e+000
86 0 +3.803334251e+000 +1.359833343e+002 +1.359833343e+002 -4.7647e+000 +8.8526e-001 +3.1341e+000
115 0 +3.575652643e+000 +1.357556526e+002 +1.357556526e+002 -4.7625e+000 +8.8479e-001 +3.1367e+000
237 0 +3.518744221e+000 +1.356987442e+002 +1.356987442e+002 -4.7729e+000 +9.0734e-001 +3.1403e+000
269 0 +3.234485840e+000 +1.354144858e+002 +1.354144858e+002 -3.7971e+000 +9.2153e-001 +3.1359e+000
297 0 +2.986397897e+000 +1.351663979e+002 +1.351663979e+002 -4.7606e+000 +8.8825e-001 +3.1521e+000
313 0 +2.004889859e+000 +1.341848899e+002 +1.341848899e+002 -3.7578e+000 +8.9032e-001 +3.1506e+000
360 0 +1.994406815e+000 +1.341744068e+002 +1.341744068e+002 -3.7675e+000 +8.8738e-001 +3.1525e+000
1129 0 +1.318385997e+000 +1.334983860e+002 +1.334983860e+002 -3.7599e+000 +1.5053e+000 +3.8228e+000
1151 0 +1.316529295e+000 +1.334965293e+002 +1.334965293e+002 -3.7645e+000 +1.5054e+000 +3.8227e+000
1165 0 +1.082252668e+000 +1.332622527e+002 +1.332622527e+002 -3.7505e+000 +1.4730e+000 +3.8204e+000
1186 0 +1.045058872e+000 +1.332250589e+002 +1.332250589e+002 -3.7672e+000 +1.4845e+000 +3.8316e+000
1189 0 +1.012346726e+000 +1.331923467e+002 +1.331923467e+002 -3.7638e+000 +1.4802e+000 +3.8175e+000
1195 0 +9.954063223e-001 +1.331754063e+002 +1.331754063e+002 -3.7635e+000 +1.4827e+000 +3.8234e+000
2136 0 +3.024635366e-001 +1.324824635e+002 +1.324824635e+002 -3.7497e+000 +1.4862e+000 +3.4739e+000
2151 0 +1.156350067e-001 +1.322956350e+002 +1.322956350e+002 -3.7476e+000 +1.4866e+000 +3.4675e+000
2152 0 +2.008908090e-002 +1.322000891e+002 +1.322000891e+002 -3.7600e+000 +1.4838e+000 +3.4648e+000
2164 0 +5.405885924e-003 +1.321854059e+002 +1.321854059e+002 -3.7595e+000 +1.4834e+000 +3.4618e+000
2210 0 +1.964718787e-003 +1.321819647e+002 +1.321819647e+002 -3.7647e+000 +1.4832e+000 +3.4625e+000
2225 0 +3.413764895e-004 +1.321803414e+002 +1.321803414e+002 -3.7635e+000 +1.4831e+000 +3.4617e+000
2253 0 +1.508063806e-004 +1.321801508e+002 +1.321801508e+002 -3.7649e+000 +1.4823e+000 +3.4616e+000
2286 0 +9.242025556e-005 +1.321800924e+002 +1.321800924e+002 -3.7636e+000 +1.4823e+000 +3.4618e+000
2303 0 +8.967363644e-005 +1.321800897e+002 +1.321800897e+002 -3.7635e+000 +1.4822e+000 +3.4617e+000
2310 0 +5.172918000e-005 +1.321800517e+002 +1.321800517e+002 -3.7639e+000 +1.4822e+000 +3.4617e+000
2315 0 +7.709199394e-007 +1.321800008e+002 +1.321800008e+002 -3.7640e+000 +1.4824e+000 +3.4616e+000
2345 0 +4.961129036e-007 +1.321800005e+002 +1.321800005e+002 -3.7640e+000 +1.4824e+000 +3.4616e+000
2348 0 +2.439934974e-007 +1.321800002e+002 +1.321800002e+002 -3.7640e+000 +1.4824e+000 +3.4616e+000
2363 0 +1.941123173e-008 +1.321800000e+002 +1.321800000e+002 -3.7640e+000 +1.4824e+000 +3.4616e+000
2402 0 +1.827993401e-008 +1.321800000e+002 +1.321800000e+002 -3.7640e+000 +1.4824e+000 +3.4616e+000
2407 0 +4.464197900e-009 +1.321800000e+002 +1.321800000e+002 -3.7640e+000 +1.4824e+000 +3.4616e+000
% f evaluations | g evaluations | best noise-free fitness - Fopt (-3.930000000000e+001) + sum g_i+ | measured fitness | best measured fitness or single-digit g-values | x1 | x2...
1 0 +5.020290297e+002 +4.627290297e+002 +4.627290297e+002 -5.0000e+000 +5.0000e+000 +5.0000e+000
3 0 +2.339813953e+002 +1.946813953e+002 +1.946813953e+002 -5.0000e+000 -5.0000e+000 +5.0000e+000
5 0 +1.898274707e+002 +1.505274707e+002 +1.505274707e+002 -5.0000e+000 +4.1128e-001 +5.0000e+000
7 0 +1.039804251e+002 +6.468042514e+001 +6.468042514e+001 -4.8173e+000 -4.9855e+000 +3.9285e+000
10 0 +5.740653603e+001 +1.810653603e+001 +1.810653603e+001 -5.0000e+000 -1.7662e+000 +9.5317e-001
12 0 +5.125984612e+001 +1.195984612e+001 +1.195984612e+001 -5.0000e+000 -2.1375e+000 +1.6825e+000
20 0 +2.745998064e+001 -1.184001936e+001 -1.184001936e+001 -4.6544e+000 -1.9463e+000 +1.7543e+000
26 0 +1.581150316e+001 -2.348849684e+001 -2.348849684e+001 -4.4691e+000 -1.9045e+000 +1.7083e+000
28 0 +1.520690828e+001 -2.409309172e+001 -2.409309172e+001 -3.3922e+000 -1.9034e+000 +1.6730e+000
38 0 +1.308555089e+001 -2.621444911e+001 -2.621444911e+001 -1.6575e+000 -1.1301e+000 +2.3299e+000
72 0 +1.246051166e+001 -2.683948834e+001 -2.683948834e+001 -2.7193e+000 -1.8054e+000 +1.6689e+000
125 0 +7.800410942e+000 -3.149958906e+001 -3.149958906e+001 -3.6475e+000 -1.8589e+000 +2.3184e+000
182 0 +5.960458343e+000 -3.333954166e+001 -3.333954166e+001 -3.4902e+000 -1.7297e+000 +2.3092e+000
263 0 +5.282012271e+000 -3.401798773e+001 -3.401798773e+001 -3.5079e+000 -1.7456e+000 +2.3599e+000
277 0 +2.296296784e+000 -3.700370322e+001 -3.700370322e+001 -3.5200e+000 -1.8539e+000 +2.3277e+000
302 0 +2.013772905e+000 -3.728622709e+001 -3.728622709e+001 -3.5298e+000 -1.8345e+000 +2.3307e+000
367 0 +1.990640805e+000 -3.730935920e+001 -3.730935920e+001 -3.5297e+000 -1.8268e+000 +2.3307e+000
605 0 +1.019701552e+000 -3.828029845e+001 -3.828029845e+001 -3.5269e+000 -1.2262e+000 +2.3336e+000
855 0 +9.988980176e-001 -3.830110198e+001 -3.830110198e+001 -3.5301e+000 -1.2269e+000 +2.3304e+000
6380 0 +8.449731630e-001 -3.845502684e+001 -3.845502684e+001 -2.4616e+000 -1.2296e+000 +2.3304e+000
6438 0 +6.687329827e-001 -3.863126702e+001 -3.863126702e+001 -2.4800e+000 -1.2296e+000 +2.3304e+000
6446 0 +5.384584006e-001 -3.876154160e+001 -3.876154160e+001 -2.5850e+000 -1.2296e+000 +2.3304e+000
6464 0 +5.249000620e-001 -3.877509994e+001 -3.877509994e+001 -2.5840e+000 -1.2296e+000 +2.3304e+000
6483 0 +3.256583756e-001 -3.897434162e+001 -3.897434162e+001 -2.5715e+000 -1.2296e+000 +2.3304e+000
6484 0 +2.029723639e-002 -3.927970276e+001 -3.927970276e+001 -2.5442e+000 -1.2296e+000 +2.3304e+000
6503 0 +1.236311288e-002 -3.928763689e+001 -3.928763689e+001 -2.5258e+000 -1.2296e+000 +2.3304e+000
6514 0 +6.734478429e-003 -3.929326552e+001 -3.929326552e+001 -2.5274e+000 -1.2296e+000 +2.3304e+000
6522 0 +5.327083571e-003 -3.929467292e+001 -3.929467292e+001 -2.5284e+000 -1.2296e+000 +2.3304e+000
6523 0 +9.769036726e-004 -3.929902310e+001 -3.929902310e+001 -2.5316e+000 -1.2296e+000 +2.3304e+000
6545 0 +6.302761965e-005 -3.929993697e+001 -3.929993697e+001 -2.5330e+000 -1.2296e+000 +2.3304e+000
6576 0 +2.999456144e-005 -3.929997001e+001 -3.929997001e+001 -2.5332e+000 -1.2296e+000 +2.3304e+000
6582 0 +1.856649290e-005 -3.929998143e+001 -3.929998143e+001 -2.5333e+000 -1.2296e+000 +2.3304e+000
6586 0 +6.837323951e-008 -3.929999993e+001 -3.929999993e+001 -2.5336e+000 -1.2296e+000 +2.3304e+000
6702 0 +4.810640064e-008 -3.929999995e+001 -3.929999995e+001 -2.5336e+000 -1.2296e+000 +2.3304e+000
6705 0 +6.061284807e-010 -3.930000000e+001 -3.930000000e+001 -2.5336e+000 -1.2296e+000 +2.3304e+000
% f evaluations | g evaluations | best noise-free fitness - Fopt (4.296000000000e+001) + sum g_i+ | measured fitness | best measured fitness or single-digit g-values | x1 | x2...
1 0 +6.730736567e+003 +6.773696567e+003 +6.773696567e+003 +5.0000e+000 +5.0000e+000 +5.0000e+000
4 0 +1.277767465e+002 +1.707367465e+002 +1.707367465e+002 +5.0000e+000 +5.0000e+000 -5.0000e+000
5 0 +1.048585719e+002 +1.478185719e+002 +1.478185719e+002 +2.1338e+000 +3.8430e+000 -4.9066e+000
6 0 +8.641205973e+001 +1.293720597e+002 +1.293720597e+002 +2.4913e+000 +3.9873e+000 -4.9182e+000
10 0 +8.127172520e+001 +1.242317252e+002 +1.242317252e+002 +1.4517e-002 +5.0000e+000 -3.6968e+000
12 0 +5.557439366e+001 +9.853439366e+001 +9.853439366e+001 +5.0000e+000 +6.1372e-002 -1.9831e+000
19 0 +5.105589275e+001 +9.401589275e+001 +9.401589275e+001 +4.0604e+000 +1.3450e+000 -2.9683e+000
25 0 +4.712137437e+001 +9.008137437e+001 +9.008137437e+001 +3.8231e+000 +1.8070e+000 -3.3013e+000
27 0 +1.882190621e+001 +6.178190621e+001 +6.178190621e+001 +4.2397e+000 +1.0645e+000 -2.7586e+000
46 0 +1.479155212e+001 +5.775155212e+001 +5.775155212e+001 +4.4595e+000 +6.7775e-001 -2.7819e+000
113 0 +1.281243550e+001 +5.577243550e+001 +5.577243550e+001 +4.3900e+000 +1.1392e+000 -2.7512e+000
118 0 +7.418745150e+000 +5.037874515e+001 +5.037874515e+001 +2.4997e+000 +2.7942e+000 -3.0568e+000
225 0 +7.312634657e+000 +5.027263466e+001 +5.027263466e+001 +2.5278e+000 +2.7776e+000 -3.0673e+000
247 0 +6.906139895e+000 +4.986613990e+001 +4.986613990e+001 +2.4930e+000 +2.8103e+000 -3.0805e+000
257 0 +5.979875539e+000 +4.893987554e+001 +4.893987554e+001 +2.5129e+000 +2.7941e+000 -3.0815e+000
901 0 +3.117859520e+000 +4.607785952e+001 +4.607785952e+001 +2.5101e+000 +2.2759e+000 -3.0802e+000
943 0 +2.146201375e+000 +4.510620137e+001 +4.510620137e+001 +2.5101e+000 +1.7542e+000 -3.0802e+000
1002 0 +2.037180548e+000 +4.499718055e+001 +4.499718055e+001 +2.5101e+000 +1.7457e+000 -3.0803e+000
1003 0 +1.993823549e+000 +4.495382355e+001 +4.495382355e+001 +2.5101e+000 +1.7394e+000 -3.0803e+000
1404 0 +1.138363030e+000 +4.409836303e+001 +4.409836303e+001 +1.4860e+000 +1.7371e+000 -3.0802e+000
1417 0 +1.050361244e+000 +4.401036124e+001 +4.401036124e+001 +1.5303e+000 +1.7370e+000 -3.0802e+000
1438 0 +1.001222630e+000 +4.396122263e+001 +4.396122263e+001 +1.5185e+000 +1.7376e+000 -3.0802e+000
1446 0 +9.953546783e-001 +4.395535468e+001 +4.395535468e+001 +1.5128e+000 +1.7376e+000 -3.0802e+000
2869 0 +4.463870543e-003 +4.296446387e+001 +4.296446387e+001 +1.5141e+000 +1.7371e+000 -2.7718e+000
2899 0 +2.845343164e-003 +4.296284534e+001 +4.296284534e+001 +1.5113e+000 +1.7381e+000 -2.7695e+000
2959 0 +7.689635926e-004 +4.296076896e+001 +4.296076896e+001 +1.5120e+000 +1.7367e+000 -2.7698e+000
2962 0 +1.511557123e-004 +4.296015116e+001 +4.296015116e+001 +1.5136e+000 +1.7367e+000 -2.7703e+000
2973 0 +1.359166957e-004 +4.296013592e+001 +4.296013592e+001 +1.5136e+000 +1.7369e+000 -2.7704e+000
2984 0 +5.893574359e-005 +4.296005894e+001 +4.296005894e+001 +1.5129e+000 +1.7371e+000 -2.7704e+000
3006 0 +4.218861640e-006 +4.296000422e+001 +4.296000422e+001 +1.5129e+000 +1.7368e+000 -2.7704e+000
3036 0 +2.723811221e-007 +4.296000027e+001 +4.296000027e+001 +1.5128e+000 +1.7368e+000 -2.7704e+000
3069 0 +7.194367413e-008 +4.296000007e+001 +4.296000007e+001 +1.5128e+000 +1.7368e+000 -2.7704e+000
3083 0 +3.434518447e-008 +4.296000003e+001 +4.296000003e+001 +1.5128e+000 +1.7368e+000 -2.7704e+000
3094 0 +4.223871031e-009 +4.296000000e+001 +4.296000000e+001 +1.5128e+000 +1.7368e+000 -2.7704e+000
% f evaluations | g evaluations | best noise-free fitness - Fopt (2.842200000000e+002) + sum g_i+ | measured fitness | best measured fitness or single-digit g-values | x1 | x2...
1 0 +4.399229156e+002 +7.241429156e+002 +7.241429156e+002 +5.0000e+000 +5.0000e+000 -5.0000e+000
2 0 +3.797402740e+002 +6.639602740e+002 +6.639602740e+002 -5.0000e+000 +5.0000e+000 -5.0000e+000
3 0 +3.389450508e+002 +6.231650508e+002 +6.231650508e+002 +5.0000e+000 -5.0000e+000 -5.0000e+000
5 0 +2.787624092e+002 +5.629824092e+002 +5.629824092e+002 -5.0000e+000 -5.0000e+000 -5.0000e+000
6 0 +2.284051389e+002 +5.126251389e+002 +5.126251389e+002 -2.7241e+000 -2.7241e+000 -5.0000e+000
7 0 +2.221966832e+002 +5.064166832e+002 +5.064166832e+002 -5.0000e+000 -2.1181e+000 -5.0000e+000
8 0 +8.715925592e+001 +3.713792559e+002 +3.713792559e+002 +3.5826e+000 -5.4847e-001 -5.5251e-001
9 0 +5.759785581e+001 +3.418178558e+002 +3.418178558e+002 -3.8828e+000 -1.2090e+000 -2.3370e+000
13 0 +5.562774136e+001 +3.398477414e+002 +3.398477414e+002 -2.2324e+000 -7.6245e-001 -2.6712e+000
23 0 +4.945980746e+001 +3.336798075e+002 +3.336798075e+002 -2.2874e+000 -7.1251e-001 -2.8045e+000
29 0 +4.688265896e+001 +3.311026590e+002 +3.311026590e+002 -3.2169e+000 -7.5414e-001 -2.8109e+000
30 0 +4.547186795e+001 +3.296918680e+002 +3.296918680e+002 +2.5953e+000 -6.4452e-001 -1.0465e+000
39 0 +3.257395369e+001 +3.167939537e+002 +3.167939537e+002 -3.0298e+000 -1.2106e+000 -1.2449e+000
41 0 +2.507540931e+001 +3.092954093e+002 +3.092954093e+002 -4.4302e+000 -8.9492e-001 -9.8608e-001
48 0 +2.117211265e+001 +3.053921127e+002 +3.053921127e+002 -3.9455e+000 -8.8037e-001 -7.9860e-001
55 0 +1.092833950e+001 +2.951483395e+002 +2.951483395e+002 -2.1901e+000 -2.0728e-001 -6.9778e-002
84 0 +9.437690878e+000 +2.936576909e+002 +2.936576909e+002 -2.3000e+000 -7.8530e-001 -1.3609e+000
107 0 +7.747904475e+000 +2.919679045e+002 +2.919679045e+002 -3.0513e+000 -7.5446e-001 -1.7393e+000
325 0 +5.520067697e+000 +2.897400677e+002 +2.897400677e+002 -2.1699e+000 -8.1349e-001 -6.3153e-001
384 0 +4.679558085e+000 +2.888995581e+002 +2.888995581e+002 -3.1412e+000 -7.5951e-001 -1.3663e+000
521 0 +4.436066927e+000 +2.886560669e+002 +2.886560669e+002 -3.1334e+000 -7.6570e-001 -1.3523e+000
546 0 +3.665422227e+000 +2.878854222e+002 +2.878854222e+002 -3.1164e+000 -7.9908e-001 -1.3486e+000
551 0 +3.058391895e+000 +2.872783919e+002 +2.872783919e+002 -3.0981e+000 -7.9987e-001 -1.3599e+000
565 0 +2.732442788e+000 +2.869524428e+002 +2.869524428e+002 -2.1549e+000 -8.1269e-001 -7.0729e-001
577 0 +2.636740002e+000 +2.868567400e+002 +2.868567400e+002 -2.1585e+000 -8.1221e-001 -6.9650e-001
607 0 +2.330642074e+000 +2.865506421e+002 +2.865506421e+002 -2.1023e+000 -8.1239e-001 -6.6662e-001
652 0 +2.094769239e+000 +2.863147692e+002 +2.863147692e+002 -2.0943e+000 -7.9669e-001 -6.8739e-001
680 0 +2.040009620e+000 +2.862600096e+002 +2.862600096e+002 -2.1122e+000 -8.2231e-001 -6.8903e-001
749 0 +1.993424702e+000 +2.862134247e+002 +2.862134247e+002 -2.1030e+000 -8.1214e-001 -6.9054e-001
842 0 +1.020252091e+000 +2.852402521e+002 +2.852402521e+002 -2.1000e+000 -8.0520e-001 -1.0518e+000
949 0 +9.995985753e-001 +2.852195986e+002 +2.852195986e+002 -2.1005e+000 -8.1352e-001 -1.0503e+000
1438 0 +3.678435998e-001 +2.845878436e+002 +2.845878436e+002 -2.1000e+000 -1.9429e-001 -1.0520e+000
1479 0 +2.104511833e-001 +2.844304512e+002 +2.844304512e+002 -2.1000e+000 -2.3657e-001 -1.0520e+000
1508 0 +3.952228445e-003 +2.842239522e+002 +2.842239522e+002 -2.1000e+000 -2.2099e-001 -1.0520e+000
1533 0 +2.493698051e-003 +2.842224937e+002 +2.842224937e+002 -2.1000e+000 -2.2048e-001 -1.0520e+000
1538 0 +1.047202916e-003 +2.842210472e+002 +2.842210472e+002 -2.1000e+000 -2.1699e-001 -1.0520e+000
1550 0 +9.589877147e-004 +2.842209590e+002 +2.842209590e+002 -2.1000e+000 -2.1714e-001 -1.0520e+000
1586 0 +3.947633064e-005 +2.842200395e+002 +2.842200395e+002 -2.1000e+000 -2.1813e-001 -1.0520e+000
1596 0 +2.775644384e-005 +2.842200278e+002 +2.842200278e+002 -2.1000e+000 -2.1820e-001 -1.0520e+000
1661 0 +7.972084859e-006 +2.842200080e+002 +2.842200080e+002 -2.1000e+000 -2.1828e-001 -1.0520e+000
1670 0 +4.948406058e-007 +2.842200005e+002 +2.842200005e+002 -2.1000e+000 -2.1843e-001 -1.0520e+000
1741 0 +1.309749678e-007 +2.842200001e+002 +2.842200001e+002 -2.1000e+000 -2.1839e-001 -1.0520e+000
1745 0 +1.001265559e-007 +2.842200001e+002 +2.842200001e+002 -2.1000e+000 -2.1841e-001 -1.0520e+000
1781 0 +7.944959179e-008 +2.842200001e+002 +2.842200001e+002 -2.1000e+000 -2.1839e-001 -1.0520e+000
1786 0 +1.729404175e-009 +2.842200000e+002 +2.842200000e+002 -2.1000e+000 -2.1840e-001 -1.0520e+000
% f evaluations | g evaluations | best noise-free fitness - Fopt (-3.217000000000e+001) + sum g_i+ | measured fitness | best measured fitness or single-digit g-values | x1 | x2...
1 0 +9.396550201e+002 +9.074850201e+002 +9.074850201e+002 +5.0000e+000 -5.0000e+000 +5.0000e+000
3 0 +8.488219198e+002 +8.166519198e+002 +8.166519198e+002 +5.0000e+000 +5.0000e+000 +5.0000e+000
4 0 +4.769564551e+002 +4.447864551e+002 +4.447864551e+002 +5.0000e+000 -5.0000e+000 -5.0000e+000
5 0 +3.861233548e+002 +3.539533548e+002 +3.539533548e+002 +5.0000e+000 +5.0000e+000 -5.0000e+000
6 0 +3.524895887e+002 +3.203195887e+002 +3.203195887e+002 +5.0000e+000 +3.7035e+000 -5.0000e+000
7 0 +3.282774257e+002 +2.961074257e+002 +2.961074257e+002 +5.0000e+000 +2.3685e+000 -5.0000e+000
9 0 +6.370844986e+001 +3.153844986e+001 +3.153844986e+001 +5.0000e+000 +1.1051e+000 -2.3859e-014
16 0 +5.038887470e+001 +1.821887470e+001 +1.821887470e+001 +3.6286e+000 +3.9261e-001 -6.8320e-001
20 0 +4.109312814e+001 +8.923128139e+000 +8.923128139e+000 +4.6814e+000 +9.6861e-001 +5.2611e-001
34 0 +3.146153407e+001 -7.084659306e-001 -7.084659306e-001 +1.0608e+000 +1.1297e+000 +3.9782e-001
59 0 +2.603092951e+001 -6.139070490e+000 -6.139070490e+000 +2.3287e+000 +8.2666e-001 -5.2446e-001
119 0 +1.599359457e+001 -1.617640543e+001 -1.617640543e+001 +1.3790e+000 +2.3555e-001 -2.2741e-001
157 0 +1.560687711e+001 -1.656312289e+001 -1.656312289e+001 +1.2417e+000 +7.7476e-001 +1.8776e-001
233 0 +1.340229387e+001 -1.876770613e+001 -1.876770613e+001 +1.4392e+000 +6.9212e-001 +7.8126e-001
249 0 +1.265126626e+001 -1.951873374e+001 -1.951873374e+001 +4.8657e-001 +7.8158e-001 +1.1926e+000
264 0 +1.243265990e+001 -1.973734010e+001 -1.973734010e+001 +4.8184e-001 +7.8336e-001 +1.1879e+000
278 0 +8.602695677e+000 -2.356730432e+001 -2.356730432e+001 +1.4680e+000 +1.1869e+000 +7.5296e-001
290 0 +7.159791813e+000 -2.501020819e+001 -2.501020819e+001 +1.4494e+000 +1.2561e+000 +1.1604e+000
320 0 +5.811355237e+000 -2.635864476e+001 -2.635864476e+001 +1.3930e+000 +1.2366e+000 +1.0934e+000
327 0 +5.600035807e+000 -2.656996419e+001 -2.656996419e+001 +1.3985e+000 +1.2398e+000 +1.0874e+000
331 0 +5.462824743e+000 -2.670717526e+001 -2.670717526e+001 -5.9017e-001 +1.8324e+000 +4.4470e-001
353 0 +3.308999518e-001 -3.183910005e+001 -3.183910005e+001 +1.4824e+000 +1.8434e+000 +4.6606e-001
433 0 +2.891078474e-001 -3.188089215e+001 -3.188089215e+001 +1.4779e+000 +1.8420e+000 +4.5837e-001
461 0 +2.797329341e-001 -3.189026707e+001 -3.189026707e+001 +1.4612e+000 +1.8391e+000 +4.5406e-001
593 0 +4.721290917e-002 -3.212278709e+001 -3.212278709e+001 +1.4582e+000 +1.8600e+000 +4.6194e-001
610 0 +2.001040844e-002 -3.214998959e+001 -3.214998959e+001 +1.4522e+000 +1.8513e+000 +4.6278e-001
617 0 +2.045712588e-003 -3.216795429e+001 -3.216795429e+001 +1.4497e+000 +1.8542e+000 +4.6099e-001
641 0 +1.538137204e-003 -3.216846186e+001 -3.216846186e+001 +1.4494e+000 +1.8542e+000 +4.6098e-001
670 0 +5.335929288e-005 -3.216994664e+001 -3.216994664e+001 +1.4461e+000 +1.8543e+000 +4.6092e-001
689 0 +3.530577371e-005 -3.216996469e+001 -3.216996469e+001 +1.4464e+000 +1.8547e+000 +4.6081e-001
693 0 +6.552677903e-006 -3.216999345e+001 -3.216999345e+001 +1.4465e+000 +1.8545e+000 +4.6080e-001
703 0 +1.651127221e-006 -3.216999835e+001 -3.216999835e+001 +1.4465e+000 +1.8544e+000 +4.6082e-001
707 0 +9.317783949e-007 -3.216999907e+001 -3.216999907e+001 +1.4464e+000 +1.8544e+000 +4.6082e-001
727 0 +1.997065979e-007 -3.216999980e+001 -3.216999980e+001 +1.4464e+000 +1.8544e+000 +4.6081e-001
730 0 +1.913295620e-007 -3.216999981e+001 -3.216999981e+001 +1.4464e+000 +1.8544e+000 +4.6081e-001
748 0 +1.492940953e-007 -3.216999985e+001 -3.216999985e+001 +1.4464e+000 +1.8544e+000 +4.6079e-001
759 0 +2.906801910e-009 -3.217000000e+001 -3.217000000e+001 +1.4464e+000 +1.8544e+000 +4.6080e-001
% f evaluations | g evaluations | best noise-free fitness - Fopt (-5.858000000000e+001) + sum g_i+ | measured fitness | best measured fitness or single-digit g-values | x1 | x2...
1 0 +1.152026581e+003 +1.093446581e+003 +1.093446581e+003 +5.0000e+000 +5.0000e+000 +5.0000e+000
3 0 +5.607487353e+002 +5.021687353e+002 +5.021687353e+002 +5.0000e+000 -5.0000e+000 +5.0000e+000
5 0 +3.795041600e+002 +3.209241600e+002 +3.209241600e+002 +5.0000e+000 -5.0000e+000 -5.0000e+000
6 0 +8.297159668e+001 +2.439159668e+001 +2.439159668e+001 +5.0000e+000 -5.0000e+000 +1.3880e-001
8 0 +6.135758516e+001 +2.777585164e+000 +2.777585164e+000 -1.5865e+000 -3.6966e+000 +4.9645e-001
10 0 +3.869491375e+001 -1.988508625e+001 -1.988508625e+001 -4.9920e-001 -3.9118e+000 +1.2399e+000
33 0 +3.369698144e+001 -2.488301856e+001 -2.488301856e+001 +4.5485e+000 -8.8763e-001 +5.7976e-001
36 0 +2.514598603e+001 -3.343401397e+001 -3.343401397e+001 +4.0762e+000 -3.1765e+000 +1.3209e+000
48 0 +2.081115484e+001 -3.776884516e+001 -3.776884516e+001 +2.4986e+000 -3.6545e+000 -7.2335e-003
78 0 +8.176123447e+000 -5.040387655e+001 -5.040387655e+001 +2.7045e+000 -3.0952e+000 +2.6670e-001
147 0 +4.360524448e+000 -5.421947555e+001 -5.421947555e+001 +3.5745e+000 -3.1218e+000 +6.4183e-001
220 0 +3.388566486e+000 -5.519143351e+001 -5.519143351e+001 +2.5215e+000 -3.1197e+000 +6.7732e-001
295 0 +2.554081936e+000 -5.602591806e+001 -5.602591806e+001 +2.6232e+000 -3.1188e+000 +6.7377e-001
363 0 +2.334495827e+000 -5.624550417e+001 -5.624550417e+001 +2.5784e+000 -3.1273e+000 +6.7015e-001
417 0 +1.993988360e+000 -5.658601164e+001 -5.658601164e+001 +2.5875e+000 -3.1006e+000 +6.6325e-001
1689 0 +1.101009873e+000 -5.747899013e+001 -5.747899013e+001 +2.5904e+000 -2.5201e+000 +6.6293e-001
1783 0 +9.949675635e-001 -5.758503244e+001 -5.758503244e+001 +2.5904e+000 -2.5071e+000 +6.6293e-001
2514 0 +9.571589246e-001 -5.762284108e+001 -5.762284108e+001 +2.5281e+000 -2.5138e+000 +9.6128e-001
2554 0 +2.240460704e-001 -5.835595393e+001 -5.835595393e+001 +2.6104e+000 -2.5223e+000 +9.7267e-001
2639 0 +1.664002263e-001 -5.841359977e+001 -5.841359977e+001 +2.5914e+000 -2.5175e+000 +9.6486e-001
2661 0 +1.051812660e-003 -5.857894819e+001 -5.857894819e+001 +2.5894e+000 -2.5066e+000 +9.7228e-001
2845 0 +1.879693891e-004 -5.857981203e+001 -5.857981203e+001 +2.5899e+000 -2.5071e+000 +9.7252e-001
2858 0 +1.038096676e-005 -5.857998962e+001 -5.857998962e+001 +2.5906e+000 -2.5072e+000 +9.7276e-001
2860 0 +6.730353476e-006 -5.857999327e+001 -5.857999327e+001 +2.5905e+000 -2.5072e+000 +9.7276e-001
2888 0 +1.974538122e-006 -5.857999803e+001 -5.857999803e+001 +2.5904e+000 -2.5072e+000 +9.7283e-001
2890 0 +1.684518473e-006 -5.857999832e+001 -5.857999832e+001 +2.5904e+000 -2.5072e+000 +9.7282e-001
2892 0 +1.565866704e-006 -5.857999843e+001 -5.857999843e+001 +2.5903e+000 -2.5072e+000 +9.7278e-001
2896 0 +1.889286310e-007 -5.857999981e+001 -5.857999981e+001 +2.5904e+000 -2.5072e+000 +9.7280e-001
2900 0 +4.175487334e-008 -5.857999996e+001 -5.857999996e+001 +2.5904e+000 -2.5072e+000 +9.7280e-001
2915 0 +1.830110108e-008 -5.857999998e+001 -5.857999998e+001 +2.5904e+000 -2.5072e+000 +9.7280e-001
2926 0 +3.233743939e-009 -5.858000000e+001 -5.858000000e+001 +2.5904e+000 -2.5072e+000 +9.7280e-001
% f evaluations | g evaluations | best noise-free fitness - Fopt (-6.049200000000e+002) + sum g_i+ | measured fitness | best measured fitness or single-digit g-values | x1 | x2...
1 0 +4.855707829e+002 -1.193492171e+002 -1.193492171e+002 -5.0000e+000 +5.0000e+000 +5.0000e+000
3 0 +2.504084718e+002 -3.545115282e+002 -3.545115282e+002 -5.0000e+000 -5.0000e+000 +5.0000e+000
5 0 +2.304463443e+002 -3.744736557e+002 -3.744736557e+002 -5.0000e+000 -3.5215e+000 +5.0000e+000
8 0 +2.113018930e+002 -3.936181070e+002 -3.936181070e+002 -9.9879e-002 -4.2704e-001 -2.1946e+000
10 0 +1.982136340e+002 -4.067063660e+002 -4.067063660e+002 -4.9255e+000 -3.0348e+000 +4.6226e+000
11 0 +3.695949798e+001 -5.679605020e+002 -5.679605020e+002 -1.0166e+000 -2.6346e+000 +1.2427e+000
21 0 +2.284012439e+001 -5.820798756e+002 -5.820798756e+002 -7.2752e-001 -2.1494e+000 +1.3836e+000
25 0 +2.019235936e+001 -5.847276406e+002 -5.847276406e+002 -9.1482e-001 -2.0171e+000 +1.3372e+000
36 0 +1.784961159e+001 -5.870703884e+002 -5.870703884e+002 -1.2293e+000 -1.5892e+000 +1.3366e+000
60 0 +1.366717255e+001 -5.912528274e+002 -5.912528274e+002 -1.0306e+000 -1.7317e+000 +1.3412e+000
80 0 +1.215442189e+001 -5.927655781e+002 -5.927655781e+002 -1.1754e+000 -1.5505e+000 +1.3781e+000
97 0 +9.022933203e+000 -5.958970668e+002 -5.958970668e+002 -8.4147e-001 -9.8041e-001 +2.1232e+000
101 0 +6.191525961e+000 -5.987284740e+002 -5.987284740e+002 -8.7346e-001 -9.5003e-001 +2.0474e+000
179 0 +4.892974482e+000 -6.000270255e+002 -6.000270255e+002 -8.9986e-001 -9.4502e-001 +2.0566e+000
246 0 +3.400926839e+000 -6.015190732e+002 -6.015190732e+002 -9.6568e-001 -1.0712e+000 +2.1039e+000
288 0 +3.294217079e+000 -6.016257829e+002 -6.016257829e+002 -9.4204e-001 -1.0868e+000 +2.0695e+000
312 0 +8.557699635e-001 -6.040642300e+002 -6.040642300e+002 -9.5380e-001 -1.0141e+000 +2.0907e+000
348 0 +6.915825122e-001 -6.042284175e+002 -6.042284175e+002 -9.6420e-001 -1.0175e+000 +2.0920e+000
407 0 +5.702637828e-001 -6.043497362e+002 -6.043497362e+002 -1.0205e+000 -9.9558e-001 +2.0864e+000
432 0 +2.523455301e-001 -6.046676545e+002 -6.046676545e+002 -1.0059e+000 -1.0150e+000 +2.0857e+000
462 0 +1.743002188e-001 -6.047456998e+002 -6.047456998e+002 -1.0059e+000 -1.0310e+000 +2.0730e+000
475 0 +1.377585922e-001 -6.047822414e+002 -6.047822414e+002 -9.8346e-001 -1.0245e+000 +2.0790e+000
477 0 +1.190766407e-001 -6.048009234e+002 -6.048009234e+002 -9.7759e-001 -1.0210e+000 +2.0765e+000
532 0 +8.460061321e-002 -6.048353994e+002 -6.048353994e+002 -9.7780e-001 -1.0156e+000 +2.0747e+000
542 0 +1.818526380e-003 -6.049181815e+002 -6.049181815e+002 -9.9805e-001 -1.0166e+000 +2.0742e+000
590 0 +1.495004274e-003 -6.049185050e+002 -6.049185050e+002 -1.0008e+000 -1.0160e+000 +2.0739e+000
607 0 +1.258495346e-003 -6.049187415e+002 -6.049187415e+002 -9.9949e-001 -1.0165e+000 +2.0735e+000
619 0 +2.164148683e-004 -6.049197836e+002 -6.049197836e+002 -9.9818e-001 -1.0147e+000 +2.0734e+000
632 0 +5.246883563e-005 -6.049199475e+002 -6.049199475e+002 -9.9861e-001 -1.0150e+000 +2.0735e+000
649 0 +3.119958023e-006 -6.049199969e+002 -6.049199969e+002 -9.9852e-001 -1.0152e+000 +2.0736e+000
650 0 +4.759567673e-007 -6.049199995e+002 -6.049199995e+002 -9.9845e-001 -1.0152e+000 +2.0736e+000
713 0 +2.131499741e-007 -6.049199998e+002 -6.049199998e+002 -9.9842e-001 -1.0152e+000 +2.0736e+000
722 0 +6.068114544e-008 -6.049199999e+002 -6.049199999e+002 -9.9841e-001 -1.0152e+000 +2.0736e+000
737 0 +8.889628589e-009 -6.049200000e+002 -6.049200000e+002 -9.9840e-001 -1.0152e+000 +2.0736e+000
% f evaluations | g evaluations | best noise-free fitness - Fopt (1.337000000000e+002) + sum g_i+ | measured fitness | best measured fitness or single-digit g-values | x1 | x2...
1 0 +1.468068140e+003 +1.601768140e+003 +1.601768140e+003 +5.0000e+000 +5.0000e+000 +5.0000e+000
3 0 +1.459059600e+003 +1.592759600e+003 +1.592759600e+003 +5.0000e+000 -5.0000e+000 +5.0000e+000
4 0 +3.636417081e+002 +4.973417081e+002 +4.973417081e+002 +5.0000e+000 +5.0000e+000 -5.0000e+000
5 0 +3.546331682e+002 +4.883331682e+002 +4.883331682e+002 +5.0000e+000 -5.0000e+000 -5.0000e+000
6 0 +3.317820413e+002 +4.654820413e+002 +4.654820413e+002 +5.0000e+000 -3.7348e+000 -5.0000e+000
7 0 +3.168686551e+002 +4.505686551e+002 +4.505686551e+002 +5.0000e+000 -3.1206e+000 -5.0000e+000
8 0 +1.930020137e+002 +3.267020137e+002 +3.267020137e+002 +4.0651e+000 +9.2274e-001 -4.4195e+000
9 0 +3.094596785e+001 +1.646459678e+002 +1.646459678e+002 +5.0000e+000 -7.7751e-002 -6.7350e-015
68 0 +2.947132788e+001 +1.631713279e+002 +1.631713279e+002 +5.0000e+000 -9.2744e-002 +1.6684e-003
79 0 +2.459242010e+001 +1.582924201e+002 +1.582924201e+002 +2.4974e+000 +6.0959e-001 -6.3357e-001
86 0 +1.929043132e+001 +1.529904313e+002 +1.529904313e+002 +2.5226e+000 +7.6855e-001 -6.5822e-001
125 0 +1.287159325e+001 +1.465715932e+002 +1.465715932e+002 +2.4374e+000 +4.6810e-001 -7.4550e-001
176 0 +1.035542276e+001 +1.440554228e+002 +1.440554228e+002 +3.5423e+000 +3.2447e-001 -3.2435e-001
193 0 +4.628579340e+000 +1.383285793e+002 +1.383285793e+002 +2.4102e+000 +4.2393e-001 -6.7128e-001
247 0 +4.533770534e+000 +1.382337705e+002 +1.382337705e+002 +2.4113e+000 +4.2778e-001 -6.7407e-001
277 0 +4.073452337e+000 +1.377734523e+002 +1.377734523e+002 +2.4139e+000 +4.2619e-001 -6.8063e-001
290 0 +3.703836695e+000 +1.374038367e+002 +1.374038367e+002 +2.4795e+000 +4.3507e-001 -6.9448e-001
313 0 +2.561519862e+000 +1.362615199e+002 +1.362615199e+002 +2.4940e+000 +3.7303e-001 -7.0130e-001
348 0 +2.351766293e+000 +1.360517663e+002 +1.360517663e+002 +2.4971e+000 +3.6979e-001 -6.7898e-001
349 0 +1.446267111e+000 +1.351462671e+002 +1.351462671e+002 +2.4797e+000 +3.2141e-001 -3.7635e-001
408 0 +1.425021158e+000 +1.351250212e+002 +1.351250212e+002 +2.4799e+000 +3.2225e-001 -3.8041e-001
431 0 +1.278266937e+000 +1.349782669e+002 +1.349782669e+002 +2.4958e+000 +3.3310e-001 -3.7877e-001
445 0 +1.137573355e+000 +1.348375734e+002 +1.348375734e+002 +2.4809e+000 +3.5097e-001 -3.7012e-001
475 0 +9.959851058e-001 +1.346959851e+002 +1.346959851e+002 +2.4753e+000 +3.5998e-001 -3.7805e-001
2892 0 +4.841629168e-001 +1.341841629e+002 +1.341841629e+002 +2.4752e+000 +9.8336e-001 -3.7840e-001
2974 0 +3.367589061e-001 +1.340367589e+002 +1.340367589e+002 +2.4677e+000 +9.6086e-001 -3.6484e-001
3001 0 +1.040556864e-001 +1.338040557e+002 +1.338040557e+002 +2.4918e+000 +9.6287e-001 -3.8069e-001
3031 0 +8.273782174e-002 +1.337827378e+002 +1.337827378e+002 +2.4811e+000 +9.6197e-001 -3.7364e-001
3056 0 +6.563400360e-002 +1.337656340e+002 +1.337656340e+002 +2.4851e+000 +9.6214e-001 -3.8077e-001
3062 0 +4.632105905e-002 +1.337463211e+002 +1.337463211e+002 +2.4792e+000 +9.4983e-001 -3.7459e-001
3118 0 +4.325328496e-002 +1.337432533e+002 +1.337432533e+002 +2.4776e+000 +9.4973e-001 -3.7464e-001
3143 0 +3.478944393e-002 +1.337347894e+002 +1.337347894e+002 +2.4738e+000 +9.6073e-001 -3.7534e-001
3145 0 +2.112058147e-002 +1.337211206e+002 +1.337211206e+002 +2.4700e+000 +9.5331e-001 -3.7525e-001
3177 0 +2.978130697e-004 +1.337002978e+002 +1.337002978e+002 +2.4752e+000 +9.5486e-001 -3.7809e-001
3242 0 +1.401453783e-004 +1.337001401e+002 +1.337001401e+002 +2.4751e+000 +9.5484e-001 -3.7830e-001
3254 0 +5.609642480e-005 +1.337000561e+002 +1.337000561e+002 +2.4754e+000 +9.5467e-001 -3.7833e-001
3260 0 +1.636255141e-005 +1.337000164e+002 +1.337000164e+002 +2.4753e+000 +9.5452e-001 -3.7845e-001
3267 0 +2.832970097e-006 +1.337000028e+002 +1.337000028e+002 +2.4753e+000 +9.5437e-001 -3.7837e-001
3315 0 +1.680493199e-006 +1.337000017e+002 +1.337000017e+002 +2.4753e+000 +9.5439e-001 -3.7840e-001
3316 0 +7.889920539e-007 +1.337000008e+002 +1.337000008e+002 +2.4752e+000 +9.5442e-001 -3.7839e-001
3337 0 +7.376867757e-007 +1.337000007e+002 +1.337000007e+002 +2.4753e+000 +9.5440e-001 -3.7839e-001
3345 0 +1.116417252e-007 +1.337000001e+002 +1.337000001e+002 +2.4752e+000 +9.5441e-001 -3.7840e-001
3353 0 +8.021004305e-009 +1.337000000e+002 +1.337000000e+002 +2.4752e+000 +9.5440e-001 -3.7840e-001
% f evaluations | g evaluations | best noise-free fitness - Fopt (-2.098000000000e+001) + sum g_i+ | measured fitness | best measured fitness or single-digit g-values | x1 | x2...
1 0 +3.865550428e+002 +3.655750428e+002 +3.655750428e+002 -5.0000e+000 +5.0000e+000 -5.0000e+000
2 0 +3.367678855e+002 +3.157878855e+002 +3.157878855e+002 +5.0000e+000 +5.0000e+000 -5.0000e+000
6 0 +2.876863975e+002 +2.667063975e+002 +2.667063975e+002 +1.0504e+000 +1.0504e+000 -5.0000e+000
8 0 +3.525971800e+001 +1.427971800e+001 +1.427971800e+001 -1.9042e+000 +3.9521e+000 +2.2640e-001
16 0 +2.152168159e+001 +5.416815933e-001 +5.416815933e-001 +7.6566e-002 +1.1580e+000 +1.9947e-001
42 0 +1.242067578e+001 -8.559324218e+000 -8.559324218e+000 +2.0108e+000 +2.0331e+000 -3.9179e-001
170 0 +6.991800561e+000 -1.398819944e+001 -1.398819944e+001 +9.6028e-002 +1.8595e+000 -4.3070e-002
219 0 +5.249410028e+000 -1.573058997e+001 -1.573058997e+001 +5.6100e-002 +1.3117e+000 +2.6554e-001
262 0 +5.247330643e+000 -1.573266936e+001 -1.573266936e+001 +5.6243e-002 +1.3120e+000 +2.6570e-001
430 0 +2.778943478e+000 -1.820105652e+001 -1.820105652e+001 +1.0750e+000 +1.2997e+000 +2.4737e-001
490 0 +1.819380066e+000 -1.916061993e+001 -1.916061993e+001 +2.0961e+000 +1.2997e+000 +2.4942e-001
562 0 +1.419381766e+000 -1.956061823e+001 -1.956061823e+001 +2.0882e+000 +1.2954e+000 +2.6621e-001
661 0 +1.271382416e+000 -1.970861758e+001 -1.970861758e+001 +2.0939e+000 +1.3392e+000 +2.6195e-001
675 0 +1.234361303e+000 -1.974563870e+001 -1.974563870e+001 +2.0936e+000 +1.3354e+000 +2.6566e-001
708 0 +1.031387039e+000 -1.994861296e+001 -1.994861296e+001 +2.0694e+000 +1.3273e+000 +2.6702e-001
721 0 +9.957440459e-001 -1.998425595e+001 -1.998425595e+001 +2.0612e+000 +1.3236e+000 +2.6447e-001
1691 0 +4.972759526e-001 -2.048272405e+001 -2.048272405e+001 +2.0573e+000 +1.9492e+000 +2.6281e-001
1725 0 +1.350707718e-002 -2.096649292e+001 -2.096649292e+001 +2.0595e+000 +1.9175e+000 +2.6150e-001
1780 0 +2.979522484e-003 -2.097702048e+001 -2.097702048e+001 +2.0571e+000 +1.9208e+000 +2.6389e-001
1793 0 +2.792301315e-003 -2.097720770e+001 -2.097720770e+001 +2.0571e+000 +1.9207e+000 +2.6397e-001
1820 0 +8.318478029e-004 -2.097916815e+001 -2.097916815e+001 +2.0588e+000 +1.9186e+000 +2.6441e-001
1838 0 +1.577861649e-004 -2.097984221e+001 -2.097984221e+001 +2.0608e+000 +1.9194e+000 +2.6409e-001
1859 0 +8.511626515e-005 -2.097991488e+001 -2.097991488e+001 +2.0606e+000 +1.9193e+000 +2.6403e-001
1863 0 +8.315216843e-005 -2.097991685e+001 -2.097991685e+001 +2.0606e+000 +1.9193e+000 +2.6403e-001
1873 0 +3.972856083e-005 -2.097996027e+001 -2.097996027e+001 +2.0597e+000 +1.9192e+000 +2.6388e-001
1889 0 +2.631807316e-006 -2.097999737e+001 -2.097999737e+001 +2.0600e+000 +1.9191e+000 +2.6401e-001
1901 0 +1.492677512e-006 -2.097999851e+001 -2.097999851e+001 +2.0601e+000 +1.9192e+000 +2.6398e-001
1902 0 +2.317026038e-007 -2.097999977e+001 -2.097999977e+001 +2.0600e+000 +1.9192e+000 +2.6400e-001
1903 0 +3.292382544e-008 -2.097999997e+001 -2.097999997e+001 +2.0600e+000 +1.9192e+000 +2.6400e-001
1946 0 +1.871850230e-008 -2.097999998e+001 -2.097999998e+001 +2.0600e+000 +1.9192e+000 +2.6400e-001
1952 0 +1.196211130e-008 -2.097999999e+001 -2.097999999e+001 +2.0600e+000 +1.9192e+000 +2.6400e-001
1953 0 +2.448857117e-009 -2.098000000e+001 -2.098000000e+001 +2.0600e+000 +1.9192e+000 +2.6400e-001
% f evaluations | g evaluations | best noise-free fitness - Fopt (1.353300000000e+002) + sum g_i+ | measured fitness | best measured fitness or single-digit g-values | x1 | x2...
1 0 +6.255822696e+002 +7.609122696e+002 +7.609122696e+002 +5.0000e+000 -5.0000e+000 +5.0000e+000
4 0 +4.487553861e+002 +5.840853861e+002 +5.840853861e+002 +5.0000e+000 -5.0000e+000 -5.0000e+000
5 0 +3.266084831e+002 +4.619384831e+002 +4.619384831e+002 +3.8160e+000 -5.0000e+000 -3.8160e+000
8 0 +7.412936464e+001 +2.094593646e+002 +2.094593646e+002 +3.7325e-002 -6.4512e-001 -9.7187e-001
10 0 +7.029768606e+001 +2.056276861e+002 +2.056276861e+002 +8.0411e-002 -6.9823e-001 -9.2551e-001
12 0 +6.504832972e+001 +2.003783297e+002 +2.003783297e+002 +9.4998e-002 -7.2253e-001 -8.3740e-001
14 0 +6.449715276e+001 +1.998271528e+002 +1.998271528e+002 +9.1084e-002 -7.1712e-001 -8.3644e-001
16 0 +5.862684920e+001 +1.939568492e+002 +1.939568492e+002 +4.3988e-002 -6.3979e-001 -8.3937e-001
40 0 +5.746795796e+001 +1.927979580e+002 +1.927979580e+002 -5.1315e-001 +2.4122e-001 -3.1080e-001
54 0 +3.513558786e+001 +1.704655879e+002 +1.704655879e+002 -5.0809e-001 +2.4526e-001 -2.1014e-001
96 0 +3.384800110e+001 +1.691780011e+002 +1.691780011e+002 +7.1537e-001 -1.1290e+000 +8.4967e-001
97 0 +1.737145052e+001 +1.527014505e+002 +1.527014505e+002 +8.5845e-001 -5.9515e-001 +1.3057e+000
127 0 +1.273693766e+001 +1.480669377e+002 +1.480669377e+002 +7.7557e-001 -5.0812e-001 +1.3043e+000
157 0 +1.240998346e+001 +1.477399835e+002 +1.477399835e+002 +7.2253e-001 -4.5243e-001 +1.3033e+000
170 0 +9.387681983e+000 +1.447176820e+002 +1.447176820e+002 +6.2775e-001 -4.2632e-001 +1.3628e+000
181 0 +2.461046748e+000 +1.377910467e+002 +1.377910467e+002 +5.1703e-001 -5.5007e-001 +1.3556e+000
252 0 +2.374661449e+000 +1.377046614e+002 +1.377046614e+002 +5.3572e-001 -5.6497e-001 +1.3142e+000
281 0 +1.991383215e+000 +1.373213832e+002 +1.373213832e+002 +5.4359e-001 -5.7005e-001 +1.3377e+000
1253 0 +1.821854964e+000 +1.371518550e+002 +1.371518550e+002 +5.3723e-001 -6.1333e-001 +9.8945e-001
1312 0 +1.052618232e+000 +1.363826182e+002 +1.363826182e+002 +5.4724e-001 -5.7347e-001 +9.8288e-001
1353 0 +1.031051616e+000 +1.363610516e+002 +1.363610516e+002 +5.4919e-001 -5.7029e-001 +9.8077e-001
1359 0 +1.017270912e+000 +1.363472709e+002 +1.363472709e+002 +5.5031e-001 -5.7292e-001 +9.8010e-001
1384 0 +9.963230153e-001 +1.363263230e+002 +1.363263230e+002 +5.4594e-001 -5.7014e-001 +9.7686e-001
2082 0 +5.654045972e-001 +1.358954046e+002 +1.358954046e+002 +5.5727e-001 -4.0286e-003 +9.8083e-001
2096 0 +5.189966998e-001 +1.358489967e+002 +1.358489967e+002 +5.5764e-001 -2.8451e-003 +9.8082e-001
2121 0 +3.571131897e-002 +1.353657113e+002 +1.353657113e+002 +5.4837e-001 +1.7473e-002 +9.7880e-001
2219 0 +1.233548865e-002 +1.353423355e+002 +1.353423355e+002 +5.4326e-001 +2.3389e-002 +9.7944e-001
2246 0 +3.578931413e-003 +1.353335789e+002 +1.353335789e+002 +5.4409e-001 +2.4919e-002 +9.7811e-001
2295 0 +4.221206275e-004 +1.353304221e+002 +1.353304221e+002 +5.4565e-001 +2.3357e-002 +9.7670e-001
2300 0 +1.121123792e-004 +1.353301121e+002 +1.353301121e+002 +5.4556e-001 +2.4082e-002 +9.7678e-001
2325 0 +7.732365731e-006 +1.353300077e+002 +1.353300077e+002 +5.4471e-001 +2.3992e-002 +9.7686e-001
2341 0 +5.586739178e-007 +1.353300006e+002 +1.353300006e+002 +5.4477e-001 +2.4027e-002 +9.7680e-001
2355 0 +2.336509226e-007 +1.353300002e+002 +1.353300002e+002 +5.4479e-001 +2.4017e-002 +9.7680e-001
2369 0 +3.198002219e-008 +1.353300000e+002 +1.353300000e+002 +5.4479e-001 +2.3998e-002 +9.7680e-001
2388 0 +3.690701078e-009 +1.353300000e+002 +1.353300000e+002 +5.4480e-001 +2.4002e-002 +9.7680e-001
2502 0 +0.000000000e+000 +1.353300000e+002 +1.353300000e+002 +5.4480e-001 +2.4000e-002 +9.7680e-001
% f evaluations | g evaluations | best noise-free fitness - Fopt (4.066000000000e+001) + sum g_i+ | measured fitness | best measured fitness or single-digit g-values | x1 | x2...
1 0 +2.246715655e+002 +2.653315655e+002 +2.653315655e+002 -5.0000e+000 -5.0000e+000 +5.0000e+000
2 0 +1.613440444e+002 +2.020040444e+002 +2.020040444e+002 +5.0000e+000 -5.0000e+000 +5.0000e+000
5 0 +1.234016361e+002 +1.640616361e+002 +1.640616361e+002 +5.0000e+000 +5.0000e+000 +5.0000e+000
9 0 +5.501940363e+001 +9.567940363e+001 +9.567940363e+001 +5.0000e+000 +1.5901e-015 +5.0000e+000
13 0 +1.190770692e+001 +5.256770692e+001 +5.256770692e+001 +3.9215e+000 +6.0568e-001 +3.8910e+000
84 0 +9.828688192e+000 +5.048868819e+001 +5.048868819e+001 +3.9187e+000 +6.1606e-001 +3.9117e+000
88 0 +7.090418723e+000 +4.775041872e+001 +4.775041872e+001 +4.0770e+000 +7.8016e-001 +3.9188e+000
182 0 +5.832669281e+000 +4.649266928e+001 +4.649266928e+001 +4.0922e+000 +6.9255e-001 +3.9636e+000
200 0 +5.405775233e+000 +4.606577523e+001 +4.606577523e+001 +4.0819e+000 +6.2532e-001 +3.9656e+000
211 0 +3.873173562e+000 +4.453317356e+001 +4.453317356e+001 +2.9529e+000 +6.5539e-001 +3.9494e+000
232 0 +1.312357136e+000 +4.197235714e+001 +4.197235714e+001 +3.0671e+000 +6.2258e-001 +3.9272e+000
236 0 +1.058044637e+000 +4.171804464e+001 +4.171804464e+001 +3.0496e+000 +6.3724e-001 +3.9229e+000
349 0 +1.028508320e+000 +4.168850832e+001 +4.168850832e+001 +3.0498e+000 +6.5201e-001 +3.9280e+000
371 0 +9.957685087e-001 +4.165576851e+001 +4.165576851e+001 +3.0526e+000 +6.5267e-001 +3.9238e+000
820 0 +6.089995978e-002 +4.072089996e+001 +4.072089996e+001 +3.0520e+000 +1.2575e+000 +3.9240e+000
858 0 +2.876083658e-005 +4.066002876e+001 +4.066002876e+001 +3.0520e+000 +1.2474e+000 +3.9240e+000
1019 0 +8.757353598e-007 +4.066000088e+001 +4.066000088e+001 +3.0520e+000 +1.2472e+000 +3.9240e+000
1044 0 +6.960642764e-007 +4.066000070e+001 +4.066000070e+001 +3.0520e+000 +1.2472e+000 +3.9240e+000
1057 0 +6.511722717e-007 +4.066000065e+001 +4.066000065e+001 +3.0520e+000 +1.2472e+000 +3.9240e+000
1058 0 +5.555685405e-007 +4.066000056e+001 +4.066000056e+001 +3.0520e+000 +1.2472e+000 +3.9240e+000
1064 0 +4.526985009e-008 +4.066000005e+001 +4.066000005e+001 +3.0520e+000 +1.2472e+000 +3.9240e+000
1086 0 +1.484072953e-008 +4.066000001e+001 +4.066000001e+001 +3.0520e+000 +1.2472e+000 +3.9240e+000
1118 0 +7.765287080e-009 +4.066000001e+001 +4.066000001e+001 +3.0520e+000 +1.2472e+000 +3.9240e+000
