% f evaluations | g evaluations | best noise-free fitness - Fopt (1.026100000000e+002) + sum g_i+ | measured fitness | best measured fitness or single-digit g-values | x1 | x2...
1 0 +5.134211562e+001 +1.539521156e+002 +1.539521156e+002 +4.5878e+000 +3.4586e+000
3 0 +3.885283728e+001 +1.414628373e+002 +1.414628373e+002 +2.9722e+000 -1.6833e+000
4 0 +2.722851198e+001 +1.298385120e+002 +1.298385120e+002 +5.0000e+000 -5.0000e+000
8 0 +1.336655754e+001 +1.159765575e+002 +1.159765575e+002 +2.8535e+000 -1.4816e+000
10 0 +6.532628164e+000 +1.091426282e+002 +1.091426282e+002 +3.4576e+000 -1.2906e+000
71 0 +5.410445066e+000 +1.080204451e+002 +1.080204451e+002 +3.6803e+000 -1.2861e+000
99 0 +4.984699157e+000 +1.075946992e+002 +1.075946992e+002 +4.0761e+000 -1.4228e+000
276 0 +4.884500082e+000 +1.074945001e+002 +1.074945001e+002 +4.0778e+000 -1.4230e+000
278 0 +4.717598868e+000 +1.073275989e+002 +1.073275989e+002 +1.9602e+000 -1.5574e+000
328 0 +4.378231078e+000 +1.069882311e+002 +1.069882311e+002 +3.1067e+000 -1.8193e+000
346 0 +3.990694753e+000 +1.066006948e+002 +1.066006948e+002 +1.3796e+000 -2.0921e+000
400 0 +3.011446403e+000 +1.056214464e+002 +1.056214464e+002 +3.1372e+000 -1.8576e+000
597 0 +2.860126490e+000 +1.054701265e+002 +1.054701265e+002 +2.9347e+000 -1.7920e+000
907 0 +2.814414789e+000 +1.054244148e+002 +1.054244148e+002 +2.9314e+000 -1.7932e+000
1873 0 +2.614814906e+000 +1.052248149e+002 +1.052248149e+002 +2.7062e+000 -3.0999e+000
1935 0 +2.482637291e+000 +1.050926373e+002 +1.050926373e+002 +3.3933e+000 -3.2575e+000
2005 0 +2.406213157e+000 +1.050162132e+002 +1.050162132e+002 +3.3919e+000 -3.2579e+000
2109 0 +2.332287186e+000 +1.049422872e+002 +1.049422872e+002 +3.3956e+000 -3.2555e+000
2140 0 +2.290848132e+000 +1.049008481e+002 +1.049008481e+002 +3.3977e+000 -3.2535e+000
2218 0 +2.237894289e+000 +1.048478943e+002 +1.048478943e+002 +3.3944e+000 -3.2552e+000
3618 0 +2.161517768e+000 +1.047715178e+002 +1.047715178e+002 +2.9329e+000 -2.4729e+000
3622 0 +2.136172835e+000 +1.047461728e+002 +1.047461728e+002 +2.9336e+000 -2.4729e+000
8059 0 +2.061966288e+000 +1.046719663e+002 +1.046719663e+002 +3.2353e+000 -2.8834e+000
18675 0 +2.040869953e+000 +1.046508700e+002 +1.046508700e+002 +3.0187e+000 -3.1668e+000
112625 0 +1.079673407e+000 +1.036896734e+002 +1.036896734e+002 -1.6396e+000 +1.3325e+000
112738 0 +1.455320692e-001 +1.027555321e+002 +1.027555321e+002 -1.0988e+000 +1.2144e+000
113012 0 +1.086657331e-001 +1.027186657e+002 +1.027186657e+002 -1.1019e+000 +1.2141e+000
113398 0 +1.058606387e-001 +1.027158606e+002 +1.027158606e+002 -1.1025e+000 +1.2138e+000
113403 0 +1.027622336e-001 +1.027127622e+002 +1.027127622e+002 -1.1031e+000 +1.2127e+000
113520 0 +9.806978675e-002 +1.027080698e+002 +1.027080698e+002 -1.1028e+000 +1.2135e+000
113523 0 +9.400052185e-002 +1.027040005e+002 +1.027040005e+002 -1.1030e+000 +1.2132e+000
113623 0 +9.319016920e-002 +1.027031902e+002 +1.027031902e+002 -1.1026e+000 +1.2134e+000
114177 0 +2.722623337e-002 +1.026372262e+002 +1.026372262e+002 -1.2549e+000 +1.2478e+000
114227 0 +2.582257624e-002 +1.026358226e+002 +1.026358226e+002 -1.2535e+000 +1.2487e+000
114323 0 +3.786975004e-003 +1.026137870e+002 +1.026137870e+002 -1.2508e+000 +1.2498e+000
114330 0 +8.035558872e-004 +1.026108036e+002 +1.026108036e+002 -1.2506e+000 +1.2496e+000
114396 0 +9.289517351e-006 +1.026100093e+002 +1.026100093e+002 -1.2501e+000 +1.2500e+000
114452 0 +3.469711075e-006 +1.026100035e+002 +1.026100035e+002 -1.2501e+000 +1.2500e+000
114462 0 +3.327089772e-006 +1.026100033e+002 +1.026100033e+002 -1.2501e+000 +1.2500e+000
114464 0 +2.845446986e-006 +1.026100028e+002 +1.026100028e+002 -1.2501e+000 +1.2500e+000
114477 0 +2.573207951e-006 +1.026100026e+002 +1.026100026e+002 -1.2500e+000 +1.2500e+000
114494 0 +1.750367375e-006 +1.026100018e+002 +1.026100018e+002 -1.2500e+000 +1.2500e+000
114496 0 +1.620528835e-006 +1.026100016e+002 +1.026100016e+002 -1.2500e+000 +1.2500e+000
114501 0 +1.261494205e-006 +1.026100013e+002 +1.026100013e+002 -1.2500e+000 +1.2500e+000
114502 0 +5.294691618e-007 +1.026100005e+002 +1.026100005e+002 -1.2500e+000 +1.2500e+000
114538 0 +4.382004022e-007 +1.026100004e+002 +1.026100004e+002 -1.2500e+000 +1.2500e+000
114539 0 +3.301250473e-007 +1.026100003e+002 +1.026100003e+002 -1.2500e+000 +1.2500e+000
114540 0 +2.461859623e-007 +1.026100002e+002 +1.026100002e+002 -1.2500e+000 +1.2500e+000
114544 0 +1.701994705e-007 +1.026100002e+002 +1.026100002e+002 -1.2500e+000 +1.2500e+000
114554 0 +7.055659523e-008 +1.026100001e+002 +1.026100001e+002 -1.2500e+000 +1.2500e+000
114562 0 +2.247959685e-008 +1.026100000e+002 +1.026100000e+002 -1.2500e+000 +1.2500e+000
114564 0 +1.166944230e-008 +1.026100000e+002 +1.026100000e+002 -1.2500e+000 +1.2500e+000
114602 0 +9.275254342e-009 +1.026100000e+002 +1.026100000e+002 -1.2500e+000 +1.2500e+000
% f evaluations | g evaluations | best noise-free fitness - Fopt (9.330000000000e+001) + sum g_i+ | measured fitness | best measured fitness or single-digit g-values | x1 | x2...
1 0 +3.544627713e+001 +1.287462771e+002 +1.287462771e+002 -8.0130e-001 -2.2877e+000
7 0 +2.412038484e+001 +1.174203848e+002 +1.174203848e+002 -4.9625e+000 -1.2366e+000
9 0 +2.360315055e+001 +1.169031505e+002 +1.169031505e+002 -4.1251e+000 +3.9691e+000
10 0 +2.073708832e+001 +1.140370883e+002 +1.140370883e+002 -4.0177e+000 +1.9022e+000
11 0 +1.647880026e+001 +1.097788003e+002 +1.097788003e+002 -1.8082e+000 +1.1196e+000
16 0 +1.432194247e+001 +1.076219425e+002 +1.076219425e+002 -2.1225e+000 +1.7762e+000
20 0 +1.254443263e+001 +1.058444326e+002 +1.058444326e+002 -2.6978e+000 +2.2214e+000
50 0 +4.121165242e+000 +9.742116524e+001 +9.742116524e+001 -4.0496e+000 +1.4924e+000
310 0 +4.045853686e+000 +9.734585369e+001 +9.734585369e+001 -4.0487e+000 +1.4923e+000
489 0 +3.925129156e+000 +9.722512916e+001 +9.722512916e+001 -3.2571e+000 +4.6427e+000
495 0 +3.879330621e+000 +9.717933062e+001 +9.717933062e+001 -3.2566e+000 +4.6402e+000
1158 0 +3.238147791e+000 +9.653814779e+001 +9.653814779e+001 -3.5098e+000 +3.5651e+000
1215 0 +3.190352123e+000 +9.649035212e+001 +9.649035212e+001 -3.3255e+000 +1.9571e+000
1546 0 +2.705881909e+000 +9.600588191e+001 +9.600588191e+001 -3.1104e+000 +1.9738e+000
2350 0 +2.661773545e+000 +9.596177355e+001 +9.596177355e+001 -3.1109e+000 +1.9737e+000
2447 0 +2.606253872e+000 +9.590625387e+001 +9.590625387e+001 -3.1132e+000 +1.9780e+000
2689 0 +2.568503679e+000 +9.586850368e+001 +9.586850368e+001 -3.1147e+000 +1.9831e+000
4603 0 +2.406570310e+000 +9.570657031e+001 +9.570657031e+001 -3.1571e+000 +3.1315e+000
4909 0 +2.255501299e+000 +9.555550130e+001 +9.555550130e+001 -3.2123e+000 +3.4790e+000
5159 0 +2.238185354e+000 +9.553818535e+001 +9.553818535e+001 -3.2127e+000 +3.4816e+000
5222 0 +2.186947347e+000 +9.548694735e+001 +9.548694735e+001 -3.1527e+000 +3.1248e+000
5297 0 +2.135883283e+000 +9.543588328e+001 +9.543588328e+001 -3.1539e+000 +3.1278e+000
5471 0 +2.067811320e+000 +9.536781132e+001 +9.536781132e+001 -3.1568e+000 +3.1357e+000
13044 0 +2.034475013e+000 +9.533447501e+001 +9.533447501e+001 -2.8502e+000 +3.0294e+000
36031 0 +1.507730940e+000 +9.480773094e+001 +9.480773094e+001 +9.6873e-001 -8.9185e-001
36211 0 +1.388007197e+000 +9.468800720e+001 +9.468800720e+001 +9.6865e-001 -8.8906e-001
36229 0 +1.341405110e+000 +9.464140511e+001 +9.464140511e+001 +9.6918e-001 -8.8697e-001
36231 0 +1.308045445e+000 +9.460804544e+001 +9.460804544e+001 +9.6919e-001 -8.8824e-001
36232 0 +1.178621618e+000 +9.447862162e+001 +9.447862162e+001 +9.7036e-001 -8.9114e-001
36270 0 +9.021638239e-001 +9.420216382e+001 +9.420216382e+001 +9.7474e-001 -9.0084e-001
36316 0 +8.778427883e-001 +9.417784279e+001 +9.417784279e+001 +9.7527e-001 -9.0225e-001
36349 0 +8.362325112e-001 +9.413623251e+001 +9.413623251e+001 +9.7642e-001 -9.0533e-001
36356 0 +8.138423632e-001 +9.411384236e+001 +9.411384236e+001 +9.7674e-001 -9.0651e-001
36368 0 +8.127617433e-001 +9.411276174e+001 +9.411276174e+001 +9.7842e-001 -9.1055e-001
36377 0 +7.791145316e-001 +9.407911453e+001 +9.407911453e+001 +9.7754e-001 -9.0923e-001
36389 0 +7.746729600e-001 +9.407467296e+001 +9.407467296e+001 +9.7921e-001 -9.1382e-001
36458 0 +7.550741877e-001 +9.405507419e+001 +9.405507419e+001 +9.7786e-001 -9.1165e-001
42739 0 +7.329046159e-001 +9.403290462e+001 +9.403290462e+001 +1.3851e+000 -1.1576e+000
42833 0 +3.031901193e-001 +9.360319012e+001 +9.360319012e+001 +1.3711e+000 -1.1173e+000
42862 0 +1.654476470e-001 +9.346544765e+001 +9.346544765e+001 +1.3733e+000 -1.1243e+000
42867 0 +1.199526107e-001 +9.341995261e+001 +9.341995261e+001 +1.3758e+000 -1.1316e+000
45070 0 +8.868509694e-002 +9.338868510e+001 +9.338868510e+001 +1.2526e+000 -1.2589e+000
45078 0 +6.008599250e-002 +9.336008599e+001 +9.336008599e+001 +1.2526e+000 -1.2581e+000
45079 0 +5.730678216e-002 +9.335730678e+001 +9.335730678e+001 +1.2527e+000 -1.2580e+000
45242 0 +4.535302520e-002 +9.334535303e+001 +9.334535303e+001 +1.2524e+000 -1.2554e+000
45264 0 +1.385033961e-002 +9.331385034e+001 +9.331385034e+001 +1.2508e+000 -1.2532e+000
45271 0 +9.687883646e-003 +9.330968788e+001 +9.330968788e+001 +1.2512e+000 -1.2528e+000
45273 0 +3.176271352e-003 +9.330317627e+001 +9.330317627e+001 +1.2507e+000 -1.2518e+000
45295 0 +1.450834832e-003 +9.330145083e+001 +9.330145083e+001 +1.2498e+000 -1.2497e+000
45297 0 +3.029579685e-004 +9.330030296e+001 +9.330030296e+001 +1.2501e+000 -1.2500e+000
45326 0 +1.860986629e-004 +9.330018610e+001 +9.330018610e+001 +1.2501e+000 -1.2500e+000
45346 0 +1.632220642e-004 +9.330016322e+001 +9.330016322e+001 +1.2501e+000 -1.2501e+000
45355 0 +1.571595177e-004 +9.330015716e+001 +9.330015716e+001 +1.2500e+000 -1.2500e+000
45377 0 +1.287495182e-004 +9.330012875e+001 +9.330012875e+001 +1.2501e+000 -1.2502e+000
45384 0 +1.148127217e-004 +9.330011481e+001 +9.330011481e+001 +1.2501e+000 -1.2501e+000
45389 0 +2.151753904e-007 +9.330000022e+001 +9.330000022e+001 +1.2500e+000 -1.2500e+000
45439 0 +1.529904239e-007 +9.330000015e+001 +9.330000015e+001 +1.2500e+000 -1.2500e+000
45465 0 +1.272026395e-007 +9.330000013e+001 +9.330000013e+001 +1.2500e+000 -1.2500e+000
45483 0 +8.248201766e-008 +9.330000008e+001 +9.330000008e+001 +1.2500e+000 -1.2500e+000
45508 0 +3.265694204e-008 +9.330000003e+001 +9.330000003e+001 +1.2500e+000 -1.2500e+000
45547 0 +3.190589837e-008 +9.330000003e+001 +9.330000003e+001 +1.2500e+000 -1.2500e+000
45548 0 +2.970671176e-008 +9.330000003e+001 +9.330000003e+001 +1.2500e+000 -1.2500e+000
45550 0 +2.915797381e-008 +9.330000003e+001 +9.330000003e+001 +1.2500e+000 -1.2500e+000
45567 0 +1.179374465e-008 +9.330000001e+001 +9.330000001e+001 +1.2500e+000 -1.2500e+000
45576 0 +5.602302622e-009 +9.330000001e+001 +9.330000001e+001 +1.2500e+000 -1.2500e+000
% f evaluations | g evaluations | best noise-free fitness - Fopt (1.364000000000e+001) + sum g_i+ | measured fitness | best measured fitness or single-digit g-values | x1 | x2...
1 0 +8.666352374e+001 +1.003035237e+002 +1.003035237e+002 +4.4140e+000 +4.0080e+000
2 0 +2.729531339e+001 +4.093531339e+001 +4.093531339e+001 -3.9506e-001 +1.4557e+000
4 0 +2.495336956e+001 +3.859336956e+001 +3.859336956e+001 -5.0000e+000 -5.0000e+000
10 0 +3.130642665e+000 +1.677064267e+001 +1.677064267e+001 -3.0254e+000 -2.5961e+000
253 0 +2.909778465e+000 +1.654977846e+001 +1.654977846e+001 -1.9122e+000 -2.5956e+000
311 0 +2.761379842e+000 +1.640137984e+001 +1.640137984e+001 -2.4768e+000 -2.3052e+000
473 0 +2.742476254e+000 +1.638247625e+001 +1.638247625e+001 -2.6843e+000 -2.3507e+000
534 0 +2.144812797e+000 +1.578481280e+001 +1.578481280e+001 -2.8063e+000 -2.5116e+000
969 0 +2.096981480e+000 +1.573698148e+001 +1.573698148e+001 -2.7861e+000 -3.0898e+000
1008 0 +2.034052775e+000 +1.567405277e+001 +1.567405277e+001 -2.7868e+000 -3.0942e+000
2735 0 +1.646244680e+000 +1.528624468e+001 +1.528624468e+001 +7.7328e-001 +1.4416e+000
2807 0 +1.170866084e+000 +1.481086608e+001 +1.481086608e+001 +7.7289e-001 +1.4483e+000
2880 0 +1.147622399e+000 +1.478762240e+001 +1.478762240e+001 +7.7353e-001 +1.4490e+000
2903 0 +1.119045046e+000 +1.475904505e+001 +1.475904505e+001 +7.7455e-001 +1.4514e+000
2949 0 +1.093054955e+000 +1.473305496e+001 +1.473305496e+001 +7.7636e-001 +1.4562e+000
2975 0 +1.071153596e+000 +1.471115360e+001 +1.471115360e+001 +7.7660e-001 +1.4583e+000
7384 0 +9.080745719e-001 +1.454807457e+001 +1.454807457e+001 +1.0880e+000 +8.3415e-001
7458 0 +7.677333542e-001 +1.440773335e+001 +1.440773335e+001 +1.0078e+000 +9.4877e-001
7508 0 +7.563810578e-001 +1.439638106e+001 +1.439638106e+001 +1.0076e+000 +9.4828e-001
7637 0 +7.328124449e-001 +1.437281244e+001 +1.437281244e+001 +1.0073e+000 +9.4718e-001
7651 0 +7.238739703e-001 +1.436387397e+001 +1.436387397e+001 +1.0072e+000 +9.4673e-001
7667 0 +7.036175570e-001 +1.434361756e+001 +1.434361756e+001 +1.0069e+000 +9.4557e-001
7668 0 +6.900189500e-001 +1.433001895e+001 +1.433001895e+001 +1.0066e+000 +9.4471e-001
7670 0 +6.709756187e-001 +1.431097562e+001 +1.431097562e+001 +1.0063e+000 +9.4343e-001
7673 0 +6.561546554e-001 +1.429615466e+001 +1.429615466e+001 +1.0063e+000 +9.4263e-001
7680 0 +6.399689084e-001 +1.427996891e+001 +1.427996891e+001 +1.0057e+000 +9.4025e-001
14254 0 +5.704565350e-001 +1.421045654e+001 +1.421045654e+001 +1.4191e+000 +1.0490e+000
14261 0 +5.620711842e-001 +1.420207118e+001 +1.420207118e+001 +1.4208e+000 +1.0508e+000
14265 0 +5.432778786e-001 +1.418327788e+001 +1.418327788e+001 +1.4206e+000 +1.0507e+000
14268 0 +4.345742295e-001 +1.407457423e+001 +1.407457423e+001 +1.4208e+000 +1.0535e+000
14276 0 +4.171463989e-001 +1.405714640e+001 +1.405714640e+001 +1.4208e+000 +1.0546e+000
14280 0 +2.846611458e-001 +1.392466115e+001 +1.392466115e+001 +1.4238e+000 +1.0640e+000
14286 0 +2.737291187e-001 +1.391372912e+001 +1.391372912e+001 +1.4240e+000 +1.0642e+000
14288 0 +2.569512446e-001 +1.389695124e+001 +1.389695124e+001 +1.4254e+000 +1.0679e+000
16376 0 +1.392901776e-001 +1.377929018e+001 +1.377929018e+001 +1.1595e+000 +1.3346e+000
16392 0 +8.196074520e-002 +1.372196075e+001 +1.372196075e+001 +1.1619e+000 +1.3385e+000
16398 0 +6.553851800e-002 +1.370553852e+001 +1.370553852e+001 +1.1622e+000 +1.3412e+000
16471 0 +6.432036746e-002 +1.370432037e+001 +1.370432037e+001 +1.1624e+000 +1.3415e+000
31513 0 +5.722484454e-002 +1.369722484e+001 +1.369722484e+001 +1.2487e+000 +1.2441e+000
31597 0 +2.999860263e-002 +1.366999860e+001 +1.366999860e+001 +1.2485e+000 +1.2446e+000
31604 0 +1.790593792e-002 +1.365790594e+001 +1.365790594e+001 +1.2487e+000 +1.2456e+000
31624 0 +1.076389369e-002 +1.365076389e+001 +1.365076389e+001 +1.2492e+000 +1.2469e+000
31659 0 +6.940746373e-003 +1.364694075e+001 +1.364694075e+001 +1.2491e+000 +1.2472e+000
31666 0 +5.302767485e-003 +1.364530277e+001 +1.364530277e+001 +1.2493e+000 +1.2477e+000
31683 0 +3.106072430e-003 +1.364310607e+001 +1.364310607e+001 +1.2494e+000 +1.2481e+000
31685 0 +2.680290454e-003 +1.364268029e+001 +1.364268029e+001 +1.2495e+000 +1.2490e+000
31687 0 +1.374312684e-003 +1.364137431e+001 +1.364137431e+001 +1.2497e+000 +1.2494e+000
31695 0 +9.690404784e-004 +1.364096904e+001 +1.364096904e+001 +1.2498e+000 +1.2496e+000
31702 0 +6.525729653e-004 +1.364065257e+001 +1.364065257e+001 +1.2497e+000 +1.2494e+000
31712 0 +4.810074106e-004 +1.364048101e+001 +1.364048101e+001 +1.2498e+000 +1.2493e+000
31723 0 +1.873334619e-004 +1.364018733e+001 +1.364018733e+001 +1.2500e+000 +1.2499e+000
31728 0 +1.836620209e-004 +1.364018366e+001 +1.364018366e+001 +1.2501e+000 +1.2503e+000
31750 0 +1.743020059e-004 +1.364017430e+001 +1.364017430e+001 +1.2502e+000 +1.2504e+000
31761 0 +3.783665240e-005 +1.364003784e+001 +1.364003784e+001 +1.2499e+000 +1.2498e+000
31770 0 +1.248001261e-005 +1.364001248e+001 +1.364001248e+001 +1.2500e+000 +1.2499e+000
31783 0 +1.965765293e-007 +1.364000020e+001 +1.364000020e+001 +1.2500e+000 +1.2500e+000
31859 0 +1.831970096e-007 +1.364000018e+001 +1.364000018e+001 +1.2500e+000 +1.2500e+000
31884 0 +5.820552751e-008 +1.364000006e+001 +1.364000006e+001 +1.2500e+000 +1.2500e+000
31885 0 +1.195548549e-008 +1.364000001e+001 +1.364000001e+001 +1.2500e+000 +1.2500e+000
31899 0 +8.533906026e-009 +1.364000001e+001 +1.364000001e+001 +1.2500e+000 +1.2500e+000
% f evaluations | g evaluations | best noise-free fitness - Fopt (1.948000000000e+002) + sum g_i+ | measured fitness | best measured fitness or single-digit g-values | x1 | x2...
1 0 +2.779557142e+001 +2.225955714e+002 +2.225955714e+002 +5.1497e-001 -2.5610e-001
2 0 +1.025569947e+001 +2.050556995e+002 +2.050556995e+002 +2.2426e+000 -2.1688e-001
17 0 +9.087610487e+000 +2.038876105e+002 +2.038876105e+002 -2.3764e+000 +2.0551e+000
22 0 +4.841305857e+000 +1.996413059e+002 +1.996413059e+002 +1.9104e+000 -1.6205e+000
132 0 +2.909867723e+000 +1.977098677e+002 +1.977098677e+002 +3.3847e+000 -3.9026e+000
395 0 +2.870453923e+000 +1.976704539e+002 +1.976704539e+002 +3.4958e+000 -3.6807e+000
823 0 +2.815719553e+000 +1.976157196e+002 +1.976157196e+002 +3.4976e+000 -3.6791e+000
828 0 +2.604504231e+000 +1.974045042e+002 +1.974045042e+002 +3.4130e+000 -3.6659e+000
873 0 +2.508080253e+000 +1.973080803e+002 +1.973080803e+002 +3.4138e+000 -3.6648e+000
3058 0 +2.382386495e+000 +1.971823865e+002 +1.971823865e+002 +3.4356e+000 -2.6917e+000
3125 0 +2.233430310e+000 +1.970334303e+002 +1.970334303e+002 +3.4260e+000 -2.6973e+000
3256 0 +2.143212499e+000 +1.969432125e+002 +1.969432125e+002 +2.6541e+000 -3.1294e+000
3259 0 +2.101748288e+000 +1.969017483e+002 +1.969017483e+002 +2.6545e+000 -3.1287e+000
3355 0 +2.072739287e+000 +1.968727393e+002 +1.968727393e+002 +2.6495e+000 -3.1306e+000
12761 0 +2.040665431e+000 +1.968406654e+002 +1.968406654e+002 +2.8923e+000 -2.8999e+000
137360 0 +1.610769045e+000 +1.964107690e+002 +1.964107690e+002 -1.0039e+000 +9.7338e-001
137445 0 +1.583185979e+000 +1.963831860e+002 +1.963831860e+002 -1.0034e+000 +9.7629e-001
137493 0 +1.479275642e+000 +1.962792756e+002 +1.962792756e+002 -1.0037e+000 +9.7489e-001
137573 0 +1.468833225e+000 +1.962688332e+002 +1.962688332e+002 -1.0035e+000 +9.7480e-001
137589 0 +1.422534124e+000 +1.962225341e+002 +1.962225341e+002 -1.0019e+000 +9.7484e-001
137603 0 +1.379793940e+000 +1.961797939e+002 +1.961797939e+002 -1.0010e+000 +9.7520e-001
137646 0 +1.328653035e+000 +1.961286530e+002 +1.961286530e+002 -1.0009e+000 +9.7598e-001
137663 0 +1.307149173e+000 +1.961071492e+002 +1.961071492e+002 -1.0002e+000 +9.7687e-001
137700 0 +1.239363798e+000 +1.960393638e+002 +1.960393638e+002 -9.9719e-001 +9.7659e-001
137701 0 +1.152674090e+000 +1.959526741e+002 +1.959526741e+002 -9.9665e-001 +9.7734e-001
137706 0 +1.104913252e+000 +1.959049133e+002 +1.959049133e+002 -9.9589e-001 +9.7893e-001
137725 0 +9.812997537e-001 +1.957812998e+002 +1.957812998e+002 -9.9232e-001 +9.7925e-001
137727 0 +9.174616071e-001 +1.957174616e+002 +1.957174616e+002 -9.9151e-001 +9.8064e-001
137733 0 +8.061397691e-001 +1.956061398e+002 +1.956061398e+002 -9.8025e-001 +9.8717e-001
137736 0 +7.832211927e-001 +1.955832212e+002 +1.955832212e+002 -9.7346e-001 +9.9040e-001
137738 0 +7.630914740e-001 +1.955630915e+002 +1.955630915e+002 -9.7308e-001 +9.9049e-001
137748 0 +6.403716378e-001 +1.954403716e+002 +1.954403716e+002 -9.6907e-001 +9.8980e-001
137761 0 +5.833489038e-001 +1.953833489e+002 +1.953833489e+002 -9.7167e-001 +9.8929e-001
139319 0 +2.830045074e-001 +1.950830045e+002 +1.950830045e+002 -1.1810e+000 +1.0014e+000
139341 0 +2.813311664e-001 +1.950813312e+002 +1.950813312e+002 -1.1818e+000 +1.0007e+000
139380 0 +2.752927425e-001 +1.950752927e+002 +1.950752927e+002 -1.1807e+000 +1.0011e+000
139401 0 +2.644051476e-001 +1.950644051e+002 +1.950644051e+002 -1.2779e+000 +1.0099e+000
139405 0 +2.447586508e-001 +1.950447587e+002 +1.950447587e+002 -1.2825e+000 +1.0081e+000
139520 0 +2.396462217e-001 +1.950396462e+002 +1.950396462e+002 -1.2824e+000 +1.0085e+000
141710 0 +1.406828747e-001 +1.949406829e+002 +1.949406829e+002 -1.3451e+000 +1.2610e+000
141951 0 +1.309605980e-001 +1.949309606e+002 +1.949309606e+002 -1.3430e+000 +1.2613e+000
142013 0 +1.203422717e-001 +1.949203423e+002 +1.949203423e+002 -1.3438e+000 +1.2611e+000
142023 0 +1.183640237e-001 +1.949183640e+002 +1.949183640e+002 -1.3501e+000 +1.2589e+000
142031 0 +7.987577010e-002 +1.948798758e+002 +1.948798758e+002 -1.3487e+000 +1.2592e+000
142041 0 +7.903640147e-002 +1.948790364e+002 +1.948790364e+002 -1.3500e+000 +1.2586e+000
142094 0 +5.392654336e-002 +1.948539265e+002 +1.948539265e+002 -1.3497e+000 +1.2583e+000
142103 0 +5.213904622e-002 +1.948521390e+002 +1.948521390e+002 -1.3499e+000 +1.2582e+000
142116 0 +4.933627754e-002 +1.948493363e+002 +1.948493363e+002 -1.3499e+000 +1.2581e+000
142121 0 +4.811738901e-002 +1.948481174e+002 +1.948481174e+002 -1.3501e+000 +1.2580e+000
142127 0 +4.659329265e-002 +1.948465933e+002 +1.948465933e+002 -1.3504e+000 +1.2577e+000
142128 0 +4.423102380e-002 +1.948442310e+002 +1.948442310e+002 -1.3528e+000 +1.2565e+000
142130 0 +4.339845304e-002 +1.948433985e+002 +1.948433985e+002 -1.3524e+000 +1.2567e+000
142137 0 +4.243356635e-002 +1.948424336e+002 +1.948424336e+002 -1.3523e+000 +1.2569e+000
145179 0 +3.897750661e-002 +1.948389775e+002 +1.948389775e+002 -1.2557e+000 +1.2471e+000
145274 0 +3.762027772e-002 +1.948376203e+002 +1.948376203e+002 -1.2562e+000 +1.2472e+000
145370 0 +3.629015017e-002 +1.948362902e+002 +1.948362902e+002 -1.2488e+000 +1.2498e+000
145555 0 +3.280470320e-002 +1.948328047e+002 +1.948328047e+002 -1.2487e+000 +1.2499e+000
145569 0 +2.641435198e-002 +1.948264144e+002 +1.948264144e+002 -1.2552e+000 +1.2477e+000
145589 0 +2.617599585e-002 +1.948261760e+002 +1.948261760e+002 -1.2552e+000 +1.2477e+000
145598 0 +1.736226442e-002 +1.948173623e+002 +1.948173623e+002 -1.2538e+000 +1.2485e+000
145612 0 +1.645984250e-002 +1.948164598e+002 +1.948164598e+002 -1.2528e+000 +1.2491e+000
145615 0 +1.559317647e-002 +1.948155932e+002 +1.948155932e+002 -1.2528e+000 +1.2491e+000
145621 0 +6.251303515e-003 +1.948062513e+002 +1.948062513e+002 -1.2525e+000 +1.2488e+000
145629 0 +5.267737039e-003 +1.948052677e+002 +1.948052677e+002 -1.2523e+000 +1.2489e+000
145635 0 +1.532062072e-003 +1.948015321e+002 +1.948015321e+002 -1.2509e+000 +1.2495e+000
145643 0 +1.509798968e-003 +1.948015098e+002 +1.948015098e+002 -1.2510e+000 +1.2494e+000
145649 0 +1.304167021e-003 +1.948013042e+002 +1.948013042e+002 -1.2511e+000 +1.2495e+000
145656 0 +7.924268520e-004 +1.948007924e+002 +1.948007924e+002 -1.2507e+000 +1.2496e+000
145672 0 +4.452789292e-004 +1.948004453e+002 +1.948004453e+002 -1.2500e+000 +1.2499e+000
145677 0 +4.364540600e-004 +1.948004365e+002 +1.948004365e+002 -1.2501e+000 +1.2499e+000
145694 0 +4.036014075e-004 +1.948004036e+002 +1.948004036e+002 -1.2504e+000 +1.2498e+000
145696 0 +3.653110552e-004 +1.948003653e+002 +1.948003653e+002 -1.2503e+000 +1.2498e+000
145703 0 +2.978337059e-004 +1.948002978e+002 +1.948002978e+002 -1.2501e+000 +1.2499e+000
145716 0 +1.364936962e-004 +1.948001365e+002 +1.948001365e+002 -1.2503e+000 +1.2499e+000
145722 0 +2.521028364e-007 +1.948000003e+002 +1.948000003e+002 -1.2500e+000 +1.2500e+000
145758 0 +8.152753139e-008 +1.948000001e+002 +1.948000001e+002 -1.2500e+000 +1.2500e+000
145769 0 +4.802180342e-008 +1.948000000e+002 +1.948000000e+002 -1.2500e+000 +1.2500e+000
145812 0 +3.934053439e-008 +1.948000000e+002 +1.948000000e+002 -1.2500e+000 +1.2500e+000
145824 0 +3.875729249e-008 +1.948000000e+002 +1.948000000e+002 -1.2500e+000 +1.2500e+000
145835 0 +2.985092351e-008 +1.948000000e+002 +1.948000000e+002 -1.2500e+000 +1.2500e+000
145837 0 +2.652063813e-008 +1.948000000e+002 +1.948000000e+002 -1.2500e+000 +1.2500e+000
145843 0 +8.127784668e-009 +1.948000000e+002 +1.948000000e+002 -1.2500e+000 +1.2500e+000
% f evaluations | g evaluations | best noise-free fitness - Fopt (-1.335900000000e+002) + sum g_i+ | measured fitness | best measured fitness or single-digit g-values | x1 | x2...
1 0 +4.026117785e+001 -9.332882215e+001 -9.332882215e+001 -1.7877e+000 +2.4872e+000
2 0 +2.206861557e+001 -1.115213844e+002 -1.115213844e+002 -3.0822e+000 +4.7028e-001
3 0 +1.493703144e+001 -1.186529686e+002 -1.186529686e+002 -1.8082e+000 +3.2312e+000
14 0 +5.478482591e+000 -1.281115174e+002 -1.281115174e+002 -1.8818e+000 +1.3374e+000
173 0 +5.074918198e+000 -1.285150818e+002 -1.285150818e+002 -3.6879e+000 +2.2328e+000
185 0 +2.686460756e+000 -1.309035392e+002 -1.309035392e+002 -3.4020e+000 +2.2102e+000
547 0 +2.410697157e+000 -1.311793028e+002 -1.311793028e+002 -2.3836e+000 +3.1774e+000
832 0 +2.275624400e+000 -1.313143756e+002 -1.313143756e+002 -2.3835e+000 +3.1796e+000
958 0 +2.230084614e+000 -1.313599154e+002 -1.313599154e+002 -2.3796e+000 +3.1826e+000
2642 0 +2.186174610e+000 -1.314038254e+002 -1.314038254e+002 -2.9304e+000 +3.4551e+000
5808 0 +2.112429458e+000 -1.314775705e+002 -1.314775705e+002 -3.1537e+000 +2.6629e+000
5913 0 +2.088429504e+000 -1.315015705e+002 -1.315015705e+002 -3.1562e+000 +2.6621e+000
7313 0 +2.039808440e+000 -1.315501916e+002 -1.315501916e+002 -2.9496e+000 +2.9296e+000
90845 0 +1.285976632e+000 -1.323040234e+002 -1.323040234e+002 +1.0842e+000 -9.7855e-001
90856 0 +1.124825414e+000 -1.324651746e+002 -1.324651746e+002 +1.0817e+000 -9.8042e-001
90870 0 +5.739491707e-001 -1.330160508e+002 -1.330160508e+002 +1.0858e+000 -9.7235e-001
90896 0 +4.736038147e-001 -1.331163962e+002 -1.331163962e+002 +1.0822e+000 -9.7594e-001
90942 0 +4.383661167e-001 -1.331516339e+002 -1.331516339e+002 +1.0795e+000 -9.7808e-001
90945 0 +4.326246878e-001 -1.331573753e+002 -1.331573753e+002 +1.0790e+000 -9.7855e-001
90993 0 +4.204064419e-001 -1.331695936e+002 -1.331695936e+002 +1.0780e+000 -9.7998e-001
91004 0 +4.159584226e-001 -1.331740416e+002 -1.331740416e+002 +1.0753e+000 -9.8254e-001
97123 0 +3.975897591e-001 -1.331924102e+002 -1.331924102e+002 +1.0090e+000 -1.1884e+000
97236 0 +3.858942358e-001 -1.332041058e+002 -1.332041058e+002 +1.0090e+000 -1.1886e+000
97238 0 +3.097928755e-001 -1.332802071e+002 -1.332802071e+002 +1.0955e+000 -1.3227e+000
97267 0 +2.940663545e-001 -1.332959336e+002 -1.332959336e+002 +1.0971e+000 -1.3236e+000
97373 0 +2.347896187e-001 -1.333552104e+002 -1.333552104e+002 +1.0965e+000 -1.3230e+000
97468 0 +2.138713399e-001 -1.333761287e+002 -1.333761287e+002 +1.0974e+000 -1.3219e+000
97488 0 +1.823538506e-001 -1.334076461e+002 -1.334076461e+002 +1.0997e+000 -1.3194e+000
97495 0 +1.652371714e-001 -1.334247628e+002 -1.334247628e+002 +1.0999e+000 -1.3194e+000
97506 0 +1.033163905e-001 -1.334866836e+002 -1.334866836e+002 +1.1073e+000 -1.3132e+000
97714 0 +4.326772877e-002 -1.335467323e+002 -1.335467323e+002 +1.2451e+000 -1.2547e+000
97720 0 +2.388331604e-002 -1.335661167e+002 -1.335661167e+002 +1.2512e+000 -1.2497e+000
97731 0 +1.818168952e-002 -1.335718183e+002 -1.335718183e+002 +1.2514e+000 -1.2494e+000
97735 0 +1.727469044e-002 -1.335727253e+002 -1.335727253e+002 +1.2512e+000 -1.2495e+000
97744 0 +1.637355362e-002 -1.335736264e+002 -1.335736264e+002 +1.2511e+000 -1.2497e+000
97749 0 +1.575347310e-002 -1.335742465e+002 -1.335742465e+002 +1.2509e+000 -1.2498e+000
97760 0 +1.377102788e-002 -1.335762290e+002 -1.335762290e+002 +1.2486e+000 -1.2517e+000
97786 0 +1.288152025e-002 -1.335771185e+002 -1.335771185e+002 +1.2491e+000 -1.2513e+000
97791 0 +1.253687144e-002 -1.335774631e+002 -1.335774631e+002 +1.2510e+000 -1.2496e+000
97796 0 +9.274590785e-003 -1.335807254e+002 -1.335807254e+002 +1.2493e+000 -1.2510e+000
97799 0 +8.741587071e-003 -1.335812584e+002 -1.335812584e+002 +1.2475e+000 -1.2522e+000
97804 0 +2.500564346e-004 -1.335897499e+002 -1.335897499e+002 +1.2502e+000 -1.2497e+000
97809 0 +1.398374848e-004 -1.335898602e+002 -1.335898602e+002 +1.2502e+000 -1.2498e+000
97861 0 +1.003316495e-004 -1.335898997e+002 -1.335898997e+002 +1.2502e+000 -1.2498e+000
97865 0 +8.740188426e-005 -1.335899126e+002 -1.335899126e+002 +1.2501e+000 -1.2499e+000
97868 0 +7.163067821e-005 -1.335899284e+002 -1.335899284e+002 +1.2500e+000 -1.2500e+000
97869 0 +6.523570187e-005 -1.335899348e+002 -1.335899348e+002 +1.2498e+000 -1.2501e+000
97870 0 +5.208087288e-005 -1.335899479e+002 -1.335899479e+002 +1.2499e+000 -1.2501e+000
97876 0 +2.766134497e-005 -1.335899723e+002 -1.335899723e+002 +1.2500e+000 -1.2500e+000
97878 0 +2.751995379e-005 -1.335899725e+002 -1.335899725e+002 +1.2500e+000 -1.2500e+000
97893 0 +2.645325202e-005 -1.335899735e+002 -1.335899735e+002 +1.2500e+000 -1.2500e+000
97894 0 +2.321573092e-005 -1.335899768e+002 -1.335899768e+002 +1.2500e+000 -1.2500e+000
97897 0 +1.495771340e-005 -1.335899850e+002 -1.335899850e+002 +1.2500e+000 -1.2500e+000
97905 0 +3.113749131e-006 -1.335899969e+002 -1.335899969e+002 +1.2500e+000 -1.2500e+000
97911 0 +7.257385448e-007 -1.335899993e+002 -1.335899993e+002 +1.2500e+000 -1.2500e+000
97915 0 +3.044478660e-007 -1.335899997e+002 -1.335899997e+002 +1.2500e+000 -1.2500e+000
97918 0 +2.177376075e-007 -1.335899998e+002 -1.335899998e+002 +1.2500e+000 -1.2500e+000
97924 0 +1.340633276e-007 -1.335899999e+002 -1.335899999e+002 +1.2500e+000 -1.2500e+000
97988 0 +1.252341804e-007 -1.335899999e+002 -1.335899999e+002 +1.2500e+000 -1.2500e+000
98006 0 +1.036528374e-007 -1.335899999e+002 -1.335899999e+002 +1.2500e+000 -1.2500e+000
98017 0 +8.389744721e-008 -1.335899999e+002 -1.335899999e+002 +1.2500e+000 -1.2500e+000
98025 0 +4.833955813e-008 -1.335900000e+002 -1.335900000e+002 +1.2500e+000 -1.2500e+000
98029 0 +2.011569222e-008 -1.335900000e+002 -1.335900000e+002 +1.2500e+000 -1.2500e+000
98033 0 +1.314367637e-008 -1.335900000e+002 -1.335900000e+002 +1.2500e+000 -1.2500e+000
98038 0 +1.280054107e-008 -1.335900000e+002 -1.335900000e+002 +1.2500e+000 -1.2500e+000
98047 0 +9.807251899e-009 -1.335900000e+002 -1.335900000e+002 +1.2500e+000 -1.2500e+000
% f evaluations | g evaluations | best noise-free fitness - Fopt (-3.085000000000e+001) + sum g_i+ | measured fitness | best measured fitness or single-digit g-values | x1 | x2...
1 0 +4.839584961e+001 +1.754584961e+001 +1.754584961e+001 -4.2283e+000 -4.0969e-001
2 0 +2.313849891e+001 -7.711501091e+000 -7.711501091e+000 -2.2925e+000 +3.2202e+000
3 0 +1.236680097e+001 -1.848319903e+001 -1.848319903e+001 -9.4450e-001 -2.0823e+000
20 0 +1.119606079e+001 -1.965393921e+001 -1.965393921e+001 +1.2291e-001 -2.0722e+000
35 0 +1.070182755e+001 -2.014817245e+001 -2.014817245e+001 +1.4121e-001 -3.4439e+000
75 0 +3.947477462e+000 -2.690252254e+001 -2.690252254e+001 +1.4918e+000 -3.6054e+000
449 0 +2.990130481e+000 -2.785986952e+001 -2.785986952e+001 +3.6886e+000 -3.2312e+000
886 0 +2.704596175e+000 -2.814540383e+001 -2.814540383e+001 +2.6237e+000 -3.3692e+000
979 0 +2.176322793e+000 -2.867367721e+001 -2.867367721e+001 +3.0667e+000 -3.3709e+000
2337 0 +2.137531795e+000 -2.871246821e+001 -2.871246821e+001 +3.0664e+000 -3.3693e+000
4733 0 +2.048141045e+000 -2.880185896e+001 -2.880185896e+001 +2.7610e+000 -3.0293e+000
4777 0 +2.040050346e+000 -2.880994965e+001 -2.880994965e+001 +2.7657e+000 -3.0366e+000
57758 0 +1.455466716e+000 -2.939453328e+001 -2.939453328e+001 -1.2200e+000 +7.1969e-001
57764 0 +1.427539934e+000 -2.942246007e+001 -2.942246007e+001 -1.2197e+000 +7.1314e-001
57774 0 +1.274245140e+000 -2.957575486e+001 -2.957575486e+001 -1.2198e+000 +7.1512e-001
57965 0 +1.251405583e+000 -2.959859442e+001 -2.959859442e+001 -1.2199e+000 +7.1584e-001
58251 0 +1.229123038e+000 -2.962087696e+001 -2.962087696e+001 -1.2205e+000 +7.1672e-001
58325 0 +1.182474796e+000 -2.966752520e+001 -2.966752520e+001 -1.2217e+000 +7.1890e-001
58341 0 +1.158395643e+000 -2.969160436e+001 -2.969160436e+001 -1.2227e+000 +7.2034e-001
58351 0 +1.145059605e+000 -2.970494040e+001 -2.970494040e+001 -1.2234e+000 +7.2133e-001
58372 0 +1.119017712e+000 -2.973098229e+001 -2.973098229e+001 -1.2244e+000 +7.2334e-001
59351 0 +8.429550609e-001 -3.000704494e+001 -3.000704494e+001 -9.9482e-001 +1.1290e+000
59377 0 +3.310590671e-001 -3.051894093e+001 -3.051894093e+001 -1.0047e+000 +1.1416e+000
59428 0 +3.228387647e-001 -3.052716124e+001 -3.052716124e+001 -1.0038e+000 +1.1408e+000
59475 0 +3.037924267e-001 -3.054620757e+001 -3.054620757e+001 -1.0101e+000 +1.1514e+000
59476 0 +3.011020990e-001 -3.054889790e+001 -3.054889790e+001 -1.0100e+000 +1.1512e+000
59478 0 +2.840147375e-001 -3.056598526e+001 -3.056598526e+001 -1.0085e+000 +1.1489e+000
59484 0 +2.801285956e-001 -3.056987140e+001 -3.056987140e+001 -1.0071e+000 +1.1465e+000
69119 0 +1.825854643e-001 -3.066741454e+001 -3.066741454e+001 -1.2528e+000 +1.2574e+000
69126 0 +1.495980708e-001 -3.070040193e+001 -3.070040193e+001 -1.2542e+000 +1.2590e+000
69133 0 +1.012105831e-001 -3.074878942e+001 -3.074878942e+001 -1.2525e+000 +1.2561e+000
69139 0 +8.476308788e-002 -3.076523691e+001 -3.076523691e+001 -1.2485e+000 +1.2496e+000
69145 0 +3.468576773e-002 -3.081531423e+001 -3.081531423e+001 -1.2490e+000 +1.2496e+000
69146 0 +3.083078575e-002 -3.081916921e+001 -3.081916921e+001 -1.2520e+000 +1.2543e+000
69147 0 +2.176092568e-002 -3.082823907e+001 -3.082823907e+001 -1.2527e+000 +1.2543e+000
69148 0 +5.211842178e-003 -3.084478816e+001 -3.084478816e+001 -1.2509e+000 +1.2518e+000
69193 0 +4.791096093e-003 -3.084520890e+001 -3.084520890e+001 -1.2508e+000 +1.2517e+000
69205 0 +1.935645544e-003 -3.084806435e+001 -3.084806435e+001 -1.2496e+000 +1.2497e+000
69209 0 +1.885229351e-003 -3.084811477e+001 -3.084811477e+001 -1.2500e+000 +1.2503e+000
69211 0 +9.924432887e-004 -3.084900756e+001 -3.084900756e+001 -1.2499e+000 +1.2501e+000
69218 0 +7.172212299e-004 -3.084928278e+001 -3.084928278e+001 -1.2499e+000 +1.2501e+000
69226 0 +6.885196140e-004 -3.084931148e+001 -3.084931148e+001 -1.2499e+000 +1.2501e+000
69229 0 +6.358313163e-004 -3.084936417e+001 -3.084936417e+001 -1.2501e+000 +1.2504e+000
69233 0 +6.037184030e-004 -3.084939628e+001 -3.084939628e+001 -1.2501e+000 +1.2504e+000
69240 0 +2.599042382e-004 -3.084974010e+001 -3.084974010e+001 -1.2502e+000 +1.2504e+000
69262 0 +1.694957109e-004 -3.084983050e+001 -3.084983050e+001 -1.2502e+000 +1.2504e+000
69282 0 +3.281834413e-005 -3.084996718e+001 -3.084996718e+001 -1.2500e+000 +1.2499e+000
69297 0 +1.672168648e-005 -3.084998328e+001 -3.084998328e+001 -1.2499e+000 +1.2499e+000
69310 0 +1.580332112e-005 -3.084998420e+001 -3.084998420e+001 -1.2499e+000 +1.2499e+000
69325 0 +1.473888643e-005 -3.084998526e+001 -3.084998526e+001 -1.2499e+000 +1.2499e+000
69329 0 +7.848388798e-006 -3.084999215e+001 -3.084999215e+001 -1.2501e+000 +1.2501e+000
69339 0 +7.412300139e-006 -3.084999259e+001 -3.084999259e+001 -1.2500e+000 +1.2501e+000
69344 0 +2.959840220e-006 -3.084999704e+001 -3.084999704e+001 -1.2500e+000 +1.2500e+000
69388 0 +9.100202547e-007 -3.084999909e+001 -3.084999909e+001 -1.2500e+000 +1.2500e+000
69412 0 +1.177665006e-007 -3.084999988e+001 -3.084999988e+001 -1.2500e+000 +1.2500e+000
69419 0 +1.007323434e-007 -3.084999990e+001 -3.084999990e+001 -1.2500e+000 +1.2500e+000
69443 0 +4.071060644e-008 -3.084999996e+001 -3.084999996e+001 -1.2500e+000 +1.2500e+000
69451 0 +2.621056439e-008 -3.084999997e+001 -3.084999997e+001 -1.2500e+000 +1.2500e+000
69464 0 +5.713658879e-009 -3.084999999e+001 -3.084999999e+001 -1.2500e+000 +1.2500e+000
% f evaluations | g evaluations | best noise-free fitness - Fopt (-9.200000000000e+000) + sum g_i+ | measured fitness | best measured fitness or single-digit g-values | x1 | x2...
1 0 +8.153142922e+001 +7.233142922e+001 +7.233142922e+001 +1.7284e+000 -4.4626e+000
2 0 +3.892751461e+001 +2.972751461e+001 +2.972751461e+001 +1.2914e+000 +3.7541e+000
4 0 +3.848656790e+001 +2.928656790e+001 +2.928656790e+001 -5.0000e+000 +5.0000e+000
5 0 +1.685633689e+001 +7.656336891e+000 +7.656336891e+000 -1.6149e+000 +3.8779e+000
11 0 +1.229020903e+001 +3.090209031e+000 +3.090209031e+000 -4.9584e+000 +1.9695e+000
17 0 +5.431053113e+000 -3.768946887e+000 -3.768946887e+000 -2.8784e+000 +4.8790e+000
31 0 +3.632772684e+000 -5.567227316e+000 -5.567227316e+000 -2.9810e+000 +3.7357e+000
153 0 +3.465746260e+000 -5.734253740e+000 -5.734253740e+000 -2.9706e+000 +3.8476e+000
185 0 +2.392919042e+000 -6.807080958e+000 -6.807080958e+000 -2.9788e+000 +3.3909e+000
227 0 +2.200621216e+000 -6.999378784e+000 -6.999378784e+000 -2.9911e+000 +3.2267e+000
247 0 +2.133330633e+000 -7.066669367e+000 -7.066669367e+000 -2.9986e+000 +3.1169e+000
578 0 +2.056559859e+000 -7.143440141e+000 -7.143440141e+000 -3.0155e+000 +2.7826e+000
631 0 +2.027230533e+000 -7.172769467e+000 -7.172769467e+000 -3.0048e+000 +2.8339e+000
11331 0 +1.939668639e+000 -7.260331361e+000 -7.260331361e+000 +1.2274e+000 -1.4039e+000
11538 0 +1.826532473e+000 -7.373467527e+000 -7.373467527e+000 +1.2274e+000 -1.4040e+000
11583 0 +9.536260638e-001 -8.246373936e+000 -8.246373936e+000 +1.6873e+000 -1.3775e+000
12064 0 +9.295750386e-001 -8.270424961e+000 -8.270424961e+000 +1.7009e+000 -1.2730e+000
12078 0 +8.840525927e-001 -8.315947407e+000 -8.315947407e+000 +1.6951e+000 -1.2694e+000
12110 0 +8.637831676e-001 -8.336216832e+000 -8.336216832e+000 +1.6995e+000 -1.2718e+000
12132 0 +8.118499771e-001 -8.388150023e+000 -8.388150023e+000 +1.6991e+000 -1.2706e+000
12997 0 +2.727333959e-001 -8.927266604e+000 -8.927266604e+000 +1.2709e+000 -1.1463e+000
13128 0 +1.750502968e-001 -9.024949703e+000 -9.024949703e+000 +1.2668e+000 -1.1440e+000
13138 0 +1.149312906e-001 -9.085068709e+000 -9.085068709e+000 +1.2615e+000 -1.0849e+000
13236 0 +1.146026113e-001 -9.085397389e+000 -9.085397389e+000 +1.2614e+000 -1.0848e+000
13300 0 +1.111033417e-001 -9.088896658e+000 -9.088896658e+000 +1.2613e+000 -1.0846e+000
18628 0 +5.664536225e-002 -9.143354638e+000 -9.143354638e+000 +1.2412e+000 -1.3594e+000
18760 0 +3.426619078e-002 -9.165733809e+000 -9.165733809e+000 +1.2534e+000 -1.2513e+000
18839 0 +8.150130115e-004 -9.199184987e+000 -9.199184987e+000 +1.2508e+000 -1.2505e+000
18948 0 +5.740608109e-004 -9.199425939e+000 -9.199425939e+000 +1.2507e+000 -1.2504e+000
19015 0 +3.823282303e-004 -9.199617672e+000 -9.199617672e+000 +1.2506e+000 -1.2503e+000
19026 0 +2.962295378e-004 -9.199703770e+000 -9.199703770e+000 +1.2503e+000 -1.2502e+000
19033 0 +1.613357305e-004 -9.199838664e+000 -9.199838664e+000 +1.2500e+000 -1.2500e+000
19041 0 +1.479694871e-004 -9.199852031e+000 -9.199852031e+000 +1.2502e+000 -1.2501e+000
19055 0 +1.418866580e-004 -9.199858113e+000 -9.199858113e+000 +1.2502e+000 -1.2502e+000
19060 0 +1.003712410e-004 -9.199899629e+000 -9.199899629e+000 +1.2500e+000 -1.2500e+000
19070 0 +4.567511585e-005 -9.199954325e+000 -9.199954325e+000 +1.2499e+000 -1.2499e+000
19082 0 +1.122427034e-005 -9.199988776e+000 -9.199988776e+000 +1.2499e+000 -1.2500e+000
19114 0 +8.537393070e-006 -9.199991463e+000 -9.199991463e+000 +1.2500e+000 -1.2500e+000
19117 0 +1.687556562e-006 -9.199998312e+000 -9.199998312e+000 +1.2500e+000 -1.2500e+000
19119 0 +1.491474295e-006 -9.199998509e+000 -9.199998509e+000 +1.2500e+000 -1.2500e+000
19155 0 +6.491675801e-007 -9.199999351e+000 -9.199999351e+000 +1.2500e+000 -1.2500e+000
19157 0 +5.240815053e-007 -9.199999476e+000 -9.199999476e+000 +1.2500e+000 -1.2500e+000
19199 0 +5.357792432e-008 -9.199999946e+000 -9.199999946e+000 +1.2500e+000 -1.2500e+000
19221 0 +4.489297645e-008 -9.199999955e+000 -9.199999955e+000 +1.2500e+000 -1.2500e+000
19231 0 +3.083831857e-009 -9.199999997e+000 -9.199999997e+000 +1.2500e+000 -1.2500e+000
% f evaluations | g evaluations | best noise-free fitness - Fopt (-2.037600000000e+002) + sum g_i+ | measured fitness | best measured fitness or single-digit g-values | x1 | x2...
1 0 +6.146350646e+001 -1.422964935e+002 -1.422964935e+002 -1.8890e-001 -4.1742e+000
2 0 +3.305716955e+001 -1.707028305e+002 -1.707028305e+002 -3.3713e+000 +3.0613e+000
3 0 +2.299102917e+001 -1.807689708e+002 -1.807689708e+002 +1.0146e+000 -1.0123e+000
4 0 +1.912644423e+001 -1.846335558e+002 -1.846335558e+002 +5.0000e+000 +5.0000e+000
10 0 +1.566396406e+001 -1.880960359e+002 -1.880960359e+002 +1.9152e+000 +3.6498e+000
18 0 +8.915355973e+000 -1.948446440e+002 -1.948446440e+002 +2.1143e+000 +3.7570e+000
23 0 +6.370402393e+000 -1.973895976e+002 -1.973895976e+002 +3.5171e+000 +4.6451e+000
27 0 +3.879577123e+000 -1.998804229e+002 -1.998804229e+002 +3.1151e+000 +3.0407e+000
113 0 +3.439632941e+000 -2.003203671e+002 -2.003203671e+002 +3.9307e+000 +2.2469e+000
211 0 +2.847237015e+000 -2.009127630e+002 -2.009127630e+002 +2.9952e+000 +2.3251e+000
524 0 +2.475138093e+000 -2.012848619e+002 -2.012848619e+002 +3.0934e+000 +3.7062e+000
839 0 +2.447971251e+000 -2.013120287e+002 -2.013120287e+002 +3.0932e+000 +3.7067e+000
918 0 +2.388732989e+000 -2.013712670e+002 -2.013712670e+002 +3.0854e+000 +3.6991e+000
1789 0 +2.320629580e+000 -2.014393704e+002 -2.014393704e+002 +2.8885e+000 +3.1309e+000
1828 0 +2.245032954e+000 -2.015149670e+002 -2.015149670e+002 +2.8914e+000 +3.1340e+000
1829 0 +2.235116039e+000 -2.015248840e+002 -2.015248840e+002 +2.8885e+000 +3.1300e+000
1873 0 +2.116663854e+000 -2.016433361e+002 -2.016433361e+002 +2.8950e+000 +3.1372e+000
1887 0 +2.066466556e+000 -2.016935334e+002 -2.016935334e+002 +2.8954e+000 +3.1356e+000
1909 0 +2.038296076e+000 -2.017217039e+002 -2.017217039e+002 +2.8969e+000 +3.1381e+000
11138 0 +8.600780878e-001 -2.028999219e+002 -2.028999219e+002 -9.8622e-001 -1.5279e+000
11431 0 +3.852796536e-001 -2.033747203e+002 -2.033747203e+002 -1.3644e+000 -1.4372e+000
11605 0 +3.657558630e-001 -2.033942441e+002 -2.033942441e+002 -1.3636e+000 -1.4368e+000
11640 0 +3.618328544e-001 -2.033981671e+002 -2.033981671e+002 -1.3631e+000 -1.4365e+000
11696 0 +1.896997132e-001 -2.035703003e+002 -2.035703003e+002 -1.3530e+000 -1.4261e+000
11716 0 +1.665151325e-001 -2.035934849e+002 -2.035934849e+002 -1.3530e+000 -1.4254e+000
12862 0 +1.074493122e-001 -2.036525507e+002 -2.036525507e+002 -1.1275e+000 -1.2820e+000
12867 0 +7.985943373e-002 -2.036801406e+002 -2.036801406e+002 -1.1250e+000 -1.2801e+000
12873 0 +6.980698397e-002 -2.036901930e+002 -2.036901930e+002 -1.1259e+000 -1.2816e+000
13069 0 +6.685257001e-002 -2.036931474e+002 -2.036931474e+002 -1.1262e+000 -1.2817e+000
13212 0 +6.527653877e-002 -2.036947235e+002 -2.036947235e+002 -1.1280e+000 -1.2834e+000
13259 0 +6.454247833e-002 -2.036954575e+002 -2.036954575e+002 -1.1275e+000 -1.2830e+000
46247 0 +4.727763952e-002 -2.037127224e+002 -2.037127224e+002 -1.2458e+000 -1.2450e+000
46271 0 +4.159529544e-002 -2.037184047e+002 -2.037184047e+002 -1.2465e+000 -1.2471e+000
46383 0 +3.970188421e-002 -2.037202981e+002 -2.037202981e+002 -1.2451e+000 -1.2450e+000
46887 0 +2.975183141e-002 -2.037302482e+002 -2.037302482e+002 -1.2458e+000 -1.2456e+000
46905 0 +2.694100868e-002 -2.037330590e+002 -2.037330590e+002 -1.2461e+000 -1.2458e+000
47000 0 +2.468773346e-002 -2.037353123e+002 -2.037353123e+002 -1.2467e+000 -1.2462e+000
47070 0 +1.701760098e-002 -2.037429824e+002 -2.037429824e+002 -1.2482e+000 -1.2476e+000
47085 0 +1.112565643e-002 -2.037488743e+002 -2.037488743e+002 -1.2479e+000 -1.2475e+000
47109 0 +2.656911153e-003 -2.037573431e+002 -2.037573431e+002 -1.2491e+000 -1.2492e+000
47120 0 +2.316051340e-003 -2.037576839e+002 -2.037576839e+002 -1.2491e+000 -1.2492e+000
47154 0 +1.810222432e-003 -2.037581898e+002 -2.037581898e+002 -1.2491e+000 -1.2491e+000
47165 0 +1.539728749e-003 -2.037584603e+002 -2.037584603e+002 -1.2491e+000 -1.2492e+000
47180 0 +6.732072214e-004 -2.037593268e+002 -2.037593268e+002 -1.2497e+000 -1.2499e+000
47186 0 +6.018660263e-004 -2.037593981e+002 -2.037593981e+002 -1.2506e+000 -1.2506e+000
47199 0 +5.458827306e-004 -2.037594541e+002 -2.037594541e+002 -1.2506e+000 -1.2506e+000
47221 0 +3.609965836e-005 -2.037599639e+002 -2.037599639e+002 -1.2499e+000 -1.2499e+000
47236 0 +3.499104224e-005 -2.037599650e+002 -2.037599650e+002 -1.2499e+000 -1.2499e+000
47265 0 +2.778717004e-005 -2.037599722e+002 -2.037599722e+002 -1.2500e+000 -1.2499e+000
47267 0 +8.811304440e-006 -2.037599912e+002 -2.037599912e+002 -1.2500e+000 -1.2500e+000
47269 0 +2.172943425e-006 -2.037599978e+002 -2.037599978e+002 -1.2500e+000 -1.2500e+000
47293 0 +2.962656254e-008 -2.037600000e+002 -2.037600000e+002 -1.2500e+000 -1.2500e+000
47336 0 +1.910234460e-008 -2.037600000e+002 -2.037600000e+002 -1.2500e+000 -1.2500e+000
47380 0 +1.018349849e-009 -2.037600000e+002 -2.037600000e+002 -1.2500e+000 -1.2500e+000
% f evaluations | g evaluations | best noise-free fitness - Fopt (3.399000000000e+001) + sum g_i+ | measured fitness | best measured fitness or single-digit g-values | x1 | x2...
1 0 +3.314095373e+001 +6.713095373e+001 +6.713095373e+001 -4.6220e+000 -1.8880e+000
2 0 +3.268803155e+001 +6.667803155e+001 +6.667803155e+001 +2.7925e+000 +3.5614e+000
3 0 +1.315362252e+001 +4.714362252e+001 +4.714362252e+001 -1.9907e+000 +2.2400e+000
22 0 +7.511390752e+000 +4.150139075e+001 +4.150139075e+001 -2.0845e+000 +1.3867e+000
61 0 +6.217530095e+000 +4.020753010e+001 +4.020753010e+001 -3.8407e+000 +1.9641e+000
163 0 +5.453724172e+000 +3.944372417e+001 +3.944372417e+001 -4.9710e+000 +2.3786e+000
170 0 +4.726186613e+000 +3.871618661e+001 +3.871618661e+001 -2.3273e+000 +2.4189e+000
175 0 +4.538710464e+000 +3.852871046e+001 +3.852871046e+001 -4.0906e+000 +2.0418e+000
281 0 +4.344559745e+000 +3.833455975e+001 +3.833455975e+001 -4.0897e+000 +2.0473e+000
301 0 +4.130951982e+000 +3.812095198e+001 +3.812095198e+001 -4.0897e+000 +2.0499e+000
344 0 +3.613803376e+000 +3.760380338e+001 +3.760380338e+001 -3.7326e+000 +2.0467e+000
364 0 +3.518151311e+000 +3.750815131e+001 +3.750815131e+001 -3.4909e+000 +1.4787e+000
1356 0 +3.274368219e+000 +3.726436822e+001 +3.726436822e+001 -3.9309e+000 +3.5375e+000
1404 0 +2.133147788e+000 +3.612314779e+001 +3.612314779e+001 -3.1539e+000 +2.7245e+000
1668 0 +2.081703197e+000 +3.607170320e+001 +3.607170320e+001 -3.1555e+000 +2.7245e+000
3732 0 +2.014494000e+000 +3.600449400e+001 +3.600449400e+001 -2.8655e+000 +3.0565e+000
41683 0 +1.352185063e+000 +3.534218506e+001 +3.534218506e+001 +1.7789e+000 -1.0639e+000
41876 0 +1.332240154e+000 +3.532224015e+001 +3.532224015e+001 +1.7786e+000 -1.0638e+000
41940 0 +9.472861115e-001 +3.493728611e+001 +3.493728611e+001 +1.4273e+000 -1.0215e+000
41962 0 +7.995293370e-001 +3.478952934e+001 +3.478952934e+001 +1.4274e+000 -1.0259e+000
42002 0 +7.767254913e-001 +3.476672549e+001 +3.476672549e+001 +1.4272e+000 -1.0261e+000
42005 0 +7.006060044e-001 +3.469060600e+001 +3.469060600e+001 +1.4267e+000 -1.0276e+000
42026 0 +6.454560598e-001 +3.463545606e+001 +3.463545606e+001 +1.4268e+000 -1.0299e+000
42051 0 +5.921874648e-001 +3.458218746e+001 +3.458218746e+001 +1.4268e+000 -1.0328e+000
42053 0 +5.204019758e-001 +3.451040198e+001 +3.451040198e+001 +1.4265e+000 -1.0364e+000
42055 0 +5.093760795e-001 +3.449937608e+001 +3.449937608e+001 +1.4264e+000 -1.0370e+000
42063 0 +4.961653382e-001 +3.448616534e+001 +3.448616534e+001 +1.4263e+000 -1.0384e+000
42064 0 +3.268326814e-001 +3.431683268e+001 +3.431683268e+001 +1.4248e+000 -1.0470e+000
42088 0 +3.093269801e-001 +3.429932698e+001 +3.429932698e+001 +1.4247e+000 -1.0457e+000
42090 0 +3.041931120e-001 +3.429419311e+001 +3.429419311e+001 +1.4246e+000 -1.0457e+000
42096 0 +2.971496821e-001 +3.428714968e+001 +3.428714968e+001 +1.4244e+000 -1.0461e+000
42109 0 +2.934129030e-001 +3.428341290e+001 +3.428341290e+001 +1.4243e+000 -1.0466e+000
42127 0 +2.871479826e-001 +3.427714798e+001 +3.427714798e+001 +1.4242e+000 -1.0479e+000
42145 0 +2.816640289e-001 +3.427166403e+001 +3.427166403e+001 +1.4236e+000 -1.0510e+000
43681 0 +1.240780931e-001 +3.411407809e+001 +3.411407809e+001 +1.2481e+000 -1.2571e+000
43993 0 +4.667113291e-002 +3.403667113e+001 +3.403667113e+001 +1.2488e+000 -1.2565e+000
44004 0 +1.695064782e-002 +3.400695065e+001 +3.400695065e+001 +1.2496e+000 -1.2496e+000
44044 0 +1.445380106e-002 +3.400445380e+001 +3.400445380e+001 +1.2495e+000 -1.2504e+000
44049 0 +1.725146271e-003 +3.399172515e+001 +3.399172515e+001 +1.2498e+000 -1.2504e+000
44062 0 +3.274702917e-004 +3.399032747e+001 +3.399032747e+001 +1.2501e+000 -1.2496e+000
44095 0 +2.493031353e-004 +3.399024930e+001 +3.399024930e+001 +1.2501e+000 -1.2500e+000
44118 0 +1.182147877e-004 +3.399011821e+001 +3.399011821e+001 +1.2500e+000 -1.2501e+000
44162 0 +9.606416469e-005 +3.399009606e+001 +3.399009606e+001 +1.2499e+000 -1.2503e+000
44171 0 +6.537262971e-005 +3.399006537e+001 +3.399006537e+001 +1.2500e+000 -1.2497e+000
44175 0 +4.808727345e-005 +3.399004809e+001 +3.399004809e+001 +1.2500e+000 -1.2498e+000
44181 0 +7.172434664e-006 +3.399000717e+001 +3.399000717e+001 +1.2500e+000 -1.2499e+000
44196 0 +3.993143011e-006 +3.399000399e+001 +3.399000399e+001 +1.2500e+000 -1.2500e+000
44201 0 +2.181929602e-006 +3.399000218e+001 +3.399000218e+001 +1.2500e+000 -1.2500e+000
44276 0 +2.094628407e-006 +3.399000209e+001 +3.399000209e+001 +1.2500e+000 -1.2500e+000
44282 0 +1.727207014e-006 +3.399000173e+001 +3.399000173e+001 +1.2500e+000 -1.2500e+000
44285 0 +7.137385509e-007 +3.399000071e+001 +3.399000071e+001 +1.2500e+000 -1.2500e+000
44290 0 +6.244148736e-007 +3.399000062e+001 +3.399000062e+001 +1.2500e+000 -1.2500e+000
44291 0 +3.770917800e-007 +3.399000038e+001 +3.399000038e+001 +1.2500e+000 -1.2500e+000
44304 0 +3.650846025e-007 +3.399000037e+001 +3.399000037e+001 +1.2500e+000 -1.2500e+000
44309 0 +2.767476417e-007 +3.399000028e+001 +3.399000028e+001 +1.2500e+000 -1.2500e+000
44310 0 +2.512629749e-007 +3.399000025e+001 +3.399000025e+001 +1.2500e+000 -1.2500e+000
44311 0 +2.497622802e-007 +3.399000025e+001 +3.399000025e+001 +1.2500e+000 -1.2500e+000
44321 0 +2.120157845e-007 +3.399000021e+001 +3.399000021e+001 +1.2500e+000 -1.2500e+000
44323 0 +1.537532341e-007 +3.399000015e+001 +3.399000015e+001 +1.2500e+000 -1.2500e+000
44324 0 +1.493345394e-007 +3.399000015e+001 +3.399000015e+001 +1.2500e+000 -1.2500e+000
44328 0 +1.305698021e-007 +3.399000013e+001 +3.399000013e+001 +1.2500e+000 -1.2500e+000
44333 0 +1.006286396e-007 +3.399000010e+001 +3.399000010e+001 +1.2500e+000 -1.2500e+000
44342 0 +8.709658772e-008 +3.399000009e+001 +3.399000009e+001 +1.2500e+000 -1.2500e+000
44348 0 +3.619000211e-008 +3.399000004e+001 +3.399000004e+001 +1.2500e+000 -1.2500e+000
44352 0 +2.649778708e-008 +3.399000003e+001 +3.399000003e+001 +1.2500e+000 -1.2500e+000
44382 0 +1.899985591e-008 +3.399000002e+001 +3.399000002e+001 +1.2500e+000 -1.2500e+000
44384 0 +1.782559877e-009 +3.399000000e+001 +3.399000000e+001 +1.2500e+000 -1.2500e+000
% f evaluations | g evaluations | best noise-free fitness - Fopt (-1.000000000000e+003) + sum g_i+ | measured fitness | best measured fitness or single-digit g-values | x1 | x2...
1 0 +4.781349192e+001 -9.521865081e+002 -9.521865081e+002 -1.5262e+000 +1.5361e+000
2 0 +3.629901102e+001 -9.637009890e+002 -9.637009890e+002 -1.4847e+000 -3.3266e+000
4 0 +1.423066471e+001 -9.857693353e+002 -9.857693353e+002 -5.0000e+000 -5.0000e+000
17 0 +7.630848677e+000 -9.923691513e+002 -9.923691513e+002 -3.5214e+000 -1.4280e+000
28 0 +5.033812886e+000 -9.949661871e+002 -9.949661871e+002 -4.4100e+000 -2.1728e+000
133 0 +4.702429724e+000 -9.952975703e+002 -9.952975703e+002 -4.1351e+000 -1.9531e+000
171 0 +3.390641950e+000 -9.966093581e+002 -9.966093581e+002 -4.0508e+000 -1.9312e+000
297 0 +3.301410653e+000 -9.966985893e+002 -9.966985893e+002 -3.7597e+000 -2.7877e+000
404 0 +3.047680503e+000 -9.969523195e+002 -9.969523195e+002 -3.9586e+000 -2.9784e+000
412 0 +2.952503833e+000 -9.970474962e+002 -9.970474962e+002 -3.3188e+000 -2.4670e+000
452 0 +2.517286834e+000 -9.974827132e+002 -9.974827132e+002 -3.7151e+000 -2.7481e+000
573 0 +2.466464862e+000 -9.975335351e+002 -9.975335351e+002 -3.7149e+000 -2.7476e+000
594 0 +2.446526403e+000 -9.975534736e+002 -9.975534736e+002 -3.7137e+000 -2.7476e+000
626 0 +2.394130386e+000 -9.976058696e+002 -9.976058696e+002 -3.7077e+000 -2.7500e+000
1289 0 +2.255702767e+000 -9.977442972e+002 -9.977442972e+002 -2.4970e+000 -2.8715e+000
2041 0 +2.197830840e+000 -9.978021692e+002 -9.978021692e+002 -2.5057e+000 -2.8701e+000
2183 0 +2.080162424e+000 -9.979198376e+002 -9.979198376e+002 -2.6326e+000 -2.9827e+000
6380 0 +2.038803952e+000 -9.979611960e+002 -9.979611960e+002 -2.7718e+000 -3.0923e+000
66231 0 +4.342419746e-001 -9.995657580e+002 -9.995657580e+002 +1.4833e+000 +1.4322e+000
66811 0 +3.637531782e-001 -9.996362468e+002 -9.996362468e+002 +1.4765e+000 +1.4344e+000
66818 0 +3.463228675e-001 -9.996536771e+002 -9.996536771e+002 +1.4788e+000 +1.4331e+000
81505 0 +7.590388367e-002 -9.999240961e+002 -9.999240961e+002 +1.2528e+000 +1.2500e+000
81520 0 +6.927175199e-002 -9.999307282e+002 -9.999307282e+002 +1.2528e+000 +1.2499e+000
81546 0 +3.415108983e-002 -9.999658489e+002 -9.999658489e+002 +1.2536e+000 +1.2493e+000
81622 0 +2.843946706e-002 -9.999715605e+002 -9.999715605e+002 +1.2538e+000 +1.2491e+000
81653 0 +2.774306391e-002 -9.999722569e+002 -9.999722569e+002 +1.2539e+000 +1.2491e+000
81667 0 +2.014250168e-002 -9.999798575e+002 -9.999798575e+002 +1.2540e+000 +1.2489e+000
81672 0 +1.870709421e-002 -9.999812929e+002 -9.999812929e+002 +1.2534e+000 +1.2491e+000
81679 0 +1.822989809e-002 -9.999817701e+002 -9.999817701e+002 +1.2535e+000 +1.2491e+000
81683 0 +1.703521160e-002 -9.999829648e+002 -9.999829648e+002 +1.2536e+000 +1.2490e+000
81684 0 +1.626208861e-002 -9.999837379e+002 -9.999837379e+002 +1.2542e+000 +1.2486e+000
81687 0 +1.366082109e-002 -9.999863392e+002 -9.999863392e+002 +1.2529e+000 +1.2493e+000
81689 0 +9.770176162e-003 -9.999902298e+002 -9.999902298e+002 +1.2525e+000 +1.2493e+000
81695 0 +7.927684670e-003 -9.999920723e+002 -9.999920723e+002 +1.2524e+000 +1.2490e+000
81698 0 +5.945437722e-003 -9.999940546e+002 -9.999940546e+002 +1.2524e+000 +1.2490e+000
81704 0 +3.479997500e-003 -9.999965200e+002 -9.999965200e+002 +1.2518e+000 +1.2494e+000
81706 0 +6.933277093e-004 -9.999993067e+002 -9.999993067e+002 +1.2508e+000 +1.2498e+000
81711 0 +2.239360548e-004 -9.999997761e+002 -9.999997761e+002 +1.2495e+000 +1.2502e+000
81714 0 +2.032660581e-004 -9.999997967e+002 -9.999997967e+002 +1.2495e+000 +1.2502e+000
81738 0 +1.222611539e-004 -9.999998777e+002 -9.999998777e+002 +1.2496e+000 +1.2501e+000
81778 0 +1.194492289e-004 -9.999998806e+002 -9.999998806e+002 +1.2496e+000 +1.2501e+000
81790 0 +3.387956190e-005 -9.999999661e+002 -9.999999661e+002 +1.2502e+000 +1.2499e+000
81808 0 +2.546105895e-005 -9.999999745e+002 -9.999999745e+002 +1.2499e+000 +1.2501e+000
81811 0 +2.165359660e-005 -9.999999783e+002 -9.999999783e+002 +1.2499e+000 +1.2501e+000
81835 0 +1.000418615e-005 -9.999999900e+002 -9.999999900e+002 +1.2501e+000 +1.2500e+000
81839 0 +7.943859941e-006 -9.999999921e+002 -9.999999921e+002 +1.2501e+000 +1.2500e+000
81848 0 +4.231541311e-006 -9.999999958e+002 -9.999999958e+002 +1.2501e+000 +1.2500e+000
81883 0 +2.738864509e-006 -9.999999973e+002 -9.999999973e+002 +1.2500e+000 +1.2500e+000
81892 0 +2.041155085e-007 -9.999999998e+002 -9.999999998e+002 +1.2500e+000 +1.2500e+000
81921 0 +1.607500053e-007 -9.999999998e+002 -9.999999998e+002 +1.2500e+000 +1.2500e+000
81940 0 +1.341379630e-007 -9.999999999e+002 -9.999999999e+002 +1.2500e+000 +1.2500e+000
81964 0 +1.115816985e-007 -9.999999999e+002 -9.999999999e+002 +1.2500e+000 +1.2500e+000
81984 0 +5.595097718e-008 -9.999999999e+002 -9.999999999e+002 +1.2500e+000 +1.2500e+000
81989 0 +5.113417956e-008 -9.999999999e+002 -9.999999999e+002 +1.2500e+000 +1.2500e+000
81992 0 +3.018044481e-009 -1.000000000e+003 -1.000000000e+003 +1.2500e+000 +1.2500e+000
% f evaluations | g evaluations | best noise-free fitness - Fopt (-1.000000000000e+003) + sum g_i+ | measured fitness | best measured fitness or single-digit g-values | x1 | x2...
1 0 +2.878177111e+001 -9.712182289e+002 -9.712182289e+002 -2.3770e+000 -3.5855e+000
11 0 +1.499767101e+001 -9.850023290e+002 -9.850023290e+002 +1.2309e+000 -3.8621e-002
18 0 +7.158057680e+000 -9.928419423e+002 -9.928419423e+002 -1.3676e+000 -1.2100e+000
38 0 +6.044927375e+000 -9.939550726e+002 -9.939550726e+002 -1.2815e+000 -1.1972e+000
67 0 +5.535640060e+000 -9.944643599e+002 -9.944643599e+002 -3.5661e+000 -3.8405e+000
92 0 +4.992967835e+000 -9.950070322e+002 -9.950070322e+002 -1.1115e+000 -3.7159e+000
106 0 +4.079194621e+000 -9.959208054e+002 -9.959208054e+002 -2.9942e+000 -2.7649e+000
167 0 +2.427835938e+000 -9.975721641e+002 -9.975721641e+002 -2.8278e+000 -2.7156e+000
458 0 +2.350936138e+000 -9.976490639e+002 -9.976490639e+002 -2.9244e+000 -2.7335e+000
628 0 +2.327077652e+000 -9.976729223e+002 -9.976729223e+002 -2.9208e+000 -2.7355e+000
636 0 +2.271561780e+000 -9.977284382e+002 -9.977284382e+002 -2.9205e+000 -2.7353e+000
695 0 +2.178190406e+000 -9.978218096e+002 -9.978218096e+002 -2.9190e+000 -2.7348e+000
817 0 +2.137255715e+000 -9.978627443e+002 -9.978627443e+002 -2.9172e+000 -2.7356e+000
827 0 +2.071563798e+000 -9.979284362e+002 -9.979284362e+002 -2.9123e+000 -2.7378e+000
835 0 +2.024556082e+000 -9.979754439e+002 -9.979754439e+002 -2.9047e+000 -2.7403e+000
84267 0 +1.766055087e+000 -9.982339449e+002 -9.982339449e+002 +8.3226e-001 +1.6839e+000
84281 0 +1.593170375e+000 -9.984068296e+002 -9.984068296e+002 +8.2426e-001 +1.6875e+000
84282 0 +1.518028975e+000 -9.984819710e+002 -9.984819710e+002 +8.2717e-001 +1.6882e+000
84300 0 +1.492671524e+000 -9.985073285e+002 -9.985073285e+002 +8.2669e-001 +1.6879e+000
88814 0 +1.363918475e+000 -9.986360815e+002 -9.986360815e+002 +9.2023e-001 +1.7045e+000
88977 0 +1.340083706e+000 -9.986599163e+002 -9.986599163e+002 +9.3234e-001 +1.7006e+000
89041 0 +1.235997701e+000 -9.987640023e+002 -9.987640023e+002 +1.0172e+000 +1.7209e+000
89072 0 +1.107129213e+000 -9.988928708e+002 -9.988928708e+002 +1.0192e+000 +1.7212e+000
89303 0 +1.096415797e+000 -9.989035842e+002 -9.989035842e+002 +1.0218e+000 +1.7205e+000
91156 0 +5.746278744e-001 -9.994253721e+002 -9.994253721e+002 +1.2432e+000 +1.2497e+000
91270 0 +2.542581037e-001 -9.997457419e+002 -9.997457419e+002 +1.3465e+000 +1.2685e+000
91426 0 +2.047329901e-001 -9.997952670e+002 -9.997952670e+002 +1.2651e+000 +1.2446e+000
91438 0 +1.977930518e-001 -9.998022069e+002 -9.998022069e+002 +1.2644e+000 +1.2443e+000
91447 0 +1.083408559e-001 -9.998916591e+002 -9.998916591e+002 +1.2398e+000 +1.2533e+000
91496 0 +5.011934124e-002 -9.999498807e+002 -9.999498807e+002 +1.2574e+000 +1.2472e+000
91546 0 +8.813649462e-003 -9.999911864e+002 -9.999911864e+002 +1.2480e+000 +1.2505e+000
91618 0 +7.051982446e-003 -9.999929480e+002 -9.999929480e+002 +1.2524e+000 +1.2490e+000
91635 0 +6.376987427e-003 -9.999936230e+002 -9.999936230e+002 +1.2518e+000 +1.2491e+000
91660 0 +5.459480201e-003 -9.999945405e+002 -9.999945405e+002 +1.2503e+000 +1.2496e+000
91668 0 +5.080219464e-004 -9.999994920e+002 -9.999994920e+002 +1.2497e+000 +1.2502e+000
91670 0 +4.711011077e-004 -9.999995289e+002 -9.999995289e+002 +1.2499e+000 +1.2501e+000
91695 0 +2.334548651e-004 -9.999997665e+002 -9.999997665e+002 +1.2500e+000 +1.2499e+000
91697 0 +2.528217783e-005 -9.999999747e+002 -9.999999747e+002 +1.2498e+000 +1.2501e+000
91738 0 +9.206185837e-006 -9.999999908e+002 -9.999999908e+002 +1.2499e+000 +1.2500e+000
91764 0 +8.686614137e-006 -9.999999913e+002 -9.999999913e+002 +1.2500e+000 +1.2500e+000
91772 0 +5.864314403e-006 -9.999999941e+002 -9.999999941e+002 +1.2501e+000 +1.2500e+000
91794 0 +5.539979043e-006 -9.999999945e+002 -9.999999945e+002 +1.2501e+000 +1.2500e+000
91797 0 +2.008097454e-006 -9.999999980e+002 -9.999999980e+002 +1.2500e+000 +1.2500e+000
91804 0 +9.635105016e-007 -9.999999990e+002 -9.999999990e+002 +1.2500e+000 +1.2500e+000
91819 0 +9.386226338e-007 -9.999999991e+002 -9.999999991e+002 +1.2500e+000 +1.2500e+000
91826 0 +2.833262442e-007 -9.999999997e+002 -9.999999997e+002 +1.2500e+000 +1.2500e+000
91866 0 +1.705529939e-009 -1.000000000e+003 -1.000000000e+003 +1.2500e+000 +1.2500e+000
% f evaluations | g evaluations | best noise-free fitness - Fopt (-1.272000000000e+001) + sum g_i+ | measured fitness | best measured fitness or single-digit g-values | x1 | x2...
1 0 +2.654806783e+001 +1.382806783e+001 +1.382806783e+001 -4.1201e-002 +1.9165e+000
6 0 +1.717386707e+001 +4.453867068e+000 +4.453867068e+000 -5.0000e+000 -9.1633e-001
9 0 +1.065509510e+001 -2.064904897e+000 -2.064904897e+000 -2.1621e+000 -3.3704e+000
28 0 +8.387932267e+000 -4.332067733e+000 -4.332067733e+000 -2.8746e+000 -3.3033e+000
59 0 +7.114819641e+000 -5.605180359e+000 -5.605180359e+000 -2.3669e+000 -2.1727e+000
62 0 +4.382060794e+000 -8.337939206e+000 -8.337939206e+000 -2.9566e+000 -4.1267e+000
253 0 +4.330740583e+000 -8.389259417e+000 -8.389259417e+000 -3.4244e+000 -4.1393e+000
295 0 +3.497038877e+000 -9.222961123e+000 -9.222961123e+000 -3.5847e+000 -3.9123e+000
557 0 +2.722285203e+000 -9.997714797e+000 -9.997714797e+000 -3.1254e+000 -3.6959e+000
558 0 +2.437055894e+000 -1.028294411e+001 -1.028294411e+001 -3.1361e+000 -3.6999e+000
762 0 +2.398221266e+000 -1.032177873e+001 -1.032177873e+001 -3.1351e+000 -3.6993e+000
1935 0 +2.335988459e+000 -1.038401154e+001 -1.038401154e+001 -2.7270e+000 -2.3800e+000
2026 0 +2.260665504e+000 -1.045933450e+001 -1.045933450e+001 -2.7686e+000 -2.3357e+000
2110 0 +2.197349260e+000 -1.052265074e+001 -1.052265074e+001 -2.6957e+000 -2.4762e+000
2285 0 +2.186481404e+000 -1.053351860e+001 -1.053351860e+001 -2.7132e+000 -2.4286e+000
3295 0 +2.105267384e+000 -1.061473262e+001 -1.061473262e+001 -2.9809e+000 -2.9714e+000
3436 0 +2.055302312e+000 -1.066469769e+001 -1.066469769e+001 -3.0477e+000 -2.8290e+000
3506 0 +2.038636944e+000 -1.068136306e+001 -1.068136306e+001 -3.0478e+000 -2.8288e+000
34467 0 +1.909118439e+000 -1.081088156e+001 -1.081088156e+001 +8.1418e-001 +1.1403e+000
34558 0 +9.984224748e-001 -1.172157753e+001 -1.172157753e+001 +7.7938e-001 +1.1354e+000
34722 0 +9.494416507e-001 -1.177055835e+001 -1.177055835e+001 +7.7785e-001 +1.1345e+000
39838 0 +2.255467189e-001 -1.249445328e+001 -1.249445328e+001 +1.3056e+000 +1.1553e+000
39880 0 +1.946889774e-001 -1.252531102e+001 -1.252531102e+001 +1.3055e+000 +1.1555e+000
39917 0 +1.902623763e-001 -1.252973762e+001 -1.252973762e+001 +1.3055e+000 +1.1555e+000
39969 0 +1.715534965e-001 -1.254844650e+001 -1.254844650e+001 +1.3055e+000 +1.1556e+000
39970 0 +5.530213100e-002 -1.266469787e+001 -1.266469787e+001 +1.2996e+000 +1.1561e+000
39996 0 +4.968853456e-002 -1.267031147e+001 -1.267031147e+001 +1.2965e+000 +1.1557e+000
40009 0 +4.816833499e-002 -1.267183167e+001 -1.267183167e+001 +1.2971e+000 +1.1553e+000
40010 0 +4.629569353e-002 -1.267370431e+001 -1.267370431e+001 +1.2988e+000 +1.1557e+000
40047 0 +4.512275510e-002 -1.267487724e+001 -1.267487724e+001 +1.2977e+000 +1.1555e+000
41912 0 +4.041340088e-002 -1.267958660e+001 -1.267958660e+001 +1.2688e+000 +1.2018e+000
41916 0 +2.503976195e-002 -1.269496024e+001 -1.269496024e+001 +1.2696e+000 +1.2022e+000
41926 0 +2.022615789e-002 -1.269977384e+001 -1.269977384e+001 +1.2706e+000 +1.2025e+000
41927 0 +1.263598031e-002 -1.270736402e+001 -1.270736402e+001 +1.2726e+000 +1.2027e+000
41947 0 +1.221425664e-002 -1.270778574e+001 -1.270778574e+001 +1.2738e+000 +1.2029e+000
41963 0 +1.138007357e-002 -1.270861993e+001 -1.270861993e+001 +1.2734e+000 +1.2028e+000
41984 0 +1.120985974e-002 -1.270879014e+001 -1.270879014e+001 +1.2736e+000 +1.2028e+000
43247 0 +3.510774494e-003 -1.271648923e+001 -1.271648923e+001 +1.2511e+000 +1.2503e+000
43251 0 +2.077782787e-003 -1.271792222e+001 -1.271792222e+001 +1.2516e+000 +1.2502e+000
43269 0 +1.919940618e-003 -1.271808006e+001 -1.271808006e+001 +1.2508e+000 +1.2500e+000
43285 0 +1.058008781e-003 -1.271894199e+001 -1.271894199e+001 +1.2511e+000 +1.2502e+000
43327 0 +9.324229009e-004 -1.271906758e+001 -1.271906758e+001 +1.2508e+000 +1.2502e+000
43328 0 +7.382611583e-004 -1.271926174e+001 -1.271926174e+001 +1.2508e+000 +1.2502e+000
43340 0 +6.428308925e-004 -1.271935717e+001 -1.271935717e+001 +1.2505e+000 +1.2501e+000
43343 0 +5.491745992e-004 -1.271945083e+001 -1.271945083e+001 +1.2508e+000 +1.2501e+000
43344 0 +5.037754414e-004 -1.271949622e+001 -1.271949622e+001 +1.2507e+000 +1.2501e+000
43355 0 +4.578115913e-004 -1.271954219e+001 -1.271954219e+001 +1.2507e+000 +1.2501e+000
43380 0 +3.565538390e-004 -1.271964345e+001 -1.271964345e+001 +1.2506e+000 +1.2501e+000
43405 0 +2.706628698e-004 -1.271972934e+001 -1.271972934e+001 +1.2505e+000 +1.2500e+000
43428 0 +1.984736320e-004 -1.271980153e+001 -1.271980153e+001 +1.2505e+000 +1.2501e+000
43429 0 +1.929995575e-004 -1.271980700e+001 -1.271980700e+001 +1.2505e+000 +1.2501e+000
43446 0 +1.878219796e-004 -1.271981218e+001 -1.271981218e+001 +1.2505e+000 +1.2501e+000
43449 0 +1.853971071e-004 -1.271981460e+001 -1.271981460e+001 +1.2505e+000 +1.2501e+000
43468 0 +1.763002913e-004 -1.271982370e+001 -1.271982370e+001 +1.2505e+000 +1.2501e+000
43473 0 +1.660918907e-004 -1.271983391e+001 -1.271983391e+001 +1.2505e+000 +1.2501e+000
43547 0 +1.558099980e-004 -1.271984419e+001 -1.271984419e+001 +1.2502e+000 +1.2501e+000
43555 0 +1.347943951e-004 -1.271986521e+001 -1.271986521e+001 +1.2503e+000 +1.2501e+000
43557 0 +1.252557286e-004 -1.271987474e+001 -1.271987474e+001 +1.2503e+000 +1.2501e+000
43567 0 +1.156449633e-004 -1.271988436e+001 -1.271988436e+001 +1.2503e+000 +1.2501e+000
43587 0 +7.789657284e-005 -1.271992210e+001 -1.271992210e+001 +1.2503e+000 +1.2500e+000
43595 0 +7.620147779e-005 -1.271992380e+001 -1.271992380e+001 +1.2503e+000 +1.2500e+000
43600 0 +7.360399878e-005 -1.271992640e+001 -1.271992640e+001 +1.2503e+000 +1.2500e+000
43601 0 +5.034133970e-005 -1.271994966e+001 -1.271994966e+001 +1.2502e+000 +1.2500e+000
43610 0 +4.791081666e-005 -1.271995209e+001 -1.271995209e+001 +1.2502e+000 +1.2500e+000
43616 0 +2.468120161e-005 -1.271997532e+001 -1.271997532e+001 +1.2501e+000 +1.2500e+000
43631 0 +3.667818220e-006 -1.271999633e+001 -1.271999633e+001 +1.2499e+000 +1.2500e+000
43652 0 +2.058067928e-006 -1.271999794e+001 -1.271999794e+001 +1.2500e+000 +1.2500e+000
43654 0 +1.795608823e-006 -1.271999820e+001 -1.271999820e+001 +1.2500e+000 +1.2500e+000
43686 0 +3.657848104e-007 -1.271999963e+001 -1.271999963e+001 +1.2500e+000 +1.2500e+000
43687 0 +1.984431979e-007 -1.271999980e+001 -1.271999980e+001 +1.2500e+000 +1.2500e+000
43711 0 +1.511897096e-008 -1.271999998e+001 -1.271999998e+001 +1.2500e+000 +1.2500e+000
43763 0 +2.176772540e-009 -1.272000000e+001 -1.272000000e+001 +1.2500e+000 +1.2500e+000
% f evaluations | g evaluations | best noise-free fitness - Fopt (-5.954000000000e+001) + sum g_i+ | measured fitness | best measured fitness or single-digit g-values | x1 | x2...
1 0 +6.572901749e+001 +6.189017485e+000 +6.189017485e+000 -4.9403e+000 -9.6219e-001
2 0 +3.832615749e+001 -2.121384251e+001 -2.121384251e+001 -2.1812e+000 +1.2575e+000
4 0 +1.937860364e+001 -4.016139636e+001 -4.016139636e+001 +5.0000e+000 +5.0000e+000
16 0 +1.815718664e+001 -4.138281336e+001 -4.138281336e+001 +1.9147e+000 +1.8407e+000
22 0 +1.767188210e+001 -4.186811790e+001 -4.186811790e+001 +1.6226e+000 +1.4396e+000
27 0 +1.123995151e+001 -4.830004849e+001 -4.830004849e+001 -1.7875e+000 -2.3713e+000
37 0 +1.023133708e+001 -4.930866292e+001 -4.930866292e+001 -7.6950e-001 +1.3582e-001
60 0 +7.225547932e+000 -5.231445207e+001 -5.231445207e+001 +2.2843e+000 +1.3085e+000
112 0 +6.605398962e+000 -5.293460104e+001 -5.293460104e+001 +2.7052e+000 +3.9520e+000
169 0 +5.099797040e+000 -5.444020296e+001 -5.444020296e+001 +2.0509e+000 +1.3912e+000
175 0 +1.493044341e+000 -5.804695566e+001 -5.804695566e+001 -1.0489e+000 -1.4183e+000
884 0 +9.805864854e-001 -5.855941351e+001 -5.855941351e+001 -1.0452e+000 -1.4146e+000
964 0 +9.634805859e-001 -5.857651941e+001 -5.857651941e+001 -1.0451e+000 -1.4092e+000
1016 0 +9.534159944e-001 -5.858658401e+001 -5.858658401e+001 -1.0449e+000 -1.4081e+000
1029 0 +9.274067399e-001 -5.861259326e+001 -5.861259326e+001 -1.0448e+000 -1.4084e+000
1042 0 +9.001668403e-001 -5.863983316e+001 -5.863983316e+001 -1.0448e+000 -1.4088e+000
1046 0 +8.871851973e-001 -5.865281480e+001 -5.865281480e+001 -1.0446e+000 -1.4079e+000
1048 0 +7.560957298e-001 -5.878390427e+001 -5.878390427e+001 -1.0439e+000 -1.4084e+000
1063 0 +6.804847432e-001 -5.885951526e+001 -5.885951526e+001 -1.0429e+000 -1.4079e+000
1095 0 +6.554881581e-001 -5.888451184e+001 -5.888451184e+001 -1.0426e+000 -1.4072e+000
1101 0 +6.070641579e-001 -5.893293584e+001 -5.893293584e+001 -1.0393e+000 -1.4022e+000
1103 0 +5.557352963e-001 -5.898426470e+001 -5.898426470e+001 -1.0418e+000 -1.4038e+000
1104 0 +5.389952686e-001 -5.900100473e+001 -5.900100473e+001 -1.0404e+000 -1.4032e+000
1114 0 +4.902858284e-001 -5.904971417e+001 -5.904971417e+001 -1.0404e+000 -1.4021e+000
1115 0 +3.127073644e-001 -5.922729264e+001 -5.922729264e+001 -1.0377e+000 -1.3937e+000
1118 0 +2.938615930e-001 -5.924613841e+001 -5.924613841e+001 -1.0362e+000 -1.3916e+000
1140 0 +2.861280585e-001 -5.925387194e+001 -5.925387194e+001 -1.0367e+000 -1.3916e+000
1152 0 +2.660245337e-001 -5.927397547e+001 -5.927397547e+001 -1.0357e+000 -1.3888e+000
1162 0 +2.611919383e-001 -5.927880806e+001 -5.927880806e+001 -1.0350e+000 -1.3875e+000
2307 0 +2.872396185e-002 -5.951127604e+001 -5.951127604e+001 -1.2478e+000 -1.2444e+000
2345 0 +6.908156427e-003 -5.953309184e+001 -5.953309184e+001 -1.2508e+000 -1.2515e+000
2377 0 +4.565761384e-003 -5.953543424e+001 -5.953543424e+001 -1.2492e+000 -1.2484e+000
2410 0 +3.647039140e-003 -5.953635296e+001 -5.953635296e+001 -1.2492e+000 -1.2481e+000
2425 0 +1.727190206e-003 -5.953827281e+001 -5.953827281e+001 -1.2501e+000 -1.2506e+000
2438 0 +1.452978560e-003 -5.953854702e+001 -5.953854702e+001 -1.2497e+000 -1.2490e+000
2450 0 +4.193221517e-004 -5.953958068e+001 -5.953958068e+001 -1.2501e+000 -1.2500e+000
2459 0 +2.625424838e-004 -5.953973746e+001 -5.953973746e+001 -1.2501e+000 -1.2500e+000
2468 0 +2.026867729e-004 -5.953979731e+001 -5.953979731e+001 -1.2501e+000 -1.2500e+000
2473 0 +1.766389390e-004 -5.953982336e+001 -5.953982336e+001 -1.2501e+000 -1.2500e+000
2476 0 +2.708761857e-005 -5.953997291e+001 -5.953997291e+001 -1.2501e+000 -1.2502e+000
2507 0 +1.922932945e-005 -5.953998077e+001 -5.953998077e+001 -1.2501e+000 -1.2501e+000
2514 0 +1.881973237e-005 -5.953998118e+001 -5.953998118e+001 -1.2501e+000 -1.2501e+000
2540 0 +1.812734079e-005 -5.953998187e+001 -5.953998187e+001 -1.2501e+000 -1.2501e+000
2556 0 +1.127364688e-005 -5.953998873e+001 -5.953998873e+001 -1.2500e+000 -1.2501e+000
2560 0 +6.992485339e-006 -5.953999301e+001 -5.953999301e+001 -1.2500e+000 -1.2500e+000
2561 0 +3.077139752e-006 -5.953999692e+001 -5.953999692e+001 -1.2500e+000 -1.2500e+000
2566 0 +1.555770915e-006 -5.953999844e+001 -5.953999844e+001 -1.2500e+000 -1.2500e+000
2570 0 +1.072274188e-006 -5.953999893e+001 -5.953999893e+001 -1.2500e+000 -1.2500e+000
2573 0 +6.092483815e-007 -5.953999939e+001 -5.953999939e+001 -1.2500e+000 -1.2500e+000
2582 0 +3.543468452e-007 -5.953999965e+001 -5.953999965e+001 -1.2500e+000 -1.2500e+000
2590 0 +9.093623277e-008 -5.953999991e+001 -5.953999991e+001 -1.2500e+000 -1.2500e+000
2598 0 +6.263268659e-008 -5.953999994e+001 -5.953999994e+001 -1.2500e+000 -1.2500e+000
2604 0 +5.096639200e-008 -5.953999995e+001 -5.953999995e+001 -1.2500e+000 -1.2500e+000
2611 0 +1.537933514e-008 -5.953999998e+001 -5.953999998e+001 -1.2500e+000 -1.2500e+000
2644 0 +1.167373398e-008 -5.953999999e+001 -5.953999999e+001 -1.2500e+000 -1.2500e+000
2647 0 +4.152468591e-009 -5.954000000e+001 -5.954000000e+001 -1.2500e+000 -1.2500e+000
% f evaluations | g evaluations | best noise-free fitness - Fopt (-1.000000000000e+003) + sum g_i+ | measured fitness | best measured fitness or single-digit g-values | x1 | x2...
1 0 +6.361637627e+001 -9.363836237e+002 -9.363836237e+002 +3.9280e+000 +4.4222e+000
2 0 +1.721332572e+001 -9.827866743e+002 -9.827866743e+002 +4.7222e+000 -2.0204e+000
4 0 +9.083472509e+000 -9.909165275e+002 -9.909165275e+002 +5.0000e+000 -5.0000e+000
12 0 +6.735846706e+000 -9.932641533e+002 -9.932641533e+002 +3.6180e+000 -2.3869e+000
60 0 +6.080085804e+000 -9.939199142e+002 -9.939199142e+002 +3.6421e+000 -6.3683e-001
136 0 +4.731964611e+000 -9.952680354e+002 -9.952680354e+002 +3.3536e+000 -9.9129e-001
262 0 +4.556437394e+000 -9.954435626e+002 -9.954435626e+002 +3.2853e+000 -9.9434e-001
281 0 +3.551450814e+000 -9.964485492e+002 -9.964485492e+002 +2.2011e+000 -2.4050e+000
364 0 +2.712415559e+000 -9.972875844e+002 -9.972875844e+002 +2.1686e+000 -3.4868e+000
904 0 +2.363818710e+000 -9.976361813e+002 -9.976361813e+002 +2.8546e+000 -3.4863e+000
1207 0 +2.261218809e+000 -9.977387812e+002 -9.977387812e+002 +2.8549e+000 -3.4878e+000
1400 0 +2.238693474e+000 -9.977613065e+002 -9.977613065e+002 +2.8560e+000 -3.4890e+000
4525 0 +2.137782682e+000 -9.978622173e+002 -9.978622173e+002 +2.6799e+000 -2.7814e+000
4727 0 +2.072409731e+000 -9.979275903e+002 -9.979275903e+002 +2.9564e+000 -2.7824e+000
4761 0 +2.022978202e+000 -9.979770218e+002 -9.979770218e+002 +2.9561e+000 -2.7837e+000
19560 0 +1.100601187e+000 -9.988993988e+002 -9.988993988e+002 -1.1858e+000 +1.6237e+000
19673 0 +7.929264285e-001 -9.992070736e+002 -9.992070736e+002 -1.1665e+000 +1.6012e+000
19715 0 +7.109917037e-001 -9.992890083e+002 -9.992890083e+002 -1.1739e+000 +1.6098e+000
19770 0 +6.013244924e-001 -9.993986755e+002 -9.993986755e+002 -1.1675e+000 +1.6035e+000
19896 0 +5.867035122e-001 -9.994132965e+002 -9.994132965e+002 -1.1683e+000 +1.6045e+000
19901 0 +5.542154160e-001 -9.994457846e+002 -9.994457846e+002 -1.1710e+000 +1.6086e+000
19951 0 +5.495010510e-001 -9.994504989e+002 -9.994504989e+002 -1.1705e+000 +1.6082e+000
19958 0 +5.338300503e-001 -9.994661699e+002 -9.994661699e+002 -1.1675e+000 +1.6051e+000
20890 0 +4.674162986e-001 -9.995325837e+002 -9.995325837e+002 -1.5237e+000 +1.2520e+000
21029 0 +6.780065896e-002 -9.999321993e+002 -9.999321993e+002 -1.2515e+000 +1.2529e+000
21288 0 +5.736811154e-002 -9.999426319e+002 -9.999426319e+002 -1.2550e+000 +1.2558e+000
21360 0 +3.950898097e-002 -9.999604910e+002 -9.999604910e+002 -1.2546e+000 +1.2551e+000
21385 0 +2.639346631e-002 -9.999736065e+002 -9.999736065e+002 -1.2538e+000 +1.2538e+000
21397 0 +2.255818697e-002 -9.999774418e+002 -9.999774418e+002 -1.2537e+000 +1.2539e+000
21400 0 +2.134699875e-002 -9.999786530e+002 -9.999786530e+002 -1.1800e+000 +1.2480e+000
21431 0 +2.081392391e-002 -9.999791861e+002 -9.999791861e+002 -1.1810e+000 +1.2494e+000
21441 0 +2.022329537e-002 -9.999797767e+002 -9.999797767e+002 -1.1804e+000 +1.2488e+000
21447 0 +1.962102686e-002 -9.999803790e+002 -9.999803790e+002 -1.1804e+000 +1.2487e+000
22872 0 +1.658865826e-002 -9.999834113e+002 -9.999834113e+002 -1.2527e+000 +1.2525e+000
22873 0 +1.397479196e-002 -9.999860252e+002 -9.999860252e+002 -1.2527e+000 +1.2526e+000
22876 0 +1.298903047e-002 -9.999870110e+002 -9.999870110e+002 -1.2518e+000 +1.2523e+000
22887 0 +8.246157867e-003 -9.999917538e+002 -9.999917538e+002 -1.2522e+000 +1.2523e+000
22904 0 +6.474516491e-003 -9.999935255e+002 -9.999935255e+002 -1.2518e+000 +1.2521e+000
22908 0 +4.856711792e-003 -9.999951433e+002 -9.999951433e+002 -1.2517e+000 +1.2518e+000
22922 0 +4.539030512e-003 -9.999954610e+002 -9.999954610e+002 -1.2514e+000 +1.2516e+000
22942 0 +2.986783129e-003 -9.999970132e+002 -9.999970132e+002 -1.2513e+000 +1.2514e+000
22948 0 +2.703923094e-003 -9.999972961e+002 -9.999972961e+002 -1.2513e+000 +1.2513e+000
22950 0 +2.411854690e-003 -9.999975881e+002 -9.999975881e+002 -1.2512e+000 +1.2513e+000
22985 0 +1.959873368e-003 -9.999980401e+002 -9.999980401e+002 -1.2509e+000 +1.2511e+000
22992 0 +7.005081810e-004 -9.999992995e+002 -9.999992995e+002 -1.2506e+000 +1.2505e+000
22994 0 +2.884698497e-004 -9.999997115e+002 -9.999997115e+002 -1.2503e+000 +1.2502e+000
23004 0 +1.947790576e-004 -9.999998052e+002 -9.999998052e+002 -1.2499e+000 +1.2500e+000
23030 0 +4.843665761e-005 -9.999999516e+002 -9.999999516e+002 -1.2500e+000 +1.2500e+000
23040 0 +4.023471399e-005 -9.999999598e+002 -9.999999598e+002 -1.2500e+000 +1.2500e+000
23088 0 +2.848332406e-005 -9.999999715e+002 -9.999999715e+002 -1.2499e+000 +1.2499e+000
23093 0 +2.289731583e-005 -9.999999771e+002 -9.999999771e+002 -1.2499e+000 +1.2499e+000
23096 0 +1.669823189e-005 -9.999999833e+002 -9.999999833e+002 -1.2499e+000 +1.2499e+000
23099 0 +3.047115683e-006 -9.999999970e+002 -9.999999970e+002 -1.2500e+000 +1.2500e+000
23111 0 +2.610964430e-006 -9.999999974e+002 -9.999999974e+002 -1.2500e+000 +1.2500e+000
23133 0 +1.328275289e-006 -9.999999987e+002 -9.999999987e+002 -1.2500e+000 +1.2500e+000
23148 0 +6.240134098e-008 -9.999999999e+002 -9.999999999e+002 -1.2500e+000 +1.2500e+000
23171 0 +5.076606158e-008 -9.999999999e+002 -9.999999999e+002 -1.2500e+000 +1.2500e+000
23174 0 +4.806099696e-008 -1.000000000e+003 -1.000000000e+003 -1.2500e+000 +1.2500e+000
23192 0 +2.269825927e-008 -1.000000000e+003 -1.000000000e+003 -1.2500e+000 +1.2500e+000
23194 0 +2.360138751e-009 -1.000000000e+003 -1.000000000e+003 -1.2500e+000 +1.2500e+000
% f evaluations | g evaluations | best noise-free fitness - Fopt (4.303000000000e+001) + sum g_i+ | measured fitness | best measured fitness or single-digit g-values | x1 | x2...
1 0 +1.931106337e+001 +6.234106337e+001 +6.234106337e+001 -3.0707e-001 -1.4661e+000
12 0 +1.434612741e+001 +5.737612741e+001 +5.737612741e+001 -2.3095e+000 +1.7036e+000
19 0 +1.291677760e+001 +5.594677760e+001 +5.594677760e+001 +1.7065e+000 -6.3158e-001
28 0 +5.074328973e+000 +4.810432897e+001 +4.810432897e+001 +1.7610e+000 -3.1985e-001
201 0 +4.268842796e+000 +4.729884280e+001 +4.729884280e+001 -4.3396e+000 +1.7526e+000
205 0 +5.811257058e-001 +4.361112571e+001 +4.361112571e+001 +9.2290e-001 -1.3166e+000
911 0 +5.738995284e-001 +4.360389953e+001 +4.360389953e+001 +9.2300e-001 -1.3163e+000
942 0 +5.528690169e-001 +4.358286902e+001 +4.358286902e+001 +9.2339e-001 -1.3151e+000
981 0 +5.458775591e-001 +4.357587756e+001 +4.357587756e+001 +9.2359e-001 -1.3146e+000
1016 0 +5.126307344e-001 +4.354263073e+001 +4.354263073e+001 +9.2541e-001 -1.3106e+000
1027 0 +4.766191957e-001 +4.350661920e+001 +4.350661920e+001 +9.2823e-001 -1.3057e+000
1052 0 +4.440466443e-001 +4.347404664e+001 +4.347404664e+001 +9.2845e-001 -1.3060e+000
1080 0 +4.226235821e-001 +4.345262358e+001 +4.345262358e+001 +9.3004e-001 -1.3043e+000
1895 0 +3.845061187e-001 +4.341450612e+001 +4.341450612e+001 +1.1626e+000 -1.1164e+000
1917 0 +2.243830575e-001 +4.325438306e+001 +4.325438306e+001 +1.1639e+000 -1.1157e+000
1927 0 +2.165498307e-001 +4.324654983e+001 +4.324654983e+001 +1.1652e+000 -1.1132e+000
1935 0 +2.110292395e-001 +4.324102924e+001 +4.324102924e+001 +1.1644e+000 -1.1150e+000
1955 0 +1.636430870e-001 +4.319364309e+001 +4.319364309e+001 +1.1677e+000 -1.1092e+000
1957 0 +1.102510321e-001 +4.314025103e+001 +4.314025103e+001 +1.1700e+000 -1.1067e+000
1967 0 +1.094166533e-001 +4.313941665e+001 +4.313941665e+001 +1.1700e+000 -1.1072e+000
2015 0 +1.071093471e-001 +4.313710935e+001 +4.313710935e+001 +1.1690e+000 -1.1087e+000
2879 0 +5.010630567e-002 +4.308010631e+001 +4.308010631e+001 +1.2118e+000 -1.1749e+000
3036 0 +4.379401077e-002 +4.307379401e+001 +4.307379401e+001 +1.2108e+000 -1.1764e+000
3075 0 +4.333122979e-002 +4.307333123e+001 +4.307333123e+001 +1.2111e+000 -1.1759e+000
3107 0 +3.262283208e-002 +4.306262283e+001 +4.306262283e+001 +1.2092e+000 -1.1793e+000
3111 0 +3.193613581e-002 +4.306193614e+001 +4.306193614e+001 +1.2092e+000 -1.1794e+000
3125 0 +3.111148426e-002 +4.306111148e+001 +4.306111148e+001 +1.2092e+000 -1.1793e+000
3135 0 +2.721013484e-002 +4.305721013e+001 +4.305721013e+001 +1.2094e+000 -1.1793e+000
3168 0 +2.691219541e-002 +4.305691220e+001 +4.305691220e+001 +1.2095e+000 -1.1792e+000
6595 0 +2.483470950e-002 +4.305483471e+001 +4.305483471e+001 +1.2488e+000 -1.2510e+000
6649 0 +2.256224315e-002 +4.305256224e+001 +4.305256224e+001 +1.2514e+000 -1.2468e+000
6658 0 +1.412844111e-002 +4.304412844e+001 +4.304412844e+001 +1.2503e+000 -1.2487e+000
6802 0 +1.000832089e-002 +4.304000832e+001 +4.304000832e+001 +1.2507e+000 -1.2482e+000
6879 0 +8.277281518e-003 +4.303827728e+001 +4.303827728e+001 +1.2513e+000 -1.2475e+000
6892 0 +3.460878773e-003 +4.303346088e+001 +4.303346088e+001 +1.2511e+000 -1.2482e+000
6897 0 +3.097606700e-003 +4.303309761e+001 +4.303309761e+001 +1.2510e+000 -1.2483e+000
6930 0 +2.973128386e-003 +4.303297313e+001 +4.303297313e+001 +1.2510e+000 -1.2483e+000
6966 0 +1.068510518e-003 +4.303106851e+001 +4.303106851e+001 +1.2506e+000 -1.2490e+000
6994 0 +4.028468729e-004 +4.303040285e+001 +4.303040285e+001 +1.2498e+000 -1.2502e+000
7000 0 +3.649535187e-004 +4.303036495e+001 +4.303036495e+001 +1.2498e+000 -1.2501e+000
7009 0 +9.499830283e-005 +4.303009500e+001 +4.303009500e+001 +1.2498e+000 -1.2502e+000
7046 0 +3.468337674e-005 +4.303003468e+001 +4.303003468e+001 +1.2500e+000 -1.2501e+000
7084 0 +2.629573288e-006 +4.303000263e+001 +4.303000263e+001 +1.2500e+000 -1.2500e+000
7173 0 +1.359624946e-007 +4.303000014e+001 +4.303000014e+001 +1.2500e+000 -1.2500e+000
7190 0 +1.063062740e-007 +4.303000011e+001 +4.303000011e+001 +1.2500e+000 -1.2500e+000
7213 0 +4.389924868e-009 +4.303000000e+001 +4.303000000e+001 +1.2500e+000 -1.2500e+000
