% f evaluations | g evaluations | best noise-free fitness - Fopt (-1.000000000000e+003) + sum g_i+ | measured fitness | best measured fitness or single-digit g-values | x1 | x2...
1 0 +7.996568395e+001 -9.200343161e+002 -9.200343161e+002 -1.8818e+000 -2.3548e-001 -4.2504e+000
2 0 +6.471926000e+001 -9.352807400e+002 -9.352807400e+002 -3.5673e+000 +1.8728e+000 +2.3355e+000
4 0 +1.813641633e+001 -9.818635837e+002 -9.818635837e+002 +4.0596e+000 +1.6832e+000 -3.1100e+000
9 0 +6.325605013e+000 -9.936743950e+002 -9.936743950e+002 +1.5171e-001 -3.9272e-001 -9.6465e-001
52 0 +4.646203153e+000 -9.953537968e+002 -9.953537968e+002 +6.7420e-002 -3.4022e-001 -9.8819e-001
68 0 +2.199315031e+000 -9.978006850e+002 -9.978006850e+002 +4.6623e-001 -8.6162e-002 -2.4933e+000
70 0 +2.110458543e+000 -9.978895415e+002 -9.978895415e+002 +4.3418e-001 -1.1067e-001 -2.4428e+000
82 0 +8.036987133e-001 -9.991963013e+002 -9.991963013e+002 +6.7420e-002 +1.4851e-001 -2.4548e+000
172 0 +7.651615604e-001 -9.992348384e+002 -9.992348384e+002 +4.8414e-002 +1.5704e-001 -2.4024e+000
178 0 +7.415715237e-001 -9.992584285e+002 -9.992584285e+002 -2.5860e-002 +1.0993e-001 -2.3116e+000
221 0 +6.980193162e-001 -9.993019807e+002 -9.993019807e+002 -3.4436e-002 +1.6391e-001 -2.2647e+000
1152 0 +1.367135006e-001 -9.998632865e+002 -9.998632865e+002 -8.9681e-002 +1.1306e-001 +2.0444e+000
1172 0 +1.114432920e-001 -9.998885567e+002 -9.998885567e+002 -7.6770e-002 +1.4972e-001 +2.0791e+000
1237 0 +4.620396735e-002 -9.999537960e+002 -9.999537960e+002 -1.3622e-001 -5.0214e-002 +2.0446e+000
1298 0 +3.586068133e-002 -9.999641393e+002 -9.999641393e+002 -1.1454e-001 -2.1671e-001 +2.0051e+000
1309 0 +3.357084416e-002 -9.999664292e+002 -9.999664292e+002 -1.1581e-001 -2.1033e-001 +2.0004e+000
1382 0 +1.939621587e-002 -9.999806038e+002 -9.999806038e+002 +1.2897e-001 -5.7409e-002 +2.0791e+000
1383 0 +1.566923568e-002 -9.999843308e+002 -9.999843308e+002 +1.4094e-001 +3.9025e-002 +2.1280e+000
1402 0 +1.413801785e-002 -9.999858620e+002 -9.999858620e+002 +3.1700e-001 +2.1098e-001 +2.2152e+000
1405 0 +1.392338512e-002 -9.999860766e+002 -9.999860766e+002 +2.4216e-001 +4.5068e-002 +2.1745e+000
1430 0 +1.009753234e-002 -9.999899025e+002 -9.999899025e+002 +5.7597e-001 +2.6344e-001 +2.2760e+000
1435 0 +8.863328185e-003 -9.999911367e+002 -9.999911367e+002 +5.9705e-001 +2.7752e-001 +2.2859e+000
1439 0 +2.270401556e-003 -9.999977296e+002 -9.999977296e+002 +9.7523e-001 +3.6808e-001 +2.4190e+000
1446 0 +1.867253242e-003 -9.999981327e+002 -9.999981327e+002 +9.9562e-001 +3.8170e-001 +2.4286e+000
1473 0 +9.948597688e-004 -9.999990051e+002 -9.999990051e+002 +7.1442e-001 +3.1745e-001 +2.3606e+000
1477 0 +8.080229463e-004 -9.999991920e+002 -9.999991920e+002 +1.1843e+000 +5.8745e-001 +2.5325e+000
1491 0 +2.107514413e-004 -9.999997892e+002 -9.999997892e+002 +1.0476e+000 +5.5971e-001 +2.5014e+000
1494 0 +2.008139205e-004 -9.999997992e+002 -9.999997992e+002 +9.5857e-001 +4.9011e-001 +2.4652e+000
1499 0 +1.949322136e-004 -9.999998051e+002 -9.999998051e+002 +1.1090e+000 +5.1501e-001 +2.5041e+000
1504 0 +6.953621460e-005 -9.999999305e+002 -9.999999305e+002 +1.0715e+000 +5.7878e-001 +2.5214e+000
1511 0 +5.627478913e-006 -9.999999944e+002 -9.999999944e+002 +1.2393e+000 +6.2008e-001 +2.5777e+000
1523 0 +5.271129567e-006 -9.999999947e+002 -9.999999947e+002 +1.2388e+000 +6.2091e-001 +2.5777e+000
1558 0 +1.822535069e-006 -9.999999982e+002 -9.999999982e+002 +1.2458e+000 +6.3288e-001 +2.5839e+000
1563 0 +1.715116127e-006 -9.999999983e+002 -9.999999983e+002 +1.3887e+000 +7.1289e-001 +2.6414e+000
1587 0 +4.439021950e-007 -9.999999996e+002 -9.999999996e+002 +1.3651e+000 +7.0490e-001 +2.6351e+000
1630 0 +1.006199000e-007 -9.999999999e+002 -9.999999999e+002 +1.2957e+000 +6.8017e-001 +2.6095e+000
1640 0 +1.329283350e-008 -1.000000000e+003 -1.000000000e+003 +1.3860e+000 +7.3781e-001 +2.6502e+000
1662 0 +1.212822553e-008 -1.000000000e+003 -1.000000000e+003 +1.3761e+000 +7.2968e-001 +2.6444e+000
1704 0 +1.165142294e-008 -1.000000000e+003 -1.000000000e+003 +1.3536e+000 +7.1927e-001 +2.6350e+000
1724 0 +9.337213669e-009 -1.000000000e+003 -1.000000000e+003 +1.3392e+000 +7.2027e-001 +2.6332e+000
1839 0 +0.000000000e+000 -1.000000000e+003 -1.000000000e+003 +1.3493e+000 +7.1835e-001 +2.6351e+000
% f evaluations | g evaluations | best noise-free fitness - Fopt (1.000000000000e+003) + sum g_i+ | measured fitness | best measured fitness or single-digit g-values | x1 | x2...
1 0 +6.981110263e+001 +1.069811103e+003 +1.069811103e+003 +4.7783e+000 +2.2338e+000 -4.0782e-001
2 0 +4.506664339e+001 +1.045066643e+003 +1.045066643e+003 -2.8606e+000 -1.1325e+000 -3.8325e-001
13 0 +2.452014819e+001 +1.024520148e+003 +1.024520148e+003 -3.4399e-001 +2.3466e+000 +3.8756e+000
18 0 +2.047896642e+001 +1.020478966e+003 +1.020478966e+003 -1.6609e-001 +2.6317e-001 -5.0000e+000
29 0 +1.258695930e+001 +1.012586959e+003 +1.012586959e+003 +4.0698e+000 -9.1555e-001 +2.4020e+000
32 0 +8.077970721e+000 +1.008077971e+003 +1.008077971e+003 -2.5385e+000 -2.1374e+000 +2.3558e+000
44 0 +3.115644619e+000 +1.003115645e+003 +1.003115645e+003 -2.3011e+000 +2.6291e-001 -1.0384e+000
97 0 +2.033072265e+000 +1.002033072e+003 +1.002033072e+003 -1.8927e+000 -2.7573e-001 -1.6848e+000
111 0 +1.848964076e+000 +1.001848964e+003 +1.001848964e+003 -1.5565e+000 -2.8116e-001 -1.4426e+000
128 0 +1.225964851e-001 +1.000122596e+003 +1.000122596e+003 -1.1631e+000 -1.0019e+000 -1.8155e+000
155 0 +3.191620890e-002 +1.000031916e+003 +1.000031916e+003 -3.1460e-001 -1.8541e+000 -2.3832e+000
220 0 +1.641186713e-002 +1.000016412e+003 +1.000016412e+003 -5.9173e-001 -1.6317e+000 -1.9895e+000
261 0 +1.546308717e-002 +1.000015463e+003 +1.000015463e+003 -5.6305e-001 -1.6633e+000 -1.9982e+000
287 0 +3.524172179e-003 +1.000003524e+003 +1.000003524e+003 -2.1812e-001 -2.0203e+000 -2.1199e+000
290 0 +2.728730976e-003 +1.000002729e+003 +1.000002729e+003 -3.6958e-001 -1.8509e+000 -2.0786e+000
333 0 +2.010129255e-003 +1.000002010e+003 +1.000002010e+003 -3.3018e-001 -1.8937e+000 -2.0705e+000
334 0 +1.433057846e-003 +1.000001433e+003 +1.000001433e+003 -1.7198e-001 -2.0578e+000 -2.0825e+000
345 0 +1.020821490e-003 +1.000001021e+003 +1.000001021e+003 -2.7397e-001 -1.9491e+000 -2.0547e+000
395 0 +9.510225177e-004 +1.000000951e+003 +1.000000951e+003 -2.5322e-001 -1.9656e+000 -2.0340e+000
426 0 +8.792186745e-004 +1.000000879e+003 +1.000000879e+003 -2.7966e-001 -1.9150e+000 -2.0348e+000
438 0 +6.243177997e-004 +1.000000624e+003 +1.000000624e+003 -3.1926e-001 -1.8734e+000 -2.0318e+000
440 0 +3.958052807e-004 +1.000000396e+003 +1.000000396e+003 -4.0939e-001 -1.7830e+000 -2.0157e+000
445 0 +3.210918351e-004 +1.000000321e+003 +1.000000321e+003 -4.3358e-001 -1.7576e+000 -2.0549e+000
455 0 +2.914444023e-004 +1.000000291e+003 +1.000000291e+003 -3.8626e-001 -1.8073e+000 -2.0585e+000
470 0 +1.600487976e-004 +1.000000160e+003 +1.000000160e+003 -5.1196e-001 -1.6614e+000 -2.0199e+000
475 0 +6.963053136e-005 +1.000000070e+003 +1.000000070e+003 -5.0445e-001 -1.6638e+000 -2.0490e+000
490 0 +6.172173755e-005 +1.000000062e+003 +1.000000062e+003 -5.1468e-001 -1.6409e+000 -2.0275e+000
494 0 +7.689536346e-006 +1.000000008e+003 +1.000000008e+003 -8.5645e-001 -1.2371e+000 -2.0280e+000
498 0 +5.839469054e-006 +1.000000006e+003 +1.000000006e+003 -7.3012e-001 -1.3741e+000 -2.0573e+000
505 0 +3.923404392e-006 +1.000000004e+003 +1.000000004e+003 -6.8207e-001 -1.4437e+000 -2.0233e+000
509 0 +3.870290129e-006 +1.000000004e+003 +1.000000004e+003 -6.8120e-001 -1.4450e+000 -2.0233e+000
517 0 +1.640734240e-006 +1.000000002e+003 +1.000000002e+003 -6.6843e-001 -1.4648e+000 -2.0412e+000
523 0 +8.561474942e-007 +1.000000001e+003 +1.000000001e+003 -6.7312e-001 -1.4573e+000 -2.0398e+000
547 0 +4.548892321e-007 +1.000000000e+003 +1.000000000e+003 -7.6618e-001 -1.3447e+000 -2.0371e+000
550 0 +4.302368097e-007 +1.000000000e+003 +1.000000000e+003 -7.7026e-001 -1.3404e+000 -2.0416e+000
583 0 +3.880808208e-007 +1.000000000e+003 +1.000000000e+003 -7.7133e-001 -1.3388e+000 -2.0429e+000
589 0 +1.742362201e-007 +1.000000000e+003 +1.000000000e+003 -7.5994e-001 -1.3476e+000 -2.0454e+000
616 0 +1.484793302e-007 +1.000000000e+003 +1.000000000e+003 -7.5414e-001 -1.3545e+000 -2.0447e+000
618 0 +6.105472039e-008 +1.000000000e+003 +1.000000000e+003 -7.4835e-001 -1.3620e+000 -2.0453e+000
619 0 +2.618560302e-008 +1.000000000e+003 +1.000000000e+003 -7.4143e-001 -1.3706e+000 -2.0469e+000
639 0 +1.184275789e-008 +1.000000000e+003 +1.000000000e+003 -7.3583e-001 -1.3777e+000 -2.0470e+000
668 0 +9.646896615e-009 +1.000000000e+003 +1.000000000e+003 -7.3339e-001 -1.3805e+000 -2.0477e+000
853 0 +0.000000000e+000 +1.000000000e+003 +1.000000000e+003 -7.1449e-001 -1.4032e+000 -2.0532e+000
% f evaluations | g evaluations | best noise-free fitness - Fopt (-4.913000000000e+001) + sum g_i+ | measured fitness | best measured fitness or single-digit g-values | x1 | x2...
1 0 +2.379879544e+001 -2.533120456e+001 -2.533120456e+001 +1.7991e+000 -4.8613e+000 +1.5006e+000
2 0 +2.035592251e+001 -2.877407749e+001 -2.877407749e+001 -4.3016e+000 +1.1182e+000 -1.1786e+000
9 0 +1.961202555e+001 -2.951797445e+001 -2.951797445e+001 -1.8897e+000 +1.6214e+000 +2.6888e+000
32 0 +1.044502685e+001 -3.868497315e+001 -3.868497315e+001 -1.9196e+000 +1.7917e+000 +2.6533e+000
37 0 +9.749381440e+000 -3.938061856e+001 -3.938061856e+001 -1.9386e+000 +1.8251e+000 +2.6701e+000
53 0 +9.459975166e+000 -3.967002483e+001 -3.967002483e+001 -2.1251e+000 -3.7164e-001 +4.9502e+000
78 0 +8.827491720e+000 -4.030250828e+001 -4.030250828e+001 -2.1290e+000 -4.1473e-001 +4.8936e+000
84 0 +6.708189038e+000 -4.242181096e+001 -4.242181096e+001 -2.2830e+000 -4.1775e-001 +4.4408e+000
85 0 +2.841066222e+000 -4.628893378e+001 -4.628893378e+001 -2.6307e+000 -4.3114e-001 +4.4829e+000
87 0 +2.662163205e+000 -4.646783679e+001 -4.646783679e+001 -3.2241e+000 -1.7775e+000 +4.6671e+000
91 0 +2.569367956e+000 -4.656063204e+001 -4.656063204e+001 -3.3748e+000 -1.6011e+000 +4.9138e+000
94 0 +2.133274380e+000 -4.699672562e+001 -4.699672562e+001 -3.3301e+000 -7.0961e-001 +3.9077e+000
97 0 +1.881787413e+000 -4.724821259e+001 -4.724821259e+001 -3.2271e+000 -1.3390e+000 +4.8423e+000
120 0 +1.821433583e+000 -4.730856642e+001 -4.730856642e+001 -3.1848e+000 -1.3885e+000 +4.7730e+000
124 0 +7.277635882e-001 -4.840223641e+001 -4.840223641e+001 -3.2341e+000 -1.0155e+000 +4.4623e+000
199 0 +7.085578998e-001 -4.842144210e+001 -4.842144210e+001 -3.1479e+000 -9.7123e-001 +4.4629e+000
225 0 +6.978495472e-001 -4.843215045e+001 -4.843215045e+001 -3.1090e+000 -1.0226e+000 +4.4357e+000
2950 0 +5.011925007e-001 -4.862880750e+001 -4.862880750e+001 +3.3615e+000 +2.0214e+000 +3.9829e+000
2971 0 +4.901426941e-001 -4.863985731e+001 -4.863985731e+001 +3.3560e+000 +2.0240e+000 +3.9714e+000
3001 0 +4.216394329e-001 -4.870836057e+001 -4.870836057e+001 +3.3335e+000 +2.0133e+000 +3.9394e+000
3024 0 +2.929244185e-001 -4.883707558e+001 -4.883707558e+001 +3.3290e+000 +2.0135e+000 +3.9007e+000
3036 0 +2.358614993e-001 -4.889413850e+001 -4.889413850e+001 +3.3157e+000 +1.9965e+000 +3.8820e+000
3042 0 +1.147256066e-001 -4.901527439e+001 -4.901527439e+001 +3.3988e+000 +2.0845e+000 +3.7622e+000
3073 0 +2.028013885e-002 -4.910971986e+001 -4.910971986e+001 +3.3291e+000 +2.0449e+000 +3.6076e+000
3090 0 +3.550917438e-003 -4.912644908e+001 -4.912644908e+001 +3.3700e+000 +2.1143e+000 +3.3652e+000
3095 0 +9.378197393e-004 -4.912906218e+001 -4.912906218e+001 +3.9511e+000 +2.9034e+000 +3.4221e+000
3137 0 +3.854200979e-004 -4.912961458e+001 -4.912961458e+001 +3.9599e+000 +2.9116e+000 +3.2362e+000
3139 0 +7.023428533e-005 -4.912992977e+001 -4.912992977e+001 +3.9346e+000 +2.8941e+000 +3.2685e+000
3286 0 +4.040875890e-005 -4.912995959e+001 -4.912995959e+001 +3.8912e+000 +2.8444e+000 +3.3003e+000
3294 0 +3.330252135e-005 -4.912996670e+001 -4.912996670e+001 +3.9322e+000 +2.8842e+000 +3.2901e+000
3298 0 +3.039361808e-005 -4.912996961e+001 -4.912996961e+001 +3.9320e+000 +2.8840e+000 +3.2949e+000
3310 0 +2.304704914e-005 -4.912997695e+001 -4.912997695e+001 +3.9088e+000 +2.8604e+000 +3.2977e+000
3320 0 +6.632205114e-006 -4.912999337e+001 -4.912999337e+001 +3.8713e+000 +2.7963e+000 +3.3237e+000
3333 0 +5.828119924e-006 -4.912999417e+001 -4.912999417e+001 +3.7982e+000 +2.7038e+000 +3.3440e+000
3342 0 +4.992000413e-008 -4.912999995e+001 -4.912999995e+001 +3.7392e+000 +2.6117e+000 +3.3300e+000
3374 0 +4.592990877e-008 -4.912999995e+001 -4.912999995e+001 +3.7437e+000 +2.6179e+000 +3.3310e+000
3376 0 +2.325009518e-009 -4.913000000e+001 -4.913000000e+001 +3.7577e+000 +2.6342e+000 +3.3235e+000
% f evaluations | g evaluations | best noise-free fitness - Fopt (2.977300000000e+002) + sum g_i+ | measured fitness | best measured fitness or single-digit g-values | x1 | x2...
1 0 +7.959493001e+001 +3.773249300e+002 +3.773249300e+002 -1.6002e+000 +3.4494e+000 -2.3533e+000
2 0 +2.388448005e+001 +3.216144801e+002 +3.216144801e+002 +1.8002e+000 +1.9617e+000 -1.6275e+000
4 0 +1.699208590e+001 +3.147220859e+002 +3.147220859e+002 -1.9259e-001 +8.7843e-001 +2.3812e+000
7 0 +8.878308835e+000 +3.066083088e+002 +3.066083088e+002 +1.0848e+000 +8.4440e-001 +3.0973e+000
18 0 +6.623627868e+000 +3.043536279e+002 +3.043536279e+002 -1.5603e+000 +1.3868e+000 +1.9671e+000
40 0 +1.778862039e+000 +2.995088620e+002 +2.995088620e+002 -1.2846e+000 +4.5605e+000 +1.1185e+000
52 0 +5.024274323e-001 +2.982324274e+002 +2.982324274e+002 -4.1296e+000 +9.6229e-001 +3.3503e+000
59 0 +4.838523805e-001 +2.982138524e+002 +2.982138524e+002 -4.1296e+000 +9.4598e-001 +3.4460e+000
94 0 +4.735118274e-001 +2.982035118e+002 +2.982035118e+002 -4.1451e+000 +9.4068e-001 +3.4000e+000
97 0 +1.301221166e-001 +2.978601221e+002 +2.978601221e+002 -2.5222e+000 +1.0411e+000 +3.0170e+000
119 0 +2.981008039e-002 +2.977598101e+002 +2.977598101e+002 -3.1247e+000 +7.6128e-001 +3.6875e+000
179 0 +1.501204788e-002 +2.977450120e+002 +2.977450120e+002 -3.3879e+000 +7.7499e-001 +3.5080e+000
200 0 +5.106177356e-003 +2.977351062e+002 +2.977351062e+002 -3.5011e+000 +7.3649e-001 +3.6037e+000
240 0 +3.570776555e-003 +2.977335708e+002 +2.977335708e+002 -3.5188e+000 +7.5072e-001 +3.6009e+000
254 0 +7.316164262e-004 +2.977307316e+002 +2.977307316e+002 -3.6340e+000 +6.9600e-001 +3.7203e+000
260 0 +3.081230358e-005 +2.977300308e+002 +2.977300308e+002 -3.5937e+000 +7.0131e-001 +3.7346e+000
261 0 +2.990899719e-005 +2.977300299e+002 +2.977300299e+002 -3.5938e+000 +7.0907e-001 +3.7393e+000
283 0 +6.847004329e-006 +2.977300068e+002 +2.977300068e+002 -3.6922e+000 +6.9171e-001 +3.7813e+000
311 0 +2.871378797e-006 +2.977300029e+002 +2.977300029e+002 -3.6592e+000 +6.8648e-001 +3.7778e+000
312 0 +2.497879279e-006 +2.977300025e+002 +2.977300025e+002 -3.6477e+000 +6.8687e-001 +3.7835e+000
357 0 +5.279270567e-007 +2.977300005e+002 +2.977300005e+002 -3.6901e+000 +6.7217e-001 +3.8069e+000
395 0 +4.596376471e-007 +2.977300005e+002 +2.977300005e+002 -3.7293e+000 +6.5910e-001 +3.8408e+000
425 0 +4.510563940e-007 +2.977300005e+002 +2.977300005e+002 -3.7399e+000 +6.5734e-001 +3.8456e+000
430 0 +3.181232273e-007 +2.977300003e+002 +2.977300003e+002 -3.6927e+000 +6.7465e-001 +3.8054e+000
452 0 +7.889866538e-011 +2.977300000e+002 +2.977300000e+002 -3.7847e+000 +6.6095e-001 +3.8430e+000
% f evaluations | g evaluations | best noise-free fitness - Fopt (5.157000000000e+001) + sum g_i+ | measured fitness | best measured fitness or single-digit g-values | x1 | x2...
1 0 +7.731037410e+001 +1.288803741e+002 +1.288803741e+002 -1.9984e+000 +3.2673e+000 +1.4778e+000
2 0 +5.207098075e+001 +1.036409808e+002 +1.036409808e+002 +3.1721e+000 -1.3779e+000 -9.2459e-001
3 0 +4.473289066e+001 +9.630289066e+001 +9.630289066e+001 -3.8186e+000 -2.7754e+000 -2.0042e+000
6 0 +4.357285083e+001 +9.514285083e+001 +9.514285083e+001 -6.5115e-002 +1.9340e+000 +2.5874e+000
8 0 +3.892875324e+001 +9.049875324e+001 +9.049875324e+001 -3.9264e+000 +1.0521e-001 -5.0000e+000
9 0 +1.344408661e+001 +6.501408661e+001 +6.501408661e+001 +3.3651e+000 -1.3613e+000 -2.7378e-003
32 0 +7.697130868e+000 +5.926713087e+001 +5.926713087e+001 +3.1721e+000 -1.0814e+000 +5.7449e-001
43 0 +6.571345501e+000 +5.814134550e+001 +5.814134550e+001 +2.7174e+000 -4.4851e+000 +5.0000e+000
62 0 +4.481578258e+000 +5.605157826e+001 +5.605157826e+001 +2.0655e+000 -1.0814e+000 +4.3192e+000
64 0 +2.160985247e+000 +5.373098525e+001 +5.373098525e+001 +2.0367e+000 -2.9179e+000 +4.3599e+000
73 0 +2.051633920e+000 +5.362163392e+001 +5.362163392e+001 +2.0339e+000 -2.8638e+000 +4.1329e+000
122 0 +1.993378582e+000 +5.356337858e+001 +5.356337858e+001 +2.2747e+000 -2.1976e+000 +4.3192e+000
133 0 +1.807562136e+000 +5.337756214e+001 +5.337756214e+001 +1.9699e+000 -2.5897e+000 +4.1329e+000
143 0 +1.355955831e+000 +5.292595583e+001 +5.292595583e+001 +1.5921e+000 -1.6869e+000 +4.3148e+000
154 0 +1.105725096e+000 +5.267572510e+001 +5.267572510e+001 +1.7363e+000 -1.9842e+000 +4.5741e+000
190 0 +1.089200025e+000 +5.265920002e+001 +5.265920002e+001 +1.7335e+000 -1.9786e+000 +4.5690e+000
200 0 +7.480890415e-001 +5.231808904e+001 +5.231808904e+001 +1.9462e+000 -2.0534e+000 +4.4097e+000
237 0 +7.327396119e-001 +5.230273961e+001 +5.230273961e+001 +1.9358e+000 -1.9641e+000 +4.5051e+000
243 0 +6.974037538e-001 +5.226740375e+001 +5.226740375e+001 +1.8632e+000 -1.9186e+000 +4.4749e+000
3307 0 +4.871007268e-001 +5.205710073e+001 +5.205710073e+001 +2.7085e+000 +8.9759e-001 -1.3299e+000
3309 0 +1.188961332e-002 +5.158188961e+001 +5.158188961e+001 +2.6442e+000 +1.0295e+000 -1.4086e+000
3350 0 +1.104864252e-002 +5.158104864e+001 +5.158104864e+001 +2.6421e+000 +1.0355e+000 -1.4157e+000
3417 0 +3.930706170e-003 +5.157393071e+001 +5.157393071e+001 +2.6177e+000 +1.0754e+000 -1.5940e+000
3483 0 +3.671759723e-003 +5.157367176e+001 +5.157367176e+001 +2.5643e+000 +1.0837e+000 -1.5546e+000
3499 0 +3.602374296e-003 +5.157360237e+001 +5.157360237e+001 +2.4570e+000 +1.0956e+000 -1.6588e+000
3513 0 +1.646525475e-003 +5.157164653e+001 +5.157164653e+001 +2.4289e+000 +1.1227e+000 -1.7059e+000
3524 0 +5.406302443e-004 +5.157054063e+001 +5.157054063e+001 +2.2676e+000 +1.1752e+000 -1.9178e+000
3581 0 +3.431243550e-005 +5.157003431e+001 +5.157003431e+001 +2.2814e+000 +1.2261e+000 -2.0356e+000
3601 0 +2.738964618e-005 +5.157002739e+001 +5.157002739e+001 +2.2740e+000 +1.2302e+000 -2.0448e+000
3615 0 +4.286597488e-006 +5.157000429e+001 +5.157000429e+001 +2.2017e+000 +1.2462e+000 -2.1007e+000
3770 0 +1.949356232e-006 +5.157000195e+001 +5.157000195e+001 +2.1870e+000 +1.2463e+000 -2.1042e+000
3772 0 +1.650815619e-006 +5.157000165e+001 +5.157000165e+001 +2.1537e+000 +1.2479e+000 -2.1146e+000
3788 0 +5.709362512e-007 +5.157000057e+001 +5.157000057e+001 +2.1041e+000 +1.2782e+000 -2.2107e+000
3791 0 +1.273592360e-007 +5.157000013e+001 +5.157000013e+001 +2.0672e+000 +1.2865e+000 -2.2396e+000
3809 0 +3.889999078e-008 +5.157000004e+001 +5.157000004e+001 +2.0541e+000 +1.2873e+000 -2.2447e+000
3833 0 +3.325248343e-008 +5.157000003e+001 +5.157000003e+001 +2.0575e+000 +1.2861e+000 -2.2411e+000
3925 0 +1.190785071e-008 +5.157000001e+001 +5.157000001e+001 +2.0772e+000 +1.2786e+000 -2.2171e+000
3935 0 +1.044488585e-008 +5.157000001e+001 +5.157000001e+001 +2.0632e+000 +1.2799e+000 -2.2183e+000
3952 0 +7.382162437e-009 +5.157000001e+001 +5.157000001e+001 +2.0775e+000 +1.2760e+000 -2.2098e+000
% f evaluations | g evaluations | best noise-free fitness - Fopt (1.527100000000e+002) + sum g_i+ | measured fitness | best measured fitness or single-digit g-values | x1 | x2...
1 0 +2.019836022e+001 +1.729083602e+002 +1.729083602e+002 -4.6153e+000 -1.0866e+000 -4.7881e+000
2 0 +2.210168425e+000 +1.549201684e+002 +1.549201684e+002 -3.5663e+000 +1.4139e+000 -4.3365e+000
34 0 +1.995017085e+000 +1.547050171e+002 +1.547050171e+002 -4.2038e+000 +1.3539e+000 -4.5971e+000
46 0 +1.267561164e+000 +1.539775612e+002 +1.539775612e+002 -4.6601e+000 +1.6440e+000 -4.3632e+000
64 0 +7.686581844e-001 +1.534786582e+002 +1.534786582e+002 -4.2542e+000 +1.7051e+000 -4.0662e+000
168 0 +7.306183535e-001 +1.534406184e+002 +1.534406184e+002 -4.2987e+000 +1.7217e+000 -4.2176e+000
205 0 +7.108127797e-001 +1.534208128e+002 +1.534208128e+002 -4.3641e+000 +1.7887e+000 -4.1586e+000
209 0 +7.064994092e-001 +1.534164994e+002 +1.534164994e+002 -4.3468e+000 +1.7755e+000 -4.1440e+000
795 0 +3.569423792e-001 +1.530669424e+002 +1.530669424e+002 -3.7368e+000 -1.5721e+000 +2.3018e+000
826 0 +1.057685351e-001 +1.528157685e+002 +1.528157685e+002 -3.6325e+000 -1.6098e+000 +2.1862e+000
830 0 +4.334487513e-003 +1.527143345e+002 +1.527143345e+002 -3.3158e+000 -1.3260e+000 +2.5860e+000
847 0 +7.263601253e-004 +1.527107264e+002 +1.527107264e+002 -3.4173e+000 -1.3272e+000 +2.5821e+000
1015 0 +2.472315183e-004 +1.527102472e+002 +1.527102472e+002 -3.0904e+000 -1.4885e+000 +2.5595e+000
1045 0 +2.019827656e-005 +1.527100202e+002 +1.527100202e+002 -3.2206e+000 -1.4690e+000 +2.5206e+000
1075 0 +1.488359064e-005 +1.527100149e+002 +1.527100149e+002 -3.3040e+000 -1.4565e+000 +2.4956e+000
1128 0 +1.261660148e-005 +1.527100126e+002 +1.527100126e+002 -3.2066e+000 -1.4692e+000 +2.5172e+000
1170 0 +9.640344359e-006 +1.527100096e+002 +1.527100096e+002 -3.1342e+000 -1.5621e+000 +2.4555e+000
1189 0 +6.999402444e-006 +1.527100070e+002 +1.527100070e+002 -3.1244e+000 -1.5371e+000 +2.4730e+000
1212 0 +6.525398021e-006 +1.527100065e+002 +1.527100065e+002 -2.9286e+000 -1.6190e+000 +2.4873e+000
1220 0 +2.174355416e-007 +1.527100002e+002 +1.527100002e+002 -3.1490e+000 -1.5203e+000 +2.4889e+000
1231 0 +1.689909368e-008 +1.527100000e+002 +1.527100000e+002 -3.0960e+000 -1.5444e+000 +2.4861e+000
1291 0 +1.185233600e-008 +1.527100000e+002 +1.527100000e+002 -3.0928e+000 -1.5472e+000 +2.4846e+000
1321 0 +1.161453156e-008 +1.527100000e+002 +1.527100000e+002 -3.0900e+000 -1.5483e+000 +2.4847e+000
1373 0 +1.023948926e-009 +1.527100000e+002 +1.527100000e+002 -3.0520e+000 -1.5679e+000 +2.4818e+000
1586 0 +0.000000000e+000 +1.527100000e+002 +1.527100000e+002 -3.0741e+000 -1.5583e+000 +2.4828e+000
% f evaluations | g evaluations | best noise-free fitness - Fopt (9.980000000000e+001) + sum g_i+ | measured fitness | best measured fitness or single-digit g-values | x1 | x2...
1 0 +7.054953687e+001 +1.703495369e+002 +1.703495369e+002 -3.9330e+000 +2.5030e+000 +8.1788e-001
3 0 +3.655202921e+001 +1.363520292e+002 +1.363520292e+002 -1.1858e+000 +2.1745e+000 +2.2905e-001
5 0 +3.239887426e+001 +1.321988743e+002 +1.321988743e+002 +5.0000e+000 -5.0000e+000 +5.0000e+000
7 0 +1.083382749e+001 +1.106338275e+002 +1.106338275e+002 +1.9183e+000 +2.9641e+000 +9.5111e-001
35 0 +3.692777124e+000 +1.034927771e+002 +1.034927771e+002 +4.0780e+000 -3.5638e+000 +3.9141e+000
40 0 +2.114597900e+000 +1.019145979e+002 +1.019145979e+002 +3.8817e+000 -3.6534e+000 +3.8563e+000
65 0 +1.648804987e+000 +1.014488050e+002 +1.014488050e+002 +3.4879e+000 -2.6447e+000 +3.2191e+000
68 0 +1.372315805e+000 +1.011723158e+002 +1.011723158e+002 +3.3293e+000 -2.7436e+000 +3.3031e+000
71 0 +7.535993276e-001 +1.005535993e+002 +1.005535993e+002 +3.4203e+000 -3.9283e+000 +3.4945e+000
226 0 +7.121426309e-001 +1.005121426e+002 +1.005121426e+002 +3.4585e+000 -3.5657e+000 +3.4407e+000
371 0 +7.006691107e-001 +1.005006691e+002 +1.005006691e+002 +3.4388e+000 -3.6958e+000 +3.4459e+000
8850 0 +4.947715415e-001 +1.002947715e+002 +1.002947715e+002 -3.2124e+000 -1.5912e-002 +2.0064e+000
8894 0 +3.494980089e-001 +1.001494980e+002 +1.001494980e+002 -3.2191e+000 -4.5926e-002 +2.0266e+000
8914 0 +1.420453027e-001 +9.994204530e+001 +9.994204530e+001 -3.3350e+000 -9.4080e-002 +1.8127e+000
8925 0 +5.721429245e-002 +9.985721429e+001 +9.985721429e+001 -2.9785e+000 -7.2819e-002 +2.0163e+000
8937 0 +2.237854322e-002 +9.982237854e+001 +9.982237854e+001 -2.8727e+000 -8.4650e-002 +2.0118e+000
8946 0 +3.164066753e-005 +9.980003164e+001 +9.980003164e+001 -2.2061e+000 -2.7158e-002 +2.2612e+000
9044 0 +2.483680393e-005 +9.980002484e+001 +9.980002484e+001 -2.1604e+000 -4.5926e-002 +2.2227e+000
9096 0 +1.791539526e-005 +9.980001792e+001 +9.980001792e+001 -2.1688e+000 -4.5934e-002 +2.2193e+000
9141 0 +1.121778500e-005 +9.980001122e+001 +9.980001122e+001 -2.1753e+000 -4.5941e-002 +2.2167e+000
9147 0 +4.647339253e-006 +9.980000465e+001 +9.980000465e+001 -2.1700e+000 -4.5250e-002 +2.2027e+000
9149 0 +2.685485228e-006 +9.980000269e+001 +9.980000269e+001 -2.2574e+000 -4.6354e-002 +2.1885e+000
9158 0 +3.542687637e-007 +9.980000035e+001 +9.980000035e+001 -2.1621e+000 -3.4861e-002 +2.2381e+000
9224 0 +1.843492896e-007 +9.980000018e+001 +9.980000018e+001 -2.1873e+000 -3.7599e-002 +2.2075e+000
9233 0 +1.141976469e-007 +9.980000011e+001 +9.980000011e+001 -2.2030e+000 -3.8805e-002 +2.2080e+000
9235 0 +2.113834796e-008 +9.980000002e+001 +9.980000002e+001 -2.1929e+000 -4.0468e-002 +2.2025e+000
9248 0 +1.791599402e-008 +9.980000002e+001 +9.980000002e+001 -2.2061e+000 -4.2459e-002 +2.1979e+000
9271 0 +1.199352084e-008 +9.980000001e+001 +9.980000001e+001 -2.2017e+000 -4.1333e-002 +2.2001e+000
9368 0 +1.147081718e-008 +9.980000001e+001 +9.980000001e+001 -2.2002e+000 -4.1781e-002 +2.1960e+000
9405 0 +1.850949616e-009 +9.980000000e+001 +9.980000000e+001 -2.2436e+000 -4.8846e-002 +2.1578e+000
% f evaluations | g evaluations | best noise-free fitness - Fopt (-1.194100000000e+002) + sum g_i+ | measured fitness | best measured fitness or single-digit g-values | x1 | x2...
1 0 +7.876896427e+001 -4.064103573e+001 -4.064103573e+001 +4.8362e-001 -4.6251e+000 +1.1382e+000
3 0 +6.290178570e+001 -5.650821430e+001 -5.650821430e+001 -1.9070e-001 -3.1896e+000 +2.4914e+000
8 0 +5.067855363e+001 -6.873144637e+001 -6.873144637e+001 -5.0000e+000 -6.9529e-001 -7.4715e-001
16 0 +3.866035028e+001 -8.074964972e+001 -8.074964972e+001 -5.0000e+000 -4.0461e-001 -2.9315e-001
18 0 +1.799297070e+001 -1.014170293e+002 -1.014170293e+002 -5.0000e+000 -2.7927e-001 -3.0400e-001
21 0 +1.594054804e+001 -1.034694520e+002 -1.034694520e+002 -1.7201e+000 -4.3788e+000 -2.9885e+000
25 0 +9.079382096e+000 -1.103306179e+002 -1.103306179e+002 -2.7437e+000 +4.1678e+000 -2.7709e+000
31 0 +7.153220448e+000 -1.122567796e+002 -1.122567796e+002 -2.7437e+000 +4.6421e+000 -1.7506e+000
50 0 +6.528507014e+000 -1.128814930e+002 -1.128814930e+002 -2.5687e+000 +4.6614e+000 -1.6456e+000
71 0 +5.883217957e+000 -1.135267820e+002 -1.135267820e+002 -2.0575e+000 +4.2000e+000 -1.0126e+000
81 0 +4.318810095e+000 -1.150911899e+002 -1.150911899e+002 -2.2638e+000 +3.7373e+000 -1.8323e+000
98 0 +4.264957815e+000 -1.151450422e+002 -1.151450422e+002 -2.0800e+000 +3.7942e+000 -1.4925e+000
102 0 +3.832371735e+000 -1.155776283e+002 -1.155776283e+002 -2.4353e+000 +4.1415e+000 -1.1586e+000
105 0 +3.542609704e+000 -1.158673903e+002 -1.158673903e+002 -2.3365e+000 +4.1732e+000 -2.0403e+000
107 0 +2.873835447e+000 -1.165361646e+002 -1.165361646e+002 -2.4687e+000 +3.9734e+000 -1.5917e+000
111 0 +2.677549812e+000 -1.167324502e+002 -1.167324502e+002 -2.3677e+000 +4.1589e+000 -1.5077e+000
170 0 +2.624827763e+000 -1.167851722e+002 -1.167851722e+002 -2.3645e+000 +4.0908e+000 -1.5606e+000
719 0 +1.993761053e+000 -1.174162389e+002 -1.174162389e+002 -3.4214e+000 -4.0558e+000 -1.6728e+000
730 0 +1.345357516e+000 -1.180646425e+002 -1.180646425e+002 -3.4574e+000 -3.9178e+000 -1.9168e+000
760 0 +1.159640290e+000 -1.182503597e+002 -1.182503597e+002 -3.4574e+000 -4.1846e+000 -2.0527e+000
780 0 +7.936189690e-001 -1.186163810e+002 -1.186163810e+002 -3.2518e+000 -4.1359e+000 -2.2587e+000
902 0 +7.753787685e-001 -1.186346212e+002 -1.186346212e+002 -3.1979e+000 -4.0079e+000 -2.2470e+000
921 0 +6.982614197e-001 -1.187117386e+002 -1.187117386e+002 -3.2857e+000 -3.9768e+000 -2.2773e+000
2465 0 +1.546662222e-002 -1.193945334e+002 -1.193945334e+002 -2.3137e+000 +3.7087e-001 +2.4621e+000
2539 0 +7.502704944e-003 -1.194024973e+002 -1.194024973e+002 -2.2441e+000 +3.5306e-001 +2.4579e+000
2593 0 +4.215584465e-003 -1.194057844e+002 -1.194057844e+002 -2.2342e+000 +3.5395e-001 +2.5406e+000
2613 0 +4.051650195e-003 -1.194059483e+002 -1.194059483e+002 -2.1942e+000 +3.4990e-001 +2.5631e+000
2650 0 +3.834183601e-003 -1.194061658e+002 -1.194061658e+002 -2.1498e+000 +3.5284e-001 +2.6234e+000
2679 0 +3.104059920e-003 -1.194068959e+002 -1.194068959e+002 -1.9921e+000 +3.8620e-001 +2.6389e+000
2712 0 +3.069379408e-003 -1.194069306e+002 -1.194069306e+002 -1.9686e+000 +3.9220e-001 +2.6552e+000
2713 0 +4.497015908e-004 -1.194095503e+002 -1.194095503e+002 -1.5854e+000 +4.5131e-001 +3.0338e+000
2719 0 +1.827513284e-004 -1.194098172e+002 -1.194098172e+002 -1.5657e+000 +4.4865e-001 +3.0296e+000
2737 0 +1.323296390e-004 -1.194098677e+002 -1.194098677e+002 -1.4975e+000 +4.5755e-001 +3.0804e+000
2775 0 +1.157884044e-005 -1.194099884e+002 -1.194099884e+002 -1.4848e+000 +4.4430e-001 +3.0514e+000
2781 0 +6.471333847e-006 -1.194099935e+002 -1.194099935e+002 -1.4393e+000 +4.4958e-001 +3.0915e+000
2793 0 +5.065551122e-006 -1.194099949e+002 -1.194099949e+002 -1.4232e+000 +4.5263e-001 +3.1083e+000
2814 0 +2.490534683e-006 -1.194099975e+002 -1.194099975e+002 -1.4027e+000 +4.5593e-001 +3.1251e+000
2822 0 +1.599306003e-006 -1.194099984e+002 -1.194099984e+002 -1.3752e+000 +4.5993e-001 +3.1453e+000
2837 0 +1.578648352e-006 -1.194099984e+002 -1.194099984e+002 -1.3742e+000 +4.6004e-001 +3.1458e+000
2840 0 +4.040078778e-007 -1.194099996e+002 -1.194099996e+002 -1.2820e+000 +4.7161e-001 +3.2080e+000
2850 0 +2.621670632e-007 -1.194099997e+002 -1.194099997e+002 -1.2732e+000 +4.7340e-001 +3.2112e+000
2884 0 +1.173697228e-008 -1.194100000e+002 -1.194100000e+002 -1.2746e+000 +4.7107e-001 +3.1970e+000
2898 0 +5.527198255e-009 -1.194100000e+002 -1.194100000e+002 -1.2582e+000 +4.7370e-001 +3.2067e+000
% f evaluations | g evaluations | best noise-free fitness - Fopt (1.077000000000e+001) + sum g_i+ | measured fitness | best measured fitness or single-digit g-values | x1 | x2...
1 0 +7.397128935e+001 +8.474128935e+001 +8.474128935e+001 +1.5263e+000 -4.5082e+000 +3.7391e+000
3 0 +5.443220068e+001 +6.520220068e+001 +6.520220068e+001 +1.9140e+000 -2.5549e+000 -2.5738e+000
10 0 +2.300967593e+001 +3.377967593e+001 +3.377967593e+001 +1.2785e+000 -1.3023e+000 -2.3844e+000
11 0 +2.053388615e+001 +3.130388615e+001 +3.130388615e+001 +3.3051e+000 -1.7855e+000 -6.3646e-001
12 0 +7.803075813e+000 +1.857307581e+001 +1.857307581e+001 +1.8492e+000 -1.5109e+000 -1.4400e+000
62 0 +1.719923485e+000 +1.248992348e+001 +1.248992348e+001 +1.7145e+000 -1.3045e+000 -9.1385e-001
90 0 +9.270203060e-001 +1.169702031e+001 +1.169702031e+001 +2.6392e+000 -1.1785e+000 -1.2759e+000
92 0 +1.518988687e-001 +1.092189887e+001 +1.092189887e+001 +2.2906e+000 -1.4020e+000 -7.0278e-001
107 0 +5.324305244e-002 +1.082324305e+001 +1.082324305e+001 +1.9849e+000 -1.3486e+000 -6.1882e-001
168 0 +3.431564426e-003 +1.077343156e+001 +1.077343156e+001 +2.2468e+000 -1.3226e+000 -6.2001e-001
251 0 +1.333289921e-003 +1.077133329e+001 +1.077133329e+001 +2.2619e+000 -1.3258e+000 -5.8455e-001
260 0 +8.585714403e-004 +1.077085857e+001 +1.077085857e+001 +2.3714e+000 -1.3316e+000 -4.4662e-001
311 0 +1.239663511e-006 +1.077000124e+001 +1.077000124e+001 +1.7895e+000 -1.4837e+000 -4.6502e-001
316 0 +6.475943515e-007 +1.077000065e+001 +1.077000065e+001 +1.8061e+000 -1.4836e+000 -4.4636e-001
466 0 +4.932478959e-008 +1.077000005e+001 +1.077000005e+001 +1.7515e+000 -1.4975e+000 -4.5912e-001
487 0 +2.652816633e-009 +1.077000000e+001 +1.077000000e+001 +1.7937e+000 -1.4882e+000 -4.5571e-001
% f evaluations | g evaluations | best noise-free fitness - Fopt (2.137000000000e+001) + sum g_i+ | measured fitness | best measured fitness or single-digit g-values | x1 | x2...
1 0 +5.033593600e+001 +7.170593600e+001 +7.170593600e+001 +1.8374e+000 +4.1870e+000 -4.4602e+000
2 0 +4.980195222e+001 +7.117195222e+001 +7.117195222e+001 +4.9859e+000 +5.0191e-001 -5.8104e-001
6 0 +4.454437879e+001 +6.591437879e+001 +6.591437879e+001 -1.5532e+000 +3.8452e+000 -3.9080e+000
9 0 +2.414606769e+001 +4.551606769e+001 +4.551606769e+001 +1.0480e+000 -1.8036e+000 -8.2213e-001
25 0 +2.098064076e+001 +4.235064076e+001 +4.235064076e+001 +1.7980e+000 -1.4425e-001 -4.6550e+000
36 0 +1.882464049e+001 +4.019464049e+001 +4.019464049e+001 +1.8864e+000 -3.1082e-001 -4.8460e+000
39 0 +8.718909325e+000 +3.008890932e+001 +3.008890932e+001 +1.3948e+000 -1.2211e+000 -3.6586e+000
58 0 +7.680400781e+000 +2.905040078e+001 +2.905040078e+001 +1.7086e+000 -1.4871e+000 -2.9671e+000
69 0 +3.430601536e+000 +2.480060154e+001 +2.480060154e+001 +2.3161e+000 -1.3869e+000 -4.0192e+000
147 0 +2.858022692e+000 +2.422802269e+001 +2.422802269e+001 +2.3930e+000 -1.5630e+000 -4.3981e+000
153 0 +2.621940678e+000 +2.399194068e+001 +2.399194068e+001 +2.2724e+000 -1.5919e+000 -4.3185e+000
626 0 +2.042009199e+000 +2.341200920e+001 +2.341200920e+001 +6.8987e-001 -2.6149e+000 -1.2127e+000
673 0 +2.010677585e+000 +2.338067758e+001 +2.338067758e+001 +6.7656e-001 -2.6105e+000 -1.1804e+000
765 0 +1.968093766e+000 +2.333809377e+001 +2.333809377e+001 +2.0186e-001 -2.4017e+000 -1.7510e+000
1955 0 +1.773946932e+000 +2.314394693e+001 +2.314394693e+001 +1.5260e+000 -2.7096e+000 +3.2044e+000
1980 0 +1.720586440e+000 +2.309058644e+001 +2.309058644e+001 +1.6826e+000 -2.5846e+000 +3.0415e+000
2048 0 +1.551710074e+000 +2.292171007e+001 +2.292171007e+001 +1.2137e+000 -2.5456e+000 +3.4669e+000
2098 0 +1.545866571e+000 +2.291586657e+001 +2.291586657e+001 +1.1976e+000 -2.5651e+000 +3.4713e+000
2133 0 +1.409041134e+000 +2.277904113e+001 +2.277904113e+001 +1.1803e+000 -2.5688e+000 +3.4400e+000
2181 0 +1.306735678e+000 +2.267673568e+001 +2.267673568e+001 +1.3927e+000 -2.5689e+000 +3.2277e+000
2183 0 +1.099925543e+000 +2.246992554e+001 +2.246992554e+001 +1.2787e+000 -2.6068e+000 +3.3494e+000
2232 0 +1.067497729e+000 +2.243749773e+001 +2.243749773e+001 +1.2994e+000 -2.6136e+000 +3.3281e+000
2320 0 +1.018299451e+000 +2.238829945e+001 +2.238829945e+001 +1.3526e+000 -2.7111e+000 +3.2773e+000
2334 0 +9.535583288e-001 +2.232355833e+001 +2.232355833e+001 +1.1326e+000 -2.8557e+000 +3.3589e+000
2347 0 +9.259823807e-001 +2.229598238e+001 +2.229598238e+001 +1.2669e+000 -2.9111e+000 +3.2311e+000
2361 0 +8.090920899e-001 +2.217909209e+001 +2.217909209e+001 +1.0998e+000 -3.0986e+000 +3.3207e+000
2365 0 +7.606210243e-001 +2.213062102e+001 +2.213062102e+001 +8.1024e-001 -3.7222e+000 +3.3174e+000
2378 0 +7.255006455e-001 +2.209550065e+001 +2.209550065e+001 +7.4074e-001 -3.7799e+000 +3.3455e+000
2397 0 +7.123307247e-001 +2.208233072e+001 +2.208233072e+001 +6.5416e-001 -3.9255e+000 +3.3312e+000
2410 0 +6.998596371e-001 +2.206985964e+001 +2.206985964e+001 +6.8930e-001 -3.7075e+000 +3.3940e+000
5743 0 +1.283420534e-001 +2.149834205e+001 +2.149834205e+001 +3.2502e+000 +3.6067e+000 -1.2782e+000
5774 0 +5.802985696e-002 +2.142802986e+001 +2.142802986e+001 +2.9075e+000 +2.5813e+000 -1.0393e+000
5816 0 +3.917195944e-002 +2.140917196e+001 +2.140917196e+001 +2.8791e+000 +2.5794e+000 -1.0688e+000
5818 0 +2.858876763e-002 +2.139858877e+001 +2.139858877e+001 +2.8603e+000 +2.5825e+000 -1.0843e+000
5859 0 +2.142059054e-002 +2.139142059e+001 +2.139142059e+001 +2.7234e+000 +2.4912e+000 -1.1088e+000
5877 0 +8.956623308e-004 +2.137089566e+001 +2.137089566e+001 +2.7053e+000 +2.5768e+000 -1.2191e+000
5945 0 +3.742329309e-006 +2.137000374e+001 +2.137000374e+001 +2.6587e+000 +2.6464e+000 -1.3094e+000
5995 0 +2.809699495e-007 +2.137000028e+001 +2.137000028e+001 +2.6589e+000 +2.6748e+000 -1.3375e+000
6028 0 +5.701340200e-008 +2.137000006e+001 +2.137000006e+001 +2.6686e+000 +2.6883e+000 -1.3347e+000
6069 0 +6.156533061e-010 +2.137000000e+001 +2.137000000e+001 +2.6797e+000 +2.6888e+000 -1.3264e+000
% f evaluations | g evaluations | best noise-free fitness - Fopt (1.673000000000e+001) + sum g_i+ | measured fitness | best measured fitness or single-digit g-values | x1 | x2...
1 0 +6.993344991e+001 +8.666344991e+001 +8.666344991e+001 +4.7219e+000 -3.0321e+000 -4.6727e+000
2 0 +6.973003038e+001 +8.646003038e+001 +8.646003038e+001 -2.4702e+000 -3.7940e+000 -1.1842e-001
3 0 +6.776450352e+001 +8.449450352e+001 +8.449450352e+001 -4.0184e+000 -1.3043e+000 -3.1489e+000
6 0 +3.000929239e+001 +4.673929239e+001 +4.673929239e+001 +3.1166e+000 -2.7344e+000 -1.4982e+000
7 0 +2.605555488e+001 +4.278555488e+001 +4.278555488e+001 -2.3295e+000 +6.6195e-001 +2.3750e+000
14 0 +2.479768705e+001 +4.152768705e+001 +4.152768705e+001 +5.0000e+000 -1.5438e-001 +9.6671e-001
17 0 +2.338245414e+001 +4.011245414e+001 +4.011245414e+001 -2.9422e+000 +4.4173e-001 +1.3892e+000
19 0 +1.105342543e+001 +2.778342543e+001 +2.778342543e+001 +2.9361e+000 -9.9000e-001 -2.8089e+000
38 0 +7.215635469e+000 +2.394563547e+001 +2.394563547e+001 +3.0863e+000 +1.2010e+000 +2.0207e+000
46 0 +4.357670114e+000 +2.108767011e+001 +2.108767011e+001 -1.1762e+000 +2.3514e-003 +3.2779e-001
152 0 +1.205510049e+000 +1.793551005e+001 +1.793551005e+001 +3.1183e+000 +9.3134e-002 +1.5544e+000
199 0 +1.049634396e+000 +1.777963440e+001 +1.777963440e+001 +3.1414e+000 +7.0832e-002 +1.4659e+000
207 0 +1.040650243e+000 +1.777065024e+001 +1.777065024e+001 +3.1440e+000 +6.8277e-002 +1.4558e+000
256 0 +8.260252003e-001 +1.755602520e+001 +1.755602520e+001 +3.1294e+000 +1.6737e-001 +1.4588e+000
282 0 +7.773165166e-001 +1.750731652e+001 +1.750731652e+001 +3.1533e+000 +1.7444e-001 +1.4656e+000
291 0 +7.507964210e-001 +1.748079642e+001 +1.748079642e+001 +3.1672e+000 +2.2376e-001 +1.5355e+000
346 0 +7.142315562e-001 +1.744423156e+001 +1.744423156e+001 +3.1606e+000 +2.3300e-001 +1.4588e+000
361 0 +7.049896096e-001 +1.743498961e+001 +1.743498961e+001 +3.2128e+000 +2.0770e-001 +1.4981e+000
1190 0 +1.867031350e-001 +1.691670314e+001 +1.691670314e+001 -1.5606e+000 +8.6472e-003 -5.2594e-001
1259 0 +1.861287217e-001 +1.691612872e+001 +1.691612872e+001 -1.4902e+000 -2.0133e-001 -6.3752e-001
1307 0 +1.238969461e-001 +1.685389695e+001 +1.685389695e+001 -1.6673e+000 +2.0132e-001 -4.0776e-001
1309 0 +1.007330778e-001 +1.683073308e+001 +1.683073308e+001 -1.6334e+000 +5.4001e-002 -4.9863e-001
1330 0 +4.880384743e-002 +1.677880385e+001 +1.677880385e+001 -1.4701e+000 -4.6621e-001 -7.8694e-001
1352 0 +1.702320201e-002 +1.674702320e+001 +1.674702320e+001 -1.3807e+000 -1.7442e+000 -1.8975e+000
1374 0 +1.229524620e-002 +1.674229525e+001 +1.674229525e+001 -1.2532e+000 -1.9873e+000 -2.0770e+000
1380 0 +4.597297973e-003 +1.673459730e+001 +1.673459730e+001 -1.3440e+000 -1.7808e+000 -1.9591e+000
1395 0 +1.008195832e-003 +1.673100820e+001 +1.673100820e+001 -1.3034e+000 -1.7867e+000 -1.8996e+000
1402 0 +1.556238775e-004 +1.673015562e+001 +1.673015562e+001 -1.2644e+000 -1.8461e+000 -1.8529e+000
1440 0 +9.893038106e-005 +1.673009893e+001 +1.673009893e+001 -1.2984e+000 -1.7148e+000 -1.7799e+000
1473 0 +4.051315017e-005 +1.673004051e+001 +1.673004051e+001 -1.3051e+000 -1.6623e+000 -1.7446e+000
1493 0 +3.650609555e-005 +1.673003651e+001 +1.673003651e+001 -1.3025e+000 -1.6704e+000 -1.7485e+000
1520 0 +2.645295976e-005 +1.673002645e+001 +1.673002645e+001 -1.2616e+000 -1.7791e+000 -1.7742e+000
1562 0 +1.059240123e-006 +1.673000106e+001 +1.673000106e+001 -1.2401e+000 -1.7415e+000 -1.7158e+000
1636 0 +7.865465150e-007 +1.673000079e+001 +1.673000079e+001 -1.2616e+000 -1.7052e+000 -1.7235e+000
1698 0 +6.029949411e-007 +1.673000060e+001 +1.673000060e+001 -1.2392e+000 -1.7609e+000 -1.7286e+000
1715 0 +7.811811287e-008 +1.673000008e+001 +1.673000008e+001 -1.2636e+000 -1.6905e+000 -1.7003e+000
1737 0 +5.908788125e-009 +1.673000001e+001 +1.673000001e+001 -1.2585e+000 -1.7131e+000 -1.7172e+000
% f evaluations | g evaluations | best noise-free fitness - Fopt (1.000000000000e+003) + sum g_i+ | measured fitness | best measured fitness or single-digit g-values | x1 | x2...
1 0 +6.553365128e+001 +1.065533651e+003 +1.065533651e+003 -3.4267e+000 -3.1520e-001 -4.0933e+000
2 0 +6.465972568e+001 +1.064659726e+003 +1.064659726e+003 +4.9572e+000 +8.3044e-001 +2.1127e+000
3 0 +3.453818205e+001 +1.034538182e+003 +1.034538182e+003 +3.4714e+000 -1.8395e+000 -1.3228e+000
4 0 +1.772231688e+001 +1.017722317e+003 +1.017722317e+003 +4.9696e+000 +3.5388e+000 -4.8703e+000
37 0 +1.732742171e+001 +1.017327422e+003 +1.017327422e+003 +4.9271e+000 +3.5354e+000 -4.8051e+000
54 0 +1.660288990e+001 +1.016602890e+003 +1.016602890e+003 +4.8647e+000 +3.5865e+000 -4.7601e+000
59 0 +1.956685367e+000 +1.001956685e+003 +1.001956685e+003 +1.6482e+000 -2.6712e+000 -2.0404e-001
91 0 +1.834772285e+000 +1.001834772e+003 +1.001834772e+003 +1.6578e+000 -2.5663e+000 -2.5225e-001
127 0 +1.102151568e+000 +1.001102152e+003 +1.001102152e+003 +1.5257e+000 -2.7000e+000 -3.6258e-001
133 0 +1.034399552e+000 +1.001034400e+003 +1.001034400e+003 +1.5806e+000 -2.5957e+000 -4.4329e-001
145 0 +1.010770533e+000 +1.001010771e+003 +1.001010771e+003 +1.5798e+000 -2.5974e+000 -4.4352e-001
210 0 +9.171815150e-001 +1.000917182e+003 +1.000917182e+003 +1.6809e+000 -2.6323e+000 -5.3273e-001
234 0 +7.706426767e-001 +1.000770643e+003 +1.000770643e+003 +1.6684e+000 -2.6459e+000 -6.8374e-001
250 0 +6.935671240e-001 +1.000693567e+003 +1.000693567e+003 +1.6491e+000 -2.6250e+000 -7.5143e-001
310 0 +6.873957685e-001 +1.000687396e+003 +1.000687396e+003 +1.6493e+000 -2.6341e+000 -7.5367e-001
325 0 +6.395546552e-001 +1.000639555e+003 +1.000639555e+003 +1.5798e+000 -2.6654e+000 -7.4163e-001
367 0 +6.017313724e-001 +1.000601731e+003 +1.000601731e+003 +1.5257e+000 -2.6791e+000 -7.3936e-001
387 0 +5.745467901e-001 +1.000574547e+003 +1.000574547e+003 +1.4468e+000 -2.6902e+000 -7.8355e-001
411 0 +5.168074685e-001 +1.000516807e+003 +1.000516807e+003 +1.3084e+000 -2.7287e+000 -6.6920e-001
413 0 +1.490244713e-001 +1.000149024e+003 +1.000149024e+003 -3.1606e-002 -2.9711e+000 +8.1836e-001
418 0 +4.036376580e-002 +1.000040364e+003 +1.000040364e+003 -2.4523e-001 -3.0706e+000 +7.8604e-001
419 0 +3.784536170e-002 +1.000037845e+003 +1.000037845e+003 -2.7852e-001 -3.0751e+000 +8.1964e-001
428 0 +1.804648511e-002 +1.000018046e+003 +1.000018046e+003 -1.2937e+000 -3.2647e+000 +1.6474e+000
436 0 +1.085085281e-002 +1.000010851e+003 +1.000010851e+003 -1.2868e+000 -3.2744e+000 +1.6175e+000
440 0 +1.002437654e-002 +1.000010024e+003 +1.000010024e+003 -1.3007e+000 -3.2760e+000 +1.6106e+000
443 0 +9.316600310e-003 +1.000009317e+003 +1.000009317e+003 -1.3644e+000 -3.2911e+000 +1.6647e+000
447 0 +4.465900497e-003 +1.000004466e+003 +1.000004466e+003 -1.4056e+000 -3.3107e+000 +1.7067e+000
450 0 +3.846665258e-003 +1.000003847e+003 +1.000003847e+003 -1.3800e+000 -3.3027e+000 +1.6589e+000
466 0 +1.491302424e-003 +1.000001491e+003 +1.000001491e+003 -1.4299e+000 -3.3580e+000 +1.6136e+000
468 0 +7.045908588e-004 +1.000000705e+003 +1.000000705e+003 -1.4686e+000 -3.3603e+000 +1.6330e+000
478 0 +6.751262678e-004 +1.000000675e+003 +1.000000675e+003 -1.4734e+000 -3.3609e+000 +1.6378e+000
479 0 +1.829788301e-004 +1.000000183e+003 +1.000000183e+003 -1.7094e+000 -3.3992e+000 +1.8173e+000
489 0 +1.734348933e-004 +1.000000173e+003 +1.000000173e+003 -1.8210e+000 -3.4207e+000 +1.8803e+000
495 0 +6.807307273e-006 +1.000000007e+003 +1.000000007e+003 -1.7433e+000 -3.4073e+000 +1.7712e+000
498 0 +6.632861414e-006 +1.000000007e+003 +1.000000007e+003 -1.7590e+000 -3.4112e+000 +1.7793e+000
511 0 +6.601229870e-006 +1.000000007e+003 +1.000000007e+003 -1.7227e+000 -3.4025e+000 +1.7558e+000
521 0 +2.942581432e-006 +1.000000003e+003 +1.000000003e+003 -1.6749e+000 -3.3941e+000 +1.7216e+000
533 0 +1.394790843e-007 +1.000000000e+003 +1.000000000e+003 -1.6347e+000 -3.3860e+000 +1.6547e+000
569 0 +9.319853689e-008 +1.000000000e+003 +1.000000000e+003 -1.6366e+000 -3.3866e+000 +1.6572e+000
572 0 +1.719706688e-008 +1.000000000e+003 +1.000000000e+003 -1.6416e+000 -3.3894e+000 +1.6558e+000
602 0 +5.160813998e-009 +1.000000000e+003 +1.000000000e+003 -1.6548e+000 -3.3924e+000 +1.6650e+000
% f evaluations | g evaluations | best noise-free fitness - Fopt (-1.079600000000e+002) + sum g_i+ | measured fitness | best measured fitness or single-digit g-values | x1 | x2...
1 0 +3.581692864e+001 -7.214307136e+001 -7.214307136e+001 -2.6992e+000 +2.3349e+000 +2.4142e+000
2 0 +2.179076029e+001 -8.616923971e+001 -8.616923971e+001 +4.6157e+000 -3.0389e+000 +3.9231e+000
6 0 +1.672137061e+001 -9.123862939e+001 -9.123862939e+001 +3.4589e+000 -2.3711e+000 +3.8196e+000
13 0 +6.495128889e+000 -1.014648711e+002 -1.014648711e+002 -1.4475e-002 -2.2361e+000 +2.3852e-001
49 0 +4.256859149e+000 -1.037031409e+002 -1.037031409e+002 -2.0032e+000 +2.5580e+000 -5.4749e-001
111 0 +2.310266922e+000 -1.056497331e+002 -1.056497331e+002 -1.7799e+000 +2.8272e+000 +2.3330e+000
178 0 +1.983235713e+000 -1.059767643e+002 -1.059767643e+002 -1.9887e+000 +2.3254e+000 +2.0494e+000
210 0 +4.202424234e-001 -1.075397576e+002 -1.075397576e+002 -1.5536e+000 +2.0779e+000 -6.7219e-001
259 0 +3.348566898e-001 -1.076251433e+002 -1.076251433e+002 -1.3065e+000 +4.2385e+000 -1.7278e+000
329 0 +1.926802007e-001 -1.077673198e+002 -1.077673198e+002 -1.3008e+000 +3.8549e+000 -1.5489e+000
334 0 +1.578289250e-001 -1.078021711e+002 -1.078021711e+002 -1.3095e+000 +3.8339e+000 -1.5608e+000
338 0 +6.914599874e-004 -1.079593085e+002 -1.079593085e+002 -9.4579e-001 +1.0141e+000 -6.6161e-001
460 0 +2.074112380e-004 -1.079597926e+002 -1.079597926e+002 -9.7718e-001 +1.1368e+000 -6.9340e-001
463 0 +6.993823801e-005 -1.079599301e+002 -1.079599301e+002 -1.0216e+000 +1.3559e+000 -7.4609e-001
520 0 +2.903454346e-005 -1.079599710e+002 -1.079599710e+002 -1.1068e+000 +1.3669e+000 -7.0274e-001
523 0 +2.730595948e-005 -1.079599727e+002 -1.079599727e+002 -1.0652e+000 +1.3999e+000 -7.5190e-001
611 0 +2.639301059e-005 -1.079599736e+002 -1.079599736e+002 -1.0545e+000 +1.3666e+000 -7.4485e-001
656 0 +2.587262951e-005 -1.079599741e+002 -1.079599741e+002 -1.0636e+000 +1.4293e+000 -7.6129e-001
666 0 +1.630572307e-005 -1.079599837e+002 -1.079599837e+002 -1.0530e+000 +1.3208e+000 -7.1198e-001
672 0 +1.196773751e-005 -1.079599880e+002 -1.079599880e+002 -1.0557e+000 +1.3250e+000 -7.2698e-001
676 0 +1.129557570e-005 -1.079599887e+002 -1.079599887e+002 -1.0528e+000 +1.3716e+000 -7.4311e-001
679 0 +1.110860444e-005 -1.079599889e+002 -1.079599889e+002 -1.0545e+000 +1.3764e+000 -7.4400e-001
686 0 +1.012839699e-005 -1.079599899e+002 -1.079599899e+002 -1.0636e+000 +1.4034e+000 -7.4780e-001
690 0 +3.691176332e-006 -1.079599963e+002 -1.079599963e+002 -1.0626e+000 +1.3381e+000 -7.2357e-001
704 0 +1.436307073e-006 -1.079599986e+002 -1.079599986e+002 -1.0648e+000 +1.3135e+000 -7.0947e-001
734 0 +8.069483499e-007 -1.079599992e+002 -1.079599992e+002 -1.0557e+000 +1.2799e+000 -7.0311e-001
736 0 +5.208708131e-007 -1.079599995e+002 -1.079599995e+002 -1.0411e+000 +1.1847e+000 -6.7246e-001
746 0 +2.951208984e-007 -1.079599997e+002 -1.079599997e+002 -1.0482e+000 +1.2230e+000 -6.8373e-001
788 0 +1.682452222e-007 -1.079599998e+002 -1.079599998e+002 -1.0566e+000 +1.2369e+000 -6.8286e-001
835 0 +1.620588677e-007 -1.079599998e+002 -1.079599998e+002 -1.0570e+000 +1.2389e+000 -6.8357e-001
839 0 +6.664510011e-008 -1.079599999e+002 -1.079599999e+002 -1.0680e+000 +1.2050e+000 -6.6376e-001
850 0 +5.942177950e-008 -1.079599999e+002 -1.079599999e+002 -1.0631e+000 +1.2371e+000 -6.7973e-001
858 0 +4.353253757e-008 -1.079600000e+002 -1.079600000e+002 -1.0676e+000 +1.2159e+000 -6.6917e-001
865 0 +2.640824448e-008 -1.079600000e+002 -1.079600000e+002 -1.0670e+000 +1.2115e+000 -6.6789e-001
878 0 +7.470788432e-010 -1.079600000e+002 -1.079600000e+002 -1.0622e+000 +1.1953e+000 -6.6477e-001
% f evaluations | g evaluations | best noise-free fitness - Fopt (-3.025900000000e+002) + sum g_i+ | measured fitness | best measured fitness or single-digit g-values | x1 | x2...
1 0 +1.447328908e+001 -2.881167109e+002 -2.881167109e+002 +2.7384e-001 +2.8874e+000 +3.3720e-001
17 0 +5.594870265e+000 -2.969951297e+002 -2.969951297e+002 +2.3617e-001 +6.6299e-001 +1.1627e+000
29 0 +8.117068650e-002 -3.025088293e+002 -3.025088293e+002 -3.4431e-001 -1.0318e+000 -9.9311e-001
136 0 +5.211447516e-002 -3.025378855e+002 -3.025378855e+002 -3.4546e-001 -1.0514e+000 -1.0115e+000
276 0 +4.555394351e-002 -3.025444461e+002 -3.025444461e+002 -3.5169e-001 -1.0901e+000 -1.0312e+000
277 0 +3.608959567e-004 -3.025896391e+002 -3.025896391e+002 +4.1218e-001 +3.9652e-002 -1.5456e+000
300 0 +6.541819590e-005 -3.025899346e+002 -3.025899346e+002 +4.2180e-001 +1.2839e-001 -1.5864e+000
344 0 +2.497983991e-005 -3.025899750e+002 -3.025899750e+002 +2.5067e-001 -1.3302e-001 -1.4643e+000
359 0 +2.449986135e-005 -3.025899755e+002 -3.025899755e+002 +2.4877e-001 -1.3474e-001 -1.4626e+000
383 0 +1.404815805e-005 -3.025899860e+002 -3.025899860e+002 +2.4033e-001 -1.3149e-001 -1.4520e+000
421 0 +8.535328334e-006 -3.025899915e+002 -3.025899915e+002 +2.5172e-001 -1.1214e-001 -1.4589e+000
454 0 +7.875817346e-006 -3.025899921e+002 -3.025899921e+002 +2.6513e-001 -8.8390e-002 -1.4661e+000
471 0 +3.077803569e-006 -3.025899969e+002 -3.025899969e+002 +3.0660e-001 -3.7050e-002 -1.4992e+000
542 0 +1.830972906e-006 -3.025899982e+002 -3.025899982e+002 +3.1064e-001 -5.6351e-002 -1.5025e+000
548 0 +4.196704140e-007 -3.025899996e+002 -3.025899996e+002 +3.5610e-001 +2.5205e-003 -1.5335e+000
549 0 +1.557496034e-007 -3.025899998e+002 -3.025899998e+002 +4.0329e-001 +5.9257e-002 -1.5635e+000
555 0 +4.576781976e-008 -3.025900000e+002 -3.025900000e+002 +4.0490e-001 +5.5254e-002 -1.5638e+000
561 0 +5.392507774e-009 -3.025900000e+002 -3.025900000e+002 +3.8688e-001 +2.4150e-002 -1.5509e+000
% f evaluations | g evaluations | best noise-free fitness - Fopt (-3.065500000000e+002) + sum g_i+ | measured fitness | best measured fitness or single-digit g-values | x1 | x2...
1 0 +6.221655760e+001 -2.443334424e+002 -2.443334424e+002 -2.7399e+000 -2.7596e+000 -1.2093e+000
3 0 +6.049365661e+001 -2.460563434e+002 -2.460563434e+002 +2.5609e+000 -4.1838e+000 +4.8804e+000
6 0 +1.915073570e+001 -2.873992643e+002 -2.873992643e+002 +4.9996e+000 -1.9595e+000 +1.2811e-001
22 0 +1.424246518e+001 -2.923075348e+002 -2.923075348e+002 +3.7901e+000 +5.9083e-001 +2.2809e+000
41 0 +5.423944019e+000 -3.011260560e+002 -3.011260560e+002 +3.5737e+000 -7.5825e-001 +1.6933e+000
80 0 +2.082898298e+000 -3.044671017e+002 -3.044671017e+002 +3.4621e+000 -1.0791e-001 +2.1685e+000
81 0 +1.990968294e+000 -3.045590317e+002 -3.045590317e+002 +3.2272e+000 -3.2896e-001 +2.6443e+000
2251 0 +1.889026470e+000 -3.046609735e+002 -3.046609735e+002 +2.2958e+000 +2.2372e+000 +3.4929e+000
2313 0 +8.256209271e-001 -3.057243791e+002 -3.057243791e+002 +2.2341e+000 +1.9317e+000 +3.8503e+000
2358 0 +7.599997336e-001 -3.057900003e+002 -3.057900003e+002 +2.2976e+000 +1.8994e+000 +3.8368e+000
2399 0 +7.577348945e-001 -3.057922651e+002 -3.057922651e+002 +2.3425e+000 +1.9522e+000 +3.6196e+000
2485 0 +7.081230240e-001 -3.058418770e+002 -3.058418770e+002 +2.4400e+000 +1.8988e+000 +3.7128e+000
2500 0 +7.057812957e-001 -3.058442187e+002 -3.058442187e+002 +2.3816e+000 +1.9012e+000 +3.6462e+000
4259 0 +4.282081659e-001 -3.061217918e+002 -3.061217918e+002 -1.6561e+000 -4.4724e+000 +9.1007e-001
4276 0 +1.384543142e-001 -3.064115457e+002 -3.064115457e+002 -1.9899e+000 -4.3213e+000 +1.4674e+000
4287 0 +1.291984154e-001 -3.064208016e+002 -3.064208016e+002 -2.0143e+000 -4.3098e+000 +1.5329e+000
4311 0 +7.282402808e-002 -3.064771760e+002 -3.064771760e+002 -2.8466e+000 -3.9201e+000 +3.1842e+000
4317 0 +5.041544599e-002 -3.064995846e+002 -3.064995846e+002 -2.9019e+000 -3.9838e+000 +2.5040e+000
4328 0 +2.175520746e-004 -3.065497824e+002 -3.065497824e+002 -3.2245e+000 -3.7782e+000 +3.4265e+000
4388 0 +6.591755948e-005 -3.065499341e+002 -3.065499341e+002 -3.2270e+000 -3.7635e+000 +3.4262e+000
4495 0 +2.308778073e-005 -3.065499769e+002 -3.065499769e+002 -3.5056e+000 -3.6235e+000 +3.9463e+000
4500 0 +6.675903478e-006 -3.065499933e+002 -3.065499933e+002 -3.4739e+000 -3.6375e+000 +3.8939e+000
4530 0 +6.384769677e-006 -3.065499936e+002 -3.065499936e+002 -3.4671e+000 -3.6407e+000 +3.8824e+000
4535 0 +9.851742675e-007 -3.065499990e+002 -3.065499990e+002 -3.3037e+000 -3.7153e+000 +3.6204e+000
4597 0 +6.962023917e-007 -3.065499993e+002 -3.065499993e+002 -3.3098e+000 -3.7116e+000 +3.6333e+000
4600 0 +3.701512696e-008 -3.065500000e+002 -3.065500000e+002 -3.3503e+000 -3.6959e+000 +3.6814e+000
4624 0 +3.573336471e-008 -3.065500000e+002 -3.065500000e+002 -3.3495e+000 -3.6968e+000 +3.6781e+000
4650 0 +1.898854407e-009 -3.065500000e+002 -3.065500000e+002 -3.3912e+000 -3.6815e+000 +3.7314e+000
