% f evaluations | g evaluations | best noise-free fitness - Fopt (-4.620900000000e+002) + sum g_i+ | measured fitness | best measured fitness or single-digit g-values | x1 | x2...
1 0 +2.104644714e+002 -2.516255286e+002 -2.516255286e+002 -3.7757e+000 -4.0888e+000 +1.2217e-001
2 0 +1.192873771e+002 -3.428026229e+002 -3.428026229e+002 -3.3804e+000 +1.4881e+000 -8.0163e-001
3 0 +5.627171721e+001 -4.058182828e+002 -4.058182828e+002 -4.4438e+000 +3.9607e+000 +3.5008e-001
8 0 +4.728542100e+001 -4.148045790e+002 -4.148045790e+002 -1.6551e+000 +3.9281e+000 +3.3071e+000
12 0 +4.074711223e+001 -4.213428878e+002 -4.213428878e+002 -3.8231e+000 +3.0312e+000 +2.1243e+000
14 0 +2.571795691e+001 -4.363720431e+002 -4.363720431e+002 -2.2916e+000 +2.7862e+000 +2.0908e+000
24 0 +1.909690772e+001 -4.429930923e+002 -4.429930923e+002 -1.6562e+000 +2.7951e+000 +2.2180e+000
26 0 +1.510443491e+001 -4.469855651e+002 -4.469855651e+002 -1.6472e+000 +2.8378e+000 +2.2317e+000
32 0 +1.177913527e+001 -4.503108647e+002 -4.503108647e+002 -3.7587e-001 +1.7776e+000 +1.8652e+000
184 0 +1.032735364e+001 -4.517626464e+002 -4.517626464e+002 -2.8506e-001 +1.6680e+000 +1.9350e+000
262 0 +8.039595348e+000 -4.540504047e+002 -4.540504047e+002 -2.9836e-001 +1.6584e+000 +2.5478e+000
413 0 +6.552277529e+000 -4.555377225e+002 -4.555377225e+002 -3.7149e-001 +1.6914e+000 +2.5708e+000
508 0 +6.077804684e+000 -4.560121953e+002 -4.560121953e+002 -3.3030e-001 +1.6902e+000 +2.5739e+000
518 0 +5.982353154e+000 -4.561076468e+002 -4.561076468e+002 -3.3836e-001 +1.6979e+000 +2.5743e+000
580 0 +4.495440808e+000 -4.575945592e+002 -4.575945592e+002 -2.4187e+000 +1.6915e+000 +2.6214e+000
584 0 +4.405643523e+000 -4.576843565e+002 -4.576843565e+002 -2.4192e+000 +1.7031e+000 +2.6207e+000
587 0 +3.207695296e+000 -4.588823047e+002 -4.588823047e+002 -2.4220e+000 +1.7040e+000 +2.5584e+000
614 0 +3.081190888e+000 -4.590088091e+002 -4.590088091e+002 -2.2833e+000 +1.6928e+000 +2.5511e+000
637 0 +2.732233161e+000 -4.593577668e+002 -4.593577668e+002 -2.2830e+000 +1.6928e+000 +2.5747e+000
638 0 +1.733732960e+000 -4.603562670e+002 -4.603562670e+002 -2.2859e+000 +1.6907e+000 +2.2143e+000
665 0 +1.611058285e+000 -4.604789417e+002 -4.604789417e+002 -2.2906e+000 +1.6973e+000 +2.2143e+000
713 0 +1.476582786e+000 -4.606134172e+002 -4.606134172e+002 -2.2946e+000 +1.7055e+000 +2.2142e+000
728 0 +1.323110900e+000 -4.607668891e+002 -4.607668891e+002 -2.3466e+000 +1.6989e+000 +2.2010e+000
756 0 +1.194787248e+000 -4.608952128e+002 -4.608952128e+002 -2.3544e+000 +1.7261e+000 +2.2105e+000
778 0 +9.955080820e-001 -4.610944919e+002 -4.610944919e+002 -2.3397e+000 +1.7032e+000 +2.2138e+000
2142 0 +2.264456129e-001 -4.618635544e+002 -4.618635544e+002 -2.3340e+000 +2.3092e+000 +2.2236e+000
2160 0 +6.408990570e-002 -4.620259101e+002 -4.620259101e+002 -2.3394e+000 +2.3042e+000 +2.2194e+000
2164 0 +5.967717766e-002 -4.620303228e+002 -4.620303228e+002 -2.3408e+000 +2.3045e+000 +2.2188e+000
2197 0 +1.395861786e-002 -4.620760414e+002 -4.620760414e+002 -2.3408e+000 +2.3046e+000 +2.2136e+000
2222 0 +1.347532348e-002 -4.620765247e+002 -4.620765247e+002 -2.3405e+000 +2.3039e+000 +2.2150e+000
2223 0 +6.811455185e-003 -4.620831885e+002 -4.620831885e+002 -2.3381e+000 +2.3033e+000 +2.2136e+000
2250 0 +6.151848698e-004 -4.620893848e+002 -4.620893848e+002 -2.3396e+000 +2.3000e+000 +2.2132e+000
2256 0 +4.756919764e-004 -4.620895243e+002 -4.620895243e+002 -2.3395e+000 +2.2998e+000 +2.2133e+000
2285 0 +3.918456082e-004 -4.620896082e+002 -4.620896082e+002 -2.3393e+000 +2.2998e+000 +2.2136e+000
2288 0 +3.829954979e-004 -4.620896170e+002 -4.620896170e+002 -2.3393e+000 +2.2998e+000 +2.2136e+000
2295 0 +8.984956821e-005 -4.620899102e+002 -4.620899102e+002 -2.3402e+000 +2.3001e+000 +2.2136e+000
2302 0 +1.970855106e-005 -4.620899803e+002 -4.620899803e+002 -2.3406e+000 +2.2999e+000 +2.2136e+000
2326 0 +4.732027151e-006 -4.620899953e+002 -4.620899953e+002 -2.3409e+000 +2.3001e+000 +2.2136e+000
2331 0 +7.668232342e-007 -4.620899992e+002 -4.620899992e+002 -2.3408e+000 +2.3000e+000 +2.2136e+000
2334 0 +3.111541673e-007 -4.620899997e+002 -4.620899997e+002 -2.3408e+000 +2.3000e+000 +2.2136e+000
2341 0 +1.583771336e-009 -4.620900000e+002 -4.620900000e+002 -2.3408e+000 +2.3000e+000 +2.2136e+000
% f evaluations | g evaluations | best noise-free fitness - Fopt (7.766000000000e+001) + sum g_i+ | measured fitness | best measured fitness or single-digit g-values | x1 | x2...
1 0 +7.970448234e+002 +8.747048234e+002 +8.747048234e+002 +2.7618e+000 +3.3791e+000 +3.1227e+000
3 0 +1.365635485e+002 +2.142235485e+002 +2.142235485e+002 +3.7834e+000 +3.1290e+000 -1.4791e+000
6 0 +9.776071029e+001 +1.754207103e+002 +1.754207103e+002 -9.3078e-001 -4.0130e+000 -4.0353e-001
12 0 +9.366131132e+001 +1.713213113e+002 +1.713213113e+002 -1.0039e-001 +2.4257e+000 -1.7065e+000
13 0 +5.636867406e+001 +1.340286741e+002 +1.340286741e+002 +3.6918e+000 -2.1963e+000 -1.5013e+000
22 0 +4.236566009e+001 +1.200256601e+002 +1.200256601e+002 -1.6021e+000 +2.0320e-001 -1.7509e+000
74 0 +4.135634516e+001 +1.190163452e+002 +1.190163452e+002 +2.5347e-001 -1.0270e-001 -2.0846e+000
80 0 +4.063716076e+001 +1.182971608e+002 +1.182971608e+002 +2.4176e+000 -1.3872e-001 -2.3321e+000
91 0 +2.787881725e+001 +1.055388173e+002 +1.055388173e+002 -1.4107e+000 +1.7507e-001 -8.7926e-001
116 0 +2.045659773e+001 +9.811659773e+001 +9.811659773e+001 -7.7640e-001 -9.3953e-001 -1.9791e+000
278 0 +1.901010104e+001 +9.667010104e+001 +9.667010104e+001 +3.0835e+000 -3.2611e-001 -1.3150e+000
295 0 +1.741645008e+001 +9.507645008e+001 +9.507645008e+001 -6.8174e-001 -3.5254e-001 -1.9548e+000
398 0 +1.406655065e+001 +9.172655065e+001 +9.172655065e+001 +4.5222e+000 -8.4136e-001 -1.3085e+000
444 0 +1.335577520e+001 +9.101577520e+001 +9.101577520e+001 +2.1626e+000 -8.3645e-001 -1.9548e+000
481 0 +1.230922773e+001 +8.996922773e+001 +8.996922773e+001 +2.3620e+000 -1.9501e-001 -8.4981e-001
486 0 +9.363458315e+000 +8.702345832e+001 +8.702345832e+001 +2.3838e+000 -1.9366e-001 -8.9234e-001
491 0 +4.814562807e+000 +8.247456281e+001 +8.247456281e+001 +2.3837e+000 -2.5848e-001 -9.0934e-001
607 0 +1.265209800e+000 +7.892520980e+001 +7.892520980e+001 +2.4210e+000 -8.4136e-001 -9.0250e-001
700 0 +1.222904221e+000 +7.888290422e+001 +7.888290422e+001 +2.3888e+000 -8.4156e-001 -8.9799e-001
729 0 +1.187481207e+000 +7.884748121e+001 +7.884748121e+001 +2.3889e+000 -8.3866e-001 -9.0476e-001
733 0 +1.149334041e+000 +7.880933404e+001 +7.880933404e+001 +2.3922e+000 -8.4142e-001 -9.0413e-001
740 0 +1.126519651e+000 +7.878651965e+001 +7.878651965e+001 +2.4034e+000 -8.4214e-001 -9.1621e-001
765 0 +1.089969087e+000 +7.874996909e+001 +7.874996909e+001 +2.3795e+000 -8.5527e-001 -9.1748e-001
769 0 +1.065542356e+000 +7.872554236e+001 +7.872554236e+001 +2.4141e+000 -8.5162e-001 -9.1529e-001
781 0 +1.021647563e+000 +7.868164756e+001 +7.868164756e+001 +2.3975e+000 -8.6259e-001 -9.0952e-001
790 0 +9.972736021e-001 +7.865727360e+001 +7.865727360e+001 +2.3953e+000 -8.5677e-001 -9.1074e-001
2105 0 +6.834896553e-002 +7.772834897e+001 +7.772834897e+001 +2.4169e+000 -8.5909e-001 -1.2720e+000
2115 0 +6.381311721e-002 +7.772381312e+001 +7.772381312e+001 +2.4168e+000 -8.5403e-001 -1.2719e+000
2144 0 +6.236219947e-002 +7.772236220e+001 +7.772236220e+001 +2.4168e+000 -8.5450e-001 -1.2719e+000
2165 0 +6.163827745e-002 +7.772163828e+001 +7.772163828e+001 +2.4168e+000 -8.5518e-001 -1.2719e+000
2199 0 +2.243427388e-002 +7.768243427e+001 +7.768243427e+001 +2.4087e+000 -8.5442e-001 -1.2719e+000
2213 0 +1.931834765e-002 +7.767931835e+001 +7.767931835e+001 +2.4082e+000 -8.5593e-001 -1.2719e+000
2215 0 +1.724519411e-002 +7.767724519e+001 +7.767724519e+001 +2.3995e+000 -8.5106e-001 -1.2710e+000
2224 0 +2.619543868e-003 +7.766261954e+001 +7.766261954e+001 +2.3966e+000 -8.5582e-001 -1.2710e+000
2240 0 +6.600243969e-004 +7.766066002e+001 +7.766066002e+001 +2.3966e+000 -8.5582e-001 -1.2720e+000
2253 0 +9.232911358e-005 +7.766009233e+001 +7.766009233e+001 +2.3982e+000 -8.5564e-001 -1.2720e+000
2286 0 +1.460037245e-005 +7.766001460e+001 +7.766001460e+001 +2.3982e+000 -8.5609e-001 -1.2720e+000
2335 0 +2.152185345e-007 +7.766000022e+001 +7.766000022e+001 +2.3984e+000 -8.5602e-001 -1.2720e+000
2437 0 +1.274892867e-007 +7.766000013e+001 +7.766000013e+001 +2.3984e+000 -8.5599e-001 -1.2720e+000
2441 0 +5.923524782e-009 +7.766000001e+001 +7.766000001e+001 +2.3984e+000 -8.5600e-001 -1.2720e+000
2548 0 +0.000000000e+000 +7.766000000e+001 +7.766000000e+001 +2.3984e+000 -8.5600e-001 -1.2720e+000
% f evaluations | g evaluations | best noise-free fitness - Fopt (1.156800000000e+002) + sum g_i+ | measured fitness | best measured fitness or single-digit g-values | x1 | x2...
1 0 +1.268345689e+002 +2.425145689e+002 +2.425145689e+002 +4.5162e+000 +2.0764e+000 -3.0838e-001
7 0 +1.224447099e+002 +2.381247099e+002 +2.381247099e+002 -1.4528e+000 -2.9798e-001 +2.4356e+000
8 0 +3.843791089e+001 +1.541179109e+002 +1.541179109e+002 +1.4505e+000 -4.6749e-001 -3.0891e-002
24 0 +3.616481220e+001 +1.518448122e+002 +1.518448122e+002 -6.6878e-001 -1.0800e+000 -6.9911e-001
40 0 +2.474577441e+001 +1.404257744e+002 +1.404257744e+002 -1.2000e+000 -7.0532e-001 +2.9086e-001
42 0 +2.262038671e+001 +1.383003867e+002 +1.383003867e+002 -2.0803e+000 -7.2325e-001 +6.2202e-001
112 0 +1.951294150e+001 +1.351929415e+002 +1.351929415e+002 -2.3117e+000 -7.9484e-001 +5.7277e-001
134 0 +5.952513565e+000 +1.216325136e+002 +1.216325136e+002 -2.2886e+000 -9.1547e-001 +6.3765e-001
173 0 +4.260913708e+000 +1.199409137e+002 +1.199409137e+002 -3.2319e+000 -9.4555e-001 +6.2926e-001
246 0 +4.061350744e+000 +1.197413507e+002 +1.197413507e+002 -3.2107e+000 -9.3859e-001 +6.3185e-001
382 0 +3.395933536e+000 +1.190759335e+002 +1.190759335e+002 -3.1305e+000 -9.4578e-001 +6.0827e-001
388 0 +2.904086722e+000 +1.185840867e+002 +1.185840867e+002 -3.2032e+000 -9.6038e-001 +5.8481e-001
396 0 +2.147819590e+000 +1.178278196e+002 +1.178278196e+002 -3.1709e+000 -9.6919e-001 +5.9757e-001
500 0 +1.994383775e+000 +1.176743838e+002 +1.176743838e+002 -3.1745e+000 -9.8098e-001 +6.0449e-001
3025 0 +1.814134719e+000 +1.174941347e+002 +1.174941347e+002 -2.1075e+000 -4.3519e-001 +2.4480e-001
3092 0 +9.984298716e-001 +1.166784299e+002 +1.166784299e+002 -2.1745e+000 -4.3519e-001 +2.4480e-001
5642 0 +4.778066907e-001 +1.161578067e+002 +1.161578067e+002 -2.1784e+000 -9.5480e-001 +2.4480e-001
5670 0 +2.775506364e-001 +1.159575506e+002 +1.159575506e+002 -2.1784e+000 -1.0044e+000 +2.4480e-001
5690 0 +6.584396583e-003 +1.156865844e+002 +1.156865844e+002 -2.1784e+000 -9.8635e-001 +2.4480e-001
5708 0 +5.318124080e-003 +1.156853181e+002 +1.156853181e+002 -2.1784e+000 -9.7995e-001 +2.4480e-001
5711 0 +1.354108954e-005 +1.156800135e+002 +1.156800135e+002 -2.1784e+000 -9.8335e-001 +2.4480e-001
5774 0 +9.636851672e-007 +1.156800010e+002 +1.156800010e+002 -2.1784e+000 -9.8324e-001 +2.4480e-001
5789 0 +2.458126858e-007 +1.156800002e+002 +1.156800002e+002 -2.1784e+000 -9.8318e-001 +2.4480e-001
5810 0 +2.330580173e-012 +1.156800000e+002 +1.156800000e+002 -2.1784e+000 -9.8320e-001 +2.4480e-001
% f evaluations | g evaluations | best noise-free fitness - Fopt (-3.710000000000e+000) + sum g_i+ | measured fitness | best measured fitness or single-digit g-values | x1 | x2...
1 0 +5.731472591e+001 +5.360472591e+001 +5.360472591e+001 -1.6479e+000 -1.9335e+000 +1.0901e+000
8 0 +4.701081599e+001 +4.330081599e+001 +4.330081599e+001 +5.0000e+000 -1.3186e+000 +9.8616e-001
10 0 +1.386641547e+001 +1.015641547e+001 +1.015641547e+001 +3.1106e+000 -1.5680e+000 +1.5092e+000
28 0 +1.340103271e+001 +9.691032714e+000 +9.691032714e+000 +5.0000e+000 -1.7425e+000 +1.4933e+000
30 0 +1.286643738e+001 +9.156437383e+000 +9.156437383e+000 +5.0000e+000 -1.7435e+000 +1.4870e+000
42 0 +1.248278392e+001 +8.772783921e+000 +8.772783921e+000 +1.9628e+000 -1.7274e+000 +1.4720e+000
242 0 +1.034074440e+001 +6.630744401e+000 +6.630744401e+000 +3.1754e+000 -1.7892e+000 +1.0624e+000
254 0 +1.004368990e+001 +6.333689898e+000 +6.333689898e+000 +2.1644e+000 -2.4067e+000 +1.8184e+000
317 0 +9.611252481e+000 +5.901252481e+000 +5.901252481e+000 +2.1693e+000 -2.2513e+000 +2.0702e+000
338 0 +2.292267395e+000 -1.417732605e+000 -1.417732605e+000 +3.1229e+000 -1.7365e+000 +2.1296e+000
573 0 +2.088435815e+000 -1.621564185e+000 -1.621564185e+000 +3.1343e+000 -1.7418e+000 +2.1397e+000
683 0 +2.025870729e+000 -1.684129271e+000 -1.684129271e+000 +3.1228e+000 -1.7454e+000 +2.1369e+000
714 0 +1.992740508e+000 -1.717259492e+000 -1.717259492e+000 +3.1177e+000 -1.7465e+000 +2.1428e+000
1333 0 +1.095833873e+000 -2.614166127e+000 -2.614166127e+000 +3.1200e+000 -1.7472e+000 +1.7909e+000
1443 0 +1.013989605e+000 -2.696010395e+000 -2.696010395e+000 +3.1200e+000 -1.7472e+000 +1.7867e+000
1460 0 +9.957461218e-001 -2.714253878e+000 -2.714253878e+000 +3.1200e+000 -1.7472e+000 +1.7826e+000
4775 0 +1.718132419e-002 -3.692818676e+000 -3.692818676e+000 +3.1291e+000 -2.2952e+000 +1.7832e+000
4870 0 +5.740220844e-003 -3.704259779e+000 -3.704259779e+000 +3.1256e+000 -2.2952e+000 +1.7832e+000
4888 0 +5.536811861e-003 -3.704463188e+000 -3.704463188e+000 +3.1254e+000 -2.2952e+000 +1.7832e+000
4896 0 +3.338128661e-003 -3.706661871e+000 -3.706661871e+000 +3.1239e+000 -2.2952e+000 +1.7832e+000
4898 0 +9.982486867e-004 -3.709001751e+000 -3.709001751e+000 +3.1221e+000 -2.2952e+000 +1.7832e+000
4903 0 +5.544935694e-006 -3.709994455e+000 -3.709994455e+000 +3.1198e+000 -2.2952e+000 +1.7832e+000
4917 0 +6.866891873e-007 -3.709999313e+000 -3.709999313e+000 +3.1199e+000 -2.2952e+000 +1.7832e+000
4976 0 +6.393428325e-007 -3.709999361e+000 -3.709999361e+000 +3.1199e+000 -2.2952e+000 +1.7832e+000
4982 0 +8.673681551e-008 -3.709999913e+000 -3.709999913e+000 +3.1200e+000 -2.2952e+000 +1.7832e+000
4987 0 +7.578042505e-008 -3.709999924e+000 -3.709999924e+000 +3.1200e+000 -2.2952e+000 +1.7832e+000
4991 0 +5.880665732e-008 -3.709999941e+000 -3.709999941e+000 +3.1200e+000 -2.2952e+000 +1.7832e+000
5049 0 +4.392694297e-008 -3.709999956e+000 -3.709999956e+000 +3.1200e+000 -2.2952e+000 +1.7832e+000
5061 0 +4.588373681e-009 -3.709999995e+000 -3.709999995e+000 +3.1200e+000 -2.2952e+000 +1.7832e+000
% f evaluations | g evaluations | best noise-free fitness - Fopt (1.321800000000e+002) + sum g_i+ | measured fitness | best measured fitness or single-digit g-values | x1 | x2...
1 0 +6.253904144e+001 +1.947190414e+002 +1.947190414e+002 -7.0716e-001 +4.3577e+000 +3.5712e+000
7 0 +5.398970150e+001 +1.861697015e+002 +1.861697015e+002 -2.8638e+000 -1.0915e+000 +4.2416e+000
10 0 +3.644475589e+001 +1.686247559e+002 +1.686247559e+002 -1.9738e+000 +1.9357e+000 +4.1867e+000
12 0 +3.414720630e+001 +1.663272063e+002 +1.663272063e+002 -1.8724e+000 +1.8657e+000 +4.1912e+000
16 0 +2.888424414e+001 +1.610642441e+002 +1.610642441e+002 -2.6565e+000 +1.7502e+000 +3.8313e+000
50 0 +1.754406055e+001 +1.497240605e+002 +1.497240605e+002 -2.6166e+000 +4.1463e-001 +3.4882e+000
78 0 +1.706310469e+001 +1.492431047e+002 +1.492431047e+002 -1.8989e+000 +2.0222e+000 +3.8864e+000
109 0 +1.517933260e+001 +1.473593326e+002 +1.473593326e+002 -1.6721e+000 +2.1021e+000 +3.7971e+000
129 0 +8.433888439e+000 +1.406138884e+002 +1.406138884e+002 -1.7003e+000 +2.0364e+000 +3.8470e+000
373 0 +6.153848840e+000 +1.383338488e+002 +1.383338488e+002 -1.7508e+000 +2.0353e+000 +3.8336e+000
402 0 +5.865790346e+000 +1.380457903e+002 +1.380457903e+002 -2.7742e+000 +1.9901e+000 +3.8380e+000
420 0 +5.406350349e+000 +1.375863503e+002 +1.375863503e+002 -2.7744e+000 +1.9928e+000 +3.8178e+000
571 0 +5.079574940e+000 +1.372595749e+002 +1.372595749e+002 -2.7665e+000 +1.9979e+000 +3.8004e+000
597 0 +3.316317051e+000 +1.354963171e+002 +1.354963171e+002 -2.7849e+000 +2.0379e+000 +3.8166e+000
612 0 +3.108281942e+000 +1.352882819e+002 +1.352882819e+002 -2.7747e+000 +2.0368e+000 +3.8174e+000
650 0 +3.053916152e+000 +1.352339162e+002 +1.352339162e+002 -2.7675e+000 +2.0370e+000 +3.8230e+000
658 0 +2.993617045e+000 +1.351736170e+002 +1.351736170e+002 -2.7668e+000 +2.0327e+000 +3.8229e+000
682 0 +1.228039690e+000 +1.334080397e+002 +1.334080397e+002 -2.7604e+000 +1.4919e+000 +3.4711e+000
1021 0 +1.001050531e+000 +1.331810505e+002 +1.331810505e+002 -2.7671e+000 +1.4839e+000 +3.4633e+000
1033 0 +9.978218699e-001 +1.331778219e+002 +1.331778219e+002 -2.7656e+000 +1.4842e+000 +3.4614e+000
1228 0 +8.435869238e-002 +1.322643587e+002 +1.322643587e+002 -3.7517e+000 +1.4847e+000 +3.4673e+000
1265 0 +2.142786236e-003 +1.321821428e+002 +1.321821428e+002 -3.7660e+000 +1.4824e+000 +3.4625e+000
1309 0 +1.575508159e-003 +1.321815755e+002 +1.321815755e+002 -3.7622e+000 +1.4815e+000 +3.4621e+000
1317 0 +4.800024826e-005 +1.321800480e+002 +1.321800480e+002 -3.7636e+000 +1.4823e+000 +3.4617e+000
1370 0 +2.514789833e-005 +1.321800251e+002 +1.321800251e+002 -3.7643e+000 +1.4823e+000 +3.4616e+000
1377 0 +5.678886055e-007 +1.321800006e+002 +1.321800006e+002 -3.7640e+000 +1.4824e+000 +3.4616e+000
1378 0 +2.974741733e-007 +1.321800003e+002 +1.321800003e+002 -3.7640e+000 +1.4824e+000 +3.4616e+000
1379 0 +2.707288331e-007 +1.321800003e+002 +1.321800003e+002 -3.7640e+000 +1.4824e+000 +3.4616e+000
1380 0 +2.192841180e-007 +1.321800002e+002 +1.321800002e+002 -3.7640e+000 +1.4824e+000 +3.4616e+000
1384 0 +1.688130453e-007 +1.321800002e+002 +1.321800002e+002 -3.7640e+000 +1.4824e+000 +3.4616e+000
1427 0 +8.525660178e-010 +1.321800000e+002 +1.321800000e+002 -3.7640e+000 +1.4824e+000 +3.4616e+000
% f evaluations | g evaluations | best noise-free fitness - Fopt (-3.930000000000e+001) + sum g_i+ | measured fitness | best measured fitness or single-digit g-values | x1 | x2...
1 0 +2.121989624e+002 +1.728989624e+002 +1.728989624e+002 +3.6519e+000 -2.1324e+000 -1.2407e+000
6 0 +7.968831824e+001 +4.038831824e+001 +4.038831824e+001 -3.7261e+000 +6.4233e-001 +9.7403e-001
7 0 +6.228647852e+001 +2.298647852e+001 +2.298647852e+001 -4.7739e-001 -1.0818e+000 +4.0225e-001
10 0 +4.339511824e+001 +4.095118243e+000 +4.095118243e+000 -1.7483e+000 -1.3650e+000 +1.8873e+000
12 0 +3.597998755e+001 -3.320012449e+000 -3.320012449e+000 -1.9153e+000 -1.3778e+000 +2.6074e+000
14 0 +3.030136069e+001 -8.998639309e+000 -8.998639309e+000 -1.8089e+000 -1.3658e+000 +2.7699e+000
16 0 +2.769102289e+001 -1.160897711e+001 -1.160897711e+001 -1.8785e+000 -1.3497e+000 +2.6243e+000
55 0 +1.763494857e+001 -2.166505143e+001 -2.166505143e+001 -2.4759e+000 -2.2108e+000 +2.6451e+000
58 0 +1.329553283e+001 -2.600446717e+001 -2.600446717e+001 -2.4282e+000 -2.2401e+000 +2.6892e+000
104 0 +8.021199196e+000 -3.127880080e+001 -3.127880080e+001 -2.5966e+000 -2.3529e+000 +2.7147e+000
300 0 +7.113333828e+000 -3.218666617e+001 -3.218666617e+001 -2.6805e+000 -1.1815e+000 +2.7096e+000
390 0 +2.192397573e+000 -3.710760243e+001 -3.710760243e+001 -2.4967e+000 -1.1901e+000 +2.7111e+000
439 0 +2.048359912e+000 -3.725164009e+001 -3.725164009e+001 -2.4956e+000 -1.1930e+000 +2.7102e+000
446 0 +1.085114216e+000 -3.821488578e+001 -3.821488578e+001 -2.5342e+000 -1.2182e+000 +2.6967e+000
469 0 +9.987061693e-001 -3.830129383e+001 -3.830129383e+001 -2.5337e+000 -1.2289e+000 +2.6939e+000
2365 0 +5.579667473e-001 -3.874203325e+001 -3.874203325e+001 -2.5336e+000 -1.2296e+000 +2.3139e+000
2378 0 +3.964591293e-003 -3.929603541e+001 -3.929603541e+001 -2.5336e+000 -1.2296e+000 +2.3320e+000
2447 0 +3.782154449e-003 -3.929621785e+001 -3.929621785e+001 -2.5336e+000 -1.2297e+000 +2.3320e+000
2484 0 +6.051431142e-004 -3.929939486e+001 -3.929939486e+001 -2.5336e+000 -1.2306e+000 +2.3303e+000
2514 0 +3.918430983e-004 -3.929960816e+001 -3.929960816e+001 -2.5336e+000 -1.2304e+000 +2.3302e+000
2535 0 +2.162703559e-006 -3.929999784e+001 -3.929999784e+001 -2.5336e+000 -1.2296e+000 +2.3304e+000
2615 0 +1.284413237e-006 -3.929999872e+001 -3.929999872e+001 -2.5336e+000 -1.2296e+000 +2.3304e+000
2621 0 +4.896103150e-007 -3.929999951e+001 -3.929999951e+001 -2.5336e+000 -1.2296e+000 +2.3304e+000
2642 0 +4.571185457e-007 -3.929999954e+001 -3.929999954e+001 -2.5336e+000 -1.2296e+000 +2.3304e+000
2644 0 +1.997278432e-007 -3.929999980e+001 -3.929999980e+001 -2.5336e+000 -1.2296e+000 +2.3304e+000
2705 0 +8.911822391e-008 -3.929999991e+001 -3.929999991e+001 -2.5336e+000 -1.2296e+000 +2.3304e+000
2711 0 +6.952767961e-008 -3.929999993e+001 -3.929999993e+001 -2.5336e+000 -1.2296e+000 +2.3304e+000
2725 0 +3.682063010e-008 -3.929999996e+001 -3.929999996e+001 -2.5336e+000 -1.2296e+000 +2.3304e+000
2739 0 +1.216765355e-008 -3.929999999e+001 -3.929999999e+001 -2.5336e+000 -1.2296e+000 +2.3304e+000
2764 0 +2.095923435e-009 -3.930000000e+001 -3.930000000e+001 -2.5336e+000 -1.2296e+000 +2.3304e+000
% f evaluations | g evaluations | best noise-free fitness - Fopt (4.296000000000e+001) + sum g_i+ | measured fitness | best measured fitness or single-digit g-values | x1 | x2...
1 0 +2.284168889e+002 +2.713768889e+002 +2.713768889e+002 +3.7755e+000 +1.0741e+000 +2.4717e-001
2 0 +1.114830228e+002 +1.544430228e+002 +1.544430228e+002 -1.8584e+000 -2.6396e+000 -3.9463e+000
6 0 +6.513819492e+001 +1.080981949e+002 +1.080981949e+002 +4.1139e+000 +2.1706e+000 -1.4524e+000
10 0 +5.477389134e+001 +9.773389134e+001 +9.773389134e+001 +4.8026e+000 +8.5501e-001 -2.9764e+000
16 0 +4.408473338e+001 +8.704473338e+001 +8.704473338e+001 -5.0000e+000 +1.7782e+000 -2.3647e+000
28 0 +2.206319103e+001 +6.502319103e+001 +6.502319103e+001 +1.4942e+000 -6.5347e-001 -2.3776e+000
52 0 +1.911596544e+001 +6.207596544e+001 +6.207596544e+001 +3.2209e-001 +1.8261e+000 -3.0992e+000
86 0 +1.543116690e+001 +5.839116690e+001 +5.839116690e+001 -2.2209e-001 +1.8127e+000 -2.1272e+000
115 0 +1.220551780e+001 +5.516551780e+001 +5.516551780e+001 -4.9238e-001 +1.8450e+000 -3.0643e+000
130 0 +7.129944101e+000 +5.008994410e+001 +5.008994410e+001 -4.0538e-001 +1.8025e+000 -3.0826e+000
371 0 +6.307276682e+000 +4.926727668e+001 +4.926727668e+001 -3.6617e-001 +1.7565e+000 -3.0656e+000
411 0 +5.910562889e+000 +4.887056289e+001 +4.887056289e+001 -4.0136e-001 +1.7111e+000 -3.0919e+000
462 0 +5.496822492e+000 +4.845682249e+001 +4.845682249e+001 -4.2172e-001 +1.7116e+000 -3.0859e+000
468 0 +5.135948418e+000 +4.809594842e+001 +4.809594842e+001 -4.7652e-001 +1.7365e+000 -3.0846e+000
496 0 +5.005757944e+000 +4.796575794e+001 +4.796575794e+001 -4.2706e-001 +1.7401e+000 -3.0799e+000
516 0 +2.589535207e+000 +4.554953521e+001 +4.554953521e+001 +5.1181e-001 +1.7169e+000 -2.7413e+000
519 0 +2.154615577e+000 +4.511461558e+001 +4.511461558e+001 +5.2100e-001 +1.7469e+000 -2.7456e+000
529 0 +2.010996303e+000 +4.497099630e+001 +4.497099630e+001 +5.0940e-001 +1.7378e+000 -3.0796e+000
607 0 +1.990227646e+000 +4.495022765e+001 +4.495022765e+001 +5.1633e-001 +1.7375e+000 -3.0804e+000
666 0 +1.722928483e+000 +4.468292848e+001 +4.468292848e+001 +1.5766e+000 +1.7365e+000 -3.0803e+000
671 0 +1.157685053e+000 +4.411768505e+001 +4.411768505e+001 +1.5386e+000 +1.7383e+000 -3.0784e+000
727 0 +1.060254569e+000 +4.402025457e+001 +4.402025457e+001 +1.5103e+000 +1.7265e+000 -3.0814e+000
742 0 +1.046577542e+000 +4.400657754e+001 +4.400657754e+001 +1.5278e+000 +1.7338e+000 -3.0795e+000
748 0 +1.004857282e+000 +4.396485728e+001 +4.396485728e+001 +1.5075e+000 +1.7362e+000 -3.0814e+000
750 0 +9.980166927e-001 +4.395801669e+001 +4.395801669e+001 +1.5130e+000 +1.7349e+000 -3.0808e+000
1515 0 +1.168020982e-002 +4.297168021e+001 +4.297168021e+001 +1.5128e+000 +1.7368e+000 -2.7677e+000
1615 0 +1.129196138e-002 +4.297129196e+001 +4.297129196e+001 +1.5128e+000 +1.7368e+000 -2.7680e+000
1624 0 +9.983130590e-003 +4.296998313e+001 +4.296998313e+001 +1.5128e+000 +1.7368e+000 -2.7682e+000
1638 0 +8.523499745e-003 +4.296852350e+001 +4.296852350e+001 +1.5128e+000 +1.7368e+000 -2.7684e+000
1639 0 +4.270180889e-003 +4.296427018e+001 +4.296427018e+001 +1.5128e+000 +1.7368e+000 -2.7688e+000
1640 0 +2.753291630e-003 +4.296275329e+001 +4.296275329e+001 +1.5128e+000 +1.7368e+000 -2.7692e+000
1641 0 +5.863521682e-005 +4.296005864e+001 +4.296005864e+001 +1.5128e+000 +1.7368e+000 -2.7706e+000
1653 0 +5.388456902e-005 +4.296005388e+001 +4.296005388e+001 +1.5128e+000 +1.7368e+000 -2.7706e+000
1660 0 +8.003759980e-006 +4.296000800e+001 +4.296000800e+001 +1.5128e+000 +1.7368e+000 -2.7703e+000
1673 0 +1.138885608e-008 +4.296000001e+001 +4.296000001e+001 +1.5128e+000 +1.7368e+000 -2.7704e+000
1691 0 +1.062970512e-008 +4.296000001e+001 +4.296000001e+001 +1.5128e+000 +1.7368e+000 -2.7704e+000
1709 0 +2.120813747e-009 +4.296000000e+001 +4.296000000e+001 +1.5128e+000 +1.7368e+000 -2.7704e+000
% f evaluations | g evaluations | best noise-free fitness - Fopt (2.842200000000e+002) + sum g_i+ | measured fitness | best measured fitness or single-digit g-values | x1 | x2...
1 0 +1.533402516e+002 +4.375602516e+002 +4.375602516e+002 +1.3061e-001 -4.8216e+000 +9.0397e-001
2 0 +9.807276233e+001 +3.822927623e+002 +3.822927623e+002 -3.4065e+000 -2.2794e+000 -2.7147e+000
3 0 +8.082164759e+001 +3.650416476e+002 +3.650416476e+002 +2.1192e+000 -4.1396e+000 -1.7046e+000
6 0 +7.294516185e+001 +3.571651619e+002 +3.571651619e+002 +7.4966e-001 -3.0551e+000 +5.6467e-001
7 0 +6.325327539e+001 +3.474732754e+002 +3.474732754e+002 -7.2618e-001 +1.6292e+000 -1.6164e+000
9 0 +2.104278707e+001 +3.052627871e+002 +3.052627871e+002 -2.9912e+000 +3.6732e-001 -7.9806e-001
39 0 +1.810526709e+001 +3.023252671e+002 +3.023252671e+002 -1.9922e+000 -1.2931e+000 -2.5341e-001
82 0 +1.467121515e+001 +2.988912152e+002 +2.988912152e+002 -2.0609e+000 -1.2766e+000 -2.7162e-001
99 0 +1.284568438e+001 +2.970656844e+002 +2.970656844e+002 -2.0954e+000 -1.2931e+000 -2.8293e-001
125 0 +8.821210246e+000 +2.930412102e+002 +2.930412102e+002 -4.0114e+000 -1.5186e-001 -6.4240e-001
269 0 +8.351981587e+000 +2.925719816e+002 +2.925719816e+002 -3.8443e+000 -2.0258e-001 -1.0444e+000
285 0 +3.053187160e+000 +2.872731872e+002 +2.872731872e+002 -3.0461e+000 +3.2224e-001 -1.0500e+000
333 0 +2.338275789e+000 +2.865582758e+002 +2.865582758e+002 -3.0748e+000 +3.3995e-001 -1.0516e+000
480 0 +2.162675546e+000 +2.863826755e+002 +2.863826755e+002 -3.0894e+000 +3.3198e-001 -1.0428e+000
533 0 +2.013075308e+000 +2.862330753e+002 +2.862330753e+002 -3.1034e+000 +3.3104e-001 -1.0516e+000
581 0 +1.993786371e+000 +2.862137864e+002 +2.862137864e+002 -3.0974e+000 +3.3093e-001 -1.0514e+000
1081 0 +9.955599163e-001 +2.852155599e+002 +2.852155599e+002 -3.0965e+000 -2.1942e-001 -1.0520e+000
1825 0 +4.061230950e-003 +2.842240612e+002 +2.842240612e+002 -2.1041e+000 -2.1840e-001 -1.0520e+000
1836 0 +2.814016206e-003 +2.842228140e+002 +2.842228140e+002 -2.0963e+000 -2.1840e-001 -1.0520e+000
1865 0 +2.551317862e-004 +2.842202551e+002 +2.842202551e+002 -2.0989e+000 -2.1840e-001 -1.0520e+000
1889 0 +2.511390163e-004 +2.842202511e+002 +2.842202511e+002 -2.0989e+000 -2.1840e-001 -1.0520e+000
1897 0 +1.225547521e-007 +2.842200001e+002 +2.842200001e+002 -2.1000e+000 -2.1840e-001 -1.0520e+000
1963 0 +2.921012765e-009 +2.842200000e+002 +2.842200000e+002 -2.1000e+000 -2.1840e-001 -1.0520e+000
% f evaluations | g evaluations | best noise-free fitness - Fopt (-3.217000000000e+001) + sum g_i+ | measured fitness | best measured fitness or single-digit g-values | x1 | x2...
1 0 +1.685651714e+002 +1.363951714e+002 +1.363951714e+002 -2.7416e+000 -4.4055e+000 +6.7044e-002
4 0 +1.367368961e+002 +1.045668961e+002 +1.045668961e+002 +1.9877e-001 -2.9896e+000 -5.8103e-001
10 0 +1.159223748e+002 +8.375237482e+001 +8.375237482e+001 +5.0000e+000 +5.0000e+000 -7.6717e-001
14 0 +5.412299100e+001 +2.195299100e+001 +2.195299100e+001 +3.9189e+000 +2.6200e+000 -6.9252e-001
16 0 +3.783784668e+001 +5.667846681e+000 +5.667846681e+000 +4.3512e+000 +2.3326e+000 -6.9072e-001
30 0 +2.430892178e+001 -7.861078220e+000 -7.861078220e+000 +1.5011e+000 +1.8868e+000 -5.6682e-001
52 0 +2.169535436e+001 -1.047464564e+001 -1.047464564e+001 +1.4640e+000 +8.8514e-001 +1.1442e+000
143 0 +1.647619208e+001 -1.569380792e+001 -1.569380792e+001 -1.4684e-001 +1.8883e+000 +8.1991e-001
166 0 +1.375325646e+001 -1.841674354e+001 -1.841674354e+001 -3.5172e-001 +1.2672e+000 -1.8186e-001
225 0 +1.300657914e+001 -1.916342086e+001 -1.916342086e+001 +1.2584e+000 +2.9340e+000 +4.3710e-001
263 0 +7.387973976e+000 -2.478202602e+001 -2.478202602e+001 +1.2566e+000 +1.8883e+000 +4.7052e-001
279 0 +4.183859108e+000 -2.798614089e+001 -2.798614089e+001 +4.9577e-001 +1.9053e+000 +4.4187e-001
438 0 +4.063036275e+000 -2.810696372e+001 -2.810696372e+001 +4.2412e-001 +1.9028e+000 +4.8861e-001
443 0 +2.415692725e+000 -2.975430728e+001 -2.975430728e+001 +1.5019e+000 +1.3030e+000 +4.7099e-001
485 0 +1.636752005e+000 -3.053324800e+001 -3.053324800e+001 +1.3930e+000 +1.2653e+000 +4.5538e-001
497 0 +1.428696571e+000 -3.074130343e+001 -3.074130343e+001 +4.3800e-001 +1.8715e+000 +4.7250e-001
519 0 +1.234129883e+000 -3.093587012e+001 -3.093587012e+001 +4.6588e-001 +1.8582e+000 +4.6941e-001
525 0 +1.027722193e+000 -3.114227781e+001 -3.114227781e+001 +4.5893e-001 +1.8535e+000 +4.6114e-001
535 0 +1.016938377e+000 -3.115306162e+001 -3.115306162e+001 +4.5393e-001 +1.8571e+000 +4.6352e-001
568 0 +9.956395148e-001 -3.117436049e+001 -3.117436049e+001 +4.4902e-001 +1.8538e+000 +4.6098e-001
735 0 +8.721450597e-001 -3.129785494e+001 -3.129785494e+001 +1.5194e+000 +1.8544e+000 +4.6093e-001
794 0 +2.181370946e-001 -3.195186291e+001 -3.195186291e+001 +1.4611e+000 +1.8709e+000 +4.6481e-001
817 0 +1.983217918e-002 -3.215016782e+001 -3.215016782e+001 +1.4485e+000 +1.8495e+000 +4.6167e-001
820 0 +1.808587010e-002 -3.215191413e+001 -3.215191413e+001 +1.4504e+000 +1.8503e+000 +4.6175e-001
850 0 +6.560432197e-003 -3.216343957e+001 -3.216343957e+001 +1.4507e+000 +1.8544e+000 +4.6183e-001
854 0 +3.155304199e-003 -3.216684470e+001 -3.216684470e+001 +1.4471e+000 +1.8548e+000 +4.6212e-001
857 0 +2.836152758e-003 -3.216716385e+001 -3.216716385e+001 +1.4486e+000 +1.8552e+000 +4.5997e-001
874 0 +2.676922390e-003 -3.216732308e+001 -3.216732308e+001 +1.4484e+000 +1.8552e+000 +4.5994e-001
876 0 +1.131418447e-003 -3.216886858e+001 -3.216886858e+001 +1.4439e+000 +1.8543e+000 +4.6085e-001
896 0 +2.377404329e-005 -3.216997623e+001 -3.216997623e+001 +1.4462e+000 +1.8546e+000 +4.6082e-001
908 0 +7.528022643e-006 -3.216999247e+001 -3.216999247e+001 +1.4464e+000 +1.8545e+000 +4.6081e-001
923 0 +3.970090013e-006 -3.216999603e+001 -3.216999603e+001 +1.4465e+000 +1.8544e+000 +4.6078e-001
927 0 +3.498561831e-006 -3.216999650e+001 -3.216999650e+001 +1.4464e+000 +1.8544e+000 +4.6084e-001
941 0 +1.157678611e-007 -3.216999988e+001 -3.216999988e+001 +1.4464e+000 +1.8544e+000 +4.6081e-001
945 0 +8.802101803e-008 -3.216999991e+001 -3.216999991e+001 +1.4464e+000 +1.8544e+000 +4.6080e-001
966 0 +1.425240015e-008 -3.216999999e+001 -3.216999999e+001 +1.4464e+000 +1.8544e+000 +4.6080e-001
980 0 +1.194444366e-008 -3.216999999e+001 -3.216999999e+001 +1.4464e+000 +1.8544e+000 +4.6080e-001
984 0 +1.161954089e-008 -3.216999999e+001 -3.216999999e+001 +1.4464e+000 +1.8544e+000 +4.6080e-001
992 0 +8.377632810e-009 -3.216999999e+001 -3.216999999e+001 +1.4464e+000 +1.8544e+000 +4.6080e-001
1120 0 +0.000000000e+000 -3.217000000e+001 -3.217000000e+001 +1.4464e+000 +1.8544e+000 +4.6080e-001
% f evaluations | g evaluations | best noise-free fitness - Fopt (-5.858000000000e+001) + sum g_i+ | measured fitness | best measured fitness or single-digit g-values | x1 | x2...
1 0 +6.327756436e+002 +5.741956436e+002 +5.741956436e+002 +1.3686e+000 +1.8669e+000 +4.9821e+000
2 0 +3.532121778e+002 +2.946321778e+002 +2.946321778e+002 +2.6294e+000 +3.6546e+000 +2.4235e+000
3 0 +7.246935925e+001 +1.388935925e+001 +1.388935925e+001 -3.4504e+000 -1.7567e+000 +1.1195e+000
6 0 +5.132628972e+001 -7.253710283e+000 -7.253710283e+000 -1.0156e+000 -1.4722e+000 +8.6626e-001
16 0 +3.466549405e+001 -2.391450595e+001 -2.391450595e+001 +6.7204e-001 -2.8788e+000 -2.0435e-001
18 0 +2.591065265e+001 -3.266934735e+001 -3.266934735e+001 +6.4748e-001 -3.0951e+000 -1.6999e-001
55 0 +2.185699181e+001 -3.672300819e+001 -3.672300819e+001 +2.2413e+000 -3.6007e+000 +9.4730e-001
63 0 +1.733175094e+001 -4.124824906e+001 -4.124824906e+001 +3.6336e+000 -1.7567e+000 +7.0133e-001
86 0 +1.176921424e+001 -4.681078576e+001 -4.681078576e+001 +2.7032e+000 -1.4521e+000 +2.5780e-001
137 0 +8.554660678e+000 -5.002533932e+001 -5.002533932e+001 +3.6092e+000 -1.9900e+000 +6.2438e-001
385 0 +5.408974559e+000 -5.317102544e+001 -5.317102544e+001 +3.5664e+000 -1.9801e+000 +6.3976e-001
461 0 +4.443209070e+000 -5.413679093e+001 -5.413679093e+001 +3.5545e+000 -1.9506e+000 +6.7857e-001
503 0 +3.652693554e+000 -5.492730645e+001 -5.492730645e+001 +3.5603e+000 -1.9575e+000 +6.5495e-001
568 0 +3.425369830e+000 -5.515463017e+001 -5.515463017e+001 +3.5760e+000 -1.9577e+000 +6.5147e-001
572 0 +3.046409659e+000 -5.553359034e+001 -5.553359034e+001 +3.5790e+000 -1.9586e+000 +6.6108e-001
605 0 +3.005508823e+000 -5.557449118e+001 -5.557449118e+001 +3.5823e+000 -1.9592e+000 +6.6338e-001
2405 0 +2.572333310e+000 -5.600766669e+001 -5.600766669e+001 +1.6584e+000 -2.5147e+000 +9.7280e-001
2419 0 +6.862805997e-002 -5.851137194e+001 -5.851137194e+001 +2.6082e+000 -2.5089e+000 +9.7490e-001
2430 0 +6.697645228e-002 -5.851302355e+001 -5.851302355e+001 +2.6082e+000 -2.5089e+000 +9.7476e-001
2440 0 +6.509555537e-002 -5.851490444e+001 -5.851490444e+001 +2.6082e+000 -2.5090e+000 +9.7461e-001
2463 0 +1.426024082e-003 -5.857857398e+001 -5.857857398e+001 +2.5907e+000 -2.5072e+000 +9.7191e-001
2501 0 +3.506836802e-004 -5.857964932e+001 -5.857964932e+001 +2.5918e+000 -2.5073e+000 +9.7280e-001
2552 0 +2.951311295e-005 -5.857997049e+001 -5.857997049e+001 +2.5907e+000 -2.5071e+000 +9.7285e-001
2574 0 +1.831788472e-005 -5.857998168e+001 -5.857998168e+001 +2.5907e+000 -2.5071e+000 +9.7282e-001
2584 0 +1.657744959e-005 -5.857998342e+001 -5.857998342e+001 +2.5906e+000 -2.5071e+000 +9.7281e-001
2624 0 +1.603736526e-005 -5.857998396e+001 -5.857998396e+001 +2.5906e+000 -2.5071e+000 +9.7282e-001
2637 0 +1.021261892e-005 -5.857998979e+001 -5.857998979e+001 +2.5904e+000 -2.5073e+000 +9.7275e-001
2639 0 +5.790671558e-006 -5.857999421e+001 -5.857999421e+001 +2.5904e+000 -2.5073e+000 +9.7284e-001
2650 0 +3.576547904e-006 -5.857999642e+001 -5.857999642e+001 +2.5904e+000 -2.5073e+000 +9.7281e-001
2672 0 +1.987212030e-007 -5.857999980e+001 -5.857999980e+001 +2.5904e+000 -2.5072e+000 +9.7281e-001
2704 0 +1.620018963e-007 -5.857999984e+001 -5.857999984e+001 +2.5904e+000 -2.5072e+000 +9.7280e-001
2710 0 +1.561038943e-008 -5.857999998e+001 -5.857999998e+001 +2.5904e+000 -2.5072e+000 +9.7280e-001
2764 0 +1.901263147e-009 -5.858000000e+001 -5.858000000e+001 +2.5904e+000 -2.5072e+000 +9.7280e-001
2877 0 +0.000000000e+000 -5.858000000e+001 -5.858000000e+001 +2.5904e+000 -2.5072e+000 +9.7280e-001
% f evaluations | g evaluations | best noise-free fitness - Fopt (-6.049200000000e+002) + sum g_i+ | measured fitness | best measured fitness or single-digit g-values | x1 | x2...
1 0 +4.870278535e+001 -5.562172147e+002 -5.562172147e+002 -1.9167e+000 -2.9107e-001 +8.0025e-001
10 0 +4.549648045e+001 -5.594235195e+002 -5.594235195e+002 -5.0000e+000 -1.4059e+000 +1.1652e+000
12 0 +2.783643037e+001 -5.770835696e+002 -5.770835696e+002 -4.1555e-001 -1.7085e+000 +1.4306e+000
14 0 +2.254968523e+001 -5.823703148e+002 -5.823703148e+002 -1.7166e+000 -1.6045e+000 +1.3542e+000
22 0 +1.096770810e+001 -5.939522919e+002 -5.939522919e+002 -1.0736e+000 -1.4773e+000 +1.3740e+000
37 0 +9.811837459e+000 -5.951081625e+002 -5.951081625e+002 -2.9383e+000 -2.0942e+000 +2.4709e+000
197 0 +9.154576015e+000 -5.957654240e+002 -5.957654240e+002 -3.0200e+000 -2.0753e+000 +2.0661e+000
262 0 +7.269275972e+000 -5.976507240e+002 -5.976507240e+002 -2.0084e+000 -2.0945e+000 +1.7857e+000
322 0 +6.971625880e+000 -5.979483741e+002 -5.979483741e+002 -2.0331e+000 -2.0802e+000 +1.7644e+000
612 0 +6.426519908e+000 -5.984934801e+002 -5.984934801e+002 -2.0135e+000 -2.0858e+000 +1.7569e+000
622 0 +5.971069122e+000 -5.989489309e+002 -5.989489309e+002 -1.9963e+000 -2.0977e+000 +1.7640e+000
734 0 +4.538093908e+000 -6.003819061e+002 -6.003819061e+002 -1.9934e+000 -1.6773e+000 +1.7692e+000
771 0 +3.308864278e+000 -6.016111357e+002 -6.016111357e+002 -1.9933e+000 -1.6382e+000 +1.7697e+000
772 0 +3.154376131e+000 -6.017656239e+002 -6.017656239e+002 -1.9939e+000 -1.5917e+000 +1.7685e+000
828 0 +3.066776796e+000 -6.018532232e+002 -6.018532232e+002 -1.9952e+000 -1.5961e+000 +1.7614e+000
856 0 +2.985304532e+000 -6.019346955e+002 -6.019346955e+002 -1.9945e+000 -1.6103e+000 +1.7635e+000
920 0 +2.921132443e+000 -6.019988676e+002 -6.019988676e+002 -1.9938e+000 -9.7438e-001 +1.7694e+000
934 0 +2.248669392e+000 -6.026713306e+002 -6.026713306e+002 -1.9922e+000 -9.9570e-001 +1.7684e+000
939 0 +2.177390765e+000 -6.027426092e+002 -6.027426092e+002 -1.9925e+000 -9.9638e-001 +1.7647e+000
977 0 +2.114704733e+000 -6.028052953e+002 -6.028052953e+002 -1.9966e+000 -1.0287e+000 +1.7653e+000
980 0 +2.039585279e+000 -6.028804147e+002 -6.028804147e+002 -1.9971e+000 -1.0244e+000 +1.7647e+000
1057 0 +1.993607159e+000 -6.029263928e+002 -6.029263928e+002 -1.9969e+000 -1.0160e+000 +1.7645e+000
1448 0 +1.555715692e+000 -6.033642843e+002 -6.033642843e+002 -9.4969e-001 -1.0152e+000 +1.7637e+000
1461 0 +1.430356951e+000 -6.034896430e+002 -6.034896430e+002 -1.0427e+000 -1.0152e+000 +1.7637e+000
1478 0 +1.389313052e+000 -6.035306869e+002 -6.035306869e+002 -9.5473e-001 -1.0152e+000 +1.7637e+000
1480 0 +1.005107617e+000 -6.039148924e+002 -6.039148924e+002 -1.0061e+000 -1.0152e+000 +1.7637e+000
1516 0 +9.970057933e-001 -6.039229942e+002 -6.039229942e+002 -9.9501e-001 -1.0152e+000 +1.7637e+000
3006 0 +1.965287999e-001 -6.047234712e+002 -6.047234712e+002 -1.0272e+000 -1.0219e+000 +2.0731e+000
3022 0 +3.953139260e-002 -6.048804686e+002 -6.048804686e+002 -1.0001e+000 -1.0229e+000 +2.0717e+000
3059 0 +1.124256393e-002 -6.049087574e+002 -6.049087574e+002 -9.9802e-001 -1.0169e+000 +2.0713e+000
3078 0 +3.778311539e-003 -6.049162217e+002 -6.049162217e+002 -9.9792e-001 -1.0163e+000 +2.0724e+000
3176 0 +2.292882693e-004 -6.049197707e+002 -6.049197707e+002 -9.9935e-001 -1.0149e+000 +2.0736e+000
3192 0 +1.343158998e-004 -6.049198657e+002 -6.049198657e+002 -9.9921e-001 -1.0151e+000 +2.0736e+000
3295 0 +5.756970097e-005 -6.049199424e+002 -6.049199424e+002 -9.9882e-001 -1.0150e+000 +2.0736e+000
3309 0 +4.191815128e-005 -6.049199581e+002 -6.049199581e+002 -9.9879e-001 -1.0151e+000 +2.0736e+000
3333 0 +1.034434342e-005 -6.049199897e+002 -6.049199897e+002 -9.9818e-001 -1.0152e+000 +2.0736e+000
3339 0 +8.566782981e-007 -6.049199991e+002 -6.049199991e+002 -9.9842e-001 -1.0152e+000 +2.0736e+000
3356 0 +5.285050975e-007 -6.049199995e+002 -6.049199995e+002 -9.9844e-001 -1.0152e+000 +2.0736e+000
3388 0 +1.117405191e-008 -6.049200000e+002 -6.049200000e+002 -9.9840e-001 -1.0152e+000 +2.0736e+000
3391 0 +1.831608643e-009 -6.049200000e+002 -6.049200000e+002 -9.9840e-001 -1.0152e+000 +2.0736e+000
% f evaluations | g evaluations | best noise-free fitness - Fopt (1.337000000000e+002) + sum g_i+ | measured fitness | best measured fitness or single-digit g-values | x1 | x2...
1 0 +1.566483873e+002 +2.903483873e+002 +2.903483873e+002 -4.4877e+000 -3.3036e+000 +1.6240e-001
6 0 +9.510778492e+001 +2.288077849e+002 +2.288077849e+002 +3.8779e+000 -3.5925e+000 -1.3493e+000
10 0 +5.965090256e+001 +1.933509026e+002 +1.933509026e+002 -6.1794e-002 -1.4614e-001 -1.6287e+000
16 0 +5.579257722e+001 +1.894925772e+002 +1.894925772e+002 -1.3339e+000 +5.6977e-003 -1.2876e+000
18 0 +4.834046752e+001 +1.820404675e+002 +1.820404675e+002 -4.0863e-001 +4.0241e-001 -1.4512e+000
22 0 +4.521930614e+001 +1.789193061e+002 +1.789193061e+002 -4.8649e-001 +7.9419e-002 -1.3068e+000
28 0 +4.384179071e+001 +1.775417907e+002 +1.775417907e+002 +1.2360e+000 -1.3300e+000 -1.3615e+000
41 0 +2.208865868e+001 +1.557886587e+002 +1.557886587e+002 +2.5883e+000 -6.3335e-001 +7.4307e-002
46 0 +1.829978091e+001 +1.519997809e+002 +1.519997809e+002 +2.3421e+000 -6.5310e-001 -1.0589e+000
91 0 +1.343339597e+001 +1.471333960e+002 +1.471333960e+002 +2.4546e+000 +5.2870e-001 +2.6565e-001
125 0 +1.118430121e+001 +1.448843012e+002 +1.448843012e+002 +2.4467e+000 +4.8470e-001 +3.0435e-001
271 0 +7.824675611e+000 +1.415246756e+002 +1.415246756e+002 +2.4120e+000 +4.1629e-001 +2.8845e-001
404 0 +5.317735913e+000 +1.390177359e+002 +1.390177359e+002 +2.4820e+000 +3.8374e-001 +2.3342e-001
451 0 +4.997555153e+000 +1.386975552e+002 +1.386975552e+002 +2.4825e+000 +3.6479e-001 +2.4307e-001
646 0 +3.768591377e+000 +1.374685914e+002 +1.374685914e+002 +3.4504e+000 +3.2214e-001 -2.5457e-002
910 0 +3.514611058e+000 +1.372146111e+002 +1.372146111e+002 +3.4726e+000 +3.1955e-001 -2.6295e-002
1079 0 +2.013392779e+000 +1.357133928e+002 +1.357133928e+002 +2.4654e+000 +3.5961e-001 -2.0748e-002
1223 0 +1.992967730e+000 +1.356929677e+002 +1.356929677e+002 +2.4758e+000 +3.5537e-001 -1.6715e-002
1454 0 +1.314106336e+000 +1.350141063e+002 +1.350141063e+002 +2.4647e+000 +3.6621e-001 -3.6541e-001
1474 0 +1.031421568e+000 +1.347314216e+002 +1.347314216e+002 +2.4822e+000 +3.6727e-001 -3.7685e-001
1562 0 +1.017666706e+000 +1.347176667e+002 +1.347176667e+002 +2.4752e+000 +3.6336e-001 -3.8120e-001
1592 0 +9.970729077e-001 +1.346970729e+002 +1.346970729e+002 +2.4736e+000 +3.6023e-001 -3.7784e-001
2584 0 +3.916805428e-001 +1.340916805e+002 +1.340916805e+002 +2.4663e+000 +9.3880e-001 -3.8931e-001
2705 0 +2.713109568e-002 +1.337271311e+002 +1.337271311e+002 +2.4825e+000 +9.5885e-001 -3.7707e-001
2761 0 +7.350754485e-003 +1.337073508e+002 +1.337073508e+002 +2.4752e+000 +9.5797e-001 -3.7821e-001
2775 0 +5.160229364e-003 +1.337051602e+002 +1.337051602e+002 +2.4780e+000 +9.5207e-001 -3.7779e-001
2792 0 +3.505930457e-003 +1.337035059e+002 +1.337035059e+002 +2.4774e+000 +9.5468e-001 -3.7950e-001
2805 0 +3.162093353e-004 +1.337003162e+002 +1.337003162e+002 +2.4747e+000 +9.5455e-001 -3.7805e-001
2831 0 +2.228313309e-005 +1.337000223e+002 +1.337000223e+002 +2.4755e+000 +9.5452e-001 -3.7837e-001
2882 0 +1.095718272e-005 +1.337000110e+002 +1.337000110e+002 +2.4754e+000 +9.5449e-001 -3.7840e-001
2883 0 +4.983298822e-006 +1.337000050e+002 +1.337000050e+002 +2.4753e+000 +9.5435e-001 -3.7842e-001
2911 0 +1.331987050e-006 +1.337000013e+002 +1.337000013e+002 +2.4753e+000 +9.5442e-001 -3.7840e-001
2924 0 +1.198112841e-006 +1.337000012e+002 +1.337000012e+002 +2.4753e+000 +9.5442e-001 -3.7841e-001
2926 0 +3.682708325e-007 +1.337000004e+002 +1.337000004e+002 +2.4752e+000 +9.5441e-001 -3.7841e-001
2930 0 +6.769312222e-009 +1.337000000e+002 +1.337000000e+002 +2.4752e+000 +9.5440e-001 -3.7840e-001
% f evaluations | g evaluations | best noise-free fitness - Fopt (-2.098000000000e+001) + sum g_i+ | measured fitness | best measured fitness or single-digit g-values | x1 | x2...
1 0 +3.228395832e+002 +3.018595832e+002 +3.018595832e+002 -2.8031e+000 -4.0852e+000 -3.9230e+000
3 0 +1.240416373e+002 +1.030616373e+002 +1.030616373e+002 -1.0946e+000 +1.0398e+000 -2.4909e+000
6 0 +2.236182165e+001 +1.381821650e+000 +1.381821650e+000 +3.2650e+000 +2.4523e+000 +9.1466e-001
26 0 +2.055072958e+001 -4.292704247e-001 -4.292704247e-001 +1.1986e+000 +8.1988e-001 -6.8484e-001
42 0 +2.038699982e+001 -5.930001773e-001 -5.930001773e-001 +1.0046e+000 +1.7595e+000 +8.6435e-001
69 0 +1.675087143e+001 -4.229128568e+000 -4.229128568e+000 +1.0328e+000 +1.7506e+000 +6.4688e-001
105 0 +1.429007100e+001 -6.689929003e+000 -6.689929003e+000 +9.3114e-001 +8.4394e-001 +2.2779e-001
133 0 +8.269777996e+000 -1.271022200e+001 -1.271022200e+001 +9.9019e-001 +8.5763e-001 +2.4706e-001
268 0 +6.483481474e+000 -1.449651853e+001 -1.449651853e+001 +1.0938e+000 +1.8201e+000 +2.6439e-001
374 0 +6.430521847e+000 -1.454947815e+001 -1.454947815e+001 +1.0568e+000 +1.8190e+000 +2.7349e-001
408 0 +2.720457046e+000 -1.825954295e+001 -1.825954295e+001 +1.0732e+000 +1.3267e+000 +2.4537e-001
443 0 +2.458687368e+000 -1.852131263e+001 -1.852131263e+001 +1.0573e+000 +1.3188e+000 +2.8151e-001
473 0 +2.417172657e+000 -1.856282734e+001 -1.856282734e+001 +1.0899e+000 +1.3197e+000 +2.7351e-001
498 0 +2.015434231e+000 -1.896456577e+001 -1.896456577e+001 +1.0643e+000 +1.3232e+000 +2.6774e-001
546 0 +1.995132993e+000 -1.898486701e+001 -1.898486701e+001 +1.0636e+000 +1.3248e+000 +2.6567e-001
1098 0 +1.719598815e+000 -1.926040118e+001 -1.926040118e+001 +2.1232e+000 +1.3232e+000 +2.6400e-001
1173 0 +1.174396637e+000 -1.980560336e+001 -1.980560336e+001 +2.0908e+000 +1.3232e+000 +2.6400e-001
1190 0 +1.033709152e+000 -1.994629085e+001 -1.994629085e+001 +2.0738e+000 +1.3232e+000 +2.6400e-001
1200 0 +1.000216816e+000 -1.997978318e+001 -1.997978318e+001 +2.0651e+000 +1.3232e+000 +2.6400e-001
1225 0 +9.960994930e-001 -1.998390051e+001 -1.998390051e+001 +2.0575e+000 +1.3232e+000 +2.6400e-001
2081 0 +8.602700422e-001 -2.011972996e+001 -2.011972996e+001 +2.0600e+000 +1.8841e+000 +2.6400e-001
2129 0 +1.612618654e-002 -2.096387381e+001 -2.096387381e+001 +2.0600e+000 +1.9145e+000 +2.6400e-001
2182 0 +1.212715469e-002 -2.096787285e+001 -2.096787285e+001 +2.0600e+000 +1.9234e+000 +2.6400e-001
2218 0 +3.863267504e-003 -2.097613673e+001 -2.097613673e+001 +2.0600e+000 +1.9217e+000 +2.6400e-001
2236 0 +2.837383857e-003 -2.097716262e+001 -2.097716262e+001 +2.0600e+000 +1.9170e+000 +2.6400e-001
2244 0 +1.125047214e-003 -2.097887495e+001 -2.097887495e+001 +2.0600e+000 +1.9207e+000 +2.6400e-001
2253 0 +8.469429843e-004 -2.097915306e+001 -2.097915306e+001 +2.0600e+000 +1.9203e+000 +2.6400e-001
2258 0 +1.025783033e-004 -2.097989742e+001 -2.097989742e+001 +2.0600e+000 +1.9196e+000 +2.6400e-001
2282 0 +3.178584507e-009 -2.098000000e+001 -2.098000000e+001 +2.0600e+000 +1.9192e+000 +2.6400e-001
% f evaluations | g evaluations | best noise-free fitness - Fopt (1.353300000000e+002) + sum g_i+ | measured fitness | best measured fitness or single-digit g-values | x1 | x2...
1 0 +9.000110903e+001 +2.253311090e+002 +2.253311090e+002 -2.1418e+000 -1.5264e+000 -1.1727e+000
7 0 +6.309984174e+001 +1.984298417e+002 +1.984298417e+002 -5.8467e-001 +1.8871e+000 +1.2271e-001
8 0 +5.381544097e+001 +1.891454410e+002 +1.891454410e+002 +5.0000e+000 +5.3574e-001 +4.1577e-002
28 0 +4.728107208e+001 +1.826110721e+002 +1.826110721e+002 +1.8677e+000 -5.6675e-001 +1.2883e-001
30 0 +4.126702887e+001 +1.765970289e+002 +1.765970289e+002 +6.4360e-001 -7.5182e-001 +1.3304e-001
38 0 +3.509662789e+001 +1.704266279e+002 +1.704266279e+002 +8.0562e-001 +5.3574e-001 +4.6571e-001
41 0 +3.034159509e+001 +1.656715951e+002 +1.656715951e+002 -1.0336e+000 +1.1782e-001 +3.1614e-002
55 0 +2.984477551e+001 +1.651747755e+002 +1.651747755e+002 -1.0423e+000 +1.1370e-001 +3.5885e-002
79 0 +2.718725258e+001 +1.625172526e+002 +1.625172526e+002 -2.5730e+000 -5.6345e-001 +5.7108e-001
80 0 +2.024489260e+001 +1.555748926e+002 +1.555748926e+002 -3.4975e+000 -3.3458e-002 +6.5534e-001
122 0 +1.992218268e+001 +1.552521827e+002 +1.552521827e+002 +7.5608e-001 -1.0801e+000 +9.0319e-001
154 0 +1.563071283e+001 +1.509607128e+002 +1.509607128e+002 -2.5272e+000 -6.6645e-001 +1.3841e+000
176 0 +1.398676845e+001 +1.493167685e+002 +1.493167685e+002 -4.2005e-001 -7.3183e-001 +1.2985e+000
214 0 +1.298104649e+001 +1.483110465e+002 +1.483110465e+002 -1.3112e+000 -6.6526e-001 +1.5989e+000
284 0 +1.172091980e+001 +1.470509198e+002 +1.470509198e+002 +4.8565e-001 -1.5549e+000 +1.3712e+000
325 0 +1.144486156e+001 +1.467748616e+002 +1.467748616e+002 +4.9203e-001 -1.5512e+000 +1.3690e+000
372 0 +1.073343588e+001 +1.460634359e+002 +1.460634359e+002 +5.1651e-001 -1.4970e+000 +1.3182e+000
412 0 +1.051327984e+001 +1.458432798e+002 +1.458432798e+002 +5.3006e-001 -1.5498e+000 +1.3565e+000
417 0 +1.023492342e+001 +1.455649234e+002 +1.455649234e+002 +4.2818e-001 -1.0582e+000 +1.2836e+000
517 0 +2.749271440e+000 +1.380792714e+002 +1.380792714e+002 +1.4994e+000 +5.8743e-002 +9.8121e-001
695 0 +1.268212746e+000 +1.365982127e+002 +1.365982127e+002 +5.4320e-001 +4.0122e-002 +9.5256e-001
768 0 +8.479186272e-003 +1.353384792e+002 +1.353384792e+002 +5.3868e-001 +2.3284e-002 +9.7749e-001
792 0 +5.517678421e-003 +1.353355177e+002 +1.353355177e+002 +5.4004e-001 +2.3642e-002 +9.7708e-001
793 0 +5.244986355e-003 +1.353352450e+002 +1.353352450e+002 +5.4346e-001 +2.6141e-002 +9.7772e-001
797 0 +1.945672359e-003 +1.353319457e+002 +1.353319457e+002 +5.4788e-001 +2.4668e-002 +9.7708e-001
801 0 +1.832684749e-003 +1.353318327e+002 +1.353318327e+002 +5.4657e-001 +2.5348e-002 +9.7714e-001
803 0 +3.152365616e-004 +1.353303152e+002 +1.353303152e+002 +5.4580e-001 +2.3896e-002 +9.7701e-001
834 0 +1.872985632e-004 +1.353301873e+002 +1.353301873e+002 +5.4477e-001 +2.3644e-002 +9.7656e-001
838 0 +1.247545954e-004 +1.353301248e+002 +1.353301248e+002 +5.4521e-001 +2.3865e-002 +9.7659e-001
840 0 +5.168911102e-005 +1.353300517e+002 +1.353300517e+002 +5.4507e-001 +2.3811e-002 +9.7689e-001
844 0 +3.051658697e-005 +1.353300305e+002 +1.353300305e+002 +5.4501e-001 +2.3978e-002 +9.7690e-001
848 0 +2.632202381e-005 +1.353300263e+002 +1.353300263e+002 +5.4489e-001 +2.4148e-002 +9.7688e-001
851 0 +2.550824522e-005 +1.353300255e+002 +1.353300255e+002 +5.4491e-001 +2.4122e-002 +9.7688e-001
858 0 +1.667499018e-005 +1.353300167e+002 +1.353300167e+002 +5.4480e-001 +2.4158e-002 +9.7682e-001
867 0 +1.399769326e-005 +1.353300140e+002 +1.353300140e+002 +5.4463e-001 +2.4130e-002 +9.7680e-001
873 0 +9.573288082e-007 +1.353300010e+002 +1.353300010e+002 +5.4486e-001 +2.3974e-002 +9.7680e-001
880 0 +9.529393878e-007 +1.353300010e+002 +1.353300010e+002 +5.4484e-001 +2.3982e-002 +9.7679e-001
882 0 +5.934544447e-007 +1.353300006e+002 +1.353300006e+002 +5.4483e-001 +2.3983e-002 +9.7679e-001
888 0 +7.074896757e-008 +1.353300001e+002 +1.353300001e+002 +5.4479e-001 +2.4000e-002 +9.7680e-001
908 0 +1.975649866e-008 +1.353300000e+002 +1.353300000e+002 +5.4479e-001 +2.4003e-002 +9.7680e-001
913 0 +8.927912631e-009 +1.353300000e+002 +1.353300000e+002 +5.4480e-001 +2.3997e-002 +9.7680e-001
% f evaluations | g evaluations | best noise-free fitness - Fopt (4.066000000000e+001) + sum g_i+ | measured fitness | best measured fitness or single-digit g-values | x1 | x2...
1 0 +6.486022471e+001 +1.055202247e+002 +1.055202247e+002 +1.0040e+000 +2.7253e+000 +2.1547e+000
10 0 +3.878935321e+001 +7.944935321e+001 +7.944935321e+001 +5.0000e+000 +8.5422e-001 +3.4144e+000
12 0 +2.847053571e+001 +6.913053571e+001 +6.913053571e+001 +5.0000e+000 +8.2426e-001 +3.5306e+000
14 0 +9.683196448e+000 +5.034319645e+001 +5.034319645e+001 +5.0000e+000 +7.0788e-001 +3.5909e+000
16 0 +8.571129871e+000 +4.923112987e+001 +4.923112987e+001 +5.0000e+000 +7.0087e-001 +3.6278e+000
30 0 +3.150098815e+000 +4.381009881e+001 +4.381009881e+001 +3.0204e+000 +5.7793e-001 +3.9319e+000
41 0 +1.350422398e+000 +4.201042240e+001 +4.201042240e+001 +3.0543e+000 +6.1791e-001 +3.9250e+000
338 0 +1.083000277e+000 +4.174300028e+001 +4.174300028e+001 +3.0618e+000 +6.5284e-001 +3.9183e+000
367 0 +1.065380331e+000 +4.172538033e+001 +4.172538033e+001 +3.0464e+000 +6.5636e-001 +3.9191e+000
370 0 +1.021285056e+000 +4.168128506e+001 +4.168128506e+001 +3.0413e+000 +6.5318e-001 +3.9225e+000
423 0 +9.980287437e-001 +4.165802874e+001 +4.165802874e+001 +3.0529e+000 +6.5038e-001 +3.9252e+000
935 0 +7.953461727e-001 +4.145534617e+001 +4.145534617e+001 +3.0838e+000 +1.2362e+000 +3.9432e+000
951 0 +6.511978518e-001 +4.131119785e+001 +4.131119785e+001 +3.0870e+000 +1.2371e+000 +3.9400e+000
965 0 +2.398082050e-001 +4.089980820e+001 +4.089980820e+001 +3.0892e+000 +1.2435e+000 +3.9240e+000
974 0 +1.752774342e-001 +4.083527743e+001 +4.083527743e+001 +3.0245e+000 +1.2438e+000 +3.9272e+000
987 0 +1.270162326e-001 +4.078701623e+001 +4.078701623e+001 +3.0320e+000 +1.2460e+000 +3.9195e+000
992 0 +2.789139464e-002 +4.068789139e+001 +4.068789139e+001 +3.0507e+000 +1.2426e+000 +3.9265e+000
1010 0 +1.638279061e-002 +4.067638279e+001 +4.067638279e+001 +3.0507e+000 +1.2426e+000 +3.9240e+000
1017 0 +5.951589465e-003 +4.066595159e+001 +4.066595159e+001 +3.0535e+000 +1.2442e+000 +3.9240e+000
1040 0 +5.609507979e-003 +4.066560951e+001 +4.066560951e+001 +3.0520e+000 +1.2442e+000 +3.9240e+000
1041 0 +2.117203123e-003 +4.066211720e+001 +4.066211720e+001 +3.0506e+000 +1.2457e+000 +3.9244e+000
1055 0 +3.630924789e-004 +4.066036309e+001 +4.066036309e+001 +3.0523e+000 +1.2464e+000 +3.9240e+000
1059 0 +2.927583723e-004 +4.066029276e+001 +4.066029276e+001 +3.0524e+000 +1.2466e+000 +3.9240e+000
1060 0 +2.792525175e-004 +4.066027925e+001 +4.066027925e+001 +3.0520e+000 +1.2465e+000 +3.9240e+000
1063 0 +7.942103005e-005 +4.066007942e+001 +4.066007942e+001 +3.0517e+000 +1.2473e+000 +3.9238e+000
1080 0 +7.326978055e-005 +4.066007327e+001 +4.066007327e+001 +3.0518e+000 +1.2469e+000 +3.9239e+000
1133 0 +5.855136515e-005 +4.066005855e+001 +4.066005855e+001 +3.0517e+000 +1.2469e+000 +3.9239e+000
1144 0 +3.489408249e-005 +4.066003489e+001 +4.066003489e+001 +3.0518e+000 +1.2470e+000 +3.9240e+000
1164 0 +5.452435460e-006 +4.066000545e+001 +4.066000545e+001 +3.0518e+000 +1.2472e+000 +3.9240e+000
1174 0 +6.006031299e-007 +4.066000060e+001 +4.066000060e+001 +3.0520e+000 +1.2472e+000 +3.9240e+000
1205 0 +4.670543774e-008 +4.066000005e+001 +4.066000005e+001 +3.0520e+000 +1.2472e+000 +3.9240e+000
1234 0 +4.150943056e-008 +4.066000004e+001 +4.066000004e+001 +3.0520e+000 +1.2472e+000 +3.9240e+000
1245 0 +3.861242703e-008 +4.066000004e+001 +4.066000004e+001 +3.0520e+000 +1.2472e+000 +3.9240e+000
1261 0 +1.131983396e-008 +4.066000001e+001 +4.066000001e+001 +3.0520e+000 +1.2472e+000 +3.9240e+000
1270 0 +4.816058663e-010 +4.066000000e+001 +4.066000000e+001 +3.0520e+000 +1.2472e+000 +3.9240e+000
