% f evaluations | g evaluations | best noise-free fitness - Fopt (3.590000000000e+001) + sum g_i+ | measured fitness | best measured fitness or single-digit g-values | x1 | x2...
1 0 +3.975318650e+005 +3.975677650e+005 +3.975677650e+005 +5.8782e-001 -4.7353e+000
2 0 +1.958401166e+004 +1.961991166e+004 +1.961991166e+004 +3.3190e+000 -2.4664e+000
4 0 +3.803489777e+003 +3.839389777e+003 +3.839389777e+003 +3.8410e+000 +3.1490e+000
8 0 +1.179772993e+001 +4.769772993e+001 +4.769772993e+001 +4.4454e+000 -1.5526e+000
42 0 +5.488205901e+000 +4.138820590e+001 +4.138820590e+001 +3.7108e+000 -1.2254e+000
57 0 +5.115612299e-001 +3.641156123e+001 +3.641156123e+001 +2.9190e+000 +7.5336e-001
70 0 +1.847018051e-001 +3.608470181e+001 +3.608470181e+001 +2.9271e+000 +7.4823e-001
84 0 +1.536383649e-001 +3.605363836e+001 +3.605363836e+001 +2.9174e+000 +7.8946e-001
137 0 +9.535598215e-002 +3.599535598e+001 +3.599535598e+001 +2.9038e+000 +9.0290e-001
145 0 +8.015136335e-002 +3.598015136e+001 +3.598015136e+001 +2.8921e+000 +9.6664e-001
146 0 +1.084581085e-002 +3.591084581e+001 +3.591084581e+001 +2.8150e+000 +1.0902e+000
149 0 +1.629957291e-003 +3.590162996e+001 +3.590162996e+001 +2.7925e+000 +1.0876e+000
196 0 +1.351981953e-003 +3.590135198e+001 +3.590135198e+001 +2.7912e+000 +1.0903e+000
197 0 +8.169615499e-004 +3.590081696e+001 +3.590081696e+001 +2.7898e+000 +1.1046e+000
202 0 +3.079477981e-004 +3.590030795e+001 +3.590030795e+001 +2.7855e+000 +1.1135e+000
219 0 +2.680829216e-004 +3.590026808e+001 +3.590026808e+001 +2.7860e+000 +1.1092e+000
227 0 +4.192539895e-005 +3.590004193e+001 +3.590004193e+001 +2.7832e+000 +1.1109e+000
268 0 +3.182703563e-005 +3.590003183e+001 +3.590003183e+001 +2.7831e+000 +1.1113e+000
296 0 +1.510843687e-005 +3.590001511e+001 +3.590001511e+001 +2.7824e+000 +1.1119e+000
323 0 +7.393947335e-006 +3.590000739e+001 +3.590000739e+001 +2.7821e+000 +1.1135e+000
384 0 +7.094602282e-006 +3.590000709e+001 +3.590000709e+001 +2.7821e+000 +1.1135e+000
388 0 +6.219362703e-006 +3.590000622e+001 +3.590000622e+001 +2.7820e+000 +1.1137e+000
407 0 +5.980789368e-006 +3.590000598e+001 +3.590000598e+001 +2.7820e+000 +1.1138e+000
410 0 +5.418683777e-006 +3.590000542e+001 +3.590000542e+001 +2.7821e+000 +1.1130e+000
414 0 +4.722708873e-006 +3.590000472e+001 +3.590000472e+001 +2.7820e+000 +1.1136e+000
419 0 +3.375023482e-006 +3.590000338e+001 +3.590000338e+001 +2.7819e+000 +1.1137e+000
421 0 +3.011218219e-006 +3.590000301e+001 +3.590000301e+001 +2.7819e+000 +1.1134e+000
424 0 +2.434432069e-006 +3.590000243e+001 +3.590000243e+001 +2.7819e+000 +1.1136e+000
425 0 +2.097144581e-006 +3.590000210e+001 +3.590000210e+001 +2.7818e+000 +1.1137e+000
428 0 +1.743550627e-006 +3.590000174e+001 +3.590000174e+001 +2.7818e+000 +1.1137e+000
430 0 +1.422671822e-006 +3.590000142e+001 +3.590000142e+001 +2.7818e+000 +1.1137e+000
433 0 +5.489580346e-007 +3.590000055e+001 +3.590000055e+001 +2.7817e+000 +1.1136e+000
434 0 +5.168461286e-007 +3.590000052e+001 +3.590000052e+001 +2.7817e+000 +1.1136e+000
446 0 +4.481852969e-007 +3.590000045e+001 +3.590000045e+001 +2.7817e+000 +1.1136e+000
448 0 +1.391822053e-007 +3.590000014e+001 +3.590000014e+001 +2.7817e+000 +1.1136e+000
455 0 +1.202334587e-007 +3.590000012e+001 +3.590000012e+001 +2.7816e+000 +1.1136e+000
463 0 +7.522695711e-008 +3.590000008e+001 +3.590000008e+001 +2.7816e+000 +1.1136e+000
471 0 +6.436394528e-009 +3.590000001e+001 +3.590000001e+001 +2.7816e+000 +1.1136e+000
% f evaluations | g evaluations | best noise-free fitness - Fopt (3.137000000000e+001) + sum g_i+ | measured fitness | best measured fitness or single-digit g-values | x1 | x2...
1 0 +6.894090965e+001 +1.003109096e+002 +1.003109096e+002 +3.1337e+000 +1.5734e+000
8 0 +5.932617370e+001 +9.069617370e+001 +9.069617370e+001 +2.4801e+000 +4.3008e+000
15 0 +7.242990033e-001 +3.209429900e+001 +3.209429900e+001 -1.4731e-001 +2.4954e+000
59 0 +5.787230870e-001 +3.194872309e+001 +3.194872309e+001 -1.0568e-001 +2.2580e+000
77 0 +2.246139218e-001 +3.159461392e+001 +3.159461392e+001 -1.4430e-001 +1.9792e+000
83 0 +1.441861912e-001 +3.151418619e+001 +3.151418619e+001 -1.8080e-001 +1.9990e+000
87 0 +1.579721903e-002 +3.138579722e+001 +3.138579722e+001 -2.4252e-001 +1.9146e+000
113 0 +4.888524876e-003 +3.137488852e+001 +3.137488852e+001 -2.5942e-001 +1.9238e+000
135 0 +2.910811528e-003 +3.137291081e+001 +3.137291081e+001 -2.6147e-001 +1.9118e+000
162 0 +2.601506510e-003 +3.137260151e+001 +3.137260151e+001 -2.6223e-001 +1.9117e+000
166 0 +9.926717542e-005 +3.137009927e+001 +3.137009927e+001 -2.7085e-001 +1.9005e+000
219 0 +3.174959572e-005 +3.137003175e+001 +3.137003175e+001 -2.7170e-001 +1.8996e+000
228 0 +2.320491180e-005 +3.137002320e+001 +3.137002320e+001 -2.7198e-001 +1.8993e+000
230 0 +1.981613729e-005 +3.137001982e+001 +3.137001982e+001 -2.7208e-001 +1.8992e+000
248 0 +1.662239109e-005 +3.137001662e+001 +3.137001662e+001 -2.7198e-001 +1.8990e+000
253 0 +5.999901127e-006 +3.137000600e+001 +3.137000600e+001 -2.7183e-001 +1.8977e+000
268 0 +4.530027944e-006 +3.137000453e+001 +3.137000453e+001 -2.7185e-001 +1.8976e+000
273 0 +4.313948224e-006 +3.137000431e+001 +3.137000431e+001 -2.7187e-001 +1.8976e+000
289 0 +2.932124062e-006 +3.137000293e+001 +3.137000293e+001 -2.7180e-001 +1.8972e+000
314 0 +2.373441550e-006 +3.137000237e+001 +3.137000237e+001 -2.7182e-001 +1.8971e+000
318 0 +1.770806143e-006 +3.137000177e+001 +3.137000177e+001 -2.7180e-001 +1.8969e+000
354 0 +1.732672470e-006 +3.137000173e+001 +3.137000173e+001 -2.7181e-001 +1.8969e+000
372 0 +1.510062351e-006 +3.137000151e+001 +3.137000151e+001 -2.7182e-001 +1.8968e+000
374 0 +1.455030418e-006 +3.137000146e+001 +3.137000146e+001 -2.7182e-001 +1.8968e+000
381 0 +6.569847706e-007 +3.137000066e+001 +3.137000066e+001 -2.7189e-001 +1.8968e+000
384 0 +5.294776244e-007 +3.137000053e+001 +3.137000053e+001 -2.7190e-001 +1.8968e+000
386 0 +1.384095007e-007 +3.137000014e+001 +3.137000014e+001 -2.7197e-001 +1.8969e+000
392 0 +5.518215218e-008 +3.137000006e+001 +3.137000006e+001 -2.7198e-001 +1.8969e+000
395 0 +5.440055162e-008 +3.137000005e+001 +3.137000005e+001 -2.7198e-001 +1.8969e+000
396 0 +5.123177615e-008 +3.137000005e+001 +3.137000005e+001 -2.7200e-001 +1.8969e+000
401 0 +1.269541272e-008 +3.137000001e+001 +3.137000001e+001 -2.7200e-001 +1.8968e+000
411 0 +3.678248817e-009 +3.137000000e+001 +3.137000000e+001 -2.7200e-001 +1.8968e+000
% f evaluations | g evaluations | best noise-free fitness - Fopt (-1.000000000000e+003) + sum g_i+ | measured fitness | best measured fitness or single-digit g-values | x1 | x2...
1 0 +1.345212140e+005 +1.335212140e+005 +1.335212140e+005 -4.8303e-001 +1.0391e+000
2 0 +2.674885170e+001 -9.732511483e+002 -9.732511483e+002 +1.9204e+000 -3.5493e+000
5 0 +3.097330900e-001 -9.996902669e+002 -9.996902669e+002 +6.1188e-002 -2.9164e+000
83 0 +2.127286085e-001 -9.997872714e+002 -9.997872714e+002 +1.9594e-002 -3.0187e+000
123 0 +2.039488207e-001 -9.997960512e+002 -9.997960512e+002 +1.7056e-002 -3.0609e+000
124 0 +2.965335114e-002 -9.999703466e+002 -9.999703466e+002 -1.4300e-001 -3.3437e+000
126 0 +1.824971404e-002 -9.999817503e+002 -9.999817503e+002 -1.3684e-001 -3.2881e+000
127 0 +8.759031185e-003 -9.999912410e+002 -9.999912410e+002 -1.5205e-001 -3.2951e+000
144 0 +8.483783145e-003 -9.999915162e+002 -9.999915162e+002 -1.6015e-001 -3.3226e+000
159 0 +4.364407414e-003 -9.999956356e+002 -9.999956356e+002 -1.7536e-001 -3.3417e+000
169 0 +2.486792189e-003 -9.999975132e+002 -9.999975132e+002 -1.7608e-001 -3.3352e+000
205 0 +1.287170847e-003 -9.999987128e+002 -9.999987128e+002 -1.7434e-001 -3.3162e+000
210 0 +2.696103215e-004 -9.999997304e+002 -9.999997304e+002 -1.8139e-001 -3.3228e+000
235 0 +2.623453740e-004 -9.999997377e+002 -9.999997377e+002 -1.8165e-001 -3.3228e+000
246 0 +1.665037064e-004 -9.999998335e+002 -9.999998335e+002 -1.8386e-001 -3.3311e+000
250 0 +7.424953833e-005 -9.999999258e+002 -9.999999258e+002 -1.8401e-001 -3.3281e+000
272 0 +6.962179452e-005 -9.999999304e+002 -9.999999304e+002 -1.8398e-001 -3.3273e+000
288 0 +6.333635633e-005 -9.999999367e+002 -9.999999367e+002 -1.8409e-001 -3.3271e+000
319 0 +6.123030209e-005 -9.999999388e+002 -9.999999388e+002 -1.8413e-001 -3.3271e+000
332 0 +4.735294362e-005 -9.999999526e+002 -9.999999526e+002 -1.8456e-001 -3.3273e+000
341 0 +1.690808119e-005 -9.999999831e+002 -9.999999831e+002 -1.8528e-001 -3.3292e+000
346 0 +1.074115755e-005 -9.999999893e+002 -9.999999893e+002 -1.8554e-001 -3.3294e+000
348 0 +6.623330478e-006 -9.999999934e+002 -9.999999934e+002 -1.8575e-001 -3.3294e+000
349 0 +8.157901448e-007 -9.999999992e+002 -9.999999992e+002 -1.8622e-001 -3.3303e+000
362 0 +4.044961770e-007 -9.999999996e+002 -9.999999996e+002 -1.8628e-001 -3.3303e+000
368 0 +3.485309890e-007 -9.999999997e+002 -9.999999997e+002 -1.8628e-001 -3.3303e+000
430 0 +3.211083595e-007 -9.999999997e+002 -9.999999997e+002 -1.8628e-001 -3.3302e+000
470 0 +2.396383252e-007 -9.999999998e+002 -9.999999998e+002 -1.8630e-001 -3.3302e+000
482 0 +2.075380507e-007 -9.999999998e+002 -9.999999998e+002 -1.8630e-001 -3.3302e+000
486 0 +1.565201728e-007 -9.999999998e+002 -9.999999998e+002 -1.8632e-001 -3.3303e+000
489 0 +1.540720405e-007 -9.999999998e+002 -9.999999998e+002 -1.8632e-001 -3.3303e+000
492 0 +1.280396873e-007 -9.999999999e+002 -9.999999999e+002 -1.8633e-001 -3.3303e+000
497 0 +5.492677246e-008 -9.999999999e+002 -9.999999999e+002 -1.8635e-001 -3.3304e+000
503 0 +5.342394616e-008 -9.999999999e+002 -9.999999999e+002 -1.8636e-001 -3.3304e+000
507 0 +4.536229881e-008 -1.000000000e+003 -1.000000000e+003 -1.8638e-001 -3.3304e+000
515 0 +1.691159923e-008 -1.000000000e+003 -1.000000000e+003 -1.8638e-001 -3.3304e+000
516 0 +3.264858606e-009 -1.000000000e+003 -1.000000000e+003 -1.8639e-001 -3.3304e+000
% f evaluations | g evaluations | best noise-free fitness - Fopt (1.319200000000e+002) + sum g_i+ | measured fitness | best measured fitness or single-digit g-values | x1 | x2...
1 0 +2.982448845e+005 +2.983768045e+005 +2.983768045e+005 +1.5830e+000 +3.6700e+000
3 0 +2.502422814e+001 +1.569442281e+002 +1.569442281e+002 +1.7657e+000 -1.1191e-001
20 0 +6.780786278e+000 +1.387007863e+002 +1.387007863e+002 -2.3583e+000 +7.1414e-001
42 0 +3.948162144e+000 +1.358681621e+002 +1.358681621e+002 -2.2287e+000 +1.0919e+000
50 0 +2.451911645e+000 +1.343719116e+002 +1.343719116e+002 -4.1195e+000 +1.4190e+000
83 0 +2.115400928e+000 +1.340354009e+002 +1.340354009e+002 -4.0552e+000 +1.4443e+000
97 0 +1.366675185e+000 +1.332866752e+002 +1.332866752e+002 -4.0642e+000 +1.5462e+000
103 0 +1.346522986e+000 +1.332665230e+002 +1.332665230e+002 -4.0552e+000 +1.5559e+000
105 0 +6.152077344e-001 +1.325352077e+002 +1.325352077e+002 -3.6945e+000 +1.6159e+000
130 0 +4.061542387e-001 +1.323261542e+002 +1.323261542e+002 -3.7683e+000 +1.6677e+000
144 0 +2.124541826e-001 +1.321324542e+002 +1.321324542e+002 -3.8634e+000 +1.7483e+000
154 0 +1.867670857e-001 +1.321067671e+002 +1.321067671e+002 -3.6430e+000 +1.7632e+000
176 0 +1.451692162e-001 +1.320651692e+002 +1.320651692e+002 -3.6865e+000 +1.7913e+000
205 0 +1.379610446e-001 +1.320579610e+002 +1.320579610e+002 -3.7037e+000 +1.7939e+000
210 0 +8.265799974e-002 +1.320026580e+002 +1.320026580e+002 -3.7416e+000 +1.8246e+000
247 0 +1.998974333e-002 +1.319399897e+002 +1.319399897e+002 -3.9164e+000 +1.8643e+000
251 0 +1.412689224e-002 +1.319341269e+002 +1.319341269e+002 -3.9288e+000 +1.8726e+000
274 0 +1.279655488e-002 +1.319327966e+002 +1.319327966e+002 -3.9276e+000 +1.8745e+000
280 0 +1.249895270e-002 +1.319324990e+002 +1.319324990e+002 -3.9287e+000 +1.8749e+000
282 0 +1.046520550e-002 +1.319304652e+002 +1.319304652e+002 -3.9309e+000 +1.8774e+000
287 0 +8.619536800e-003 +1.319286195e+002 +1.319286195e+002 -3.9971e+000 +1.8917e+000
323 0 +8.366009130e-003 +1.319283660e+002 +1.319283660e+002 -3.9971e+000 +1.8925e+000
337 0 +7.815095799e-003 +1.319278151e+002 +1.319278151e+002 -3.9970e+000 +1.8934e+000
347 0 +7.138519224e-003 +1.319271385e+002 +1.319271385e+002 -3.9983e+000 +1.8947e+000
358 0 +6.750097791e-003 +1.319267501e+002 +1.319267501e+002 -3.9623e+000 +1.8864e+000
368 0 +6.353858191e-003 +1.319263539e+002 +1.319263539e+002 -3.9913e+000 +1.8932e+000
374 0 +5.432013725e-003 +1.319254320e+002 +1.319254320e+002 -3.9938e+000 +1.8949e+000
380 0 +4.729593967e-003 +1.319247296e+002 +1.319247296e+002 -3.9575e+000 +1.8890e+000
382 0 +4.517403937e-003 +1.319245174e+002 +1.319245174e+002 -3.9579e+000 +1.8910e+000
383 0 +4.288016016e-003 +1.319242880e+002 +1.319242880e+002 -3.9586e+000 +1.8916e+000
385 0 +2.574082738e-003 +1.319225741e+002 +1.319225741e+002 -3.9826e+000 +1.8981e+000
390 0 +2.525151389e-003 +1.319225252e+002 +1.319225252e+002 -3.9824e+000 +1.8983e+000
401 0 +2.367987907e-003 +1.319223680e+002 +1.319223680e+002 -3.9750e+000 +1.8977e+000
405 0 +1.888225412e-003 +1.319218882e+002 +1.319218882e+002 -3.9615e+000 +1.8981e+000
417 0 +1.144920710e-003 +1.319211449e+002 +1.319211449e+002 -3.9648e+000 +1.9012e+000
421 0 +1.055961178e-003 +1.319210560e+002 +1.319210560e+002 -3.9750e+000 +1.9017e+000
424 0 +9.892188322e-004 +1.319209892e+002 +1.319209892e+002 -3.9739e+000 +1.9018e+000
426 0 +7.505297022e-004 +1.319207505e+002 +1.319207505e+002 -3.9696e+000 +1.9031e+000
440 0 +5.426268251e-004 +1.319205426e+002 +1.319205426e+002 -3.9742e+000 +1.9039e+000
442 0 +4.395531704e-005 +1.319200440e+002 +1.319200440e+002 -3.9816e+000 +1.9090e+000
443 0 +3.356530553e-005 +1.319200336e+002 +1.319200336e+002 -3.9819e+000 +1.9092e+000
450 0 +3.115826016e-005 +1.319200312e+002 +1.319200312e+002 -3.9805e+000 +1.9091e+000
470 0 +3.049201365e-005 +1.319200305e+002 +1.319200305e+002 -3.9805e+000 +1.9091e+000
479 0 +1.525174901e-005 +1.319200153e+002 +1.319200153e+002 -3.9810e+000 +1.9096e+000
484 0 +3.003732985e-006 +1.319200030e+002 +1.319200030e+002 -3.9819e+000 +1.9101e+000
493 0 +1.834151277e-006 +1.319200018e+002 +1.319200018e+002 -3.9821e+000 +1.9101e+000
533 0 +1.186194652e-006 +1.319200012e+002 +1.319200012e+002 -3.9822e+000 +1.9102e+000
555 0 +1.941700702e-007 +1.319200002e+002 +1.319200002e+002 -3.9823e+000 +1.9103e+000
666 0 +1.567767640e-007 +1.319200002e+002 +1.319200002e+002 -3.9823e+000 +1.9103e+000
674 0 +5.861437558e-008 +1.319200001e+002 +1.319200001e+002 -3.9823e+000 +1.9104e+000
687 0 +4.728033787e-008 +1.319200000e+002 +1.319200000e+002 -3.9824e+000 +1.9104e+000
704 0 +3.771191359e-008 +1.319200000e+002 +1.319200000e+002 -3.9824e+000 +1.9104e+000
705 0 +3.715061325e-008 +1.319200000e+002 +1.319200000e+002 -3.9824e+000 +1.9104e+000
706 0 +7.505036592e-010 +1.319200000e+002 +1.319200000e+002 -3.9824e+000 +1.9104e+000
% f evaluations | g evaluations | best noise-free fitness - Fopt (5.908400000000e+002) + sum g_i+ | measured fitness | best measured fitness or single-digit g-values | x1 | x2...
1 0 +6.814813244e+004 +6.873897244e+004 +6.873897244e+004 +1.8126e+000 -7.4541e-001
3 0 +6.072086472e+003 +6.662926472e+003 +6.662926472e+003 -2.2835e+000 +1.6089e+000
9 0 +7.435298644e+001 +6.651929864e+002 +6.651929864e+002 -2.3580e+000 -3.4255e+000
18 0 +1.289734067e+001 +6.037373407e+002 +6.037373407e+002 -6.0437e-001 -1.6747e+000
54 0 +6.677534567e+000 +5.975175346e+002 +5.975175346e+002 +8.6234e-001 -4.1938e+000
55 0 +3.875877619e+000 +5.947158776e+002 +5.947158776e+002 +9.9995e-001 -3.9411e+000
59 0 +1.392217894e+000 +5.922322179e+002 +5.922322179e+002 +1.0002e+000 -3.2898e+000
77 0 +8.874597150e-002 +5.909287460e+002 +5.909287460e+002 +1.3422e+000 -3.3127e+000
133 0 +7.924105121e-002 +5.909192411e+002 +5.909192411e+002 +1.4498e+000 -3.4882e+000
138 0 +4.211153675e-002 +5.908821115e+002 +5.908821115e+002 +1.4387e+000 -3.4311e+000
150 0 +1.537172542e-002 +5.908553717e+002 +5.908553717e+002 +1.4235e+000 -3.3609e+000
177 0 +8.275209064e-003 +5.908482752e+002 +5.908482752e+002 +1.4424e+000 -3.3729e+000
179 0 +7.516280996e-003 +5.908475163e+002 +5.908475163e+002 +1.4454e+000 -3.3748e+000
190 0 +3.020719894e-003 +5.908430207e+002 +5.908430207e+002 +1.4408e+000 -3.3542e+000
200 0 +2.287004504e-003 +5.908422870e+002 +5.908422870e+002 +1.4474e+000 -3.3586e+000
243 0 +9.931568760e-004 +5.908409932e+002 +5.908409932e+002 +1.4458e+000 -3.3496e+000
244 0 +8.001016633e-004 +5.908408001e+002 +5.908408001e+002 +1.4367e+000 -3.3287e+000
250 0 +7.276605050e-004 +5.908407277e+002 +5.908407277e+002 +1.4371e+000 -3.3292e+000
260 0 +6.539847011e-004 +5.908406540e+002 +5.908406540e+002 +1.4374e+000 -3.3294e+000
277 0 +5.577224653e-004 +5.908405577e+002 +5.908405577e+002 +1.4379e+000 -3.3296e+000
279 0 +5.314267804e-004 +5.908405314e+002 +5.908405314e+002 +1.4454e+000 -3.3453e+000
281 0 +3.614744782e-004 +5.908403615e+002 +5.908403615e+002 +1.4429e+000 -3.3393e+000
296 0 +1.423178853e-004 +5.908401423e+002 +5.908401423e+002 +1.4461e+000 -3.3411e+000
300 0 +6.206640433e-005 +5.908400621e+002 +5.908400621e+002 +1.4439e+000 -3.3358e+000
309 0 +3.716021683e-005 +5.908400372e+002 +5.908400372e+002 +1.4442e+000 -3.3355e+000
348 0 +3.010783144e-005 +5.908400301e+002 +5.908400301e+002 +1.4443e+000 -3.3354e+000
359 0 +1.587280258e-005 +5.908400159e+002 +5.908400159e+002 +1.4446e+000 -3.3352e+000
367 0 +1.249231195e-005 +5.908400125e+002 +5.908400125e+002 +1.4447e+000 -3.3353e+000
371 0 +8.637393989e-006 +5.908400086e+002 +5.908400086e+002 +1.4449e+000 -3.3355e+000
380 0 +7.780522196e-006 +5.908400078e+002 +5.908400078e+002 +1.4449e+000 -3.3354e+000
382 0 +4.687039564e-006 +5.908400047e+002 +5.908400047e+002 +1.4451e+000 -3.3355e+000
398 0 +4.366645385e-006 +5.908400044e+002 +5.908400044e+002 +1.4451e+000 -3.3355e+000
419 0 +4.258536933e-006 +5.908400043e+002 +5.908400043e+002 +1.4451e+000 -3.3355e+000
421 0 +2.595574074e-006 +5.908400026e+002 +5.908400026e+002 +1.4453e+000 -3.3358e+000
424 0 +2.550302383e-006 +5.908400026e+002 +5.908400026e+002 +1.4453e+000 -3.3359e+000
430 0 +1.881480102e-006 +5.908400019e+002 +5.908400019e+002 +1.4454e+000 -3.3360e+000
439 0 +2.056558515e-007 +5.908400002e+002 +5.908400002e+002 +1.4456e+000 -3.3361e+000
452 0 +1.481448635e-007 +5.908400001e+002 +5.908400001e+002 +1.4455e+000 -3.3359e+000
465 0 +1.275429895e-008 +5.908400000e+002 +5.908400000e+002 +1.4456e+000 -3.3360e+000
466 0 +7.790390555e-009 +5.908400000e+002 +5.908400000e+002 +1.4456e+000 -3.3360e+000
% f evaluations | g evaluations | best noise-free fitness - Fopt (6.749000000000e+001) + sum g_i+ | measured fitness | best measured fitness or single-digit g-values | x1 | x2...
1 0 +1.939284620e+005 +1.939959520e+005 +1.939959520e+005 +2.4880e+000 +4.9190e+000
3 0 +3.407372262e+003 +3.474862262e+003 +3.474862262e+003 -3.9920e-001 -2.7185e-001
4 0 +1.278943623e+002 +1.953843623e+002 +1.953843623e+002 -1.2713e+000 -3.7641e+000
20 0 +2.303540427e+001 +9.052540427e+001 +9.052540427e+001 -2.6032e+000 -4.4043e+000
47 0 +2.244632500e+001 +8.993632500e+001 +8.993632500e+001 -4.2644e+000 -4.8566e+000
73 0 +8.401960587e+000 +7.589196059e+001 +7.589196059e+001 -3.0082e+000 -3.3365e+000
77 0 +3.532006435e+000 +7.102200644e+001 +7.102200644e+001 -2.3965e+000 -2.1271e+000
78 0 +2.444071727e+000 +6.993407173e+001 +6.993407173e+001 -1.4180e+000 -1.9408e+000
82 0 +2.213206769e+000 +6.970320677e+001 +6.970320677e+001 -1.3908e+000 -1.8808e+000
88 0 +1.918858417e+000 +6.940885842e+001 +6.940885842e+001 -1.4870e+000 -1.8864e+000
92 0 +1.357593573e+000 +6.884759357e+001 +6.884759357e+001 -1.1474e+000 -1.5822e+000
95 0 +2.599227714e-001 +6.774992277e+001 +6.774992277e+001 -1.1166e+000 -1.2428e+000
112 0 +2.228939358e-003 +6.749222894e+001 +6.749222894e+001 -9.0758e-001 -9.2718e-001
266 0 +1.804748657e-003 +6.749180475e+001 +6.749180475e+001 -9.0302e-001 -9.2813e-001
275 0 +6.661075145e-004 +6.749066611e+001 +6.749066611e+001 -8.9622e-001 -9.1656e-001
335 0 +6.377483704e-004 +6.749063775e+001 +6.749063775e+001 -8.9602e-001 -9.1670e-001
350 0 +3.028360824e-004 +6.749030284e+001 +6.749030284e+001 -8.9124e-001 -9.1471e-001
352 0 +3.015696994e-004 +6.749030157e+001 +6.749030157e+001 -8.9123e-001 -9.1470e-001
358 0 +2.647728576e-004 +6.749026477e+001 +6.749026477e+001 -8.8827e-001 -9.1351e-001
367 0 +2.543910087e-004 +6.749025439e+001 +6.749025439e+001 -8.8820e-001 -9.1331e-001
382 0 +2.499391100e-004 +6.749024994e+001 +6.749024994e+001 -8.8721e-001 -9.1292e-001
386 0 +2.296877295e-004 +6.749022969e+001 +6.749022969e+001 -8.8693e-001 -9.1263e-001
401 0 +2.111326556e-004 +6.749021113e+001 +6.749021113e+001 -8.8636e-001 -9.1224e-001
409 0 +1.877588452e-004 +6.749018776e+001 +6.749018776e+001 -8.8408e-001 -9.1069e-001
418 0 +1.833051156e-004 +6.749018331e+001 +6.749018331e+001 -8.8403e-001 -9.1063e-001
425 0 +9.586850703e-005 +6.749009587e+001 +6.749009587e+001 -8.8634e-001 -9.1066e-001
426 0 +9.033085834e-005 +6.749009033e+001 +6.749009033e+001 -8.8552e-001 -9.1027e-001
430 0 +7.019013766e-005 +6.749007019e+001 +6.749007019e+001 -8.8684e-001 -9.0973e-001
431 0 +5.675319186e-005 +6.749005675e+001 +6.749005675e+001 -8.8643e-001 -9.0937e-001
437 0 +1.594542773e-005 +6.749001595e+001 +6.749001595e+001 -8.8345e-001 -9.0752e-001
463 0 +1.801134715e-006 +6.749000180e+001 +6.749000180e+001 -8.8330e-001 -9.0676e-001
484 0 +1.696009917e-006 +6.749000170e+001 +6.749000170e+001 -8.8333e-001 -9.0675e-001
496 0 +1.581891084e-006 +6.749000158e+001 +6.749000158e+001 -8.8330e-001 -9.0672e-001
546 0 +8.708368142e-007 +6.749000087e+001 +6.749000087e+001 -8.8341e-001 -9.0670e-001
552 0 +4.561234164e-007 +6.749000046e+001 +6.749000046e+001 -8.8329e-001 -9.0659e-001
558 0 +4.384443884e-007 +6.749000044e+001 +6.749000044e+001 -8.8328e-001 -9.0658e-001
561 0 +1.761235211e-007 +6.749000018e+001 +6.749000018e+001 -8.8327e-001 -9.0652e-001
567 0 +1.035027850e-007 +6.749000010e+001 +6.749000010e+001 -8.8327e-001 -9.0650e-001
581 0 +2.656021536e-008 +6.749000003e+001 +6.749000003e+001 -8.8324e-001 -9.0645e-001
601 0 +1.115658677e-008 +6.749000001e+001 +6.749000001e+001 -8.8323e-001 -9.0643e-001
657 0 +1.045613374e-008 +6.749000001e+001 +6.749000001e+001 -8.8323e-001 -9.0642e-001
686 0 +5.043176543e-009 +6.749000001e+001 +6.749000001e+001 -8.8321e-001 -9.0642e-001
% f evaluations | g evaluations | best noise-free fitness - Fopt (3.085000000000e+001) + sum g_i+ | measured fitness | best measured fitness or single-digit g-values | x1 | x2...
1 0 +1.450863422e+001 +4.535863422e+001 +4.535863422e+001 +1.4568e+000 -3.6667e+000
43 0 +5.041807704e+000 +3.589180770e+001 +3.589180770e+001 +2.1457e+000 -4.3498e+000
47 0 +4.572036362e+000 +3.542203636e+001 +3.542203636e+001 +2.1706e+000 -4.1158e+000
76 0 +2.392118977e+000 +3.324211898e+001 +3.324211898e+001 +2.4381e+000 -4.3810e+000
88 0 +1.961737187e+000 +3.281173719e+001 +3.281173719e+001 +2.5056e+000 -3.1604e+000
95 0 +1.886905556e+000 +3.273690556e+001 +3.273690556e+001 +2.5219e+000 -3.1031e+000
97 0 +1.081631318e+000 +3.193163132e+001 +3.193163132e+001 +2.6499e+000 -3.1804e+000
98 0 +6.700321795e-001 +3.152003218e+001 +3.152003218e+001 +2.7289e+000 -3.2587e+000
116 0 +2.373503393e-001 +3.108735034e+001 +3.108735034e+001 +2.7691e+000 -3.7149e+000
140 0 +2.201337099e-001 +3.107013371e+001 +3.107013371e+001 +2.7750e+000 -3.8043e+000
166 0 +1.478194807e-001 +3.099781948e+001 +3.099781948e+001 +2.8397e+000 -3.4811e+000
173 0 +9.554656139e-002 +3.094554656e+001 +3.094554656e+001 +2.8218e+000 -3.7683e+000
195 0 +4.188071794e-002 +3.089188072e+001 +3.089188072e+001 +2.8745e+000 -3.6059e+000
198 0 +4.146998385e-002 +3.089146998e+001 +3.089146998e+001 +2.8711e+000 -3.6206e+000
199 0 +4.048883677e-002 +3.089048884e+001 +3.089048884e+001 +2.8597e+000 -3.7655e+000
222 0 +3.930356124e-002 +3.088930356e+001 +3.088930356e+001 +2.8604e+000 -3.7602e+000
225 0 +3.208062932e-002 +3.088208063e+001 +3.088208063e+001 +2.8647e+000 -3.7619e+000
229 0 +8.725996165e-003 +3.085872600e+001 +3.085872600e+001 +2.8882e+000 -3.7116e+000
247 0 +8.279159577e-003 +3.085827916e+001 +3.085827916e+001 +2.8897e+000 -3.7102e+000
255 0 +6.166358001e-003 +3.085616636e+001 +3.085616636e+001 +2.8923e+000 -3.7435e+000
269 0 +4.733804651e-003 +3.085473380e+001 +3.085473380e+001 +2.8942e+000 -3.7395e+000
277 0 +2.414667821e-003 +3.085241467e+001 +3.085241467e+001 +2.8995e+000 -3.7226e+000
293 0 +1.652959752e-003 +3.085165296e+001 +3.085165296e+001 +2.9014e+000 -3.7186e+000
296 0 +8.768154523e-005 +3.085008768e+001 +3.085008768e+001 +2.9089e+000 -3.7181e+000
391 0 +6.185830709e-005 +3.085006186e+001 +3.085006186e+001 +2.9094e+000 -3.7176e+000
396 0 +6.159317491e-005 +3.085006159e+001 +3.085006159e+001 +2.9094e+000 -3.7176e+000
401 0 +5.889723804e-005 +3.085005890e+001 +3.085005890e+001 +2.9094e+000 -3.7178e+000
409 0 +3.521758769e-005 +3.085003522e+001 +3.085003522e+001 +2.9094e+000 -3.7194e+000
418 0 +3.159248730e-005 +3.085003159e+001 +3.085003159e+001 +2.9095e+000 -3.7194e+000
426 0 +1.566937251e-005 +3.085001567e+001 +3.085001567e+001 +2.9098e+000 -3.7216e+000
427 0 +1.303558762e-005 +3.085001304e+001 +3.085001304e+001 +2.9098e+000 -3.7214e+000
432 0 +1.087987254e-005 +3.085001088e+001 +3.085001088e+001 +2.9098e+000 -3.7211e+000
438 0 +1.001673752e-005 +3.085001002e+001 +3.085001002e+001 +2.9099e+000 -3.7214e+000
448 0 +6.317162768e-006 +3.085000632e+001 +3.085000632e+001 +2.9100e+000 -3.7203e+000
458 0 +3.568420581e-006 +3.085000357e+001 +3.085000357e+001 +2.9101e+000 -3.7209e+000
467 0 +3.262985221e-006 +3.085000326e+001 +3.085000326e+001 +2.9101e+000 -3.7208e+000
468 0 +1.387561557e-006 +3.085000139e+001 +3.085000139e+001 +2.9103e+000 -3.7203e+000
478 0 +1.292901025e-006 +3.085000129e+001 +3.085000129e+001 +2.9102e+000 -3.7209e+000
489 0 +8.740444351e-007 +3.085000087e+001 +3.085000087e+001 +2.9103e+000 -3.7209e+000
491 0 +3.421788222e-007 +3.085000034e+001 +3.085000034e+001 +2.9103e+000 -3.7209e+000
515 0 +1.987430700e-007 +3.085000020e+001 +3.085000020e+001 +2.9103e+000 -3.7207e+000
530 0 +5.312912066e-008 +3.085000005e+001 +3.085000005e+001 +2.9104e+000 -3.7207e+000
547 0 +4.941688303e-008 +3.085000005e+001 +3.085000005e+001 +2.9104e+000 -3.7207e+000
580 0 +1.576923481e-008 +3.085000002e+001 +3.085000002e+001 +2.9104e+000 -3.7208e+000
589 0 +1.247338943e-008 +3.085000001e+001 +3.085000001e+001 +2.9104e+000 -3.7208e+000
612 0 +1.083487433e-008 +3.085000001e+001 +3.085000001e+001 +2.9104e+000 -3.7208e+000
620 0 +1.071162359e-008 +3.085000001e+001 +3.085000001e+001 +2.9104e+000 -3.7208e+000
636 0 +6.160689736e-009 +3.085000001e+001 +3.085000001e+001 +2.9104e+000 -3.7208e+000
% f evaluations | g evaluations | best noise-free fitness - Fopt (-1.255000000000e+001) + sum g_i+ | measured fitness | best measured fitness or single-digit g-values | x1 | x2...
1 0 +6.741224596e+002 +6.615724596e+002 +6.615724596e+002 +3.1926e+000 -9.1109e-001
5 0 +8.832896455e+001 +7.577896455e+001 +7.577896455e+001 +5.6428e-001 -2.7411e+000
8 0 +4.236938298e+001 +2.981938298e+001 +2.981938298e+001 +1.9185e+000 -2.2782e+000
17 0 +9.895192799e+000 -2.654807201e+000 -2.654807201e+000 +2.2033e+000 +3.2517e+000
19 0 +2.542490181e+000 -1.000750982e+001 -1.000750982e+001 +2.8947e+000 +2.1946e+000
53 0 +8.757652759e-001 -1.167423472e+001 -1.167423472e+001 +3.0869e+000 +2.4161e+000
93 0 +8.066194200e-001 -1.174338058e+001 -1.174338058e+001 +3.0784e+000 +2.5538e+000
106 0 +7.464034766e-001 -1.180359652e+001 -1.180359652e+001 +3.1054e+000 +2.4598e+000
113 0 +7.308236826e-001 -1.181917632e+001 -1.181917632e+001 +3.1144e+000 +2.4794e+000
124 0 +5.237849241e-001 -1.202621508e+001 -1.202621508e+001 +3.1834e+000 +2.3472e+000
155 0 +3.896874048e-001 -1.216031260e+001 -1.216031260e+001 +3.1785e+000 +2.8249e+000
161 0 +2.777149750e-001 -1.227228503e+001 -1.227228503e+001 +3.2122e+000 +2.6290e+000
170 0 +1.560134239e-001 -1.239398658e+001 -1.239398658e+001 +3.2591e+000 +2.5550e+000
175 0 +4.473414672e-002 -1.250526585e+001 -1.250526585e+001 +3.3395e+000 +2.4339e+000
191 0 +4.113732068e-002 -1.250886268e+001 -1.250886268e+001 +3.3545e+000 +2.4183e+000
206 0 +4.013126412e-002 -1.250986874e+001 -1.250986874e+001 +3.3217e+000 +2.5785e+000
214 0 +4.666323277e-003 -1.254533368e+001 -1.254533368e+001 +3.3678e+000 +2.5057e+000
251 0 +4.342720183e-003 -1.254565728e+001 -1.254565728e+001 +3.3695e+000 +2.5068e+000
266 0 +3.281483027e-003 -1.254671852e+001 -1.254671852e+001 +3.3699e+000 +2.5103e+000
270 0 +2.724239007e-003 -1.254727576e+001 -1.254727576e+001 +3.3701e+000 +2.5129e+000
273 0 +2.456027286e-003 -1.254754397e+001 -1.254754397e+001 +3.3716e+000 +2.5137e+000
276 0 +2.378299497e-003 -1.254762170e+001 -1.254762170e+001 +3.3719e+000 +2.5142e+000
285 0 +6.907910659e-004 -1.254930921e+001 -1.254930921e+001 +3.3745e+000 +2.5256e+000
298 0 +5.348723845e-004 -1.254946513e+001 -1.254946513e+001 +3.3746e+000 +2.5272e+000
302 0 +4.551649936e-004 -1.254954484e+001 -1.254954484e+001 +3.3735e+000 +2.5321e+000
304 0 +3.053742798e-004 -1.254969463e+001 -1.254969463e+001 +3.3736e+000 +2.5338e+000
310 0 +2.678763260e-004 -1.254973212e+001 -1.254973212e+001 +3.3741e+000 +2.5341e+000
311 0 +1.521266261e-004 -1.254984787e+001 -1.254984787e+001 +3.3742e+000 +2.5363e+000
316 0 +3.812540864e-005 -1.254996187e+001 -1.254996187e+001 +3.3750e+000 +2.5393e+000
334 0 +2.910623780e-005 -1.254997089e+001 -1.254997089e+001 +3.3750e+000 +2.5404e+000
343 0 +1.692075969e-005 -1.254998308e+001 -1.254998308e+001 +3.3753e+000 +2.5399e+000
367 0 +8.015839548e-006 -1.254999198e+001 -1.254999198e+001 +3.3755e+000 +2.5408e+000
386 0 +1.629230738e-006 -1.254999837e+001 -1.254999837e+001 +3.3759e+000 +2.5401e+000
403 0 +4.904376123e-007 -1.254999951e+001 -1.254999951e+001 +3.3759e+000 +2.5401e+000
410 0 +2.075561696e-007 -1.254999979e+001 -1.254999979e+001 +3.3759e+000 +2.5401e+000
490 0 +2.032482218e-007 -1.254999980e+001 -1.254999980e+001 +3.3759e+000 +2.5401e+000
494 0 +1.787154726e-007 -1.254999982e+001 -1.254999982e+001 +3.3759e+000 +2.5400e+000
511 0 +1.739582114e-007 -1.254999983e+001 -1.254999983e+001 +3.3759e+000 +2.5400e+000
524 0 +1.912526848e-008 -1.254999998e+001 -1.254999998e+001 +3.3760e+000 +2.5400e+000
545 0 +1.089024160e-008 -1.254999999e+001 -1.254999999e+001 +3.3760e+000 +2.5400e+000
562 0 +1.068468514e-008 -1.254999999e+001 -1.254999999e+001 +3.3760e+000 +2.5400e+000
572 0 +1.039749264e-008 -1.254999999e+001 -1.254999999e+001 +3.3760e+000 +2.5400e+000
577 0 +9.037291804e-009 -1.254999999e+001 -1.254999999e+001 +3.3760e+000 +2.5400e+000
% f evaluations | g evaluations | best noise-free fitness - Fopt (5.383900000000e+002) + sum g_i+ | measured fitness | best measured fitness or single-digit g-values | x1 | x2...
1 0 +5.268555256e+001 +5.910755526e+002 +5.910755526e+002 -2.0678e-001 +2.9193e+000
2 0 +1.970313448e+000 +5.403603134e+002 +5.403603134e+002 +3.1991e+000 +3.1057e+000
49 0 +1.710613685e-001 +5.385610614e+002 +5.385610614e+002 +3.4994e+000 +2.9139e+000
109 0 +1.536162870e-001 +5.385436163e+002 +5.385436163e+002 +3.4630e+000 +2.8749e+000
121 0 +4.640363516e-003 +5.383946404e+002 +5.383946404e+002 +3.4108e+000 +2.6840e+000
233 0 +2.459704878e-003 +5.383924597e+002 +5.383924597e+002 +3.4301e+000 +2.7056e+000
236 0 +1.292792210e-003 +5.383912928e+002 +5.383912928e+002 +3.4448e+000 +2.7165e+000
265 0 +1.094977243e-003 +5.383910950e+002 +5.383910950e+002 +3.4456e+000 +2.7162e+000
309 0 +1.637443512e-004 +5.383901637e+002 +5.383901637e+002 +3.4417e+000 +2.7059e+000
352 0 +1.529349942e-004 +5.383901529e+002 +5.383901529e+002 +3.4455e+000 +2.7097e+000
358 0 +1.431934933e-004 +5.383901432e+002 +5.383901432e+002 +3.4424e+000 +2.7062e+000
361 0 +5.760512340e-005 +5.383900576e+002 +5.383900576e+002 +3.4445e+000 +2.7073e+000
363 0 +5.734951014e-005 +5.383900573e+002 +5.383900573e+002 +3.4445e+000 +2.7073e+000
376 0 +1.126256200e-005 +5.383900113e+002 +5.383900113e+002 +3.4444e+000 +2.7056e+000
383 0 +6.800050528e-006 +5.383900068e+002 +5.383900068e+002 +3.4448e+000 +2.7061e+000
392 0 +6.599164976e-006 +5.383900066e+002 +5.383900066e+002 +3.4448e+000 +2.7061e+000
393 0 +3.022613896e-006 +5.383900030e+002 +5.383900030e+002 +3.4452e+000 +2.7064e+000
413 0 +2.839371405e-006 +5.383900028e+002 +5.383900028e+002 +3.4456e+000 +2.7067e+000
432 0 +2.786139589e-006 +5.383900028e+002 +5.383900028e+002 +3.4453e+000 +2.7064e+000
443 0 +2.348393423e-006 +5.383900023e+002 +5.383900023e+002 +3.4454e+000 +2.7065e+000
456 0 +2.284353741e-006 +5.383900023e+002 +5.383900023e+002 +3.4455e+000 +2.7066e+000
468 0 +2.020738179e-006 +5.383900020e+002 +5.383900020e+002 +3.4455e+000 +2.7066e+000
494 0 +1.638321805e-006 +5.383900016e+002 +5.383900016e+002 +3.4456e+000 +2.7066e+000
499 0 +1.561350246e-006 +5.383900016e+002 +5.383900016e+002 +3.4457e+000 +2.7067e+000
512 0 +1.544198994e-006 +5.383900015e+002 +5.383900015e+002 +3.4457e+000 +2.7067e+000
515 0 +8.813724435e-007 +5.383900009e+002 +5.383900009e+002 +3.4457e+000 +2.7066e+000
525 0 +8.363299457e-007 +5.383900008e+002 +5.383900008e+002 +3.4456e+000 +2.7065e+000
527 0 +7.600559684e-007 +5.383900008e+002 +5.383900008e+002 +3.4454e+000 +2.7063e+000
533 0 +3.792461030e-007 +5.383900004e+002 +5.383900004e+002 +3.4455e+000 +2.7064e+000
560 0 +3.458513902e-007 +5.383900003e+002 +5.383900003e+002 +3.4454e+000 +2.7063e+000
563 0 +2.696783667e-007 +5.383900003e+002 +5.383900003e+002 +3.4455e+000 +2.7064e+000
566 0 +1.893092758e-007 +5.383900002e+002 +5.383900002e+002 +3.4455e+000 +2.7063e+000
569 0 +1.580359594e-007 +5.383900002e+002 +5.383900002e+002 +3.4455e+000 +2.7064e+000
572 0 +1.498697202e-007 +5.383900001e+002 +5.383900001e+002 +3.4455e+000 +2.7064e+000
590 0 +1.058211865e-007 +5.383900001e+002 +5.383900001e+002 +3.4455e+000 +2.7064e+000
593 0 +1.008251047e-007 +5.383900001e+002 +5.383900001e+002 +3.4456e+000 +2.7064e+000
595 0 +9.251709798e-008 +5.383900001e+002 +5.383900001e+002 +3.4456e+000 +2.7064e+000
600 0 +2.538513399e-008 +5.383900000e+002 +5.383900000e+002 +3.4456e+000 +2.7064e+000
607 0 +2.317005965e-008 +5.383900000e+002 +5.383900000e+002 +3.4456e+000 +2.7064e+000
620 0 +2.190768100e-008 +5.383900000e+002 +5.383900000e+002 +3.4456e+000 +2.7064e+000
622 0 +1.124044502e-008 +5.383900000e+002 +5.383900000e+002 +3.4456e+000 +2.7064e+000
624 0 +7.191488294e-009 +5.383900000e+002 +5.383900000e+002 +3.4456e+000 +2.7064e+000
% f evaluations | g evaluations | best noise-free fitness - Fopt (-1.055600000000e+002) + sum g_i+ | measured fitness | best measured fitness or single-digit g-values | x1 | x2...
1 0 +1.344021066e+000 -1.042159789e+002 -1.042159789e+002 +1.0754e+000 -3.9641e+000
63 0 +5.707406283e-001 -1.049892594e+002 -1.049892594e+002 +1.1961e+000 -3.9051e+000
80 0 +2.513008437e-001 -1.053086992e+002 -1.053086992e+002 +1.3333e+000 -3.9870e+000
81 0 +1.475109136e-001 -1.054124891e+002 -1.054124891e+002 +1.4560e+000 -4.0174e+000
106 0 +8.388586561e-002 -1.054761141e+002 -1.054761141e+002 +1.4407e+000 -3.9430e+000
125 0 +8.081708659e-002 -1.054791829e+002 -1.054791829e+002 +1.4394e+000 -3.9330e+000
153 0 +2.503818362e-002 -1.055349618e+002 -1.055349618e+002 +1.4023e+000 -3.8167e+000
161 0 +4.598047565e-003 -1.055554020e+002 -1.055554020e+002 +1.3687e+000 -3.7367e+000
193 0 +2.563654697e-003 -1.055574363e+002 -1.055574363e+002 +1.3645e+000 -3.7246e+000
206 0 +2.385859379e-003 -1.055576141e+002 -1.055576141e+002 +1.3565e+000 -3.7111e+000
223 0 +1.796794831e-003 -1.055582032e+002 -1.055582032e+002 +1.3525e+000 -3.6989e+000
226 0 +1.766970483e-003 -1.055582330e+002 -1.055582330e+002 +1.3526e+000 -3.6991e+000
228 0 +1.222370329e-003 -1.055587776e+002 -1.055587776e+002 +1.3540e+000 -3.6977e+000
235 0 +9.437479965e-004 -1.055590563e+002 -1.055590563e+002 +1.3548e+000 -3.6969e+000
254 0 +2.367444218e-004 -1.055597633e+002 -1.055597633e+002 +1.3601e+000 -3.6989e+000
279 0 +2.161651489e-004 -1.055597838e+002 -1.055597838e+002 +1.3602e+000 -3.6988e+000
289 0 +1.959512984e-004 -1.055598040e+002 -1.055598040e+002 +1.3598e+000 -3.6981e+000
294 0 +1.564767814e-004 -1.055598435e+002 -1.055598435e+002 +1.3593e+000 -3.6967e+000
295 0 +1.424490087e-004 -1.055598576e+002 -1.055598576e+002 +1.3603e+000 -3.6977e+000
299 0 +9.356344933e-005 -1.055599064e+002 -1.055599064e+002 +1.3618e+000 -3.6975e+000
303 0 +5.646947137e-005 -1.055599435e+002 -1.055599435e+002 +1.3592e+000 -3.6939e+000
307 0 +5.200008735e-005 -1.055599480e+002 -1.055599480e+002 +1.3592e+000 -3.6936e+000
314 0 +3.856644457e-005 -1.055599614e+002 -1.055599614e+002 +1.3607e+000 -3.6953e+000
315 0 +1.867362526e-005 -1.055599813e+002 -1.055599813e+002 +1.3596e+000 -3.6932e+000
335 0 +1.382928139e-005 -1.055599862e+002 -1.055599862e+002 +1.3597e+000 -3.6929e+000
352 0 +1.229911030e-005 -1.055599877e+002 -1.055599877e+002 +1.3598e+000 -3.6931e+000
362 0 +7.523298564e-006 -1.055599925e+002 -1.055599925e+002 +1.3600e+000 -3.6931e+000
374 0 +4.423666937e-006 -1.055599956e+002 -1.055599956e+002 +1.3602e+000 -3.6930e+000
381 0 +3.071683494e-006 -1.055599969e+002 -1.055599969e+002 +1.3601e+000 -3.6927e+000
411 0 +3.016373597e-006 -1.055599970e+002 -1.055599970e+002 +1.3601e+000 -3.6927e+000
425 0 +1.755406132e-006 -1.055599982e+002 -1.055599982e+002 +1.3601e+000 -3.6925e+000
430 0 +3.891024249e-007 -1.055599996e+002 -1.055599996e+002 +1.3600e+000 -3.6922e+000
433 0 +2.329589535e-007 -1.055599998e+002 -1.055599998e+002 +1.3600e+000 -3.6921e+000
436 0 +2.130605168e-007 -1.055599998e+002 -1.055599998e+002 +1.3600e+000 -3.6921e+000
439 0 +1.006845451e-007 -1.055599999e+002 -1.055599999e+002 +1.3600e+000 -3.6921e+000
483 0 +5.994321839e-008 -1.055599999e+002 -1.055599999e+002 +1.3600e+000 -3.6921e+000
486 0 +4.970942769e-008 -1.055600000e+002 -1.055600000e+002 +1.3600e+000 -3.6921e+000
507 0 +3.092384304e-008 -1.055600000e+002 -1.055600000e+002 +1.3600e+000 -3.6921e+000
521 0 +3.067604837e-008 -1.055600000e+002 -1.055600000e+002 +1.3600e+000 -3.6921e+000
532 0 +5.884857046e-009 -1.055600000e+002 -1.055600000e+002 +1.3600e+000 -3.6920e+000
% f evaluations | g evaluations | best noise-free fitness - Fopt (9.803000000000e+001) + sum g_i+ | measured fitness | best measured fitness or single-digit g-values | x1 | x2...
1 0 +3.347303220e+004 +3.357106220e+004 +3.357106220e+004 +1.5144e+000 +5.4733e-001
2 0 +1.757790360e+001 +1.156079036e+002 +1.156079036e+002 -3.9135e+000 -2.3828e+000
15 0 +1.228230982e+001 +1.103123098e+002 +1.103123098e+002 -3.1894e+000 -1.9917e+000
46 0 +2.445298437e+000 +1.004752984e+002 +1.004752984e+002 -2.1706e+000 -2.2271e+000
97 0 +1.890396034e+000 +9.992039603e+001 +9.992039603e+001 -1.9945e+000 -1.9805e+000
99 0 +1.491582612e+000 +9.952158261e+001 +9.952158261e+001 -1.8902e+000 -1.8852e+000
104 0 +7.313255614e-001 +9.876132556e+001 +9.876132556e+001 -1.3720e+000 -1.3882e+000
119 0 +3.473947430e-001 +9.837739474e+001 +9.837739474e+001 -1.3602e+000 -1.6641e+000
147 0 +3.331760622e-001 +9.836317606e+001 +9.836317606e+001 -1.3507e+000 -1.6602e+000
148 0 +3.108405274e-001 +9.834084053e+001 +9.834084053e+001 -1.3296e+000 -1.5694e+000
168 0 +4.288414466e-002 +9.807288414e+001 +9.807288414e+001 -1.0779e+000 -1.4336e+000
241 0 +3.726761156e-002 +9.806726761e+001 +9.806726761e+001 -1.0333e+000 -1.3479e+000
273 0 +1.579335126e-002 +9.804579335e+001 +9.804579335e+001 -9.9734e-001 -1.3333e+000
277 0 +1.300752451e-002 +9.804300752e+001 +9.804300752e+001 -1.0016e+000 -1.3466e+000
278 0 +7.209354294e-003 +9.803720935e+001 +9.803720935e+001 -9.8847e-001 -1.3462e+000
286 0 +6.586835499e-003 +9.803658684e+001 +9.803658684e+001 -9.8698e-001 -1.3451e+000
289 0 +5.465328802e-003 +9.803546533e+001 +9.803546533e+001 -9.8389e-001 -1.3425e+000
294 0 +2.480449242e-003 +9.803248045e+001 +9.803248045e+001 -9.7121e-001 -1.3411e+000
297 0 +2.164001253e-003 +9.803216400e+001 +9.803216400e+001 -9.6855e-001 -1.3408e+000
313 0 +1.718155221e-003 +9.803171816e+001 +9.803171816e+001 -9.6637e-001 -1.3386e+000
315 0 +1.081528090e-003 +9.803108153e+001 +9.803108153e+001 -9.6064e-001 -1.3369e+000
336 0 +1.060914644e-003 +9.803106091e+001 +9.803106091e+001 -9.6072e-001 -1.3364e+000
343 0 +1.012916668e-003 +9.803101292e+001 +9.803101292e+001 -9.6035e-001 -1.3359e+000
375 0 +9.646178421e-004 +9.803096462e+001 +9.803096462e+001 -9.5961e-001 -1.3358e+000
383 0 +3.884234640e-004 +9.803038842e+001 +9.803038842e+001 -9.5344e-001 -1.3299e+000
386 0 +1.862388158e-004 +9.803018624e+001 +9.803018624e+001 -9.5043e-001 -1.3273e+000
404 0 +1.808242536e-004 +9.803018082e+001 +9.803018082e+001 -9.5037e-001 -1.3272e+000
406 0 +1.654332600e-004 +9.803016543e+001 +9.803016543e+001 -9.5020e-001 -1.3269e+000
409 0 +7.661236774e-005 +9.803007661e+001 +9.803007661e+001 -9.4793e-001 -1.3248e+000
421 0 +2.986038480e-005 +9.803002986e+001 +9.803002986e+001 -9.4635e-001 -1.3233e+000
428 0 +2.801615884e-005 +9.803002802e+001 +9.803002802e+001 -9.4613e-001 -1.3234e+000
448 0 +3.336577862e-006 +9.803000334e+001 +9.803000334e+001 -9.4469e-001 -1.3221e+000
456 0 +2.702654413e-006 +9.803000270e+001 +9.803000270e+001 -9.4460e-001 -1.3221e+000
485 0 +7.000631967e-007 +9.803000070e+001 +9.803000070e+001 -9.4429e-001 -1.3218e+000
487 0 +6.918452300e-008 +9.803000007e+001 +9.803000007e+001 -9.4408e-001 -1.3217e+000
508 0 +4.550471999e-008 +9.803000005e+001 +9.803000005e+001 -9.4406e-001 -1.3216e+000
538 0 +3.490606559e-008 +9.803000003e+001 +9.803000003e+001 -9.4406e-001 -1.3216e+000
544 0 +4.309441692e-009 +9.803000000e+001 +9.803000000e+001 -9.4402e-001 -1.3216e+000
% f evaluations | g evaluations | best noise-free fitness - Fopt (1.000000000000e+003) + sum g_i+ | measured fitness | best measured fitness or single-digit g-values | x1 | x2...
1 0 +2.573874349e+005 +2.583874349e+005 +2.583874349e+005 +3.1633e+000 -4.4496e+000
2 0 +1.662553431e+003 +2.662553431e+003 +2.662553431e+003 -3.8633e-001 +1.4508e+000
4 0 +4.177387304e+001 +1.041773873e+003 +1.041773873e+003 +4.3153e+000 -1.7913e-001
43 0 +2.405691913e+001 +1.024056919e+003 +1.024056919e+003 +2.7983e+000 +4.3679e-001
48 0 +2.297192423e+001 +1.022971924e+003 +1.022971924e+003 +2.3732e+000 -1.6557e-001
55 0 +2.117912949e+001 +1.021179129e+003 +1.021179129e+003 +1.9671e+000 +3.3284e-001
61 0 +1.636578319e+001 +1.016365783e+003 +1.016365783e+003 +1.6098e+000 +1.3140e-001
69 0 +1.521833499e+001 +1.015218335e+003 +1.015218335e+003 +1.4801e+000 +1.3476e-001
72 0 +4.170049997e+000 +1.004170050e+003 +1.004170050e+003 -7.8800e-001 -7.2014e-001
79 0 +3.707170043e+000 +1.003707170e+003 +1.003707170e+003 -1.0876e+000 -1.1975e+000
112 0 +3.499222218e+000 +1.003499222e+003 +1.003499222e+003 -1.0799e+000 -1.1340e+000
115 0 +1.371761728e+000 +1.001371762e+003 +1.001371762e+003 -1.7618e+000 -1.1546e+000
124 0 +1.316580247e+000 +1.001316580e+003 +1.001316580e+003 -1.9007e+000 -1.0040e+000
132 0 +1.096238626e+000 +1.001096239e+003 +1.001096239e+003 -1.9301e+000 -1.2168e+000
151 0 +7.203335323e-001 +1.000720334e+003 +1.000720334e+003 -2.1368e+000 -1.2693e+000
153 0 +6.513099699e-001 +1.000651310e+003 +1.000651310e+003 -2.2001e+000 -1.1484e+000
164 0 +4.768466280e-001 +1.000476847e+003 +1.000476847e+003 -2.2476e+000 -1.2177e+000
170 0 +4.627525204e-001 +1.000462753e+003 +1.000462753e+003 -2.3182e+000 -1.1572e+000
172 0 +3.592780706e-001 +1.000359278e+003 +1.000359278e+003 -2.3614e+000 -1.2789e+000
179 0 +2.888494322e-001 +1.000288849e+003 +1.000288849e+003 -2.4152e+000 -1.2857e+000
185 0 +1.554636666e-001 +1.000155464e+003 +1.000155464e+003 -2.5567e+000 -1.3431e+000
202 0 +1.530086222e-001 +1.000153009e+003 +1.000153009e+003 -2.5629e+000 -1.3465e+000
203 0 +1.474116861e-001 +1.000147412e+003 +1.000147412e+003 -2.5795e+000 -1.3538e+000
211 0 +1.426186464e-001 +1.000142619e+003 +1.000142619e+003 -2.5935e+000 -1.3604e+000
212 0 +8.060127382e-002 +1.000080601e+003 +1.000080601e+003 -2.6568e+000 -1.3598e+000
217 0 +3.349312281e-002 +1.000033493e+003 +1.000033493e+003 -2.7588e+000 -1.3884e+000
233 0 +1.305324177e-002 +1.000013053e+003 +1.000013053e+003 -2.8141e+000 -1.3977e+000
243 0 +4.651591078e-003 +1.000004652e+003 +1.000004652e+003 -2.8475e+000 -1.3997e+000
247 0 +2.211641741e-003 +1.000002212e+003 +1.000002212e+003 -2.8659e+000 -1.4009e+000
259 0 +1.037594451e-003 +1.000001038e+003 +1.000001038e+003 -2.8748e+000 -1.4064e+000
290 0 +5.172511910e-004 +1.000000517e+003 +1.000000517e+003 -2.8819e+000 -1.4094e+000
299 0 +3.365920962e-004 +1.000000337e+003 +1.000000337e+003 -2.8844e+000 -1.4086e+000
304 0 +2.897938494e-004 +1.000000290e+003 +1.000000290e+003 -2.8851e+000 -1.4089e+000
313 0 +1.507207681e-004 +1.000000151e+003 +1.000000151e+003 -2.8887e+000 -1.4096e+000
336 0 +1.289921171e-004 +1.000000129e+003 +1.000000129e+003 -2.8931e+000 -1.4092e+000
346 0 +1.257765080e-004 +1.000000126e+003 +1.000000126e+003 -2.8904e+000 -1.4094e+000
349 0 +2.372175288e-005 +1.000000024e+003 +1.000000024e+003 -2.8935e+000 -1.4112e+000
351 0 +6.227999620e-006 +1.000000006e+003 +1.000000006e+003 -2.8949e+000 -1.4115e+000
378 0 +5.463884349e-006 +1.000000005e+003 +1.000000005e+003 -2.8949e+000 -1.4116e+000
401 0 +5.256605959e-006 +1.000000005e+003 +1.000000005e+003 -2.8950e+000 -1.4116e+000
415 0 +3.043252491e-006 +1.000000003e+003 +1.000000003e+003 -2.8956e+000 -1.4117e+000
448 0 +2.598567676e-006 +1.000000003e+003 +1.000000003e+003 -2.8956e+000 -1.4117e+000
467 0 +9.601526472e-007 +1.000000001e+003 +1.000000001e+003 -2.8956e+000 -1.4118e+000
473 0 +6.386947007e-007 +1.000000001e+003 +1.000000001e+003 -2.8957e+000 -1.4119e+000
485 0 +3.869967031e-007 +1.000000000e+003 +1.000000000e+003 -2.8957e+000 -1.4119e+000
501 0 +3.410918907e-007 +1.000000000e+003 +1.000000000e+003 -2.8958e+000 -1.4120e+000
521 0 +3.227318075e-007 +1.000000000e+003 +1.000000000e+003 -2.8958e+000 -1.4119e+000
523 0 +2.750070962e-007 +1.000000000e+003 +1.000000000e+003 -2.8958e+000 -1.4119e+000
528 0 +1.031602324e-007 +1.000000000e+003 +1.000000000e+003 -2.8959e+000 -1.4120e+000
535 0 +9.599727946e-008 +1.000000000e+003 +1.000000000e+003 -2.8959e+000 -1.4120e+000
538 0 +7.084565823e-008 +1.000000000e+003 +1.000000000e+003 -2.8959e+000 -1.4120e+000
565 0 +5.735512332e-008 +1.000000000e+003 +1.000000000e+003 -2.8959e+000 -1.4120e+000
602 0 +4.884441296e-008 +1.000000000e+003 +1.000000000e+003 -2.8959e+000 -1.4120e+000
603 0 +1.666057869e-008 +1.000000000e+003 +1.000000000e+003 -2.8960e+000 -1.4120e+000
608 0 +1.480850642e-008 +1.000000000e+003 +1.000000000e+003 -2.8960e+000 -1.4120e+000
620 0 +6.619757187e-009 +1.000000000e+003 +1.000000000e+003 -2.8960e+000 -1.4120e+000
% f evaluations | g evaluations | best noise-free fitness - Fopt (1.490000000000e+000) + sum g_i+ | measured fitness | best measured fitness or single-digit g-values | x1 | x2...
1 0 +1.359669562e+004 +1.359818562e+004 +1.359818562e+004 +4.8733e+000 -3.3912e+000
4 0 +8.045030274e+003 +8.046520274e+003 +8.046520274e+003 +4.7346e+000 -3.4944e+000
10 0 +4.978468981e+003 +4.979958981e+003 +4.979958981e+003 +3.4179e+000 -1.1567e+000
13 0 +7.852551956e+000 +9.342551956e+000 +9.342551956e+000 +3.3915e+000 -4.1951e+000
41 0 +6.942870282e+000 +8.432870282e+000 +8.432870282e+000 +4.2468e+000 -4.8012e+000
48 0 +6.511402407e+000 +8.001402407e+000 +8.001402407e+000 +3.7693e+000 -4.4136e+000
63 0 +6.038445331e+000 +7.528445331e+000 +7.528445331e+000 +3.8081e+000 -4.3128e+000
65 0 +5.395450206e+000 +6.885450206e+000 +6.885450206e+000 +3.7778e+000 -4.1398e+000
80 0 +4.473043337e+000 +5.963043337e+000 +5.963043337e+000 +3.7441e+000 -3.8862e+000
81 0 +4.424631915e+000 +5.914631915e+000 +5.914631915e+000 +3.7794e+000 -3.9208e+000
84 0 +3.711205396e+000 +5.201205396e+000 +5.201205396e+000 +3.7142e+000 -3.5876e+000
85 0 +3.589615550e+000 +5.079615550e+000 +5.079615550e+000 +3.7126e+000 -3.5457e+000
87 0 +2.832940174e+000 +4.322940174e+000 +4.322940174e+000 +3.6601e+000 -3.1950e+000
94 0 +2.766469559e+000 +4.256469559e+000 +4.256469559e+000 +3.6567e+000 -3.1582e+000
101 0 +2.665473096e+000 +4.155473096e+000 +4.155473096e+000 +3.6867e+000 -3.1767e+000
102 0 +2.419112514e+000 +3.909112514e+000 +3.909112514e+000 +3.6636e+000 -2.9541e+000
107 0 +2.376516468e+000 +3.866516468e+000 +3.866516468e+000 +3.6200e+000 -2.8001e+000
108 0 +2.339821926e+000 +3.829821926e+000 +3.829821926e+000 +3.5606e+000 -2.5531e+000
118 0 +1.383457749e+000 +2.873457749e+000 +2.873457749e+000 +3.6221e+000 -2.2755e+000
121 0 +7.367420334e-001 +2.226742033e+000 +2.226742033e+000 +3.7845e+000 -2.4003e+000
130 0 +4.178979659e-001 +1.907897966e+000 +1.907897966e+000 +3.8324e+000 -2.2521e+000
136 0 +3.924926934e-001 +1.882492693e+000 +1.882492693e+000 +3.8402e+000 -2.2318e+000
140 0 +2.647590001e-001 +1.754759000e+000 +1.754759000e+000 +3.9129e+000 -2.2514e+000
146 0 +2.208394246e-001 +1.710839425e+000 +1.710839425e+000 +3.9557e+000 -2.2446e+000
155 0 +2.104364296e-001 +1.700436430e+000 +1.700436430e+000 +3.9715e+000 -2.2401e+000
160 0 +1.982764495e-001 +1.688276449e+000 +1.688276449e+000 +3.9976e+000 -2.2246e+000
167 0 +1.848762395e-001 +1.674876240e+000 +1.674876240e+000 +3.9760e+000 -2.2176e+000
171 0 +1.751154488e-001 +1.665115449e+000 +1.665115449e+000 +3.9026e+000 -2.1394e+000
173 0 +1.505895409e-001 +1.640589541e+000 +1.640589541e+000 +3.9180e+000 -2.1270e+000
180 0 +8.696663160e-002 +1.576966632e+000 +1.576966632e+000 +3.9376e+000 -2.0721e+000
183 0 +5.000905618e-002 +1.540009056e+000 +1.540009056e+000 +3.9656e+000 -2.0175e+000
200 0 +4.590333870e-002 +1.535903339e+000 +1.535903339e+000 +3.9657e+000 -2.0103e+000
211 0 +4.174833891e-002 +1.531748339e+000 +1.531748339e+000 +3.9636e+000 -1.9891e+000
227 0 +4.164315718e-002 +1.531643157e+000 +1.531643157e+000 +3.9572e+000 -1.9872e+000
237 0 +1.205060667e-002 +1.502050607e+000 +1.502050607e+000 +3.9464e+000 -1.8980e+000
246 0 +8.635812643e-003 +1.498635813e+000 +1.498635813e+000 +3.9530e+000 -1.8899e+000
247 0 +4.401632056e-003 +1.494401632e+000 +1.494401632e+000 +3.9526e+000 -1.8663e+000
251 0 +5.147549136e-004 +1.490514755e+000 +1.490514755e+000 +3.9535e+000 -1.8357e+000
252 0 +2.610633590e-004 +1.490261063e+000 +1.490261063e+000 +3.9544e+000 -1.8312e+000
267 0 +1.042316489e-004 +1.490104232e+000 +1.490104232e+000 +3.9541e+000 -1.8274e+000
347 0 +7.449941327e-005 +1.490074499e+000 +1.490074499e+000 +3.9546e+000 -1.8226e+000
352 0 +5.004272696e-005 +1.490050043e+000 +1.490050043e+000 +3.9544e+000 -1.8255e+000
354 0 +3.232420141e-005 +1.490032324e+000 +1.490032324e+000 +3.9545e+000 -1.8249e+000
359 0 +1.062256592e-005 +1.490010623e+000 +1.490010623e+000 +3.9546e+000 -1.8233e+000
370 0 +9.150451064e-006 +1.490009150e+000 +1.490009150e+000 +3.9546e+000 -1.8232e+000
410 0 +8.829537401e-006 +1.490008830e+000 +1.490008830e+000 +3.9546e+000 -1.8231e+000
411 0 +8.694998596e-006 +1.490008695e+000 +1.490008695e+000 +3.9546e+000 -1.8231e+000
445 0 +8.412485766e-006 +1.490008412e+000 +1.490008412e+000 +3.9546e+000 -1.8231e+000
456 0 +8.098051225e-006 +1.490008098e+000 +1.490008098e+000 +3.9546e+000 -1.8230e+000
457 0 +5.127597246e-006 +1.490005128e+000 +1.490005128e+000 +3.9543e+000 -1.8226e+000
460 0 +4.142166878e-006 +1.490004142e+000 +1.490004142e+000 +3.9544e+000 -1.8226e+000
462 0 +9.356885338e-007 +1.490000936e+000 +1.490000936e+000 +3.9544e+000 -1.8221e+000
466 0 +8.923799246e-007 +1.490000892e+000 +1.490000892e+000 +3.9544e+000 -1.8220e+000
470 0 +8.753439462e-007 +1.490000875e+000 +1.490000875e+000 +3.9544e+000 -1.8220e+000
476 0 +5.577685847e-008 +1.490000056e+000 +1.490000056e+000 +3.9544e+000 -1.8217e+000
496 0 +5.460936836e-008 +1.490000055e+000 +1.490000055e+000 +3.9544e+000 -1.8217e+000
513 0 +2.719833025e-008 +1.490000027e+000 +1.490000027e+000 +3.9544e+000 -1.8217e+000
518 0 +1.490906820e-008 +1.490000015e+000 +1.490000015e+000 +3.9544e+000 -1.8216e+000
534 0 +5.759880795e-009 +1.490000006e+000 +1.490000006e+000 +3.9544e+000 -1.8216e+000
% f evaluations | g evaluations | best noise-free fitness - Fopt (5.963500000000e+002) + sum g_i+ | measured fitness | best measured fitness or single-digit g-values | x1 | x2...
1 0 +3.350063365e+004 +3.409698365e+004 +3.409698365e+004 -2.8561e+000 +8.0285e-001
7 0 +9.139864629e+001 +6.877486463e+002 +6.877486463e+002 +4.3266e-001 -3.9080e+000
10 0 +1.521657173e+001 +6.115665717e+002 +6.115665717e+002 -2.7610e+000 -1.6392e+000
15 0 +1.345992502e+001 +6.098099250e+002 +6.098099250e+002 -1.3468e+000 -1.4399e+000
53 0 +1.281807176e+001 +6.091680718e+002 +6.091680718e+002 -1.1547e+000 -1.3451e+000
68 0 +8.576365850e+000 +6.049263659e+002 +6.049263659e+002 -4.6328e+000 -1.1346e+000
72 0 +4.463166403e+000 +6.008131664e+002 +6.008131664e+002 -4.5104e+000 -8.0548e-001
84 0 +2.186664903e+000 +5.985366649e+002 +5.985366649e+002 -4.7284e+000 -4.5564e-001
113 0 +1.351949346e+000 +5.977019493e+002 +5.977019493e+002 -4.2670e+000 -4.4485e-001
117 0 +7.474254968e-001 +5.970974255e+002 +5.970974255e+002 -4.3644e+000 -3.0481e-001
126 0 +4.865135111e-001 +5.968365135e+002 +5.968365135e+002 -4.0814e+000 -3.1357e-001
128 0 +4.539046965e-001 +5.968039047e+002 +5.968039047e+002 -3.8700e+000 -3.4814e-001
144 0 +4.156980790e-001 +5.967656981e+002 +5.967656981e+002 -3.8590e+000 -3.3857e-001
148 0 +3.685392591e-001 +5.967185393e+002 +5.967185393e+002 -3.4073e+000 -3.2220e-001
150 0 +3.391180530e-001 +5.966891181e+002 +5.966891181e+002 -3.9697e+000 -2.8773e-001
159 0 +3.383537223e-001 +5.966883537e+002 +5.966883537e+002 -4.0820e+000 -2.5288e-001
168 0 +8.011634976e-002 +5.964301163e+002 +5.964301163e+002 -3.8368e+000 -2.0887e-001
187 0 +4.164896642e-002 +5.963916490e+002 +5.963916490e+002 -3.7960e+000 -1.8740e-001
190 0 +9.014494643e-003 +5.963590145e+002 +5.963590145e+002 -3.7270e+000 -1.7027e-001
191 0 +5.264811898e-003 +5.963552648e+002 +5.963552648e+002 -3.7179e+000 -1.6549e-001
224 0 +1.559581663e-003 +5.963515596e+002 +5.963515596e+002 -3.6764e+000 -1.6330e-001
225 0 +1.470342889e-003 +5.963514703e+002 +5.963514703e+002 -3.6830e+000 -1.6258e-001
232 0 +8.480993100e-004 +5.963508481e+002 +5.963508481e+002 -3.6909e+000 -1.5833e-001
270 0 +6.664801459e-004 +5.963506665e+002 +5.963506665e+002 -3.6900e+000 -1.5778e-001
276 0 +2.713326868e-004 +5.963502713e+002 +5.963502713e+002 -3.6854e+000 -1.5634e-001
278 0 +2.588416608e-004 +5.963502588e+002 +5.963502588e+002 -3.6849e+000 -1.5617e-001
296 0 +1.660067899e-004 +5.963501660e+002 +5.963501660e+002 -3.6841e+000 -1.5578e-001
299 0 +1.632218075e-004 +5.963501632e+002 +5.963501632e+002 -3.6839e+000 -1.5579e-001
300 0 +1.529028272e-004 +5.963501529e+002 +5.963501529e+002 -3.6837e+000 -1.5571e-001
306 0 +1.101930392e-004 +5.963501102e+002 +5.963501102e+002 -3.6826e+000 -1.5544e-001
322 0 +9.675360207e-005 +5.963500968e+002 +5.963500968e+002 -3.6761e+000 -1.5627e-001
325 0 +9.144463172e-005 +5.963500914e+002 +5.963500914e+002 -3.6757e+000 -1.5618e-001
327 0 +7.705506368e-005 +5.963500771e+002 +5.963500771e+002 -3.6760e+000 -1.5602e-001
337 0 +6.939171590e-005 +5.963500694e+002 +5.963500694e+002 -3.6761e+000 -1.5594e-001
338 0 +6.543724135e-005 +5.963500654e+002 +5.963500654e+002 -3.6759e+000 -1.5588e-001
341 0 +5.040664985e-005 +5.963500504e+002 +5.963500504e+002 -3.6801e+000 -1.5530e-001
342 0 +4.889289289e-005 +5.963500489e+002 +5.963500489e+002 -3.6792e+000 -1.5546e-001
344 0 +4.417015680e-005 +5.963500442e+002 +5.963500442e+002 -3.6789e+000 -1.5546e-001
345 0 +3.385629918e-005 +5.963500339e+002 +5.963500339e+002 -3.6786e+000 -1.5540e-001
347 0 +2.995260127e-005 +5.963500300e+002 +5.963500300e+002 -3.6800e+000 -1.5494e-001
356 0 +1.564116326e-005 +5.963500156e+002 +5.963500156e+002 -3.6765e+000 -1.5500e-001
357 0 +7.142744948e-006 +5.963500071e+002 +5.963500071e+002 -3.6769e+000 -1.5479e-001
373 0 +4.050627922e-006 +5.963500041e+002 +5.963500041e+002 -3.6771e+000 -1.5469e-001
398 0 +2.169130198e-006 +5.963500022e+002 +5.963500022e+002 -3.6772e+000 -1.5461e-001
409 0 +1.819537715e-006 +5.963500018e+002 +5.963500018e+002 -3.6772e+000 -1.5459e-001
424 0 +5.430633792e-007 +5.963500005e+002 +5.963500005e+002 -3.6774e+000 -1.5449e-001
451 0 +4.496436077e-007 +5.963500004e+002 +5.963500004e+002 -3.6775e+000 -1.5449e-001
457 0 +4.284313491e-007 +5.963500004e+002 +5.963500004e+002 -3.6775e+000 -1.5449e-001
466 0 +4.180394626e-007 +5.963500004e+002 +5.963500004e+002 -3.6775e+000 -1.5448e-001
467 0 +3.882066721e-007 +5.963500004e+002 +5.963500004e+002 -3.6775e+000 -1.5448e-001
478 0 +2.518841029e-007 +5.963500003e+002 +5.963500003e+002 -3.6775e+000 -1.5446e-001
482 0 +1.853680942e-007 +5.963500002e+002 +5.963500002e+002 -3.6775e+000 -1.5445e-001
487 0 +5.101856004e-008 +5.963500001e+002 +5.963500001e+002 -3.6776e+000 -1.5443e-001
493 0 +2.991305337e-008 +5.963500000e+002 +5.963500000e+002 -3.6776e+000 -1.5442e-001
494 0 +1.118291948e-008 +5.963500000e+002 +5.963500000e+002 -3.6776e+000 -1.5441e-001
495 0 +1.070861799e-008 +5.963500000e+002 +5.963500000e+002 -3.6776e+000 -1.5441e-001
551 0 +7.660446499e-009 +5.963500000e+002 +5.963500000e+002 -3.6776e+000 -1.5441e-001
% f evaluations | g evaluations | best noise-free fitness - Fopt (-1.189700000000e+002) + sum g_i+ | measured fitness | best measured fitness or single-digit g-values | x1 | x2...
1 0 +8.137389742e+001 -3.759610258e+001 -3.759610258e+001 -4.8442e+000 -4.2697e-001
2 0 +3.575568575e+001 -8.321431425e+001 -8.321431425e+001 +4.8186e-002 +1.8222e+000
19 0 +2.470016768e+001 -9.426983232e+001 -9.426983232e+001 -4.8820e+000 +1.5343e+000
41 0 +2.351894450e+001 -9.545105550e+001 -9.545105550e+001 -4.9955e+000 +1.7022e+000
48 0 +2.069456740e+001 -9.827543260e+001 -9.827543260e+001 -4.8893e+000 +1.9634e+000
50 0 +1.177290483e+001 -1.071970952e+002 -1.071970952e+002 -3.3013e+000 +2.4269e+000
55 0 +7.428363164e+000 -1.115416368e+002 -1.115416368e+002 -5.6864e-001 +2.9786e+000
63 0 +3.912117590e+000 -1.150578824e+002 -1.150578824e+002 -2.9672e+000 +3.1255e+000
66 0 +3.071431465e+000 -1.158985685e+002 -1.158985685e+002 -2.7123e+000 +3.1962e+000
68 0 +1.259437215e+000 -1.177105628e+002 -1.177105628e+002 -1.1124e+000 +3.5192e+000
86 0 +3.915821844e-001 -1.185784178e+002 -1.185784178e+002 -1.3681e+000 +3.6322e+000
91 0 +1.209988611e-001 -1.188490011e+002 -1.188490011e+002 -1.4465e+000 +3.7478e+000
102 0 +9.985829953e-002 -1.188701417e+002 -1.188701417e+002 -1.4296e+000 +3.7536e+000
180 0 +8.508677888e-002 -1.188849132e+002 -1.188849132e+002 -1.4352e+000 +3.7679e+000
190 0 +7.470493737e-002 -1.188952951e+002 -1.188952951e+002 -1.3811e+000 +3.7736e+000
193 0 +7.353316506e-002 -1.188964668e+002 -1.188964668e+002 -1.3806e+000 +3.7746e+000
195 0 +6.862182401e-002 -1.189013782e+002 -1.189013782e+002 -1.3960e+000 +3.7860e+000
218 0 +2.599712224e-002 -1.189440029e+002 -1.189440029e+002 -1.2174e+000 +3.8041e+000
227 0 +2.483582925e-002 -1.189451642e+002 -1.189451642e+002 -1.2208e+000 +3.8048e+000
237 0 +1.026459691e-002 -1.189597354e+002 -1.189597354e+002 -1.2265e+000 +3.8211e+000
247 0 +2.591145110e-003 -1.189674089e+002 -1.189674089e+002 -1.2208e+000 +3.8369e+000
254 0 +2.561741799e-003 -1.189674383e+002 -1.189674383e+002 -1.2193e+000 +3.8370e+000
272 0 +1.561506414e-003 -1.189684385e+002 -1.189684385e+002 -1.2129e+000 +3.8406e+000
286 0 +5.337145777e-004 -1.189694663e+002 -1.189694663e+002 -1.2096e+000 +3.8456e+000
291 0 +4.947780752e-004 -1.189695052e+002 -1.189695052e+002 -1.1983e+000 +3.8465e+000
294 0 +2.245080940e-004 -1.189697755e+002 -1.189697755e+002 -1.1995e+000 +3.8479e+000
302 0 +2.591329520e-005 -1.189699741e+002 -1.189699741e+002 -1.1979e+000 +3.8503e+000
308 0 +8.394490166e-006 -1.189699916e+002 -1.189699916e+002 -1.1981e+000 +3.8506e+000
314 0 +6.541614994e-006 -1.189699935e+002 -1.189699935e+002 -1.1976e+000 +3.8508e+000
327 0 +4.218385257e-006 -1.189699958e+002 -1.189699958e+002 -1.1973e+000 +3.8509e+000
406 0 +2.962659238e-007 -1.189699997e+002 -1.189699997e+002 -1.1976e+000 +3.8511e+000
460 0 +2.127929974e-007 -1.189699998e+002 -1.189699998e+002 -1.1975e+000 +3.8511e+000
523 0 +2.080394381e-007 -1.189699998e+002 -1.189699998e+002 -1.1976e+000 +3.8511e+000
535 0 +1.685685334e-007 -1.189699998e+002 -1.189699998e+002 -1.1976e+000 +3.8511e+000
536 0 +1.521478765e-007 -1.189699998e+002 -1.189699998e+002 -1.1976e+000 +3.8511e+000
537 0 +1.204398643e-007 -1.189699999e+002 -1.189699999e+002 -1.1976e+000 +3.8511e+000
541 0 +1.189844596e-007 -1.189699999e+002 -1.189699999e+002 -1.1976e+000 +3.8512e+000
543 0 +1.018383671e-007 -1.189699999e+002 -1.189699999e+002 -1.1976e+000 +3.8512e+000
544 0 +7.076694430e-008 -1.189699999e+002 -1.189699999e+002 -1.1977e+000 +3.8512e+000
552 0 +5.963283911e-008 -1.189699999e+002 -1.189699999e+002 -1.1977e+000 +3.8512e+000
553 0 +5.854761298e-008 -1.189699999e+002 -1.189699999e+002 -1.1977e+000 +3.8512e+000
561 0 +5.692335492e-008 -1.189699999e+002 -1.189699999e+002 -1.1976e+000 +3.8512e+000
562 0 +3.024017303e-008 -1.189700000e+002 -1.189700000e+002 -1.1976e+000 +3.8512e+000
570 0 +7.546034908e-009 -1.189700000e+002 -1.189700000e+002 -1.1976e+000 +3.8512e+000
