% f evaluations | g evaluations | best noise-free fitness - Fopt (9.294000000000e+001) + sum g_i+ | measured fitness | best measured fitness or single-digit g-values | x1 | x2...
1 0 +2.761339316e+001 +1.205533932e+002 +1.205533932e+002 -5.0000e+000 +5.0000e+000
4 0 +1.515148247e+001 +1.080914825e+002 +1.080914825e+002 -4.7868e+000 +4.9838e+000
8 0 +1.510505880e+001 +1.080450588e+002 +1.080450588e+002 -4.3756e+000 +5.0000e+000
11 0 +1.000077359e+001 +1.029407736e+002 +1.029407736e+002 -4.6432e+000 +5.0000e+000
20 0 +7.766467311e+000 +1.007064673e+002 +1.007064673e+002 -4.1727e+000 +5.0000e+000
36 0 +7.739077629e+000 +1.006790776e+002 +1.006790776e+002 -3.6995e+000 +4.9997e+000
193 0 +6.733992210e+000 +9.967399221e+001 +9.967399221e+001 -3.5058e+000 +4.2559e+000
231 0 +4.518719924e+000 +9.745871992e+001 +9.745871992e+001 -3.2786e+000 +4.2813e+000
379 0 +2.500193398e+000 +9.544019340e+001 +9.544019340e+001 -2.7526e+000 +3.5275e+000
415 0 +2.068633887e+000 +9.500863389e+001 +9.500863389e+001 -1.4642e+000 +1.8318e+000
419 0 +1.683498053e+000 +9.462349805e+001 +9.462349805e+001 -1.5431e+000 +1.9366e+000
429 0 +6.009155901e-001 +9.354091559e+001 +9.354091559e+001 -7.1101e-001 +1.5891e+000
447 0 +3.315793955e-001 +9.327157940e+001 +9.327157940e+001 -9.0171e-002 +4.7070e-001
459 0 +9.614649442e-002 +9.303614649e+001 +9.303614649e+001 +3.4179e-002 +3.6882e-001
460 0 +5.408240311e-002 +9.299408240e+001 +9.299408240e+001 -5.0810e-002 +5.0433e-001
466 0 +2.500193398e-002 +9.296500193e+001 +9.296500193e+001 -4.2879e-001 +9.4460e-001
492 0 +1.683498053e-002 +9.295683498e+001 +9.295683498e+001 -3.7887e-001 +8.8152e-001
609 0 +6.009155901e-003 +9.294600916e+001 +9.294600916e+001 -2.7516e-001 +8.2263e-001
743 0 +3.982917036e-007 +9.294000040e+001 +9.294000040e+001 -2.3878e-001 +7.7359e-001
744 0 +3.666290525e-007 +9.294000037e+001 +9.294000037e+001 -2.3409e-001 +7.7194e-001
746 0 +2.371517382e-007 +9.294000024e+001 +9.294000024e+001 -2.2582e-001 +7.6119e-001
751 0 +2.333105869e-007 +9.294000023e+001 +9.294000023e+001 -2.2549e-001 +7.6090e-001
754 0 +2.247206083e-007 +9.294000022e+001 +9.294000022e+001 -2.2492e-001 +7.6020e-001
760 0 +1.725273506e-007 +9.294000017e+001 +9.294000017e+001 -2.2146e-001 +7.5591e-001
761 0 +2.559374934e-008 +9.294000003e+001 +9.294000003e+001 -2.1178e-001 +7.4381e-001
826 0 +1.782647985e-008 +9.294000002e+001 +9.294000002e+001 -2.2549e-001 +7.3414e-001
828 0 +1.100630698e-010 +9.294000000e+001 +9.294000000e+001 -2.2667e-001 +7.3562e-001
% f evaluations | g evaluations | best noise-free fitness - Fopt (3.535000000000e+001) + sum g_i+ | measured fitness | best measured fitness or single-digit g-values | x1 | x2...
1 0 +5.489166796e+002 +5.842666796e+002 +5.842666796e+002 +5.0000e+000 -5.0000e+000
2 0 +7.839954878e+001 +1.137495488e+002 +1.137495488e+002 -5.0000e+000 -5.0000e+000
3 0 +1.781996901e+001 +5.316996901e+001 +5.316996901e+001 +5.0000e+000 +5.0000e+000
9 0 +1.304061272e+001 +4.839061272e+001 +4.839061272e+001 +7.7770e-001 -1.3688e+000
20 0 +6.675985345e+000 +4.202598534e+001 +4.202598534e+001 +3.0819e+000 +2.1416e+000
21 0 +3.260153181e+000 +3.861015318e+001 +3.861015318e+001 +2.2427e+000 +2.6052e+000
22 0 +2.642512041e+000 +3.799251204e+001 +3.799251204e+001 +2.6074e+000 +3.3301e+000
82 0 +6.170689391e-001 +3.596706894e+001 +3.596706894e+001 +1.8441e+000 +1.9580e+000
85 0 +4.467343819e-001 +3.579673438e+001 +3.579673438e+001 +1.2393e+000 +9.3131e-001
102 0 +3.836094924e-001 +3.573360949e+001 +3.573360949e+001 +1.4014e+000 +1.3145e+000
104 0 +1.504826389e-001 +3.550048264e+001 +3.550048264e+001 +1.4433e+000 +1.2531e+000
167 0 +1.116835955e-001 +3.546168360e+001 +3.546168360e+001 +1.4342e+000 +1.1731e+000
231 0 +6.137751879e-002 +3.541137752e+001 +3.541137752e+001 +1.6426e+000 +1.4795e+000
245 0 +3.452485432e-002 +3.538452485e+001 +3.538452485e+001 +1.6609e+000 +1.4409e+000
246 0 +3.836094924e-003 +3.535383609e+001 +3.535383609e+001 +1.7382e+000 +1.4553e+000
277 0 +3.735025587e-007 +3.535000037e+001 +3.535000037e+001 +1.7588e+000 +1.5241e+000
327 0 +3.248644305e-007 +3.535000032e+001 +3.535000032e+001 +1.7510e+000 +1.5163e+000
333 0 +2.591107489e-007 +3.535000026e+001 +3.535000026e+001 +1.7433e+000 +1.5068e+000
337 0 +2.565359480e-007 +3.535000026e+001 +3.535000026e+001 +1.7423e+000 +1.5061e+000
340 0 +1.978965258e-007 +3.535000020e+001 +3.535000020e+001 +1.7601e+000 +1.5060e+000
344 0 +1.843646515e-007 +3.535000018e+001 +3.535000018e+001 +1.7634e+000 +1.5057e+000
350 0 +9.779001431e-008 +3.535000010e+001 +3.535000010e+001 +1.7719e+000 +1.4994e+000
352 0 +1.567492802e-009 +3.535000000e+001 +3.535000000e+001 +1.7694e+000 +1.4884e+000
% f evaluations | g evaluations | best noise-free fitness - Fopt (3.820000000000e+000) + sum g_i+ | measured fitness | best measured fitness or single-digit g-values | x1 | x2...
1 0 +7.613913510e+003 +7.617733510e+003 +7.617733510e+003 -5.0000e+000 +5.0000e+000
2 0 +9.104910654e+000 +1.292491065e+001 +1.292491065e+001 +5.0000e+000 +5.0000e+000
14 0 +4.651505258e+000 +8.471505258e+000 +8.471505258e+000 +2.8339e+000 -4.2256e+000
32 0 +3.292525451e-001 +4.149252545e+000 +4.149252545e+000 +4.0212e+000 +9.5019e-001
37 0 +3.157496996e-001 +4.135749700e+000 +4.135749700e+000 +4.0581e+000 +1.1668e+000
51 0 +2.206257509e-002 +3.842062575e+000 +3.842062575e+000 +4.0048e+000 +1.1058e+000
57 0 +1.996759007e-002 +3.839967590e+000 +3.839967590e+000 +4.0413e+000 +1.2866e+000
71 0 +2.775607402e-007 +3.820000278e+000 +3.820000278e+000 +3.9943e+000 +1.2054e+000
184 0 +1.657913193e-007 +3.820000166e+000 +3.820000166e+000 +3.9866e+000 +1.1612e+000
186 0 +9.519022059e-008 +3.820000095e+000 +3.820000095e+000 +3.9878e+000 +1.1683e+000
188 0 +5.002379577e-008 +3.820000050e+000 +3.820000050e+000 +3.9910e+000 +1.1727e+000
219 0 +1.385343262e-008 +3.820000014e+000 +3.820000014e+000 +3.9937e+000 +1.1763e+000
241 0 +1.374676684e-008 +3.820000014e+000 +3.820000014e+000 +3.9940e+000 +1.1790e+000
258 0 +5.129456859e-009 +3.820000005e+000 +3.820000005e+000 +3.9938e+000 +1.1782e+000
% f evaluations | g evaluations | best noise-free fitness - Fopt (2.175000000000e+001) + sum g_i+ | measured fitness | best measured fitness or single-digit g-values | x1 | x2...
1 0 +4.075043345e+002 +4.292543345e+002 +4.292543345e+002 +5.0000e+000 +5.0000e+000
2 0 +1.889385967e+002 +2.106885967e+002 +2.106885967e+002 -5.0000e+000 +5.0000e+000
5 0 +2.046229122e+001 +4.221229122e+001 +4.221229122e+001 -1.5156e+000 +5.0000e+000
7 0 +1.469823782e+000 +2.321982378e+001 +2.321982378e+001 +2.5904e+000 +1.3958e+000
36 0 +5.004431004e-001 +2.225044310e+001 +2.225044310e+001 +3.5525e+000 +1.2426e+000
52 0 +1.382233010e-001 +2.188822330e+001 +2.188822330e+001 +3.6858e+000 +8.2561e-001
72 0 +1.171918942e-001 +2.186719189e+001 +2.186719189e+001 +4.2160e+000 +5.3766e-001
163 0 +6.143257824e-002 +2.181143258e+001 +2.181143258e+001 +3.7006e+000 +8.6355e-001
171 0 +3.127769378e-002 +2.178127769e+001 +2.178127769e+001 +3.8127e+000 +7.7222e-001
192 0 +4.294359144e-007 +2.175000043e+001 +2.175000043e+001 +3.7677e+000 +8.4614e-001
224 0 +3.996842395e-007 +2.175000040e+001 +2.175000040e+001 +3.7649e+000 +8.4857e-001
235 0 +3.740467598e-007 +2.175000037e+001 +2.175000037e+001 +3.7626e+000 +8.5068e-001
257 0 +2.313633445e-007 +2.175000023e+001 +2.175000023e+001 +3.7625e+000 +8.6528e-001
274 0 +2.159338095e-007 +2.175000022e+001 +2.175000022e+001 +3.7625e+000 +8.6685e-001
277 0 +1.178921494e-007 +2.175000012e+001 +2.175000012e+001 +3.7638e+000 +8.7721e-001
281 0 +1.008026977e-007 +2.175000010e+001 +2.175000010e+001 +3.7637e+000 +8.7894e-001
284 0 +9.246832278e-008 +2.175000009e+001 +2.175000009e+001 +3.7761e+000 +9.0152e-001
285 0 +3.849456576e-008 +2.175000004e+001 +2.175000004e+001 +3.7811e+000 +8.9709e-001
299 0 +1.449947007e-008 +2.175000001e+001 +2.175000001e+001 +3.7631e+000 +8.9061e-001
311 0 +1.070408828e-008 +2.175000001e+001 +2.175000001e+001 +3.7817e+000 +8.9218e-001
377 0 +6.848576817e-009 +2.175000001e+001 +2.175000001e+001 +3.7838e+000 +8.9445e-001
% f evaluations | g evaluations | best noise-free fitness - Fopt (6.479000000000e+001) + sum g_i+ | measured fitness | best measured fitness or single-digit g-values | x1 | x2...
1 0 +8.082070319e+002 +8.729970319e+002 +8.729970319e+002 +5.0000e+000 -5.0000e+000
4 0 +6.704897734e+002 +7.352797734e+002 +7.352797734e+002 +4.4743e+000 -5.0000e+000
5 0 +1.440010729e+002 +2.087910729e+002 +2.087910729e+002 +2.7075e+000 -5.0000e+000
7 0 +6.735985544e+001 +1.321498554e+002 +1.321498554e+002 +4.4905e-001 -3.5617e+000
15 0 +4.156444600e+001 +1.063544460e+002 +1.063544460e+002 +3.9836e-001 -3.6664e+000
28 0 +3.839887765e+001 +1.031888776e+002 +1.031888776e+002 +3.8469e-001 -3.6835e+000
31 0 +1.979872827e+000 +6.676987283e+001 +6.676987283e+001 -3.1827e-001 -3.6814e+000
63 0 +1.614125784e+000 +6.640412578e+001 +6.640412578e+001 +4.9824e-001 -4.5879e+000
387 0 +4.852012717e-001 +6.527520127e+001 +6.527520127e+001 -2.0018e+000 -2.0879e+000
410 0 +2.521506608e-002 +6.481521507e+001 +6.481521507e+001 -1.9559e+000 -1.9508e+000
439 0 +6.303766521e-003 +6.479630377e+001 +6.479630377e+001 -1.9510e+000 -1.9868e+000
452 0 +1.416945423e-007 +6.479000014e+001 +6.479000014e+001 -1.8613e+000 -2.0806e+000
505 0 +2.755420780e-008 +6.479000003e+001 +6.479000003e+001 -1.8649e+000 -2.1138e+000
561 0 +1.615602230e-008 +6.479000002e+001 +6.479000002e+001 -1.8691e+000 -2.1122e+000
642 0 +8.453639566e-009 +6.479000001e+001 +6.479000001e+001 -1.8685e+000 -2.1127e+000
% f evaluations | g evaluations | best noise-free fitness - Fopt (-1.000000000000e+003) + sum g_i+ | measured fitness | best measured fitness or single-digit g-values | x1 | x2...
1 0 +7.564893350e+002 -2.435106650e+002 -2.435106650e+002 +5.0000e+000 +5.0000e+000
4 0 +3.745207988e+002 -6.254792012e+002 -6.254792012e+002 +4.5077e+000 +3.7713e+000
5 0 +2.416431430e+002 -7.583568570e+002 -7.583568570e+002 +4.9101e+000 +3.5436e+000
6 0 +9.732381890e+000 -9.902676181e+002 -9.902676181e+002 +5.0000e+000 +1.9517e+000
17 0 +8.356180067e+000 -9.916438199e+002 -9.916438199e+002 +4.1007e+000 +1.3808e+000
61 0 +5.414562181e+000 -9.945854378e+002 -9.945854378e+002 +3.1346e+000 +1.2611e+000
108 0 +4.949273035e+000 -9.950507270e+002 -9.950507270e+002 +1.2588e+000 +3.3871e-001
131 0 +4.325503062e+000 -9.956744969e+002 -9.956744969e+002 +1.8161e+000 +6.8762e-001
134 0 +2.089045017e+000 -9.979109550e+002 -9.979109550e+002 -3.7626e-001 -7.3317e-002
139 0 +1.081375766e+000 -9.989186242e+002 -9.989186242e+002 -7.7125e-001 -2.3054e-001
149 0 +2.383141102e-001 -9.997616859e+002 -9.997616859e+002 -3.6714e+000 -1.2758e+000
167 0 +1.090283088e-001 -9.998909717e+002 -9.998909717e+002 -4.6622e+000 -1.5860e+000
272 0 +2.089045017e-002 -9.999791095e+002 -9.999791095e+002 -3.4819e+000 -1.1430e+000
286 0 +1.926265282e-002 -9.999807373e+002 -9.999807373e+002 -3.7221e+000 -1.2272e+000
295 0 +9.262793837e-003 -9.999907372e+002 -9.999907372e+002 -3.8026e+000 -1.2568e+000
338 0 +1.057275085e-007 -9.999999999e+002 -9.999999999e+002 -3.8838e+000 -1.2855e+000
360 0 +2.292927093e-008 -1.000000000e+003 -1.000000000e+003 -3.8949e+000 -1.2941e+000
387 0 +1.612136202e-008 -1.000000000e+003 -1.000000000e+003 -3.8886e+000 -1.3027e+000
396 0 +3.657987691e-009 -1.000000000e+003 -1.000000000e+003 -3.8923e+000 -1.2961e+000
% f evaluations | g evaluations | best noise-free fitness - Fopt (1.640700000000e+002) + sum g_i+ | measured fitness | best measured fitness or single-digit g-values | x1 | x2...
1 0 +1.649551407e+002 +3.290251407e+002 +3.290251407e+002 +5.0000e+000 -5.0000e+000
6 0 +5.460258015e+001 +2.186725802e+002 +2.186725802e+002 -4.2965e-001 +4.3479e+000
9 0 +5.267343866e+001 +2.167434387e+002 +2.167434387e+002 +1.0372e+000 -2.9502e+000
15 0 +5.006265239e+001 +2.141326524e+002 +2.141326524e+002 +1.3097e+000 -3.3149e+000
25 0 +1.709573372e-001 +1.642409573e+002 +1.642409573e+002 -2.0829e+000 +3.7427e+000
109 0 +3.863834918e-002 +1.641086383e+002 +1.641086383e+002 -2.1426e+000 +3.8585e+000
112 0 +2.650334591e-002 +1.640965033e+002 +1.640965033e+002 -2.0227e+000 +3.7891e+000
150 0 +1.717259963e-002 +1.640871726e+002 +1.640871726e+002 -2.1631e+000 +3.8808e+000
153 0 +4.293149909e-003 +1.640742931e+002 +1.640742931e+002 -2.1819e+000 +3.9055e+000
159 0 +3.849081054e-007 +1.640700004e+002 +1.640700004e+002 -2.1204e+000 +3.9298e+000
191 0 +3.633731751e-007 +1.640700004e+002 +1.640700004e+002 -2.1225e+000 +3.9311e+000
211 0 +2.636443241e-007 +1.640700003e+002 +1.640700003e+002 -2.1323e+000 +3.9353e+000
236 0 +2.571117079e-007 +1.640700003e+002 +1.640700003e+002 -2.1329e+000 +3.9362e+000
242 0 +2.327663253e-007 +1.640700002e+002 +1.640700002e+002 -2.1352e+000 +3.9395e+000
259 0 +1.022849858e-007 +1.640700001e+002 +1.640700001e+002 -2.1480e+000 +3.9444e+000
265 0 +8.718049571e-008 +1.640700001e+002 +1.640700001e+002 -2.1665e+000 +3.9545e+000
275 0 +4.667259645e-008 +1.640700000e+002 +1.640700000e+002 -2.1534e+000 +3.9474e+000
305 0 +4.043857871e-008 +1.640700000e+002 +1.640700000e+002 -2.1542e+000 +3.9449e+000
324 0 +2.739736260e-008 +1.640700000e+002 +1.640700000e+002 -2.1557e+000 +3.9396e+000
336 0 +1.041792075e-008 +1.640700000e+002 +1.640700000e+002 -2.1574e+000 +3.9393e+000
340 0 +3.319001962e-009 +1.640700000e+002 +1.640700000e+002 -2.1589e+000 +3.9372e+000
% f evaluations | g evaluations | best noise-free fitness - Fopt (-1.656800000000e+002) + sum g_i+ | measured fitness | best measured fitness or single-digit g-values | x1 | x2...
1 0 +3.883944931e+003 +3.718264931e+003 +3.718264931e+003 +5.0000e+000 +5.0000e+000
2 0 +1.458289023e+003 +1.292609023e+003 +1.292609023e+003 -5.0000e+000 +5.0000e+000
5 0 +1.442106543e+003 +1.276426543e+003 +1.276426543e+003 -5.0000e+000 -9.5712e-001
6 0 +2.259802864e+002 +6.030028641e+001 +6.030028641e+001 +1.3840e-001 +4.2155e+000
7 0 +3.428795179e+000 -1.622512048e+002 -1.622512048e+002 -1.0567e+000 -4.2185e+000
9 0 +2.266426865e+000 -1.634135731e+002 -1.634135731e+002 -1.0786e+000 -3.3492e+000
11 0 +1.372550646e+000 -1.643074494e+002 -1.643074494e+002 -1.0872e+000 -2.8752e+000
37 0 +1.208214428e+000 -1.644717856e+002 -1.644717856e+002 -9.9093e-001 -3.1417e+000
69 0 +5.369841902e-001 -1.651430158e+002 -1.651430158e+002 -1.0220e+000 -2.9579e+000
70 0 +1.342460476e-001 -1.655457540e+002 -1.655457540e+002 -1.0530e+000 -1.7391e+000
130 0 +1.204916804e-001 -1.655595083e+002 -1.655595083e+002 -1.0067e+000 -1.6629e+000
136 0 +9.756862339e-002 -1.655824314e+002 -1.655824314e+002 -1.0391e+000 -4.9807e-001
141 0 +1.372550646e-002 -1.656662745e+002 -1.656662745e+002 -1.0706e+000 -6.6804e-001
166 0 +3.431376615e-003 -1.656765686e+002 -1.656765686e+002 -1.0701e+000 -6.0837e-001
276 0 +4.605771835e-007 -1.656799995e+002 -1.656799995e+002 -1.0694e+000 -5.0669e-001
279 0 +3.344784147e-007 -1.656799997e+002 -1.656799997e+002 -1.0690e+000 -4.9408e-001
287 0 +6.813465347e-008 -1.656799999e+002 -1.656799999e+002 -1.0685e+000 -4.6745e-001
296 0 +5.174300099e-008 -1.656799999e+002 -1.656799999e+002 -1.0694e+000 -4.6580e-001
322 0 +2.807911414e-008 -1.656800000e+002 -1.656800000e+002 -1.0684e+000 -4.5783e-001
332 0 +7.441514072e-009 -1.656800000e+002 -1.656800000e+002 -1.0682e+000 -4.6138e-001
% f evaluations | g evaluations | best noise-free fitness - Fopt (9.284000000000e+001) + sum g_i+ | measured fitness | best measured fitness or single-digit g-values | x1 | x2...
1 0 +3.871464973e+003 +3.964304973e+003 +3.964304973e+003 -5.0000e+000 +5.0000e+000
2 0 +9.620089261e+002 +1.054848926e+003 +1.054848926e+003 +5.0000e+000 +5.0000e+000
3 0 +2.831021865e+001 +1.211502187e+002 +1.211502187e+002 -5.0000e+000 -5.0000e+000
5 0 +7.373607686e+000 +1.002136077e+002 +1.002136077e+002 -2.9764e+000 -5.0000e+000
62 0 +7.100435425e+000 +9.994043542e+001 +9.994043542e+001 -2.1302e+000 -4.2687e+000
71 0 +4.373111862e+000 +9.721311186e+001 +9.721311186e+001 -1.6611e+000 -4.1302e+000
91 0 +2.506945585e+000 +9.534694558e+001 +9.534694558e+001 -8.6357e-001 -3.5976e+000
95 0 +1.429275311e+000 +9.426927531e+001 +9.426927531e+001 +1.5728e+000 -2.0858e+000
105 0 +1.295248911e+000 +9.413524891e+001 +9.413524891e+001 +2.1226e+000 -1.7977e+000
110 0 +7.853134090e-001 +9.362531341e+001 +9.362531341e+001 +2.0653e+000 -1.8645e+000
115 0 +5.747018362e-001 +9.341470184e+001 +9.341470184e+001 +2.1714e+000 -1.8219e+000
141 0 +2.177601675e-002 +9.286177602e+001 +9.286177602e+001 +1.8872e+000 -2.0773e+000
166 0 +5.671647740e-003 +9.284567165e+001 +9.284567165e+001 +1.9107e+000 -2.0988e+000
179 0 +1.551917421e-007 +9.284000016e+001 +9.284000016e+001 +1.9697e+000 -2.0767e+000
205 0 +1.028485173e-007 +9.284000010e+001 +9.284000010e+001 +1.9750e+000 -2.0743e+000
244 0 +7.640568356e-008 +9.284000008e+001 +9.284000008e+001 +1.9900e+000 -2.0634e+000
246 0 +2.500500784e-008 +9.284000003e+001 +9.284000003e+001 +1.9875e+000 -2.0680e+000
255 0 +1.424433549e-008 +9.284000001e+001 +9.284000001e+001 +1.9820e+000 -2.0685e+000
258 0 +7.282295655e-009 +9.284000001e+001 +9.284000001e+001 +1.9809e+000 -2.0667e+000
% f evaluations | g evaluations | best noise-free fitness - Fopt (-3.679200000000e+002) + sum g_i+ | measured fitness | best measured fitness or single-digit g-values | x1 | x2...
1 0 +6.253538948e+002 +2.574338948e+002 +2.574338948e+002 +5.0000e+000 +5.0000e+000
2 0 +2.710914685e+002 -9.682853147e+001 -9.682853147e+001 -5.0000e+000 +5.0000e+000
3 0 +1.740890827e+002 -1.938309173e+002 -1.938309173e+002 +5.0000e+000 -5.0000e+000
6 0 +1.737081239e+002 -1.942118761e+002 -1.942118761e+002 -1.4467e+000 +3.0294e+000
7 0 +4.696757708e+001 -3.209524229e+002 -3.209524229e+002 -3.6453e-001 -2.2479e+000
8 0 +1.676226012e+001 -3.511577399e+002 -3.511577399e+002 -2.1366e+000 +5.2280e-001
9 0 +3.532422918e+000 -3.643875771e+002 -3.643875771e+002 -4.8015e-001 -1.0006e+000
15 0 +2.154758430e+000 -3.657652416e+002 -3.657652416e+002 -4.3596e-001 -8.3821e-001
46 0 +1.866307685e+000 -3.660536923e+002 -3.660536923e+002 -1.0035e+000 -7.2023e-001
130 0 +1.453841650e+000 -3.664661584e+002 -3.664661584e+002 +3.9977e-001 -4.9358e-001
133 0 +1.139261857e+000 -3.667807381e+002 -3.667807381e+002 -1.0354e-001 -3.9084e-001
140 0 +9.203636736e-001 -3.669996363e+002 -3.669996363e+002 +3.1130e-001 -4.7706e-001
147 0 +4.665769212e-001 -3.674534231e+002 -3.674534231e+002 +1.3021e-001 -7.2118e-001
151 0 +1.743825989e-001 -3.677456174e+002 -3.677456174e+002 +3.0799e-001 -6.8110e-001
153 0 +8.713709952e-002 -3.678328629e+002 -3.678328629e+002 +7.8453e-001 -6.5927e-001
164 0 +5.446068720e-003 -3.679145539e+002 -3.679145539e+002 +8.3050e-001 -7.4487e-001
206 0 +2.361251745e-007 -3.679199998e+002 -3.679199998e+002 +8.4882e-001 -7.4955e-001
252 0 +1.001785677e-007 -3.679199999e+002 -3.679199999e+002 +8.4255e-001 -7.6302e-001
254 0 +9.571721193e-008 -3.679199999e+002 -3.679199999e+002 +8.4272e-001 -7.6389e-001
270 0 +6.491649174e-008 -3.679199999e+002 -3.679199999e+002 +8.4483e-001 -7.7098e-001
271 0 +1.416162831e-008 -3.679200000e+002 -3.679200000e+002 +8.3603e-001 -7.7293e-001
275 0 +1.132565330e-008 -3.679200000e+002 -3.679200000e+002 +8.3592e-001 -7.7238e-001
276 0 +2.596209470e-009 -3.679200000e+002 -3.679200000e+002 +8.3727e-001 -7.7259e-001
% f evaluations | g evaluations | best noise-free fitness - Fopt (4.950000000000e+001) + sum g_i+ | measured fitness | best measured fitness or single-digit g-values | x1 | x2...
1 0 +5.020325785e+002 +5.515325785e+002 +5.515325785e+002 -5.0000e+000 +5.0000e+000
2 0 +1.131270877e+002 +1.626270877e+002 +1.626270877e+002 +5.0000e+000 +5.0000e+000
3 0 +6.576351830e+001 +1.152635183e+002 +1.152635183e+002 -5.0000e+000 -5.0000e+000
8 0 +4.354815609e+001 +9.304815609e+001 +9.304815609e+001 -1.7247e+000 -2.9241e+000
9 0 +7.081912678e+000 +5.658191268e+001 +5.658191268e+001 -2.3090e-001 -5.8125e-001
12 0 +6.034841942e+000 +5.553484194e+001 +5.553484194e+001 -3.7675e+000 -1.7844e+000
20 0 +3.003776320e-002 +4.953003776e+001 +4.953003776e+001 -2.7450e+000 -1.4405e+000
53 0 +1.877360200e-003 +4.950187736e+001 +4.950187736e+001 -2.8350e+000 -1.4901e+000
90 0 +2.185741366e-007 +4.950000022e+001 +4.950000022e+001 -2.8662e+000 -1.5097e+000
114 0 +4.379885610e-008 +4.950000004e+001 +4.950000004e+001 -2.8441e+000 -1.5241e+000
122 0 +3.640521840e-008 +4.950000004e+001 +4.950000004e+001 -2.8424e+000 -1.5210e+000
175 0 +3.134686466e-008 +4.950000003e+001 +4.950000003e+001 -2.8455e+000 -1.5142e+000
202 0 +2.752847195e-008 +4.950000003e+001 +4.950000003e+001 -2.8496e+000 -1.5281e+000
210 0 +2.648704367e-009 +4.950000000e+001 +4.950000000e+001 -2.8597e+000 -1.5353e+000
% f evaluations | g evaluations | best noise-free fitness - Fopt (-1.277000000000e+001) + sum g_i+ | measured fitness | best measured fitness or single-digit g-values | x1 | x2...
1 0 +1.050490828e+002 +9.227908282e+001 +9.227908282e+001 +5.0000e+000 -5.0000e+000
4 0 +1.596923761e+001 +3.199237605e+000 +3.199237605e+000 +5.0000e+000 -2.8493e+000
11 0 +5.299235064e+000 -7.470764936e+000 -7.470764936e+000 +2.7099e+000 +1.6544e-001
13 0 +1.249664921e+000 -1.152033508e+001 -1.152033508e+001 +2.4729e+000 +1.4615e-001
15 0 +4.935655461e-001 -1.227643445e+001 -1.227643445e+001 +2.5509e+000 +1.1351e-001
53 0 +4.091433719e-001 -1.236085663e+001 -1.236085663e+001 +2.5016e+000 +2.3372e-001
112 0 +1.233913865e-001 -1.264660861e+001 -1.264660861e+001 +2.1863e+000 +6.4889e-001
210 0 +3.124162302e-003 -1.276687584e+001 -1.276687584e+001 +1.3775e+000 +1.7945e+000
784 0 +6.461834090e-008 -1.276999994e+001 -1.276999994e+001 +1.3193e+000 +1.8813e+000
787 0 +2.033762492e-008 -1.276999998e+001 -1.276999998e+001 +1.3248e+000 +1.8795e+000
788 0 +2.334699545e-009 -1.277000000e+001 -1.277000000e+001 +1.3257e+000 +1.8780e+000
% f evaluations | g evaluations | best noise-free fitness - Fopt (6.365000000000e+001) + sum g_i+ | measured fitness | best measured fitness or single-digit g-values | x1 | x2...
1 0 +1.212971685e+003 +1.276621685e+003 +1.276621685e+003 -5.0000e+000 +5.0000e+000
2 0 +1.092159074e+002 +1.728659074e+002 +1.728659074e+002 +5.0000e+000 +5.0000e+000
8 0 +4.814890746e+001 +1.117989075e+002 +1.117989075e+002 -2.9104e+000 +1.9103e+000
12 0 +4.063387166e+001 +1.042838717e+002 +1.042838717e+002 -3.9595e+000 +7.3281e-001
16 0 +3.971752434e+001 +1.033675243e+002 +1.033675243e+002 -4.5411e+000 +9.3476e-001
18 0 +4.362257245e+000 +6.801225725e+001 +6.801225725e+001 -3.1391e+000 +9.0312e-001
30 0 +2.295690941e-001 +6.387956909e+001 +6.387956909e+001 -3.3063e+000 +3.9899e-001
91 0 +4.667706352e-002 +6.369667706e+001 +6.369667706e+001 -2.3148e+000 +1.2147e+000
99 0 +1.547012900e-007 +6.365000015e+001 +6.365000015e+001 -2.2391e+000 +1.2281e+000
146 0 +9.026318537e-008 +6.365000009e+001 +6.365000009e+001 -2.2650e+000 +1.2162e+000
160 0 +6.797291263e-008 +6.365000007e+001 +6.365000007e+001 -2.2617e+000 +1.2167e+000
200 0 +6.540336273e-008 +6.365000007e+001 +6.365000007e+001 -2.2687e+000 +1.2218e+000
246 0 +1.625733148e-008 +6.365000002e+001 +6.365000002e+001 -2.2650e+000 +1.2252e+000
269 0 +4.752649829e-009 +6.365000000e+001 +6.365000000e+001 -2.2639e+000 +1.2259e+000
% f evaluations | g evaluations | best noise-free fitness - Fopt (6.991900000000e+002) + sum g_i+ | measured fitness | best measured fitness or single-digit g-values | x1 | x2...
1 0 +2.211079328e+003 +2.910269328e+003 +2.910269328e+003 -5.0000e+000 -5.0000e+000
2 0 +1.797995564e+003 +2.497185564e+003 +2.497185564e+003 +5.0000e+000 -5.0000e+000
6 0 +4.872849860e+002 +1.186474986e+003 +1.186474986e+003 +5.0000e+000 -5.5856e-001
11 0 +5.051796687e+001 +7.497079669e+002 +7.497079669e+002 +2.7359e+000 -1.6687e+000
12 0 +3.235910693e+000 +7.024259107e+002 +7.024259107e+002 +1.9809e+000 -2.1043e+000
64 0 +2.078633872e+000 +7.012686339e+002 +7.012686339e+002 +4.9665e+000 +4.2201e+000
67 0 +1.057202749e+000 +7.002472027e+002 +7.002472027e+002 +4.0419e+000 +2.4629e+000
87 0 +6.496613983e-001 +6.998396614e+002 +6.998396614e+002 +3.9171e+000 +2.0671e+000
91 0 +2.643006872e-001 +6.994543007e+002 +6.994543007e+002 +3.5783e+000 +1.4148e+000
107 0 +1.518303162e-001 +6.993418303e+002 +6.993418303e+002 +3.8373e+000 +1.8138e+000
156 0 +3.946543438e-002 +6.992294654e+002 +6.992294654e+002 +3.3478e+000 +8.9302e-001
238 0 +2.378706184e-002 +6.992137871e+002 +6.992137871e+002 +3.3062e+000 +8.2278e-001
252 0 +1.057202749e-002 +6.992005720e+002 +6.992005720e+002 +3.2712e+000 +7.5336e-001
257 0 +2.643006872e-003 +6.991926430e+002 +6.991926430e+002 +3.1144e+000 +4.4130e-001
327 0 +3.110561693e-007 +6.991900003e+002 +6.991900003e+002 +3.1697e+000 +5.2747e-001
353 0 +1.427379175e-007 +6.991900001e+002 +6.991900001e+002 +3.1779e+000 +5.4218e-001
378 0 +1.338204356e-007 +6.991900001e+002 +6.991900001e+002 +3.1803e+000 +5.4207e-001
381 0 +8.895153769e-008 +6.991900001e+002 +6.991900001e+002 +3.1896e+000 +5.6232e-001
384 0 +8.176175470e-008 +6.991900001e+002 +6.991900001e+002 +3.1877e+000 +5.6241e-001
385 0 +7.569008176e-008 +6.991900001e+002 +6.991900001e+002 +3.1871e+000 +5.6200e-001
393 0 +2.813317224e-008 +6.991900000e+002 +6.991900000e+002 +3.1832e+000 +5.5858e-001
411 0 +1.633975444e-008 +6.991900000e+002 +6.991900000e+002 +3.1822e+000 +5.5774e-001
418 0 +1.333785349e-008 +6.991900000e+002 +6.991900000e+002 +3.1817e+000 +5.5762e-001
439 0 +6.377149475e-009 +6.991900000e+002 +6.991900000e+002 +3.1811e+000 +5.5711e-001
% f evaluations | g evaluations | best noise-free fitness - Fopt (1.000000000000e+003) + sum g_i+ | measured fitness | best measured fitness or single-digit g-values | x1 | x2...
1 0 +2.598898422e+003 +3.598898422e+003 +3.598898422e+003 -5.0000e+000 -5.0000e+000
2 0 +2.735606488e+002 +1.273560649e+003 +1.273560649e+003 +5.0000e+000 -5.0000e+000
3 0 +1.327718782e+002 +1.132771878e+003 +1.132771878e+003 -5.0000e+000 +5.0000e+000
6 0 +1.274835224e+002 +1.127483522e+003 +1.127483522e+003 -9.5216e-001 -2.1622e+000
9 0 +2.397639442e+000 +1.002397639e+003 +1.002397639e+003 +1.3448e-002 +1.4372e-001
12 0 +2.550626138e-001 +1.000255063e+003 +1.000255063e+003 -6.3415e-001 +5.1625e-001
34 0 +1.554678403e-001 +1.000155468e+003 +1.000155468e+003 -6.5318e-001 +7.8953e-001
62 0 +2.644940882e-003 +1.000002645e+003 +1.000002645e+003 -4.8065e-001 +4.0571e-001
174 0 +1.685579036e-007 +1.000000000e+003 +1.000000000e+003 -4.9900e-001 +4.3728e-001
227 0 +1.206904017e-007 +1.000000000e+003 +1.000000000e+003 -4.9911e-001 +4.4218e-001
271 0 +5.558581506e-008 +1.000000000e+003 +1.000000000e+003 -5.1029e-001 +4.5756e-001
285 0 +1.938815331e-008 +1.000000000e+003 +1.000000000e+003 -5.0710e-001 +4.5063e-001
286 0 +1.277771844e-008 +1.000000000e+003 +1.000000000e+003 -5.1130e-001 +4.5289e-001
303 0 +2.173010216e-009 +1.000000000e+003 +1.000000000e+003 -5.1142e-001 +4.5177e-001
