% f evaluations | g evaluations | best noise-free fitness - Fopt (-9.210000000000e+000) + sum g_i+ | measured fitness | best measured fitness or single-digit g-values | x1 | x2...
1 0 +1.309795899e+002 +1.217695899e+002 +1.217695899e+002 +2.2779e+000 -2.1398e+000 +1.5379e+000 +2.3846e+000 +2.0086e+000 +1.7768e+000 +4.6331e+000 +2.2001e+000 +3.4602e+000 -3.8690e-001
12 0 +0.000000000e+000 -9.210000000e+000 -9.210000000e+000 +5.0000e+000 +5.0000e+000 +5.0000e+000 +5.0000e+000 -5.0000e+000 +5.0000e+000 +5.0000e+000 +5.0000e+000 +5.0000e+000 -5.0000e+000
% f evaluations | g evaluations | best noise-free fitness - Fopt (6.559900000000e+002) + sum g_i+ | measured fitness | best measured fitness or single-digit g-values | x1 | x2...
1 0 +2.269367757e+002 +8.829267757e+002 +8.829267757e+002 +4.6283e+000 +3.0687e+000 -1.9072e+000 -1.7880e+000 -2.6929e-001 -1.9083e+000 +4.9651e+000 +1.4301e+000 -2.8690e+000 +3.7932e+000
2 0 +1.588431810e+002 +8.148331810e+002 +8.148331810e+002 +4.6702e+000 +1.6576e+000 -9.1103e-001 -4.1058e+000 +1.3552e+000 -6.3357e-001 -4.2254e+000 +3.5816e+000 +2.0100e+000 -2.6274e+000
12 0 +0.000000000e+000 +6.559900000e+002 +6.559900000e+002 +5.0000e+000 -5.0000e+000 -5.0000e+000 +5.0000e+000 -5.0000e+000 -5.0000e+000 -5.0000e+000 +5.0000e+000 -5.0000e+000 -5.0000e+000
% f evaluations | g evaluations | best noise-free fitness - Fopt (6.671000000000e+001) + sum g_i+ | measured fitness | best measured fitness or single-digit g-values | x1 | x2...
1 0 +1.722975922e+002 +2.390075922e+002 +2.390075922e+002 -2.2168e-002 +2.7957e+000 +1.7992e+000 -3.3592e+000 +6.8965e-001 +2.0128e+000 +1.1560e+000 -2.2804e+000 +2.9606e-001 -2.9966e+000
3 0 +1.610710832e+002 +2.277810832e+002 +2.277810832e+002 +1.8738e+000 -2.5683e-001 +5.8771e-001 -4.5116e+000 -2.4347e+000 -3.1895e+000 -4.4228e+000 -8.3661e-001 +3.6084e-001 -3.1869e+000
8 0 +1.121198411e+002 +1.788298411e+002 +1.788298411e+002 +4.2553e+000 -1.2894e+000 +3.2372e+000 +1.7906e+000 -4.6763e+000 -1.9798e+000 -3.1135e+000 -4.6283e+000 +2.3698e+000 -2.9917e+000
12 0 +0.000000000e+000 +6.671000000e+001 +6.671000000e+001 -5.0000e+000 -5.0000e+000 -5.0000e+000 +5.0000e+000 -5.0000e+000 +5.0000e+000 -5.0000e+000 -5.0000e+000 +5.0000e+000 -5.0000e+000
% f evaluations | g evaluations | best noise-free fitness - Fopt (9.416700000000e+002) + sum g_i+ | measured fitness | best measured fitness or single-digit g-values | x1 | x2...
1 0 +2.588964957e+002 +1.200566496e+003 +1.200566496e+003 -2.8637e+000 +4.6792e+000 +3.3950e+000 -3.8080e+000 -3.7109e-001 +6.0859e-001 +3.9099e+000 -2.9949e+000 -2.7397e+000 +2.6267e+000
2 0 +2.385358668e+002 +1.180205867e+003 +1.180205867e+003 +3.1604e+000 -8.7044e-001 +1.5089e+000 +1.8985e+000 +3.0183e-001 +2.2000e+000 -2.9855e+000 -4.2020e+000 -4.7777e+000 +3.2069e+000
4 0 +1.658496916e+002 +1.107519692e+003 +1.107519692e+003 -4.6455e+000 -1.5792e+000 -1.0292e+000 -4.5644e+000 -3.5877e+000 +4.0746e+000 -7.3643e-001 -2.8751e+000 +6.1792e-001 -2.2585e+000
11 0 +1.407311432e+002 +1.082401143e+003 +1.082401143e+003 -1.5194e+000 -4.5707e+000 +3.6612e+000 -3.9109e+000 -2.7765e+000 +5.8979e-001 -1.7946e+000 -4.5660e+000 -8.1737e-001 -2.3532e+000
12 0 +0.000000000e+000 +9.416700000e+002 +9.416700000e+002 -5.0000e+000 -5.0000e+000 +5.0000e+000 +5.0000e+000 -5.0000e+000 -5.0000e+000 -5.0000e+000 -5.0000e+000 +5.0000e+000 -5.0000e+000
% f evaluations | g evaluations | best noise-free fitness - Fopt (-3.745000000000e+001) + sum g_i+ | measured fitness | best measured fitness or single-digit g-values | x1 | x2...
1 0 +2.206364229e+002 +1.831864229e+002 +1.831864229e+002 +3.4737e+000 -4.2353e+000 -2.0521e+000 +2.1853e+000 +2.5858e+000 -4.8213e+000 -2.3746e+000 -2.2443e-001 +2.3964e+000 +9.4825e-001
3 0 +1.725451946e+002 +1.350951946e+002 +1.350951946e+002 +2.3088e-001 -3.3582e+000 +3.6250e+000 -1.5585e+000 -1.2903e+000 +4.4416e+000 -1.4067e-001 +1.8282e+000 +2.7244e+000 -2.5295e-001
12 0 +0.000000000e+000 -3.745000000e+001 -3.745000000e+001 +5.0000e+000 +5.0000e+000 +5.0000e+000 -5.0000e+000 -5.0000e+000 +5.0000e+000 +5.0000e+000 -5.0000e+000 +5.0000e+000 +5.0000e+000
% f evaluations | g evaluations | best noise-free fitness - Fopt (-6.639000000000e+001) + sum g_i+ | measured fitness | best measured fitness or single-digit g-values | x1 | x2...
1 0 +1.695833076e+002 +1.031933076e+002 +1.031933076e+002 -4.6450e+000 +1.6787e+000 -3.2222e+000 +1.1880e+000 -1.2094e+000 +1.3132e+000 +3.0304e+000 +1.2327e+000 +1.3320e+000 +5.0571e-001
3 0 +1.673401509e+002 +1.009501509e+002 +1.009501509e+002 +1.2688e+000 +4.9458e-001 +3.2722e-001 +2.6414e+000 -2.1016e+000 +2.1548e+000 -4.8084e+000 -4.4053e+000 +1.4319e+000 -3.7236e-001
4 0 +9.917490926e+001 +3.278490926e+001 +3.278490926e+001 -3.4803e+000 +2.4393e+000 +2.9052e+000 -9.0673e-001 +5.2637e-001 -3.7730e+000 +2.9119e+000 -4.5340e+000 +4.1863e+000 -4.7256e+000
12 0 +0.000000000e+000 -6.639000000e+001 -6.639000000e+001 -5.0000e+000 +5.0000e+000 -5.0000e+000 +5.0000e+000 -5.0000e+000 +5.0000e+000 +5.0000e+000 -5.0000e+000 +5.0000e+000 -5.0000e+000
% f evaluations | g evaluations | best noise-free fitness - Fopt (-2.260100000000e+002) + sum g_i+ | measured fitness | best measured fitness or single-digit g-values | x1 | x2...
1 0 +1.907973903e+002 -3.521260970e+001 -3.521260970e+001 +1.0588e+000 +2.2750e+000 -9.4484e-001 -1.5822e+000 +2.1196e+000 +1.8740e+000 -3.1787e+000 +5.2603e-001 -2.8300e+000 -3.3292e+000
2 0 +1.708684005e+002 -5.514159948e+001 -5.514159948e+001 +3.4784e+000 +3.9776e+000 -4.3137e+000 -1.7534e+000 -7.3285e-002 +2.6196e+000 +5.3616e-002 +1.4727e+000 +1.4096e+000 -3.2511e+000
7 0 +1.647693602e+002 -6.124063982e+001 -6.124063982e+001 -3.9534e+000 +1.9771e+000 -3.7054e+000 +2.5536e+000 +1.3923e+000 +4.7626e+000 -2.5881e+000 +9.9098e-001 -2.6885e-001 -3.8869e+000
12 0 +0.000000000e+000 -2.260100000e+002 -2.260100000e+002 -5.0000e+000 +5.0000e+000 +5.0000e+000 +5.0000e+000 -5.0000e+000 -5.0000e+000 -5.0000e+000 +5.0000e+000 +5.0000e+000 -5.0000e+000
% f evaluations | g evaluations | best noise-free fitness - Fopt (1.000000000000e+003) + sum g_i+ | measured fitness | best measured fitness or single-digit g-values | x1 | x2...
1 0 +1.001155785e+002 +1.100115579e+003 +1.100115579e+003 -9.4029e-001 -4.6897e+000 +1.6828e+000 +3.5463e+000 +1.8318e+000 -1.7463e+000 +7.9569e-001 -3.4081e+000 +4.8813e+000 -4.3191e+000
12 0 +0.000000000e+000 +1.000000000e+003 +1.000000000e+003 -5.0000e+000 +5.0000e+000 +5.0000e+000 +5.0000e+000 -5.0000e+000 -5.0000e+000 -5.0000e+000 -5.0000e+000 +5.0000e+000 -5.0000e+000
% f evaluations | g evaluations | best noise-free fitness - Fopt (-1.830200000000e+002) + sum g_i+ | measured fitness | best measured fitness or single-digit g-values | x1 | x2...
1 0 +2.269860532e+002 +4.396605320e+001 +4.396605320e+001 -1.5752e-001 -5.5793e-001 +3.3877e+000 +3.3691e+000 +4.1614e+000 +4.0660e+000 +1.8393e+000 -4.7963e+000 -4.5885e+000 +1.9855e-001
3 0 +1.920110622e+002 +8.991062199e+000 +8.991062199e+000 +1.4138e+000 +4.6456e+000 -4.7421e+000 -2.4649e+000 +4.2019e+000 -1.0066e+000 +1.8499e+000 +1.5380e+000 +3.7689e+000 +7.6375e-001
4 0 +1.165890949e+002 -6.643090506e+001 -6.643090506e+001 +4.9098e+000 -4.1978e+000 -3.5746e+000 -3.1879e+000 +3.3614e+000 +3.7698e+000 -3.6692e+000 -3.2359e+000 -2.2812e+000 +4.1634e+000
12 0 +0.000000000e+000 -1.830200000e+002 -1.830200000e+002 +5.0000e+000 -5.0000e+000 -5.0000e+000 -5.0000e+000 -5.0000e+000 +5.0000e+000 -5.0000e+000 -5.0000e+000 +5.0000e+000 +5.0000e+000
% f evaluations | g evaluations | best noise-free fitness - Fopt (-1.026200000000e+002) + sum g_i+ | measured fitness | best measured fitness or single-digit g-values | x1 | x2...
1 0 +1.994051603e+002 +9.678516028e+001 +9.678516028e+001 +1.2576e+000 -3.3588e+000 -2.1778e+000 -3.1100e+000 +4.7484e+000 +3.2844e+000 +4.5738e+000 +2.9853e+000 -3.9804e+000 -6.0022e-001
2 0 +1.976167978e+002 +9.499679777e+001 +9.499679777e+001 +2.9703e+000 -3.2916e+000 +4.0619e+000 +4.4175e+000 +2.1120e+000 +2.8048e+000 -4.4012e+000 +4.5554e+000 +9.1092e-001 +4.6471e+000
4 0 +1.418674301e+002 +3.924743014e+001 +3.924743014e+001 -3.3515e+000 -2.5947e+000 -3.7373e+000 -4.5786e+000 -1.2703e+000 -2.8556e+000 +4.0303e+000 +6.9311e-002 -3.8476e-001 +3.8163e+000
12 0 +0.000000000e+000 -1.026200000e+002 -1.026200000e+002 -5.0000e+000 -5.0000e+000 -5.0000e+000 -5.0000e+000 +5.0000e+000 +5.0000e+000 +5.0000e+000 -5.0000e+000 +5.0000e+000 +5.0000e+000
% f evaluations | g evaluations | best noise-free fitness - Fopt (9.953000000000e+001) + sum g_i+ | measured fitness | best measured fitness or single-digit g-values | x1 | x2...
1 0 +2.653078468e+002 +3.648378468e+002 +3.648378468e+002 -4.1616e+000 +1.9713e+000 +9.1672e-001 -4.9390e-001 -3.1384e+000 +1.7669e+000 +4.6827e-001 -6.5598e-001 +4.8943e+000 +2.5811e+000
2 0 +2.243240710e+002 +3.238540710e+002 +3.238540710e+002 -1.7125e+000 -1.4581e+000 -1.0011e+000 +4.1814e+000 -1.4285e+000 -4.3031e+000 -3.9674e+000 -2.9458e+000 -3.8844e+000 +4.4131e+000
3 0 +1.836407956e+002 +2.831707956e+002 +2.831707956e+002 +1.1271e+000 +8.0205e-001 -5.0206e-001 -1.6441e+000 +1.4081e+000 -4.0184e+000 +3.0540e+000 +3.9613e+000 +4.9540e-001 -4.9505e+000
6 0 +1.134219116e+002 +2.129519116e+002 +2.129519116e+002 -1.2546e+000 -4.3208e+000 -4.1108e+000 -4.0200e+000 +2.7840e+000 +2.2698e+000 +7.1696e-001 -1.7671e+000 -2.4018e+000 -3.7473e+000
12 0 +0.000000000e+000 +9.953000000e+001 +9.953000000e+001 -5.0000e+000 -5.0000e+000 -5.0000e+000 +5.0000e+000 +5.0000e+000 +5.0000e+000 +5.0000e+000 -5.0000e+000 -5.0000e+000 -5.0000e+000
% f evaluations | g evaluations | best noise-free fitness - Fopt (1.495900000000e+002) + sum g_i+ | measured fitness | best measured fitness or single-digit g-values | x1 | x2...
1 0 +2.226140123e+002 +3.722040123e+002 +3.722040123e+002 +3.4704e+000 -4.3868e+000 -2.7352e-001 -1.8115e+000 +1.8971e+000 -2.9055e+000 +7.8489e-001 -3.4545e+000 -3.8056e+000 +3.2128e-001
2 0 +1.807536086e+002 +3.303436086e+002 +3.303436086e+002 +4.2243e+000 -1.4774e-001 -2.5154e+000 +2.9141e+000 +2.9430e+000 -3.4413e+000 +5.5948e-001 -9.1243e-001 +2.4377e+000 -7.3288e-001
11 0 +1.223267918e+002 +2.719167918e+002 +2.719167918e+002 -4.2615e+000 +2.4246e-001 +1.0998e+000 -4.0173e+000 +3.6575e+000 -1.8988e+000 +4.1651e+000 +1.8922e+000 +4.4034e+000 -2.5189e+000
12 0 +0.000000000e+000 +1.495900000e+002 +1.495900000e+002 -5.0000e+000 +5.0000e+000 -5.0000e+000 -5.0000e+000 +5.0000e+000 +5.0000e+000 +5.0000e+000 -5.0000e+000 +5.0000e+000 -5.0000e+000
% f evaluations | g evaluations | best noise-free fitness - Fopt (-1.000000000000e+003) + sum g_i+ | measured fitness | best measured fitness or single-digit g-values | x1 | x2...
1 0 +2.919514731e+002 -7.080485269e+002 -7.080485269e+002 +4.3348e+000 -2.0033e+000 +3.5786e+000 -1.1809e+000 -3.2636e+000 -3.3034e+000 -4.1441e+000 +1.4857e+000 -3.6857e+000 +1.3469e+000
2 0 +2.059242856e+002 -7.940757144e+002 -7.940757144e+002 -5.8409e-001 -2.4889e+000 +2.4534e+000 -2.3370e+000 -4.8527e+000 -4.7302e-001 -1.0399e+000 +1.4032e+000 +9.4779e-001 -1.5954e+000
4 0 +1.126481473e+002 -8.873518527e+002 -8.873518527e+002 +2.7245e+000 -4.8354e+000 -1.6570e+000 -4.5362e+000 +4.0052e+000 -5.8612e-001 -2.2776e+000 -3.6483e+000 +3.2721e+000 -2.4521e+000
12 0 +0.000000000e+000 -1.000000000e+003 -1.000000000e+003 +5.0000e+000 -5.0000e+000 -5.0000e+000 -5.0000e+000 +5.0000e+000 +5.0000e+000 +5.0000e+000 -5.0000e+000 +5.0000e+000 -5.0000e+000
% f evaluations | g evaluations | best noise-free fitness - Fopt (-2.922000000000e+001) + sum g_i+ | measured fitness | best measured fitness or single-digit g-values | x1 | x2...
1 0 +2.143034274e+002 +1.850834274e+002 +1.850834274e+002 -4.8532e+000 +3.9529e+000 +3.4549e+000 +1.7513e-001 -2.7969e+000 -1.6495e+000 -1.2300e-001 +1.0573e-001 +3.3978e+000 -3.5764e+000
4 0 +2.083873794e+002 +1.791673794e+002 +1.791673794e+002 -3.2816e+000 +4.7038e+000 -2.0319e+000 -6.7129e-001 +3.7205e+000 -2.9171e+000 -3.5727e+000 +1.1963e+000 -1.9967e+000 +2.7930e+000
6 0 +2.025298354e+002 +1.733098354e+002 +1.733098354e+002 -3.8519e+000 +3.2262e+000 -3.2860e+000 +4.0541e+000 +4.9448e+000 +2.7567e+000 +1.9095e+000 +2.7900e+000 -1.1693e+000 +1.9214e+000
7 0 +1.888620152e+002 +1.596420152e+002 +1.596420152e+002 -5.9279e-001 +4.2598e+000 -2.1559e+000 +4.0693e+000 +1.5116e+000 +2.3733e+000 +2.0494e+000 +3.9005e+000 +8.9391e-001 -3.5113e+000
12 0 +0.000000000e+000 -2.922000000e+001 -2.922000000e+001 -5.0000e+000 -5.0000e+000 -5.0000e+000 +5.0000e+000 +5.0000e+000 +5.0000e+000 -5.0000e+000 -5.0000e+000 -5.0000e+000 -5.0000e+000
% f evaluations | g evaluations | best noise-free fitness - Fopt (-4.096000000000e+001) + sum g_i+ | measured fitness | best measured fitness or single-digit g-values | x1 | x2...
1 0 +2.671421436e+002 +2.261821436e+002 +2.261821436e+002 -3.6344e+000 -4.0909e+000 +2.2332e+000 -3.5543e+000 -1.9224e+000 +3.1352e-001 -1.3438e+000 -3.1496e+000 -9.3271e-002 +2.8325e+000
2 0 +2.061172127e+002 +1.651572127e+002 +1.651572127e+002 -4.6086e+000 -3.8343e+000 -2.1121e+000 -4.5786e+000 +4.6114e+000 -2.7827e+000 +4.4100e+000 -9.8310e-001 -3.9593e+000 -4.0089e+000
3 0 +1.891446525e+002 +1.481846525e+002 +1.481846525e+002 -4.2214e+000 -3.4562e+000 +4.6320e+000 -3.1127e-001 +4.3709e+000 -2.8676e+000 +3.4862e+000 -4.5381e+000 -3.1610e-001 -3.2160e+000
11 0 +1.457498271e+002 +1.047898271e+002 +1.047898271e+002 +3.9592e+000 +4.0489e+000 -2.5039e+000 -2.6657e+000 +1.2817e+000 +3.4881e-001 +3.4607e+000 +1.3758e+000 +3.0603e-001 -3.7469e+000
12 0 +0.000000000e+000 -4.096000000e+001 -4.096000000e+001 +5.0000e+000 +5.0000e+000 +5.0000e+000 +5.0000e+000 -5.0000e+000 -5.0000e+000 +5.0000e+000 +5.0000e+000 +5.0000e+000 -5.0000e+000
