% f evaluations | g evaluations | best noise-free fitness - Fopt (-1.000000000000e+003) + sum g_i+ | measured fitness | best measured fitness or single-digit g-values | x1 | x2...
1 0 +7.212116714e+001 -9.278788329e+002 -9.278788329e+002 +5.0000e+000 -5.0000e+000
2 0 +6.732940591e+001 -9.326705941e+002 -9.326705941e+002 -5.0000e+000 -5.0000e+000
3 0 +6.017469564e+001 -9.398253044e+002 -9.398253044e+002 +5.0000e+000 +5.0000e+000
4 0 +5.852905808e+001 -9.414709419e+002 -9.414709419e+002 -5.0000e+000 +5.0000e+000
5 0 +4.076109687e+001 -9.592389031e+002 -9.592389031e+002 -4.1660e+000 -5.0000e+000
6 0 +3.662619912e+001 -9.633738009e+002 -9.633738009e+002 +4.6549e-001 -5.0000e+000
7 0 +2.820604210e+001 -9.717939579e+002 -9.717939579e+002 +3.3525e+000 -5.0000e+000
9 0 +1.283430116e+001 -9.871656988e+002 -9.871656988e+002 +4.0281e+000 +5.0000e+000
24 0 +8.762128941e-001 -9.991237871e+002 -9.991237871e+002 +2.4885e+000 -1.7734e+000
152 0 +8.006630450e-001 -9.991993370e+002 -9.991993370e+002 +2.4240e+000 -2.0647e+000
179 0 +3.156627614e-001 -9.996843372e+002 -9.996843372e+002 +9.8765e-001 +1.2739e+000
191 0 +3.649284201e-003 -9.999963507e+002 -9.999963507e+002 +1.0182e+000 +1.3588e+000
636 0 +3.016715631e-003 -9.999969833e+002 -9.999969833e+002 +9.9975e-001 +1.4259e+000
639 0 +1.239805643e-003 -9.999987602e+002 -9.999987602e+002 +1.0506e+000 +1.3366e+000
646 0 +8.871468762e-004 -9.999991129e+002 -9.999991129e+002 +1.0802e+000 +1.2658e+000
649 0 +8.035623000e-005 -9.999999196e+002 -9.999999196e+002 +1.2353e+000 +9.3561e-001
654 0 +5.768664334e-005 -9.999999423e+002 -9.999999423e+002 +1.2252e+000 +9.6207e-001
660 0 +6.626936397e-006 -9.999999934e+002 -9.999999934e+002 +1.2710e+000 +8.7506e-001
664 0 +1.284644213e-007 -9.999999999e+002 -9.999999999e+002 +1.3224e+000 +7.7538e-001
666 0 +4.659909791e-008 -1.000000000e+003 -1.000000000e+003 +1.3365e+000 +7.4812e-001
674 0 +8.761162462e-009 -1.000000000e+003 -1.000000000e+003 +1.3403e+000 +7.3912e-001
% f evaluations | g evaluations | best noise-free fitness - Fopt (1.000000000000e+003) + sum g_i+ | measured fitness | best measured fitness or single-digit g-values | x1 | x2...
1 0 +5.932031485e+001 +1.059320315e+003 +1.059320315e+003 -5.0000e+000 -5.0000e+000
4 0 +2.012756602e+001 +1.020127566e+003 +1.020127566e+003 -3.7827e+000 -3.1272e+000
13 0 +1.517672898e+001 +1.015176729e+003 +1.015176729e+003 -3.5091e+000 -2.8595e+000
19 0 +1.535880837e+000 +1.001535881e+003 +1.001535881e+003 -4.1871e+000 +3.6811e-001
22 0 +2.899597916e-005 +1.000000029e+003 +1.000000029e+003 -7.3753e-001 -1.3818e+000
1438 0 +4.940511644e-008 +1.000000000e+003 +1.000000000e+003 -6.8991e-001 -1.4140e+000
1457 0 +1.178636921e-008 +1.000000000e+003 +1.000000000e+003 -7.3425e-001 -1.3919e+000
1537 0 +9.452151062e-009 +1.000000000e+003 +1.000000000e+003 -7.2481e-001 -1.3967e+000
1594 0 +0.000000000e+000 +1.000000000e+003 +1.000000000e+003 -7.1443e-001 -1.4031e+000
% f evaluations | g evaluations | best noise-free fitness - Fopt (-4.913000000000e+001) + sum g_i+ | measured fitness | best measured fitness or single-digit g-values | x1 | x2...
1 0 +7.309563244e+001 +2.396563244e+001 +2.396563244e+001 -5.0000e+000 -5.0000e+000
3 0 +3.810286061e+001 -1.102713939e+001 -1.102713939e+001 -5.0000e+000 +5.0000e+000
5 0 +3.021348858e+001 -1.891651142e+001 -1.891651142e+001 -4.7742e+000 +5.0000e+000
10 0 +7.817496919e+000 -4.131250308e+001 -4.131250308e+001 -4.6892e+000 +3.9510e+000
13 0 +7.263800929e+000 -4.186619907e+001 -4.186619907e+001 -4.4973e+000 +3.8837e+000
71 0 +7.143525349e+000 -4.198647465e+001 -4.198647465e+001 -4.5527e+000 +3.9859e+000
74 0 +6.181425583e+000 -4.294857442e+001 -4.294857442e+001 -3.3195e+000 +3.7194e+000
86 0 +5.997395541e+000 -4.313260446e+001 -4.313260446e+001 -3.1411e+000 +3.5418e+000
101 0 +4.788260136e-001 -4.865117399e+001 -4.865117399e+001 +4.4965e+000 +4.8627e+000
2459 0 +1.371337911e-001 -4.899286621e+001 -4.899286621e+001 +3.2376e+000 +1.3425e+000
2462 0 +1.292043141e-001 -4.900079569e+001 -4.900079569e+001 +3.2423e+000 +1.3496e+000
2464 0 +9.440355859e-002 -4.903559644e+001 -4.903559644e+001 +3.2509e+000 +1.3458e+000
2465 0 +8.847041729e-002 -4.904152958e+001 -4.904152958e+001 +3.2522e+000 +1.3455e+000
2471 0 +7.133059882e-002 -4.905866940e+001 -4.905866940e+001 +3.2544e+000 +1.3390e+000
2472 0 +7.065034064e-002 -4.905934966e+001 -4.905934966e+001 +3.2573e+000 +1.3473e+000
2487 0 +6.873105735e-002 -4.906126894e+001 -4.906126894e+001 +3.2579e+000 +1.3477e+000
2498 0 +5.250790873e-002 -4.907749209e+001 -4.907749209e+001 +3.2636e+000 +1.3465e+000
2506 0 +4.949897674e-002 -4.908050102e+001 -4.908050102e+001 +3.2643e+000 +1.3439e+000
2509 0 +4.117083545e-002 -4.908882916e+001 -4.908882916e+001 +3.2682e+000 +1.3392e+000
2514 0 +2.719354723e-002 -4.910280645e+001 -4.910280645e+001 +3.2788e+000 +1.3356e+000
2519 0 +2.621094438e-002 -4.910378906e+001 -4.910378906e+001 +3.2796e+000 +1.3340e+000
2534 0 +2.353135932e-002 -4.910646864e+001 -4.910646864e+001 +3.2992e+000 +1.3264e+000
2540 0 +2.002436974e-002 -4.910997563e+001 -4.910997563e+001 +3.2985e+000 +1.3490e+000
2630 0 +1.990762577e-002 -4.911009237e+001 -4.911009237e+001 +3.3024e+000 +1.3523e+000
2645 0 +1.936517588e-002 -4.911063482e+001 -4.911063482e+001 +3.3003e+000 +1.3705e+000
2653 0 +1.905088562e-002 -4.911094911e+001 -4.911094911e+001 +3.3018e+000 +1.3703e+000
2665 0 +1.846064761e-002 -4.911153935e+001 -4.911153935e+001 +3.3057e+000 +1.3751e+000
2666 0 +1.816812546e-002 -4.911183187e+001 -4.911183187e+001 +3.3071e+000 +1.3832e+000
2673 0 +1.719265877e-002 -4.911280734e+001 -4.911280734e+001 +3.3140e+000 +1.4058e+000
2676 0 +1.673678433e-002 -4.911326322e+001 -4.911326322e+001 +3.3178e+000 +1.4186e+000
2679 0 +1.608524983e-002 -4.911391475e+001 -4.911391475e+001 +3.3249e+000 +1.4437e+000
2686 0 +1.570713056e-002 -4.911429287e+001 -4.911429287e+001 +3.3285e+000 +1.4518e+000
2688 0 +1.476555453e-002 -4.911523445e+001 -4.911523445e+001 +3.3412e+000 +1.4874e+000
2689 0 +1.421847653e-002 -4.911578152e+001 -4.911578152e+001 +3.3582e+000 +1.5504e+000
2693 0 +1.408759465e-002 -4.911591241e+001 -4.911591241e+001 +3.3614e+000 +1.5607e+000
2701 0 +1.283419364e-002 -4.911716581e+001 -4.911716581e+001 +3.3686e+000 +1.5637e+000
2705 0 +1.190548976e-002 -4.911809451e+001 -4.911809451e+001 +3.3767e+000 +1.5836e+000
2709 0 +1.161846480e-002 -4.911838154e+001 -4.911838154e+001 +3.3784e+000 +1.5825e+000
2711 0 +1.042634852e-002 -4.911957365e+001 -4.911957365e+001 +3.3876e+000 +1.6129e+000
2714 0 +8.257206081e-003 -4.912174279e+001 -4.912174279e+001 +3.4019e+000 +1.6529e+000
2719 0 +4.519639398e-003 -4.912548036e+001 -4.912548036e+001 +3.4360e+000 +1.7524e+000
2725 0 +4.119102155e-003 -4.912588090e+001 -4.912588090e+001 +3.4428e+000 +1.7702e+000
2729 0 +3.524396208e-003 -4.912647560e+001 -4.912647560e+001 +3.4804e+000 +1.8784e+000
2730 0 +2.505999550e-003 -4.912749400e+001 -4.912749400e+001 +3.5077e+000 +1.9570e+000
2732 0 +2.105588701e-003 -4.912789441e+001 -4.912789441e+001 +3.5154e+000 +1.9795e+000
2734 0 +1.924304284e-004 -4.912980757e+001 -4.912980757e+001 +3.6460e+000 +2.3457e+000
2740 0 +8.048065240e-006 -4.912999195e+001 -4.912999195e+001 +3.7632e+000 +2.6664e+000
2741 0 +7.032427177e-006 -4.912999297e+001 -4.912999297e+001 +3.7648e+000 +2.6700e+000
2742 0 +5.269993260e-006 -4.912999473e+001 -4.912999473e+001 +3.7333e+000 +2.5782e+000
2748 0 +1.490808238e-006 -4.912999851e+001 -4.912999851e+001 +3.7602e+000 +2.6507e+000
2753 0 +1.085470650e-006 -4.912999891e+001 -4.912999891e+001 +3.7286e+000 +2.5575e+000
2757 0 +6.023417995e-007 -4.912999940e+001 -4.912999940e+001 +3.7400e+000 +2.5911e+000
2758 0 +2.657506428e-007 -4.912999973e+001 -4.912999973e+001 +3.7866e+000 +2.7103e+000
2761 0 +1.424620208e-007 -4.912999986e+001 -4.912999986e+001 +3.7801e+000 +2.6912e+000
2774 0 +3.313185459e-008 -4.912999997e+001 -4.912999997e+001 +3.7757e+000 +2.6815e+000
2787 0 +2.931540877e-008 -4.912999997e+001 -4.912999997e+001 +3.7754e+000 +2.6805e+000
2807 0 +1.120491078e-008 -4.912999999e+001 -4.912999999e+001 +3.7654e+000 +2.6567e+000
2837 0 +3.775610935e-010 -4.913000000e+001 -4.913000000e+001 +3.7653e+000 +2.6541e+000
% f evaluations | g evaluations | best noise-free fitness - Fopt (2.977300000000e+002) + sum g_i+ | measured fitness | best measured fitness or single-digit g-values | x1 | x2...
1 0 +2.169142811e+000 +2.998991428e+002 +2.998991428e+002 -5.0000e+000 -5.0000e+000
6 0 +2.013557942e+000 +2.997435579e+002 +2.997435579e+002 -5.0000e+000 -4.9223e+000
8 0 +1.483052950e+000 +2.992130530e+002 +2.992130530e+002 -5.0000e+000 -4.7092e+000
59 0 +1.331222122e+000 +2.990612221e+002 +2.990612221e+002 -5.0000e+000 -4.6349e+000
79 0 +1.303515895e+000 +2.990335159e+002 +2.990335159e+002 -5.0000e+000 -4.5863e+000
85 0 +7.080329613e-001 +2.984380330e+002 +2.984380330e+002 -4.6502e+000 -4.5781e+000
215 0 +7.065402826e-001 +2.984365403e+002 +2.984365403e+002 -4.7118e+000 -4.5780e+000
3494 0 +6.323975517e-002 +2.977932398e+002 +2.977932398e+002 -4.6726e+000 +3.3455e-001
3528 0 +3.505147216e-002 +2.977650515e+002 +2.977650515e+002 -4.6726e+000 +4.2576e-001
3548 0 +1.154922651e-002 +2.977415492e+002 +2.977415492e+002 -4.6726e+000 +3.6424e-001
3560 0 +4.280193018e-003 +2.977342802e+002 +2.977342802e+002 -4.6726e+000 +3.9206e-001
3573 0 +3.993030094e-003 +2.977339930e+002 +2.977339930e+002 -4.6726e+000 +3.8789e-001
3602 0 +3.953514598e-003 +2.977339535e+002 +2.977339535e+002 -4.6726e+000 +3.8524e-001
3766 0 +3.853737040e-003 +2.977338537e+002 +2.977338537e+002 -4.6627e+000 +3.8750e-001
3776 0 +3.776744212e-003 +2.977337767e+002 +2.977337767e+002 -4.6480e+000 +3.8957e-001
3785 0 +3.705827701e-003 +2.977337058e+002 +2.977337058e+002 -4.6316e+000 +3.9376e-001
3815 0 +3.523867819e-003 +2.977335239e+002 +2.977335239e+002 -4.5546e+000 +4.1415e-001
3827 0 +2.660591772e-003 +2.977326606e+002 +2.977326606e+002 -4.4465e+000 +4.4384e-001
3840 0 +2.534045560e-003 +2.977325340e+002 +2.977325340e+002 -4.4972e+000 +4.3354e-001
3841 0 +2.471124054e-003 +2.977324711e+002 +2.977324711e+002 -4.4946e+000 +4.3439e-001
3842 0 +1.440034617e-003 +2.977314400e+002 +2.977314400e+002 -4.4225e+000 +4.5478e-001
3843 0 +3.793066799e-004 +2.977303793e+002 +2.977303793e+002 -4.2605e+000 +5.1111e-001
3844 0 +3.617613885e-004 +2.977303618e+002 +2.977303618e+002 -4.2561e+000 +5.1239e-001
3846 0 +2.558164218e-004 +2.977302558e+002 +2.977302558e+002 -4.2108e+000 +5.2524e-001
3848 0 +1.574486691e-004 +2.977301574e+002 +2.977301574e+002 -4.0814e+000 +5.6024e-001
3859 0 +3.956540394e-005 +2.977300396e+002 +2.977300396e+002 -3.7655e+000 +6.5660e-001
3862 0 +3.639187338e-005 +2.977300364e+002 +2.977300364e+002 -3.7732e+000 +6.5437e-001
3867 0 +2.894516967e-005 +2.977300289e+002 +2.977300289e+002 -3.7030e+000 +6.7710e-001
3873 0 +2.455031813e-005 +2.977300246e+002 +2.977300246e+002 -3.9759e+000 +5.9655e-001
3874 0 +2.230395745e-005 +2.977300223e+002 +2.977300223e+002 -3.9691e+000 +5.9877e-001
3878 0 +1.402122507e-008 +2.977300000e+002 +2.977300000e+002 -3.7734e+000 +6.6498e-001
3895 0 +1.280557171e-008 +2.977300000e+002 +2.977300000e+002 -3.7754e+000 +6.6433e-001
3926 0 +2.562785539e-009 +2.977300000e+002 +2.977300000e+002 -3.8065e+000 +6.5339e-001
4056 0 +0.000000000e+000 +2.977300000e+002 +2.977300000e+002 -3.7832e+000 +6.6069e-001
% f evaluations | g evaluations | best noise-free fitness - Fopt (5.157000000000e+001) + sum g_i+ | measured fitness | best measured fitness or single-digit g-values | x1 | x2...
1 0 +8.645619800e+001 +1.380261980e+002 +1.380261980e+002 +5.0000e+000 +5.0000e+000
2 0 +4.803304999e+001 +9.960304999e+001 +9.960304999e+001 -5.0000e+000 +5.0000e+000
7 0 +4.535234730e+001 +9.692234730e+001 +9.692234730e+001 -5.0000e+000 +4.9325e+000
8 0 +1.460121592e+001 +6.617121592e+001 +6.617121592e+001 -5.0000e+000 +3.2428e+000
13 0 +8.822611032e+000 +6.039261103e+001 +6.039261103e+001 -4.3021e-001 +5.0000e+000
14 0 +8.132249541e+000 +5.970224954e+001 +5.970224954e+001 -5.9677e-001 +5.0000e+000
24 0 +7.360664051e+000 +5.893066405e+001 +5.893066405e+001 -6.4432e-001 +4.9325e+000
47 0 +6.549349969e+000 +5.811934997e+001 +5.811934997e+001 -4.6637e-001 +4.8133e+000
51 0 +9.530530982e-002 +5.166530531e+001 +5.166530531e+001 +2.2944e+000 +1.2489e+000
668 0 +7.638741791e-002 +5.164638742e+001 +5.164638742e+001 +5.5165e-001 +1.9264e+000
669 0 +6.942064710e-002 +5.163942065e+001 +5.163942065e+001 +5.5738e-001 +1.9264e+000
674 0 +9.509339023e-003 +5.157950934e+001 +5.157950934e+001 +1.2386e+000 +1.6302e+000
675 0 +6.279269820e-003 +5.157627927e+001 +5.157627927e+001 +1.2734e+000 +1.6170e+000
680 0 +4.272796536e-003 +5.157427280e+001 +5.157427280e+001 +1.5898e+000 +1.4671e+000
682 0 +3.017332898e-003 +5.157301733e+001 +5.157301733e+001 +1.7612e+000 +1.3935e+000
689 0 +1.237795277e-003 +5.157123780e+001 +5.157123780e+001 +2.0491e+000 +1.2665e+000
694 0 +8.354712555e-005 +5.157008355e+001 +5.157008355e+001 +1.8124e+000 +1.3896e+000
698 0 +3.973930595e-005 +5.157003974e+001 +5.157003974e+001 +1.8813e+000 +1.3583e+000
703 0 +6.514638940e-006 +5.157000651e+001 +5.157000651e+001 +2.1460e+000 +1.2419e+000
705 0 +3.779232422e-006 +5.157000378e+001 +5.157000378e+001 +1.9361e+000 +1.3401e+000
707 0 +1.017497191e-006 +5.157000102e+001 +5.157000102e+001 +1.9762e+000 +1.3222e+000
709 0 +2.238876604e-007 +5.157000022e+001 +5.157000022e+001 +2.0064e+000 +1.3100e+000
715 0 +1.377726022e-008 +5.157000001e+001 +5.157000001e+001 +2.0466e+000 +1.2924e+000
740 0 +4.663178288e-009 +5.157000000e+001 +5.157000000e+001 +2.0575e+000 +1.2875e+000
% f evaluations | g evaluations | best noise-free fitness - Fopt (1.527100000000e+002) + sum g_i+ | measured fitness | best measured fitness or single-digit g-values | x1 | x2...
1 0 +4.469906589e+001 +1.974090659e+002 +1.974090659e+002 -5.0000e+000 -5.0000e+000
4 0 +2.770151043e+001 +1.804115104e+002 +1.804115104e+002 -2.3133e+000 -2.5522e+000
7 0 +3.264863349e+000 +1.559748633e+002 +1.559748633e+002 -6.9286e-001 -5.0000e+000
12 0 +4.740596128e-001 +1.531840596e+002 +1.531840596e+002 -5.7865e-001 -2.8845e+000
47 0 +2.617788288e-002 +1.527361779e+002 +1.527361779e+002 -1.8980e+000 -2.2144e+000
530 0 +2.983104151e-003 +1.527129831e+002 +1.527129831e+002 -2.6334e+000 -1.8186e+000
534 0 +7.153661147e-004 +1.527107154e+002 +1.527107154e+002 -2.7660e+000 -1.7405e+000
543 0 +2.045724968e-004 +1.527102046e+002 +1.527102046e+002 -2.8716e+000 -1.6804e+000
544 0 +1.804649607e-004 +1.527101805e+002 +1.527101805e+002 -3.1749e+000 -1.5176e+000
552 0 +1.771422735e-004 +1.527101771e+002 +1.527101771e+002 -3.1966e+000 -1.5055e+000
562 0 +1.037263133e-004 +1.527101037e+002 +1.527101037e+002 -3.2827e+000 -1.4548e+000
574 0 +9.356091763e-005 +1.527100936e+002 +1.527100936e+002 -3.2563e+000 -1.4695e+000
577 0 +5.138652915e-005 +1.527100514e+002 +1.527100514e+002 -3.2078e+000 -1.4951e+000
581 0 +3.009811718e-005 +1.527100301e+002 +1.527100301e+002 -3.2194e+000 -1.4871e+000
585 0 +2.611256190e-005 +1.527100261e+002 +1.527100261e+002 -3.1520e+000 -1.5243e+000
593 0 +1.435536120e-005 +1.527100144e+002 +1.527100144e+002 -3.2320e+000 -1.4770e+000
594 0 +2.119797074e-006 +1.527100021e+002 +1.527100021e+002 -3.0699e+000 -1.5654e+000
604 0 +1.917081420e-006 +1.527100019e+002 +1.527100019e+002 -3.1294e+000 -1.5325e+000
617 0 +3.015404104e-007 +1.527100003e+002 +1.527100003e+002 -3.1417e+000 -1.5226e+000
626 0 +2.718176972e-007 +1.527100003e+002 +1.527100003e+002 -3.1395e+000 -1.5239e+000
628 0 +2.554283469e-007 +1.527100003e+002 +1.527100003e+002 -3.1403e+000 -1.5232e+000
631 0 +2.504117447e-007 +1.527100003e+002 +1.527100003e+002 -3.1114e+000 -1.5403e+000
648 0 +8.006730923e-008 +1.527100001e+002 +1.527100001e+002 -3.1081e+000 -1.5413e+000
649 0 +4.765718131e-008 +1.527100000e+002 +1.527100000e+002 -3.0284e+000 -1.5830e+000
654 0 +8.162714948e-011 +1.527100000e+002 +1.527100000e+002 -3.0735e+000 -1.5580e+000
794 0 +0.000000000e+000 +1.527100000e+002 +1.527100000e+002 -3.0748e+000 -1.5577e+000
% f evaluations | g evaluations | best noise-free fitness - Fopt (9.980000000000e+001) + sum g_i+ | measured fitness | best measured fitness or single-digit g-values | x1 | x2...
1 0 +7.077919574e+001 +1.705791957e+002 +1.705791957e+002 +5.0000e+000 +5.0000e+000
2 0 +6.257230191e+001 +1.623723019e+002 +1.623723019e+002 -5.0000e+000 +5.0000e+000
3 0 +2.770641769e+001 +1.275064177e+002 +1.275064177e+002 +5.0000e+000 -5.0000e+000
5 0 +1.426796927e+001 +1.140679693e+002 +1.140679693e+002 +5.0000e+000 +2.7399e+000
11 0 +2.117808946e+000 +1.019178089e+002 +1.019178089e+002 -1.5135e+000 +3.2861e+000
54 0 +2.073406589e+000 +1.018734066e+002 +1.018734066e+002 +1.8774e+000 +1.8421e+000
65 0 +2.006084155e+000 +1.018060842e+002 +1.018060842e+002 +1.3824e+000 +1.5382e+000
80 0 +4.932295181e-002 +9.984932295e+001 +9.984932295e+001 -1.4778e+000 +2.4715e-001
1112 0 +4.806572910e-002 +9.984806573e+001 +9.984806573e+001 -3.7487e+000 -7.3051e-001
1119 0 +4.761822911e-002 +9.984761823e+001 +9.984761823e+001 -3.7369e+000 -7.2267e-001
1130 0 +4.614322063e-002 +9.984614322e+001 +9.984614322e+001 -3.7380e+000 -7.2964e-001
1131 0 +4.376712545e-002 +9.984376713e+001 +9.984376713e+001 -3.7139e+000 -7.1721e-001
1132 0 +3.992792625e-002 +9.983992793e+001 +9.983992793e+001 -3.6792e+000 -7.0451e-001
1134 0 +3.880090367e-002 +9.983880090e+001 +9.983880090e+001 -3.6681e+000 -6.9845e-001
1142 0 +3.780447657e-002 +9.983780448e+001 +9.983780448e+001 -3.5810e+000 -6.4211e-001
1143 0 +2.227499791e-002 +9.982227500e+001 +9.982227500e+001 -3.5003e+000 -6.2894e-001
1144 0 +2.112878799e-002 +9.982112879e+001 +9.982112879e+001 -3.4894e+000 -6.2298e-001
1149 0 +2.065382152e-002 +9.982065382e+001 +9.982065382e+001 -3.4859e+000 -6.2030e-001
1150 0 +1.798811471e-002 +9.981798811e+001 +9.981798811e+001 -3.4371e+000 -6.0105e-001
1151 0 +1.775024290e-002 +9.981775024e+001 +9.981775024e+001 -3.4351e+000 -5.9950e-001
1154 0 +1.719717074e-002 +9.981719717e+001 +9.981719717e+001 -3.2932e+000 -5.5038e-001
1157 0 +1.144924044e-002 +9.981144924e+001 +9.981144924e+001 -2.9690e+000 -4.0832e-001
1164 0 +8.795129011e-003 +9.980879513e+001 +9.980879513e+001 -2.9816e+000 -4.1077e-001
1166 0 +5.949210075e-003 +9.980594921e+001 +9.980594921e+001 -2.9003e+000 -3.7411e-001
1167 0 +5.159471601e-003 +9.980515947e+001 +9.980515947e+001 -2.8072e+000 -3.3396e-001
1177 0 +3.102132716e-003 +9.980310213e+001 +9.980310213e+001 -2.7054e+000 -2.8222e-001
1178 0 +2.976330470e-003 +9.980297633e+001 +9.980297633e+001 -2.6719e+000 -2.6768e-001
1187 0 +1.313588270e-003 +9.980131359e+001 +9.980131359e+001 -2.8088e+000 -2.9754e-001
1196 0 +1.155995555e-003 +9.980115600e+001 +9.980115600e+001 -2.8571e+000 -3.2891e-001
1198 0 +9.287640756e-004 +9.980092876e+001 +9.980092876e+001 -2.3713e+000 -1.3040e-001
1206 0 +8.273294766e-004 +9.980082733e+001 +9.980082733e+001 -2.3840e+000 -1.3417e-001
1213 0 +2.870172392e-004 +9.980028702e+001 +9.980028702e+001 -2.1071e+000 -4.2587e-003
1218 0 +1.033542127e-004 +9.980010335e+001 +9.980010335e+001 -2.0310e+000 +3.6369e-002
1220 0 +1.016516065e-004 +9.980010165e+001 +9.980010165e+001 -2.5489e+000 -1.9276e-001
1226 0 +1.418920320e-006 +9.980000142e+001 +9.980000142e+001 -2.2829e+000 -7.2327e-002
1234 0 +9.958902325e-007 +9.980000100e+001 +9.980000100e+001 -2.3111e+000 -8.3913e-002
1238 0 +9.244426167e-007 +9.980000092e+001 +9.980000092e+001 -2.2877e+000 -7.3969e-002
1239 0 +4.860592639e-008 +9.980000005e+001 +9.980000005e+001 -2.2607e+000 -6.0028e-002
1271 0 +9.800558587e-009 +9.980000001e+001 +9.980000001e+001 -2.2590e+000 -5.8418e-002
% f evaluations | g evaluations | best noise-free fitness - Fopt (-1.194100000000e+002) + sum g_i+ | measured fitness | best measured fitness or single-digit g-values | x1 | x2...
1 0 +4.423166569e+001 -7.517833431e+001 -7.517833431e+001 +5.0000e+000 -5.0000e+000
6 0 +2.712946596e+001 -9.228053404e+001 -9.228053404e+001 +2.9221e+000 +3.2429e+000
10 0 +2.634386303e+001 -9.306613697e+001 -9.306613697e+001 +2.9221e+000 +3.2031e+000
12 0 +2.628653740e+001 -9.312346260e+001 -9.312346260e+001 +2.9221e+000 +3.2001e+000
16 0 +2.158230128e+001 -9.782769872e+001 -9.782769872e+001 -3.1155e-001 +3.1815e+000
18 0 +8.116751045e+000 -1.112932490e+002 -1.112932490e+002 +3.4101e+000 +9.6542e-001
28 0 +8.336592422e-002 -1.193266341e+002 -1.193266341e+002 +4.8006e-001 +7.3202e-001
130 0 +7.708891082e-002 -1.193329111e+002 -1.193329111e+002 +5.5901e-001 +7.2931e-001
182 0 +1.665904579e-002 -1.193933410e+002 -1.193933410e+002 -3.0634e-001 +6.3071e-001
234 0 +1.615190515e-002 -1.193938481e+002 -1.193938481e+002 -4.3250e-001 +5.5483e-001
337 0 +1.569801026e-002 -1.193943020e+002 -1.193943020e+002 -2.9771e-001 +5.7824e-001
342 0 +9.815419188e-004 -1.194090185e+002 -1.194090185e+002 -6.4213e-001 +5.5264e-001
398 0 +2.401303893e-004 -1.194097599e+002 -1.194097599e+002 -8.3286e-001 +5.3218e-001
433 0 +4.736534014e-005 -1.194099526e+002 -1.194099526e+002 -1.0797e+000 +4.9093e-001
441 0 +1.401924131e-005 -1.194099860e+002 -1.194099860e+002 -1.1338e+000 +4.9588e-001
444 0 +3.986931446e-006 -1.194099960e+002 -1.194099960e+002 -1.2266e+000 +4.8280e-001
496 0 +1.666434414e-006 -1.194099983e+002 -1.194099983e+002 -1.2217e+000 +4.7499e-001
537 0 +6.605742442e-007 -1.194099993e+002 -1.194099993e+002 -1.3559e+000 +4.5855e-001
542 0 +2.363624390e-007 -1.194099998e+002 -1.194099998e+002 -1.2266e+000 +4.7612e-001
588 0 +2.038585478e-008 -1.194100000e+002 -1.194100000e+002 -1.2436e+000 +4.7487e-001
590 0 +9.747893159e-009 -1.194100000e+002 -1.194100000e+002 -1.2689e+000 +4.7130e-001
% f evaluations | g evaluations | best noise-free fitness - Fopt (1.077000000000e+001) + sum g_i+ | measured fitness | best measured fitness or single-digit g-values | x1 | x2...
1 0 +5.790230904e+001 +6.867230904e+001 +6.867230904e+001 -5.0000e+000 -5.0000e+000
2 0 +3.095389309e+001 +4.172389309e+001 +4.172389309e+001 +5.0000e+000 -5.0000e+000
4 0 +2.010013071e+001 +3.087013071e+001 +3.087013071e+001 +3.3729e+000 +4.2986e+000
11 0 +1.137356801e+001 +2.214356801e+001 +2.214356801e+001 +3.3729e+000 +4.0209e+000
24 0 +5.355950293e+000 +1.612595029e+001 +1.612595029e+001 -1.8062e+000 +1.2135e+000
64 0 +3.868638084e+000 +1.463863808e+001 +1.463863808e+001 +7.6477e-001 +4.0209e+000
99 0 +2.421942481e+000 +1.319194248e+001 +1.319194248e+001 +4.6940e+000 +1.9033e+000
267 0 +2.011194473e+000 +1.278119447e+001 +1.278119447e+001 +4.7433e+000 +2.0751e+000
472 0 +1.529574766e+000 +1.229957477e+001 +1.229957477e+001 -4.3507e-001 -3.8851e-001
485 0 +1.474235926e+000 +1.224423593e+001 +1.224423593e+001 -4.1783e-001 -3.9912e-001
535 0 +1.422255798e+000 +1.219225580e+001 +1.219225580e+001 -4.1669e-001 -4.2607e-001
559 0 +1.389986763e+000 +1.215998676e+001 +1.215998676e+001 -4.2948e-001 -4.3629e-001
565 0 +1.349050001e+000 +1.211905000e+001 +1.211905000e+001 -1.2252e+000 -1.4249e+000
587 0 +7.773989338e-001 +1.154739893e+001 +1.154739893e+001 -1.1457e+000 -1.2474e+000
609 0 +5.248317561e-001 +1.129483176e+001 +1.129483176e+001 +2.6924e+000 -3.6321e-001
619 0 +1.099784245e-001 +1.087997842e+001 +1.087997842e+001 +2.6911e+000 -4.2900e-001
657 0 +1.363340959e-002 +1.078363341e+001 +1.078363341e+001 +2.1664e+000 -1.0201e+000
664 0 +1.252506696e-002 +1.078252507e+001 +1.078252507e+001 +2.1422e+000 -1.0475e+000
690 0 +1.156075025e-002 +1.078156075e+001 +1.078156075e+001 +2.1797e+000 -1.0097e+000
757 0 +3.947702865e-003 +1.077394770e+001 +1.077394770e+001 +2.1723e+000 -1.0286e+000
767 0 +8.765392506e-005 +1.077008765e+001 +1.077008765e+001 +2.0033e+000 -1.2474e+000
796 0 +5.684782778e-005 +1.077005685e+001 +1.077005685e+001 +1.9056e+000 -1.3622e+000
807 0 +6.386753473e-006 +1.077000639e+001 +1.077000639e+001 +1.8906e+000 -1.3685e+000
813 0 +5.191686785e-006 +1.077000519e+001 +1.077000519e+001 +1.8795e+000 -1.3772e+000
817 0 +4.503902728e-006 +1.077000450e+001 +1.077000450e+001 +1.8805e+000 -1.3773e+000
822 0 +2.656936392e-006 +1.077000266e+001 +1.077000266e+001 +1.8734e+000 -1.3865e+000
849 0 +1.823250811e-006 +1.077000182e+001 +1.077000182e+001 +1.6976e+000 -1.5728e+000
851 0 +2.422418710e-008 +1.077000002e+001 +1.077000002e+001 +1.7894e+000 -1.4752e+000
858 0 +3.530598036e-010 +1.077000000e+001 +1.077000000e+001 +1.7822e+000 -1.4843e+000
% f evaluations | g evaluations | best noise-free fitness - Fopt (2.137000000000e+001) + sum g_i+ | measured fitness | best measured fitness or single-digit g-values | x1 | x2...
1 0 +1.578740793e+000 +2.294874079e+001 +2.294874079e+001 +5.0000e+000 +5.0000e+000
3 0 +7.932686744e-001 +2.216326867e+001 +2.216326867e+001 +5.0000e+000 -5.0000e+000
41 0 +5.542729137e-001 +2.192427291e+001 +2.192427291e+001 +5.0000e+000 +4.9324e+000
5896 0 +5.043453219e-001 +2.187434532e+001 +2.187434532e+001 +4.5408e+000 +4.5404e+000
5955 0 +4.888849092e-001 +2.185888491e+001 +2.185888491e+001 +4.5462e+000 +4.5348e+000
5958 0 +4.489171858e-001 +2.181891719e+001 +2.181891719e+001 +4.2967e+000 +4.3083e+000
5978 0 +4.434197611e-001 +2.181341976e+001 +2.181341976e+001 +4.5667e+000 +4.5370e+000
6000 0 +3.796654388e-001 +2.174966544e+001 +2.174966544e+001 +4.5820e+000 +4.5348e+000
6020 0 +3.362528194e-001 +2.170625282e+001 +2.170625282e+001 +4.6006e+000 +4.5322e+000
6021 0 +3.280184086e-001 +2.169801841e+001 +2.169801841e+001 +4.5872e+000 +4.5223e+000
6027 0 +3.046303619e-001 +2.167463036e+001 +2.167463036e+001 +4.5642e+000 +4.4716e+000
6042 0 +3.017611739e-001 +2.167176117e+001 +2.167176117e+001 +4.5653e+000 +4.4993e+000
6044 0 +2.864638952e-001 +2.165646390e+001 +2.165646390e+001 +4.5591e+000 +4.4859e+000
6066 0 +2.804876962e-001 +2.165048770e+001 +2.165048770e+001 +4.5540e+000 +4.4793e+000
6071 0 +1.717975139e-001 +2.154179751e+001 +2.154179751e+001 +4.3959e+000 +4.3365e+000
6083 0 +1.435454843e-001 +2.151354548e+001 +2.151354548e+001 +4.2893e+000 +4.2038e+000
6088 0 +1.398550872e-001 +2.150985509e+001 +2.150985509e+001 +4.3058e+000 +4.2460e+000
6093 0 +1.174847424e-001 +2.148748474e+001 +2.148748474e+001 +4.0270e+000 +4.0161e+000
6101 0 +5.619295475e-002 +2.142619295e+001 +2.142619295e+001 +3.8443e+000 +3.8301e+000
6106 0 +5.006414266e-002 +2.142006414e+001 +2.142006414e+001 +2.9041e+000 +2.9779e+000
6107 0 +4.651657087e-002 +2.141651657e+001 +2.141651657e+001 +2.8991e+000 +2.9716e+000
6115 0 +3.695150753e-002 +2.140695151e+001 +2.140695151e+001 +3.1134e+000 +3.1674e+000
6127 0 +3.538345820e-002 +2.140538346e+001 +2.140538346e+001 +2.9917e+000 +3.0533e+000
6130 0 +1.476631412e-002 +2.138476631e+001 +2.138476631e+001 +3.1211e+000 +3.1593e+000
6140 0 +1.390309480e-002 +2.138390309e+001 +2.138390309e+001 +3.2272e+000 +3.2538e+000
6144 0 +1.075335366e-002 +2.138075335e+001 +2.138075335e+001 +3.0638e+000 +3.1000e+000
6149 0 +3.805452052e-003 +2.137380545e+001 +2.137380545e+001 +2.9788e+000 +3.0121e+000
6170 0 +1.206256419e-003 +2.137120626e+001 +2.137120626e+001 +3.0413e+000 +3.0568e+000
6181 0 +5.599813923e-005 +2.137005600e+001 +2.137005600e+001 +2.7563e+000 +2.7772e+000
6183 0 +6.595095098e-006 +2.137000660e+001 +2.137000660e+001 +2.7338e+000 +2.7504e+000
6190 0 +6.368161110e-006 +2.137000637e+001 +2.137000637e+001 +2.5800e+000 +2.6011e+000
6240 0 +5.494517218e-006 +2.137000549e+001 +2.137000549e+001 +2.5934e+000 +2.6142e+000
6263 0 +2.526665973e-006 +2.137000253e+001 +2.137000253e+001 +2.6184e+000 +2.6383e+000
6268 0 +5.304064459e-007 +2.137000053e+001 +2.137000053e+001 +2.6785e+000 +2.6947e+000
6289 0 +2.002060668e-007 +2.137000020e+001 +2.137000020e+001 +2.6421e+000 +2.6581e+000
6291 0 +4.752333993e-008 +2.137000005e+001 +2.137000005e+001 +2.6618e+000 +2.6765e+000
6310 0 +2.920518938e-009 +2.137000000e+001 +2.137000000e+001 +2.6837e+000 +2.6943e+000
% f evaluations | g evaluations | best noise-free fitness - Fopt (1.673000000000e+001) + sum g_i+ | measured fitness | best measured fitness or single-digit g-values | x1 | x2...
1 0 +6.509888806e+001 +8.182888806e+001 +8.182888806e+001 +5.0000e+000 +5.0000e+000
4 0 +5.703723289e+001 +7.376723289e+001 +7.376723289e+001 +1.1104e+000 -2.6679e+000
7 0 +7.760167407e+000 +2.449016741e+001 +2.449016741e+001 +1.1104e+000 +2.1665e+000
31 0 +6.467530132e+000 +2.319753013e+001 +2.319753013e+001 -2.8581e+000 -3.4125e+000
40 0 +1.457385586e-002 +1.674457386e+001 +1.674457386e+001 -4.5080e-001 -2.5327e+000
600 0 +5.163967407e-004 +1.673051640e+001 +1.673051640e+001 -1.6240e+000 -1.3636e+000
611 0 +3.651950613e-004 +1.673036520e+001 +1.673036520e+001 -1.5102e+000 -1.4950e+000
667 0 +3.003401557e-004 +1.673030034e+001 +1.673030034e+001 -1.5523e+000 -1.4469e+000
668 0 +2.591878860e-004 +1.673025919e+001 +1.673025919e+001 -1.5431e+000 -1.4554e+000
673 0 +1.969130653e-004 +1.673019691e+001 +1.673019691e+001 -1.4707e+000 -1.5325e+000
684 0 +8.326395843e-005 +1.673008326e+001 +1.673008326e+001 -1.4815e+000 -1.5125e+000
698 0 +5.909758784e-005 +1.673005910e+001 +1.673005910e+001 -1.4152e+000 -1.5854e+000
713 0 +5.779840546e-005 +1.673005780e+001 +1.673005780e+001 -1.4161e+000 -1.5844e+000
737 0 +5.186040325e-005 +1.673005186e+001 +1.673005186e+001 -1.4208e+000 -1.5787e+000
743 0 +4.870944043e-005 +1.673004871e+001 +1.673004871e+001 -1.4177e+000 -1.5820e+000
766 0 +4.728298447e-005 +1.673004728e+001 +1.673004728e+001 -1.4525e+000 -1.5422e+000
775 0 +5.609851250e-007 +1.673000056e+001 +1.673000056e+001 -1.3205e+000 -1.6730e+000
831 0 +3.535684812e-008 +1.673000004e+001 +1.673000004e+001 -1.2836e+000 -1.7087e+000
845 0 +1.263649452e-008 +1.673000001e+001 +1.673000001e+001 -1.2630e+000 -1.7321e+000
856 0 +2.966583423e-009 +1.673000000e+001 +1.673000000e+001 -1.2351e+000 -1.7590e+000
% f evaluations | g evaluations | best noise-free fitness - Fopt (1.000000000000e+003) + sum g_i+ | measured fitness | best measured fitness or single-digit g-values | x1 | x2...
1 0 +6.486747047e+001 +1.064867470e+003 +1.064867470e+003 +5.0000e+000 +5.0000e+000
2 0 +5.140911693e+001 +1.051409117e+003 +1.051409117e+003 -5.0000e+000 +5.0000e+000
3 0 +3.023669734e+000 +1.003023670e+003 +1.003023670e+003 +5.0000e+000 -5.0000e+000
66 0 +4.144480373e-001 +1.000414448e+003 +1.000414448e+003 -3.8119e+000 -2.7460e+000
17009 0 +2.872849693e-001 +1.000287285e+003 +1.000287285e+003 -1.3237e+000 -3.6022e+000
17093 0 +2.141494831e-002 +1.000021415e+003 +1.000021415e+003 -1.0173e+000 -3.6582e+000
17100 0 +4.508663813e-003 +1.000004509e+003 +1.000004509e+003 -7.6796e-001 -3.7038e+000
17101 0 +3.356056318e-004 +1.000000336e+003 +1.000000336e+003 -1.3224e+000 -3.5065e+000
17119 0 +3.229461053e-004 +1.000000323e+003 +1.000000323e+003 -1.3212e+000 -3.5071e+000
17120 0 +1.564840204e-007 +1.000000000e+003 +1.000000000e+003 -1.6290e+000 -3.4139e+000
17129 0 +7.527546586e-009 +1.000000000e+003 +1.000000000e+003 -1.6504e+000 -3.4085e+000
% f evaluations | g evaluations | best noise-free fitness - Fopt (-1.079600000000e+002) + sum g_i+ | measured fitness | best measured fitness or single-digit g-values | x1 | x2...
1 0 +7.147937085e+001 -3.648062915e+001 -3.648062915e+001 -5.0000e+000 -5.0000e+000
4 0 +5.973940570e+001 -4.822059430e+001 -4.822059430e+001 -4.2064e+000 -4.9348e+000
11 0 +3.970550307e+001 -6.825449693e+001 -6.825449693e+001 -2.5161e+000 -4.9443e+000
12 0 +1.590638647e+001 -9.205361353e+001 -9.205361353e+001 -3.3727e+000 -4.9531e+000
13 0 +1.549684252e+001 -9.246315748e+001 -9.246315748e+001 -3.2848e+000 -5.0000e+000
17 0 +5.930429753e+000 -1.020295702e+002 -1.020295702e+002 +2.2614e+000 -2.2846e+000
60 0 +1.915185864e+000 -1.060448141e+002 -1.060448141e+002 +2.6700e+000 -1.2301e-001
2172 0 +1.228752083e+000 -1.067312479e+002 -1.067312479e+002 -9.4686e-001 +1.2774e+000
2210 0 +5.057306219e-001 -1.074542694e+002 -1.074542694e+002 -1.2403e+000 +1.3153e+000
2212 0 +9.919364400e-002 -1.078608064e+002 -1.078608064e+002 -1.8332e+000 +1.3919e+000
2225 0 +4.693974476e-002 -1.079130603e+002 -1.079130603e+002 -2.3311e+000 +1.3992e+000
2226 0 +1.524468602e-002 -1.079447553e+002 -1.079447553e+002 -2.1404e+000 +1.3748e+000
2240 0 +4.049312957e-003 -1.079559507e+002 -1.079559507e+002 -1.8618e+000 +1.3538e+000
2243 0 +3.778656968e-003 -1.079562213e+002 -1.079562213e+002 -1.9171e+000 +1.3582e+000
2279 0 +3.637927919e-003 -1.079563621e+002 -1.079563621e+002 -1.8783e+000 +1.3506e+000
2282 0 +3.194752138e-003 -1.079568052e+002 -1.079568052e+002 -1.8492e+000 +1.3354e+000
2330 0 +3.102723903e-003 -1.079568973e+002 -1.079568973e+002 -1.8199e+000 +1.3242e+000
2337 0 +3.053182251e-003 -1.079569468e+002 -1.079569468e+002 -1.8344e+000 +1.3367e+000
2338 0 +9.910185159e-004 -1.079590090e+002 -1.079590090e+002 -1.6224e+000 +1.3015e+000
2339 0 +9.210837877e-004 -1.079590789e+002 -1.079590789e+002 -1.6639e+000 +1.3041e+000
2350 0 +2.497885494e-004 -1.079597502e+002 -1.079597502e+002 -1.4752e+000 +1.2669e+000
2356 0 +2.112572320e-004 -1.079597887e+002 -1.079597887e+002 -1.3501e+000 +1.2467e+000
2358 0 +1.955275706e-004 -1.079598045e+002 -1.079598045e+002 -1.4645e+000 +1.2616e+000
2360 0 +2.530505026e-005 -1.079599747e+002 -1.079599747e+002 -1.1310e+000 +1.2005e+000
2368 0 +1.327370072e-006 -1.079599987e+002 -1.079599987e+002 -1.0958e+000 +1.1895e+000
2371 0 +4.861536240e-007 -1.079599995e+002 -1.079599995e+002 -1.0923e+000 +1.1881e+000
2402 0 +1.225970436e-010 -1.079600000e+002 -1.079600000e+002 -1.0684e+000 +1.1807e+000
% f evaluations | g evaluations | best noise-free fitness - Fopt (-3.025900000000e+002) + sum g_i+ | measured fitness | best measured fitness or single-digit g-values | x1 | x2...
1 0 +8.606203556e+001 -2.165279644e+002 -2.165279644e+002 -5.0000e+000 -5.0000e+000
2 0 +6.909504589e+001 -2.334949541e+002 -2.334949541e+002 +5.0000e+000 -5.0000e+000
7 0 +5.204587189e+001 -2.505441281e+002 -2.505441281e+002 +5.0000e+000 -3.4256e-001
11 0 +4.721183672e+001 -2.553781633e+002 -2.553781633e+002 -5.0000e+000 -5.2311e-001
18 0 +1.711642549e+001 -2.854735745e+002 -2.854735745e+002 -1.2860e+000 -1.0288e+000
24 0 +6.412374503e+000 -2.961776255e+002 -2.961776255e+002 -2.7651e-001 +2.7898e-001
27 0 +1.937755817e+000 -3.006522442e+002 -3.006522442e+002 +8.4332e-001 -5.2311e-001
63 0 +1.445343235e+000 -3.011446568e+002 -3.011446568e+002 +2.1538e+000 -3.3844e+000
199 0 +4.595970181e-001 -3.021304030e+002 -3.021304030e+002 +1.7196e+000 -2.5063e+000
334 0 +2.180758692e-001 -3.023719241e+002 -3.023719241e+002 +7.0139e-001 -6.9696e-001
371 0 +4.431106235e-003 -3.025855689e+002 -3.025855689e+002 +2.5243e-002 +7.4614e-001
478 0 +9.001706016e-004 -3.025890998e+002 -3.025890998e+002 +2.0062e-001 +4.1002e-001
513 0 +7.514662855e-004 -3.025892485e+002 -3.025892485e+002 +1.9819e-001 +4.2071e-001
517 0 +4.216042028e-004 -3.025895784e+002 -3.025895784e+002 +1.8808e-001 +4.5083e-001
530 0 +3.861153631e-004 -3.025896139e+002 -3.025896139e+002 +1.8989e-001 +4.4808e-001
532 0 +3.092972764e-004 -3.025896907e+002 -3.025896907e+002 +1.9819e-001 +4.5570e-001
549 0 +3.047670250e-004 -3.025896952e+002 -3.025896952e+002 +1.9134e-001 +4.5012e-001
550 0 +2.745046280e-004 -3.025897255e+002 -3.025897255e+002 +1.9387e-001 +4.5719e-001
572 0 +2.056053544e-004 -3.025897944e+002 -3.025897944e+002 +2.1375e-001 +4.1842e-001
584 0 +1.725955692e-004 -3.025898274e+002 -3.025898274e+002 +2.2062e-001 +4.0198e-001
594 0 +1.483486732e-004 -3.025898517e+002 -3.025898517e+002 +2.7615e-001 +3.1187e-001
603 0 +1.399432062e-004 -3.025898601e+002 -3.025898601e+002 +2.3407e-001 +3.8106e-001
606 0 +1.280689974e-004 -3.025898719e+002 -3.025898719e+002 +2.3497e-001 +3.7729e-001
617 0 +8.538170829e-005 -3.025899146e+002 -3.025899146e+002 +2.7441e-001 +3.0897e-001
629 0 +4.619414597e-006 -3.025899954e+002 -3.025899954e+002 +3.4608e-001 +1.6395e-001
648 0 +2.074614258e-007 -3.025899998e+002 -3.025899998e+002 +4.2572e-001 +7.6785e-003
657 0 +5.144522675e-008 -3.025899999e+002 -3.025899999e+002 +4.0148e-001 +5.4068e-002
679 0 +5.011605708e-008 -3.025899999e+002 -3.025899999e+002 +4.2081e-001 +1.5865e-002
715 0 +2.088017936e-008 -3.025900000e+002 -3.025900000e+002 +4.1786e-001 +2.0961e-002
717 0 +6.651248441e-010 -3.025900000e+002 -3.025900000e+002 +4.1070e-001 +3.3470e-002
% f evaluations | g evaluations | best noise-free fitness - Fopt (-3.065500000000e+002) + sum g_i+ | measured fitness | best measured fitness or single-digit g-values | x1 | x2...
1 0 +8.523932751e+001 -2.213106725e+002 -2.213106725e+002 +5.0000e+000 -5.0000e+000
2 0 +8.517833502e+001 -2.213716650e+002 -2.213716650e+002 -5.0000e+000 -5.0000e+000
3 0 +6.005000673e+001 -2.464999933e+002 -2.464999933e+002 +5.0000e+000 +5.0000e+000
4 0 +5.841966957e+001 -2.481303304e+002 -2.481303304e+002 -5.0000e+000 +5.0000e+000
5 0 +1.514119866e+001 -2.914088013e+002 -2.914088013e+002 -2.3473e+000 +5.0000e+000
7 0 +1.164985503e+001 -2.949001450e+002 -2.949001450e+002 -3.0603e+000 -5.0000e+000
10 0 +9.986453912e+000 -2.965635461e+002 -2.965635461e+002 -3.0646e+000 +5.0000e+000
13 0 +3.479475055e+000 -3.030705249e+002 -3.030705249e+002 -2.3584e+000 +1.5928e+000
173 0 +3.449260405e+000 -3.031007396e+002 -3.031007396e+002 -3.6832e+000 +2.0177e+000
420 0 +2.035526157e+000 -3.045144738e+002 -3.045144738e+002 +1.3507e+000 -1.6277e-001
499 0 +1.981055027e+000 -3.045689450e+002 -3.045689450e+002 +1.1819e+000 -5.0932e-001
1030 0 +1.742145181e+000 -3.048078548e+002 -3.048078548e+002 -1.1459e+000 +8.7408e-001
1048 0 +1.423164738e+000 -3.051268353e+002 -3.051268353e+002 -1.2257e+000 +3.7524e-001
1141 0 +9.447070259e-001 -3.056052930e+002 -3.056052930e+002 -1.2461e+000 +5.8927e-001
1153 0 +8.975556263e-001 -3.056524444e+002 -3.056524444e+002 -1.1931e+000 +4.9641e-001
1161 0 +8.728897081e-001 -3.056771103e+002 -3.056771103e+002 -9.8835e-001 +6.8618e-001
1169 0 +7.178809046e-001 -3.058321191e+002 -3.058321191e+002 -9.7934e-001 +5.9203e-001
1215 0 +7.029040737e-001 -3.058470959e+002 -3.058470959e+002 -1.0055e+000 +5.8368e-001
10977 0 +2.503442209e-001 -3.062996558e+002 -3.062996558e+002 -1.0217e+000 -4.6040e+000
11133 0 +1.399782761e-001 -3.064100217e+002 -3.064100217e+002 -1.5218e+000 -4.3655e+000
11135 0 +1.370837318e-001 -3.064129163e+002 -3.064129163e+002 -1.2970e+000 -4.4847e+000
11136 0 +1.198757182e-001 -3.064301243e+002 -3.064301243e+002 -1.5691e+000 -4.3549e+000
11149 0 +1.156643565e-001 -3.064343356e+002 -3.064343356e+002 -1.5727e+000 -4.3558e+000
11150 0 +8.440156058e-002 -3.064655984e+002 -3.064655984e+002 -1.8598e+000 -4.2371e+000
11153 0 +8.058397952e-002 -3.064694160e+002 -3.064694160e+002 -1.8593e+000 -4.2386e+000
11156 0 +4.895155732e-002 -3.065010484e+002 -3.065010484e+002 -2.2136e+000 -4.0965e+000
11167 0 +4.531263803e-002 -3.065046874e+002 -3.065046874e+002 -2.0942e+000 -4.1501e+000
11171 0 +3.439240577e-002 -3.065156076e+002 -3.065156076e+002 -2.1654e+000 -4.1258e+000
11179 0 +2.361435889e-002 -3.065263856e+002 -3.065263856e+002 -2.2497e+000 -4.0956e+000
11182 0 +1.528630835e-002 -3.065347137e+002 -3.065347137e+002 -2.5172e+000 -3.9884e+000
11185 0 +6.051546206e-003 -3.065439485e+002 -3.065439485e+002 -2.6699e+000 -3.9361e+000
11186 0 +4.881749789e-003 -3.065451183e+002 -3.065451183e+002 -2.6732e+000 -3.9365e+000
11194 0 +4.392977374e-003 -3.065456070e+002 -3.065456070e+002 -2.5362e+000 -3.9993e+000
11195 0 +7.512844804e-004 -3.065492487e+002 -3.065492487e+002 -2.8482e+000 -3.8912e+000
11197 0 +4.394767293e-004 -3.065495605e+002 -3.065495605e+002 -2.9101e+000 -3.8706e+000
11220 0 +6.029706879e-005 -3.065499397e+002 -3.065499397e+002 -3.2609e+000 -3.7410e+000
11252 0 +4.984544478e-005 -3.065499502e+002 -3.065499502e+002 -3.5181e+000 -3.6411e+000
11258 0 +4.542985636e-005 -3.065499546e+002 -3.065499546e+002 -3.5003e+000 -3.6481e+000
11260 0 +1.582758091e-005 -3.065499842e+002 -3.065499842e+002 -3.4614e+000 -3.6474e+000
11265 0 +6.163964713e-006 -3.065499938e+002 -3.065499938e+002 -3.3685e+000 -3.6957e+000
11313 0 +2.987529228e-007 -3.065499997e+002 -3.065499997e+002 -3.3092e+000 -3.7114e+000
11338 0 +6.857811741e-008 -3.065499999e+002 -3.065499999e+002 -3.3291e+000 -3.7041e+000
11339 0 +8.526512829e-013 -3.065500000e+002 -3.065500000e+002 -3.3800e+000 -3.6856e+000
11504 0 +0.000000000e+000 -3.065500000e+002 -3.065500000e+002 -3.3768e+000 -3.6867e+000
