% f evaluations | g evaluations | best noise-free fitness - Fopt (9.294000000000e+001) + sum g_i+ | measured fitness | best measured fitness or single-digit g-values | x1 | x2...
1 0 +2.087128837e+002 +3.016528837e+002 +3.016528837e+002 -6.5994e-001 -7.4881e-001 +3.4541e-001 -1.9809e+000 -4.6290e+000
11 0 +2.056433899e+002 +2.985833899e+002 +2.985833899e+002 +2.8314e+000 -2.7682e+000 -1.8788e-001 +1.9621e+000 -3.0277e+000
16 0 +1.203604739e+002 +2.133004739e+002 +2.133004739e+002 -9.6902e-001 -4.0697e+000 -2.7389e+000 -1.2191e+000 +4.3289e+000
25 0 +1.104626826e+002 +2.034026826e+002 +2.034026826e+002 -1.4274e+000 +2.0410e+000 -3.9926e+000 -2.1742e-002 +2.6961e+000
30 0 +7.300999205e+001 +1.659499920e+002 +1.659499920e+002 -3.1816e-001 +5.0000e+000 +4.8132e-001 +6.8878e-001 -1.2267e+000
39 0 +5.427994961e+001 +1.472199496e+002 +1.472199496e+002 +6.9508e-002 -9.1781e-001 +8.7884e-001 +1.7152e+000 -3.5230e-001
45 0 +2.800910336e+001 +1.209491034e+002 +1.209491034e+002 -3.1423e-001 +1.1531e+000 +5.6696e-001 +2.8453e+000 +3.5545e-001
53 0 +9.822656518e+000 +1.027626565e+002 +1.027626565e+002 -8.7312e-001 +2.1673e-001 -3.6432e-001 +3.4784e+000 +4.4027e+000
60 0 +8.408173738e+000 +1.013481737e+002 +1.013481737e+002 +4.1641e-001 -5.0790e-001 +1.1806e+000 +2.7990e+000 +1.7814e+000
118 0 +6.900504520e+000 +9.984050452e+001 +9.984050452e+001 +4.1883e-001 -1.6639e-001 +1.0549e+000 +2.9880e+000 +2.4062e+000
137 0 +4.476468733e+000 +9.741646873e+001 +9.741646873e+001 +6.6154e-001 -8.2847e-001 +8.5187e-001 +3.6206e+000 +2.8799e+000
179 0 +4.013749120e+000 +9.695374912e+001 +9.695374912e+001 +2.9101e-001 -3.5312e-001 +7.2865e-001 +3.5416e+000 +3.1814e+000
180 0 +3.509204554e+000 +9.644920455e+001 +9.644920455e+001 +2.9862e-001 -3.5294e-001 +7.2179e-001 +3.5473e+000 +3.1865e+000
191 0 +1.535401273e+000 +9.447540127e+001 +9.447540127e+001 +2.6182e-002 +6.2626e-001 +6.7357e-001 +3.3801e+000 +2.4347e+000
201 0 +1.191304638e-001 +9.305913046e+001 +9.305913046e+001 -8.2338e-003 +7.6329e-001 +3.7574e-001 +3.2835e+000 +2.3128e+000
264 0 +8.530772279e-002 +9.302530772e+001 +9.302530772e+001 -4.7428e-002 +7.6326e-001 +3.7290e-001 +3.1796e+000 +2.2777e+000
277 0 +2.058948798e-002 +9.296058949e+001 +9.296058949e+001 -2.3940e-001 +6.5061e-001 +2.8967e-001 +3.1688e+000 +2.5045e+000
559 0 +9.011210944e-003 +9.294901121e+001 +9.294901121e+001 -2.0862e-001 +6.9991e-001 +3.2223e-001 +3.1403e+000 +2.4007e+000
611 0 +3.153108707e-007 +9.294000032e+001 +9.294000032e+001 -2.3710e-001 +7.3502e-001 +2.9506e-001 +3.1524e+000 +2.4102e+000
735 0 +2.777108534e-007 +9.294000028e+001 +9.294000028e+001 -2.2768e-001 +7.2724e-001 +3.0422e-001 +3.1482e+000 +2.4008e+000
744 0 +2.748728889e-007 +9.294000027e+001 +9.294000027e+001 -2.2904e-001 +7.2724e-001 +3.0392e-001 +3.1483e+000 +2.4016e+000
822 0 +2.595272690e-007 +9.294000026e+001 +9.294000026e+001 -2.4115e-001 +7.3491e-001 +2.9776e-001 +3.1461e+000 +2.4103e+000
829 0 +2.245343893e-007 +9.294000022e+001 +9.294000022e+001 -2.3789e-001 +7.3166e-001 +2.9170e-001 +3.1444e+000 +2.4082e+000
861 0 +1.533116176e-007 +9.294000015e+001 +9.294000015e+001 -2.3710e-001 +7.3502e-001 +2.8739e-001 +3.1381e+000 +2.3918e+000
872 0 +1.097209577e-007 +9.294000011e+001 +9.294000011e+001 -2.3920e-001 +7.3309e-001 +2.8599e-001 +3.1343e+000 +2.3939e+000
877 0 +5.246687351e-008 +9.294000005e+001 +9.294000005e+001 -2.4035e-001 +7.3060e-001 +2.8670e-001 +3.1295e+000 +2.3903e+000
879 0 +4.349263349e-008 +9.294000004e+001 +9.294000004e+001 -2.4074e-001 +7.3235e-001 +2.8460e-001 +3.1276e+000 +2.3917e+000
893 0 +3.520638359e-008 +9.294000004e+001 +9.294000004e+001 -2.4078e-001 +7.2698e-001 +2.8682e-001 +3.1213e+000 +2.3870e+000
904 0 +2.410293121e-008 +9.294000002e+001 +9.294000002e+001 -2.3303e-001 +7.1943e-001 +2.8790e-001 +3.1171e+000 +2.4113e+000
944 0 +2.307348268e-008 +9.294000002e+001 +9.294000002e+001 -2.3101e-001 +7.1863e-001 +2.8259e-001 +3.1187e+000 +2.4099e+000
957 0 +1.702761665e-008 +9.294000002e+001 +9.294000002e+001 -2.3146e-001 +7.1896e-001 +2.8265e-001 +3.1196e+000 +2.4095e+000
967 0 +7.075641406e-009 +9.294000001e+001 +9.294000001e+001 -2.2864e-001 +7.2117e-001 +2.8048e-001 +3.1205e+000 +2.4038e+000
% f evaluations | g evaluations | best noise-free fitness - Fopt (3.535000000000e+001) + sum g_i+ | measured fitness | best measured fitness or single-digit g-values | x1 | x2...
1 0 +2.076887826e+003 +2.112237826e+003 +2.112237826e+003 +1.1573e+000 -4.1485e+000 -4.3722e+000 -4.8776e+000 +1.6875e+000
2 0 +3.068518086e+002 +3.422018086e+002 +3.422018086e+002 +1.1732e-001 +4.2411e+000 -2.0116e+000 -2.3153e+000 -4.0784e+000
7 0 +1.571401000e+002 +1.924901000e+002 +1.924901000e+002 +5.0000e+000 -5.0000e+000 +5.0000e+000 -5.0000e+000 -5.0000e+000
15 0 +9.720811284e+001 +1.325581128e+002 +1.325581128e+002 +5.0000e+000 +8.0078e-002 +1.9194e+000 -1.7618e+000 -2.5780e+000
18 0 +7.057566644e+000 +4.240756664e+001 +4.240756664e+001 +2.1740e+000 +6.5162e-001 +3.8397e+000 -2.0004e-002 -2.5886e+000
54 0 +3.703659120e+000 +3.905365912e+001 +3.905365912e+001 +2.3349e+000 +7.9454e-001 +4.3124e+000 +6.9565e-001 -2.3947e+000
93 0 +1.905611383e+000 +3.725561138e+001 +3.725561138e+001 +2.0956e+000 +6.8878e-001 +4.2635e+000 +6.8070e-001 -2.3648e+000
172 0 +1.740685750e+000 +3.709068575e+001 +3.709068575e+001 +1.9434e+000 +9.1145e-001 +4.0838e+000 +5.5998e-001 -2.3396e+000
281 0 +1.704288142e+000 +3.705428814e+001 +3.705428814e+001 +1.9283e+000 +9.0451e-001 +4.0441e+000 +5.0904e-001 -2.2598e+000
321 0 +1.631752845e+000 +3.698175285e+001 +3.698175285e+001 +2.3325e+000 +4.5608e-001 +4.0220e+000 +4.0093e-001 -2.2683e+000
419 0 +1.595525171e+000 +3.694552517e+001 +3.694552517e+001 +2.2632e+000 +6.6189e-001 +4.0649e+000 +5.3413e-001 -2.2572e+000
499 0 +1.258509389e+000 +3.660850939e+001 +3.660850939e+001 +2.5076e+000 +2.4843e-001 +4.5111e+000 +6.8200e-001 -2.0962e+000
502 0 +1.063131181e+000 +3.641313118e+001 +3.641313118e+001 +2.3497e+000 +1.7625e-001 +4.3649e+000 +7.6865e-001 -2.1877e+000
508 0 +8.410324012e-001 +3.619103240e+001 +3.619103240e+001 +2.4477e+000 +3.9013e-002 +4.4684e+000 +8.5175e-001 -2.0865e+000
515 0 +7.893919569e-001 +3.613939196e+001 +3.613939196e+001 +2.4429e+000 -9.3658e-003 +4.5422e+000 +9.5066e-001 -1.9140e+000
522 0 +7.575271796e-001 +3.610752718e+001 +3.610752718e+001 +2.4267e+000 -8.7940e-003 +4.4761e+000 +8.9267e-001 -1.9900e+000
530 0 +7.296759228e-001 +3.607967592e+001 +3.607967592e+001 +2.4826e+000 -3.3629e-002 +4.4559e+000 +8.8332e-001 -1.9891e+000
717 0 +7.193688206e-001 +3.606936882e+001 +3.606936882e+001 +2.5426e+000 +8.5320e-002 +4.3974e+000 +8.5618e-001 -1.9993e+000
729 0 +7.010709735e-001 +3.605107097e+001 +3.605107097e+001 +2.5289e+000 +9.2200e-002 +4.4009e+000 +8.6066e-001 -1.9804e+000
773 0 +6.835620079e-001 +3.603356201e+001 +3.603356201e+001 +2.5543e+000 +5.5478e-002 +4.3891e+000 +8.5577e-001 -1.9605e+000
815 0 +6.676308699e-001 +3.601763087e+001 +3.601763087e+001 +2.5233e+000 +5.4614e-002 +4.3918e+000 +8.6161e-001 -1.9708e+000
2828 0 +6.373795514e-001 +3.598737955e+001 +3.598737955e+001 +2.7983e+000 -4.9349e-002 +4.6026e+000 +1.2405e+000 -1.4047e+000
2896 0 +6.110499578e-001 +3.596104996e+001 +3.596104996e+001 +2.7995e+000 -1.2279e-001 +4.6188e+000 +1.2231e+000 -1.3672e+000
2911 0 +5.841675813e-001 +3.593416758e+001 +3.593416758e+001 +2.8081e+000 -1.6507e-001 +4.6126e+000 +1.1440e+000 -1.3496e+000
2930 0 +5.598140832e-001 +3.590981408e+001 +3.590981408e+001 +2.7607e+000 -1.6065e-001 +4.6308e+000 +1.2216e+000 -1.3649e+000
17010 0 +5.302502358e-001 +3.588025024e+001 +3.588025024e+001 +9.9596e-001 +2.0689e+000 +3.8348e+000 +1.5587e+000 -2.1480e+000
17051 0 +4.861823352e-001 +3.583618234e+001 +3.583618234e+001 +1.4674e+000 +1.6545e+000 +3.9021e+000 +1.4536e+000 -2.1067e+000
17057 0 +4.068508653e-001 +3.575685087e+001 +3.575685087e+001 +1.4916e+000 +1.5333e+000 +3.9883e+000 +1.4501e+000 -2.0761e+000
17082 0 +3.845729900e-001 +3.573457299e+001 +3.573457299e+001 +1.4845e+000 +1.6664e+000 +3.9556e+000 +1.4519e+000 -2.0906e+000
17088 0 +3.738066626e-001 +3.572380666e+001 +3.572380666e+001 +1.5263e+000 +1.4858e+000 +4.0425e+000 +1.3998e+000 -2.0613e+000
17115 0 +2.322145165e-001 +3.558221452e+001 +3.558221452e+001 +1.5837e+000 +1.6059e+000 +3.9083e+000 +1.4718e+000 -2.0577e+000
17129 0 +1.807730223e-001 +3.553077302e+001 +3.553077302e+001 +1.6837e+000 +1.4140e+000 +4.0406e+000 +1.3892e+000 -2.0457e+000
17131 0 +1.454213066e-001 +3.549542131e+001 +3.549542131e+001 +1.5599e+000 +1.5784e+000 +3.9814e+000 +1.4475e+000 -2.0497e+000
17157 0 +1.336711001e-001 +3.548367110e+001 +3.548367110e+001 +1.6054e+000 +1.6506e+000 +3.9142e+000 +1.3774e+000 -2.0664e+000
17160 0 +1.169309598e-001 +3.546693096e+001 +3.546693096e+001 +1.6774e+000 +1.4360e+000 +3.9637e+000 +1.3423e+000 -1.9961e+000
17209 0 +1.006294136e-001 +3.545062941e+001 +3.545062941e+001 +1.6993e+000 +1.4516e+000 +3.9868e+000 +1.3290e+000 -2.0032e+000
17220 0 +8.827891894e-002 +3.543827892e+001 +3.543827892e+001 +1.6997e+000 +1.4419e+000 +3.9796e+000 +1.3241e+000 -1.9983e+000
17251 0 +7.500691336e-002 +3.542500691e+001 +3.542500691e+001 +1.9023e+000 +1.1122e+000 +4.1197e+000 +1.2532e+000 -1.8894e+000
17277 0 +6.887660862e-002 +3.541887661e+001 +3.541887661e+001 +1.7143e+000 +1.5003e+000 +3.9495e+000 +1.3357e+000 -1.9697e+000
17285 0 +6.696597823e-002 +3.541696598e+001 +3.541696598e+001 +1.7451e+000 +1.5070e+000 +3.9319e+000 +1.3536e+000 -1.9195e+000
17295 0 +3.096867452e-002 +3.538096867e+001 +3.538096867e+001 +1.7514e+000 +1.4182e+000 +3.9852e+000 +1.3607e+000 -1.9259e+000
17307 0 +2.941679482e-002 +3.537941679e+001 +3.537941679e+001 +1.7840e+000 +1.3385e+000 +4.0456e+000 +1.3774e+000 -1.8846e+000
17395 0 +1.606000443e-002 +3.536606000e+001 +3.536606000e+001 +1.8004e+000 +1.3372e+000 +4.0624e+000 +1.3882e+000 -1.8448e+000
17650 0 +4.946781230e-003 +3.535494678e+001 +3.535494678e+001 +1.7486e+000 +1.4561e+000 +4.0280e+000 +1.4547e+000 -1.8327e+000
18069 0 +4.440365515e-007 +3.535000044e+001 +3.535000044e+001 +1.7880e+000 +1.4297e+000 +3.9775e+000 +1.4745e+000 -1.8823e+000
18073 0 +6.577469946e-008 +3.535000007e+001 +3.535000007e+001 +1.7566e+000 +1.4724e+000 +3.9932e+000 +1.4774e+000 -1.8815e+000
18083 0 +3.120671721e-008 +3.535000003e+001 +3.535000003e+001 +1.7615e+000 +1.4859e+000 +3.9965e+000 +1.4867e+000 -1.8715e+000
18102 0 +2.467923110e-008 +3.535000002e+001 +3.535000002e+001 +1.7611e+000 +1.4863e+000 +3.9966e+000 +1.4863e+000 -1.8723e+000
18170 0 +2.397256793e-008 +3.535000002e+001 +3.535000002e+001 +1.7611e+000 +1.4863e+000 +3.9966e+000 +1.4863e+000 -1.8723e+000
18217 0 +2.028024682e-008 +3.535000002e+001 +3.535000002e+001 +1.7559e+000 +1.4911e+000 +3.9979e+000 +1.4835e+000 -1.8716e+000
18232 0 +6.816186726e-009 +3.535000001e+001 +3.535000001e+001 +1.7584e+000 +1.4912e+000 +3.9976e+000 +1.4845e+000 -1.8700e+000
% f evaluations | g evaluations | best noise-free fitness - Fopt (3.820000000000e+000) + sum g_i+ | measured fitness | best measured fitness or single-digit g-values | x1 | x2...
1 0 +1.452778315e+002 +1.490978315e+002 +1.490978315e+002 +1.7646e-001 -6.3017e-002 +4.9456e+000 -9.7877e-001 -1.8148e+000
16 0 +1.367268089e+002 +1.405468089e+002 +1.405468089e+002 +3.7667e-001 +5.7331e-001 +4.9427e+000 -3.1659e+000 +8.5006e-001
18 0 +4.822688500e+001 +5.204688500e+001 +5.204688500e+001 +3.1860e+000 +1.6710e+000 +1.5074e+000 -5.0000e+000 -1.3162e+000
56 0 +7.084787392e+000 +1.090478739e+001 +1.090478739e+001 +4.7374e+000 +1.8946e+000 +8.1598e-001 -3.5861e+000 +8.4064e-001
63 0 +5.556451175e+000 +9.376451175e+000 +9.376451175e+000 +4.7908e+000 +1.8972e+000 +8.0781e-001 -3.6375e+000 +9.4464e-001
98 0 +4.650980668e+000 +8.470980668e+000 +8.470980668e+000 +3.5956e+000 +2.3774e+000 +8.7334e-001 -1.7060e+000 +3.7423e-001
144 0 +4.144919398e+000 +7.964919398e+000 +7.964919398e+000 +3.5370e+000 +2.1052e+000 +1.1972e+000 -1.5413e+000 +2.4847e-001
159 0 +3.954795367e+000 +7.774795367e+000 +7.774795367e+000 +3.6135e+000 +2.1398e+000 +1.3885e+000 -3.6704e+000 +3.1275e-001
162 0 +3.397792489e+000 +7.217792489e+000 +7.217792489e+000 +3.6385e+000 +2.1392e+000 +1.4432e+000 -3.6312e+000 +6.0168e-001
172 0 +2.380224678e+000 +6.200224678e+000 +6.200224678e+000 +3.6729e+000 +2.0711e+000 +1.3898e+000 -3.5347e+000 +5.2666e-001
186 0 +1.652558716e+000 +5.472558716e+000 +5.472558716e+000 +4.3659e+000 +1.9168e+000 +9.9424e-001 -3.5063e+000 +6.7736e-001
196 0 +5.665623775e-001 +4.386562378e+000 +4.386562378e+000 +3.8304e+000 +1.9161e+000 +1.1901e+000 -3.5317e+000 +5.1478e-001
223 0 +5.343798439e-001 +4.354379844e+000 +4.354379844e+000 +3.8571e+000 +1.8181e+000 +1.1976e+000 -3.3205e+000 +4.7303e-001
405 0 +3.253815637e-001 +4.145381564e+000 +4.145381564e+000 +3.9224e+000 +1.7266e+000 +1.2641e+000 -2.2259e+000 +4.4139e-001
426 0 +3.174648095e-001 +4.137464809e+000 +4.137464809e+000 +3.9423e+000 +1.7400e+000 +1.2643e+000 -2.2599e+000 +4.4575e-001
439 0 +3.099487034e-001 +4.129948703e+000 +4.129948703e+000 +3.8920e+000 +1.7696e+000 +1.2404e+000 -2.3017e+000 +3.9836e-001
478 0 +2.947335745e-001 +4.114733574e+000 +4.114733574e+000 +3.9230e+000 +1.7569e+000 +1.2529e+000 -2.3820e+000 +4.4104e-001
16474 0 +7.110292946e-002 +3.891102929e+000 +3.891102929e+000 +3.9765e+000 +1.0726e+000 +1.9403e+000 -2.2644e+000 +8.5366e-001
16483 0 +4.815586010e-002 +3.868155860e+000 +3.868155860e+000 +3.9760e+000 +1.0465e+000 +1.9681e+000 -2.2823e+000 +8.7202e-001
16554 0 +3.964841441e-002 +3.859648414e+000 +3.859648414e+000 +3.9798e+000 +1.0435e+000 +1.9715e+000 -2.2502e+000 +8.7247e-001
16685 0 +1.752872045e-002 +3.837528720e+000 +3.837528720e+000 +3.9725e+000 +1.0336e+000 +2.0160e+000 -2.4071e+000 +8.7130e-001
16761 0 +1.244591038e-002 +3.832445910e+000 +3.832445910e+000 +3.9655e+000 +1.0654e+000 +1.9800e+000 -2.5088e+000 +8.5436e-001
17426 0 +1.226091691e-002 +3.832260917e+000 +3.832260917e+000 +3.9718e+000 +1.0968e+000 +1.9520e+000 -2.4787e+000 +8.8092e-001
17432 0 +5.898380549e-003 +3.825898381e+000 +3.825898381e+000 +3.9718e+000 +1.0973e+000 +1.9509e+000 -2.4730e+000 +8.8386e-001
17463 0 +1.875452971e-007 +3.820000188e+000 +3.820000188e+000 +3.9890e+000 +1.1719e+000 +1.8681e+000 -2.5838e+000 +8.8958e-001
17464 0 +1.736621598e-007 +3.820000174e+000 +3.820000174e+000 +3.9888e+000 +1.1732e+000 +1.8698e+000 -2.5764e+000 +8.9768e-001
17526 0 +8.851087818e-008 +3.820000089e+000 +3.820000089e+000 +3.9898e+000 +1.1759e+000 +1.8637e+000 -2.5637e+000 +8.8728e-001
17542 0 +6.548535003e-008 +3.820000065e+000 +3.820000065e+000 +3.9906e+000 +1.1781e+000 +1.8622e+000 -2.5538e+000 +8.5823e-001
17547 0 +8.127329032e-009 +3.820000008e+000 +3.820000008e+000 +3.9934e+000 +1.1851e+000 +1.8502e+000 -2.5496e+000 +8.5997e-001
% f evaluations | g evaluations | best noise-free fitness - Fopt (2.175000000000e+001) + sum g_i+ | measured fitness | best measured fitness or single-digit g-values | x1 | x2...
1 0 +1.223143759e+003 +1.244893759e+003 +1.244893759e+003 +2.5393e+000 -4.6384e+000 +3.8028e+000 -3.3347e-001 -3.5815e+000
2 0 +9.048150710e+002 +9.265650710e+002 +9.265650710e+002 -1.4288e+000 +1.0255e+000 -3.7480e+000 -2.8787e+000 -4.1263e-001
3 0 +4.975619195e+002 +5.193119195e+002 +5.193119195e+002 +4.4910e+000 +2.7657e-001 +2.6979e+000 -9.1278e-002 +2.7592e+000
5 0 +2.124264494e+002 +2.341764494e+002 +2.341764494e+002 -1.7047e-001 -3.0035e+000 +1.6095e+000 +2.9525e+000 +6.2637e-001
6 0 +1.368448997e+002 +1.585948997e+002 +1.585948997e+002 -2.5308e+000 -9.7114e-001 +2.7660e+000 +3.7273e+000 -3.9442e+000
15 0 +4.676662847e+001 +6.851662847e+001 +6.851662847e+001 +1.3572e-001 -2.4816e-001 +1.4300e+000 +5.0000e+000 -1.1704e+000
16 0 +2.741676608e+001 +4.916676608e+001 +4.916676608e+001 +1.7072e+000 +2.0320e-001 -1.0715e+000 +3.4653e+000 -1.9997e+000
21 0 +2.258480327e+001 +4.433480327e+001 +4.433480327e+001 +1.6869e+000 -5.4152e-001 +5.6619e-001 +5.0000e+000 -4.2074e-001
27 0 +1.947222307e+001 +4.122222307e+001 +4.122222307e+001 +8.2898e-001 -3.8305e-001 +3.3457e-001 +5.0000e+000 -9.3941e-001
30 0 +1.701636728e+001 +3.876636728e+001 +3.876636728e+001 +1.1894e+000 -4.1478e-001 +1.7817e-001 +5.0000e+000 -6.6910e-001
33 0 +1.650834648e+001 +3.825834648e+001 +3.825834648e+001 +8.1576e-001 -2.2282e-001 +3.2588e-001 +5.0000e+000 -1.3376e+000
71 0 +9.812030793e+000 +3.156203079e+001 +3.156203079e+001 +2.7839e+000 -1.1248e+000 -7.7653e-001 +4.7773e+000 -4.0454e-001
75 0 +8.123538216e+000 +2.987353822e+001 +2.987353822e+001 +2.7814e+000 -9.7615e-001 -8.2341e-001 +4.5474e+000 -4.7841e-001
102 0 +6.398887578e+000 +2.814888758e+001 +2.814888758e+001 +2.6624e+000 -4.2282e-001 -6.7454e-001 +4.2664e+000 -1.3580e+000
130 0 +3.864513715e+000 +2.561451372e+001 +2.561451372e+001 +2.4113e+000 -4.0373e-001 -5.1284e-001 +4.7507e+000 -1.1950e+000
171 0 +3.367005480e+000 +2.511700548e+001 +2.511700548e+001 +3.4844e+000 +2.4464e-001 -1.3213e+000 +4.4054e+000 -1.2772e+000
173 0 +2.727199673e+000 +2.447719967e+001 +2.447719967e+001 +3.3732e+000 +2.7690e-001 -1.2344e+000 +4.3159e+000 -1.3932e+000
177 0 +1.822025010e+000 +2.357202501e+001 +2.357202501e+001 +2.3905e+000 +3.9424e-001 -4.5415e-001 +4.5312e+000 -1.8720e+000
199 0 +1.722627499e+000 +2.347262750e+001 +2.347262750e+001 +2.2029e+000 +3.6767e-001 -6.2788e-001 +4.4758e+000 -1.7687e+000
204 0 +1.565762064e+000 +2.331576206e+001 +2.331576206e+001 +2.2121e+000 +4.7346e-001 -5.1607e-001 +4.4638e+000 -1.7284e+000
205 0 +1.518627059e+000 +2.326862706e+001 +2.326862706e+001 +2.1842e+000 +4.6505e-001 -4.9637e-001 +4.4413e+000 -1.7374e+000
262 0 +1.304089538e+000 +2.305408954e+001 +2.305408954e+001 +2.9878e+000 +1.1819e+000 -5.4415e-001 +3.8403e+000 -1.9996e+000
278 0 +9.146199571e-001 +2.266461996e+001 +2.266461996e+001 +2.9704e+000 +1.1614e+000 -5.1676e-001 +3.8639e+000 -2.0205e+000
318 0 +2.636278613e-001 +2.201362786e+001 +2.201362786e+001 +3.0752e+000 +8.0943e-001 -7.3582e-001 +3.5228e+000 -1.8601e+000
341 0 +2.274316994e-001 +2.197743170e+001 +2.197743170e+001 +3.3633e+000 +1.0292e+000 -9.0735e-001 +3.3765e+000 -1.8657e+000
420 0 +5.352150465e-002 +2.180352150e+001 +2.180352150e+001 +3.7214e+000 +8.4243e-001 -1.1353e+000 +3.1403e+000 -1.7445e+000
583 0 +4.205350121e-002 +2.179205350e+001 +2.179205350e+001 +3.7440e+000 +9.4257e-001 -1.1370e+000 +3.0936e+000 -1.7555e+000
657 0 +2.227063767e-002 +2.177227064e+001 +2.177227064e+001 +3.8651e+000 +8.4033e-001 -1.2237e+000 +3.0044e+000 -1.5952e+000
941 0 +1.457476349e-002 +2.176457476e+001 +2.176457476e+001 +3.8724e+000 +8.7421e-001 -1.1815e+000 +3.0523e+000 -1.5969e+000
1009 0 +3.287162904e-003 +2.175328716e+001 +2.175328716e+001 +3.8348e+000 +9.1638e-001 -1.1490e+000 +3.0246e+000 -1.6409e+000
1516 0 +1.810500905e-007 +2.175000018e+001 +2.175000018e+001 +3.7976e+000 +8.7412e-001 -1.1256e+000 +3.0632e+000 -1.6747e+000
1519 0 +1.773736145e-007 +2.175000018e+001 +2.175000018e+001 +3.7971e+000 +8.7429e-001 -1.1253e+000 +3.0641e+000 -1.6754e+000
1529 0 +1.627342137e-007 +2.175000016e+001 +2.175000016e+001 +3.7958e+000 +8.7588e-001 -1.1252e+000 +3.0760e+000 -1.6780e+000
1536 0 +3.162270446e-009 +2.175000000e+001 +2.175000000e+001 +3.7905e+000 +8.9193e-001 -1.1237e+000 +3.0840e+000 -1.6805e+000
% f evaluations | g evaluations | best noise-free fitness - Fopt (6.479000000000e+001) + sum g_i+ | measured fitness | best measured fitness or single-digit g-values | x1 | x2...
1 0 +1.817659576e+002 +2.465559576e+002 +2.465559576e+002 -3.4453e+000 -3.6301e+000 +6.5083e-001 -2.1399e+000 -1.3023e+000
11 0 +1.387592639e+002 +2.035492639e+002 +2.035492639e+002 +2.8815e+000 +5.6838e-001 -1.2715e+000 +4.2069e+000 +2.5676e+000
20 0 +6.937422570e+001 +1.341642257e+002 +1.341642257e+002 +1.8878e-001 +2.2843e+000 +2.5257e+000 +4.6429e+000 -3.1321e+000
24 0 +7.336209750e+000 +7.212620975e+001 +7.212620975e+001 +9.5065e-001 -7.8501e-001 -1.0873e+000 +8.6689e-001 +2.7827e-001
33 0 +5.081396634e+000 +6.987139663e+001 +6.987139663e+001 +7.7764e-001 -7.2000e-001 -3.9128e-001 +8.6784e-001 +5.2603e-001
76 0 +4.663645418e+000 +6.945364542e+001 +6.945364542e+001 +9.0495e-002 -8.5745e-001 -6.2029e-001 +1.1501e+000 +5.8663e-001
121 0 +2.822683155e+000 +6.761268316e+001 +6.761268316e+001 +4.8217e-001 -8.5099e-001 -6.7498e-001 +1.3177e+000 +7.1709e-001
212 0 +2.609071123e+000 +6.739907112e+001 +6.739907112e+001 +7.7316e-001 -6.2003e-001 -6.6133e-001 +1.2127e+000 +7.0985e-001
228 0 +2.502684409e+000 +6.729268441e+001 +6.729268441e+001 +7.6585e-001 -9.1720e-001 -7.6417e-001 +1.2722e+000 +7.2541e-001
236 0 +2.378048104e+000 +6.716804810e+001 +6.716804810e+001 +4.1745e-001 -1.2179e+000 -9.9283e-001 +1.1013e+000 +7.3115e-001
262 0 +1.825112849e+000 +6.661511285e+001 +6.661511285e+001 +2.7772e-001 -1.3036e+000 -1.0754e+000 +1.0479e+000 +8.3392e-001
305 0 +1.807163279e+000 +6.659716328e+001 +6.659716328e+001 +3.7816e-001 -1.1332e+000 -8.7609e-001 +1.0277e+000 +1.0343e+000
335 0 +1.605123857e+000 +6.639512386e+001 +6.639512386e+001 +3.4598e-001 -1.2045e+000 -9.3912e-001 +9.8525e-001 +1.0527e+000
398 0 +1.534733243e+000 +6.632473324e+001 +6.632473324e+001 -1.8738e-002 -1.4045e+000 -9.1635e-001 +1.3771e+000 +7.8881e-001
408 0 +1.473395430e+000 +6.626339543e+001 +6.626339543e+001 -3.5942e-002 -1.2230e+000 -1.0548e+000 +1.0712e+000 +8.8874e-001
444 0 +1.402457315e+000 +6.619245731e+001 +6.619245731e+001 -1.7577e-002 -1.5180e+000 -7.7538e-001 +9.7409e-001 +8.8601e-001
2230 0 +1.305871346e+000 +6.609587135e+001 +6.609587135e+001 -1.2400e-001 -8.6766e-001 -4.5658e-001 +1.5363e+000 +5.5298e-002
2293 0 +1.281425560e+000 +6.607142556e+001 +6.607142556e+001 -1.3862e-001 -8.4304e-001 -4.5814e-001 +1.5525e+000 -8.5987e-004
2408 0 +7.950027423e-001 +6.558500274e+001 +6.558500274e+001 -7.0968e-001 -1.7861e+000 -7.6196e-001 +1.5617e+000 +4.7439e-001
2434 0 +6.459426921e-001 +6.543594269e+001 +6.543594269e+001 -6.7594e-001 -1.7311e+000 -7.3514e-001 +1.5662e+000 +4.1690e-001
2440 0 +4.652372199e-001 +6.525523722e+001 +6.525523722e+001 -6.8730e-001 -1.7110e+000 -6.8614e-001 +1.5648e+000 +3.6010e-001
2457 0 +4.024731781e-001 +6.519247318e+001 +6.519247318e+001 -7.1135e-001 -1.6924e+000 -6.8695e-001 +1.5966e+000 +2.8700e-001
2495 0 +3.573640828e-001 +6.514736408e+001 +6.514736408e+001 -6.8012e-001 -1.6844e+000 -7.3400e-001 +1.5087e+000 +2.6648e-001
2521 0 +3.529944994e-001 +6.514299450e+001 +6.514299450e+001 -7.1613e-001 -1.6794e+000 -6.9850e-001 +1.2268e+000 +4.1756e-001
8568 0 +8.051009592e-002 +6.487051010e+001 +6.487051010e+001 -1.4345e+000 -1.9061e+000 -1.8629e-001 +1.4122e+000 -2.5063e-001
8653 0 +7.391698617e-002 +6.486391699e+001 +6.486391699e+001 -1.4954e+000 -1.9006e+000 -1.9828e-001 +1.4103e+000 -2.5996e-001
8678 0 +6.641905860e-002 +6.485641906e+001 +6.485641906e+001 -1.5884e+000 -1.9277e+000 -1.4379e-001 +1.4208e+000 -3.3831e-001
8726 0 +6.497116906e-002 +6.485497117e+001 +6.485497117e+001 -1.7503e+000 -1.9632e+000 -7.8641e-002 +1.4004e+000 -4.0102e-001
8817 0 +5.228078795e-002 +6.484228079e+001 +6.484228079e+001 -1.7565e+000 -1.9712e+000 -6.3731e-002 +1.4035e+000 -3.1005e-001
8819 0 +4.141527827e-002 +6.483141528e+001 +6.483141528e+001 -1.7404e+000 -1.9681e+000 -7.0618e-002 +1.4039e+000 -2.3210e-001
8851 0 +2.696762247e-002 +6.481696762e+001 +6.481696762e+001 -1.6700e+000 -1.9581e+000 -1.0854e-001 +1.3893e+000 -2.0181e-001
8861 0 +1.305871346e-002 +6.480305871e+001 +6.480305871e+001 -1.6827e+000 -1.9903e+000 -1.1633e-001 +1.3929e+000 -2.3935e-001
9047 0 +1.705218011e-007 +6.479000017e+001 +6.479000017e+001 -1.8749e+000 -2.1236e+000 -1.1271e-001 +1.3921e+000 -2.8765e-001
9133 0 +1.651862647e-007 +6.479000017e+001 +6.479000017e+001 -1.8742e+000 -2.1229e+000 -1.1240e-001 +1.3917e+000 -2.8746e-001
9138 0 +5.157509975e-008 +6.479000005e+001 +6.479000005e+001 -1.8642e+000 -2.1246e+000 -1.1373e-001 +1.4009e+000 -2.8986e-001
9140 0 +2.854501702e-008 +6.479000003e+001 +6.479000003e+001 -1.8622e+000 -2.1255e+000 -1.1484e-001 +1.4007e+000 -2.8485e-001
9148 0 +5.540755410e-009 +6.479000001e+001 +6.479000001e+001 -1.8601e+000 -2.1230e+000 -1.1459e-001 +1.4007e+000 -2.8517e-001
% f evaluations | g evaluations | best noise-free fitness - Fopt (-1.000000000000e+003) + sum g_i+ | measured fitness | best measured fitness or single-digit g-values | x1 | x2...
1 0 +6.964816083e+002 -3.035183917e+002 -3.035183917e+002 -2.2623e+000 +1.4849e+000 -3.7907e+000 +3.8325e+000 +4.3999e+000
3 0 +6.013720448e+002 -3.986279552e+002 -3.986279552e+002 -8.5835e-001 +5.1597e-001 +3.1565e+000 +3.1689e+000 +3.7562e+000
4 0 +4.847893557e+002 -5.152106443e+002 -5.152106443e+002 +1.4280e-002 -3.9085e+000 +2.9379e+000 +2.8826e+000 +2.3259e+000
12 0 +3.852623948e+002 -6.147376052e+002 -6.147376052e+002 +5.0000e+000 +5.0000e+000 +5.0000e+000 -5.0000e+000 -5.0000e+000
13 0 +3.387742932e+002 -6.612257068e+002 -6.612257068e+002 -7.2485e-002 -4.6642e+000 +3.9413e+000 +9.6306e-001 -4.2049e+000
14 0 +1.944438839e+002 -8.055561161e+002 -8.055561161e+002 +2.3373e+000 +4.6905e+000 +2.9907e+000 -2.0710e+000 -1.1208e-002
19 0 +5.336015292e+000 -9.946639847e+002 -9.946639847e+002 -4.9087e+000 +4.4714e-001 -2.6384e+000 -1.2193e-001 -1.7666e+000
144 0 +3.195220907e+000 -9.968047791e+002 -9.968047791e+002 -5.0000e+000 -2.2433e+000 -2.5387e+000 -7.4248e-002 -3.2492e+000
158 0 +2.144033740e+000 -9.978559663e+002 -9.978559663e+002 -4.9645e+000 -2.2502e+000 -2.5444e+000 -7.3104e-002 -3.2466e+000
173 0 +1.026276770e+000 -9.989737232e+002 -9.989737232e+002 -4.7293e+000 -2.2523e+000 -2.5648e+000 -8.6791e-002 -3.2388e+000
174 0 +7.472032782e-001 -9.992527967e+002 -9.992527967e+002 -4.9013e+000 -2.2397e+000 -2.6810e+000 -1.8465e-001 -3.1959e+000
223 0 +5.532706238e-001 -9.994467294e+002 -9.994467294e+002 -4.7640e+000 -2.3634e+000 -2.5648e+000 -1.6579e-001 -3.1327e+000
237 0 +4.366714320e-001 -9.995633286e+002 -9.995633286e+002 -4.8577e+000 -2.3656e+000 -2.7198e+000 -2.3080e-001 -3.0176e+000
296 0 +3.551308854e-001 -9.996448691e+002 -9.996448691e+002 -4.8539e+000 -2.0711e+000 -2.7430e+000 -2.4853e-001 -2.9064e+000
380 0 +3.379302047e-001 -9.996620698e+002 -9.996620698e+002 -4.9329e+000 -2.0688e+000 -2.8277e+000 -2.1458e-001 -2.8463e+000
392 0 +3.053035360e-001 -9.996946965e+002 -9.996946965e+002 -4.9593e+000 -1.8664e+000 -2.7414e+000 -1.7919e-001 -2.7471e+000
400 0 +2.175775565e-001 -9.997824224e+002 -9.997824224e+002 -4.8922e+000 -2.0268e+000 -2.7394e+000 -1.5813e-001 -2.7655e+000
423 0 +1.812190917e-001 -9.998187809e+002 -9.998187809e+002 -4.8904e+000 -2.0829e+000 -2.7481e+000 -1.4602e-001 -2.7548e+000
2652 0 +1.079243666e-001 -9.998920756e+002 -9.998920756e+002 -3.7139e+000 -8.7023e-001 -2.0500e+000 -4.1247e-001 -2.9843e+000
2659 0 +8.689491631e-002 -9.999131051e+002 -9.999131051e+002 -3.7544e+000 -9.5612e-001 -2.0636e+000 -4.1752e-001 -3.0512e+000
2709 0 +7.300658748e-002 -9.999269934e+002 -9.999269934e+002 -3.6949e+000 -9.1018e-001 -2.0399e+000 -4.1660e-001 -3.0644e+000
2744 0 +6.351201859e-002 -9.999364880e+002 -9.999364880e+002 -3.6889e+000 -8.7198e-001 -2.0401e+000 -3.9841e-001 -3.0349e+000
2800 0 +5.303569438e-002 -9.999469643e+002 -9.999469643e+002 -3.5767e+000 -9.1652e-001 -1.9806e+000 -3.7468e-001 -3.1467e+000
2813 0 +4.592704136e-002 -9.999540730e+002 -9.999540730e+002 -3.8245e+000 -1.0685e+000 -2.1416e+000 -3.7558e-001 -3.0046e+000
2832 0 +2.300704520e-002 -9.999769930e+002 -9.999769930e+002 -3.7354e+000 -1.0586e+000 -2.0928e+000 -3.6830e-001 -3.1005e+000
2928 0 +1.187202830e-002 -9.999881280e+002 -9.999881280e+002 -3.7700e+000 -1.1939e+000 -2.0960e+000 -3.3724e-001 -3.0879e+000
2985 0 +7.616430105e-003 -9.999923836e+002 -9.999923836e+002 -3.8055e+000 -1.2129e+000 -2.1114e+000 -3.1898e-001 -3.0397e+000
3158 0 +1.407513537e-007 -9.999999999e+002 -9.999999999e+002 -3.9117e+000 -1.2787e+000 -2.1696e+000 -3.0831e-001 -3.0348e+000
3283 0 +1.056150722e-009 -1.000000000e+003 -1.000000000e+003 -3.8990e+000 -1.2715e+000 -2.1674e+000 -3.1813e-001 -3.0397e+000
% f evaluations | g evaluations | best noise-free fitness - Fopt (1.640700000000e+002) + sum g_i+ | measured fitness | best measured fitness or single-digit g-values | x1 | x2...
1 0 +3.709484900e+002 +5.350184900e+002 +5.350184900e+002 -1.6854e+000 +4.2416e+000 +8.0659e-001 -4.3734e+000 +2.9695e+000
3 0 +3.612047384e+002 +5.252747384e+002 +5.252747384e+002 +3.9289e+000 +1.7178e+000 -4.2813e+000 +4.8532e+000 +4.7395e+000
4 0 +3.019738559e+002 +4.660438559e+002 +4.660438559e+002 -4.3169e+000 -4.1609e+000 -3.4430e+000 -4.9350e+000 -1.6510e+000
10 0 +2.649398537e+002 +4.290098537e+002 +4.290098537e+002 +6.9258e-001 -1.3132e+000 -4.5599e+000 +3.4044e+000 -1.4641e+000
14 0 +2.244547158e+002 +3.885247158e+002 +3.885247158e+002 -2.4725e+000 +4.5673e+000 -3.9776e+000 -1.5701e-001 -3.3504e+000
19 0 +2.176821349e+002 +3.817521349e+002 +3.817521349e+002 +1.5779e+000 -2.6895e+000 -2.6288e+000 +2.8565e-001 -4.4963e+000
25 0 +1.301587348e+002 +2.942287348e+002 +2.942287348e+002 +1.1993e+000 -4.2096e+000 +3.9431e+000 -3.5450e+000 -2.3168e+000
39 0 +1.147961746e+002 +2.788661746e+002 +2.788661746e+002 -1.9084e-002 +3.4666e+000 -5.0000e+000 -1.7846e+000 -3.1752e+000
50 0 +2.985128007e+001 +1.939212801e+002 +1.939212801e+002 -2.7323e+000 +3.1753e-001 -1.9518e+000 -4.4256e+000 -2.9133e+000
60 0 +2.828925173e+001 +1.923592517e+002 +1.923592517e+002 -3.3991e+000 +3.0491e-001 -1.6377e+000 -4.7431e+000 -3.2263e+000
64 0 +1.779689907e+001 +1.818668991e+002 +1.818668991e+002 -2.4725e+000 +5.2223e-001 -1.1942e+000 -4.2080e+000 -2.7818e+000
66 0 +4.892193488e+000 +1.689621935e+002 +1.689621935e+002 -2.8711e+000 +1.5694e+000 -1.2070e+000 -3.8285e+000 -1.0836e+000
125 0 +4.499531159e+000 +1.685695312e+002 +1.685695312e+002 -3.8038e+000 +1.5841e+000 -1.3469e+000 -4.9320e+000 -1.6887e+000
239 0 +4.287983433e+000 +1.683579834e+002 +1.683579834e+002 -3.6802e+000 +2.8895e+000 -2.1236e+000 -4.8997e+000 -2.3482e+000
245 0 +3.700755943e+000 +1.677707559e+002 +1.677707559e+002 -3.7303e+000 +2.8982e+000 -2.1752e+000 -4.9638e+000 -2.8086e+000
277 0 +1.652031990e+000 +1.657220320e+002 +1.657220320e+002 -2.9839e+000 +2.5900e+000 -1.8811e+000 -3.8149e+000 -2.2171e+000
281 0 +1.347419492e+000 +1.654174195e+002 +1.654174195e+002 -2.8830e+000 +2.6819e+000 -2.0175e+000 -3.8045e+000 -2.4140e+000
373 0 +1.190110707e+000 +1.652601107e+002 +1.652601107e+002 -2.8647e+000 +3.3102e+000 -2.3395e+000 -3.8075e+000 -2.7448e+000
379 0 +1.133576146e+000 +1.652035761e+002 +1.652035761e+002 -2.8679e+000 +3.3068e+000 -2.3397e+000 -3.8078e+000 -2.4801e+000
454 0 +1.064480507e+000 +1.651344805e+002 +1.651344805e+002 -3.1759e+000 +3.6236e+000 -2.1649e+000 -4.1403e+000 -2.2266e+000
480 0 +1.018316602e+000 +1.650883166e+002 +1.650883166e+002 -3.2862e+000 +3.6043e+000 -2.1796e+000 -4.3318e+000 -2.3388e+000
758 0 +9.734738622e-001 +1.650434739e+002 +1.650434739e+002 -3.0472e+000 +3.4660e+000 -2.3147e+000 -4.1099e+000 -2.4274e+000
760 0 +9.251889858e-001 +1.649951890e+002 +1.649951890e+002 -2.9459e+000 +3.4072e+000 -2.3341e+000 -3.9695e+000 -2.4588e+000
780 0 +7.774857497e-001 +1.648474857e+002 +1.648474857e+002 -2.7033e+000 +3.4636e+000 -2.4939e+000 -3.6503e+000 -2.4629e+000
785 0 +2.766209134e-001 +1.643466209e+002 +1.643466209e+002 -2.2793e+000 +3.8367e+000 -2.7076e+000 -3.1111e+000 -2.2258e+000
801 0 +2.687573023e-001 +1.643387573e+002 +1.643387573e+002 -2.3447e+000 +3.8216e+000 -2.6631e+000 -3.1918e+000 -2.1968e+000
813 0 +1.834451811e-001 +1.642534452e+002 +1.642534452e+002 -2.2908e+000 +4.0496e+000 -2.7342e+000 -3.1174e+000 -2.3400e+000
861 0 +1.635913853e-001 +1.642335914e+002 +1.642335914e+002 -2.3212e+000 +4.0661e+000 -2.7672e+000 -3.1379e+000 -2.3750e+000
901 0 +1.524881194e-001 +1.642224881e+002 +1.642224881e+002 -2.2896e+000 +4.1603e+000 -2.7708e+000 -3.1106e+000 -2.3804e+000
963 0 +1.109875410e-001 +1.641809875e+002 +1.641809875e+002 -2.2716e+000 +4.0354e+000 -2.7349e+000 -3.1008e+000 -2.3204e+000
1004 0 +1.044628994e-001 +1.641744629e+002 +1.641744629e+002 -2.1883e+000 +4.0213e+000 -2.7593e+000 -3.0180e+000 -2.3274e+000
1018 0 +7.887566995e-002 +1.641488757e+002 +1.641488757e+002 -2.1696e+000 +4.0251e+000 -2.7397e+000 -3.0165e+000 -2.3156e+000
1051 0 +3.620886273e-002 +1.641062089e+002 +1.641062089e+002 -2.2172e+000 +4.0092e+000 -2.7690e+000 -3.1158e+000 -2.4146e+000
1106 0 +1.631987147e-002 +1.640863199e+002 +1.640863199e+002 -2.2499e+000 +3.9652e+000 -2.6480e+000 -3.2104e+000 -2.4167e+000
1211 0 +1.380970443e-002 +1.640838097e+002 +1.640838097e+002 -2.2973e+000 +3.9540e+000 -2.6339e+000 -3.2366e+000 -2.4398e+000
6096 0 +1.347419492e-002 +1.640834742e+002 +1.640834742e+002 -2.0548e+000 +4.0448e+000 -2.7341e+000 -3.0085e+000 -2.4209e+000
13061 0 +6.578618660e-003 +1.640765786e+002 +1.640765786e+002 -2.1546e+000 +3.8908e+000 -2.6228e+000 -3.1525e+000 -2.4183e+000
13402 0 +4.845691990e-007 +1.640700005e+002 +1.640700005e+002 -2.1980e+000 +3.9432e+000 -2.6606e+000 -3.1417e+000 -2.3934e+000
13419 0 +4.766258144e-007 +1.640700005e+002 +1.640700005e+002 -2.1986e+000 +3.9402e+000 -2.6607e+000 -3.1415e+000 -2.3938e+000
13432 0 +4.647250762e-007 +1.640700005e+002 +1.640700005e+002 -2.1976e+000 +3.9410e+000 -2.6602e+000 -3.1413e+000 -2.3957e+000
13437 0 +3.260758490e-007 +1.640700003e+002 +1.640700003e+002 -2.1855e+000 +3.9369e+000 -2.6592e+000 -3.1353e+000 -2.3996e+000
13452 0 +2.783248192e-007 +1.640700003e+002 +1.640700003e+002 -2.1810e+000 +3.9390e+000 -2.6600e+000 -3.1301e+000 -2.3991e+000
13458 0 +1.304197781e-007 +1.640700001e+002 +1.640700001e+002 -2.1650e+000 +3.9471e+000 -2.6625e+000 -3.1240e+000 -2.4056e+000
13461 0 +7.900118248e-008 +1.640700001e+002 +1.640700001e+002 -2.1481e+000 +3.9313e+000 -2.6485e+000 -3.1133e+000 -2.4111e+000
13463 0 +5.511327572e-008 +1.640700001e+002 +1.640700001e+002 -2.1638e+000 +3.9144e+000 -2.6375e+000 -3.1276e+000 -2.4135e+000
13469 0 +4.378841822e-008 +1.640700000e+002 +1.640700000e+002 -2.1627e+000 +3.9122e+000 -2.6375e+000 -3.1290e+000 -2.4142e+000
13476 0 +1.809675609e-008 +1.640700000e+002 +1.640700000e+002 -2.1603e+000 +3.9118e+000 -2.6374e+000 -3.1296e+000 -2.4167e+000
13480 0 +1.275324735e-008 +1.640700000e+002 +1.640700000e+002 -2.1579e+000 +3.9097e+000 -2.6394e+000 -3.1285e+000 -2.4165e+000
13512 0 +1.430066732e-009 +1.640700000e+002 +1.640700000e+002 -2.1653e+000 +3.9264e+000 -2.6496e+000 -3.1120e+000 -2.4158e+000
% f evaluations | g evaluations | best noise-free fitness - Fopt (-1.656800000000e+002) + sum g_i+ | measured fitness | best measured fitness or single-digit g-values | x1 | x2...
1 0 +6.385951995e+001 -1.018204800e+002 -1.018204800e+002 -2.1013e+000 +2.2993e+000 +2.7611e+000 +3.9840e+000 +9.5865e-001
15 0 +5.304829985e+001 -1.126317001e+002 -1.126317001e+002 -2.9128e+000 +2.5647e-001 +1.7012e+000 +1.3398e-002 +2.5533e+000
79 0 +5.120288183e+001 -1.144771182e+002 -1.144771182e+002 -2.8292e+000 +3.6897e-001 +1.8450e+000 -7.4747e-002 +2.5953e+000
87 0 +1.699894921e+001 -1.486810508e+002 -1.486810508e+002 -2.5668e+000 -4.0248e-002 +1.4299e+000 +1.0168e+000 +1.6547e+000
90 0 +9.846997959e+000 -1.558330020e+002 -1.558330020e+002 -1.0324e+000 +1.1031e+000 +3.6317e-001 +6.4093e-001 +2.1304e+000
112 0 +4.998776486e+000 -1.606812235e+002 -1.606812235e+002 -1.2227e+000 +6.5330e-001 +5.0036e-001 +9.5884e-001 +2.1537e+000
128 0 +3.679424773e+000 -1.620005752e+002 -1.620005752e+002 -1.7673e+000 +2.1399e-002 +4.8903e-001 +1.6994e+000 +2.5071e+000
155 0 +3.128652041e+000 -1.625513480e+002 -1.625513480e+002 -1.7535e+000 +2.9966e-002 +5.2824e-001 +2.0959e+000 +2.4841e+000
177 0 +2.614471892e+000 -1.630655281e+002 -1.630655281e+002 -1.3459e+000 +3.5320e-001 +1.1581e+000 +1.5689e+000 +2.1446e+000
208 0 +2.518310988e+000 -1.631616890e+002 -1.631616890e+002 -1.4186e+000 +4.4472e-001 +1.1188e+000 +2.0008e+000 +2.1390e+000
227 0 +2.202208885e+000 -1.634777911e+002 -1.634777911e+002 -1.7720e+000 +3.6741e-001 +9.1574e-001 +1.8694e+000 +2.3522e+000
353 0 +1.967951976e+000 -1.637120480e+002 -1.637120480e+002 -1.6219e+000 +5.9989e-001 +1.0345e+000 +2.0783e+000 +2.2522e+000
397 0 +7.957266582e-001 -1.648842733e+002 -1.648842733e+002 -8.3286e-001 +6.2036e-001 +1.7201e+000 +1.8547e+000 +1.7766e+000
419 0 +7.509183492e-001 -1.649290817e+002 -1.649290817e+002 -6.0462e-001 +6.6410e-001 +1.7521e+000 +1.8594e+000 +1.7144e+000
424 0 +5.641673232e-001 -1.651158327e+002 -1.651158327e+002 -7.3115e-001 +5.7537e-001 +1.7130e+000 +1.9395e+000 +1.7647e+000
429 0 +5.376816790e-001 -1.651423183e+002 -1.651423183e+002 -6.5952e-001 +5.7967e-001 +1.8375e+000 +1.8886e+000 +1.6898e+000
454 0 +4.594230568e-001 -1.652205769e+002 -1.652205769e+002 -5.8528e-001 +3.5481e-001 +1.6851e+000 +2.0316e+000 +1.7999e+000
456 0 +4.350101942e-001 -1.652449898e+002 -1.652449898e+002 -8.2094e-001 +4.9718e-001 +1.5742e+000 +2.1201e+000 +1.9288e+000
479 0 +4.203175884e-001 -1.652596824e+002 -1.652596824e+002 -7.4181e-001 +5.0965e-001 +1.5727e+000 +2.0411e+000 +1.8929e+000
503 0 +4.012509212e-001 -1.652787491e+002 -1.652787491e+002 -5.5929e-001 +4.2199e-001 +1.5286e+000 +2.0107e+000 +1.8926e+000
504 0 +3.426917733e-001 -1.653373082e+002 -1.653373082e+002 -5.8528e-001 +4.5586e-001 +1.6361e+000 +2.0051e+000 +1.8020e+000
517 0 +3.025955555e-001 -1.653774044e+002 -1.653774044e+002 -4.7936e-001 +5.7959e-001 +1.6412e+000 +2.0196e+000 +1.7466e+000
554 0 +2.996886587e-001 -1.653803113e+002 -1.653803113e+002 -5.8528e-001 +5.2054e-001 +1.6048e+000 +1.9881e+000 +1.8034e+000
744 0 +2.889324249e-001 -1.653910676e+002 -1.653910676e+002 -5.7535e-001 +4.7817e-001 +1.6157e+000 +1.9045e+000 +1.7777e+000
766 0 +2.042150231e-001 -1.654757850e+002 -1.654757850e+002 -6.1147e-001 +4.0990e-001 +1.5870e+000 +1.7352e+000 +1.8057e+000
959 0 +1.943795335e-001 -1.654856205e+002 -1.654856205e+002 -6.7794e-001 +3.8769e-001 +1.5904e+000 +1.7660e+000 +1.8229e+000
4923 0 +1.775160989e-001 -1.655024839e+002 -1.655024839e+002 -9.3750e-001 -4.9125e-001 +1.4547e+000 +1.8348e+000 +2.0191e+000
4931 0 +1.283500370e-001 -1.655516500e+002 -1.655516500e+002 -9.1972e-001 -4.3935e-001 +1.4567e+000 +1.8622e+000 +2.0041e+000
4933 0 +1.253112059e-001 -1.655546888e+002 -1.655546888e+002 -1.0361e+000 -4.4087e-001 +1.4187e+000 +1.9592e+000 +2.0502e+000
4957 0 +1.101727453e-001 -1.655698273e+002 -1.655698273e+002 -1.0466e+000 -5.0785e-001 +1.4249e+000 +1.9416e+000 +2.0554e+000
4973 0 +9.083793078e-002 -1.655891621e+002 -1.655891621e+002 -1.0123e+000 -4.9125e-001 +1.4547e+000 +1.9300e+000 +2.0540e+000
4977 0 +7.627276649e-002 -1.656037272e+002 -1.656037272e+002 -1.2078e+000 -5.9974e-001 +1.4405e+000 +1.9338e+000 +2.0938e+000
4982 0 +4.138378523e-002 -1.656386162e+002 -1.656386162e+002 -1.1293e+000 -5.2509e-001 +1.4295e+000 +1.8998e+000 +2.0825e+000
4994 0 +4.000524984e-002 -1.656399948e+002 -1.656399948e+002 -1.0877e+000 -4.5064e-001 +1.4260e+000 +1.9126e+000 +2.0816e+000
5489 0 +3.874524794e-002 -1.656412548e+002 -1.656412548e+002 -1.0752e+000 -4.2372e-001 +1.4427e+000 +1.8410e+000 +2.0736e+000
5530 0 +3.316114766e-002 -1.656468389e+002 -1.656468389e+002 -1.0466e+000 -3.3203e-001 +1.4502e+000 +1.8817e+000 +2.0594e+000
5546 0 +3.151051678e-002 -1.656484895e+002 -1.656484895e+002 -1.0986e+000 -3.9500e-001 +1.4360e+000 +1.8846e+000 +2.0651e+000
6052 0 +3.010909651e-002 -1.656498909e+002 -1.656498909e+002 -1.0991e+000 -3.7067e-001 +1.4659e+000 +1.8575e+000 +2.0635e+000
8449 0 +2.461367835e-002 -1.656553863e+002 -1.656553863e+002 -1.1090e+000 -5.9784e-001 +1.5900e+000 +1.7996e+000 +1.9955e+000
8457 0 +1.174734515e-002 -1.656682527e+002 -1.656682527e+002 -1.1085e+000 -5.2971e-001 +1.5869e+000 +1.8424e+000 +1.9888e+000
8483 0 +8.989814592e-003 -1.656710102e+002 -1.656710102e+002 -1.0574e+000 -4.2113e-001 +1.5796e+000 +1.8529e+000 +1.9922e+000
8484 0 +1.217022714e-007 -1.656799999e+002 -1.656799999e+002 -1.0271e+000 -4.3095e-001 +1.5868e+000 +1.8464e+000 +1.9871e+000
8492 0 +5.996639629e-009 -1.656800000e+002 -1.656800000e+002 -1.0577e+000 -4.5133e-001 +1.5819e+000 +1.8376e+000 +1.9943e+000
% f evaluations | g evaluations | best noise-free fitness - Fopt (9.284000000000e+001) + sum g_i+ | measured fitness | best measured fitness or single-digit g-values | x1 | x2...
1 0 +2.658382171e+002 +3.586782171e+002 +3.586782171e+002 +1.2297e+000 +2.2542e+000 -2.3802e+000 +1.4576e-003 +4.5148e+000
3 0 +3.898516833e+001 +1.318251683e+002 +1.318251683e+002 +3.8641e+000 -4.8100e-001 -3.0361e+000 -1.1405e+000 -2.8183e+000
4 0 +2.905352656e+001 +1.218935266e+002 +1.218935266e+002 +2.6416e+000 -4.1820e+000 +1.5006e+000 +3.8506e+000 +7.6850e-001
18 0 +3.855463355e+000 +9.669546335e+001 +9.669546335e+001 +1.9858e+000 -1.9848e+000 -5.0000e+000 +6.4581e-001 +5.0842e-001
53 0 +1.667832408e+000 +9.450783241e+001 +9.450783241e+001 +1.9858e+000 -1.9848e+000 -3.0361e+000 +6.4581e-001 +5.0842e-001
62 0 +1.629519484e+000 +9.446951948e+001 +9.446951948e+001 +2.0061e+000 -2.0186e+000 -2.9518e+000 +6.1516e-001 +5.0247e-001
207 0 +1.603786012e+000 +9.444378601e+001 +9.444378601e+001 +2.0174e+000 -1.8925e+000 -3.1192e+000 +5.3884e-001 +5.5215e-001
233 0 +1.052191774e+000 +9.389219177e+001 +9.389219177e+001 +1.8693e+000 -1.8666e+000 -3.3993e+000 +7.1838e-001 +7.8196e-001
260 0 +8.813536693e-001 +9.372135367e+001 +9.372135367e+001 +1.8483e+000 -1.8470e+000 -3.3897e+000 +7.7104e-001 +8.6108e-001
276 0 +8.028218913e-001 +9.364282189e+001 +9.364282189e+001 +1.6224e+000 -1.6749e+000 -4.0549e+000 +8.7432e-001 +1.3610e+000
315 0 +7.446250514e-001 +9.358462505e+001 +9.358462505e+001 +1.4509e+000 -1.6921e+000 -4.3604e+000 +9.3460e-001 +1.6107e+000
468 0 +5.226516886e-001 +9.336265169e+001 +9.336265169e+001 +1.5217e+000 -1.7572e+000 -4.5725e+000 +1.0418e+000 +1.3958e+000
520 0 +2.619591511e-001 +9.310195915e+001 +9.310195915e+001 +1.8455e+000 -1.8624e+000 -3.9589e+000 +9.4754e-001 +7.2148e-001
521 0 +1.878725278e-001 +9.302787253e+001 +9.302787253e+001 +1.8606e+000 -1.8413e+000 -3.8170e+000 +9.0895e-001 +7.3138e-001
528 0 +1.078671203e-001 +9.294786712e+001 +9.294786712e+001 +1.8570e+000 -2.0619e+000 -3.6394e+000 +1.0091e+000 +7.2337e-001
531 0 +8.189404878e-002 +9.292189405e+001 +9.292189405e+001 +1.9544e+000 -2.1000e+000 -3.4260e+000 +9.7556e-001 +4.8178e-001
653 0 +7.425226753e-002 +9.291425227e+001 +9.291425227e+001 +1.9638e+000 -2.1003e+000 -3.4720e+000 +9.6813e-001 +4.5725e-001
655 0 +6.046677011e-002 +9.290046677e+001 +9.290046677e+001 +1.9673e+000 -2.0839e+000 -3.4877e+000 +9.2951e-001 +4.8833e-001
657 0 +2.773097396e-002 +9.286773097e+001 +9.286773097e+001 +1.9448e+000 -2.1027e+000 -3.5344e+000 +9.2132e-001 +5.0181e-001
739 0 +2.336086942e-002 +9.286336087e+001 +9.286336087e+001 +1.9147e+000 -2.0414e+000 -3.5963e+000 +8.7829e-001 +5.0136e-001
769 0 +1.596941956e-002 +9.285596942e+001 +9.285596942e+001 +1.9281e+000 -2.0502e+000 -3.5713e+000 +8.7756e-001 +4.6893e-001
809 0 +1.425674306e-002 +9.285425674e+001 +9.285425674e+001 +1.9000e+000 -2.0489e+000 -3.6621e+000 +8.7475e-001 +5.3926e-001
1068 0 +1.174203299e-002 +9.285174203e+001 +9.285174203e+001 +1.9319e+000 -1.9944e+000 -3.6492e+000 +8.4779e-001 +4.6754e-001
1116 0 +7.959411135e-003 +9.284795941e+001 +9.284795941e+001 +1.9347e+000 -2.0497e+000 -3.5947e+000 +8.6153e-001 +4.5346e-001
1295 0 +2.280443141e-007 +9.284000023e+001 +9.284000023e+001 +1.9852e+000 -2.0639e+000 -3.5575e+000 +7.9354e-001 +3.2199e-001
1306 0 +1.098079849e-008 +9.284000001e+001 +9.284000001e+001 +1.9837e+000 -2.0516e+000 -3.5742e+000 +7.8977e-001 +3.2773e-001
1461 0 +7.763958365e-009 +9.284000001e+001 +9.284000001e+001 +1.9893e+000 -2.0515e+000 -3.5738e+000 +7.9734e-001 +3.3942e-001
% f evaluations | g evaluations | best noise-free fitness - Fopt (-3.679200000000e+002) + sum g_i+ | measured fitness | best measured fitness or single-digit g-values | x1 | x2...
1 0 +3.563643471e+002 -1.155565286e+001 -1.155565286e+001 +3.3049e+000 +3.1642e+000 +4.1896e+000 -4.8371e+000 +4.5478e+000
2 0 +3.166266839e+002 -5.129331609e+001 -5.129331609e+001 -2.7984e+000 +1.4565e+000 -4.7059e-001 +2.5789e+000 +2.7213e-001
13 0 +1.120366962e+002 -2.558833038e+002 -2.558833038e+002 -1.3871e+000 -3.4874e+000 +2.2051e+000 +3.6367e+000 -4.1956e+000
24 0 +2.968444645e+001 -3.382355535e+002 -3.382355535e+002 +1.2219e+000 -2.8691e-001 +3.1745e+000 -1.0268e+000 -3.1188e-001
33 0 +2.787455794e+001 -3.400454421e+002 -3.400454421e+002 +9.2734e-001 -1.9624e-001 +1.7654e+000 -6.4145e-001 -3.2671e-002
39 0 +1.615647800e+001 -3.517635220e+002 -3.517635220e+002 +6.2356e-001 -3.4708e-001 +1.7234e+000 -3.2385e-001 +2.3173e-001
57 0 +1.584000631e+001 -3.520799937e+002 -3.520799937e+002 +1.4146e+000 +1.8601e-001 +5.0000e+000 -1.8862e-001 +3.0944e-001
63 0 +1.106204130e+001 -3.568579587e+002 -3.568579587e+002 +1.2608e+000 +1.5944e-001 +4.7030e+000 +4.7259e-001 +1.3101e-001
69 0 +1.095805820e+001 -3.569619418e+002 -3.569619418e+002 +1.2056e+000 +7.3097e-003 +4.7913e+000 +5.6005e-001 +2.5758e-002
87 0 +7.489172333e+000 -3.604308277e+002 -3.604308277e+002 +9.0802e-001 -1.2767e-001 +3.3036e+000 +4.1389e-001 +1.6837e+000
172 0 +4.363304232e+000 -3.635566958e+002 -3.635566958e+002 +8.4063e-001 -4.9254e-001 +2.0826e+000 +6.4666e-001 +1.4249e+000
195 0 +2.450133304e+000 -3.654698667e+002 -3.654698667e+002 +8.3026e-001 -5.0135e-001 +1.8083e+000 +4.9984e-001 +1.2261e+000
203 0 +2.374263916e+000 -3.655457361e+002 -3.655457361e+002 +9.5401e-001 -4.9238e-001 +1.8351e+000 +6.3909e-001 +8.4016e-001
209 0 +1.278043224e+000 -3.666419568e+002 -3.666419568e+002 +1.0530e+000 -5.4758e-001 +1.7175e+000 +7.5494e-001 +9.9957e-001
302 0 +5.501041781e-001 -3.673698958e+002 -3.673698958e+002 +9.0835e-001 -6.2129e-001 +1.8202e+000 +8.7073e-001 +1.1473e+000
355 0 +5.308953787e-001 -3.673891046e+002 -3.673891046e+002 +9.5895e-001 -5.6140e-001 +1.7279e+000 +7.9650e-001 +1.1309e+000
395 0 +5.195964699e-001 -3.674004035e+002 -3.674004035e+002 +1.1164e+000 -6.3932e-001 +1.7049e+000 +8.5252e-001 +1.2762e+000
405 0 +4.970409362e-001 -3.674229591e+002 -3.674229591e+002 +1.1194e+000 -6.3483e-001 +1.6862e+000 +8.1671e-001 +1.3136e+000
426 0 +4.564565269e-001 -3.674635435e+002 -3.674635435e+002 +1.0660e+000 -7.5433e-001 +2.4547e+000 +7.9569e-001 +1.1256e+000
428 0 +2.034922913e-001 -3.677165077e+002 -3.677165077e+002 +1.1802e+000 -6.9035e-001 +2.3352e+000 +6.8290e-001 +7.1824e-001
454 0 +1.692023530e-001 -3.677507976e+002 -3.677507976e+002 +1.1495e+000 -7.0038e-001 +2.3316e+000 +7.0556e-001 +7.0646e-001
466 0 +8.991310582e-002 -3.678300869e+002 -3.678300869e+002 +1.0921e+000 -7.2576e-001 +2.0124e+000 +6.7393e-001 +1.0410e+000
477 0 +8.492864197e-002 -3.678350714e+002 -3.678350714e+002 +8.9648e-001 -6.8504e-001 +2.5463e+000 +7.0990e-001 +5.3210e-001
487 0 +2.596951582e-002 -3.678940305e+002 -3.678940305e+002 +8.2970e-001 -7.7701e-001 +2.5547e+000 +7.5949e-001 +6.2650e-001
517 0 +1.541680517e-002 -3.679045832e+002 -3.679045832e+002 +8.3312e-001 -7.8027e-001 +2.4703e+000 +7.9277e-001 +7.0473e-001
572 0 +7.012091562e-003 -3.679129879e+002 -3.679129879e+002 +8.1845e-001 -7.7890e-001 +2.4515e+000 +7.9239e-001 +6.9993e-001
722 0 +1.015188218e-007 -3.679199999e+002 -3.679199999e+002 +8.1845e-001 -7.7699e-001 +2.3865e+000 +7.9492e-001 +7.3819e-001
783 0 +4.858713964e-008 -3.679200000e+002 -3.679200000e+002 +8.3213e-001 -7.7436e-001 +2.3863e+000 +7.9020e-001 +7.3319e-001
810 0 +9.992902505e-009 -3.679200000e+002 -3.679200000e+002 +8.3302e-001 -7.7568e-001 +2.3931e+000 +7.8553e-001 +7.3259e-001
% f evaluations | g evaluations | best noise-free fitness - Fopt (4.950000000000e+001) + sum g_i+ | measured fitness | best measured fitness or single-digit g-values | x1 | x2...
1 0 +1.516337589e+003 +1.565837589e+003 +1.565837589e+003 +4.3293e+000 +2.3814e+000 +7.0895e-001 -4.1551e+000 +2.1363e+000
3 0 +5.118474148e+002 +5.613474148e+002 +5.613474148e+002 +2.5012e-001 -3.5969e+000 +4.1119e+000 +4.5538e+000 +3.6354e+000
4 0 +3.132646299e+002 +3.627646299e+002 +3.627646299e+002 +1.6932e-001 +3.7154e+000 +3.0752e+000 -4.2314e-001 -4.9186e+000
5 0 +2.350125986e+002 +2.845125986e+002 +2.845125986e+002 -2.4328e+000 +1.3212e+000 -2.3227e+000 +4.1978e+000 -4.3888e+000
11 0 +1.773695333e+002 +2.268695333e+002 +2.268695333e+002 -1.4373e+000 +2.1604e+000 +1.3050e-001 +3.3732e+000 -1.4004e+000
14 0 +1.579590372e+002 +2.074590372e+002 +2.074590372e+002 -1.6582e+000 +1.8472e+000 +1.3032e+000 -4.3321e-001 -2.1565e+000
18 0 +1.165333008e+002 +1.660333008e+002 +1.660333008e+002 -8.0580e-001 -1.8461e+000 +1.4009e+000 -9.2534e-001 -9.9363e-001
21 0 +9.672868166e+001 +1.462286817e+002 +1.462286817e+002 -8.8546e-001 -2.5954e+000 +1.2127e+000 -1.2353e+000 -3.4510e-001
33 0 +6.044341314e+001 +1.099434131e+002 +1.099434131e+002 -8.3410e-001 -2.3650e+000 +1.2133e+000 +1.8042e-001 -2.4452e+000
68 0 +5.713556383e+001 +1.066355638e+002 +1.066355638e+002 -1.0844e+000 -1.8134e+000 -3.7861e-001 -1.3985e+000 +9.0756e-001
70 0 +2.749815218e+001 +7.699815218e+001 +7.699815218e+001 -4.9968e-001 -4.1308e+000 +2.5058e-001 -2.5995e+000 -4.8627e-001
72 0 +1.803790123e+001 +6.753790123e+001 +6.753790123e+001 -1.3648e+000 -3.7334e+000 -8.4746e-001 -3.5360e+000 -1.0324e-001
88 0 +9.196470723e+000 +5.869647072e+001 +5.869647072e+001 -1.1720e+000 -3.8217e+000 -1.3474e+000 -3.7279e+000 -1.0037e+000
173 0 +7.145354662e+000 +5.664535466e+001 +5.664535466e+001 -1.0112e+000 -4.2289e+000 -1.2455e+000 -2.6456e+000 -9.4650e-001
187 0 +4.902547087e+000 +5.440254709e+001 +5.440254709e+001 -1.0498e+000 -4.3443e+000 -1.4580e+000 -3.3670e+000 -6.8649e-001
352 0 +4.307089321e+000 +5.380708932e+001 +5.380708932e+001 -9.1762e-001 -3.9330e+000 -9.2756e-001 -2.3114e+000 -7.6790e-001
359 0 +3.345962975e+000 +5.284596298e+001 +5.284596298e+001 -1.2582e+000 -3.6829e+000 -1.0427e+000 -2.0038e+000 -9.7926e-001
483 0 +3.216106824e+000 +5.271610682e+001 +5.271610682e+001 -1.2757e+000 -3.8222e+000 -1.4002e+000 -1.6145e+000 -8.7876e-001
492 0 +2.559356623e+000 +5.205935662e+001 +5.205935662e+001 -1.2155e+000 -3.7986e+000 -1.4597e+000 -1.8660e+000 -8.8783e-001
808 0 +2.027753233e+000 +5.152775323e+001 +5.152775323e+001 -2.0529e+000 -3.0372e+000 -2.1173e+000 -1.3789e+000 -2.4421e-001
816 0 +1.912925426e+000 +5.141292543e+001 +5.141292543e+001 -2.0505e+000 -3.0352e+000 -2.1106e+000 -1.4095e+000 -2.4232e-001
817 0 +1.741924081e+000 +5.124192408e+001 +5.124192408e+001 -1.7308e+000 -3.0230e+000 -1.7710e+000 -1.4162e+000 -5.8118e-001
827 0 +1.646655191e+000 +5.114665519e+001 +5.114665519e+001 -1.7486e+000 -3.1348e+000 -1.6482e+000 -8.7789e-001 -6.2670e-001
853 0 +1.279163789e+000 +5.077916379e+001 +5.077916379e+001 -1.8868e+000 -2.9082e+000 -1.9218e+000 -1.8401e+000 -4.9038e-001
857 0 +7.156208734e-001 +5.021562087e+001 +5.021562087e+001 -2.4297e+000 -2.3150e+000 -2.1119e+000 -5.8914e-001 -3.1554e-001
929 0 +6.259551358e-001 +5.012595514e+001 +5.012595514e+001 -2.3836e+000 -2.3671e+000 -2.1017e+000 -7.8266e-001 -3.5316e-001
993 0 +5.650208253e-001 +5.006502083e+001 +5.006502083e+001 -2.3592e+000 -2.3937e+000 -2.0911e+000 -7.9750e-001 -3.6183e-001
1001 0 +5.525973015e-001 +5.005259730e+001 +5.005259730e+001 -2.2939e+000 -2.4580e+000 -2.0617e+000 -9.3532e-001 -3.9937e-001
1202 0 +4.905483297e-001 +4.999054833e+001 +4.999054833e+001 -2.2946e+000 -2.4657e+000 -2.0711e+000 -9.7201e-001 -4.0242e-001
1419 0 +4.580773612e-001 +4.995807736e+001 +4.995807736e+001 -2.3269e+000 -2.4652e+000 -2.0605e+000 -9.7550e-001 -4.6390e-001
1495 0 +4.376649950e-001 +4.993766500e+001 +4.993766500e+001 -2.2549e+000 -2.4173e+000 -2.0588e+000 -9.7220e-001 -4.5935e-001
1498 0 +4.247797825e-001 +4.992477978e+001 +4.992477978e+001 -2.3080e+000 -2.3956e+000 -2.0608e+000 -9.4161e-001 -5.0684e-001
1591 0 +4.064582418e-001 +4.990645824e+001 +4.990645824e+001 -2.3357e+000 -2.3719e+000 -2.0631e+000 -1.0535e+000 -5.6582e-001
1596 0 +3.949453572e-001 +4.989494536e+001 +4.989494536e+001 -2.3110e+000 -2.3881e+000 -2.0676e+000 -1.0788e+000 -5.5815e-001
1610 0 +3.838674341e-001 +4.988386743e+001 +4.988386743e+001 -2.2715e+000 -2.3222e+000 -2.1059e+000 -1.1464e+000 -5.8765e-001
3698 0 +1.387562053e-001 +4.963875621e+001 +4.963875621e+001 -2.6557e+000 -1.7480e+000 -2.2026e+000 -1.3744e+000 -7.3475e-001
3738 0 +1.275289467e-001 +4.962752895e+001 +4.962752895e+001 -2.6547e+000 -1.7516e+000 -2.1878e+000 -1.1693e+000 -7.7411e-001
3747 0 +1.123086933e-001 +4.961230869e+001 +4.961230869e+001 -2.6783e+000 -1.5549e+000 -2.2082e+000 -1.2423e+000 -7.8585e-001
3763 0 +4.777648984e-002 +4.954777649e+001 +4.954777649e+001 -2.6764e+000 -1.6160e+000 -2.2374e+000 -1.3489e+000 -7.1358e-001
3954 0 +2.451423116e-002 +4.952451423e+001 +4.952451423e+001 -2.7189e+000 -1.6397e+000 -2.2568e+000 -1.2545e+000 -7.4383e-001
4003 0 +1.825457458e-002 +4.951825457e+001 +4.951825457e+001 -2.8644e+000 -1.4951e+000 -2.3320e+000 -9.8782e-001 -6.3627e-001
4010 0 +1.675845843e-002 +4.951675846e+001 +4.951675846e+001 -2.8511e+000 -1.5087e+000 -2.3262e+000 -1.0774e+000 -6.2407e-001
4222 0 +1.035258211e-002 +4.951035258e+001 +4.951035258e+001 -2.7743e+000 -1.5703e+000 -2.2902e+000 -1.2140e+000 -6.9166e-001
4692 0 +7.414764854e-003 +4.950741476e+001 +4.950741476e+001 -2.8943e+000 -1.4863e+000 -2.3934e+000 -9.9616e-001 -6.0235e-001
4742 0 +2.806263666e-008 +4.950000003e+001 +4.950000003e+001 -2.8499e+000 -1.5081e+000 -2.3706e+000 -1.0902e+000 -6.2864e-001
4774 0 +1.151883566e-008 +4.950000001e+001 +4.950000001e+001 -2.8429e+000 -1.5101e+000 -2.3669e+000 -1.0926e+000 -6.3108e-001
4840 0 +4.670660303e-009 +4.950000000e+001 +4.950000000e+001 -2.8447e+000 -1.5078e+000 -2.3688e+000 -1.0904e+000 -6.3224e-001
% f evaluations | g evaluations | best noise-free fitness - Fopt (-1.277000000000e+001) + sum g_i+ | measured fitness | best measured fitness or single-digit g-values | x1 | x2...
1 0 +5.356057401e+001 +4.079057401e+001 +4.079057401e+001 +1.0401e+000 +2.6131e+000 +4.0381e+000 +4.6332e+000 +1.9043e+000
6 0 +4.643951796e+001 +3.366951796e+001 +3.366951796e+001 +2.5462e+000 +3.4818e+000 -3.6876e+000 -4.3088e-001 +8.0233e-001
21 0 +2.313688771e+001 +1.036688771e+001 +1.036688771e+001 +2.5773e+000 +1.8704e+000 +5.2128e-001 +2.7038e-001 +7.5956e-001
36 0 +1.279671035e+001 +2.671034576e-002 +2.671034576e-002 +2.5787e+000 +1.8201e+000 +3.7052e-001 +1.9226e+000 +1.7458e+000
49 0 +1.100883924e+001 -1.761160756e+000 -1.761160756e+000 +4.1729e+000 +3.8145e+000 -6.7558e-001 +1.1846e+000 -3.4457e-001
51 0 +1.047357376e+001 -2.296426240e+000 -2.296426240e+000 +4.2155e+000 +4.0220e+000 -4.9554e-001 +1.2053e+000 -1.6060e-001
99 0 +4.813912292e+000 -7.956087708e+000 -7.956087708e+000 +3.1704e+000 +3.4301e+000 +8.3280e-001 +2.2882e+000 +3.7505e-001
113 0 +1.720439116e+000 -1.104956088e+001 -1.104956088e+001 +1.5352e+000 +2.2056e+000 +9.8421e-001 +9.9828e-001 +2.1956e+000
129 0 +1.639523584e+000 -1.113047642e+001 -1.113047642e+001 +1.5241e+000 +2.5637e+000 +9.9704e-001 +1.2927e+000 +2.0542e+000
163 0 +1.385294355e+000 -1.138470565e+001 -1.138470565e+001 +1.5628e+000 +2.5544e+000 +9.6237e-001 +1.2207e+000 +2.0658e+000
288 0 +1.237347379e+000 -1.153265262e+001 -1.153265262e+001 +1.7357e+000 +2.3837e+000 +9.0412e-001 +8.6762e-001 +1.9619e+000
299 0 +9.079554788e-001 -1.186204452e+001 -1.186204452e+001 +1.9018e+000 +2.4500e+000 +6.8793e-001 +1.2536e+000 +1.7899e+000
348 0 +8.439587907e-001 -1.192604121e+001 -1.192604121e+001 +1.7845e+000 +2.5603e+000 +6.5674e-001 +1.1794e+000 +1.7670e+000
2374 0 +8.041367656e-001 -1.196586323e+001 -1.196586323e+001 +2.0134e+000 +2.3539e+000 +9.9656e-001 +1.2492e+000 +1.9704e+000
2399 0 +7.296092172e-001 -1.204039078e+001 -1.204039078e+001 +1.8313e+000 +2.2620e+000 +1.1202e+000 +1.3322e+000 +2.0006e+000
2423 0 +3.044074074e-001 -1.246559259e+001 -1.246559259e+001 +1.4633e+000 +1.9527e+000 +1.7156e+000 +9.4359e-001 +2.1810e+000
2445 0 +1.455832473e-001 -1.262441675e+001 -1.262441675e+001 +1.4975e+000 +1.9614e+000 +1.9223e+000 +8.9717e-001 +2.1980e+000
2531 0 +2.918436869e-002 -1.274081563e+001 -1.274081563e+001 +1.2083e+000 +1.7968e+000 +1.9238e+000 +3.6466e-001 +2.4470e+000
2645 0 +1.500568646e-002 -1.275499431e+001 -1.275499431e+001 +1.2235e+000 +1.8008e+000 +1.8886e+000 +3.7053e-001 +2.4371e+000
3168 0 +1.198991501e-002 -1.275801008e+001 -1.275801008e+001 +1.3039e+000 +1.8509e+000 +1.8222e+000 +4.5852e-001 +2.3872e+000
3175 0 +1.761522856e-007 -1.276999982e+001 -1.276999982e+001 +1.3439e+000 +1.8777e+000 +1.8020e+000 +5.0036e-001 +2.3621e+000
3189 0 +1.070209770e-007 -1.276999989e+001 -1.276999989e+001 +1.3542e+000 +1.8853e+000 +1.8010e+000 +5.0557e-001 +2.3632e+000
3313 0 +9.673696866e-008 -1.276999990e+001 -1.276999990e+001 +1.3549e+000 +1.8856e+000 +1.7996e+000 +5.0565e-001 +2.3628e+000
3394 0 +8.050885647e-008 -1.276999992e+001 -1.276999992e+001 +1.3544e+000 +1.8850e+000 +1.7993e+000 +5.0807e-001 +2.3623e+000
3398 0 +6.648434514e-008 -1.276999993e+001 -1.276999993e+001 +1.3529e+000 +1.8861e+000 +1.7982e+000 +5.0937e-001 +2.3614e+000
3413 0 +1.370626102e-008 -1.276999999e+001 -1.276999999e+001 +1.3510e+000 +1.8856e+000 +1.7866e+000 +5.1500e-001 +2.3633e+000
3467 0 +1.030471175e-008 -1.276999999e+001 -1.276999999e+001 +1.3426e+000 +1.8915e+000 +1.7796e+000 +5.1666e-001 +2.3650e+000
3596 0 +7.615534869e-009 -1.276999999e+001 -1.276999999e+001 +1.3419e+000 +1.8919e+000 +1.7795e+000 +5.1657e-001 +2.3643e+000
% f evaluations | g evaluations | best noise-free fitness - Fopt (6.365000000000e+001) + sum g_i+ | measured fitness | best measured fitness or single-digit g-values | x1 | x2...
1 0 +4.214915474e+002 +4.851415474e+002 +4.851415474e+002 -1.5685e-001 -4.2447e+000 +1.5490e+000 -4.9591e+000 +2.9444e+000
3 0 +2.019988394e+002 +2.656488394e+002 +2.656488394e+002 -8.8980e-001 +4.1555e+000 +3.7108e-001 +8.1335e-001 +4.8965e+000
6 0 +9.715500863e+001 +1.608050086e+002 +1.608050086e+002 -2.1008e+000 +4.4822e+000 -3.0760e+000 -2.5493e+000 +1.3378e+000
12 0 +5.007561196e+001 +1.137256120e+002 +1.137256120e+002 -6.1573e-001 -7.9950e-002 -1.9111e+000 -1.7317e+000 +2.2873e+000
24 0 +1.302032414e+001 +7.667032414e+001 +7.667032414e+001 -1.3065e-001 -1.0748e-001 +3.1400e-001 +9.2837e-001 +5.1822e-001
42 0 +1.026633586e+001 +7.391633586e+001 +7.391633586e+001 -3.9970e-001 +3.4190e-001 +2.0289e-001 -1.2982e-001 +4.5283e-001
88 0 +4.165571433e+000 +6.781557143e+001 +6.781557143e+001 -9.0518e-001 +9.7735e-002 -1.7798e+000 -6.7576e-001 +7.5932e-001
109 0 +3.920407945e+000 +6.757040794e+001 +6.757040794e+001 -8.8132e-001 -8.7393e-001 -2.0813e+000 -6.1184e-001 +8.0357e-001
151 0 +3.833790215e+000 +6.748379022e+001 +6.748379022e+001 -8.7030e-001 -8.7788e-001 -2.2551e+000 -6.7149e-001 +7.7320e-001
180 0 +3.423538698e+000 +6.707353870e+001 +6.707353870e+001 -8.0392e-001 -5.7885e-001 -2.0086e+000 -1.6772e+000 +4.8570e-001
193 0 +3.321044323e+000 +6.697104432e+001 +6.697104432e+001 -1.1020e+000 -5.5506e-001 -2.4470e+000 -1.0788e+000 +1.1110e+000
209 0 +2.702824830e+000 +6.635282483e+001 +6.635282483e+001 -9.6366e-001 -1.5545e-001 -2.6840e+000 -1.0360e+000 +1.0142e+000
326 0 +2.601051897e+000 +6.625105190e+001 +6.625105190e+001 -4.7853e-001 -4.7885e-001 -1.9431e+000 -7.7526e-001 +6.2287e-001
395 0 +2.247152727e+000 +6.589715273e+001 +6.589715273e+001 -1.1109e+000 -1.5504e-001 -2.2133e+000 -1.0064e+000 +8.7166e-001
401 0 +1.794788761e+000 +6.544478876e+001 +6.544478876e+001 -1.0861e+000 -1.2070e-001 -2.0519e+000 -9.6126e-001 +9.3255e-001
412 0 +1.643472777e+000 +6.529347278e+001 +6.529347278e+001 -1.0452e+000 -1.2923e-001 -1.9584e+000 -9.3351e-001 +8.9478e-001
420 0 +1.390593943e+000 +6.504059394e+001 +6.504059394e+001 -1.0004e+000 -2.1192e-001 -1.8542e+000 -8.9868e-001 +9.2856e-001
548 0 +1.366862434e+000 +6.501686243e+001 +6.501686243e+001 -1.0121e+000 -1.5040e-001 -1.9240e+000 -9.4166e-001 +9.3000e-001
688 0 +1.280080241e+000 +6.493008024e+001 +6.493008024e+001 -1.0103e+000 -1.4180e-001 -1.9447e+000 -9.4804e-001 +9.2436e-001
2641 0 +1.208825268e+000 +6.485882527e+001 +6.485882527e+001 -1.7775e+000 +7.0984e-001 -1.3969e+000 -1.8308e+000 +1.5120e+000
2661 0 +1.168736466e+000 +6.481873647e+001 +6.481873647e+001 -1.7663e+000 +6.8561e-001 -1.3887e+000 -1.8185e+000 +1.5004e+000
2671 0 +1.063819095e+000 +6.471381909e+001 +6.471381909e+001 -1.6320e+000 +8.8247e-001 -1.2548e+000 -1.5858e+000 +1.6942e+000
2682 0 +8.938173117e-001 +6.454381731e+001 +6.454381731e+001 -1.5734e+000 +7.2992e-001 -1.3010e+000 -1.6417e+000 +1.6279e+000
2759 0 +8.657556189e-001 +6.451575562e+001 +6.451575562e+001 -1.5440e+000 +6.5834e-001 -1.2684e+000 -1.6555e+000 +1.5622e+000
2766 0 +5.692281112e-001 +6.421922811e+001 +6.421922811e+001 -1.5986e+000 +5.3853e-001 -1.3557e+000 -1.7909e+000 +1.5032e+000
2774 0 +4.331724033e-001 +6.408317240e+001 +6.408317240e+001 -1.6710e+000 +4.0122e-001 -1.4616e+000 -1.8411e+000 +1.4371e+000
2806 0 +3.469930967e-001 +6.399699310e+001 +6.399699310e+001 -1.6032e+000 +4.0625e-001 -1.4487e+000 -1.7807e+000 +1.4621e+000
2847 0 +3.031860089e-001 +6.395318601e+001 +6.395318601e+001 -1.5911e+000 +3.9937e-001 -1.4370e+000 -1.7595e+000 +1.4750e+000
5299 0 +3.010635344e-001 +6.395106353e+001 +6.395106353e+001 -2.5046e+000 +1.5555e+000 -1.5897e-001 -2.0284e+000 +2.7551e+000
5327 0 +2.380632051e-001 +6.388806321e+001 +6.388806321e+001 -2.4141e+000 +1.4312e+000 -3.0585e-001 -1.8889e+000 +2.6279e+000
5333 0 +2.333709264e-001 +6.388337093e+001 +6.388337093e+001 -2.4486e+000 +1.2963e+000 -3.4136e-001 -2.0085e+000 +2.6992e+000
5407 0 +1.655511634e-001 +6.381555116e+001 +6.381555116e+001 -2.4694e+000 +1.4750e+000 -3.9244e-001 -2.1452e+000 +2.7373e+000
5454 0 +4.487231273e-002 +6.369487231e+001 +6.369487231e+001 -2.3472e+000 +1.3321e+000 -6.6795e-001 -1.9046e+000 +2.4957e+000
5456 0 +4.391559718e-002 +6.369391560e+001 +6.369391560e+001 -2.3611e+000 +1.3585e+000 -6.6164e-001 -2.0169e+000 +2.5011e+000
5463 0 +1.782034917e-002 +6.366782035e+001 +6.366782035e+001 -2.3233e+000 +1.2959e+000 -6.8796e-001 -1.9997e+000 +2.5115e+000
5527 0 +8.432997397e-003 +6.365843300e+001 +6.365843300e+001 -2.3143e+000 +1.2709e+000 -7.0460e-001 -1.9871e+000 +2.5030e+000
5553 0 +3.391917289e-007 +6.365000034e+001 +6.365000034e+001 -2.2870e+000 +1.2498e+000 -6.9179e-001 -1.9400e+000 +2.4790e+000
5624 0 +2.020998124e-007 +6.365000020e+001 +6.365000020e+001 -2.2703e+000 +1.2463e+000 -6.9756e-001 -1.9140e+000 +2.4570e+000
5689 0 +1.667426801e-007 +6.365000017e+001 +6.365000017e+001 -2.2713e+000 +1.2457e+000 -7.0346e-001 -1.9161e+000 +2.4578e+000
5725 0 +5.122728908e-008 +6.365000005e+001 +6.365000005e+001 -2.2643e+000 +1.2228e+000 -7.0425e-001 -1.9087e+000 +2.4553e+000
5739 0 +5.963713079e-009 +6.365000001e+001 +6.365000001e+001 -2.2622e+000 +1.2191e+000 -7.0271e-001 -1.9148e+000 +2.4527e+000
% f evaluations | g evaluations | best noise-free fitness - Fopt (6.991900000000e+002) + sum g_i+ | measured fitness | best measured fitness or single-digit g-values | x1 | x2...
1 0 +2.947787236e+002 +9.939687236e+002 +9.939687236e+002 +3.4326e+000 -4.5479e-001 -1.0814e+000 -1.6132e+000 +3.8171e+000
8 0 +2.084201651e+002 +9.076101651e+002 +9.076101651e+002 +2.5832e+000 -4.9857e+000 -1.9674e+000 -4.7457e+000 -1.2276e+000
10 0 +1.016286112e+002 +8.008186112e+002 +8.008186112e+002 +1.4210e+000 +1.0543e+000 +3.2001e+000 +6.2269e-001 -1.0899e+000
81 0 +7.730598893e+001 +7.764959889e+002 +7.764959889e+002 +3.3420e+000 +7.5306e-001 -1.0175e+000 -1.4828e+000 -2.6810e+000
100 0 +7.028018921e+001 +7.694701892e+002 +7.694701892e+002 +3.0893e+000 +3.7685e-001 -9.0496e-001 -1.4523e+000 -2.3189e+000
108 0 +6.399896901e+001 +7.631889690e+002 +7.631889690e+002 +4.4646e+000 -6.8365e-001 -1.9674e+000 -4.1520e-001 -4.0600e+000
112 0 +1.259014802e+001 +7.117801480e+002 +7.117801480e+002 +3.8295e+000 -1.3914e+000 -2.2953e+000 -1.2970e-001 -4.2937e+000
123 0 +1.005404180e+001 +7.092440418e+002 +7.092440418e+002 +3.6747e+000 -1.1090e+000 -2.1757e+000 +3.1083e-001 -4.2452e+000
160 0 +8.884510686e+000 +7.080745107e+002 +7.080745107e+002 +3.6485e+000 -9.6908e-001 -2.0664e+000 +2.2475e-001 -4.2683e+000
165 0 +8.526006572e+000 +7.077160066e+002 +7.077160066e+002 +2.4229e+000 +1.0295e+000 -5.9940e-001 +1.2445e+000 -4.4702e+000
168 0 +3.442560588e+000 +7.026325606e+002 +7.026325606e+002 +3.7356e+000 -6.2799e-002 -2.3730e+000 +9.4287e-001 -4.0124e+000
222 0 +3.246594201e+000 +7.024365942e+002 +7.024365942e+002 +3.7279e+000 +4.4339e-002 -2.4156e+000 +1.3173e+000 -3.7588e+000
223 0 +2.882811111e+000 +7.020728111e+002 +7.020728111e+002 +3.6747e+000 +1.3672e-001 -2.3084e+000 +1.4155e+000 -3.8112e+000
273 0 +1.269373938e+000 +7.004593739e+002 +7.004593739e+002 +3.3543e+000 -2.3069e-001 -2.1518e+000 +1.0607e+000 -3.8772e+000
282 0 +4.626943082e-001 +6.996526943e+002 +6.996526943e+002 +3.3430e+000 -2.3612e-001 -2.1744e+000 +1.1029e+000 -3.9093e+000
304 0 +4.456133442e-001 +6.996356133e+002 +6.996356133e+002 +3.3618e+000 -2.4636e-001 -2.1839e+000 +1.1151e+000 -3.9103e+000
388 0 +4.239553041e-001 +6.996139553e+002 +6.996139553e+002 +3.3646e+000 -1.8453e-001 -2.1737e+000 +1.1720e+000 -3.7948e+000
410 0 +2.955796499e-001 +6.994855796e+002 +6.994855796e+002 +3.3031e+000 -6.2926e-002 -2.1804e+000 +1.1380e+000 -3.7136e+000
418 0 +2.730649932e-001 +6.994630650e+002 +6.994630650e+002 +3.2431e+000 +1.4826e-001 -2.1460e+000 +1.3448e+000 -3.9071e+000
433 0 +2.132645961e-001 +6.994032646e+002 +6.994032646e+002 +3.2434e+000 +2.4427e-001 -2.1001e+000 +1.4839e+000 -3.7919e+000
450 0 +1.807410435e-001 +6.993707410e+002 +6.993707410e+002 +3.2489e+000 +2.3707e-001 -2.1000e+000 +1.5097e+000 -3.7765e+000
523 0 +1.676717346e-001 +6.993576717e+002 +6.993576717e+002 +3.2377e+000 +1.5633e-001 -2.1350e+000 +1.4341e+000 -3.7748e+000
537 0 +1.622962475e-001 +6.993522962e+002 +6.993522962e+002 +3.2613e+000 +9.6983e-002 -2.1440e+000 +1.3802e+000 -3.7915e+000
559 0 +1.575746835e-001 +6.993475747e+002 +6.993475747e+002 +3.3033e+000 +1.3759e-002 -2.2413e+000 +1.3251e+000 -3.6991e+000
594 0 +1.424937543e-001 +6.993324938e+002 +6.993324938e+002 +3.2745e+000 +4.4836e-002 -2.2231e+000 +1.3373e+000 -3.6875e+000
722 0 +1.382020522e-001 +6.993282021e+002 +6.993282021e+002 +3.3223e+000 +1.1049e-001 -2.1798e+000 +1.3851e+000 -3.7728e+000
735 0 +1.262190099e-001 +6.993162190e+002 +6.993162190e+002 +3.2947e+000 +4.7138e-002 -2.2280e+000 +1.2883e+000 -3.7514e+000
973 0 +1.180077190e-001 +6.993080077e+002 +6.993080077e+002 +3.3373e+000 -4.0811e-002 -2.3549e+000 +1.2221e+000 -3.7355e+000
1078 0 +1.168374839e-001 +6.993068375e+002 +6.993068375e+002 +3.3477e+000 -7.4458e-002 -2.4103e+000 +1.2273e+000 -3.7740e+000
6521 0 +7.816442651e-002 +6.992681644e+002 +6.992681644e+002 +3.1932e+000 +4.7392e-001 -2.0816e+000 +2.1310e+000 -3.6711e+000
6538 0 +5.935444961e-002 +6.992493544e+002 +6.992493544e+002 +3.2002e+000 +4.3886e-001 -2.0988e+000 +1.9976e+000 -3.6776e+000
6624 0 +5.869597038e-002 +6.992486960e+002 +6.992486960e+002 +3.2182e+000 +3.7600e-001 -2.1483e+000 +1.8792e+000 -3.6813e+000
6639 0 +2.581422889e-002 +6.992158142e+002 +6.992158142e+002 +3.2010e+000 +4.9255e-001 -2.0953e+000 +2.1376e+000 -3.4687e+000
6641 0 +2.311161789e-002 +6.992131116e+002 +6.992131116e+002 +3.2222e+000 +3.9540e-001 -2.1429e+000 +1.9455e+000 -3.5626e+000
6737 0 +1.560153411e-002 +6.992056015e+002 +6.992056015e+002 +3.1775e+000 +5.6316e-001 -2.0262e+000 +2.2042e+000 -3.4727e+000
6915 0 +3.171559573e-003 +6.991931716e+002 +6.991931716e+002 +3.1707e+000 +5.8498e-001 -2.0198e+000 +2.3495e+000 -3.4539e+000
6961 0 +1.859568783e-007 +6.991900002e+002 +6.991900002e+002 +3.1743e+000 +5.6652e-001 -2.0323e+000 +2.3201e+000 -3.4656e+000
7008 0 +1.586124654e-008 +6.991900000e+002 +6.991900000e+002 +3.1780e+000 +5.5656e-001 -2.0384e+000 +2.3041e+000 -3.4677e+000
7021 0 +1.190187504e-008 +6.991900000e+002 +6.991900000e+002 +3.1821e+000 +5.5709e-001 -2.0381e+000 +2.3046e+000 -3.4673e+000
7135 0 +5.487549970e-009 +6.991900000e+002 +6.991900000e+002 +3.1821e+000 +5.5709e-001 -2.0306e+000 +2.3046e+000 -3.4673e+000
% f evaluations | g evaluations | best noise-free fitness - Fopt (1.000000000000e+003) + sum g_i+ | measured fitness | best measured fitness or single-digit g-values | x1 | x2...
1 0 +2.219750310e+002 +1.221975031e+003 +1.221975031e+003 +1.5382e+000 +4.2139e+000 +2.7986e+000 -1.9113e+000 -3.2642e+000
2 0 +1.540885363e+002 +1.154088536e+003 +1.154088536e+003 -3.2337e+000 +3.6822e+000 -1.8460e+000 -4.4866e+000 +3.1047e+000
9 0 +6.808100564e+001 +1.068081006e+003 +1.068081006e+003 +1.9243e+000 -8.4995e-002 -4.9798e+000 -2.7371e+000 +3.3686e+000
35 0 +5.779433547e+001 +1.057794335e+003 +1.057794335e+003 -6.7343e-002 +3.3016e+000 +9.2074e-001 -2.7482e+000 -3.3734e+000
40 0 +5.744284220e+001 +1.057442842e+003 +1.057442842e+003 -2.4361e+000 +4.8632e-001 -1.4628e+000 -1.8243e+000 -3.2535e+000
51 0 +4.167061486e+001 +1.041670615e+003 +1.041670615e+003 -2.5674e+000 +3.2011e-001 -5.4971e-001 -2.2066e+000 -3.2535e+000
56 0 +3.163471130e+001 +1.031634711e+003 +1.031634711e+003 -2.3252e+000 +7.7072e-001 -3.4604e-001 -3.0188e+000 -4.2901e+000
65 0 +1.846762397e+001 +1.018467624e+003 +1.018467624e+003 -2.4085e-001 +6.4474e-001 -2.7744e+000 -1.2716e+000 -5.6135e-001
137 0 +4.626324840e+000 +1.004626325e+003 +1.004626325e+003 -1.2723e-001 -1.8571e-001 -1.7049e+000 -2.9329e+000 -3.4975e-001
198 0 +1.772338916e+000 +1.001772339e+003 +1.001772339e+003 -5.1398e-001 -2.1929e-001 -1.0890e+000 -2.9558e+000 -7.2658e-001
207 0 +1.503746984e+000 +1.001503747e+003 +1.001503747e+003 -3.5936e-001 -2.4403e-001 -1.2660e+000 -2.9583e+000 -6.4959e-001
211 0 +1.015769908e+000 +1.001015770e+003 +1.001015770e+003 +1.1984e-001 -8.0731e-002 -1.0812e+000 -3.3289e+000 -9.0084e-001
259 0 +9.328319755e-001 +1.000932832e+003 +1.000932832e+003 +5.9411e-002 -9.5775e-002 -1.1665e+000 -3.4624e+000 -7.2130e-001
412 0 +8.808920898e-001 +1.000880892e+003 +1.000880892e+003 +2.1230e-001 -2.9263e-001 -1.0588e+000 -3.5397e+000 -5.9569e-001
444 0 +8.438027123e-001 +1.000843803e+003 +1.000843803e+003 +1.6946e-001 -2.8325e-001 -9.9405e-001 -3.5301e+000 -6.5335e-001
460 0 +7.329752270e-001 +1.000732975e+003 +1.000732975e+003 +1.7851e-001 -2.8687e-001 -1.0076e+000 -3.5239e+000 -9.5126e-001
491 0 +6.974411556e-001 +1.000697441e+003 +1.000697441e+003 +1.5918e-001 -2.7423e-001 -1.0273e+000 -3.5159e+000 -8.9641e-001
531 0 +5.285705306e-001 +1.000528571e+003 +1.000528571e+003 -3.2494e-002 -3.1177e-001 -5.4760e-001 -3.6742e+000 -1.0985e+000
548 0 +4.145903102e-001 +1.000414590e+003 +1.000414590e+003 -3.4165e-002 -3.1031e-001 -5.5300e-001 -3.6719e+000 -1.1381e+000
773 0 +3.963726169e-001 +1.000396373e+003 +1.000396373e+003 +1.1302e-001 -4.8154e-001 -5.2633e-001 -3.7244e+000 -1.1733e+000
845 0 +3.706677382e-001 +1.000370668e+003 +1.000370668e+003 +6.0567e-002 -4.0904e-001 -6.4855e-001 -3.6225e+000 -1.0685e+000
972 0 +3.576089289e-001 +1.000357609e+003 +1.000357609e+003 +2.7970e-002 -4.5820e-001 -5.7380e-001 -3.6741e+000 -1.1085e+000
5124 0 +3.407947298e-001 +1.000340795e+003 +1.000340795e+003 -4.5323e-001 +4.2495e-001 -3.7487e-001 -3.3653e+000 -1.5344e+000
5135 0 +2.991250622e-001 +1.000299125e+003 +1.000299125e+003 -4.0937e-001 +3.6189e-001 -4.0435e-001 -3.3860e+000 -1.5037e+000
5159 0 +1.943409952e-001 +1.000194341e+003 +1.000194341e+003 -4.0680e-001 +3.6451e-001 -4.0012e-001 -3.3794e+000 -1.5118e+000
5288 0 +1.493001668e-001 +1.000149300e+003 +1.000149300e+003 -3.6907e-001 +2.4773e-001 -4.7147e-001 -3.3592e+000 -1.4469e+000
5294 0 +9.475413122e-002 +1.000094754e+003 +1.000094754e+003 -3.8817e-001 +3.6635e-001 -4.3636e-001 -3.1733e+000 -1.7349e+000
5302 0 +8.240213188e-002 +1.000082402e+003 +1.000082402e+003 -3.7910e-001 +2.8825e-001 -4.6154e-001 -3.2961e+000 -1.5418e+000
5377 0 +7.247161811e-002 +1.000072472e+003 +1.000072472e+003 -3.8216e-001 +2.2967e-001 -4.6887e-001 -3.3042e+000 -1.5606e+000
5379 0 +6.575631639e-002 +1.000065756e+003 +1.000065756e+003 -4.6161e-001 +4.8101e-001 -3.7668e-001 -3.1843e+000 -1.7771e+000
5407 0 +3.756487129e-002 +1.000037565e+003 +1.000037565e+003 -5.0347e-001 +4.5373e-001 -3.6065e-001 -3.2161e+000 -1.7939e+000
5415 0 +2.969654881e-002 +1.000029697e+003 +1.000029697e+003 -4.1058e-001 +2.5498e-001 -4.5375e-001 -3.2591e+000 -1.6936e+000
5535 0 +2.717326052e-002 +1.000027173e+003 +1.000027173e+003 -4.1423e-001 +2.3376e-001 -4.7247e-001 -3.2535e+000 -1.7090e+000
5593 0 +1.909045309e-002 +1.000019090e+003 +1.000019090e+003 -4.4078e-001 +3.5994e-001 -4.7197e-001 -3.2350e+000 -1.7093e+000
5652 0 +1.343654935e-002 +1.000013437e+003 +1.000013437e+003 -4.5853e-001 +3.8659e-001 -5.1597e-001 -3.2032e+000 -1.6261e+000
5675 0 +5.442755620e-003 +1.000005443e+003 +1.000005443e+003 -5.1386e-001 +4.2149e-001 -4.7410e-001 -3.1765e+000 -1.7258e+000
5810 0 +2.154858976e-007 +1.000000000e+003 +1.000000000e+003 -5.0629e-001 +4.5690e-001 -4.9232e-001 -3.1649e+000 -1.7202e+000
5857 0 +2.007924422e-007 +1.000000000e+003 +1.000000000e+003 -5.0664e-001 +4.5373e-001 -4.9796e-001 -3.1608e+000 -1.7195e+000
5860 0 +1.558632903e-007 +1.000000000e+003 +1.000000000e+003 -5.1147e-001 +4.5953e-001 -4.9805e-001 -3.1649e+000 -1.7225e+000
5875 0 +7.449284567e-008 +1.000000000e+003 +1.000000000e+003 -5.2165e-001 +4.5774e-001 -4.9864e-001 -3.1584e+000 -1.7221e+000
5903 0 +4.498929229e-008 +1.000000000e+003 +1.000000000e+003 -5.2396e-001 +4.5869e-001 -5.1163e-001 -3.1552e+000 -1.7158e+000
5904 0 +4.389744390e-008 +1.000000000e+003 +1.000000000e+003 -5.2403e-001 +4.5880e-001 -5.1152e-001 -3.1552e+000 -1.7159e+000
5905 0 +1.685543793e-008 +1.000000000e+003 +1.000000000e+003 -5.2447e-001 +4.5589e-001 -5.2666e-001 -3.1477e+000 -1.7096e+000
5920 0 +6.746518011e-009 +1.000000000e+003 +1.000000000e+003 -5.2804e-001 +4.5500e-001 -5.2536e-001 -3.1458e+000 -1.7097e+000
