% f evaluations | g evaluations | best noise-free fitness - Fopt (-9.210000000000e+000) + sum g_i+ | measured fitness | best measured fitness or single-digit g-values | x1 | x2...
1 0 +3.448120043e+002 +3.356020043e+002 +3.356020043e+002 +4.8219e+000 -3.6823e+000 -1.2475e+000 -3.1191e+000 -4.3052e+000 +1.2548e-001 +1.4820e+000 +1.6575e+000 +3.3477e+000 -3.0055e+000 +1.9500e+000 +2.2524e+000 -3.8161e+000 +2.9343e+000 +3.9545e+000 -4.3314e+000 -2.0254e+000 +4.5722e+000 +1.7325e+000 +3.3643e+000
3 0 +3.447378144e+002 +3.355278144e+002 +3.355278144e+002 +3.7436e-001 -2.4861e-001 -2.6076e-001 +1.7169e+000 -1.8904e-001 -4.9523e+000 -3.4435e+000 +4.5789e+000 -8.4421e-001 -4.4280e+000 -3.8496e+000 +1.0591e+000 -2.3813e+000 +4.7327e+000 -2.6727e+000 +1.5802e-001 +1.5016e+000 +4.0941e+000 +1.9031e+000 -1.4357e+000
7 0 +3.263339004e+002 +3.171239004e+002 +3.171239004e+002 -1.0809e+000 +4.0514e+000 +5.2422e-001 +2.2638e+000 +1.7798e+000 -3.7451e+000 -3.1545e+000 +1.0534e+000 -2.6624e+000 -2.2496e+000 -1.4193e+000 +1.5629e+000 -4.7217e+000 -2.3105e+000 -3.2903e+000 -4.4410e+000 +3.9477e+000 -7.2051e-001 -3.8474e+000 +1.1039e+000
8 0 +3.122669528e+002 +3.030569528e+002 +3.030569528e+002 +1.3631e+000 -2.8463e-001 +4.2420e+000 +4.8307e+000 -3.6079e-001 -2.2708e-001 -4.4503e+000 -4.4413e-001 +1.8070e+000 +9.6943e-001 +4.6882e+000 -4.9960e+000 +1.3035e+000 -4.2407e-001 -1.7120e+000 +3.2650e-001 +4.7705e+000 -2.9585e-001 +9.9154e-001 +4.5695e+000
13 0 +2.982030647e+002 +2.889930647e+002 +2.889930647e+002 +4.1729e+000 -9.8733e-001 +3.0430e+000 +7.5191e-001 -8.9227e-001 +1.8904e+000 -8.8651e-002 +2.5690e+000 -4.2768e+000 -1.0719e+000 -3.2760e+000 -4.7534e+000 +1.0210e+000 -1.8882e+000 -1.2919e+000 +2.2268e+000 +4.3485e+000 +4.5779e+000 +4.0854e+000 +4.2831e+000
22 0 +0.000000000e+000 -9.210000000e+000 -9.210000000e+000 +5.0000e+000 +5.0000e+000 +5.0000e+000 +5.0000e+000 -5.0000e+000 +5.0000e+000 +5.0000e+000 +5.0000e+000 +5.0000e+000 -5.0000e+000 -5.0000e+000 -5.0000e+000 +5.0000e+000 +5.0000e+000 -5.0000e+000 -5.0000e+000 +5.0000e+000 +5.0000e+000 -5.0000e+000 +5.0000e+000
% f evaluations | g evaluations | best noise-free fitness - Fopt (6.559900000000e+002) + sum g_i+ | measured fitness | best measured fitness or single-digit g-values | x1 | x2...
1 0 +3.682639935e+002 +1.024253994e+003 +1.024253994e+003 -2.3309e+000 +2.0374e+000 +1.0017e+000 +4.8604e+000 +7.4244e-001 -4.0835e+000 -3.2087e+000 +1.9715e+000 +3.0263e+000 -3.5040e+000 -2.5321e+000 +2.9400e-001 +2.1722e-001 +2.7001e+000 +2.6917e+000 +1.0038e+000 -2.9542e+000 -2.5428e+000 -2.3436e+000 -1.1131e+000
2 0 +3.680194091e+002 +1.024009409e+003 +1.024009409e+003 +9.7477e-001 -2.5642e+000 -2.0228e+000 -4.2883e+000 -2.2539e+000 +1.0591e+000 -2.4709e+000 +1.7695e+000 -4.1284e+000 -1.9606e-001 +1.3120e+000 -3.4489e+000 +6.4664e-001 -1.1428e+000 +2.1906e+000 -4.8747e+000 +8.1561e-001 -4.1749e+000 +1.1860e+000 -1.0603e+000
6 0 +2.920143497e+002 +9.480043497e+002 +9.480043497e+002 +3.6059e+000 +2.0705e+000 +2.0420e+000 +4.6766e+000 +1.2089e+000 -3.1293e+000 +4.0760e+000 +4.0962e+000 -4.0163e+000 +2.4557e-001 -4.8039e+000 +3.4221e+000 -3.7303e+000 -2.6673e+000 +3.5588e+000 +8.6172e-001 -4.8885e+000 -3.7779e-003 +2.2357e+000 +1.4802e+000
22 0 +0.000000000e+000 +6.559900000e+002 +6.559900000e+002 +5.0000e+000 -5.0000e+000 -5.0000e+000 +5.0000e+000 -5.0000e+000 -5.0000e+000 -5.0000e+000 +5.0000e+000 -5.0000e+000 -5.0000e+000 +5.0000e+000 +5.0000e+000 +5.0000e+000 -5.0000e+000 +5.0000e+000 +5.0000e+000 -5.0000e+000 -5.0000e+000 +5.0000e+000 +5.0000e+000
% f evaluations | g evaluations | best noise-free fitness - Fopt (6.671000000000e+001) + sum g_i+ | measured fitness | best measured fitness or single-digit g-values | x1 | x2...
1 0 +4.480944553e+002 +5.148044553e+002 +5.148044553e+002 -1.9684e+000 +1.5002e+000 -3.6239e+000 -2.3235e+000 -2.3726e+000 -2.7892e+000 +1.4586e+000 +1.5652e+000 +2.2793e+000 -2.9483e+000 -1.3937e+000 +3.9223e+000 +3.2369e+000 -1.0545e+000 -3.9941e+000 +2.9830e+000 -9.4154e-001 +2.8384e-001 +9.2287e-001 +4.8511e+000
2 0 +4.338217558e+002 +5.005317558e+002 +5.005317558e+002 -1.9323e+000 +1.7529e+000 +2.2402e+000 +2.6049e+000 -4.3903e+000 -3.3356e+000 -1.1993e+000 +3.5586e+000 -4.7230e+000 +4.2094e+000 -1.5059e+000 +1.0873e+000 +8.3066e-001 +2.6740e+000 -1.1402e+000 +4.5801e+000 +2.1491e+000 -2.1500e+000 -1.3239e-001 +4.8101e+000
3 0 +4.044928098e+002 +4.712028098e+002 +4.712028098e+002 +4.2131e+000 +2.6220e+000 +3.4951e+000 +2.2892e+000 +2.8714e+000 -3.9708e+000 +2.7378e+000 +3.0247e+000 +4.9291e+000 +3.9762e+000 +4.7671e+000 -4.9948e-001 +2.9644e+000 -7.9405e-001 -9.0464e-001 +4.6780e+000 -2.7997e+000 -4.8481e+000 +1.8112e+000 +3.3445e+000
6 0 +3.387673904e+002 +4.054773904e+002 +4.054773904e+002 +2.2863e+000 -4.0638e+000 +1.9413e+000 -3.5269e+000 -3.8437e+000 +1.8516e-001 +7.7854e-001 -2.9317e+000 +3.7558e-001 +1.8919e+000 +6.9388e-002 -1.6645e+000 -1.7419e+000 +2.5670e+000 +4.1183e+000 -3.2152e+000 +4.3806e+000 +1.0607e+000 -4.7348e+000 -4.1716e+000
22 0 +0.000000000e+000 +6.671000000e+001 +6.671000000e+001 -5.0000e+000 -5.0000e+000 -5.0000e+000 +5.0000e+000 -5.0000e+000 +5.0000e+000 -5.0000e+000 -5.0000e+000 +5.0000e+000 -5.0000e+000 -5.0000e+000 -5.0000e+000 +5.0000e+000 +5.0000e+000 +5.0000e+000 +5.0000e+000 -5.0000e+000 -5.0000e+000 -5.0000e+000 -5.0000e+000
% f evaluations | g evaluations | best noise-free fitness - Fopt (9.416700000000e+002) + sum g_i+ | measured fitness | best measured fitness or single-digit g-values | x1 | x2...
1 0 +3.874579211e+002 +1.329127921e+003 +1.329127921e+003 -1.0739e+000 -2.7127e-001 +8.3003e-001 -5.0453e-001 +1.8325e+000 -4.6189e+000 -3.7144e+000 +1.8623e+000 +1.5385e+000 -2.7829e+000 -7.7650e-001 +2.4378e+000 +1.2173e+000 +3.2687e+000 -3.2664e+000 -4.0706e+000 -2.4864e+000 +6.7148e-001 +4.8316e-001 +1.9366e+000
3 0 +3.433389118e+002 +1.285008912e+003 +1.285008912e+003 +1.4836e+000 -5.8876e-001 -1.3008e+000 -3.6286e+000 +2.3719e+000 -1.8581e+000 -6.9489e-001 -8.7860e-001 -3.9598e+000 -3.7857e+000 -1.6420e+000 +3.0934e+000 -2.6479e+000 -4.5154e+000 +3.2702e+000 -2.7379e+000 -4.7610e+000 -1.0898e-001 -4.2905e+000 +2.5173e+000
6 0 +3.386819418e+002 +1.280351942e+003 +1.280351942e+003 -1.9005e+000 -4.9366e+000 -4.8316e+000 +6.3708e-001 +4.2443e+000 +3.0706e+000 +6.4032e-001 +4.4506e+000 +1.8628e-001 +3.9314e+000 -4.5587e+000 +3.6756e+000 -3.7352e+000 -4.3848e+000 -1.7316e+000 -2.0179e-002 -3.2375e+000 +1.6843e+000 +5.1362e-001 +2.7302e+000
7 0 +3.164827753e+002 +1.258152775e+003 +1.258152775e+003 -2.5716e+000 +3.8082e+000 +4.9440e+000 -3.1001e+000 -1.0200e+000 +4.8256e-001 +2.6287e+000 -2.8938e+000 -4.0646e+000 -1.1733e+000 +1.0403e+000 +2.9543e+000 -1.7011e+000 -4.1905e-001 +2.7157e+000 +3.6489e+000 +8.5791e-001 +2.4387e-001 +4.3764e+000 -8.2019e-001
8 0 +3.159519735e+002 +1.257621974e+003 +1.257621974e+003 +1.1532e+000 -2.3371e+000 +9.9167e-001 +1.2949e+000 +2.5389e+000 -6.6620e-001 -2.0939e+000 -5.3562e-002 +3.1790e+000 +2.1649e+000 -3.1363e+000 -7.0856e-002 -4.6913e+000 -1.4731e+000 -1.4774e+000 -1.9766e+000 +1.6399e+000 +2.0367e+000 +4.8886e+000 +3.1164e+000
10 0 +2.936517562e+002 +1.235321756e+003 +1.235321756e+003 -3.6148e+000 +4.7631e+000 -4.7531e+000 +3.7400e+000 -1.3232e+000 -2.5001e+000 -2.1142e+000 -2.2784e-001 +4.8002e+000 -3.7105e+000 -4.0736e+000 +9.0432e-001 -1.0419e+000 -2.9986e+000 +3.8577e+000 +3.0584e-001 +1.7378e+000 +4.8477e+000 -2.0943e+000 +3.3690e+000
22 0 +0.000000000e+000 +9.416700000e+002 +9.416700000e+002 -5.0000e+000 -5.0000e+000 +5.0000e+000 +5.0000e+000 -5.0000e+000 -5.0000e+000 -5.0000e+000 -5.0000e+000 +5.0000e+000 -5.0000e+000 +5.0000e+000 +5.0000e+000 -5.0000e+000 -5.0000e+000 +5.0000e+000 +5.0000e+000 -5.0000e+000 +5.0000e+000 +5.0000e+000 +5.0000e+000
% f evaluations | g evaluations | best noise-free fitness - Fopt (-3.745000000000e+001) + sum g_i+ | measured fitness | best measured fitness or single-digit g-values | x1 | x2...
1 0 +3.803480052e+002 +3.428980052e+002 +3.428980052e+002 +3.9442e+000 +4.7959e+000 -1.6291e-002 +4.0469e+000 +3.9039e+000 +4.3169e-001 +4.8841e+000 -3.3680e+000 -2.2416e-001 +3.4130e+000 +3.3645e+000 +1.5894e+000 +1.6003e+000 +1.7855e+000 -3.6367e+000 +3.4220e+000 -9.7931e-001 -2.5284e+000 -2.5731e+000 -2.6162e+000
2 0 +3.154400078e+002 +2.779900078e+002 +2.779900078e+002 +3.1081e+000 +2.7648e+000 +1.4127e+000 -1.0053e+000 +2.4637e+000 -1.8932e+000 -1.8637e+000 -3.4031e+000 +4.1212e+000 +1.0635e+000 +3.8113e+000 +3.9255e+000 -4.5561e+000 -2.8282e+000 -2.9110e+000 -4.6937e-002 -2.0509e+000 -4.3582e+000 +4.5207e+000 +1.0949e-001
22 0 +0.000000000e+000 -3.745000000e+001 -3.745000000e+001 +5.0000e+000 +5.0000e+000 +5.0000e+000 -5.0000e+000 -5.0000e+000 +5.0000e+000 +5.0000e+000 -5.0000e+000 +5.0000e+000 +5.0000e+000 +5.0000e+000 +5.0000e+000 -5.0000e+000 -5.0000e+000 +5.0000e+000 +5.0000e+000 -5.0000e+000 +5.0000e+000 +5.0000e+000 -5.0000e+000
% f evaluations | g evaluations | best noise-free fitness - Fopt (-6.639000000000e+001) + sum g_i+ | measured fitness | best measured fitness or single-digit g-values | x1 | x2...
1 0 +3.335492645e+002 +2.671592645e+002 +2.671592645e+002 +2.7485e+000 -1.9251e+000 -4.8641e+000 +2.9621e+000 -9.7572e-001 -3.0241e+000 +3.9103e+000 +1.9623e+000 +2.4390e+000 +4.3371e+000 +2.8174e+000 -4.1953e+000 -3.7265e+000 -3.0967e+000 +1.1863e+000 -3.3435e+000 +4.4517e+000 +1.6135e+000 -1.7612e+000 -1.8263e+000
4 0 +3.326059132e+002 +2.662159132e+002 +2.662159132e+002 -3.3652e+000 -2.7896e+000 +4.7178e+000 +3.3536e+000 +4.9038e-001 -5.0898e-001 +3.6089e+000 -9.4052e-001 -2.2417e+000 -4.6354e+000 -4.1750e+000 +2.0314e+000 +3.2447e+000 -4.7787e+000 +1.1528e+000 -1.9906e+000 +4.8888e+000 +3.2307e-002 -2.1048e-001 -1.2627e+000
6 0 +3.289374754e+002 +2.625474754e+002 +2.625474754e+002 -3.2552e+000 -4.1374e+000 -4.0961e+000 -2.8833e+000 -2.2222e+000 -9.2152e-001 +2.1627e-001 +2.6168e-001 -4.4107e+000 -6.6262e-001 -1.8420e+000 -2.6893e+000 +2.1657e+000 +4.3568e+000 -8.3090e-001 -4.6275e-001 -3.3349e+000 -1.7903e-001 -7.7288e-001 -4.2226e+000
9 0 +2.723380985e+002 +2.059480985e+002 +2.059480985e+002 -4.8861e+000 +3.3734e+000 +2.5194e+000 -1.8678e+000 -4.6110e+000 +2.0945e+000 +3.4495e+000 -1.4238e+000 -2.0822e+000 -2.6676e+000 -3.0389e+000 -5.0699e-001 -4.6128e+000 +2.3068e+000 -3.1780e+000 -1.6144e-001 -9.8257e-001 +2.7343e+000 -3.3735e+000 -3.3525e+000
22 0 +0.000000000e+000 -6.639000000e+001 -6.639000000e+001 -5.0000e+000 +5.0000e+000 -5.0000e+000 +5.0000e+000 -5.0000e+000 +5.0000e+000 +5.0000e+000 -5.0000e+000 +5.0000e+000 -5.0000e+000 -5.0000e+000 -5.0000e+000 +5.0000e+000 +5.0000e+000 -5.0000e+000 -5.0000e+000 +5.0000e+000 +5.0000e+000 -5.0000e+000 -5.0000e+000
% f evaluations | g evaluations | best noise-free fitness - Fopt (-2.260100000000e+002) + sum g_i+ | measured fitness | best measured fitness or single-digit g-values | x1 | x2...
1 0 +4.846816693e+002 +2.586716693e+002 +2.586716693e+002 -9.3557e-002 +1.6405e+000 -3.7070e+000 +1.8551e+000 +3.4236e+000 -4.9723e+000 +1.3008e+000 +1.0163e-001 -1.7867e+000 +3.9176e+000 -4.5755e+000 +1.0083e+000 +2.9095e+000 -1.0111e+000 -2.2142e+000 -2.7265e+000 +4.6024e+000 -2.6113e+000 -4.1316e+000 -3.7260e+000
3 0 +4.567044146e+002 +2.306944146e+002 +2.306944146e+002 -1.5893e-001 +5.1603e-001 -3.9796e+000 -1.6784e+000 +2.3016e+000 -4.4809e+000 -4.8416e+000 +4.9012e+000 +4.7267e+000 -2.3829e-002 -4.1536e+000 -2.0444e+000 +4.0773e+000 -4.5517e+000 -1.5562e+000 +4.7725e+000 -1.3079e+000 -1.5318e-002 -1.7507e+000 +2.1188e-001
4 0 +3.908439548e+002 +1.648339548e+002 +1.648339548e+002 -4.0475e-001 -4.0166e+000 +4.4047e+000 -1.1733e+000 +3.9633e-001 -6.9663e-001 +2.4118e+000 -2.6819e+000 -2.9563e-001 -3.6184e+000 +8.8743e-001 +5.1021e-001 +4.3987e+000 -4.3881e+000 -4.1150e+000 +3.0642e+000 -4.4127e+000 +3.0703e-001 +2.8799e+000 +4.7437e+000
6 0 +3.527437794e+002 +1.267337794e+002 +1.267337794e+002 -3.5843e+000 +2.1662e+000 +1.0902e+000 +2.8745e+000 +2.9568e-001 -2.6083e+000 -3.4283e+000 -2.9459e+000 -1.9479e+000 -3.4726e+000 -3.4396e+000 -2.0735e-001 -2.1209e+000 -2.4791e+000 +2.6139e+000 -3.3148e+000 -1.9388e+000 -3.0405e-001 +2.9011e-001 +4.6077e+000
11 0 +3.200649712e+002 +9.405497117e+001 +9.405497117e+001 -1.0397e+000 -4.9389e+000 -4.4051e+000 -1.1729e+000 -4.2399e+000 -3.1544e+000 +1.7697e-001 +4.9597e+000 +1.5554e+000 +1.3784e+000 +2.6561e+000 +3.5708e+000 +4.6831e-001 -3.1279e-001 -4.7397e+000 +4.2488e+000 +3.6728e+000 +4.4364e+000 +4.7519e-001 +1.1050e+000
16 0 +2.932873484e+002 +6.727734844e+001 +6.727734844e+001 -4.5396e+000 -3.2388e+000 +4.4053e+000 -1.5161e+000 +2.2588e+000 -4.6764e+000 -1.4784e+000 -5.4746e-001 -3.9438e+000 +5.6105e-001 +1.4107e+000 -6.5250e-001 -6.3542e-001 +5.3493e-001 -2.5002e-001 -4.1600e+000 +3.6312e+000 +4.5664e+000 +1.3444e+000 -5.4353e-001
22 0 +0.000000000e+000 -2.260100000e+002 -2.260100000e+002 -5.0000e+000 +5.0000e+000 +5.0000e+000 +5.0000e+000 -5.0000e+000 -5.0000e+000 -5.0000e+000 +5.0000e+000 +5.0000e+000 -5.0000e+000 +5.0000e+000 -5.0000e+000 -5.0000e+000 +5.0000e+000 -5.0000e+000 -5.0000e+000 +5.0000e+000 +5.0000e+000 +5.0000e+000 +5.0000e+000
% f evaluations | g evaluations | best noise-free fitness - Fopt (1.000000000000e+003) + sum g_i+ | measured fitness | best measured fitness or single-digit g-values | x1 | x2...
1 0 +3.088301576e+002 +1.308830158e+003 +1.308830158e+003 +3.9175e+000 +2.0499e-001 +1.4751e+000 -3.2090e+000 +1.5643e+000 +1.3988e+000 -3.6579e-001 +2.5089e-001 -3.1554e-001 +3.5686e+000 -1.8057e+000 +3.1141e+000 +4.9460e+000 +2.2863e-001 -2.1024e+000 +3.3018e+000 -8.9813e-002 +4.5645e+000 +3.6952e+000 -2.7368e-001
22 0 +0.000000000e+000 +1.000000000e+003 +1.000000000e+003 -5.0000e+000 +5.0000e+000 +5.0000e+000 +5.0000e+000 -5.0000e+000 -5.0000e+000 -5.0000e+000 -5.0000e+000 +5.0000e+000 -5.0000e+000 -5.0000e+000 +5.0000e+000 +5.0000e+000 -5.0000e+000 +5.0000e+000 +5.0000e+000 -5.0000e+000 +5.0000e+000 +5.0000e+000 +5.0000e+000
% f evaluations | g evaluations | best noise-free fitness - Fopt (-1.830200000000e+002) + sum g_i+ | measured fitness | best measured fitness or single-digit g-values | x1 | x2...
1 0 +3.593291219e+002 +1.763091219e+002 +1.763091219e+002 +1.4623e+000 -1.7743e+000 -1.9823e+000 -3.4325e+000 -4.7301e+000 +2.3095e+000 +2.2561e+000 -1.2652e+000 -7.1933e-001 +8.9178e-001 +3.8421e+000 +3.1827e+000 -4.1461e+000 +9.1423e-001 +1.3154e+000 -6.6130e-001 -1.7983e+000 +1.2236e+000 +1.7561e-001 +2.3857e+000
3 0 +3.303119975e+002 +1.472919975e+002 +1.472919975e+002 -1.0149e+000 +6.7696e-001 +5.0947e-001 -6.0603e-003 +1.1490e+000 -3.7440e+000 -3.3591e+000 +4.6634e+000 -3.5493e+000 +1.5802e+000 -1.0132e+000 -3.1402e+000 +4.0944e+000 +2.4205e+000 +3.1164e+000 +3.4468e+000 +3.8433e+000 -3.0988e+000 +1.0174e-001 -1.5372e+000
15 0 +3.011373370e+002 +1.181173370e+002 +1.181173370e+002 -3.4973e+000 +1.8800e+000 -4.5948e-001 -3.6573e+000 +7.7348e-001 +3.8816e+000 -2.4325e-001 +4.4564e+000 -2.9471e+000 +4.0947e+000 -4.7512e+000 +3.9435e+000 -2.6537e+000 +4.5905e+000 +1.7924e+000 +4.8179e+000 -2.3436e+000 -4.0142e+000 +4.5695e+000 -7.4139e-001
22 0 +0.000000000e+000 -1.830200000e+002 -1.830200000e+002 +5.0000e+000 -5.0000e+000 -5.0000e+000 -5.0000e+000 -5.0000e+000 +5.0000e+000 -5.0000e+000 -5.0000e+000 +5.0000e+000 +5.0000e+000 +5.0000e+000 +5.0000e+000 +5.0000e+000 +5.0000e+000 +5.0000e+000 +5.0000e+000 +5.0000e+000 -5.0000e+000 +5.0000e+000 +5.0000e+000
% f evaluations | g evaluations | best noise-free fitness - Fopt (-1.026200000000e+002) + sum g_i+ | measured fitness | best measured fitness or single-digit g-values | x1 | x2...
1 0 +4.278723162e+002 +3.252523162e+002 +3.252523162e+002 +4.1368e+000 +2.6354e+000 -2.8978e+000 +5.8098e-001 -2.7323e+000 -8.0456e-001 -6.0823e-001 +1.8888e+000 +2.2295e+000 +4.9001e+000 +3.0288e+000 -2.2919e+000 +2.7570e+000 +2.8947e+000 +3.2260e+000 -3.8828e+000 +2.9316e+000 +3.2850e+000 +3.7282e+000 -4.2842e+000
3 0 +4.151079305e+002 +3.124879305e+002 +3.124879305e+002 +1.9541e+000 -4.1981e+000 -2.9915e+000 -3.4010e-001 +6.2351e-001 +2.1674e+000 -2.7927e+000 -4.5120e+000 -7.0920e-001 -1.1273e-001 +2.1848e+000 +4.5436e+000 -3.6990e-001 +1.3361e+000 +3.4888e+000 -3.9463e+000 -7.0457e-001 +2.5400e+000 -2.6624e+000 +2.0772e+000
6 0 +3.653967295e+002 +2.627767295e+002 +2.627767295e+002 +8.0353e-002 +2.8345e+000 -3.5356e+000 -3.3518e+000 -3.4198e+000 -2.2772e+000 -6.3747e-001 +1.4699e+000 +2.4950e+000 -3.3317e+000 -2.5267e+000 -4.6380e+000 +2.0963e+000 +1.8284e+000 -2.2059e+000 +2.5164e+000 -3.5244e+000 +1.7686e+000 -2.0123e+000 +2.9379e+000
7 0 +3.405056009e+002 +2.378856009e+002 +2.378856009e+002 -2.3251e+000 -3.3918e+000 +7.4712e-002 -2.9812e+000 +1.3811e+000 +1.4621e+000 +1.7921e-001 +1.9180e+000 +4.0749e+000 +2.0594e+000 +3.4866e+000 -8.8258e-001 +3.0752e+000 -9.4825e-001 +4.4035e+000 +4.6944e+000 -4.6630e-001 +1.7098e+000 -3.1986e+000 +2.5623e+000
11 0 +2.725952432e+002 +1.699752432e+002 +1.699752432e+002 -6.4459e-001 +9.7549e-001 -1.4050e+000 +9.5383e-001 +4.1627e+000 +2.5625e+000 -4.3387e+000 -3.1761e+000 +2.8310e+000 +1.8803e+000 -8.7630e-001 -4.6194e+000 +2.5638e+000 -3.1959e+000 -2.0929e+000 +2.3048e+000 -4.2907e+000 -2.9302e+000 -2.7589e+000 -2.7831e+000
22 0 +0.000000000e+000 -1.026200000e+002 -1.026200000e+002 -5.0000e+000 -5.0000e+000 -5.0000e+000 -5.0000e+000 +5.0000e+000 +5.0000e+000 +5.0000e+000 -5.0000e+000 +5.0000e+000 +5.0000e+000 +5.0000e+000 -5.0000e+000 -5.0000e+000 -5.0000e+000 -5.0000e+000 +5.0000e+000 -5.0000e+000 +5.0000e+000 -5.0000e+000 -5.0000e+000
% f evaluations | g evaluations | best noise-free fitness - Fopt (9.953000000000e+001) + sum g_i+ | measured fitness | best measured fitness or single-digit g-values | x1 | x2...
1 0 +4.527626129e+002 +5.522926129e+002 +5.522926129e+002 +1.2374e+000 -1.9785e+000 -2.6705e+000 -2.0413e+000 -3.0235e+000 -2.3639e+000 +1.0727e-001 -2.5312e+000 +2.6918e+000 -2.6524e+000 -2.7278e+000 +1.5301e+000 -2.0392e+000 -4.0054e+000 -8.8150e-001 +2.1178e-001 -3.0803e+000 -7.0511e-001 -1.7603e+000 -1.7970e+000
2 0 +3.113414411e+002 +4.108714411e+002 +4.108714411e+002 +2.1119e+000 +5.2607e-002 -9.5042e-001 +3.0905e+000 +2.2280e+000 +1.6020e-002 -4.1554e-001 +3.1309e+000 -4.1977e+000 -4.6818e+000 -3.3178e-001 +6.9261e-001 +2.9788e+000 -2.4432e+000 -2.1496e+000 -2.8015e+000 -3.4279e+000 +4.2595e+000 +1.9220e+000 +1.6211e+000
6 0 +2.557033801e+002 +3.552333801e+002 +3.552333801e+002 -1.2250e+000 +2.1239e+000 +2.6461e+000 -2.5882e+000 -4.1591e+000 -2.8750e+000 -1.2197e+000 +1.1374e+000 +1.2756e+000 -1.1369e+000 +2.9794e+000 -1.0294e+000 +3.3646e+000 +7.0332e-001 -1.8762e+000 +2.2452e+000 -4.6153e+000 +4.7442e+000 +4.4725e+000 +3.2586e+000
22 0 +0.000000000e+000 +9.953000000e+001 +9.953000000e+001 -5.0000e+000 -5.0000e+000 -5.0000e+000 +5.0000e+000 +5.0000e+000 +5.0000e+000 +5.0000e+000 -5.0000e+000 -5.0000e+000 -5.0000e+000 +5.0000e+000 +5.0000e+000 +5.0000e+000 +5.0000e+000 +5.0000e+000 +5.0000e+000 -5.0000e+000 +5.0000e+000 +5.0000e+000 +5.0000e+000
% f evaluations | g evaluations | best noise-free fitness - Fopt (1.495900000000e+002) + sum g_i+ | measured fitness | best measured fitness or single-digit g-values | x1 | x2...
1 0 +2.849870722e+002 +4.345770722e+002 +4.345770722e+002 +2.5199e+000 +4.0234e+000 -3.2052e+000 +1.1069e+000 -4.2051e+000 +3.8278e+000 +3.6886e+000 +4.4238e+000 -2.2798e+000 -4.1894e+000 -7.2709e-001 +1.4658e+000 +4.4899e+000 +8.2923e-001 -3.7507e+000 +1.7873e+000 +3.2082e+000 -1.7397e+000 -5.2855e-001 +1.6740e+000
22 0 +0.000000000e+000 +1.495900000e+002 +1.495900000e+002 -5.0000e+000 +5.0000e+000 -5.0000e+000 -5.0000e+000 +5.0000e+000 +5.0000e+000 +5.0000e+000 -5.0000e+000 +5.0000e+000 -5.0000e+000 +5.0000e+000 +5.0000e+000 +5.0000e+000 +5.0000e+000 -5.0000e+000 +5.0000e+000 +5.0000e+000 -5.0000e+000 +5.0000e+000 +5.0000e+000
% f evaluations | g evaluations | best noise-free fitness - Fopt (-1.000000000000e+003) + sum g_i+ | measured fitness | best measured fitness or single-digit g-values | x1 | x2...
1 0 +3.444919505e+002 -6.555080495e+002 -6.555080495e+002 -7.1838e-001 +4.2154e+000 -4.1743e+000 -4.1406e+000 +2.6297e+000 +4.0931e+000 +7.7473e-001 -3.5317e+000 -3.7622e+000 -3.2070e+000 -1.7719e+000 +9.0849e-001 +3.3499e+000 -4.3651e+000 -4.4672e+000 -2.9803e+000 -4.6685e+000 +4.0530e+000 +1.5968e+000 -9.1766e-001
5 0 +3.271324865e+002 -6.728675135e+002 -6.728675135e+002 +9.5936e-001 -3.8678e+000 -4.1120e+000 +3.3035e+000 +4.9880e+000 -4.8087e+000 +3.7325e+000 -1.7869e+000 +2.9322e+000 -2.4371e+000 -1.7203e+000 -3.4011e-001 +6.8680e-001 +3.3537e+000 -4.1240e+000 +3.9876e+000 -2.1446e+000 -3.6765e-002 +1.6356e+000 -1.0156e+000
8 0 +3.084911446e+002 -6.915088554e+002 -6.915088554e+002 +4.3801e+000 -2.3433e+000 +1.3201e+000 -3.1357e+000 +3.8849e+000 +5.5858e-001 +2.5548e+000 -4.1422e+000 -1.6628e+000 +2.3900e+000 +3.0948e-001 -3.8964e+000 -1.8899e+000 -2.8990e+000 -4.8300e+000 -1.7400e+000 +1.2272e+000 -2.1736e+000 -5.8321e-001 -1.9071e+000
22 0 +0.000000000e+000 -1.000000000e+003 -1.000000000e+003 +5.0000e+000 -5.0000e+000 -5.0000e+000 -5.0000e+000 +5.0000e+000 +5.0000e+000 +5.0000e+000 -5.0000e+000 +5.0000e+000 -5.0000e+000 +5.0000e+000 -5.0000e+000 +5.0000e+000 -5.0000e+000 -5.0000e+000 +5.0000e+000 -5.0000e+000 -5.0000e+000 -5.0000e+000 -5.0000e+000
% f evaluations | g evaluations | best noise-free fitness - Fopt (-2.922000000000e+001) + sum g_i+ | measured fitness | best measured fitness or single-digit g-values | x1 | x2...
1 0 +5.007414225e+002 +4.715214225e+002 +4.715214225e+002 +6.0234e-001 +1.8094e+000 +4.3119e+000 +1.0066e+000 -2.0427e+000 +5.4220e-001 +4.1012e-001 +2.0475e+000 -3.1548e+000 -3.6816e+000 -2.4033e+000 -6.3248e-001 -4.0995e+000 -4.5151e+000 +1.6832e+000 +2.0986e+000 +4.0302e+000 +2.2261e+000 +1.1213e+000 -4.8213e+000
2 0 +4.393046951e+002 +4.100846951e+002 +4.100846951e+002 -4.2033e+000 -2.4227e+000 -1.6493e+000 -3.2092e+000 -2.7481e+000 +1.8337e+000 -1.8526e+000 +1.2550e+000 +2.4028e+000 -6.1664e-001 -2.4872e+000 -3.2599e+000 +2.7241e+000 +4.8094e+000 -2.8398e+000 +1.5055e+000 +3.4335e+000 +4.8226e-001 +4.2367e+000 +3.2969e+000
4 0 +4.181170446e+002 +3.888970446e+002 +3.888970446e+002 +2.0764e+000 +8.3770e-001 -3.6271e+000 +1.0492e+000 +4.0093e+000 +1.0402e+000 +3.0209e+000 +2.0356e-001 +8.8199e-001 +4.1975e+000 -4.6145e+000 -1.9504e+000 +4.9138e+000 +4.1369e+000 +4.8550e+000 +3.8856e+000 -4.1897e+000 +1.6758e+000 -2.3737e+000 -2.1412e+000
5 0 +3.692003567e+002 +3.399803567e+002 +3.399803567e+002 -3.6562e-001 +1.0788e+000 +3.5766e+000 -1.1921e+000 -9.2259e-001 -3.1870e+000 -1.9799e+000 +2.9602e-001 +4.1725e-001 +9.1007e-001 +2.1582e-001 -1.5515e+000 +6.2408e-001 +4.4951e+000 -1.0517e+000 -2.0061e+000 -4.6885e+000 +1.8600e+000 -3.9811e+000 +2.2508e+000
6 0 +3.436619491e+002 +3.144419491e+002 +3.144419491e+002 +4.5290e+000 +1.8321e+000 +3.0685e+000 -1.2856e+000 -1.2465e+000 -8.6976e-001 -4.2086e+000 +4.3632e+000 +1.8606e+000 -2.0968e+000 +2.3082e+000 +3.8438e+000 +1.3442e+000 +7.0753e-001 -7.6812e-001 -7.1734e-001 -1.4001e+000 -1.1886e+000 -2.0918e-001 +2.6381e+000
8 0 +3.164340517e+002 +2.872140517e+002 +2.872140517e+002 +4.3007e-001 -3.6621e+000 -7.6637e-001 -1.1957e+000 -9.1512e-001 +2.9104e+000 +4.3395e+000 -4.1128e+000 -6.7220e-001 +3.8395e+000 +4.1700e+000 -3.2863e+000 +2.2341e-001 -2.5583e+000 +4.8096e+000 +1.4451e+000 -3.7297e+000 -2.1603e+000 +1.1764e-001 +4.5694e+000
11 0 +2.907677921e+002 +2.615477921e+002 +2.615477921e+002 -3.9962e+000 +2.4351e+000 +3.3404e+000 +1.7403e+000 +2.6789e+000 -3.5812e+000 -1.2518e+000 +2.8483e-001 -2.7123e+000 -2.8302e-001 +4.7504e-001 +2.3113e+000 +3.6910e+000 +2.6020e+000 -1.1208e+000 +3.2320e+000 +2.4620e-001 -1.5181e+000 -3.7171e+000 +1.8571e+000
22 0 +0.000000000e+000 -2.922000000e+001 -2.922000000e+001 -5.0000e+000 -5.0000e+000 -5.0000e+000 +5.0000e+000 +5.0000e+000 +5.0000e+000 -5.0000e+000 -5.0000e+000 -5.0000e+000 -5.0000e+000 +5.0000e+000 +5.0000e+000 +5.0000e+000 -5.0000e+000 -5.0000e+000 +5.0000e+000 -5.0000e+000 -5.0000e+000 -5.0000e+000 +5.0000e+000
% f evaluations | g evaluations | best noise-free fitness - Fopt (-4.096000000000e+001) + sum g_i+ | measured fitness | best measured fitness or single-digit g-values | x1 | x2...
1 0 +4.061079550e+002 +3.651479550e+002 +3.651479550e+002 +4.1270e+000 +1.3803e-001 -1.6119e+000 +2.1426e+000 -3.6839e+000 +1.9270e-001 +4.0762e+000 +2.0120e+000 -1.0619e+000 +1.2238e+000 +1.7372e+000 -3.7976e+000 +4.4648e+000 -4.2369e-001 +2.4536e+000 -2.4310e+000 -3.7622e+000 +3.9592e+000 +2.5145e+000 -1.1659e-001
5 0 +3.769077184e+002 +3.359477184e+002 +3.359477184e+002 +3.6147e+000 +3.6715e+000 +2.8298e-001 +3.2703e+000 +1.4509e+000 -3.3900e+000 -2.7690e-001 +3.5478e+000 -1.8317e+000 -1.6666e+000 +1.6430e+000 +4.3620e+000 -1.9939e+000 +1.8858e+000 -3.8604e+000 +3.0479e+000 +3.6152e+000 +1.4151e-002 -4.6538e+000 -3.7929e+000
8 0 +3.154373666e+002 +2.744773666e+002 +2.744773666e+002 -4.6704e+000 -3.9457e+000 +2.9509e+000 -2.6040e+000 -2.6967e+000 +3.6314e-001 +4.7102e+000 -2.8684e+000 +1.0680e+000 -4.3855e+000 -4.3139e+000 -3.8664e+000 -4.9971e+000 -5.9426e-001 +4.0675e+000 +3.3574e+000 +8.0235e-001 +2.5496e+000 +9.3307e-001 -2.6422e+000
16 0 +3.057655349e+002 +2.648055349e+002 +2.648055349e+002 +8.0140e-001 +3.8994e+000 +1.7903e+000 -4.1432e-001 -4.0603e+000 -3.3793e+000 +2.8473e+000 +3.5457e+000 -3.3890e+000 -1.8558e+000 +4.1130e+000 -8.5249e-001 -2.2118e-001 +2.5211e+000 +1.2595e+000 +4.5085e+000 -2.0171e-001 -4.4083e+000 -3.2245e+000 -2.4926e+000
22 0 +0.000000000e+000 -4.096000000e+001 -4.096000000e+001 +5.0000e+000 +5.0000e+000 +5.0000e+000 +5.0000e+000 -5.0000e+000 -5.0000e+000 +5.0000e+000 +5.0000e+000 +5.0000e+000 -5.0000e+000 -5.0000e+000 +5.0000e+000 -5.0000e+000 +5.0000e+000 +5.0000e+000 +5.0000e+000 -5.0000e+000 -5.0000e+000 +5.0000e+000 -5.0000e+000
