% f evaluations | g evaluations | best noise-free fitness - Fopt (-1.694000000000e+001) + sum g_i+ | measured fitness | best measured fitness or single-digit g-values | x1 | x2...
1 0 +1.398221148e+002 +1.228821148e+002 +1.228821148e+002 +5.0000e+000 +5.0000e+000
3 0 +1.016199963e+001 -6.778000370e+000 -6.778000370e+000 +5.0000e+000 -5.0000e+000
42 0 +3.328405425e+000 -1.361159458e+001 -1.361159458e+001 +3.1771e+000 +4.8492e+000
47 0 +2.073330354e+000 -1.486666965e+001 -1.486666965e+001 +3.6680e+000 +2.6947e+000
67 0 +1.821138978e+000 -1.511886102e+001 -1.511886102e+001 +3.6017e+000 +2.8849e+000
68 0 +1.459065606e+000 -1.548093439e+001 -1.548093439e+001 +3.6051e+000 +2.5148e+000
108 0 +9.775373047e-002 -1.684224627e+001 -1.684224627e+001 +3.6755e+000 +2.4557e+000
294 0 +6.312035900e-002 -1.687687964e+001 -1.687687964e+001 +3.6667e+000 +2.5022e+000
527 0 +6.132580232e-002 -1.687867420e+001 -1.687867420e+001 +3.6666e+000 +2.5023e+000
541 0 +3.762159645e-002 -1.690237840e+001 -1.690237840e+001 +3.6606e+000 +2.5234e+000
553 0 +1.883440143e-002 -1.692116560e+001 -1.692116560e+001 +3.6554e+000 +2.5498e+000
558 0 +1.640804248e-002 -1.692359196e+001 -1.692359196e+001 +3.6555e+000 +2.5494e+000
606 0 +1.221526812e-002 -1.692778473e+001 -1.692778473e+001 +3.6560e+000 +2.5511e+000
625 0 +8.085813473e-003 -1.693191419e+001 -1.693191419e+001 +3.6563e+000 +2.5495e+000
630 0 +7.454726234e-003 -1.693254527e+001 -1.693254527e+001 +3.6561e+000 +2.5495e+000
649 0 +3.747880324e-003 -1.693625212e+001 -1.693625212e+001 +3.6560e+000 +2.5490e+000
669 0 +3.425315494e-003 -1.693657468e+001 -1.693657468e+001 +3.6556e+000 +2.5515e+000
684 0 +3.030066732e-003 -1.693696993e+001 -1.693696993e+001 +3.6554e+000 +2.5523e+000
721 0 +1.634794063e-003 -1.693836521e+001 -1.693836521e+001 +3.6560e+000 +2.5496e+000
744 0 +1.538763000e-003 -1.693846124e+001 -1.693846124e+001 +3.6560e+000 +2.5495e+000
746 0 +1.252727360e-003 -1.693874727e+001 -1.693874727e+001 +3.6560e+000 +2.5493e+000
752 0 +1.003989345e-003 -1.693899601e+001 -1.693899601e+001 +3.6560e+000 +2.5496e+000
830 0 +4.624511173e-004 -1.693953755e+001 -1.693953755e+001 +3.6561e+000 +2.5493e+000
834 0 +3.361383262e-004 -1.693966386e+001 -1.693966386e+001 +3.6560e+000 +2.5494e+000
836 0 +2.833182069e-004 -1.693971668e+001 -1.693971668e+001 +3.6560e+000 +2.5494e+000
854 0 +2.325619486e-004 -1.693976744e+001 -1.693976744e+001 +3.6560e+000 +2.5494e+000
871 0 +5.457548255e-005 -1.693994542e+001 -1.693994542e+001 +3.6560e+000 +2.5496e+000
895 0 +5.196654207e-005 -1.693994803e+001 -1.693994803e+001 +3.6560e+000 +2.5496e+000
903 0 +3.323364710e-005 -1.693996677e+001 -1.693996677e+001 +3.6560e+000 +2.5496e+000
976 0 +2.652365264e-005 -1.693997348e+001 -1.693997348e+001 +3.6560e+000 +2.5496e+000
989 0 +2.491979247e-005 -1.693997508e+001 -1.693997508e+001 +3.6560e+000 +2.5496e+000
1027 0 +2.427700321e-005 -1.693997572e+001 -1.693997572e+001 +3.6560e+000 +2.5496e+000
1041 0 +1.917072225e-005 -1.693998083e+001 -1.693998083e+001 +3.6560e+000 +2.5496e+000
1088 0 +1.724412694e-006 -1.693999828e+001 -1.693999828e+001 +3.6560e+000 +2.5496e+000
1093 0 +7.602383363e-007 -1.693999924e+001 -1.693999924e+001 +3.6560e+000 +2.5496e+000
1123 0 +7.135447007e-007 -1.693999929e+001 -1.693999929e+001 +3.6560e+000 +2.5496e+000
1177 0 +6.952438980e-007 -1.693999930e+001 -1.693999930e+001 +3.6560e+000 +2.5496e+000
1188 0 +6.673202932e-007 -1.693999933e+001 -1.693999933e+001 +3.6560e+000 +2.5496e+000
1193 0 +5.735625024e-007 -1.693999943e+001 -1.693999943e+001 +3.6560e+000 +2.5496e+000
1240 0 +2.407787676e-007 -1.693999976e+001 -1.693999976e+001 +3.6560e+000 +2.5496e+000
1286 0 +1.726641727e-007 -1.693999983e+001 -1.693999983e+001 +3.6560e+000 +2.5496e+000
1304 0 +1.674641794e-007 -1.693999983e+001 -1.693999983e+001 +3.6560e+000 +2.5496e+000
1310 0 +1.453201968e-007 -1.693999985e+001 -1.693999985e+001 +3.6560e+000 +2.5496e+000
1316 0 +8.018206898e-008 -1.693999992e+001 -1.693999992e+001 +3.6560e+000 +2.5496e+000
1343 0 +7.173607841e-008 -1.693999993e+001 -1.693999993e+001 +3.6560e+000 +2.5496e+000
1363 0 +2.076105332e-008 -1.693999998e+001 -1.693999998e+001 +3.6560e+000 +2.5496e+000
1399 0 +1.934151683e-008 -1.693999998e+001 -1.693999998e+001 +3.6560e+000 +2.5496e+000
1404 0 +1.739789468e-008 -1.693999998e+001 -1.693999998e+001 +3.6560e+000 +2.5496e+000
1415 0 +1.684135853e-008 -1.693999998e+001 -1.693999998e+001 +3.6560e+000 +2.5496e+000
1421 0 +1.137226491e-008 -1.693999999e+001 -1.693999999e+001 +3.6560e+000 +2.5496e+000
1427 0 +7.571930638e-009 -1.693999999e+001 -1.693999999e+001 +3.6560e+000 +2.5496e+000
% f evaluations | g evaluations | best noise-free fitness - Fopt (1.881000000000e+001) + sum g_i+ | measured fitness | best measured fitness or single-digit g-values | x1 | x2...
1 0 +3.110602243e+002 +3.298702243e+002 +3.298702243e+002 -5.0000e+000 -5.0000e+000
5 0 +9.344844115e+001 +1.122584411e+002 +1.122584411e+002 -4.0781e+000 +3.5347e+000
6 0 +9.054514655e+001 +1.093551465e+002 +1.093551465e+002 -4.2984e+000 -1.3807e-001
30 0 +5.763194516e+001 +7.644194516e+001 +7.644194516e+001 -3.9232e+000 +3.1075e-001
31 0 +5.745243901e+001 +7.626243901e+001 +7.626243901e+001 -3.9230e+000 +3.1101e-001
41 0 +4.625131991e+001 +6.506131991e+001 +6.506131991e+001 -4.5519e+000 +1.3321e+000
46 0 +2.989715805e+001 +4.870715805e+001 +4.870715805e+001 -4.2183e+000 +1.7149e+000
48 0 +4.314138123e+000 +2.312413812e+001 +2.312413812e+001 -4.1884e+000 +1.9847e+000
190 0 +4.086719358e+000 +2.289671936e+001 +2.289671936e+001 -4.1170e+000 +1.9766e+000
214 0 +4.008655816e+000 +2.281865582e+001 +2.281865582e+001 -4.1334e+000 +1.9784e+000
1947 0 +3.678096368e+000 +2.248809637e+001 +2.248809637e+001 -3.2514e+000 +1.9506e+000
1958 0 +3.485976441e+000 +2.229597644e+001 +2.229597644e+001 -3.2559e+000 +1.9487e+000
1976 0 +2.744336037e+000 +2.155433604e+001 +2.155433604e+001 -2.4296e+000 +1.8592e+000
2000 0 +1.394315283e+000 +2.020431528e+001 +2.020431528e+001 -1.1061e+000 +1.7895e+000
2030 0 +1.171464004e+000 +1.998146400e+001 +1.998146400e+001 +5.8955e-001 +1.6844e+000
2075 0 +5.511562224e-001 +1.936115622e+001 +1.936115622e+001 -4.0378e-001 +1.8054e+000
2193 0 +2.850604901e-001 +1.909506049e+001 +1.909506049e+001 -1.3552e-001 +1.7795e+000
2245 0 +1.870308952e-001 +1.899703090e+001 +1.899703090e+001 -1.7733e-001 +1.7825e+000
2309 0 +1.786576916e-001 +1.898865769e+001 +1.898865769e+001 -1.7683e-001 +1.7811e+000
2311 0 +7.687834628e-003 +1.881768783e+001 +1.881768783e+001 -1.9069e-001 +1.7810e+000
2386 0 +7.548282728e-003 +1.881754828e+001 +1.881754828e+001 -1.9009e-001 +1.7809e+000
2446 0 +7.314240414e-003 +1.881731424e+001 +1.881731424e+001 -1.9048e-001 +1.7807e+000
2447 0 +6.792291737e-003 +1.881679229e+001 +1.881679229e+001 -1.9098e-001 +1.7807e+000
2449 0 +1.398853702e-003 +1.881139885e+001 +1.881139885e+001 -1.9089e-001 +1.7808e+000
2464 0 +5.636071882e-004 +1.881056361e+001 +1.881056361e+001 -1.9086e-001 +1.7808e+000
2503 0 +2.402182244e-004 +1.881024022e+001 +1.881024022e+001 -1.9118e-001 +1.7808e+000
2552 0 +2.294885103e-004 +1.881022949e+001 +1.881022949e+001 -1.9142e-001 +1.7808e+000
4354 0 +5.102716693e-005 +1.881005103e+001 +1.881005103e+001 -1.9119e-001 +1.7808e+000
4401 0 +3.764366214e-005 +1.881003764e+001 +1.881003764e+001 -1.9118e-001 +1.7808e+000
4403 0 +3.510860695e-005 +1.881003511e+001 +1.881003511e+001 -1.9119e-001 +1.7808e+000
4405 0 +2.940407837e-005 +1.881002940e+001 +1.881002940e+001 -1.9119e-001 +1.7808e+000
4447 0 +2.878075237e-005 +1.881002878e+001 +1.881002878e+001 -1.9120e-001 +1.7808e+000
4476 0 +1.255157792e-005 +1.881001255e+001 +1.881001255e+001 -1.9120e-001 +1.7808e+000
4510 0 +4.810005755e-006 +1.881000481e+001 +1.881000481e+001 -1.9120e-001 +1.7808e+000
4514 0 +2.150594693e-006 +1.881000215e+001 +1.881000215e+001 -1.9120e-001 +1.7808e+000
4530 0 +1.090678857e-006 +1.881000109e+001 +1.881000109e+001 -1.9120e-001 +1.7808e+000
4576 0 +1.051513753e-006 +1.881000105e+001 +1.881000105e+001 -1.9120e-001 +1.7808e+000
4585 0 +8.736120947e-007 +1.881000087e+001 +1.881000087e+001 -1.9120e-001 +1.7808e+000
4587 0 +8.015928898e-007 +1.881000080e+001 +1.881000080e+001 -1.9120e-001 +1.7808e+000
4607 0 +6.652012274e-007 +1.881000067e+001 +1.881000067e+001 -1.9120e-001 +1.7808e+000
4616 0 +6.376497446e-007 +1.881000064e+001 +1.881000064e+001 -1.9120e-001 +1.7808e+000
4621 0 +2.237616137e-007 +1.881000022e+001 +1.881000022e+001 -1.9120e-001 +1.7808e+000
4692 0 +1.947890134e-007 +1.881000019e+001 +1.881000019e+001 -1.9120e-001 +1.7808e+000
4710 0 +1.261199856e-008 +1.881000001e+001 +1.881000001e+001 -1.9120e-001 +1.7808e+000
4716 0 +1.187726895e-008 +1.881000001e+001 +1.881000001e+001 -1.9120e-001 +1.7808e+000
4758 0 +5.660204749e-009 +1.881000001e+001 +1.881000001e+001 -1.9120e-001 +1.7808e+000
% f evaluations | g evaluations | best noise-free fitness - Fopt (2.731500000000e+002) + sum g_i+ | measured fitness | best measured fitness or single-digit g-values | x1 | x2...
1 0 +1.361099352e+002 +4.092599352e+002 +4.092599352e+002 -5.0000e+000 +5.0000e+000
4 0 +1.251861845e+002 +3.983361845e+002 +3.983361845e+002 -1.4055e+000 +1.9184e+000
5 0 +7.757886632e+001 +3.507288663e+002 +3.507288663e+002 -4.9825e+000 -4.3523e+000
6 0 +2.784291581e+001 +3.009929158e+002 +3.009929158e+002 -5.0000e+000 +9.5704e-002
7 0 +1.031111196e+001 +2.834611120e+002 +2.834611120e+002 -5.0000e+000 -8.1702e-003
8 0 +9.686762556e+000 +2.828367626e+002 +2.828367626e+002 -5.0000e+000 -2.4716e-003
370 0 +5.962182420e+000 +2.791121824e+002 +2.791121824e+002 -5.0000e+000 +3.8407e-001
405 0 +5.267001463e+000 +2.784170015e+002 +2.784170015e+002 -5.0000e+000 +5.3592e-001
406 0 +5.209204076e+000 +2.783592041e+002 +2.783592041e+002 -4.9925e+000 +5.4922e-001
407 0 +4.035199003e+000 +2.771851990e+002 +2.771851990e+002 -4.9925e+000 +8.5074e-001
1714 0 +1.872508772e+000 +2.750225088e+002 +2.750225088e+002 -4.1170e+000 +2.6878e+000
1799 0 +1.855707269e+000 +2.750057073e+002 +2.750057073e+002 -4.1170e+000 +2.6899e+000
1801 0 +1.751670160e+000 +2.749016702e+002 +2.749016702e+002 -3.7861e+000 +3.2575e+000
1829 0 +8.084947923e-001 +2.739584948e+002 +2.739584948e+002 -3.8242e+000 +3.1907e+000
1867 0 +7.696181098e-001 +2.739196181e+002 +2.739196181e+002 -3.8833e+000 +3.0894e+000
1957 0 +7.558801992e-001 +2.739058802e+002 +2.739058802e+002 -3.7861e+000 +3.3018e+000
1964 0 +5.496343587e-001 +2.736996344e+002 +2.736996344e+002 -3.7279e+000 +3.4015e+000
2025 0 +2.529971044e-001 +2.734029971e+002 +2.734029971e+002 -3.6448e+000 +3.6163e+000
2051 0 +1.010601962e-001 +2.732510602e+002 +2.732510602e+002 -3.5645e+000 +3.7947e+000
2069 0 +6.075058766e-002 +2.732107506e+002 +2.732107506e+002 -3.5644e+000 +3.7915e+000
2120 0 +3.868254814e-002 +2.731886825e+002 +2.731886825e+002 -3.5851e+000 +3.7431e+000
2174 0 +3.343842463e-002 +2.731834384e+002 +2.731834384e+002 -3.5799e+000 +3.7543e+000
2178 0 +2.236172014e-002 +2.731723617e+002 +2.731723617e+002 -3.5792e+000 +3.7549e+000
2200 0 +1.548874450e-002 +2.731654887e+002 +2.731654887e+002 -3.5797e+000 +3.7531e+000
2206 0 +1.287647065e-002 +2.731628765e+002 +2.731628765e+002 -3.5777e+000 +3.7577e+000
2254 0 +1.095714894e-002 +2.731609571e+002 +2.731609571e+002 -3.5775e+000 +3.7575e+000
2281 0 +8.444091587e-003 +2.731584441e+002 +2.731584441e+002 -3.5773e+000 +3.7578e+000
2298 0 +8.308053526e-003 +2.731583081e+002 +2.731583081e+002 -3.5773e+000 +3.7578e+000
2305 0 +7.873605188e-003 +2.731578736e+002 +2.731578736e+002 -3.5758e+000 +3.7610e+000
2317 0 +7.728654272e-003 +2.731577287e+002 +2.731577287e+002 -3.5760e+000 +3.7611e+000
2336 0 +3.387155087e-003 +2.731533872e+002 +2.731533872e+002 -3.5802e+000 +3.7515e+000
2363 0 +1.687257218e-003 +2.731516873e+002 +2.731516873e+002 -3.5794e+000 +3.7530e+000
2367 0 +1.088131900e-003 +2.731510881e+002 +2.731510881e+002 -3.5795e+000 +3.7529e+000
2388 0 +2.634613485e-004 +2.731502635e+002 +2.731502635e+002 -3.5793e+000 +3.7534e+000
2407 0 +2.404990898e-004 +2.731502405e+002 +2.731502405e+002 -3.5791e+000 +3.7537e+000
2422 0 +2.323429945e-004 +2.731502323e+002 +2.731502323e+002 -3.5791e+000 +3.7537e+000
2543 0 +4.200439719e-005 +2.731500420e+002 +2.731500420e+002 -3.5792e+000 +3.7536e+000
2544 0 +3.483505435e-005 +2.731500348e+002 +2.731500348e+002 -3.5792e+000 +3.7536e+000
2552 0 +3.040301442e-005 +2.731500304e+002 +2.731500304e+002 -3.5792e+000 +3.7536e+000
2560 0 +2.918966430e-005 +2.731500292e+002 +2.731500292e+002 -3.5792e+000 +3.7536e+000
2666 0 +2.879737684e-005 +2.731500288e+002 +2.731500288e+002 -3.5792e+000 +3.7536e+000
2713 0 +2.816285661e-005 +2.731500282e+002 +2.731500282e+002 -3.5792e+000 +3.7536e+000
2721 0 +2.733295594e-005 +2.731500273e+002 +2.731500273e+002 -3.5792e+000 +3.7536e+000
2751 0 +6.564669150e-006 +2.731500066e+002 +2.731500066e+002 -3.5792e+000 +3.7536e+000
2767 0 +6.324295498e-006 +2.731500063e+002 +2.731500063e+002 -3.5792e+000 +3.7536e+000
2777 0 +5.314398720e-006 +2.731500053e+002 +2.731500053e+002 -3.5792e+000 +3.7536e+000
2778 0 +1.132663897e-006 +2.731500011e+002 +2.731500011e+002 -3.5792e+000 +3.7536e+000
2783 0 +1.093109461e-006 +2.731500011e+002 +2.731500011e+002 -3.5792e+000 +3.7536e+000
2790 0 +8.279419035e-007 +2.731500008e+002 +2.731500008e+002 -3.5792e+000 +3.7536e+000
2794 0 +7.413862022e-007 +2.731500007e+002 +2.731500007e+002 -3.5792e+000 +3.7536e+000
2802 0 +5.984494464e-007 +2.731500006e+002 +2.731500006e+002 -3.5792e+000 +3.7536e+000
2866 0 +4.788837487e-007 +2.731500005e+002 +2.731500005e+002 -3.5792e+000 +3.7536e+000
2869 0 +4.655542512e-007 +2.731500005e+002 +2.731500005e+002 -3.5792e+000 +3.7536e+000
2911 0 +3.786660159e-007 +2.731500004e+002 +2.731500004e+002 -3.5792e+000 +3.7536e+000
2916 0 +3.064485554e-007 +2.731500003e+002 +2.731500003e+002 -3.5792e+000 +3.7536e+000
2924 0 +2.194456101e-007 +2.731500002e+002 +2.731500002e+002 -3.5792e+000 +3.7536e+000
2949 0 +2.134903525e-007 +2.731500002e+002 +2.731500002e+002 -3.5792e+000 +3.7536e+000
2969 0 +1.225043889e-007 +2.731500001e+002 +2.731500001e+002 -3.5792e+000 +3.7536e+000
2979 0 +8.648521543e-008 +2.731500001e+002 +2.731500001e+002 -3.5792e+000 +3.7536e+000
2996 0 +8.431885590e-008 +2.731500001e+002 +2.731500001e+002 -3.5792e+000 +3.7536e+000
3005 0 +8.244870742e-008 +2.731500001e+002 +2.731500001e+002 -3.5792e+000 +3.7536e+000
3010 0 +3.839073770e-008 +2.731500000e+002 +2.731500000e+002 -3.5792e+000 +3.7536e+000
3048 0 +3.373156687e-008 +2.731500000e+002 +2.731500000e+002 -3.5792e+000 +3.7536e+000
3055 0 +2.919790631e-008 +2.731500000e+002 +2.731500000e+002 -3.5792e+000 +3.7536e+000
3057 0 +1.390583293e-008 +2.731500000e+002 +2.731500000e+002 -3.5792e+000 +3.7536e+000
3074 0 +1.212242751e-008 +2.731500000e+002 +2.731500000e+002 -3.5792e+000 +3.7536e+000
3098 0 +9.571522241e-009 +2.731500000e+002 +2.731500000e+002 -3.5792e+000 +3.7536e+000
% f evaluations | g evaluations | best noise-free fitness - Fopt (3.718000000000e+001) + sum g_i+ | measured fitness | best measured fitness or single-digit g-values | x1 | x2...
1 0 +5.091651049e+002 +5.463451049e+002 +5.463451049e+002 +5.0000e+000 -5.0000e+000
2 0 +2.330016233e+002 +2.701816233e+002 +2.701816233e+002 -5.0000e+000 -5.0000e+000
5 0 +1.380760944e+001 +5.098760944e+001 +5.098760944e+001 -4.3227e+000 +2.2338e+000
33 0 +1.339619886e+001 +5.057619886e+001 +5.057619886e+001 -4.3227e+000 +2.2348e+000
37 0 +1.288182416e+001 +5.006182416e+001 +5.006182416e+001 -4.4009e+000 +2.2293e+000
82 0 +9.805745296e+000 +4.698574530e+001 +4.698574530e+001 -4.3647e+000 +2.4294e+000
107 0 +6.400347147e+000 +4.358034715e+001 +4.358034715e+001 -3.9192e+000 +2.1329e+000
110 0 +5.481466500e+000 +4.266146650e+001 +4.266146650e+001 -4.1713e+000 +2.1830e+000
163 0 +4.060669899e+000 +4.124066990e+001 +4.124066990e+001 -4.5892e+000 +2.0970e+000
166 0 +2.747647170e+000 +3.992764717e+001 +3.992764717e+001 -3.9718e+000 +2.1107e+000
168 0 +1.452377747e+000 +3.863237775e+001 +3.863237775e+001 -4.0171e+000 +2.1234e+000
178 0 +7.745704444e-001 +3.795457044e+001 +3.795457044e+001 -4.2015e+000 +2.1110e+000
229 0 +2.433121717e-001 +3.742331217e+001 +3.742331217e+001 -3.9027e+000 +2.0698e+000
305 0 +1.331646715e-001 +3.731316467e+001 +3.731316467e+001 -3.9266e+000 +2.0599e+000
375 0 +3.814272482e-002 +3.721814272e+001 +3.721814272e+001 -3.9026e+000 +2.0593e+000
456 0 +3.207674733e-002 +3.721207675e+001 +3.721207675e+001 -3.8696e+000 +2.0585e+000
472 0 +1.667444328e-002 +3.719667444e+001 +3.719667444e+001 -3.8924e+000 +2.0589e+000
522 0 +1.640498242e-002 +3.719640498e+001 +3.719640498e+001 -3.8925e+000 +2.0589e+000
582 0 +1.188741913e-002 +3.719188742e+001 +3.719188742e+001 -3.8981e+000 +2.0600e+000
589 0 +8.059240663e-003 +3.718805924e+001 +3.718805924e+001 -3.8954e+000 +2.0599e+000
595 0 +5.916356979e-003 +3.718591636e+001 +3.718591636e+001 -3.8977e+000 +2.0599e+000
629 0 +4.124301124e-003 +3.718412430e+001 +3.718412430e+001 -3.8958e+000 +2.0597e+000
665 0 +4.037584903e-003 +3.718403758e+001 +3.718403758e+001 -3.8958e+000 +2.0597e+000
686 0 +3.969837434e-003 +3.718396984e+001 +3.718396984e+001 -3.8958e+000 +2.0597e+000
708 0 +1.599524747e-003 +3.718159952e+001 +3.718159952e+001 -3.8986e+000 +2.0600e+000
710 0 +1.127571933e-003 +3.718112757e+001 +3.718112757e+001 -3.8993e+000 +2.0600e+000
724 0 +6.711898423e-004 +3.718067119e+001 +3.718067119e+001 -3.8993e+000 +2.0600e+000
729 0 +5.450465046e-004 +3.718054505e+001 +3.718054505e+001 -3.8992e+000 +2.0600e+000
777 0 +3.573136614e-004 +3.718035731e+001 +3.718035731e+001 -3.8992e+000 +2.0600e+000
800 0 +3.003861925e-004 +3.718030039e+001 +3.718030039e+001 -3.8992e+000 +2.0600e+000
848 0 +2.734813377e-004 +3.718027348e+001 +3.718027348e+001 -3.8991e+000 +2.0600e+000
883 0 +2.534534595e-004 +3.718025345e+001 +3.718025345e+001 -3.8991e+000 +2.0600e+000
897 0 +2.477763961e-004 +3.718024778e+001 +3.718024778e+001 -3.8991e+000 +2.0600e+000
922 0 +2.362222691e-004 +3.718023622e+001 +3.718023622e+001 -3.8991e+000 +2.0600e+000
960 0 +2.306545033e-004 +3.718023065e+001 +3.718023065e+001 -3.8991e+000 +2.0600e+000
965 0 +1.242805659e-004 +3.718012428e+001 +3.718012428e+001 -3.8991e+000 +2.0600e+000
975 0 +8.654578165e-005 +3.718008655e+001 +3.718008655e+001 -3.8992e+000 +2.0600e+000
990 0 +4.861835662e-005 +3.718004862e+001 +3.718004862e+001 -3.8992e+000 +2.0600e+000
1024 0 +2.939064210e-005 +3.718002939e+001 +3.718002939e+001 -3.8992e+000 +2.0600e+000
1084 0 +2.550297405e-005 +3.718002550e+001 +3.718002550e+001 -3.8992e+000 +2.0600e+000
1097 0 +9.030853079e-007 +3.718000090e+001 +3.718000090e+001 -3.8992e+000 +2.0600e+000
1111 0 +8.747225593e-007 +3.718000087e+001 +3.718000087e+001 -3.8992e+000 +2.0600e+000
1204 0 +6.379023816e-007 +3.718000064e+001 +3.718000064e+001 -3.8992e+000 +2.0600e+000
1235 0 +6.301357658e-007 +3.718000063e+001 +3.718000063e+001 -3.8992e+000 +2.0600e+000
1240 0 +5.925393296e-007 +3.718000059e+001 +3.718000059e+001 -3.8992e+000 +2.0600e+000
1261 0 +5.637643881e-007 +3.718000056e+001 +3.718000056e+001 -3.8992e+000 +2.0600e+000
1278 0 +5.087515191e-007 +3.718000051e+001 +3.718000051e+001 -3.8992e+000 +2.0600e+000
1299 0 +4.423099114e-007 +3.718000044e+001 +3.718000044e+001 -3.8992e+000 +2.0600e+000
1319 0 +4.046185325e-007 +3.718000040e+001 +3.718000040e+001 -3.8992e+000 +2.0600e+000
1322 0 +3.946308098e-007 +3.718000039e+001 +3.718000039e+001 -3.8992e+000 +2.0600e+000
1331 0 +3.331357945e-007 +3.718000033e+001 +3.718000033e+001 -3.8992e+000 +2.0600e+000
1335 0 +1.712584918e-008 +3.718000002e+001 +3.718000002e+001 -3.8992e+000 +2.0600e+000
1427 0 +1.604496447e-008 +3.718000002e+001 +3.718000002e+001 -3.8992e+000 +2.0600e+000
1473 0 +1.211306255e-008 +3.718000001e+001 +3.718000001e+001 -3.8992e+000 +2.0600e+000
1483 0 +1.174177555e-008 +3.718000001e+001 +3.718000001e+001 -3.8992e+000 +2.0600e+000
1484 0 +9.325432870e-009 +3.718000001e+001 +3.718000001e+001 -3.8992e+000 +2.0600e+000
% f evaluations | g evaluations | best noise-free fitness - Fopt (-1.479000000000e+002) + sum g_i+ | measured fitness | best measured fitness or single-digit g-values | x1 | x2...
1 0 +1.191889459e+003 +1.043989459e+003 +1.043989459e+003 +5.0000e+000 -5.0000e+000
2 0 +6.881457039e+002 +5.402457039e+002 +5.402457039e+002 -5.0000e+000 -5.0000e+000
4 0 +1.651719977e+002 +1.727199774e+001 +1.727199774e+001 -3.3285e+000 -4.0317e+000
6 0 +1.005116619e+002 -4.738833813e+001 -4.738833813e+001 -1.1138e-001 -5.0000e+000
7 0 +9.795400095e+001 -4.994599905e+001 -4.994599905e+001 -8.0293e-001 -2.1489e+000
32 0 +3.482372100e+001 -1.130762790e+002 -1.130762790e+002 -1.4233e+000 -1.6093e+000
49 0 +1.385198968e+001 -1.340480103e+002 -1.340480103e+002 -1.5665e+000 -4.1394e-001
51 0 +1.305824843e+001 -1.348417516e+002 -1.348417516e+002 -1.5752e+000 +3.5029e-001
57 0 +1.734561373e+000 -1.461654386e+002 -1.461654386e+002 -1.6119e+000 +1.6121e-001
112 0 +1.079883752e+000 -1.468201162e+002 -1.468201162e+002 -1.6610e+000 +1.4799e-001
126 0 +9.167338615e-001 -1.469832661e+002 -1.469832661e+002 -1.6613e+000 +1.4792e-001
147 0 +5.025435911e-001 -1.473974564e+002 -1.473974564e+002 -1.7511e+000 +2.1482e-001
174 0 +4.477342734e-001 -1.474522657e+002 -1.474522657e+002 -1.9123e+000 +3.7404e-001
178 0 +4.148093566e-001 -1.474851906e+002 -1.474851906e+002 -1.7142e+000 +1.7218e-001
230 0 +1.744465979e-001 -1.477255534e+002 -1.477255534e+002 -1.6946e+000 +1.5845e-001
249 0 +1.337091964e-001 -1.477662908e+002 -1.477662908e+002 -1.6983e+000 +1.6375e-001
358 0 +3.508115406e-002 -1.478649188e+002 -1.478649188e+002 -1.6809e+000 +1.4636e-001
389 0 +2.396233028e-002 -1.478760377e+002 -1.478760377e+002 -1.6661e+000 +1.3043e-001
421 0 +1.880664204e-002 -1.478811934e+002 -1.478811934e+002 -1.6652e+000 +1.2972e-001
452 0 +1.847861645e-002 -1.478815214e+002 -1.478815214e+002 -1.6680e+000 +1.3218e-001
459 0 +1.725131628e-002 -1.478827487e+002 -1.478827487e+002 -1.6687e+000 +1.3284e-001
467 0 +1.279643137e-002 -1.478872036e+002 -1.478872036e+002 -1.6671e+000 +1.3233e-001
514 0 +6.358713856e-003 -1.478936413e+002 -1.478936413e+002 -1.6717e+000 +1.3655e-001
535 0 +1.241757279e-003 -1.478987582e+002 -1.478987582e+002 -1.6710e+000 +1.3578e-001
622 0 +1.004611763e-003 -1.478989954e+002 -1.478989954e+002 -1.6709e+000 +1.3566e-001
649 0 +9.878554620e-004 -1.478990121e+002 -1.478990121e+002 -1.6698e+000 +1.3457e-001
726 0 +5.200886242e-004 -1.478994799e+002 -1.478994799e+002 -1.6703e+000 +1.3508e-001
753 0 +5.035820240e-004 -1.478994964e+002 -1.478994964e+002 -1.6706e+000 +1.3542e-001
809 0 +2.984225650e-004 -1.478997016e+002 -1.478997016e+002 -1.6704e+000 +1.3517e-001
817 0 +2.332940917e-004 -1.478997667e+002 -1.478997667e+002 -1.6704e+000 +1.3517e-001
829 0 +2.134628911e-004 -1.478997865e+002 -1.478997865e+002 -1.6704e+000 +1.3517e-001
841 0 +1.278449838e-004 -1.478998722e+002 -1.478998722e+002 -1.6704e+000 +1.3516e-001
857 0 +6.056544908e-005 -1.478999394e+002 -1.478999394e+002 -1.6704e+000 +1.3517e-001
887 0 +2.915615852e-005 -1.478999708e+002 -1.478999708e+002 -1.6704e+000 +1.3518e-001
921 0 +2.878273037e-005 -1.478999712e+002 -1.478999712e+002 -1.6704e+000 +1.3519e-001
6132 0 +2.556756741e-005 -1.478999744e+002 -1.478999744e+002 -1.6704e+000 +1.3520e-001
6140 0 +2.430155678e-005 -1.478999757e+002 -1.478999757e+002 -1.6704e+000 +1.3520e-001
6148 0 +1.850438971e-005 -1.478999815e+002 -1.478999815e+002 -1.6704e+000 +1.3520e-001
6151 0 +1.708276702e-005 -1.478999829e+002 -1.478999829e+002 -1.6704e+000 +1.3520e-001
6158 0 +1.361855550e-005 -1.478999864e+002 -1.478999864e+002 -1.6704e+000 +1.3520e-001
6163 0 +7.404033965e-006 -1.478999926e+002 -1.478999926e+002 -1.6704e+000 +1.3520e-001
6168 0 +3.053662397e-006 -1.478999969e+002 -1.478999969e+002 -1.6704e+000 +1.3520e-001
6173 0 +2.573927219e-006 -1.478999974e+002 -1.478999974e+002 -1.6704e+000 +1.3520e-001
6194 0 +8.534306630e-007 -1.478999991e+002 -1.478999991e+002 -1.6704e+000 +1.3520e-001
6212 0 +7.916901836e-007 -1.478999992e+002 -1.478999992e+002 -1.6704e+000 +1.3520e-001
6216 0 +5.651312733e-007 -1.478999994e+002 -1.478999994e+002 -1.6704e+000 +1.3520e-001
6260 0 +4.114396575e-007 -1.478999996e+002 -1.478999996e+002 -1.6704e+000 +1.3520e-001
6268 0 +4.071922319e-007 -1.478999996e+002 -1.478999996e+002 -1.6704e+000 +1.3520e-001
6328 0 +2.552030764e-007 -1.478999997e+002 -1.478999997e+002 -1.6704e+000 +1.3520e-001
6336 0 +2.480852004e-007 -1.478999998e+002 -1.478999998e+002 -1.6704e+000 +1.3520e-001
6350 0 +9.523560607e-008 -1.478999999e+002 -1.478999999e+002 -1.6704e+000 +1.3520e-001
6374 0 +7.124694434e-008 -1.478999999e+002 -1.478999999e+002 -1.6704e+000 +1.3520e-001
6389 0 +2.450380521e-008 -1.479000000e+002 -1.479000000e+002 -1.6704e+000 +1.3520e-001
6407 0 +2.039715241e-008 -1.479000000e+002 -1.479000000e+002 -1.6704e+000 +1.3520e-001
6411 0 +6.276820841e-009 -1.479000000e+002 -1.479000000e+002 -1.6704e+000 +1.3520e-001
% f evaluations | g evaluations | best noise-free fitness - Fopt (4.817100000000e+002) + sum g_i+ | measured fitness | best measured fitness or single-digit g-values | x1 | x2...
1 0 +6.529345330e+003 +7.011055330e+003 +7.011055330e+003 -5.0000e+000 +5.0000e+000
2 0 +2.445836339e+003 +2.927546339e+003 +2.927546339e+003 +5.0000e+000 +5.0000e+000
3 0 +2.053227515e+002 +6.870327515e+002 +6.870327515e+002 -5.0000e+000 -5.0000e+000
5 0 +1.277174931e+001 +4.944817493e+002 +4.944817493e+002 +2.6351e+000 +2.8193e-001
32 0 +1.241460376e+001 +4.941246038e+002 +4.941246038e+002 +2.6350e+000 +2.8222e-001
42 0 +1.208336052e+001 +4.937933605e+002 +4.937933605e+002 +2.6346e+000 +2.8231e-001
47 0 +1.131486495e+001 +4.930248650e+002 +4.930248650e+002 +2.6342e+000 +2.8276e-001
64 0 +1.019874347e+001 +4.919087435e+002 +4.919087435e+002 +1.7556e+000 -5.2889e-001
65 0 +5.729153510e+000 +4.874391535e+002 +4.874391535e+002 +1.7859e+000 -6.3535e-001
75 0 +1.703815895e+000 +4.834138159e+002 +4.834138159e+002 +1.0249e+000 -3.3285e+000
86 0 +1.274012361e+000 +4.829840124e+002 +4.829840124e+002 +9.8664e-001 -3.3146e+000
98 0 +3.630411616e-001 +4.820730412e+002 +4.820730412e+002 +9.9083e-001 -3.3347e+000
321 0 +2.999832041e-001 +4.820099832e+002 +4.820099832e+002 +1.0404e+000 -2.7739e+000
333 0 +1.673692656e-001 +4.818773693e+002 +4.818773693e+002 +1.0354e+000 -2.9239e+000
356 0 +5.855112287e-002 +4.817685511e+002 +4.817685511e+002 +1.0416e+000 -2.9771e+000
376 0 +3.392121136e-002 +4.817439212e+002 +4.817439212e+002 +1.0405e+000 -2.9719e+000
426 0 +7.773272494e-003 +4.817177733e+002 +4.817177733e+002 +1.0410e+000 -2.9941e+000
507 0 +4.573855287e-003 +4.817145739e+002 +4.817145739e+002 +1.0411e+000 -2.9971e+000
548 0 +4.051510540e-003 +4.817140515e+002 +4.817140515e+002 +1.0411e+000 -2.9973e+000
567 0 +3.784323731e-003 +4.817137843e+002 +4.817137843e+002 +1.0411e+000 -2.9971e+000
576 0 +1.270765186e-003 +4.817112708e+002 +4.817112708e+002 +1.0408e+000 -3.0003e+000
607 0 +9.849032553e-004 +4.817109849e+002 +4.817109849e+002 +1.0408e+000 -3.0002e+000
698 0 +2.354654159e-004 +4.817102355e+002 +4.817102355e+002 +1.0408e+000 -3.0006e+000
701 0 +2.326437278e-004 +4.817102326e+002 +4.817102326e+002 +1.0408e+000 -3.0007e+000
8211 0 +3.199577486e-005 +4.817100320e+002 +4.817100320e+002 +1.0408e+000 -3.0008e+000
8276 0 +2.878565101e-005 +4.817100288e+002 +4.817100288e+002 +1.0408e+000 -3.0008e+000
8456 0 +2.261309868e-005 +4.817100226e+002 +4.817100226e+002 +1.0408e+000 -3.0008e+000
8463 0 +8.150628162e-006 +4.817100082e+002 +4.817100082e+002 +1.0408e+000 -3.0008e+000
8480 0 +6.940961327e-006 +4.817100069e+002 +4.817100069e+002 +1.0408e+000 -3.0008e+000
8481 0 +4.842550766e-006 +4.817100048e+002 +4.817100048e+002 +1.0408e+000 -3.0008e+000
8487 0 +4.527607416e-006 +4.817100045e+002 +4.817100045e+002 +1.0408e+000 -3.0008e+000
8490 0 +4.370185877e-006 +4.817100044e+002 +4.817100044e+002 +1.0408e+000 -3.0008e+000
8499 0 +3.180971760e-006 +4.817100032e+002 +4.817100032e+002 +1.0408e+000 -3.0008e+000
8515 0 +2.909268346e-006 +4.817100029e+002 +4.817100029e+002 +1.0408e+000 -3.0008e+000
8531 0 +7.869151091e-007 +4.817100008e+002 +4.817100008e+002 +1.0408e+000 -3.0008e+000
8534 0 +7.351814588e-007 +4.817100007e+002 +4.817100007e+002 +1.0408e+000 -3.0008e+000
8535 0 +6.368190384e-007 +4.817100006e+002 +4.817100006e+002 +1.0408e+000 -3.0008e+000
8573 0 +6.159755799e-007 +4.817100006e+002 +4.817100006e+002 +1.0408e+000 -3.0008e+000
8582 0 +5.462245554e-007 +4.817100005e+002 +4.817100005e+002 +1.0408e+000 -3.0008e+000
8587 0 +4.707533776e-007 +4.817100005e+002 +4.817100005e+002 +1.0408e+000 -3.0008e+000
8605 0 +2.490714905e-007 +4.817100002e+002 +4.817100002e+002 +1.0408e+000 -3.0008e+000
8624 0 +6.099128314e-008 +4.817100001e+002 +4.817100001e+002 +1.0408e+000 -3.0008e+000
8658 0 +5.611673259e-008 +4.817100001e+002 +4.817100001e+002 +1.0408e+000 -3.0008e+000
8676 0 +5.463471098e-008 +4.817100001e+002 +4.817100001e+002 +1.0408e+000 -3.0008e+000
8700 0 +4.652031294e-008 +4.817100000e+002 +4.817100000e+002 +1.0408e+000 -3.0008e+000
8746 0 +2.338504146e-008 +4.817100000e+002 +4.817100000e+002 +1.0408e+000 -3.0008e+000
8775 0 +1.037386710e-008 +4.817100000e+002 +4.817100000e+002 +1.0408e+000 -3.0008e+000
8782 0 +7.349569842e-009 +4.817100000e+002 +4.817100000e+002 +1.0408e+000 -3.0008e+000
% f evaluations | g evaluations | best noise-free fitness - Fopt (-3.646000000000e+001) + sum g_i+ | measured fitness | best measured fitness or single-digit g-values | x1 | x2...
1 0 +1.360155755e+002 +9.955557545e+001 +9.955557545e+001 +5.0000e+000 -5.0000e+000
7 0 +7.996596432e+001 +4.350596432e+001 +4.350596432e+001 +5.0000e+000 -3.6466e+000
30 0 +6.512566590e+001 +2.866566590e+001 +2.866566590e+001 +5.0000e+000 -4.1853e+000
36 0 +3.397025215e+001 -2.489747853e+000 -2.489747853e+000 +1.7555e+000 -2.7747e+000
44 0 +3.360990119e+001 -2.850098812e+000 -2.850098812e+000 +1.7555e+000 -3.6055e+000
45 0 +1.714331314e+001 -1.931668686e+001 -1.931668686e+001 +2.4820e+000 -3.6055e+000
48 0 +1.541954005e+001 -2.104045995e+001 -2.104045995e+001 +2.8081e+000 -3.4242e+000
49 0 +1.295191640e+001 -2.350808360e+001 -2.350808360e+001 +2.1487e+000 -3.5375e+000
50 0 +3.907995367e+000 -3.255200463e+001 -3.255200463e+001 +2.5334e+000 -3.5375e+000
60 0 +2.535935219e+000 -3.392406478e+001 -3.392406478e+001 +2.6457e+000 -3.4751e+000
106 0 +2.452139143e+000 -3.400786086e+001 -3.400786086e+001 +2.6279e+000 -3.4480e+000
115 0 +1.574344642e+000 -3.488565536e+001 -3.488565536e+001 +2.5941e+000 -3.5514e+000
118 0 +9.228148514e-001 -3.553718515e+001 -3.553718515e+001 +2.3108e+000 -3.1562e+000
132 0 +6.026453331e-001 -3.585735467e+001 -3.585735467e+001 +2.2299e+000 -2.9761e+000
221 0 +5.398020028e-001 -3.592019800e+001 -3.592019800e+001 +2.1232e+000 -2.8788e+000
232 0 +5.297670245e-001 -3.593023298e+001 -3.593023298e+001 +2.2920e+000 -3.1001e+000
271 0 +2.434342137e-001 -3.621656579e+001 -3.621656579e+001 +2.2501e+000 -3.0259e+000
390 0 +1.611829414e-001 -3.629881706e+001 -3.629881706e+001 +2.1704e+000 -2.9244e+000
408 0 +6.000036424e-002 -3.639999964e+001 -3.639999964e+001 +2.1090e+000 -2.8258e+000
410 0 +3.227820500e-002 -3.642772180e+001 -3.642772180e+001 +2.1075e+000 -2.8243e+000
413 0 +2.463179039e-002 -3.643536821e+001 -3.643536821e+001 +2.1159e+000 -2.8369e+000
470 0 +1.677827939e-002 -3.644322172e+001 -3.644322172e+001 +2.1254e+000 -2.8518e+000
588 0 +1.138067897e-002 -3.644861932e+001 -3.644861932e+001 +2.1252e+000 -2.8520e+000
605 0 +8.249984946e-003 -3.645175002e+001 -3.645175002e+001 +2.1237e+000 -2.8498e+000
612 0 +7.847812626e-003 -3.645215219e+001 -3.645215219e+001 +2.1232e+000 -2.8491e+000
646 0 +7.552850944e-003 -3.645244715e+001 -3.645244715e+001 +2.1205e+000 -2.8451e+000
659 0 +6.363945771e-003 -3.645363605e+001 -3.645363605e+001 +2.1203e+000 -2.8451e+000
681 0 +9.833461501e-004 -3.645901665e+001 -3.645901665e+001 +2.1216e+000 -2.8471e+000
728 0 +4.040684876e-004 -3.645959593e+001 -3.645959593e+001 +2.1216e+000 -2.8472e+000
754 0 +3.033858505e-004 -3.645969661e+001 -3.645969661e+001 +2.1214e+000 -2.8470e+000
774 0 +2.619212433e-004 -3.645973808e+001 -3.645973808e+001 +2.1215e+000 -2.8470e+000
838 0 +2.383640268e-004 -3.645976164e+001 -3.645976164e+001 +2.1217e+000 -2.8473e+000
862 0 +2.337730401e-004 -3.645976623e+001 -3.645976623e+001 +2.1217e+000 -2.8473e+000
963 0 +2.089332230e-004 -3.645979107e+001 -3.645979107e+001 +2.1216e+000 -2.8472e+000
981 0 +2.890358309e-005 -3.645997110e+001 -3.645997110e+001 +2.1216e+000 -2.8472e+000
1015 0 +2.877981127e-005 -3.645997122e+001 -3.645997122e+001 +2.1216e+000 -2.8472e+000
18843 0 +6.258908343e-007 -3.645999937e+001 -3.645999937e+001 +2.1216e+000 -2.8472e+000
18961 0 +5.593534098e-007 -3.645999944e+001 -3.645999944e+001 +2.1216e+000 -2.8472e+000
19100 0 +5.477505525e-007 -3.645999945e+001 -3.645999945e+001 +2.1216e+000 -2.8472e+000
19147 0 +4.899314447e-007 -3.645999951e+001 -3.645999951e+001 +2.1216e+000 -2.8472e+000
19152 0 +4.639106663e-007 -3.645999954e+001 -3.645999954e+001 +2.1216e+000 -2.8472e+000
19155 0 +4.213137927e-007 -3.645999958e+001 -3.645999958e+001 +2.1216e+000 -2.8472e+000
19169 0 +3.563328050e-007 -3.645999964e+001 -3.645999964e+001 +2.1216e+000 -2.8472e+000
19171 0 +3.210589057e-007 -3.645999968e+001 -3.645999968e+001 +2.1216e+000 -2.8472e+000
19178 0 +2.692577894e-007 -3.645999973e+001 -3.645999973e+001 +2.1216e+000 -2.8472e+000
19187 0 +1.146696746e-007 -3.645999989e+001 -3.645999989e+001 +2.1216e+000 -2.8472e+000
19201 0 +9.806338142e-008 -3.645999990e+001 -3.645999990e+001 +2.1216e+000 -2.8472e+000
19210 0 +8.275031860e-008 -3.645999992e+001 -3.645999992e+001 +2.1216e+000 -2.8472e+000
19220 0 +7.552049652e-008 -3.645999992e+001 -3.645999992e+001 +2.1216e+000 -2.8472e+000
19221 0 +5.201167141e-008 -3.645999995e+001 -3.645999995e+001 +2.1216e+000 -2.8472e+000
19245 0 +4.377469764e-008 -3.645999996e+001 -3.645999996e+001 +2.1216e+000 -2.8472e+000
19265 0 +3.339890498e-008 -3.645999997e+001 -3.645999997e+001 +2.1216e+000 -2.8472e+000
19270 0 +2.830633150e-008 -3.645999997e+001 -3.645999997e+001 +2.1216e+000 -2.8472e+000
19273 0 +2.558280698e-008 -3.645999997e+001 -3.645999997e+001 +2.1216e+000 -2.8472e+000
19288 0 +2.188950532e-008 -3.645999998e+001 -3.645999998e+001 +2.1216e+000 -2.8472e+000
19306 0 +2.136844302e-008 -3.645999998e+001 -3.645999998e+001 +2.1216e+000 -2.8472e+000
19308 0 +1.865116417e-008 -3.645999998e+001 -3.645999998e+001 +2.1216e+000 -2.8472e+000
19310 0 +9.978961657e-009 -3.645999999e+001 -3.645999999e+001 +2.1216e+000 -2.8472e+000
% f evaluations | g evaluations | best noise-free fitness - Fopt (3.920000000000e+001) + sum g_i+ | measured fitness | best measured fitness or single-digit g-values | x1 | x2...
1 0 +1.589333703e+002 +1.981333703e+002 +1.981333703e+002 +5.0000e+000 -5.0000e+000
3 0 +1.208160783e+002 +1.600160783e+002 +1.600160783e+002 +5.0000e+000 +5.0000e+000
6 0 +6.074493399e+001 +9.994493399e+001 +9.994493399e+001 +1.8111e+000 +3.4319e-002
7 0 +5.876728772e+001 +9.796728772e+001 +9.796728772e+001 +2.2730e+000 +3.1586e-001
8 0 +3.818959838e+001 +7.738959838e+001 +7.738959838e+001 +2.2828e+000 +8.4025e-001
12 0 +2.535499886e+001 +6.455499886e+001 +6.455499886e+001 +2.3945e+000 +1.0756e+000
14 0 +2.008588286e+001 +5.928588286e+001 +5.928588286e+001 +2.4063e+000 +8.6184e-001
18 0 +1.744175241e+001 +5.664175241e+001 +5.664175241e+001 +2.4296e+000 -1.1041e+000
38 0 +1.316864344e+001 +5.236864344e+001 +5.236864344e+001 +2.4640e+000 +1.8542e-001
44 0 +3.131214644e+000 +4.233121464e+001 +4.233121464e+001 +2.7324e+000 +3.2202e-001
114 0 +2.939291861e+000 +4.213929186e+001 +4.213929186e+001 +2.9161e+000 +5.3155e-001
144 0 +1.573895203e+000 +4.077389520e+001 +4.077389520e+001 +3.1045e+000 +7.9083e-001
155 0 +1.282550241e+000 +4.048255024e+001 +4.048255024e+001 +3.1104e+000 +7.8977e-001
174 0 +9.732176122e-001 +4.017321761e+001 +4.017321761e+001 +3.2251e+000 +9.5677e-001
200 0 +4.889475366e-001 +3.968894754e+001 +3.968894754e+001 +3.6329e+000 +1.5024e+000
232 0 +1.637176158e-001 +3.936371762e+001 +3.936371762e+001 +3.7917e+000 +1.7292e+000
366 0 +8.234336747e-002 +3.928234337e+001 +3.928234337e+001 +3.7263e+000 +1.6332e+000
377 0 +6.699527685e-002 +3.926699528e+001 +3.926699528e+001 +3.7315e+000 +1.6445e+000
498 0 +5.998616471e-002 +3.925998616e+001 +3.925998616e+001 +3.7409e+000 +1.6570e+000
544 0 +1.673485116e-002 +3.921673485e+001 +3.921673485e+001 +3.7302e+000 +1.6405e+000
567 0 +1.482507805e-002 +3.921482508e+001 +3.921482508e+001 +3.7241e+000 +1.6313e+000
584 0 +1.356517766e-002 +3.921356518e+001 +3.921356518e+001 +3.7284e+000 +1.6374e+000
638 0 +7.959579818e-003 +3.920795958e+001 +3.920795958e+001 +3.7276e+000 +1.6363e+000
642 0 +3.945314655e-003 +3.920394531e+001 +3.920394531e+001 +3.7208e+000 +1.6273e+000
660 0 +3.056362522e-003 +3.920305636e+001 +3.920305636e+001 +3.7217e+000 +1.6283e+000
677 0 +1.623160408e-003 +3.920162316e+001 +3.920162316e+001 +3.7233e+000 +1.6305e+000
730 0 +1.003510497e-003 +3.920100351e+001 +3.920100351e+001 +3.7226e+000 +1.6296e+000
779 0 +2.380401452e-004 +3.920023804e+001 +3.920023804e+001 +3.7232e+000 +1.6303e+000
877 0 +4.572729227e-005 +3.920004573e+001 +3.920004573e+001 +3.7232e+000 +1.6304e+000
882 0 +3.687375090e-005 +3.920003687e+001 +3.920003687e+001 +3.7232e+000 +1.6304e+000
916 0 +3.495398005e-005 +3.920003495e+001 +3.920003495e+001 +3.7232e+000 +1.6304e+000
934 0 +3.087717380e-005 +3.920003088e+001 +3.920003088e+001 +3.7232e+000 +1.6304e+000
964 0 +2.927274689e-005 +3.920002927e+001 +3.920002927e+001 +3.7232e+000 +1.6304e+000
999 0 +2.792894649e-005 +3.920002793e+001 +3.920002793e+001 +3.7232e+000 +1.6304e+000
1034 0 +1.668898904e-005 +3.920001669e+001 +3.920001669e+001 +3.7232e+000 +1.6304e+000
1058 0 +1.290106182e-005 +3.920001290e+001 +3.920001290e+001 +3.7232e+000 +1.6304e+000
1078 0 +7.902218613e-007 +3.920000079e+001 +3.920000079e+001 +3.7232e+000 +1.6304e+000
1086 0 +1.858810634e-007 +3.920000019e+001 +3.920000019e+001 +3.7232e+000 +1.6304e+000
1238 0 +1.649637724e-007 +3.920000016e+001 +3.920000016e+001 +3.7232e+000 +1.6304e+000
1253 0 +1.557150995e-007 +3.920000016e+001 +3.920000016e+001 +3.7232e+000 +1.6304e+000
1280 0 +5.130118552e-009 +3.920000001e+001 +3.920000001e+001 +3.7232e+000 +1.6304e+000
% f evaluations | g evaluations | best noise-free fitness - Fopt (-3.225000000000e+001) + sum g_i+ | measured fitness | best measured fitness or single-digit g-values | x1 | x2...
1 0 +6.541497780e+003 +6.509247780e+003 +6.509247780e+003 -5.0000e+000 -5.0000e+000
2 0 +2.933343619e+002 +2.610843619e+002 +2.610843619e+002 +5.0000e+000 -5.0000e+000
4 0 +2.235586197e+002 +1.913086197e+002 +1.913086197e+002 +5.0000e+000 +5.0000e+000
5 0 +2.140771313e+002 +1.818271313e+002 +1.818271313e+002 +2.3185e+000 -6.2061e-001
7 0 +1.918847758e+002 +1.596347758e+002 +1.596347758e+002 +5.0000e+000 +3.0733e+000
10 0 +1.207220703e+002 +8.847207025e+001 +8.847207025e+001 +4.7810e+000 +2.6012e+000
17 0 +9.980805673e+001 +6.755805673e+001 +6.755805673e+001 +4.7432e+000 +2.1868e+000
18 0 +4.224743398e+001 +9.997433975e+000 +9.997433975e+000 +4.5983e+000 +5.9935e-001
21 0 +1.803146471e+001 -1.421853529e+001 -1.421853529e+001 +4.5988e+000 +6.7106e-001
25 0 +1.257054376e+001 -1.967945624e+001 -1.967945624e+001 +4.9194e+000 +1.5180e+000
47 0 +4.430356442e+000 -2.781964356e+001 -2.781964356e+001 +3.1311e+000 +1.0860e+000
79 0 +3.148074392e+000 -2.910192561e+001 -2.910192561e+001 +4.3154e+000 +1.0735e+000
99 0 +2.757704939e+000 -2.949229506e+001 -2.949229506e+001 +4.3169e+000 +1.2471e+000
130 0 +2.164356152e+000 -3.008564385e+001 -3.008564385e+001 +4.7739e+000 +1.1941e+000
162 0 +6.441561979e-001 -3.160584380e+001 -3.160584380e+001 +3.2230e+000 +9.7097e-001
184 0 +1.870400031e-001 -3.206296000e+001 -3.206296000e+001 +3.4067e+000 +1.0140e+000
231 0 +1.829180311e-001 -3.206708197e+001 -3.206708197e+001 +3.4364e+000 +1.0191e+000
255 0 +1.765533171e-001 -3.207344668e+001 -3.207344668e+001 +3.4327e+000 +1.0189e+000
428 0 +1.343744041e-001 -3.211562560e+001 -3.211562560e+001 +3.6317e+000 +1.0644e+000
457 0 +1.301626486e-001 -3.211983735e+001 -3.211983735e+001 +3.6315e+000 +1.0643e+000
472 0 +3.705082804e-002 -3.221294917e+001 -3.221294917e+001 +3.6289e+000 +1.0665e+000
549 0 +3.355505817e-002 -3.221644494e+001 -3.221644494e+001 +3.6259e+000 +1.0660e+000
577 0 +2.540816495e-002 -3.222459184e+001 -3.222459184e+001 +3.6063e+000 +1.0637e+000
579 0 +1.782336542e-002 -3.223217663e+001 -3.223217663e+001 +3.6023e+000 +1.0631e+000
621 0 +1.706501800e-002 -3.223293498e+001 -3.223293498e+001 +3.5940e+000 +1.0613e+000
624 0 +7.067385555e-003 -3.224293261e+001 -3.224293261e+001 +3.5974e+000 +1.0618e+000
631 0 +6.695267796e-003 -3.224330473e+001 -3.224330473e+001 +3.5973e+000 +1.0618e+000
641 0 +3.407087661e-003 -3.224659291e+001 -3.224659291e+001 +3.5983e+000 +1.0619e+000
677 0 +3.317520338e-003 -3.224668248e+001 -3.224668248e+001 +3.5983e+000 +1.0619e+000
681 0 +3.113103691e-003 -3.224688690e+001 -3.224688690e+001 +3.5970e+000 +1.0617e+000
707 0 +3.031454850e-003 -3.224696855e+001 -3.224696855e+001 +3.5983e+000 +1.0619e+000
732 0 +1.819519102e-003 -3.224818048e+001 -3.224818048e+001 +3.5957e+000 +1.0616e+000
750 0 +9.916282628e-004 -3.224900837e+001 -3.224900837e+001 +3.5963e+000 +1.0617e+000
880 0 +4.202707854e-004 -3.224957973e+001 -3.224957973e+001 +3.5961e+000 +1.0616e+000
889 0 +4.039852026e-004 -3.224959601e+001 -3.224959601e+001 +3.5961e+000 +1.0616e+000
907 0 +2.936009114e-004 -3.224970640e+001 -3.224970640e+001 +3.5959e+000 +1.0616e+000
913 0 +2.497829504e-004 -3.224975022e+001 -3.224975022e+001 +3.5959e+000 +1.0616e+000
928 0 +1.823139904e-004 -3.224981769e+001 -3.224981769e+001 +3.5961e+000 +1.0616e+000
960 0 +1.805089608e-004 -3.224981949e+001 -3.224981949e+001 +3.5961e+000 +1.0616e+000
1042 0 +1.243178287e-004 -3.224987568e+001 -3.224987568e+001 +3.5960e+000 +1.0616e+000
1063 0 +1.194424830e-004 -3.224988056e+001 -3.224988056e+001 +3.5960e+000 +1.0616e+000
1071 0 +1.032464993e-004 -3.224989675e+001 -3.224989675e+001 +3.5960e+000 +1.0616e+000
1073 0 +3.597691014e-005 -3.224996402e+001 -3.224996402e+001 +3.5960e+000 +1.0616e+000
1077 0 +2.878459501e-005 -3.224997122e+001 -3.224997122e+001 +3.5960e+000 +1.0616e+000
1143 0 +2.485496077e-005 -3.224997515e+001 -3.224997515e+001 +3.5960e+000 +1.0616e+000
1153 0 +5.833099742e-006 -3.224999417e+001 -3.224999417e+001 +3.5960e+000 +1.0616e+000
1164 0 +5.192787562e-006 -3.224999481e+001 -3.224999481e+001 +3.5960e+000 +1.0616e+000
1192 0 +1.149696907e-006 -3.224999885e+001 -3.224999885e+001 +3.5960e+000 +1.0616e+000
1227 0 +9.704124935e-007 -3.224999903e+001 -3.224999903e+001 +3.5960e+000 +1.0616e+000
1242 0 +8.046562527e-007 -3.224999920e+001 -3.224999920e+001 +3.5960e+000 +1.0616e+000
1274 0 +6.664435901e-007 -3.224999933e+001 -3.224999933e+001 +3.5960e+000 +1.0616e+000
1279 0 +6.225412790e-007 -3.224999938e+001 -3.224999938e+001 +3.5960e+000 +1.0616e+000
1322 0 +5.408812029e-007 -3.224999946e+001 -3.224999946e+001 +3.5960e+000 +1.0616e+000
1326 0 +4.752041605e-007 -3.224999952e+001 -3.224999952e+001 +3.5960e+000 +1.0616e+000
1349 0 +4.622553718e-007 -3.224999954e+001 -3.224999954e+001 +3.5960e+000 +1.0616e+000
1388 0 +2.776001011e-007 -3.224999972e+001 -3.224999972e+001 +3.5960e+000 +1.0616e+000
1397 0 +2.103402892e-007 -3.224999979e+001 -3.224999979e+001 +3.5960e+000 +1.0616e+000
1411 0 +1.306788988e-007 -3.224999987e+001 -3.224999987e+001 +3.5960e+000 +1.0616e+000
1418 0 +1.279766053e-007 -3.224999987e+001 -3.224999987e+001 +3.5960e+000 +1.0616e+000
1446 0 +1.256658066e-007 -3.224999987e+001 -3.224999987e+001 +3.5960e+000 +1.0616e+000
1465 0 +8.088017012e-008 -3.224999992e+001 -3.224999992e+001 +3.5960e+000 +1.0616e+000
1476 0 +7.382543998e-008 -3.224999993e+001 -3.224999993e+001 +3.5960e+000 +1.0616e+000
1486 0 +4.905965767e-008 -3.224999995e+001 -3.224999995e+001 +3.5960e+000 +1.0616e+000
1510 0 +4.407153398e-008 -3.224999996e+001 -3.224999996e+001 +3.5960e+000 +1.0616e+000
1525 0 +2.500792817e-008 -3.224999997e+001 -3.224999997e+001 +3.5960e+000 +1.0616e+000
1534 0 +2.395098875e-008 -3.224999998e+001 -3.224999998e+001 +3.5960e+000 +1.0616e+000
1538 0 +9.572694637e-009 -3.224999999e+001 -3.224999999e+001 +3.5960e+000 +1.0616e+000
% f evaluations | g evaluations | best noise-free fitness - Fopt (3.681200000000e+002) + sum g_i+ | measured fitness | best measured fitness or single-digit g-values | x1 | x2...
1 0 +6.831462729e+002 +1.051266273e+003 +1.051266273e+003 +5.0000e+000 -5.0000e+000
3 0 +1.811112732e+002 +5.492312732e+002 +5.492312732e+002 +5.0000e+000 +5.0000e+000
6 0 +5.187778573e+001 +4.199977857e+002 +4.199977857e+002 +5.0000e+000 +8.8370e-001
60 0 +2.459301005e+001 +3.927130101e+002 +3.927130101e+002 +3.4621e+000 -6.2995e-002
61 0 +1.880249676e+001 +3.869224968e+002 +3.869224968e+002 +3.5336e+000 -2.8800e-001
72 0 +1.823122053e+001 +3.863512205e+002 +3.863512205e+002 +3.5345e+000 -3.0231e-001
105 0 +1.336726691e+001 +3.814872669e+002 +3.814872669e+002 +4.6586e+000 -5.5018e-001
133 0 +1.193890656e+001 +3.800589066e+002 +3.800589066e+002 +2.1317e+000 -1.0723e+000
135 0 +8.263146382e+000 +3.763831464e+002 +3.763831464e+002 +4.6586e+000 -6.3235e-001
144 0 +7.130480776e+000 +3.752504808e+002 +3.752504808e+002 +1.7678e+000 -7.8527e-001
167 0 +5.057050461e+000 +3.731770505e+002 +3.731770505e+002 +1.8801e+000 -9.5695e-001
193 0 +4.378604151e+000 +3.724986042e+002 +3.724986042e+002 -1.2238e+000 -1.1465e+000
235 0 +3.138879971e+000 +3.712588800e+002 +3.712588800e+002 -1.0372e+000 -1.1077e+000
236 0 +2.432644652e+000 +3.705526447e+002 +3.705526447e+002 -1.3002e-001 -9.5563e-001
251 0 +1.182445326e+000 +3.693024453e+002 +3.693024453e+002 -2.6306e+000 -1.0668e+000
258 0 +1.114587943e+000 +3.692345879e+002 +3.692345879e+002 -2.6305e+000 -1.0665e+000
364 0 +1.032065654e+000 +3.691520657e+002 +3.691520657e+002 -2.6739e+000 -1.0681e+000
397 0 +3.636486146e-001 +3.684836486e+002 +3.684836486e+002 -2.1097e+000 -1.0748e+000
412 0 +2.755817881e-001 +3.683955818e+002 +3.683955818e+002 -2.7129e+000 -1.1127e+000
437 0 +2.635525413e-001 +3.683835525e+002 +3.683835525e+002 -2.6994e+000 -1.1103e+000
483 0 +2.511249840e-001 +3.683711250e+002 +3.683711250e+002 -2.7019e+000 -1.1105e+000
498 0 +2.449298180e-001 +3.683649298e+002 +3.683649298e+002 -2.7035e+000 -1.1127e+000
506 0 +1.362498784e-001 +3.682562499e+002 +3.682562499e+002 -2.4763e+000 -1.0939e+000
527 0 +9.819490993e-002 +3.682181949e+002 +3.682181949e+002 -2.3784e+000 -1.0839e+000
537 0 +3.452514307e-002 +3.681545251e+002 +3.681545251e+002 -2.4496e+000 -1.0899e+000
625 0 +2.948261171e-002 +3.681494826e+002 +3.681494826e+002 -2.4763e+000 -1.0906e+000
653 0 +7.654229091e-003 +3.681276542e+002 +3.681276542e+002 -2.4567e+000 -1.0892e+000
693 0 +3.035359560e-004 +3.681203035e+002 +3.681203035e+002 -2.4635e+000 -1.0896e+000
866 0 +2.318573103e-004 +3.681202319e+002 +3.681202319e+002 -2.4632e+000 -1.0896e+000
1046 0 +3.671410366e-005 +3.681200367e+002 +3.681200367e+002 -2.4632e+000 -1.0896e+000
1048 0 +3.408914944e-005 +3.681200341e+002 +3.681200341e+002 -2.4632e+000 -1.0896e+000
1066 0 +3.060367379e-005 +3.681200306e+002 +3.681200306e+002 -2.4632e+000 -1.0896e+000
1073 0 +2.880442702e-005 +3.681200288e+002 +3.681200288e+002 -2.4632e+000 -1.0896e+000
1273 0 +4.532245839e-006 +3.681200045e+002 +3.681200045e+002 -2.4632e+000 -1.0896e+000
1294 0 +3.597469913e-006 +3.681200036e+002 +3.681200036e+002 -2.4632e+000 -1.0896e+000
1423 0 +1.124938024e-006 +3.681200011e+002 +3.681200011e+002 -2.4632e+000 -1.0896e+000
1447 0 +7.332494079e-007 +3.681200007e+002 +3.681200007e+002 -2.4632e+000 -1.0896e+000
1450 0 +6.581312846e-007 +3.681200007e+002 +3.681200007e+002 -2.4632e+000 -1.0896e+000
1517 0 +6.119734621e-007 +3.681200006e+002 +3.681200006e+002 -2.4632e+000 -1.0896e+000
1544 0 +5.648297474e-007 +3.681200006e+002 +3.681200006e+002 -2.4632e+000 -1.0896e+000
1553 0 +5.126786959e-007 +3.681200005e+002 +3.681200005e+002 -2.4632e+000 -1.0896e+000
1606 0 +4.883965516e-007 +3.681200005e+002 +3.681200005e+002 -2.4632e+000 -1.0896e+000
1620 0 +4.761191121e-007 +3.681200005e+002 +3.681200005e+002 -2.4632e+000 -1.0896e+000
1642 0 +1.894588308e-007 +3.681200002e+002 +3.681200002e+002 -2.4632e+000 -1.0896e+000
1691 0 +1.469509812e-007 +3.681200001e+002 +3.681200001e+002 -2.4632e+000 -1.0896e+000
1696 0 +7.278259773e-008 +3.681200001e+002 +3.681200001e+002 -2.4632e+000 -1.0896e+000
1703 0 +5.111286328e-008 +3.681200001e+002 +3.681200001e+002 -2.4632e+000 -1.0896e+000
1730 0 +4.216627758e-008 +3.681200000e+002 +3.681200000e+002 -2.4632e+000 -1.0896e+000
1739 0 +4.137950782e-008 +3.681200000e+002 +3.681200000e+002 -2.4632e+000 -1.0896e+000
1740 0 +4.034114909e-008 +3.681200000e+002 +3.681200000e+002 -2.4632e+000 -1.0896e+000
1741 0 +1.661891247e-008 +3.681200000e+002 +3.681200000e+002 -2.4632e+000 -1.0896e+000
1847 0 +1.625949153e-008 +3.681200000e+002 +3.681200000e+002 -2.4632e+000 -1.0896e+000
1851 0 +1.226487711e-008 +3.681200000e+002 +3.681200000e+002 -2.4632e+000 -1.0896e+000
1861 0 +1.174288400e-008 +3.681200000e+002 +3.681200000e+002 -2.4632e+000 -1.0896e+000
1863 0 +6.268862762e-009 +3.681200000e+002 +3.681200000e+002 -2.4632e+000 -1.0896e+000
% f evaluations | g evaluations | best noise-free fitness - Fopt (4.739000000000e+001) + sum g_i+ | measured fitness | best measured fitness or single-digit g-values | x1 | x2...
1 0 +3.939690098e+003 +3.987080098e+003 +3.987080098e+003 -5.0000e+000 +5.0000e+000
2 0 +4.213612375e+002 +4.687512375e+002 +4.687512375e+002 +5.0000e+000 +5.0000e+000
3 0 +3.664188680e+001 +8.403188680e+001 +8.403188680e+001 -5.0000e+000 -5.0000e+000
6 0 +2.534124826e+001 +7.273124826e+001 +7.273124826e+001 +1.2397e-016 +5.0000e+000
33 0 +2.019958051e+001 +6.758958051e+001 +6.758958051e+001 -2.5000e+000 +6.2771e-007
37 0 +1.310270069e+001 +6.049270069e+001 +6.049270069e+001 -2.2281e+000 -1.0208e+000
61 0 +2.516252151e+000 +4.990625215e+001 +4.990625215e+001 -2.2301e-001 +3.1925e+000
130 0 +7.686105919e-001 +4.815861059e+001 +4.815861059e+001 -2.4327e-001 +3.2020e+000
146 0 +1.786525191e-001 +4.756865252e+001 +4.756865252e+001 -4.9671e-001 +2.6198e+000
290 0 +9.241778317e-002 +4.748241778e+001 +4.748241778e+001 -4.9568e-001 +2.6354e+000
392 0 +2.642518142e-002 +4.741642518e+001 +4.741642518e+001 -4.9975e-001 +2.6244e+000
414 0 +1.739680245e-002 +4.740739680e+001 +4.740739680e+001 -5.0190e-001 +2.6201e+000
514 0 +1.636393088e-002 +4.740636393e+001 +4.740636393e+001 -5.0071e-001 +2.6223e+000
515 0 +7.886804261e-003 +4.739788680e+001 +4.739788680e+001 -5.0028e-001 +2.6239e+000
519 0 +7.599776465e-003 +4.739759978e+001 +4.739759978e+001 -5.0010e-001 +2.6243e+000
553 0 +7.569932762e-003 +4.739756993e+001 +4.739756993e+001 -5.0015e-001 +2.6242e+000
591 0 +3.956403889e-003 +4.739395640e+001 +4.739395640e+001 -4.9876e-001 +2.6273e+000
600 0 +1.096261582e-003 +4.739109626e+001 +4.739109626e+001 -4.9783e-001 +2.6292e+000
606 0 +1.035172524e-003 +4.739103517e+001 +4.739103517e+001 -4.9784e-001 +2.6292e+000
643 0 +4.192577427e-004 +4.739041926e+001 +4.739041926e+001 -4.9757e-001 +2.6297e+000
700 0 +3.115309143e-004 +4.739031153e+001 +4.739031153e+001 -4.9753e-001 +2.6297e+000
713 0 +3.048398497e-004 +4.739030484e+001 +4.739030484e+001 -4.9770e-001 +2.6294e+000
754 0 +2.608256266e-004 +4.739026083e+001 +4.739026083e+001 -4.9760e-001 +2.6296e+000
762 0 +2.298991401e-004 +4.739022990e+001 +4.739022990e+001 -4.9757e-001 +2.6297e+000
782 0 +2.011441827e-004 +4.739020114e+001 +4.739020114e+001 -4.9760e-001 +2.6296e+000
811 0 +1.897938594e-004 +4.739018979e+001 +4.739018979e+001 -4.9759e-001 +2.6296e+000
816 0 +3.026325152e-005 +4.739003026e+001 +4.739003026e+001 -4.9759e-001 +2.6296e+000
873 0 +2.950425505e-005 +4.739002950e+001 +4.739002950e+001 -4.9759e-001 +2.6296e+000
892 0 +2.880408655e-005 +4.739002880e+001 +4.739002880e+001 -4.9759e-001 +2.6296e+000
5368 0 +1.522354580e-005 +4.739001522e+001 +4.739001522e+001 -4.9760e-001 +2.6296e+000
5369 0 +9.769274399e-006 +4.739000977e+001 +4.739000977e+001 -4.9760e-001 +2.6296e+000
5370 0 +5.493675161e-006 +4.739000549e+001 +4.739000549e+001 -4.9760e-001 +2.6296e+000
5384 0 +2.585732808e-006 +4.739000259e+001 +4.739000259e+001 -4.9760e-001 +2.6296e+000
5386 0 +2.210846944e-006 +4.739000221e+001 +4.739000221e+001 -4.9760e-001 +2.6296e+000
5402 0 +1.801185647e-006 +4.739000180e+001 +4.739000180e+001 -4.9760e-001 +2.6296e+000
5410 0 +1.463958355e-006 +4.739000146e+001 +4.739000146e+001 -4.9760e-001 +2.6296e+000
5412 0 +1.417534300e-006 +4.739000142e+001 +4.739000142e+001 -4.9760e-001 +2.6296e+000
5416 0 +8.403841321e-007 +4.739000084e+001 +4.739000084e+001 -4.9760e-001 +2.6296e+000
5418 0 +7.416430847e-007 +4.739000074e+001 +4.739000074e+001 -4.9760e-001 +2.6296e+000
5431 0 +5.538985164e-007 +4.739000055e+001 +4.739000055e+001 -4.9760e-001 +2.6296e+000
5458 0 +5.487673462e-007 +4.739000055e+001 +4.739000055e+001 -4.9760e-001 +2.6296e+000
5459 0 +4.305509478e-007 +4.739000043e+001 +4.739000043e+001 -4.9760e-001 +2.6296e+000
5516 0 +4.110823753e-007 +4.739000041e+001 +4.739000041e+001 -4.9760e-001 +2.6296e+000
5524 0 +1.905941076e-007 +4.739000019e+001 +4.739000019e+001 -4.9760e-001 +2.6296e+000
5536 0 +1.591387004e-007 +4.739000016e+001 +4.739000016e+001 -4.9760e-001 +2.6296e+000
5542 0 +1.286157669e-007 +4.739000013e+001 +4.739000013e+001 -4.9760e-001 +2.6296e+000
5581 0 +1.146977766e-007 +4.739000011e+001 +4.739000011e+001 -4.9760e-001 +2.6296e+000
5599 0 +9.565864900e-008 +4.739000010e+001 +4.739000010e+001 -4.9760e-001 +2.6296e+000
5621 0 +9.501223985e-008 +4.739000010e+001 +4.739000010e+001 -4.9760e-001 +2.6296e+000
5622 0 +7.968411353e-008 +4.739000008e+001 +4.739000008e+001 -4.9760e-001 +2.6296e+000
5627 0 +2.711291103e-008 +4.739000003e+001 +4.739000003e+001 -4.9760e-001 +2.6296e+000
5636 0 +2.566892476e-008 +4.739000003e+001 +4.739000003e+001 -4.9760e-001 +2.6296e+000
5652 0 +2.447227843e-008 +4.739000002e+001 +4.739000002e+001 -4.9760e-001 +2.6296e+000
5670 0 +2.376048513e-008 +4.739000002e+001 +4.739000002e+001 -4.9760e-001 +2.6296e+000
5672 0 +2.320648917e-008 +4.739000002e+001 +4.739000002e+001 -4.9760e-001 +2.6296e+000
5683 0 +2.828869583e-009 +4.739000000e+001 +4.739000000e+001 -4.9760e-001 +2.6296e+000
% f evaluations | g evaluations | best noise-free fitness - Fopt (-3.428900000000e+002) + sum g_i+ | measured fitness | best measured fitness or single-digit g-values | x1 | x2...
1 0 +1.551007849e+002 -1.877892151e+002 -1.877892151e+002 +5.0000e+000 -5.0000e+000
4 0 +6.096824942e+000 -3.367931751e+002 -3.367931751e+002 +2.5782e+000 -2.2152e+000
30 0 +1.052231689e+000 -3.418377683e+002 -3.418377683e+002 +2.5887e+000 -2.2404e+000
50 0 +7.434814843e-001 -3.421465185e+002 -3.421465185e+002 +2.6690e+000 -2.1762e+000
138 0 +5.396425283e-001 -3.423503575e+002 -3.423503575e+002 +2.5662e+000 -2.3152e+000
233 0 +4.232291306e-001 -3.424667709e+002 -3.424667709e+002 +2.4778e+000 -2.4545e+000
263 0 +1.749437319e-001 -3.427150563e+002 -3.427150563e+002 +2.3548e+000 -2.6257e+000
277 0 +1.722946375e-001 -3.427177054e+002 -3.427177054e+002 +2.3528e+000 -2.6290e+000
298 0 +1.666860209e-001 -3.427233140e+002 -3.427233140e+002 +2.3465e+000 -2.6357e+000
356 0 +1.086843332e-001 -3.427813157e+002 -3.427813157e+002 +2.3207e+000 -2.6765e+000
363 0 +9.829953135e-002 -3.427917005e+002 -3.427917005e+002 +2.3041e+000 -2.6980e+000
382 0 +6.845527582e-002 -3.428215447e+002 -3.428215447e+002 +2.2678e+000 -2.7407e+000
400 0 +5.815458148e-002 -3.428318454e+002 -3.428318454e+002 +2.2220e+000 -2.8088e+000
445 0 +3.331583526e-002 -3.428566842e+002 -3.428566842e+002 +2.2417e+000 -2.7761e+000
500 0 +2.917302600e-002 -3.428608270e+002 -3.428608270e+002 +2.2470e+000 -2.7666e+000
508 0 +4.472978276e-003 -3.428855270e+002 -3.428855270e+002 +2.2449e+000 -2.7689e+000
613 0 +3.034025971e-003 -3.428869660e+002 -3.428869660e+002 +2.2443e+000 -2.7697e+000
619 0 +2.005414400e-003 -3.428879946e+002 -3.428879946e+002 +2.2444e+000 -2.7698e+000
633 0 +1.358562625e-003 -3.428886414e+002 -3.428886414e+002 +2.2444e+000 -2.7697e+000
641 0 +2.309969653e-004 -3.428897690e+002 -3.428897690e+002 +2.2441e+000 -2.7702e+000
10522 0 +3.516934260e-005 -3.428899648e+002 -3.428899648e+002 +2.2440e+000 -2.7704e+000
10526 0 +3.234488690e-005 -3.428899677e+002 -3.428899677e+002 +2.2440e+000 -2.7704e+000
10534 0 +2.877892143e-005 -3.428899712e+002 -3.428899712e+002 +2.2440e+000 -2.7704e+000
14852 0 +1.507498649e-005 -3.428899849e+002 -3.428899849e+002 +2.2440e+000 -2.7704e+000
14924 0 +1.352329912e-005 -3.428899865e+002 -3.428899865e+002 +2.2440e+000 -2.7704e+000
14925 0 +1.111317312e-005 -3.428899889e+002 -3.428899889e+002 +2.2440e+000 -2.7704e+000
14963 0 +7.682738442e-006 -3.428899923e+002 -3.428899923e+002 +2.2440e+000 -2.7704e+000
14969 0 +7.552504485e-006 -3.428899924e+002 -3.428899924e+002 +2.2440e+000 -2.7704e+000
14981 0 +6.561325563e-007 -3.428899993e+002 -3.428899993e+002 +2.2440e+000 -2.7704e+000
14998 0 +6.265260026e-007 -3.428899994e+002 -3.428899994e+002 +2.2440e+000 -2.7704e+000
15000 0 +5.917590329e-007 -3.428899994e+002 -3.428899994e+002 +2.2440e+000 -2.7704e+000
15020 0 +5.526263180e-007 -3.428899994e+002 -3.428899994e+002 +2.2440e+000 -2.7704e+000
15067 0 +4.328900900e-007 -3.428899996e+002 -3.428899996e+002 +2.2440e+000 -2.7704e+000
15081 0 +2.491142368e-007 -3.428899998e+002 -3.428899998e+002 +2.2440e+000 -2.7704e+000
15106 0 +1.267670200e-007 -3.428899999e+002 -3.428899999e+002 +2.2440e+000 -2.7704e+000
15175 0 +4.862823744e-008 -3.428900000e+002 -3.428900000e+002 +2.2440e+000 -2.7704e+000
15234 0 +4.531051445e-008 -3.428900000e+002 -3.428900000e+002 +2.2440e+000 -2.7704e+000
15242 0 +2.035972102e-008 -3.428900000e+002 -3.428900000e+002 +2.2440e+000 -2.7704e+000
15244 0 +1.796991000e-008 -3.428900000e+002 -3.428900000e+002 +2.2440e+000 -2.7704e+000
15276 0 +1.215198608e-008 -3.428900000e+002 -3.428900000e+002 +2.2440e+000 -2.7704e+000
15282 0 +9.717837202e-009 -3.428900000e+002 -3.428900000e+002 +2.2440e+000 -2.7704e+000
% f evaluations | g evaluations | best noise-free fitness - Fopt (9.102000000000e+001) + sum g_i+ | measured fitness | best measured fitness or single-digit g-values | x1 | x2...
1 0 +2.994330641e+002 +3.904530641e+002 +3.904530641e+002 +5.0000e+000 -5.0000e+000
2 0 +2.520659040e+002 +3.430859040e+002 +3.430859040e+002 -5.0000e+000 -5.0000e+000
3 0 +1.974434370e+002 +2.884634370e+002 +2.884634370e+002 +5.0000e+000 +5.0000e+000
5 0 +8.852586249e+001 +1.795458625e+002 +1.795458625e+002 +4.6290e+000 -2.0877e+000
8 0 +6.042356633e+001 +1.514435663e+002 +1.514435663e+002 +5.0000e+000 -8.8882e-001
32 0 +4.098182096e+001 +1.320018210e+002 +1.320018210e+002 +2.1204e+000 -1.2830e+000
36 0 +1.704398864e+001 +1.080639886e+002 +1.080639886e+002 +2.1204e+000 -6.5659e-001
41 0 +7.793935374e+000 +9.881393537e+001 +9.881393537e+001 +1.2288e+000 -8.3948e-001
69 0 +7.247402751e+000 +9.826740275e+001 +9.826740275e+001 +1.2007e+000 -5.1014e-001
86 0 +4.638138487e+000 +9.565813849e+001 +9.565813849e+001 +2.4086e+000 +8.5037e-002
101 0 +2.183756021e-001 +9.123837560e+001 +9.123837560e+001 +6.1886e-001 -8.5324e-001
174 0 +6.712169495e-002 +9.108712169e+001 +9.108712169e+001 +6.0124e-001 -8.5518e-001
256 0 +2.070874890e-002 +9.104070875e+001 +9.104070875e+001 +5.6339e-001 -8.7343e-001
401 0 +1.992373907e-002 +9.103992374e+001 +9.103992374e+001 +5.6433e-001 -8.7383e-001
466 0 +1.004835495e-002 +9.103004835e+001 +9.103004835e+001 +5.6386e-001 -8.7402e-001
491 0 +5.600346391e-003 +9.102560035e+001 +9.102560035e+001 +5.6024e-001 -8.7530e-001
569 0 +3.222470266e-003 +9.102322247e+001 +9.102322247e+001 +5.5989e-001 -8.7554e-001
581 0 +3.023002522e-003 +9.102302300e+001 +9.102302300e+001 +5.5918e-001 -8.7578e-001
607 0 +9.872359653e-004 +9.102098724e+001 +9.102098724e+001 +5.6146e-001 -8.7480e-001
688 0 +3.954577850e-004 +9.102039546e+001 +9.102039546e+001 +5.6232e-001 -8.7444e-001
717 0 +3.701987948e-004 +9.102037020e+001 +9.102037020e+001 +5.6233e-001 -8.7443e-001
739 0 +2.302515309e-004 +9.102023025e+001 +9.102023025e+001 +5.6229e-001 -8.7444e-001
822 0 +1.629402683e-004 +9.102016294e+001 +9.102016294e+001 +5.6242e-001 -8.7439e-001
859 0 +8.014880399e-005 +9.102008015e+001 +9.102008015e+001 +5.6244e-001 -8.7438e-001
866 0 +7.493469026e-005 +9.102007493e+001 +9.102007493e+001 +5.6244e-001 -8.7438e-001
920 0 +5.811298821e-005 +9.102005811e+001 +9.102005811e+001 +5.6244e-001 -8.7438e-001
972 0 +5.745822617e-005 +9.102005746e+001 +9.102005746e+001 +5.6244e-001 -8.7438e-001
993 0 +3.226183497e-005 +9.102003226e+001 +9.102003226e+001 +5.6243e-001 -8.7439e-001
1027 0 +3.042314351e-005 +9.102003042e+001 +9.102003042e+001 +5.6242e-001 -8.7439e-001
1052 0 +2.888379944e-005 +9.102002888e+001 +9.102002888e+001 +5.6242e-001 -8.7439e-001
1058 0 +2.878373679e-005 +9.102002878e+001 +9.102002878e+001 +5.6242e-001 -8.7439e-001
1109 0 +9.971010115e-007 +9.102000100e+001 +9.102000100e+001 +5.6240e-001 -8.7440e-001
1197 0 +8.513737697e-007 +9.102000085e+001 +9.102000085e+001 +5.6240e-001 -8.7440e-001
1203 0 +8.339597599e-007 +9.102000083e+001 +9.102000083e+001 +5.6240e-001 -8.7440e-001
1221 0 +7.076278052e-007 +9.102000071e+001 +9.102000071e+001 +5.6240e-001 -8.7440e-001
1241 0 +6.725115895e-007 +9.102000067e+001 +9.102000067e+001 +5.6240e-001 -8.7440e-001
1256 0 +5.001899126e-007 +9.102000050e+001 +9.102000050e+001 +5.6240e-001 -8.7440e-001
1294 0 +4.342645639e-007 +9.102000043e+001 +9.102000043e+001 +5.6240e-001 -8.7440e-001
1314 0 +3.159846784e-007 +9.102000032e+001 +9.102000032e+001 +5.6240e-001 -8.7440e-001
1323 0 +3.009474625e-007 +9.102000030e+001 +9.102000030e+001 +5.6240e-001 -8.7440e-001
1327 0 +2.294117678e-007 +9.102000023e+001 +9.102000023e+001 +5.6240e-001 -8.7440e-001
1335 0 +5.621785704e-008 +9.102000006e+001 +9.102000006e+001 +5.6240e-001 -8.7440e-001
1336 0 +5.421378546e-008 +9.102000005e+001 +9.102000005e+001 +5.6240e-001 -8.7440e-001
1389 0 +5.166981509e-008 +9.102000005e+001 +9.102000005e+001 +5.6240e-001 -8.7440e-001
1405 0 +4.011708654e-008 +9.102000004e+001 +9.102000004e+001 +5.6240e-001 -8.7440e-001
1406 0 +3.881046950e-008 +9.102000004e+001 +9.102000004e+001 +5.6240e-001 -8.7440e-001
1411 0 +3.499857826e-008 +9.102000003e+001 +9.102000003e+001 +5.6240e-001 -8.7440e-001
1423 0 +3.421091321e-008 +9.102000003e+001 +9.102000003e+001 +5.6240e-001 -8.7440e-001
1428 0 +3.262513815e-008 +9.102000003e+001 +9.102000003e+001 +5.6240e-001 -8.7440e-001
1430 0 +1.945946337e-008 +9.102000002e+001 +9.102000002e+001 +5.6240e-001 -8.7440e-001
1433 0 +8.309669397e-009 +9.102000001e+001 +9.102000001e+001 +5.6240e-001 -8.7440e-001
% f evaluations | g evaluations | best noise-free fitness - Fopt (7.324200000000e+002) + sum g_i+ | measured fitness | best measured fitness or single-digit g-values | x1 | x2...
1 0 +4.141437784e+002 +1.146563778e+003 +1.146563778e+003 -5.0000e+000 +5.0000e+000
2 0 +3.388992544e+002 +1.071319254e+003 +1.071319254e+003 +5.0000e+000 +5.0000e+000
4 0 +1.189211423e+002 +8.513411423e+002 +8.513411423e+002 -4.6016e-001 -2.3475e-001
5 0 +5.277821745e+001 +7.851982174e+002 +7.851982174e+002 -3.0641e+000 -1.3061e+000
31 0 +2.826306540e+001 +7.606830654e+002 +7.606830654e+002 -2.0321e+000 -1.8371e+000
43 0 +2.151199641e+001 +7.539319964e+002 +7.539319964e+002 -2.4020e+000 -2.3238e+000
60 0 +7.202736477e+000 +7.396227365e+002 +7.396227365e+002 -1.3836e+000 -3.6475e+000
61 0 +6.902692972e+000 +7.393226930e+002 +7.393226930e+002 -1.4395e+000 -3.4125e+000
123 0 +2.008234564e+000 +7.344282346e+002 +7.344282346e+002 -2.0418e+000 -3.1237e+000
157 0 +1.417606040e+000 +7.338376060e+002 +7.338376060e+002 -3.3449e+000 -1.7088e+000
222 0 +1.067340160e+000 +7.334873402e+002 +7.334873402e+002 -3.2449e+000 -1.8319e+000
267 0 +7.353231421e-001 +7.331553231e+002 +7.331553231e+002 -2.7669e+000 -2.3783e+000
317 0 +6.216348231e-001 +7.330416348e+002 +7.330416348e+002 -2.7356e+000 -2.4169e+000
346 0 +1.938114038e-001 +7.326138114e+002 +7.326138114e+002 -2.7356e+000 -2.3908e+000
367 0 +1.481541079e-001 +7.325681541e+002 +7.325681541e+002 -2.7380e+000 -2.3896e+000
404 0 +1.637456929e-002 +7.324363746e+002 +7.324363746e+002 -2.7350e+000 -2.3869e+000
492 0 +1.402851055e-002 +7.324340285e+002 +7.324340285e+002 -2.7352e+000 -2.3873e+000
618 0 +1.074750350e-002 +7.324307475e+002 +7.324307475e+002 -2.7351e+000 -2.3875e+000
675 0 +8.768622671e-003 +7.324287686e+002 +7.324287686e+002 -2.7351e+000 -2.3873e+000
820 0 +5.405138422e-003 +7.324254051e+002 +7.324254051e+002 -2.7401e+000 -2.3814e+000
881 0 +4.123304857e-003 +7.324241233e+002 +7.324241233e+002 -2.7403e+000 -2.3813e+000
899 0 +3.032452359e-003 +7.324230325e+002 +7.324230325e+002 -2.7377e+000 -2.3841e+000
953 0 +1.746853534e-003 +7.324217469e+002 +7.324217469e+002 -2.7395e+000 -2.3821e+000
973 0 +1.252515078e-003 +7.324212525e+002 +7.324212525e+002 -2.7393e+000 -2.3823e+000
995 0 +9.833872014e-004 +7.324209834e+002 +7.324209834e+002 -2.7393e+000 -2.3822e+000
1058 0 +3.289679587e-004 +7.324203290e+002 +7.324203290e+002 -2.7392e+000 -2.3824e+000
1079 0 +2.337166209e-004 +7.324202337e+002 +7.324202337e+002 -2.7393e+000 -2.3823e+000
1113 0 +3.006688860e-005 +7.324200301e+002 +7.324200301e+002 -2.7392e+000 -2.3824e+000
1154 0 +2.889860480e-005 +7.324200289e+002 +7.324200289e+002 -2.7392e+000 -2.3824e+000
1250 0 +2.881169951e-005 +7.324200288e+002 +7.324200288e+002 -2.7392e+000 -2.3824e+000
4942 0 +2.524285890e-005 +7.324200252e+002 +7.324200252e+002 -2.7392e+000 -2.3824e+000
4947 0 +2.255239042e-005 +7.324200226e+002 +7.324200226e+002 -2.7392e+000 -2.3824e+000
4950 0 +2.006424438e-005 +7.324200201e+002 +7.324200201e+002 -2.7392e+000 -2.3824e+000
4954 0 +1.185266217e-005 +7.324200119e+002 +7.324200119e+002 -2.7392e+000 -2.3824e+000
4955 0 +1.117877252e-005 +7.324200112e+002 +7.324200112e+002 -2.7392e+000 -2.3824e+000
4963 0 +1.064475350e-005 +7.324200106e+002 +7.324200106e+002 -2.7392e+000 -2.3824e+000
4967 0 +9.665388916e-006 +7.324200097e+002 +7.324200097e+002 -2.7392e+000 -2.3824e+000
4976 0 +5.534152592e-006 +7.324200055e+002 +7.324200055e+002 -2.7392e+000 -2.3824e+000
4983 0 +4.064434847e-006 +7.324200041e+002 +7.324200041e+002 -2.7392e+000 -2.3824e+000
4994 0 +3.611244892e-006 +7.324200036e+002 +7.324200036e+002 -2.7392e+000 -2.3824e+000
5004 0 +3.085605385e-006 +7.324200031e+002 +7.324200031e+002 -2.7392e+000 -2.3824e+000
5027 0 +2.126270147e-006 +7.324200021e+002 +7.324200021e+002 -2.7392e+000 -2.3824e+000
5047 0 +1.984671826e-006 +7.324200020e+002 +7.324200020e+002 -2.7392e+000 -2.3824e+000
5051 0 +1.936695298e-006 +7.324200019e+002 +7.324200019e+002 -2.7392e+000 -2.3824e+000
5052 0 +1.672172061e-006 +7.324200017e+002 +7.324200017e+002 -2.7392e+000 -2.3824e+000
5054 0 +1.124025971e-006 +7.324200011e+002 +7.324200011e+002 -2.7392e+000 -2.3824e+000
5059 0 +1.116108820e-006 +7.324200011e+002 +7.324200011e+002 -2.7392e+000 -2.3824e+000
5066 0 +9.212408258e-007 +7.324200009e+002 +7.324200009e+002 -2.7392e+000 -2.3824e+000
5071 0 +8.532891798e-007 +7.324200009e+002 +7.324200009e+002 -2.7392e+000 -2.3824e+000
5076 0 +6.750583452e-007 +7.324200007e+002 +7.324200007e+002 -2.7392e+000 -2.3824e+000
5077 0 +4.613547162e-007 +7.324200005e+002 +7.324200005e+002 -2.7392e+000 -2.3824e+000
5089 0 +4.336801567e-007 +7.324200004e+002 +7.324200004e+002 -2.7392e+000 -2.3824e+000
5101 0 +3.718638482e-007 +7.324200004e+002 +7.324200004e+002 -2.7392e+000 -2.3824e+000
5116 0 +2.889541975e-007 +7.324200003e+002 +7.324200003e+002 -2.7392e+000 -2.3824e+000
5143 0 +2.332031954e-007 +7.324200002e+002 +7.324200002e+002 -2.7392e+000 -2.3824e+000
5151 0 +1.676783086e-007 +7.324200002e+002 +7.324200002e+002 -2.7392e+000 -2.3824e+000
5158 0 +1.428394398e-007 +7.324200001e+002 +7.324200001e+002 -2.7392e+000 -2.3824e+000
5182 0 +7.701544291e-008 +7.324200001e+002 +7.324200001e+002 -2.7392e+000 -2.3824e+000
5234 0 +4.200762760e-008 +7.324200000e+002 +7.324200000e+002 -2.7392e+000 -2.3824e+000
5235 0 +2.998149284e-008 +7.324200000e+002 +7.324200000e+002 -2.7392e+000 -2.3824e+000
5238 0 +1.372848146e-008 +7.324200000e+002 +7.324200000e+002 -2.7392e+000 -2.3824e+000
5239 0 +8.080178304e-009 +7.324200000e+002 +7.324200000e+002 -2.7392e+000 -2.3824e+000
% f evaluations | g evaluations | best noise-free fitness - Fopt (3.542000000000e+001) + sum g_i+ | measured fitness | best measured fitness or single-digit g-values | x1 | x2...
1 0 +5.679170058e+002 +6.033370058e+002 +6.033370058e+002 +5.0000e+000 +5.0000e+000
3 0 +3.346457241e+002 +3.700657241e+002 +3.700657241e+002 +5.0000e+000 -5.0000e+000
5 0 +1.252557247e+002 +1.606757247e+002 +1.606757247e+002 +1.1381e+000 +5.0410e-001
6 0 +5.388010067e+001 +8.930010067e+001 +8.930010067e+001 +1.9962e+000 -1.5118e+000
32 0 +5.300301180e+001 +8.842301180e+001 +8.842301180e+001 +1.9972e+000 -1.5124e+000
34 0 +4.537194747e+001 +8.079194747e+001 +8.079194747e+001 +2.0324e+000 -1.5267e+000
36 0 +4.366186466e+001 +7.908186466e+001 +7.908186466e+001 +1.9962e+000 -1.9118e+000
37 0 +2.991183822e+001 +6.533183822e+001 +6.533183822e+001 +1.9933e+000 -2.0923e+000
44 0 +8.535941075e+000 +4.395594108e+001 +4.395594108e+001 +2.9330e+000 -2.8730e+000
49 0 +7.651451369e+000 +4.307145137e+001 +4.307145137e+001 +2.9343e+000 -2.8738e+000
50 0 +4.395987336e+000 +3.981598734e+001 +3.981598734e+001 +2.9420e+000 -2.6935e+000
55 0 +2.372316274e+000 +3.779231627e+001 +3.779231627e+001 +2.9431e+000 -2.6668e+000
71 0 +1.976262255e+000 +3.739626225e+001 +3.739626225e+001 +2.9424e+000 -2.7170e+000
94 0 +1.132413382e+000 +3.655241338e+001 +3.655241338e+001 +4.5543e+000 -1.9694e+000
157 0 +9.766345306e-001 +3.639663453e+001 +3.639663453e+001 +4.3463e+000 -2.1010e+000
173 0 +2.540242698e-001 +3.567402427e+001 +3.567402427e+001 +3.9913e+000 -2.2335e+000
314 0 +1.768445995e-001 +3.559684460e+001 +3.559684460e+001 +3.8480e+000 -2.2848e+000
362 0 +1.583253727e-001 +3.557832537e+001 +3.557832537e+001 +3.8462e+000 -2.2850e+000
364 0 +4.051780559e-002 +3.546051781e+001 +3.546051781e+001 +3.7132e+000 -2.3387e+000
420 0 +3.719209382e-002 +3.545719209e+001 +3.545719209e+001 +3.6781e+000 -2.3525e+000
436 0 +1.638167723e-002 +3.543638168e+001 +3.543638168e+001 +3.6898e+000 -2.3472e+000
513 0 +1.406670399e-002 +3.543406670e+001 +3.543406670e+001 +3.6894e+000 -2.3471e+000
520 0 +1.049533052e-002 +3.543049533e+001 +3.543049533e+001 +3.6943e+000 -2.3451e+000
523 0 +6.913669371e-003 +3.542691367e+001 +3.542691367e+001 +3.6877e+000 -2.3474e+000
534 0 +4.357956888e-003 +3.542435796e+001 +3.542435796e+001 +3.6862e+000 -2.3480e+000
556 0 +3.325529877e-003 +3.542332553e+001 +3.542332553e+001 +3.6862e+000 -2.3480e+000
562 0 +3.257166665e-003 +3.542325717e+001 +3.542325717e+001 +3.6888e+000 -2.3470e+000
619 0 +3.058909207e-003 +3.542305891e+001 +3.542305891e+001 +3.6870e+000 -2.3478e+000
625 0 +2.111118240e-003 +3.542211112e+001 +3.542211112e+001 +3.6869e+000 -2.3478e+000
628 0 +1.088360805e-003 +3.542108836e+001 +3.542108836e+001 +3.6872e+000 -2.3476e+000
641 0 +3.861835371e-004 +3.542038618e+001 +3.542038618e+001 +3.6864e+000 -2.3480e+000
642 0 +2.935832287e-004 +3.542029358e+001 +3.542029358e+001 +3.6863e+000 -2.3480e+000
667 0 +2.858310157e-004 +3.542028583e+001 +3.542028583e+001 +3.6863e+000 -2.3480e+000
669 0 +2.379585229e-004 +3.542023796e+001 +3.542023796e+001 +3.6864e+000 -2.3480e+000
696 0 +2.317527276e-004 +3.542023175e+001 +3.542023175e+001 +3.6865e+000 -2.3480e+000
787 0 +1.431253613e-004 +3.542014313e+001 +3.542014313e+001 +3.6864e+000 -2.3480e+000
788 0 +1.891035129e-005 +3.542001891e+001 +3.542001891e+001 +3.6864e+000 -2.3480e+000
789 0 +1.250171032e-005 +3.542001250e+001 +3.542001250e+001 +3.6864e+000 -2.3480e+000
798 0 +1.111674933e-005 +3.542001112e+001 +3.542001112e+001 +3.6864e+000 -2.3480e+000
799 0 +5.949900149e-006 +3.542000595e+001 +3.542000595e+001 +3.6864e+000 -2.3480e+000
811 0 +5.128739360e-006 +3.542000513e+001 +3.542000513e+001 +3.6864e+000 -2.3480e+000
815 0 +1.627265895e-006 +3.542000163e+001 +3.542000163e+001 +3.6864e+000 -2.3480e+000
856 0 +1.094592193e-006 +3.542000109e+001 +3.542000109e+001 +3.6864e+000 -2.3480e+000
939 0 +1.048660565e-006 +3.542000105e+001 +3.542000105e+001 +3.6864e+000 -2.3480e+000
985 0 +9.685041178e-007 +3.542000097e+001 +3.542000097e+001 +3.6864e+000 -2.3480e+000
990 0 +7.434120093e-007 +3.542000074e+001 +3.542000074e+001 +3.6864e+000 -2.3480e+000
992 0 +7.230563455e-007 +3.542000072e+001 +3.542000072e+001 +3.6864e+000 -2.3480e+000
1012 0 +6.755949613e-007 +3.542000068e+001 +3.542000068e+001 +3.6864e+000 -2.3480e+000
1018 0 +6.419525533e-007 +3.542000064e+001 +3.542000064e+001 +3.6864e+000 -2.3480e+000
1029 0 +5.933852165e-007 +3.542000059e+001 +3.542000059e+001 +3.6864e+000 -2.3480e+000
1045 0 +5.816090294e-007 +3.542000058e+001 +3.542000058e+001 +3.6864e+000 -2.3480e+000
1056 0 +5.669940464e-007 +3.542000057e+001 +3.542000057e+001 +3.6864e+000 -2.3480e+000
1059 0 +5.415782312e-007 +3.542000054e+001 +3.542000054e+001 +3.6864e+000 -2.3480e+000
1061 0 +2.882638839e-007 +3.542000029e+001 +3.542000029e+001 +3.6864e+000 -2.3480e+000
1117 0 +2.762493523e-008 +3.542000003e+001 +3.542000003e+001 +3.6864e+000 -2.3480e+000
1157 0 +2.527555409e-008 +3.542000003e+001 +3.542000003e+001 +3.6864e+000 -2.3480e+000
1210 0 +1.614904477e-008 +3.542000002e+001 +3.542000002e+001 +3.6864e+000 -2.3480e+000
1269 0 +1.192337606e-008 +3.542000001e+001 +3.542000001e+001 +3.6864e+000 -2.3480e+000
1290 0 +1.104108094e-008 +3.542000001e+001 +3.542000001e+001 +3.6864e+000 -2.3480e+000
1296 0 +9.099245801e-009 +3.542000001e+001 +3.542000001e+001 +3.6864e+000 -2.3480e+000
