% f evaluations | g evaluations | best noise-free fitness - Fopt (2.997000000000e+001) + sum g_i+ | measured fitness | best measured fitness or single-digit g-values | x1 | x2...
1 0 +1.414164294e+003 +1.444134294e+003 +1.444134294e+003 +5.0000e+000 -5.0000e+000
2 0 +1.246076013e+003 +1.276046013e+003 +1.276046013e+003 -5.0000e+000 -5.0000e+000
3 0 +5.632875401e+002 +5.932575401e+002 +5.932575401e+002 +5.0000e+000 +5.0000e+000
5 0 +2.519886768e+002 +2.819586768e+002 +2.819586768e+002 +3.5570e+000 +4.3661e+000
6 0 +1.171947418e+002 +1.471647418e+002 +1.471647418e+002 +1.3400e+000 +1.1041e+000
12 0 +9.804964248e+001 +1.280196425e+002 +1.280196425e+002 +1.4541e+000 +1.2256e+000
13 0 +3.411841465e+000 +3.338184147e+001 +3.338184147e+001 +1.2825e+000 -3.8642e-001
125 0 +2.938657821e+000 +3.290865782e+001 +3.290865782e+001 +1.0360e+000 -1.1473e+000
145 0 +2.201922459e+000 +3.217192246e+001 +3.217192246e+001 +1.0432e+000 -1.1776e+000
167 0 +1.696049749e+000 +3.166604975e+001 +3.166604975e+001 +1.0440e+000 -1.1684e+000
180 0 +7.602606481e-001 +3.073026065e+001 +3.073026065e+001 +1.0573e+000 -1.1063e+000
247 0 +3.887894767e-001 +3.035878948e+001 +3.035878948e+001 +1.0172e+000 -1.2389e+000
280 0 +2.744099384e-001 +3.024440994e+001 +3.024440994e+001 +1.0011e+000 -1.2921e+000
283 0 +2.553512936e-001 +3.022535129e+001 +3.022535129e+001 +9.3272e-001 -1.5118e+000
353 0 +1.635447439e-001 +3.013354474e+001 +3.013354474e+001 +9.5593e-001 -1.4381e+000
396 0 +1.535126586e-001 +3.012351266e+001 +3.012351266e+001 +9.5498e-001 -1.4413e+000
507 0 +1.255195163e-001 +3.009551952e+001 +3.009551952e+001 +9.5266e-001 -1.4491e+000
601 0 +5.247942016e-002 +3.002247942e+001 +3.002247942e+001 +8.6524e-001 -1.7344e+000
602 0 +4.789111144e-002 +3.001789111e+001 +3.001789111e+001 +8.6690e-001 -1.7278e+000
666 0 +4.779958466e-002 +3.001779958e+001 +3.001779958e+001 +8.7552e-001 -1.6998e+000
710 0 +4.098397756e-002 +3.001098398e+001 +3.001098398e+001 +8.7741e-001 -1.6937e+000
711 0 +3.711251166e-002 +3.000711251e+001 +3.000711251e+001 +8.3525e-001 -1.8315e+000
867 0 +3.507583740e-002 +3.000507584e+001 +3.000507584e+001 +8.4159e-001 -1.8109e+000
876 0 +5.010496228e-003 +2.997501050e+001 +2.997501050e+001 +8.5998e-001 -1.7509e+000
1014 0 +2.491060959e-003 +2.997249106e+001 +2.997249106e+001 +8.7790e-001 -1.6926e+000
1024 0 +1.314086890e-003 +2.997131409e+001 +2.997131409e+001 +8.7778e-001 -1.6930e+000
1046 0 +6.326871144e-004 +2.997063269e+001 +2.997063269e+001 +8.7428e-001 -1.7044e+000
1091 0 +1.610956718e-004 +2.997016110e+001 +2.997016110e+001 +8.7568e-001 -1.6998e+000
1108 0 +1.117403301e-004 +2.997011174e+001 +2.997011174e+001 +8.7566e-001 -1.6999e+000
1550 0 +6.792829453e-005 +2.997006793e+001 +2.997006793e+001 +8.7578e-001 -1.6995e+000
1566 0 +4.874870833e-005 +2.997004875e+001 +2.997004875e+001 +8.7583e-001 -1.6993e+000
1799 0 +3.896912803e-005 +2.997003897e+001 +2.997003897e+001 +8.7582e-001 -1.6994e+000
1820 0 +3.567607288e-005 +2.997003568e+001 +2.997003568e+001 +8.7586e-001 -1.6992e+000
1971 0 +2.839813171e-005 +2.997002840e+001 +2.997002840e+001 +8.7567e-001 -1.6999e+000
2091 0 +2.721482018e-005 +2.997002721e+001 +2.997002721e+001 +8.7566e-001 -1.6999e+000
2109 0 +2.658317698e-005 +2.997002658e+001 +2.997002658e+001 +8.7563e-001 -1.7000e+000
2111 0 +2.356383647e-005 +2.997002356e+001 +2.997002356e+001 +8.7560e-001 -1.7001e+000
2131 0 +2.274663950e-005 +2.997002275e+001 +2.997002275e+001 +8.7557e-001 -1.7002e+000
2281 0 +2.140559397e-005 +2.997002141e+001 +2.997002141e+001 +8.7548e-001 -1.7005e+000
2309 0 +2.011403507e-005 +2.997002011e+001 +2.997002011e+001 +8.7551e-001 -1.7004e+000
2310 0 +1.054168751e-005 +2.997001054e+001 +2.997001054e+001 +8.7513e-001 -1.7016e+000
2316 0 +1.036330548e-005 +2.997001036e+001 +2.997001036e+001 +8.7513e-001 -1.7016e+000
2333 0 +9.067467236e-006 +2.997000907e+001 +2.997000907e+001 +8.7509e-001 -1.7017e+000
2338 0 +7.959075788e-006 +2.997000796e+001 +2.997000796e+001 +8.7490e-001 -1.7024e+000
2347 0 +7.482329412e-006 +2.997000748e+001 +2.997000748e+001 +8.7496e-001 -1.7022e+000
2352 0 +6.956495724e-006 +2.997000696e+001 +2.997000696e+001 +8.7503e-001 -1.7020e+000
2388 0 +6.828569802e-006 +2.997000683e+001 +2.997000683e+001 +8.7496e-001 -1.7022e+000
2404 0 +5.000735193e-006 +2.997000500e+001 +2.997000500e+001 +8.7386e-001 -1.7057e+000
2429 0 +2.623146518e-006 +2.997000262e+001 +2.997000262e+001 +8.7421e-001 -1.7046e+000
2443 0 +7.119640593e-007 +2.997000071e+001 +2.997000071e+001 +8.7424e-001 -1.7045e+000
2492 0 +5.236584570e-007 +2.997000052e+001 +2.997000052e+001 +8.7432e-001 -1.7043e+000
2579 0 +5.054986865e-007 +2.997000051e+001 +2.997000051e+001 +8.7434e-001 -1.7042e+000
2712 0 +3.847787262e-007 +2.997000038e+001 +2.997000038e+001 +8.7432e-001 -1.7043e+000
2748 0 +3.788806815e-007 +2.997000038e+001 +2.997000038e+001 +8.7432e-001 -1.7043e+000
2817 0 +2.978675653e-007 +2.997000030e+001 +2.997000030e+001 +8.7433e-001 -1.7042e+000
2887 0 +2.521402855e-007 +2.997000025e+001 +2.997000025e+001 +8.7434e-001 -1.7042e+000
2907 0 +1.616179226e-007 +2.997000016e+001 +2.997000016e+001 +8.7435e-001 -1.7042e+000
2921 0 +3.764584733e-008 +2.997000004e+001 +2.997000004e+001 +8.7437e-001 -1.7041e+000
2962 0 +3.383833658e-008 +2.997000003e+001 +2.997000003e+001 +8.7444e-001 -1.7039e+000
3267 0 +3.058645959e-008 +2.997000003e+001 +2.997000003e+001 +8.7443e-001 -1.7039e+000
3376 0 +1.475708444e-008 +2.997000001e+001 +2.997000001e+001 +8.7442e-001 -1.7039e+000
3437 0 +1.292052687e-008 +2.997000001e+001 +2.997000001e+001 +8.7442e-001 -1.7039e+000
3450 0 +4.634600259e-009 +2.997000000e+001 +2.997000000e+001 +8.7439e-001 -1.7040e+000
% f evaluations | g evaluations | best noise-free fitness - Fopt (-5.171000000000e+001) + sum g_i+ | measured fitness | best measured fitness or single-digit g-values | x1 | x2...
1 0 +1.180255709e+003 +1.128545709e+003 +1.128545709e+003 -5.0000e+000 +5.0000e+000
2 0 +1.118195519e+002 +6.010955195e+001 +6.010955195e+001 +5.0000e+000 +5.0000e+000
40 0 +6.970689680e+001 +1.799689680e+001 +1.799689680e+001 +3.7819e+000 +4.9053e+000
57 0 +2.455198331e+001 -2.715801669e+001 -2.715801669e+001 +4.2509e+000 +4.9836e+000
91 0 +2.396945769e+001 -2.774054231e+001 -2.774054231e+001 +4.2484e+000 +4.9952e+000
97 0 +2.151543668e+001 -3.019456332e+001 -3.019456332e+001 +3.7260e+000 +4.4846e+000
106 0 +2.033842560e+001 -3.137157440e+001 -3.137157440e+001 +4.0984e+000 +4.8119e+000
156 0 +1.174525080e+001 -3.996474920e+001 -3.996474920e+001 +3.4594e+000 +4.0423e+000
162 0 +6.801796902e+000 -4.490820310e+001 -4.490820310e+001 +2.6269e+000 +3.2216e+000
173 0 +4.574302950e+000 -4.713569705e+001 -4.713569705e+001 +2.1704e+000 +2.6719e+000
279 0 +1.762495193e+000 -4.994750481e+001 -4.994750481e+001 +2.5404e+000 +3.0771e+000
298 0 +5.978431950e-001 -5.111215680e+001 -5.111215680e+001 +2.7816e+000 +3.3305e+000
311 0 +5.864602129e-001 -5.112353979e+001 -5.112353979e+001 +2.7796e+000 +3.3284e+000
323 0 +4.364326392e-001 -5.127356736e+001 -5.127356736e+001 +2.6705e+000 +3.2117e+000
350 0 +1.847320371e-001 -5.152526796e+001 -5.152526796e+001 +2.7176e+000 +3.2606e+000
412 0 +9.118522113e-002 -5.161881478e+001 -5.161881478e+001 +2.5199e+000 +3.0374e+000
490 0 +5.103332960e-002 -5.165896667e+001 -5.165896667e+001 +2.5841e+000 +3.1107e+000
631 0 +3.757164610e-002 -5.167242835e+001 -5.167242835e+001 +2.5840e+000 +3.1105e+000
643 0 +1.042983785e-002 -5.169957016e+001 -5.169957016e+001 +2.5916e+000 +3.1189e+000
752 0 +8.986926851e-003 -5.170101307e+001 -5.170101307e+001 +2.5929e+000 +3.1204e+000
755 0 +8.763400843e-003 -5.170123660e+001 -5.170123660e+001 +2.5925e+000 +3.1199e+000
812 0 +4.675098964e-003 -5.170532490e+001 -5.170532490e+001 +2.5894e+000 +3.1163e+000
893 0 +3.188086120e-003 -5.170681191e+001 -5.170681191e+001 +2.5901e+000 +3.1171e+000
943 0 +2.436931744e-003 -5.170756307e+001 -5.170756307e+001 +2.5930e+000 +3.1203e+000
1061 0 +1.289624505e-003 -5.170871038e+001 -5.170871038e+001 +2.5936e+000 +3.1211e+000
1100 0 +1.186752597e-003 -5.170881325e+001 -5.170881325e+001 +2.5936e+000 +3.1211e+000
1198 0 +9.209150629e-004 -5.170907908e+001 -5.170907908e+001 +2.5948e+000 +3.1224e+000
1209 0 +8.720774334e-004 -5.170912792e+001 -5.170912792e+001 +2.5946e+000 +3.1221e+000
1271 0 +7.009428836e-004 -5.170929906e+001 -5.170929906e+001 +2.5956e+000 +3.1233e+000
1369 0 +5.944865539e-004 -5.170940551e+001 -5.170940551e+001 +2.5995e+000 +3.1277e+000
1420 0 +5.638666884e-004 -5.170943613e+001 -5.170943613e+001 +2.5978e+000 +3.1258e+000
1437 0 +5.027841665e-004 -5.170949722e+001 -5.170949722e+001 +2.5973e+000 +3.1252e+000
1449 0 +4.392220725e-004 -5.170956078e+001 -5.170956078e+001 +2.5985e+000 +3.1266e+000
1537 0 +4.272870254e-004 -5.170957271e+001 -5.170957271e+001 +2.5984e+000 +3.1265e+000
1576 0 +1.693327083e-004 -5.170983067e+001 -5.170983067e+001 +2.6055e+000 +3.1345e+000
1606 0 +8.490221584e-005 -5.170991510e+001 -5.170991510e+001 +2.6061e+000 +3.1352e+000
1655 0 +8.148826804e-005 -5.170991851e+001 -5.170991851e+001 +2.6061e+000 +3.1352e+000
1663 0 +3.157583594e-005 -5.170996842e+001 -5.170996842e+001 +2.6057e+000 +3.1348e+000
1694 0 +1.714804727e-005 -5.170998285e+001 -5.170998285e+001 +2.6053e+000 +3.1343e+000
1780 0 +1.160431344e-005 -5.170998840e+001 -5.170998840e+001 +2.6045e+000 +3.1334e+000
1860 0 +2.835385828e-007 -5.170999972e+001 -5.170999972e+001 +2.6040e+000 +3.1328e+000
2294 0 +1.263500451e-007 -5.170999987e+001 -5.170999987e+001 +2.6040e+000 +3.1328e+000
2309 0 +9.299924386e-008 -5.170999991e+001 -5.170999991e+001 +2.6040e+000 +3.1328e+000
2337 0 +7.391507495e-008 -5.170999993e+001 -5.170999993e+001 +2.6040e+000 +3.1329e+000
2351 0 +4.352565242e-008 -5.170999996e+001 -5.170999996e+001 +2.6040e+000 +3.1328e+000
2387 0 +5.456463725e-009 -5.170999999e+001 -5.170999999e+001 +2.6040e+000 +3.1328e+000
% f evaluations | g evaluations | best noise-free fitness - Fopt (-2.799500000000e+002) + sum g_i+ | measured fitness | best measured fitness or single-digit g-values | x1 | x2...
1 0 +1.120628997e+002 -1.678871003e+002 -1.678871003e+002 -5.0000e+000 -5.0000e+000
33 0 +8.253001918e+001 -1.974199808e+002 -1.974199808e+002 -2.3750e+000 -3.1169e+000
35 0 +3.237078428e+001 -2.475792157e+002 -2.475792157e+002 -1.1261e+000 -2.9877e+000
44 0 +1.786708604e+001 -2.620829140e+002 -2.620829140e+002 -1.1934e+000 -3.0839e+000
57 0 +8.508175082e+000 -2.714418249e+002 -2.714418249e+002 -4.9378e+000 -4.4493e+000
112 0 +6.614255714e+000 -2.733357443e+002 -2.733357443e+002 -4.9373e+000 -4.4394e+000
124 0 +3.547322495e+000 -2.764026775e+002 -2.764026775e+002 -4.3561e+000 -4.2110e+000
140 0 +3.205574899e+000 -2.767444251e+002 -2.767444251e+002 -4.3585e+000 -4.2319e+000
141 0 +1.258732794e+000 -2.786912672e+002 -2.786912672e+002 -3.1337e+000 -3.7918e+000
149 0 +3.793993421e-001 -2.795706007e+002 -2.795706007e+002 -3.9431e+000 -4.0759e+000
243 0 +3.371081424e-001 -2.796128919e+002 -2.796128919e+002 -3.9438e+000 -4.0760e+000
281 0 +2.715016026e-001 -2.796784984e+002 -2.796784984e+002 -3.9073e+000 -4.0630e+000
368 0 +1.323152491e-001 -2.798176848e+002 -2.798176848e+002 -3.8270e+000 -4.0343e+000
414 0 +1.080994856e-001 -2.798419005e+002 -2.798419005e+002 -3.8221e+000 -4.0325e+000
457 0 +3.407428267e-002 -2.799159257e+002 -2.799159257e+002 -3.6228e+000 -3.9620e+000
594 0 +3.351429304e-002 -2.799164857e+002 -2.799164857e+002 -3.6206e+000 -3.9612e+000
610 0 +7.633582489e-003 -2.799423664e+002 -2.799423664e+002 -3.6217e+000 -3.9614e+000
801 0 +1.346278111e-003 -2.799486537e+002 -2.799486537e+002 -3.6376e+000 -3.9671e+000
1104 0 +4.379380030e-004 -2.799495621e+002 -2.799495621e+002 -3.6300e+000 -3.9644e+000
1395 0 +2.810807856e-004 -2.799497189e+002 -2.799497189e+002 -3.6240e+000 -3.9623e+000
1526 0 +1.749222487e-004 -2.799498251e+002 -2.799498251e+002 -3.6226e+000 -3.9618e+000
1626 0 +1.516388621e-004 -2.799498484e+002 -2.799498484e+002 -3.6212e+000 -3.9613e+000
1683 0 +9.085570190e-005 -2.799499091e+002 -2.799499091e+002 -3.6228e+000 -3.9618e+000
1770 0 +8.683813792e-005 -2.799499132e+002 -2.799499132e+002 -3.6208e+000 -3.9611e+000
1837 0 +5.381003945e-005 -2.799499462e+002 -2.799499462e+002 -3.6211e+000 -3.9612e+000
1843 0 +4.665369789e-005 -2.799499533e+002 -2.799499533e+002 -3.6212e+000 -3.9613e+000
1907 0 +4.094729212e-005 -2.799499591e+002 -2.799499591e+002 -3.6214e+000 -3.9614e+000
1944 0 +3.992197060e-005 -2.799499601e+002 -2.799499601e+002 -3.6214e+000 -3.9613e+000
1989 0 +3.774692294e-005 -2.799499623e+002 -2.799499623e+002 -3.6213e+000 -3.9613e+000
2032 0 +8.446395782e-006 -2.799499916e+002 -2.799499916e+002 -3.6186e+000 -3.9603e+000
2080 0 +3.077349788e-007 -2.799499997e+002 -2.799499997e+002 -3.6176e+000 -3.9600e+000
2218 0 +2.899562901e-007 -2.799499997e+002 -2.799499997e+002 -3.6175e+000 -3.9600e+000
2231 0 +2.101741075e-007 -2.799499998e+002 -2.799499998e+002 -3.6175e+000 -3.9600e+000
2438 0 +1.892119599e-007 -2.799499998e+002 -2.799499998e+002 -3.6178e+000 -3.9601e+000
2560 0 +6.474647307e-008 -2.799499999e+002 -2.799499999e+002 -3.6174e+000 -3.9599e+000
2761 0 +2.009380751e-008 -2.799500000e+002 -2.799500000e+002 -3.6176e+000 -3.9600e+000
2925 0 +1.219649448e-008 -2.799500000e+002 -2.799500000e+002 -3.6177e+000 -3.9600e+000
2967 0 +9.369841791e-009 -2.799500000e+002 -2.799500000e+002 -3.6176e+000 -3.9600e+000
% f evaluations | g evaluations | best noise-free fitness - Fopt (9.319900000000e+002) + sum g_i+ | measured fitness | best measured fitness or single-digit g-values | x1 | x2...
1 0 +1.641702270e+003 +2.573692270e+003 +2.573692270e+003 -5.0000e+000 -5.0000e+000
2 0 +5.762117744e+002 +1.508201774e+003 +1.508201774e+003 +5.0000e+000 -5.0000e+000
3 0 +3.921387008e+002 +1.324128701e+003 +1.324128701e+003 -5.0000e+000 +5.0000e+000
5 0 +3.173224568e+002 +1.249312457e+003 +1.249312457e+003 -4.4158e+000 +4.4158e+000
8 0 +6.052407137e+001 +9.925140714e+002 +9.925140714e+002 +1.6281e+000 +2.8359e-001
10 0 +5.394976241e+001 +9.859397624e+002 +9.859397624e+002 +2.1442e+000 +9.2355e-001
11 0 +5.327153111e+001 +9.852615311e+002 +9.852615311e+002 +2.1413e+000 +9.1989e-001
22 0 +1.894533331e+001 +9.509353333e+002 +9.509353333e+002 +9.6791e-002 +1.3387e+000
45 0 +1.851281682e+001 +9.505028168e+002 +9.505028168e+002 +9.6086e-002 +1.3424e+000
48 0 +5.211412636e+000 +9.372014126e+002 +9.372014126e+002 +1.8990e+000 +6.1944e-001
51 0 +4.354515504e+000 +9.363445155e+002 +9.363445155e+002 +1.2880e+000 +8.7040e-001
59 0 +4.012149461e+000 +9.360021495e+002 +9.360021495e+002 +2.0977e+000 +5.5798e-001
132 0 +1.493500493e+000 +9.334835005e+002 +9.334835005e+002 +1.3773e+000 +8.7840e-001
212 0 +1.035345482e+000 +9.330253455e+002 +9.330253455e+002 +1.7396e+000 +7.1292e-001
219 0 +9.627688169e-001 +9.329527688e+002 +9.329527688e+002 +1.6756e+000 +7.4228e-001
269 0 +2.752877826e-001 +9.322652878e+002 +9.322652878e+002 +1.4092e+000 +8.5514e-001
339 0 +3.989618422e-002 +9.320298962e+002 +9.320298962e+002 +1.2684e+000 +9.1278e-001
559 0 +2.874360691e-002 +9.320187436e+002 +9.320187436e+002 +1.3251e+000 +8.8860e-001
604 0 +1.392173608e-002 +9.320039217e+002 +9.320039217e+002 +1.2927e+000 +9.0254e-001
707 0 +7.115373173e-003 +9.319971154e+002 +9.319971154e+002 +1.3418e+000 +8.8172e-001
758 0 +1.039894863e-003 +9.319910399e+002 +9.319910399e+002 +1.3431e+000 +8.8121e-001
819 0 +1.728562369e-004 +9.319901729e+002 +9.319901729e+002 +1.3389e+000 +8.8298e-001
1189 0 +8.083917601e-005 +9.319900808e+002 +9.319900808e+002 +1.3367e+000 +8.8394e-001
1302 0 +5.059378702e-005 +9.319900506e+002 +9.319900506e+002 +1.3362e+000 +8.8415e-001
1373 0 +4.761364994e-005 +9.319900476e+002 +9.319900476e+002 +1.3370e+000 +8.8377e-001
1403 0 +4.034793801e-005 +9.319900403e+002 +9.319900403e+002 +1.3370e+000 +8.8379e-001
1472 0 +2.483805156e-005 +9.319900248e+002 +9.319900248e+002 +1.3398e+000 +8.8263e-001
1543 0 +2.299813684e-005 +9.319900230e+002 +9.319900230e+002 +1.3389e+000 +8.8299e-001
1590 0 +2.268344940e-005 +9.319900227e+002 +9.319900227e+002 +1.3401e+000 +8.8247e-001
1661 0 +1.327158782e-005 +9.319900133e+002 +9.319900133e+002 +1.3393e+000 +8.8280e-001
1722 0 +1.242177495e-005 +9.319900124e+002 +9.319900124e+002 +1.3394e+000 +8.8279e-001
1739 0 +1.199167457e-005 +9.319900120e+002 +9.319900120e+002 +1.3398e+000 +8.8262e-001
1794 0 +1.088371198e-005 +9.319900109e+002 +9.319900109e+002 +1.3396e+000 +8.8268e-001
1819 0 +1.070543431e-005 +9.319900107e+002 +9.319900107e+002 +1.3397e+000 +8.8266e-001
1888 0 +7.666176657e-006 +9.319900077e+002 +9.319900077e+002 +1.3395e+000 +8.8274e-001
1964 0 +7.868976581e-007 +9.319900008e+002 +9.319900008e+002 +1.3387e+000 +8.8307e-001
2032 0 +3.053417004e-007 +9.319900003e+002 +9.319900003e+002 +1.3386e+000 +8.8313e-001
2113 0 +2.972395805e-007 +9.319900003e+002 +9.319900003e+002 +1.3386e+000 +8.8313e-001
2149 0 +2.102573262e-007 +9.319900002e+002 +9.319900002e+002 +1.3386e+000 +8.8313e-001
2223 0 +7.178527994e-008 +9.319900001e+002 +9.319900001e+002 +1.3385e+000 +8.8318e-001
2382 0 +5.833317118e-008 +9.319900001e+002 +9.319900001e+002 +1.3384e+000 +8.8319e-001
2390 0 +1.716307452e-008 +9.319900000e+002 +9.319900000e+002 +1.3384e+000 +8.8319e-001
2573 0 +1.574471753e-008 +9.319900000e+002 +9.319900000e+002 +1.3384e+000 +8.8319e-001
2629 0 +1.112687187e-008 +9.319900000e+002 +9.319900000e+002 +1.3384e+000 +8.8319e-001
2652 0 +1.063131094e-008 +9.319900000e+002 +9.319900000e+002 +1.3384e+000 +8.8318e-001
2682 0 +9.603468243e-009 +9.319900000e+002 +9.319900000e+002 +1.3384e+000 +8.8318e-001
% f evaluations | g evaluations | best noise-free fitness - Fopt (1.133100000000e+002) + sum g_i+ | measured fitness | best measured fitness or single-digit g-values | x1 | x2...
1 0 +2.338657014e+002 +3.471757014e+002 +3.471757014e+002 +5.0000e+000 +5.0000e+000
9 0 +2.175652185e+002 +3.308752185e+002 +3.308752185e+002 +5.0000e+000 +4.9325e+000
19 0 +1.296797328e+002 +2.429897328e+002 +2.429897328e+002 +5.0000e+000 +4.5679e+000
24 0 +5.301004583e+001 +1.663200458e+002 +1.663200458e+002 +5.0000e+000 +3.9284e+000
27 0 +2.289188179e+001 +1.362018818e+002 +1.362018818e+002 +1.9689e-001 +2.6111e+000
57 0 +1.807946105e+001 +1.313894611e+002 +1.313894611e+002 -1.0558e+000 +2.1499e+000
83 0 +1.365981286e+001 +1.269698129e+002 +1.269698129e+002 +4.9351e+000 +4.0658e+000
103 0 +4.354623791e+000 +1.176646238e+002 +1.176646238e+002 +1.4392e+000 +2.9570e+000
134 0 +3.983425983e+000 +1.172934260e+002 +1.172934260e+002 +1.4424e+000 +2.9566e+000
137 0 +3.637006080e+000 +1.169470061e+002 +1.169470061e+002 +2.0820e+000 +3.1632e+000
187 0 +1.652970666e+000 +1.149629707e+002 +1.149629707e+002 +2.8980e+000 +3.4127e+000
222 0 +1.247482582e+000 +1.145574826e+002 +1.145574826e+002 +1.4401e+000 +2.9412e+000
254 0 +8.778312585e-001 +1.141878313e+002 +1.141878313e+002 +2.6538e+000 +3.3299e+000
302 0 +8.573071241e-001 +1.141673071e+002 +1.141673071e+002 +1.4576e+000 +2.9491e+000
366 0 +8.127654433e-001 +1.141227654e+002 +1.141227654e+002 +1.4573e+000 +2.9488e+000
438 0 +5.591063513e-001 +1.138691064e+002 +1.138691064e+002 +2.3105e+000 +3.2197e+000
481 0 +1.372321261e-001 +1.134472321e+002 +1.134472321e+002 +2.1949e+000 +3.1842e+000
511 0 +8.007629768e-002 +1.133900763e+002 +1.133900763e+002 +2.0405e+000 +3.1355e+000
623 0 +6.392734635e-002 +1.133739273e+002 +1.133739273e+002 +2.0754e+000 +3.1462e+000
658 0 +5.996661484e-002 +1.133699666e+002 +1.133699666e+002 +2.2936e+000 +3.2162e+000
676 0 +2.449149403e-002 +1.133344915e+002 +1.133344915e+002 +2.1551e+000 +3.1719e+000
696 0 +1.604441625e-002 +1.133260444e+002 +1.133260444e+002 +2.1540e+000 +3.1716e+000
720 0 +9.597094219e-003 +1.133195971e+002 +1.133195971e+002 +2.1613e+000 +3.1739e+000
774 0 +7.384691654e-003 +1.133173847e+002 +1.133173847e+002 +2.1708e+000 +3.1770e+000
902 0 +4.888417498e-003 +1.133148884e+002 +1.133148884e+002 +2.1730e+000 +3.1777e+000
1093 0 +3.270327606e-003 +1.133132703e+002 +1.133132703e+002 +2.1708e+000 +3.1770e+000
1223 0 +2.879091777e-003 +1.133128791e+002 +1.133128791e+002 +2.1707e+000 +3.1770e+000
1248 0 +2.001177479e-003 +1.133120012e+002 +1.133120012e+002 +2.1696e+000 +3.1766e+000
1277 0 +1.961105695e-003 +1.133119611e+002 +1.133119611e+002 +2.1697e+000 +3.1766e+000
1400 0 +1.499068424e-003 +1.133114991e+002 +1.133114991e+002 +2.1631e+000 +3.1745e+000
1419 0 +9.518407569e-004 +1.133109518e+002 +1.133109518e+002 +2.1584e+000 +3.1730e+000
1421 0 +8.811775113e-004 +1.133108812e+002 +1.133108812e+002 +2.1584e+000 +3.1730e+000
1439 0 +6.961212813e-004 +1.133106961e+002 +1.133106961e+002 +2.1555e+000 +3.1721e+000
1458 0 +6.422727769e-004 +1.133106423e+002 +1.133106423e+002 +2.1535e+000 +3.1715e+000
1478 0 +6.140048530e-004 +1.133106140e+002 +1.133106140e+002 +2.1523e+000 +3.1711e+000
1498 0 +5.984509025e-004 +1.133105985e+002 +1.133105985e+002 +2.1515e+000 +3.1708e+000
1531 0 +1.126007933e-004 +1.133101126e+002 +1.133101126e+002 +2.1429e+000 +3.1681e+000
1687 0 +9.890865941e-005 +1.133100989e+002 +1.133100989e+002 +2.1371e+000 +3.1662e+000
1691 0 +7.251290701e-005 +1.133100725e+002 +1.133100725e+002 +2.1323e+000 +3.1647e+000
1723 0 +3.595538736e-005 +1.133100360e+002 +1.133100360e+002 +2.1319e+000 +3.1645e+000
1773 0 +2.110128980e-005 +1.133100211e+002 +1.133100211e+002 +2.1327e+000 +3.1648e+000
1873 0 +8.380158789e-006 +1.133100084e+002 +1.133100084e+002 +2.1341e+000 +3.1652e+000
1910 0 +4.488880876e-006 +1.133100045e+002 +1.133100045e+002 +2.1339e+000 +3.1652e+000
2107 0 +3.685406952e-006 +1.133100037e+002 +1.133100037e+002 +2.1340e+000 +3.1652e+000
2206 0 +3.407224739e-006 +1.133100034e+002 +1.133100034e+002 +2.1340e+000 +3.1652e+000
2225 0 +3.328414579e-006 +1.133100033e+002 +1.133100033e+002 +2.1339e+000 +3.1652e+000
2342 0 +3.144885511e-006 +1.133100031e+002 +1.133100031e+002 +2.1339e+000 +3.1652e+000
2354 0 +3.051352280e-006 +1.133100031e+002 +1.133100031e+002 +2.1339e+000 +3.1652e+000
2359 0 +2.067101406e-006 +1.133100021e+002 +1.133100021e+002 +2.1343e+000 +3.1653e+000
2446 0 +1.903571587e-006 +1.133100019e+002 +1.133100019e+002 +2.1344e+000 +3.1653e+000
2449 0 +1.124939985e-006 +1.133100011e+002 +1.133100011e+002 +2.1344e+000 +3.1654e+000
2470 0 +7.346703228e-007 +1.133100007e+002 +1.133100007e+002 +2.1348e+000 +3.1655e+000
2526 0 +3.643976356e-007 +1.133100004e+002 +1.133100004e+002 +2.1348e+000 +3.1655e+000
2572 0 +3.592734572e-007 +1.133100004e+002 +1.133100004e+002 +2.1349e+000 +3.1655e+000
2613 0 +1.104736072e-007 +1.133100001e+002 +1.133100001e+002 +2.1350e+000 +3.1655e+000
2622 0 +5.508077550e-008 +1.133100001e+002 +1.133100001e+002 +2.1350e+000 +3.1655e+000
2896 0 +4.967465372e-008 +1.133100000e+002 +1.133100000e+002 +2.1351e+000 +3.1656e+000
3013 0 +4.436138568e-008 +1.133100000e+002 +1.133100000e+002 +2.1351e+000 +3.1656e+000
3023 0 +1.522593607e-008 +1.133100000e+002 +1.133100000e+002 +2.1352e+000 +3.1656e+000
3039 0 +4.551722554e-009 +1.133100000e+002 +1.133100000e+002 +2.1352e+000 +3.1656e+000
% f evaluations | g evaluations | best noise-free fitness - Fopt (2.849000000000e+001) + sum g_i+ | measured fitness | best measured fitness or single-digit g-values | x1 | x2...
1 0 +6.259884483e+002 +6.544784483e+002 +6.544784483e+002 -5.0000e+000 +5.0000e+000
6 0 +3.905769876e+002 +4.190669876e+002 +4.190669876e+002 -1.6493e+000 +5.0000e+000
7 0 +1.513770757e+002 +1.798670757e+002 +1.798670757e+002 -3.1324e+000 +5.0000e+000
11 0 +1.317748272e+002 +1.602648272e+002 +1.602648272e+002 -2.9502e+000 +4.5733e+000
23 0 +1.066490843e+002 +1.351390843e+002 +1.351390843e+002 -2.4116e+000 +4.3804e+000
27 0 +6.827157102e+001 +9.676157102e+001 +9.676157102e+001 -2.7839e+000 +5.0000e+000
68 0 +6.666355122e+001 +9.515355122e+001 +9.515355122e+001 -2.7954e+000 +4.9959e+000
91 0 +6.606562710e+001 +9.455562710e+001 +9.455562710e+001 -2.7940e+000 +5.0000e+000
96 0 +5.890346458e+001 +8.739346458e+001 +8.739346458e+001 -2.5889e+000 +4.4010e+000
103 0 +3.302051571e+001 +6.151051571e+001 +6.151051571e+001 -1.1320e+000 -6.2601e-001
104 0 +2.348589135e+001 +5.197589135e+001 +5.197589135e+001 -1.1066e+000 -1.1269e-001
123 0 +1.544759252e+001 +4.393759252e+001 +4.393759252e+001 -2.2342e-001 -2.9684e+000
142 0 +1.161021090e+001 +4.010021090e+001 +4.010021090e+001 -1.3883e-001 -3.2956e+000
175 0 +6.545817417e+000 +3.503581742e+001 +3.503581742e+001 -8.9157e-001 -1.0856e+000
236 0 +6.347384293e+000 +3.483738429e+001 +3.483738429e+001 -7.7634e-001 -1.4549e+000
247 0 +5.641502401e+000 +3.413150240e+001 +3.413150240e+001 -7.7006e-001 -1.4666e+000
255 0 +3.616437298e+000 +3.210643730e+001 +3.210643730e+001 -6.6502e-001 -1.7773e+000
271 0 +3.456111554e+000 +3.194611155e+001 +3.194611155e+001 -5.1529e-001 -2.1691e+000
275 0 +2.013998980e+000 +3.050399898e+001 +3.050399898e+001 -5.9377e-001 -1.9836e+000
295 0 +1.047981091e+000 +2.953798109e+001 +2.953798109e+001 -5.4817e-001 -2.1157e+000
303 0 +9.329996786e-001 +2.942299968e+001 +2.942299968e+001 -6.0663e-001 -1.9303e+000
315 0 +4.541183052e-001 +2.894411831e+001 +2.894411831e+001 -5.1899e-001 -2.2002e+000
374 0 +3.660573477e-001 +2.885605735e+001 +2.885605735e+001 -5.1928e-001 -2.1982e+000
394 0 +2.210497321e-001 +2.871104973e+001 +2.871104973e+001 -5.1953e-001 -2.1958e+000
414 0 +1.900100496e-001 +2.868001005e+001 +2.868001005e+001 -5.1969e-001 -2.1942e+000
598 0 +1.846627096e-001 +2.867466271e+001 +2.867466271e+001 -5.1934e-001 -2.1954e+000
605 0 +1.528643131e-001 +2.864286431e+001 +2.864286431e+001 -5.9356e-001 -1.9624e+000
610 0 +1.123064930e-001 +2.860230649e+001 +2.860230649e+001 -5.9241e-001 -1.9655e+000
611 0 +7.170485973e-002 +2.856170486e+001 +2.856170486e+001 -5.7182e-001 -2.0299e+000
683 0 +6.360556870e-002 +2.855360557e+001 +2.855360557e+001 -5.7158e-001 -2.0306e+000
703 0 +4.642203615e-002 +2.853642204e+001 +2.853642204e+001 -5.7173e-001 -2.0299e+000
789 0 +3.772249748e-002 +2.852772250e+001 +2.852772250e+001 -5.8563e-001 -1.9857e+000
800 0 +3.639007340e-002 +2.852639007e+001 +2.852639007e+001 -5.8383e-001 -1.9914e+000
844 0 +1.666811168e-002 +2.850666811e+001 +2.850666811e+001 -5.9573e-001 -1.9538e+000
857 0 +1.019095317e-002 +2.850019095e+001 +2.850019095e+001 -5.9953e-001 -1.9419e+000
986 0 +9.037845548e-003 +2.849903785e+001 +2.849903785e+001 -6.1047e-001 -1.9072e+000
996 0 +8.509249080e-003 +2.849850925e+001 +2.849850925e+001 -6.1145e-001 -1.9041e+000
1004 0 +5.864398092e-003 +2.849586440e+001 +2.849586440e+001 -6.1600e-001 -1.8897e+000
1024 0 +4.621479000e-003 +2.849462148e+001 +2.849462148e+001 -6.1688e-001 -1.8869e+000
1027 0 +3.798716735e-003 +2.849379872e+001 +2.849379872e+001 -6.1092e-001 -1.9058e+000
1034 0 +3.131387788e-003 +2.849313139e+001 +2.849313139e+001 -6.1742e-001 -1.8852e+000
1043 0 +2.972805180e-003 +2.849297281e+001 +2.849297281e+001 -6.1586e-001 -1.8902e+000
1050 0 +2.367781106e-003 +2.849236778e+001 +2.849236778e+001 -6.1427e-001 -1.8952e+000
1053 0 +1.597549033e-003 +2.849159755e+001 +2.849159755e+001 -6.1802e-001 -1.8833e+000
1072 0 +8.422772675e-004 +2.849084228e+001 +2.849084228e+001 -6.2067e-001 -1.8749e+000
1138 0 +6.278313545e-004 +2.849062783e+001 +2.849062783e+001 -6.2181e-001 -1.8713e+000
1159 0 +4.460021809e-004 +2.849044600e+001 +2.849044600e+001 -6.2156e-001 -1.8721e+000
1195 0 +1.937243096e-004 +2.849019372e+001 +2.849019372e+001 -6.2452e-001 -1.8627e+000
1249 0 +1.617355100e-004 +2.849016174e+001 +2.849016174e+001 -6.2492e-001 -1.8615e+000
1365 0 +1.054289184e-004 +2.849010543e+001 +2.849010543e+001 -6.2510e-001 -1.8609e+000
1380 0 +5.942311513e-005 +2.849005942e+001 +2.849005942e+001 -6.2455e-001 -1.8627e+000
1449 0 +5.315707563e-005 +2.849005316e+001 +2.849005316e+001 -6.2458e-001 -1.8626e+000
1496 0 +4.951908744e-005 +2.849004952e+001 +2.849004952e+001 -6.2492e-001 -1.8615e+000
1542 0 +4.169157447e-005 +2.849004169e+001 +2.849004169e+001 -6.2539e-001 -1.8600e+000
1547 0 +8.142472662e-006 +2.849000814e+001 +2.849000814e+001 -6.2594e-001 -1.8583e+000
1556 0 +4.577284596e-006 +2.849000458e+001 +2.849000458e+001 -6.2647e-001 -1.8566e+000
1562 0 +4.442442513e-006 +2.849000444e+001 +2.849000444e+001 -6.2677e-001 -1.8556e+000
1589 0 +3.538805849e-006 +2.849000354e+001 +2.849000354e+001 -6.2677e-001 -1.8556e+000
1777 0 +1.237492850e-006 +2.849000124e+001 +2.849000124e+001 -6.2668e-001 -1.8559e+000
1921 0 +1.024487762e-006 +2.849000102e+001 +2.849000102e+001 -6.2637e-001 -1.8569e+000
1938 0 +4.501247588e-007 +2.849000045e+001 +2.849000045e+001 -6.2638e-001 -1.8569e+000
1976 0 +3.090124920e-007 +2.849000031e+001 +2.849000031e+001 -6.2629e-001 -1.8572e+000
1983 0 +1.926338982e-007 +2.849000019e+001 +2.849000019e+001 -6.2629e-001 -1.8572e+000
2151 0 +1.021919118e-007 +2.849000010e+001 +2.849000010e+001 -6.2634e-001 -1.8570e+000
2162 0 +8.229089943e-008 +2.849000008e+001 +2.849000008e+001 -6.2634e-001 -1.8570e+000
2236 0 +1.466990440e-008 +2.849000001e+001 +2.849000001e+001 -6.2638e-001 -1.8569e+000
2252 0 +1.376038483e-008 +2.849000001e+001 +2.849000001e+001 -6.2638e-001 -1.8569e+000
2288 0 +1.256674764e-008 +2.849000001e+001 +2.849000001e+001 -6.2638e-001 -1.8569e+000
2373 0 +1.103986946e-008 +2.849000001e+001 +2.849000001e+001 -6.2638e-001 -1.8569e+000
2390 0 +1.015188644e-008 +2.849000001e+001 +2.849000001e+001 -6.2638e-001 -1.8569e+000
2403 0 +8.069289237e-009 +2.849000001e+001 +2.849000001e+001 -6.2638e-001 -1.8568e+000
% f evaluations | g evaluations | best noise-free fitness - Fopt (-7.405800000000e+002) + sum g_i+ | measured fitness | best measured fitness or single-digit g-values | x1 | x2...
1 0 +1.766646676e+003 +1.026066676e+003 +1.026066676e+003 -5.0000e+000 -5.0000e+000
2 0 +1.129183608e+002 -6.276616392e+002 -6.276616392e+002 +5.0000e+000 -5.0000e+000
11 0 +8.420804272e+001 -6.563719573e+002 -6.563719573e+002 +4.8592e+000 -5.0000e+000
46 0 +6.564415089e+001 -6.749358491e+002 -6.749358491e+002 -1.8509e+000 -2.3166e-001
51 0 +3.039616982e+001 -7.101838302e+002 -7.101838302e+002 -1.9218e+000 +2.3503e-001
75 0 +2.749690307e+001 -7.130830969e+002 -7.130830969e+002 -4.7740e+000 +2.2118e+000
106 0 +2.536932263e+001 -7.152106774e+002 -7.152106774e+002 -1.4508e+000 -3.5976e-001
115 0 +2.218027263e+001 -7.183997274e+002 -7.183997274e+002 -4.6881e+000 +2.2191e+000
141 0 +1.767569174e+001 -7.229043083e+002 -7.229043083e+002 +1.2299e+000 -2.2692e+000
144 0 +1.517289838e+001 -7.254071016e+002 -7.254071016e+002 -4.4914e+000 +2.0492e+000
151 0 +1.325975514e+001 -7.273202449e+002 -7.273202449e+002 -2.6701e+000 +7.1962e-001
162 0 +1.169065688e+001 -7.288893431e+002 -7.288893431e+002 -1.7937e+000 +5.7970e-002
181 0 +5.598590064e+000 -7.349814099e+002 -7.349814099e+002 -1.3835e+000 -2.7893e-001
197 0 +2.883345898e+000 -7.376966541e+002 -7.376966541e+002 -1.3976e+000 -2.7989e-001
217 0 +2.351217027e+000 -7.382287830e+002 -7.382287830e+002 -1.2720e+000 -3.7783e-001
237 0 +2.041058734e+000 -7.385389413e+002 -7.385389413e+002 -1.1916e+000 -4.4051e-001
253 0 +1.909436616e+000 -7.386705634e+002 -7.386705634e+002 -1.1607e+000 -4.6463e-001
257 0 +1.855010980e+000 -7.387249890e+002 -7.387249890e+002 -1.1401e+000 -4.8062e-001
270 0 +1.797535311e+000 -7.387824647e+002 -7.387824647e+002 -1.3094e+000 -3.6404e-001
277 0 +1.741041393e+000 -7.388389586e+002 -7.388389586e+002 -1.1072e+000 -5.0630e-001
310 0 +1.297412461e+000 -7.392825875e+002 -7.392825875e+002 -1.4363e+000 -2.6683e-001
315 0 +7.044783908e-001 -7.398755216e+002 -7.398755216e+002 -1.2471e+000 -4.0387e-001
600 0 +6.490167184e-001 -7.399309833e+002 -7.399309833e+002 -1.2393e+000 -4.1009e-001
654 0 +5.663033757e-001 -7.400136966e+002 -7.400136966e+002 -1.2159e+000 -4.2855e-001
679 0 +3.569731990e-001 -7.402230268e+002 -7.402230268e+002 -1.6702e+000 -8.7002e-002
703 0 +2.206057358e-001 -7.403593943e+002 -7.403593943e+002 -1.6276e+000 -1.1853e-001
708 0 +4.363129481e-002 -7.405363687e+002 -7.405363687e+002 -1.6809e+000 -7.7290e-002
753 0 +3.650327909e-002 -7.405434967e+002 -7.405434967e+002 -1.7538e+000 -2.2568e-002
982 0 +2.910919999e-002 -7.405508908e+002 -7.405508908e+002 -1.8282e+000 +3.3617e-002
1036 0 +2.503141698e-002 -7.405549686e+002 -7.405549686e+002 -1.8296e+000 +3.4720e-002
1047 0 +2.353200882e-002 -7.405564680e+002 -7.405564680e+002 -1.8230e+000 +2.9737e-002
1053 0 +1.209062426e-002 -7.405679094e+002 -7.405679094e+002 -1.7568e+000 -2.0224e-002
1067 0 +8.602164404e-003 -7.405713978e+002 -7.405713978e+002 -1.8168e+000 +2.5060e-002
1284 0 +6.925422493e-003 -7.405730746e+002 -7.405730746e+002 -1.7452e+000 -2.8885e-002
1320 0 +5.396097101e-003 -7.405746039e+002 -7.405746039e+002 -1.7457e+000 -2.8563e-002
1381 0 +2.721666206e-003 -7.405772783e+002 -7.405772783e+002 -1.7656e+000 -1.3543e-002
1385 0 +1.236499532e-003 -7.405787635e+002 -7.405787635e+002 -1.7533e+000 -2.2846e-002
1442 0 +4.893074710e-004 -7.405795107e+002 -7.405795107e+002 -1.7563e+000 -2.0522e-002
1712 0 +4.724453779e-004 -7.405795276e+002 -7.405795276e+002 -1.7606e+000 -1.7293e-002
1742 0 +2.478852642e-004 -7.405797521e+002 -7.405797521e+002 -1.7477e+000 -2.7017e-002
1778 0 +1.733413055e-004 -7.405798267e+002 -7.405798267e+002 -1.7460e+000 -2.8326e-002
1808 0 +1.540523614e-004 -7.405798459e+002 -7.405798459e+002 -1.7443e+000 -2.9600e-002
1990 0 +1.210483669e-004 -7.405798790e+002 -7.405798790e+002 -1.7530e+000 -2.3047e-002
2039 0 +1.119620192e-004 -7.405798880e+002 -7.405798880e+002 -1.7472e+000 -2.7414e-002
2116 0 +1.012793454e-004 -7.405798987e+002 -7.405798987e+002 -1.7500e+000 -2.5282e-002
2128 0 +9.383515749e-005 -7.405799062e+002 -7.405799062e+002 -1.7486e+000 -2.6363e-002
2142 0 +7.222045747e-005 -7.405799278e+002 -7.405799278e+002 -1.7487e+000 -2.6300e-002
2143 0 +6.156458551e-005 -7.405799384e+002 -7.405799384e+002 -1.7513e+000 -2.4338e-002
2172 0 +3.039247133e-005 -7.405799696e+002 -7.405799696e+002 -1.7511e+000 -2.4489e-002
2183 0 +1.913580616e-005 -7.405799809e+002 -7.405799809e+002 -1.7529e+000 -2.3139e-002
2198 0 +1.384722157e-005 -7.405799862e+002 -7.405799862e+002 -1.7549e+000 -2.1638e-002
2228 0 +1.230768976e-005 -7.405799877e+002 -7.405799877e+002 -1.7546e+000 -2.1840e-002
2236 0 +8.783698149e-006 -7.405799912e+002 -7.405799912e+002 -1.7516e+000 -2.4069e-002
2247 0 +3.836458404e-006 -7.405799962e+002 -7.405799962e+002 -1.7533e+000 -2.2796e-002
2288 0 +1.684424547e-006 -7.405799983e+002 -7.405799983e+002 -1.7530e+000 -2.3046e-002
2318 0 +1.565149205e-006 -7.405799984e+002 -7.405799984e+002 -1.7530e+000 -2.3012e-002
2496 0 +1.531153430e-006 -7.405799985e+002 -7.405799985e+002 -1.7530e+000 -2.3023e-002
2559 0 +1.390086595e-006 -7.405799986e+002 -7.405799986e+002 -1.7531e+000 -2.3004e-002
2575 0 +1.170013661e-006 -7.405799988e+002 -7.405799988e+002 -1.7531e+000 -2.3011e-002
2578 0 +6.278798992e-007 -7.405799994e+002 -7.405799994e+002 -1.7529e+000 -2.3120e-002
2582 0 +6.096939842e-007 -7.405799994e+002 -7.405799994e+002 -1.7529e+000 -2.3121e-002
2592 0 +4.949915819e-007 -7.405799995e+002 -7.405799995e+002 -1.7528e+000 -2.3175e-002
2614 0 +5.065282949e-008 -7.405799999e+002 -7.405799999e+002 -1.7529e+000 -2.3144e-002
2714 0 +4.331275250e-008 -7.405800000e+002 -7.405800000e+002 -1.7529e+000 -2.3147e-002
2848 0 +1.867704214e-008 -7.405800000e+002 -7.405800000e+002 -1.7529e+000 -2.3145e-002
3083 0 +1.235730451e-008 -7.405800000e+002 -7.405800000e+002 -1.7529e+000 -2.3145e-002
3199 0 +1.226260338e-008 -7.405800000e+002 -7.405800000e+002 -1.7529e+000 -2.3146e-002
3313 0 +7.458652362e-009 -7.405800000e+002 -7.405800000e+002 -1.7529e+000 -2.3152e-002
% f evaluations | g evaluations | best noise-free fitness - Fopt (-5.177000000000e+001) + sum g_i+ | measured fitness | best measured fitness or single-digit g-values | x1 | x2...
1 0 +7.546652670e+002 +7.028952670e+002 +7.028952670e+002 +5.0000e+000 +5.0000e+000
2 0 +6.716668589e+002 +6.198968589e+002 +6.198968589e+002 -5.0000e+000 +5.0000e+000
4 0 +6.573058186e+002 +6.055358186e+002 +6.055358186e+002 -3.4738e+000 +5.0000e+000
6 0 +6.158973391e+002 +5.641273391e+002 +5.641273391e+002 -3.5688e+000 -1.4366e+000
7 0 +2.254775806e+001 -2.922224194e+001 -2.922224194e+001 -1.9857e+000 +1.6190e+000
24 0 +2.159573203e+001 -3.017426797e+001 -3.017426797e+001 -2.0084e+000 +1.6211e+000
38 0 +1.230252682e+001 -3.946747318e+001 -3.946747318e+001 -4.5930e-001 +1.9433e+000
47 0 +1.347394375e+000 -5.042260563e+001 -5.042260563e+001 -1.9405e+000 +1.7457e+000
80 0 +6.854553780e-001 -5.108454462e+001 -5.108454462e+001 -1.8878e+000 +1.7574e+000
331 0 +6.352743303e-001 -5.113472567e+001 -5.113472567e+001 -1.8946e+000 +1.7567e+000
353 0 +2.866062608e-001 -5.148339374e+001 -5.148339374e+001 -2.0925e+000 +1.7304e+000
453 0 +2.254004657e-001 -5.154459953e+001 -5.154459953e+001 -2.0768e+000 +1.7320e+000
523 0 +1.529867895e-001 -5.161701321e+001 -5.161701321e+001 -2.1282e+000 +1.7251e+000
548 0 +1.276567352e-002 -5.175723433e+001 -5.175723433e+001 -2.3681e+000 +1.6927e+000
619 0 +6.978657342e-003 -5.176302134e+001 -5.176302134e+001 -2.3691e+000 +1.6925e+000
800 0 +1.896449151e-003 -5.176810355e+001 -5.176810355e+001 -2.3438e+000 +1.6959e+000
914 0 +1.256218236e-003 -5.176874378e+001 -5.176874378e+001 -2.3463e+000 +1.6956e+000
1054 0 +1.657426918e-004 -5.176983426e+001 -5.176983426e+001 -2.3382e+000 +1.6967e+000
1136 0 +1.173831336e-004 -5.176988262e+001 -5.176988262e+001 -2.3381e+000 +1.6967e+000
1257 0 +9.975958551e-005 -5.176990024e+001 -5.176990024e+001 -2.3384e+000 +1.6966e+000
1348 0 +3.123198983e-005 -5.176996877e+001 -5.176996877e+001 -2.3403e+000 +1.6964e+000
1443 0 +2.833011110e-005 -5.176997167e+001 -5.176997167e+001 -2.3403e+000 +1.6964e+000
1463 0 +2.524539334e-005 -5.176997475e+001 -5.176997475e+001 -2.3404e+000 +1.6964e+000
1487 0 +1.160869696e-005 -5.176998839e+001 -5.176998839e+001 -2.3420e+000 +1.6962e+000
1488 0 +8.233474937e-006 -5.176999177e+001 -5.176999177e+001 -2.3420e+000 +1.6962e+000
1538 0 +7.564213256e-006 -5.176999244e+001 -5.176999244e+001 -2.3422e+000 +1.6961e+000
1567 0 +1.295717929e-006 -5.176999870e+001 -5.176999870e+001 -2.3432e+000 +1.6960e+000
1735 0 +5.430083334e-007 -5.176999946e+001 -5.176999946e+001 -2.3431e+000 +1.6960e+000
1871 0 +1.954550939e-007 -5.176999980e+001 -5.176999980e+001 -2.3430e+000 +1.6960e+000
1893 0 +1.539243470e-007 -5.176999985e+001 -5.176999985e+001 -2.3430e+000 +1.6960e+000
2032 0 +1.490761008e-007 -5.176999985e+001 -5.176999985e+001 -2.3430e+000 +1.6960e+000
2103 0 +1.302282939e-007 -5.176999987e+001 -5.176999987e+001 -2.3430e+000 +1.6960e+000
2106 0 +1.243747150e-007 -5.176999988e+001 -5.176999988e+001 -2.3431e+000 +1.6960e+000
2136 0 +7.713822470e-008 -5.176999992e+001 -5.176999992e+001 -2.3431e+000 +1.6960e+000
2144 0 +6.110646922e-008 -5.176999994e+001 -5.176999994e+001 -2.3431e+000 +1.6960e+000
2349 0 +5.584254836e-008 -5.176999994e+001 -5.176999994e+001 -2.3431e+000 +1.6960e+000
2488 0 +5.023404981e-008 -5.176999995e+001 -5.176999995e+001 -2.3431e+000 +1.6960e+000
2505 0 +4.724548575e-008 -5.176999995e+001 -5.176999995e+001 -2.3431e+000 +1.6960e+000
2531 0 +4.406570042e-008 -5.176999996e+001 -5.176999996e+001 -2.3431e+000 +1.6960e+000
2553 0 +4.252718355e-008 -5.176999996e+001 -5.176999996e+001 -2.3431e+000 +1.6960e+000
2558 0 +3.692873207e-008 -5.176999996e+001 -5.176999996e+001 -2.3431e+000 +1.6960e+000
2560 0 +2.454055448e-008 -5.176999998e+001 -5.176999998e+001 -2.3431e+000 +1.6960e+000
2567 0 +2.250602193e-008 -5.176999998e+001 -5.176999998e+001 -2.3431e+000 +1.6960e+000
2570 0 +2.128681587e-008 -5.176999998e+001 -5.176999998e+001 -2.3431e+000 +1.6960e+000
2582 0 +1.518846915e-008 -5.176999998e+001 -5.176999998e+001 -2.3431e+000 +1.6960e+000
2584 0 +1.336255906e-008 -5.176999999e+001 -5.176999999e+001 -2.3432e+000 +1.6960e+000
2589 0 +1.300541896e-008 -5.176999999e+001 -5.176999999e+001 -2.3432e+000 +1.6960e+000
2590 0 +8.563837639e-009 -5.176999999e+001 -5.176999999e+001 -2.3432e+000 +1.6960e+000
% f evaluations | g evaluations | best noise-free fitness - Fopt (-2.229800000000e+002) + sum g_i+ | measured fitness | best measured fitness or single-digit g-values | x1 | x2...
1 0 +7.754159358e+002 +5.524359358e+002 +5.524359358e+002 +5.0000e+000 -5.0000e+000
2 0 +7.340471539e+002 +5.110671539e+002 +5.110671539e+002 -5.0000e+000 -5.0000e+000
3 0 +5.424735947e+002 +3.194935947e+002 +3.194935947e+002 +5.0000e+000 +5.0000e+000
6 0 +8.601049438e+001 -1.369695056e+002 -1.369695056e+002 +5.0000e+000 -1.7955e-017
11 0 +4.475619896e+001 -1.782238010e+002 -1.782238010e+002 +5.0000e+000 +3.1443e-001
19 0 +3.840400562e+001 -1.845759944e+002 -1.845759944e+002 +4.9396e+000 +7.2698e-001
30 0 +3.262660632e+001 -1.903533937e+002 -1.903533937e+002 +2.9462e+000 +3.1443e-001
31 0 +2.115840191e+001 -2.018215981e+002 -2.018215981e+002 +2.4169e+000 -1.7336e-001
35 0 +8.699813974e+000 -2.142801860e+002 -2.142801860e+002 +3.8461e+000 +2.0896e-001
43 0 +7.144301890e+000 -2.158356981e+002 -2.158356981e+002 +2.9199e+000 +1.6737e-002
110 0 +6.642053962e+000 -2.163379460e+002 -2.163379460e+002 +3.4826e+000 +1.3380e-001
122 0 +1.077341266e+000 -2.219026587e+002 -2.219026587e+002 +3.3058e+000 +1.4062e-001
142 0 +1.013449041e+000 -2.219665510e+002 -2.219665510e+002 +3.3867e+000 +1.5854e-001
145 0 +1.355006295e-001 -2.228444994e+002 -2.228444994e+002 +3.4209e+000 +1.7548e-001
410 0 +9.999963584e-002 -2.228800004e+002 -2.228800004e+002 +3.4472e+000 +1.8123e-001
445 0 +6.697654277e-002 -2.229130235e+002 -2.229130235e+002 +3.4467e+000 +1.8084e-001
505 0 +1.301492839e-002 -2.229669851e+002 -2.229669851e+002 +3.4488e+000 +1.8065e-001
658 0 +9.409267568e-003 -2.229705907e+002 -2.229705907e+002 +3.4574e+000 +1.8264e-001
716 0 +4.047874250e-003 -2.229759521e+002 -2.229759521e+002 +3.4542e+000 +1.8202e-001
717 0 +2.215259625e-003 -2.229777847e+002 -2.229777847e+002 +3.4571e+000 +1.8263e-001
748 0 +5.034949737e-004 -2.229794965e+002 -2.229794965e+002 +3.4564e+000 +1.8249e-001
914 0 +2.639999418e-004 -2.229797360e+002 -2.229797360e+002 +3.4564e+000 +1.8250e-001
989 0 +2.072859261e-004 -2.229797927e+002 -2.229797927e+002 +3.4572e+000 +1.8267e-001
1005 0 +3.243862744e-005 -2.229799676e+002 -2.229799676e+002 +3.4573e+000 +1.8270e-001
1058 0 +3.134461650e-005 -2.229799687e+002 -2.229799687e+002 +3.4572e+000 +1.8266e-001
1231 0 +1.849209181e-005 -2.229799815e+002 -2.229799815e+002 +3.4572e+000 +1.8267e-001
1395 0 +9.686878172e-006 -2.229799903e+002 -2.229799903e+002 +3.4571e+000 +1.8266e-001
1471 0 +6.683574327e-006 -2.229799933e+002 -2.229799933e+002 +3.4567e+000 +1.8255e-001
1527 0 +4.418030215e-006 -2.229799956e+002 -2.229799956e+002 +3.4567e+000 +1.8257e-001
1572 0 +3.600908343e-006 -2.229799964e+002 -2.229799964e+002 +3.4567e+000 +1.8256e-001
1618 0 +3.356573842e-006 -2.229799966e+002 -2.229799966e+002 +3.4567e+000 +1.8256e-001
1673 0 +3.108802872e-006 -2.229799969e+002 -2.229799969e+002 +3.4567e+000 +1.8255e-001
1705 0 +2.855435469e-006 -2.229799971e+002 -2.229799971e+002 +3.4566e+000 +1.8254e-001
1796 0 +2.737639505e-006 -2.229799973e+002 -2.229799973e+002 +3.4566e+000 +1.8254e-001
1912 0 +2.683335367e-006 -2.229799973e+002 -2.229799973e+002 +3.4566e+000 +1.8254e-001
1954 0 +2.544336184e-006 -2.229799975e+002 -2.229799975e+002 +3.4566e+000 +1.8254e-001
1992 0 +2.473959825e-006 -2.229799975e+002 -2.229799975e+002 +3.4566e+000 +1.8254e-001
2003 0 +2.441477534e-006 -2.229799976e+002 -2.229799976e+002 +3.4566e+000 +1.8254e-001
2010 0 +1.969415052e-006 -2.229799980e+002 -2.229799980e+002 +3.4565e+000 +1.8252e-001
2018 0 +1.913761253e-006 -2.229799981e+002 -2.229799981e+002 +3.4565e+000 +1.8252e-001
2019 0 +1.078540009e-006 -2.229799989e+002 -2.229799989e+002 +3.4564e+000 +1.8249e-001
2020 0 +1.066714390e-006 -2.229799989e+002 -2.229799989e+002 +3.4564e+000 +1.8249e-001
2040 0 +5.545976762e-007 -2.229799994e+002 -2.229799994e+002 +3.4562e+000 +1.8245e-001
2114 0 +3.575489700e-007 -2.229799996e+002 -2.229799996e+002 +3.4561e+000 +1.8243e-001
2115 0 +3.425303703e-007 -2.229799997e+002 -2.229799997e+002 +3.4562e+000 +1.8245e-001
2142 0 +2.034827844e-007 -2.229799998e+002 -2.229799998e+002 +3.4561e+000 +1.8242e-001
2165 0 +1.660632165e-007 -2.229799998e+002 -2.229799998e+002 +3.4561e+000 +1.8241e-001
2225 0 +6.307729450e-008 -2.229799999e+002 -2.229799999e+002 +3.4560e+000 +1.8240e-001
2289 0 +2.794547527e-008 -2.229800000e+002 -2.229800000e+002 +3.4560e+000 +1.8239e-001
2328 0 +1.733843646e-008 -2.229800000e+002 -2.229800000e+002 +3.4560e+000 +1.8240e-001
2407 0 +1.478053946e-008 -2.229800000e+002 -2.229800000e+002 +3.4560e+000 +1.8241e-001
2439 0 +1.191057208e-008 -2.229800000e+002 -2.229800000e+002 +3.4560e+000 +1.8241e-001
2464 0 +1.172486463e-008 -2.229800000e+002 -2.229800000e+002 +3.4560e+000 +1.8241e-001
2492 0 +1.024608309e-008 -2.229800000e+002 -2.229800000e+002 +3.4560e+000 +1.8241e-001
2565 0 +4.939266773e-009 -2.229800000e+002 -2.229800000e+002 +3.4560e+000 +1.8241e-001
% f evaluations | g evaluations | best noise-free fitness - Fopt (5.860000000000e+000) + sum g_i+ | measured fitness | best measured fitness or single-digit g-values | x1 | x2...
1 0 +1.448290275e+002 +1.506890275e+002 +1.506890275e+002 -5.0000e+000 +5.0000e+000
12 0 +1.206718407e+002 +1.265318407e+002 +1.265318407e+002 -4.2028e+000 +8.8074e-001
16 0 +1.166906567e+002 +1.225506567e+002 +1.225506567e+002 -4.1783e+000 +8.6929e-001
17 0 +8.284555341e+001 +8.870555341e+001 +8.870555341e+001 -2.8909e+000 -1.2837e+000
23 0 +3.223169271e+001 +3.809169271e+001 +3.809169271e+001 -4.1952e+000 +3.9040e+000
31 0 +6.923693708e+000 +1.278369371e+001 +1.278369371e+001 -3.6869e+000 +1.4414e+000
67 0 +2.980767193e+000 +8.840767193e+000 +8.840767193e+000 -3.6730e+000 +1.4867e+000
105 0 +2.446596688e+000 +8.306596688e+000 +8.306596688e+000 -3.6479e+000 +1.4537e+000
193 0 +2.183735395e+000 +8.043735395e+000 +8.043735395e+000 -3.7521e+000 +2.0995e+000
214 0 +2.075697915e+000 +7.935697915e+000 +7.935697915e+000 -3.7034e+000 +1.8022e+000
234 0 +3.794152718e-001 +6.239415272e+000 +6.239415272e+000 -3.7297e+000 +1.9034e+000
278 0 +1.288292550e-001 +5.988829255e+000 +5.988829255e+000 -3.7507e+000 +2.0206e+000
309 0 +1.098250215e-001 +5.969825022e+000 +5.969825022e+000 -3.7514e+000 +2.0166e+000
342 0 +1.010869364e-001 +5.961086936e+000 +5.961086936e+000 -3.7552e+000 +2.0464e+000
348 0 +7.291015761e-002 +5.932910158e+000 +5.932910158e+000 -3.7616e+000 +2.0786e+000
547 0 +6.628071112e-002 +5.926280711e+000 +5.926280711e+000 -3.7622e+000 +2.0829e+000
588 0 +5.595936676e-002 +5.915959367e+000 +5.915959367e+000 -3.7594e+000 +2.0695e+000
591 0 +2.288885065e-002 +5.882888851e+000 +5.882888851e+000 -3.7583e+000 +2.0617e+000
619 0 +4.607583614e-003 +5.864607584e+000 +5.864607584e+000 -3.7571e+000 +2.0542e+000
919 0 +1.043888542e-003 +5.861043889e+000 +5.861043889e+000 -3.7505e+000 +2.0148e+000
973 0 +8.923481996e-004 +5.860892348e+000 +5.860892348e+000 -3.7505e+000 +2.0151e+000
1002 0 +7.353421372e-004 +5.860735342e+000 +5.860735342e+000 -3.7504e+000 +2.0145e+000
1013 0 +1.334476973e-004 +5.860133448e+000 +5.860133448e+000 -3.7505e+000 +2.0151e+000
1173 0 +6.600509440e-005 +5.860066005e+000 +5.860066005e+000 -3.7505e+000 +2.0149e+000
1411 0 +3.476921433e-005 +5.860034769e+000 +5.860034769e+000 -3.7507e+000 +2.0165e+000
1456 0 +1.162179006e-006 +5.860001162e+000 +5.860001162e+000 -3.7512e+000 +2.0190e+000
1686 0 +1.141341754e-006 +5.860001141e+000 +5.860001141e+000 -3.7511e+000 +2.0188e+000
1923 0 +6.203745855e-007 +5.860000620e+000 +5.860000620e+000 -3.7511e+000 +2.0188e+000
1944 0 +5.301208912e-007 +5.860000530e+000 +5.860000530e+000 -3.7511e+000 +2.0188e+000
2147 0 +4.964894345e-007 +5.860000496e+000 +5.860000496e+000 -3.7511e+000 +2.0188e+000
2225 0 +4.760312509e-007 +5.860000476e+000 +5.860000476e+000 -3.7511e+000 +2.0188e+000
2259 0 +3.904869006e-007 +5.860000390e+000 +5.860000390e+000 -3.7511e+000 +2.0189e+000
2293 0 +3.317251842e-007 +5.860000332e+000 +5.860000332e+000 -3.7512e+000 +2.0189e+000
2337 0 +2.876402521e-007 +5.860000288e+000 +5.860000288e+000 -3.7512e+000 +2.0189e+000
2389 0 +2.705559385e-007 +5.860000271e+000 +5.860000271e+000 -3.7512e+000 +2.0189e+000
2425 0 +2.196375215e-007 +5.860000220e+000 +5.860000220e+000 -3.7512e+000 +2.0190e+000
2462 0 +2.062842706e-007 +5.860000206e+000 +5.860000206e+000 -3.7512e+000 +2.0190e+000
2532 0 +1.991495004e-007 +5.860000199e+000 +5.860000199e+000 -3.7512e+000 +2.0190e+000
2567 0 +1.289571507e-007 +5.860000129e+000 +5.860000129e+000 -3.7512e+000 +2.0191e+000
2573 0 +1.236056768e-007 +5.860000124e+000 +5.860000124e+000 -3.7512e+000 +2.0191e+000
2629 0 +3.850117469e-008 +5.860000039e+000 +5.860000039e+000 -3.7512e+000 +2.0192e+000
2643 0 +1.381130765e-008 +5.860000014e+000 +5.860000014e+000 -3.7512e+000 +2.0192e+000
2691 0 +8.719376332e-009 +5.860000009e+000 +5.860000009e+000 -3.7512e+000 +2.0192e+000
% f evaluations | g evaluations | best noise-free fitness - Fopt (2.048600000000e+002) + sum g_i+ | measured fitness | best measured fitness or single-digit g-values | x1 | x2...
1 0 +8.410576488e+002 +1.045917649e+003 +1.045917649e+003 -5.0000e+000 -5.0000e+000
4 0 +7.266444107e+002 +9.315044107e+002 +9.315044107e+002 -4.5995e+000 -4.5753e+000
6 0 +2.722798413e+002 +4.771398413e+002 +4.771398413e+002 -1.4040e+000 -5.0000e+000
8 0 +2.643407695e+002 +4.692007695e+002 +4.692007695e+002 -1.4327e+000 -5.0000e+000
11 0 +1.325925380e+002 +3.374525380e+002 +3.374525380e+002 -2.4461e+000 -2.5805e+000
15 0 +2.555638034e+001 +2.304163803e+002 +2.304163803e+002 -2.2957e+000 -4.7513e+000
26 0 +1.261449145e+001 +2.174744914e+002 +2.174744914e+002 -2.0437e+000 -3.0257e+000
61 0 +1.159485502e+001 +2.164548550e+002 +2.164548550e+002 -2.0178e+000 -2.8207e+000
120 0 +7.049256917e+000 +2.119092569e+002 +2.119092569e+002 -2.0168e+000 -2.7000e+000
142 0 +6.519162501e+000 +2.113791625e+002 +2.113791625e+002 -1.8734e+000 -1.3250e+000
143 0 +6.359166299e+000 +2.112191663e+002 +2.112191663e+002 -1.8740e+000 -1.3347e+000
161 0 +3.829940841e+000 +2.086899408e+002 +2.086899408e+002 -1.9743e+000 -2.3156e+000
179 0 +3.236195232e+000 +2.080961952e+002 +2.080961952e+002 -1.9345e+000 -1.9498e+000
201 0 +2.316052269e+000 +2.071760523e+002 +2.071760523e+002 -1.9311e+000 -1.9618e+000
236 0 +2.241211849e+000 +2.071012118e+002 +2.071012118e+002 -1.9261e+000 -1.9226e+000
275 0 +1.589323273e+000 +2.064493233e+002 +2.064493233e+002 -1.9080e+000 -1.7681e+000
345 0 +4.975237675e-001 +2.053575238e+002 +2.053575238e+002 -1.7772e+000 -7.3157e-001
423 0 +4.325399391e-001 +2.052925399e+002 +2.052925399e+002 -1.7398e+000 -4.2727e-001
451 0 +1.580768915e-001 +2.050180769e+002 +2.050180769e+002 -1.8041e+000 -9.3607e-001
457 0 +4.362091367e-002 +2.049036209e+002 +2.049036209e+002 -1.7797e+000 -7.3907e-001
593 0 +4.086378153e-002 +2.049008638e+002 +2.049008638e+002 -1.7795e+000 -7.3716e-001
705 0 +1.157443788e-002 +2.048715744e+002 +2.048715744e+002 -1.7777e+000 -7.2177e-001
763 0 +9.789074499e-003 +2.048697891e+002 +2.048697891e+002 -1.7753e+000 -7.0247e-001
834 0 +7.329804806e-003 +2.048673298e+002 +2.048673298e+002 -1.7753e+000 -7.0259e-001
854 0 +6.913802493e-003 +2.048669138e+002 +2.048669138e+002 -1.7744e+000 -6.9580e-001
874 0 +6.706589906e-003 +2.048667066e+002 +2.048667066e+002 -1.7739e+000 -6.9145e-001
1004 0 +5.542296767e-003 +2.048655423e+002 +2.048655423e+002 -1.7699e+000 -6.5975e-001
1020 0 +3.475428602e-003 +2.048634754e+002 +2.048634754e+002 -1.7660e+000 -6.2791e-001
1025 0 +1.348399736e-003 +2.048613484e+002 +2.048613484e+002 -1.7701e+000 -6.6059e-001
1204 0 +6.954932286e-004 +2.048606955e+002 +2.048606955e+002 -1.7683e+000 -6.4661e-001
1222 0 +3.008954683e-004 +2.048603009e+002 +2.048603009e+002 -1.7691e+000 -6.5264e-001
1224 0 +2.794285373e-005 +2.048600279e+002 +2.048600279e+002 -1.7693e+000 -6.5424e-001
1406 0 +1.294116865e-005 +2.048600129e+002 +2.048600129e+002 -1.7685e+000 -6.4767e-001
1547 0 +1.182109818e-005 +2.048600118e+002 +2.048600118e+002 -1.7685e+000 -6.4817e-001
1558 0 +6.723622221e-006 +2.048600067e+002 +2.048600067e+002 -1.7685e+000 -6.4807e-001
1570 0 +4.121866567e-006 +2.048600041e+002 +2.048600041e+002 -1.7687e+000 -6.4989e-001
1592 0 +8.009771761e-007 +2.048600008e+002 +2.048600008e+002 -1.7687e+000 -6.4983e-001
1630 0 +7.462350027e-007 +2.048600007e+002 +2.048600007e+002 -1.7688e+000 -6.5017e-001
1944 0 +6.028899122e-007 +2.048600006e+002 +2.048600006e+002 -1.7688e+000 -6.5023e-001
1952 0 +4.895498762e-007 +2.048600005e+002 +2.048600005e+002 -1.7688e+000 -6.5017e-001
1964 0 +3.616099491e-007 +2.048600004e+002 +2.048600004e+002 -1.7688e+000 -6.5023e-001
2002 0 +3.399562445e-007 +2.048600003e+002 +2.048600003e+002 -1.7687e+000 -6.4998e-001
2108 0 +3.238800730e-007 +2.048600003e+002 +2.048600003e+002 -1.7688e+000 -6.5005e-001
2145 0 +2.118323721e-007 +2.048600002e+002 +2.048600002e+002 -1.7688e+000 -6.5004e-001
2279 0 +1.124134883e-007 +2.048600001e+002 +2.048600001e+002 -1.7688e+000 -6.5020e-001
2314 0 +8.951869290e-008 +2.048600001e+002 +2.048600001e+002 -1.7688e+000 -6.5019e-001
2360 0 +7.498846344e-008 +2.048600001e+002 +2.048600001e+002 -1.7688e+000 -6.5019e-001
2430 0 +5.363693845e-008 +2.048600001e+002 +2.048600001e+002 -1.7688e+000 -6.5019e-001
2493 0 +2.134737542e-008 +2.048600000e+002 +2.048600000e+002 -1.7688e+000 -6.5035e-001
2589 0 +5.085297516e-009 +2.048600000e+002 +2.048600000e+002 -1.7688e+000 -6.5037e-001
% f evaluations | g evaluations | best noise-free fitness - Fopt (1.154900000000e+002) + sum g_i+ | measured fitness | best measured fitness or single-digit g-values | x1 | x2...
1 0 +1.358493762e+003 +1.473983762e+003 +1.473983762e+003 +5.0000e+000 -5.0000e+000
2 0 +3.491991056e+002 +4.646891056e+002 +4.646891056e+002 -5.0000e+000 -5.0000e+000
7 0 +2.392571869e+002 +3.547471869e+002 +3.547471869e+002 -4.0416e+000 +1.1415e-001
9 0 +5.639042861e+001 +1.718804286e+002 +1.718804286e+002 -2.8041e+000 -1.1601e-001
30 0 +3.376429414e+001 +1.492542941e+002 +1.492542941e+002 -2.5599e+000 -2.9606e+000
31 0 +3.072590444e+001 +1.462159044e+002 +1.462159044e+002 -2.6631e+000 -6.6241e-001
39 0 +2.715471258e+001 +1.426447126e+002 +1.426447126e+002 -2.1993e+000 -2.0494e+000
40 0 +1.566726794e+001 +1.311572679e+002 +1.311572679e+002 -2.3904e+000 -7.3053e-001
62 0 +1.462978180e+001 +1.301197818e+002 +1.301197818e+002 -2.3031e+000 -1.7772e+000
76 0 +9.087838784e+000 +1.245778388e+002 +1.245778388e+002 -2.3590e+000 -1.5463e+000
79 0 +8.527338010e+000 +1.240173380e+002 +1.240173380e+002 -2.3700e+000 -1.4508e+000
129 0 +6.514712400e+000 +1.220047124e+002 +1.220047124e+002 -2.3720e+000 -2.5963e+000
156 0 +2.328657982e+000 +1.178186580e+002 +1.178186580e+002 -2.3983e+000 -1.9145e+000
210 0 +1.046278645e+000 +1.165362786e+002 +1.165362786e+002 -2.4423e+000 -1.3308e+000
218 0 +8.372732975e-001 +1.163272733e+002 +1.163272733e+002 -2.4383e+000 -1.3968e+000
250 0 +7.258086381e-001 +1.162158086e+002 +1.162158086e+002 -2.4419e+000 -1.3654e+000
284 0 +1.991922736e-001 +1.156891923e+002 +1.156891923e+002 -2.4247e+000 -1.6765e+000
359 0 +1.334078844e-001 +1.156234079e+002 +1.156234079e+002 -2.4314e+000 -1.5705e+000
414 0 +8.043512235e-002 +1.155704351e+002 +1.155704351e+002 -2.4308e+000 -1.6010e+000
429 0 +4.691943070e-002 +1.155369194e+002 +1.155369194e+002 -2.4273e+000 -1.6512e+000
474 0 +3.983465212e-002 +1.155298347e+002 +1.155298347e+002 -2.4289e+000 -1.6335e+000
580 0 +1.905371424e-002 +1.155090537e+002 +1.155090537e+002 -2.4252e+000 -1.6949e+000
594 0 +1.164824131e-002 +1.155016482e+002 +1.155016482e+002 -2.4279e+000 -1.6485e+000
630 0 +2.741444691e-003 +1.154927414e+002 +1.154927414e+002 -2.4276e+000 -1.6516e+000
648 0 +1.370774408e-003 +1.154913708e+002 +1.154913708e+002 -2.4277e+000 -1.6503e+000
773 0 +1.159754277e-003 +1.154911598e+002 +1.154911598e+002 -2.4277e+000 -1.6506e+000
914 0 +8.467431119e-004 +1.154908467e+002 +1.154908467e+002 -2.4276e+000 -1.6525e+000
945 0 +7.347453564e-004 +1.154907347e+002 +1.154907347e+002 -2.4276e+000 -1.6517e+000
1006 0 +6.142752335e-005 +1.154900614e+002 +1.154900614e+002 -2.4273e+000 -1.6589e+000
1058 0 +5.058560185e-005 +1.154900506e+002 +1.154900506e+002 -2.4273e+000 -1.6588e+000
1119 0 +1.448561115e-005 +1.154900145e+002 +1.154900145e+002 -2.4273e+000 -1.6589e+000
1174 0 +1.174496508e-005 +1.154900117e+002 +1.154900117e+002 -2.4273e+000 -1.6589e+000
1181 0 +1.023596295e-005 +1.154900102e+002 +1.154900102e+002 -2.4273e+000 -1.6589e+000
1224 0 +5.671517343e-006 +1.154900057e+002 +1.154900057e+002 -2.4272e+000 -1.6593e+000
1232 0 +4.788498288e-006 +1.154900048e+002 +1.154900048e+002 -2.4272e+000 -1.6593e+000
1241 0 +3.804412600e-006 +1.154900038e+002 +1.154900038e+002 -2.4272e+000 -1.6594e+000
1386 0 +3.643013173e-006 +1.154900036e+002 +1.154900036e+002 -2.4272e+000 -1.6595e+000
1483 0 +3.174767230e-006 +1.154900032e+002 +1.154900032e+002 -2.4272e+000 -1.6597e+000
1508 0 +2.537902574e-006 +1.154900025e+002 +1.154900025e+002 -2.4272e+000 -1.6598e+000
1526 0 +2.032957838e-006 +1.154900020e+002 +1.154900020e+002 -2.4272e+000 -1.6595e+000
1562 0 +1.377461771e-006 +1.154900014e+002 +1.154900014e+002 -2.4272e+000 -1.6596e+000
1582 0 +1.190469391e-006 +1.154900012e+002 +1.154900012e+002 -2.4272e+000 -1.6596e+000
1617 0 +7.325985933e-007 +1.154900007e+002 +1.154900007e+002 -2.4272e+000 -1.6597e+000
1786 0 +6.240205579e-007 +1.154900006e+002 +1.154900006e+002 -2.4272e+000 -1.6597e+000
1821 0 +5.149973532e-007 +1.154900005e+002 +1.154900005e+002 -2.4272e+000 -1.6597e+000
1866 0 +3.918169256e-007 +1.154900004e+002 +1.154900004e+002 -2.4272e+000 -1.6600e+000
1882 0 +2.849828604e-007 +1.154900003e+002 +1.154900003e+002 -2.4272e+000 -1.6600e+000
1908 0 +2.790615810e-007 +1.154900003e+002 +1.154900003e+002 -2.4272e+000 -1.6599e+000
1930 0 +2.542319493e-007 +1.154900003e+002 +1.154900003e+002 -2.4272e+000 -1.6599e+000
1953 0 +2.467613172e-007 +1.154900002e+002 +1.154900002e+002 -2.4272e+000 -1.6599e+000
2052 0 +1.468008435e-007 +1.154900001e+002 +1.154900001e+002 -2.4272e+000 -1.6599e+000
2056 0 +1.138858892e-007 +1.154900001e+002 +1.154900001e+002 -2.4272e+000 -1.6599e+000
2108 0 +9.422032576e-008 +1.154900001e+002 +1.154900001e+002 -2.4272e+000 -1.6600e+000
2165 0 +3.546216476e-008 +1.154900000e+002 +1.154900000e+002 -2.4272e+000 -1.6601e+000
2229 0 +3.109956026e-008 +1.154900000e+002 +1.154900000e+002 -2.4272e+000 -1.6601e+000
2356 0 +2.864734938e-008 +1.154900000e+002 +1.154900000e+002 -2.4272e+000 -1.6601e+000
2360 0 +2.697021273e-008 +1.154900000e+002 +1.154900000e+002 -2.4272e+000 -1.6601e+000
2471 0 +2.524414811e-008 +1.154900000e+002 +1.154900000e+002 -2.4272e+000 -1.6601e+000
2519 0 +1.531437022e-008 +1.154900000e+002 +1.154900000e+002 -2.4272e+000 -1.6600e+000
2539 0 +1.370617042e-008 +1.154900000e+002 +1.154900000e+002 -2.4272e+000 -1.6600e+000
2550 0 +1.123822813e-008 +1.154900000e+002 +1.154900000e+002 -2.4272e+000 -1.6600e+000
2558 0 +9.718860383e-009 +1.154900000e+002 +1.154900000e+002 -2.4272e+000 -1.6600e+000
% f evaluations | g evaluations | best noise-free fitness - Fopt (1.950500000000e+002) + sum g_i+ | measured fitness | best measured fitness or single-digit g-values | x1 | x2...
1 0 +1.028095019e+003 +1.223145019e+003 +1.223145019e+003 +5.0000e+000 +5.0000e+000
3 0 +1.000636538e+003 +1.195686538e+003 +1.195686538e+003 +5.0000e+000 -5.0000e+000
4 0 +9.884887353e+002 +1.183538735e+003 +1.183538735e+003 +5.0000e+000 -3.9493e+000
5 0 +9.764327332e+002 +1.171482733e+003 +1.171482733e+003 +5.0000e+000 -2.2768e+000
6 0 +7.251578515e+001 +2.675657852e+002 +2.675657852e+002 +7.0034e-001 -3.9049e+000
8 0 +1.002522140e+001 +2.050752214e+002 +2.050752214e+002 +7.7238e-001 -4.1272e-001
30 0 +6.188958182e+000 +2.012389582e+002 +2.012389582e+002 +7.8280e-001 -4.9562e-001
39 0 +6.028018344e+000 +2.010780183e+002 +2.010780183e+002 +7.6941e-001 -1.1116e+000
64 0 +3.369751521e+000 +1.984197515e+002 +1.984197515e+002 +7.6291e-001 -1.0574e+000
90 0 +1.809685068e+000 +1.968596851e+002 +1.968596851e+002 +7.6053e-001 -1.0129e+000
166 0 +1.256143513e+000 +1.963061435e+002 +1.963061435e+002 +8.5480e-001 +3.7922e-002
175 0 +9.309850725e-001 +1.959809851e+002 +1.959809851e+002 +8.3076e-001 -2.3077e-001
186 0 +2.549472393e-001 +1.953049472e+002 +1.953049472e+002 +8.2886e-001 -2.8554e-001
212 0 +1.335019905e-001 +1.951835020e+002 +1.951835020e+002 +8.2913e-001 -2.8866e-001
237 0 +7.759965250e-002 +1.951275997e+002 +1.951275997e+002 +8.3178e-001 -2.6466e-001
281 0 +6.517134863e-002 +1.951151713e+002 +1.951151713e+002 +8.3716e-001 -2.0903e-001
458 0 +6.091363472e-002 +1.951109136e+002 +1.951109136e+002 +8.3697e-001 -2.1079e-001
560 0 +3.696714044e-002 +1.950869671e+002 +1.950869671e+002 +8.3830e-001 -1.9595e-001
615 0 +2.617669914e-002 +1.950761767e+002 +1.950761767e+002 +8.3762e-001 -2.0202e-001
617 0 +2.396099530e-002 +1.950739610e+002 +1.950739610e+002 +8.4006e-001 -1.7720e-001
649 0 +2.050569681e-002 +1.950705057e+002 +1.950705057e+002 +8.4125e-001 -1.6467e-001
656 0 +1.841378971e-002 +1.950684138e+002 +1.950684138e+002 +8.4095e-001 -1.6773e-001
670 0 +1.651637063e-002 +1.950665164e+002 +1.950665164e+002 +8.4181e-001 -1.5867e-001
691 0 +1.066346603e-002 +1.950606635e+002 +1.950606635e+002 +8.4291e-001 -1.4699e-001
706 0 +5.866367730e-003 +1.950558664e+002 +1.950558664e+002 +8.4862e-001 -8.6937e-002
727 0 +3.880363725e-003 +1.950538804e+002 +1.950538804e+002 +8.4713e-001 -1.0211e-001
758 0 +2.624171273e-003 +1.950526242e+002 +1.950526242e+002 +8.4714e-001 -1.0205e-001
759 0 +1.439714404e-003 +1.950514397e+002 +1.950514397e+002 +8.4758e-001 -9.7531e-002
896 0 +1.312231086e-003 +1.950513122e+002 +1.950513122e+002 +8.4613e-001 -1.1288e-001
909 0 +3.450416827e-004 +1.950503450e+002 +1.950503450e+002 +8.4701e-001 -1.0363e-001
1012 0 +3.361418890e-004 +1.950503361e+002 +1.950503361e+002 +8.4707e-001 -1.0295e-001
1092 0 +1.739208230e-004 +1.950501739e+002 +1.950501739e+002 +8.4712e-001 -1.0246e-001
1113 0 +5.587474314e-005 +1.950500559e+002 +1.950500559e+002 +8.4692e-001 -1.0458e-001
1201 0 +4.682200236e-005 +1.950500468e+002 +1.950500468e+002 +8.4687e-001 -1.0509e-001
1231 0 +2.019479575e-005 +1.950500202e+002 +1.950500202e+002 +8.4727e-001 -1.0088e-001
1267 0 +7.652140397e-006 +1.950500077e+002 +1.950500077e+002 +8.4715e-001 -1.0216e-001
1466 0 +5.661507828e-006 +1.950500057e+002 +1.950500057e+002 +8.4715e-001 -1.0211e-001
1527 0 +3.828378453e-006 +1.950500038e+002 +1.950500038e+002 +8.4715e-001 -1.0212e-001
1609 0 +3.749862714e-006 +1.950500037e+002 +1.950500037e+002 +8.4715e-001 -1.0214e-001
1634 0 +2.801456191e-006 +1.950500028e+002 +1.950500028e+002 +8.4715e-001 -1.0213e-001
1655 0 +1.238204504e-006 +1.950500012e+002 +1.950500012e+002 +8.4714e-001 -1.0218e-001
1730 0 +8.736646180e-007 +1.950500009e+002 +1.950500009e+002 +8.4714e-001 -1.0220e-001
2049 0 +8.450728330e-007 +1.950500008e+002 +1.950500008e+002 +8.4714e-001 -1.0220e-001
2064 0 +8.080366740e-007 +1.950500008e+002 +1.950500008e+002 +8.4714e-001 -1.0220e-001
2135 0 +7.752593092e-007 +1.950500008e+002 +1.950500008e+002 +8.4715e-001 -1.0217e-001
2150 0 +7.392369810e-007 +1.950500007e+002 +1.950500007e+002 +8.4715e-001 -1.0215e-001
2183 0 +6.966554054e-007 +1.950500007e+002 +1.950500007e+002 +8.4715e-001 -1.0214e-001
2188 0 +6.753168122e-007 +1.950500007e+002 +1.950500007e+002 +8.4715e-001 -1.0213e-001
2254 0 +6.321780006e-007 +1.950500006e+002 +1.950500006e+002 +8.4715e-001 -1.0211e-001
2331 0 +4.913342195e-007 +1.950500005e+002 +1.950500005e+002 +8.4716e-001 -1.0206e-001
2342 0 +4.846847048e-007 +1.950500005e+002 +1.950500005e+002 +8.4716e-001 -1.0206e-001
2363 0 +4.660140007e-007 +1.950500005e+002 +1.950500005e+002 +8.4716e-001 -1.0206e-001
2499 0 +4.388255093e-007 +1.950500004e+002 +1.950500004e+002 +8.4716e-001 -1.0204e-001
2546 0 +4.202206298e-007 +1.950500004e+002 +1.950500004e+002 +8.4716e-001 -1.0199e-001
2553 0 +3.122838734e-007 +1.950500003e+002 +1.950500003e+002 +8.4716e-001 -1.0198e-001
2558 0 +2.596328841e-007 +1.950500003e+002 +1.950500003e+002 +8.4717e-001 -1.0194e-001
2586 0 +2.414906248e-007 +1.950500002e+002 +1.950500002e+002 +8.4717e-001 -1.0193e-001
2603 0 +1.267709990e-007 +1.950500001e+002 +1.950500001e+002 +8.4718e-001 -1.0182e-001
2611 0 +4.732945058e-008 +1.950500000e+002 +1.950500000e+002 +8.4719e-001 -1.0171e-001
2617 0 +3.207023269e-008 +1.950500000e+002 +1.950500000e+002 +8.4719e-001 -1.0168e-001
2621 0 +1.678961326e-008 +1.950500000e+002 +1.950500000e+002 +8.4720e-001 -1.0165e-001
2667 0 +7.689692438e-009 +1.950500000e+002 +1.950500000e+002 +8.4720e-001 -1.0159e-001
% f evaluations | g evaluations | best noise-free fitness - Fopt (-2.144800000000e+002) + sum g_i+ | measured fitness | best measured fitness or single-digit g-values | x1 | x2...
1 0 +2.614253912e+003 +2.399773912e+003 +2.399773912e+003 -5.0000e+000 -5.0000e+000
2 0 +4.087063294e+002 +1.942263294e+002 +1.942263294e+002 +5.0000e+000 -5.0000e+000
5 0 +3.693352010e+002 +1.548552010e+002 +1.548552010e+002 +1.5347e+000 -1.5347e+000
9 0 +1.661787264e+002 -4.830127361e+001 -4.830127361e+001 +7.2314e-001 +1.8122e-001
20 0 +4.530581877e+001 -1.691741812e+002 -1.691741812e+002 +1.4540e+000 +2.1134e-001
47 0 +3.005258616e+001 -1.844274138e+002 -1.844274138e+002 +6.6421e-001 +1.0282e+000
55 0 +2.290468444e+001 -1.915753156e+002 -1.915753156e+002 +5.7542e-001 +1.0923e+000
74 0 +8.054976389e+000 -2.064250236e+002 -2.064250236e+002 -5.4109e-002 +1.7003e+000
104 0 +3.919187149e+000 -2.105608129e+002 -2.105608129e+002 -6.8820e-001 +2.3969e+000
124 0 +3.848279947e+000 -2.106317201e+002 -2.106317201e+002 -1.3738e+000 +3.1054e+000
221 0 +1.867454869e+000 -2.126125451e+002 -2.126125451e+002 -9.0453e-001 +2.6179e+000
233 0 +6.458184660e-001 -2.138341815e+002 -2.138341815e+002 -1.2767e+000 +3.0201e+000
369 0 +6.452944665e-001 -2.138347055e+002 -2.138347055e+002 -1.2763e+000 +3.0196e+000
503 0 +4.089265036e-001 -2.140710735e+002 -2.140710735e+002 -1.3809e+000 +3.1293e+000
525 0 +1.134726382e-001 -2.143665274e+002 -2.143665274e+002 -1.4991e+000 +3.2566e+000
601 0 +9.770753103e-002 -2.143822925e+002 -2.143822925e+002 -1.7611e+000 +3.5378e+000
603 0 +5.448923204e-002 -2.144255108e+002 -2.144255108e+002 -1.7789e+000 +3.5562e+000
693 0 +5.185676137e-002 -2.144281432e+002 -2.144281432e+002 -1.8191e+000 +3.5994e+000
794 0 +4.820393218e-002 -2.144317961e+002 -2.144317961e+002 -1.8238e+000 +3.6044e+000
817 0 +3.994364076e-002 -2.144400564e+002 -2.144400564e+002 -1.7988e+000 +3.5777e+000
860 0 +2.814402968e-002 -2.144518560e+002 -2.144518560e+002 -1.7885e+000 +3.5666e+000
888 0 +8.094416076e-003 -2.144719056e+002 -2.144719056e+002 -1.6965e+000 +3.4682e+000
1025 0 +5.986750625e-003 -2.144740132e+002 -2.144740132e+002 -1.7221e+000 +3.4955e+000
1066 0 +4.022390449e-003 -2.144759776e+002 -2.144759776e+002 -1.7122e+000 +3.4850e+000
1096 0 +3.421106885e-003 -2.144765789e+002 -2.144765789e+002 -1.7130e+000 +3.4858e+000
1141 0 +2.877569272e-003 -2.144771224e+002 -2.144771224e+002 -1.6588e+000 +3.4279e+000
1271 0 +1.712194761e-003 -2.144782878e+002 -2.144782878e+002 -1.6540e+000 +3.4226e+000
1291 0 +8.589815797e-004 -2.144791410e+002 -2.144791410e+002 -1.6788e+000 +3.4492e+000
1297 0 +8.241297723e-004 -2.144791759e+002 -2.144791759e+002 -1.6802e+000 +3.4508e+000
1371 0 +6.296579797e-004 -2.144793703e+002 -2.144793703e+002 -1.6678e+000 +3.4375e+000
1381 0 +1.923952167e-004 -2.144798076e+002 -2.144798076e+002 -1.6857e+000 +3.4567e+000
1511 0 +2.150678952e-005 -2.144799785e+002 -2.144799785e+002 -1.6814e+000 +3.4520e+000
1533 0 +2.050842616e-005 -2.144799795e+002 -2.144799795e+002 -1.6795e+000 +3.4500e+000
1663 0 +6.093490214e-006 -2.144799939e+002 -2.144799939e+002 -1.6791e+000 +3.4495e+000
1746 0 +4.839036222e-006 -2.144799952e+002 -2.144799952e+002 -1.6788e+000 +3.4493e+000
1900 0 +4.525948896e-006 -2.144799955e+002 -2.144799955e+002 -1.6790e+000 +3.4495e+000
1964 0 +3.421555277e-006 -2.144799966e+002 -2.144799966e+002 -1.6790e+000 +3.4494e+000
1978 0 +2.900045445e-006 -2.144799971e+002 -2.144799971e+002 -1.6789e+000 +3.4494e+000
2049 0 +1.798061902e-006 -2.144799982e+002 -2.144799982e+002 -1.6790e+000 +3.4494e+000
2054 0 +1.500153559e-006 -2.144799985e+002 -2.144799985e+002 -1.6790e+000 +3.4495e+000
2152 0 +1.429063474e-006 -2.144799986e+002 -2.144799986e+002 -1.6790e+000 +3.4494e+000
2153 0 +1.151303678e-006 -2.144799988e+002 -2.144799988e+002 -1.6790e+000 +3.4494e+000
2208 0 +8.317437903e-007 -2.144799992e+002 -2.144799992e+002 -1.6790e+000 +3.4494e+000
2289 0 +7.809585725e-007 -2.144799992e+002 -2.144799992e+002 -1.6790e+000 +3.4494e+000
2476 0 +7.314025368e-007 -2.144799993e+002 -2.144799993e+002 -1.6790e+000 +3.4494e+000
2508 0 +7.011873322e-007 -2.144799993e+002 -2.144799993e+002 -1.6790e+000 +3.4494e+000
2572 0 +6.826625736e-007 -2.144799993e+002 -2.144799993e+002 -1.6789e+000 +3.4494e+000
2583 0 +6.521227078e-007 -2.144799993e+002 -2.144799993e+002 -1.6789e+000 +3.4494e+000
2620 0 +6.379997899e-007 -2.144799994e+002 -2.144799994e+002 -1.6789e+000 +3.4494e+000
2666 0 +6.074780572e-007 -2.144799994e+002 -2.144799994e+002 -1.6789e+000 +3.4493e+000
2667 0 +5.920053638e-007 -2.144799994e+002 -2.144799994e+002 -1.6789e+000 +3.4493e+000
2692 0 +5.676324406e-007 -2.144799994e+002 -2.144799994e+002 -1.6789e+000 +3.4493e+000
2717 0 +5.395297933e-007 -2.144799995e+002 -2.144799995e+002 -1.6789e+000 +3.4493e+000
2718 0 +5.341450731e-007 -2.144799995e+002 -2.144799995e+002 -1.6789e+000 +3.4493e+000
2721 0 +5.206690901e-007 -2.144799995e+002 -2.144799995e+002 -1.6789e+000 +3.4493e+000
2735 0 +4.719070716e-007 -2.144799995e+002 -2.144799995e+002 -1.6788e+000 +3.4493e+000
2758 0 +4.168926182e-007 -2.144799996e+002 -2.144799996e+002 -1.6788e+000 +3.4492e+000
2759 0 +3.404760491e-007 -2.144799997e+002 -2.144799997e+002 -1.6788e+000 +3.4492e+000
2766 0 +2.395651961e-007 -2.144799998e+002 -2.144799998e+002 -1.6787e+000 +3.4491e+000
2775 0 +1.294114895e-007 -2.144799999e+002 -2.144799999e+002 -1.6786e+000 +3.4490e+000
2776 0 +1.224728976e-007 -2.144799999e+002 -2.144799999e+002 -1.6786e+000 +3.4490e+000
2787 0 +8.013546449e-008 -2.144799999e+002 -2.144799999e+002 -1.6783e+000 +3.4487e+000
2795 0 +4.500955697e-008 -2.144800000e+002 -2.144800000e+002 -1.6784e+000 +3.4487e+000
2797 0 +3.180792874e-008 -2.144800000e+002 -2.144800000e+002 -1.6783e+000 +3.4487e+000
2839 0 +2.389006681e-008 -2.144800000e+002 -2.144800000e+002 -1.6783e+000 +3.4487e+000
2947 0 +5.073019338e-009 -2.144800000e+002 -2.144800000e+002 -1.6784e+000 +3.4488e+000
% f evaluations | g evaluations | best noise-free fitness - Fopt (-4.590000000000e+001) + sum g_i+ | measured fitness | best measured fitness or single-digit g-values | x1 | x2...
1 0 +1.280277976e+003 +1.234377976e+003 +1.234377976e+003 -5.0000e+000 +5.0000e+000
3 0 +9.295544315e+002 +8.836544315e+002 +8.836544315e+002 -5.0000e+000 -5.0000e+000
4 0 +5.276288771e+002 +4.817288771e+002 +4.817288771e+002 -5.0000e+000 +1.2242e+000
5 0 +3.636909888e+002 +3.177909888e+002 +3.177909888e+002 -5.0000e+000 +3.0966e-001
7 0 +2.025446965e+002 +1.566446965e+002 +1.566446965e+002 -5.0000e+000 -6.3092e-001
8 0 +8.042146763e+001 +3.452146763e+001 +3.452146763e+001 -5.0000e+000 -1.3750e+000
20 0 +7.748503402e+001 +3.158503402e+001 +3.158503402e+001 -5.0000e+000 -1.3933e+000
48 0 +7.256770807e+001 +2.666770807e+001 +2.666770807e+001 -5.0000e+000 -1.4792e+000
54 0 +6.810019537e+001 +2.220019537e+001 +2.220019537e+001 -4.8960e+000 -1.4761e+000
55 0 +6.489801774e+001 +1.899801774e+001 +1.899801774e+001 -4.8960e+000 -1.4590e+000
113 0 +2.986988184e+001 -1.603011816e+001 -1.603011816e+001 -1.7020e+000 -1.4761e+000
132 0 +2.507263165e+001 -2.082736835e+001 -2.082736835e+001 -2.4090e+000 -1.6091e+000
133 0 +2.110359274e+001 -2.479640726e+001 -2.479640726e+001 +3.0400e-001 -1.5734e+000
138 0 +6.791339729e+000 -3.910866027e+001 -3.910866027e+001 +3.0400e-001 -1.6462e+000
150 0 +3.588882091e+000 -4.231111791e+001 -4.231111791e+001 -7.8001e-001 -1.6247e+000
161 0 +2.240722514e+000 -4.365927749e+001 -4.365927749e+001 -7.4360e-001 -1.6325e+000
172 0 +1.226156016e+000 -4.467384398e+001 -4.467384398e+001 +6.3216e-001 -1.6923e+000
264 0 +4.618733279e-001 -4.543812667e+001 -4.543812667e+001 +3.2290e-001 -1.6795e+000
345 0 +3.934278876e-001 -4.550657211e+001 -4.550657211e+001 +4.1540e-001 -1.6847e+000
358 0 +3.711614290e-001 -4.552883857e+001 -4.552883857e+001 +4.0412e-001 -1.6842e+000
407 0 +3.592798886e-002 -4.586407201e+001 -4.586407201e+001 -3.8701e-002 -1.6656e+000
506 0 +2.245490579e-002 -4.587754509e+001 -4.587754509e+001 -4.4013e-002 -1.6653e+000
559 0 +1.842576463e-002 -4.588157424e+001 -4.588157424e+001 -3.2207e-002 -1.6658e+000
580 0 +1.271567930e-002 -4.588728432e+001 -4.588728432e+001 +2.2851e-002 -1.6681e+000
732 0 +7.624742312e-003 -4.589237526e+001 -4.589237526e+001 +6.2938e-002 -1.6697e+000
812 0 +1.258092116e-003 -4.589874191e+001 -4.589874191e+001 +5.6307e-002 -1.6695e+000
897 0 +1.184326783e-003 -4.589881567e+001 -4.589881567e+001 +3.9591e-002 -1.6688e+000
1013 0 +1.098663764e-003 -4.589890134e+001 -4.589890134e+001 +4.7182e-002 -1.6691e+000
1133 0 +9.063155905e-004 -4.589909368e+001 -4.589909368e+001 +3.8108e-002 -1.6687e+000
1153 0 +7.297638113e-004 -4.589927024e+001 -4.589927024e+001 +2.9358e-002 -1.6683e+000
1159 0 +6.975494109e-005 -4.589993025e+001 -4.589993025e+001 +4.1048e-002 -1.6688e+000
1269 0 +5.627112096e-005 -4.589994373e+001 -4.589994373e+001 +4.1059e-002 -1.6688e+000
1296 0 +5.366534044e-005 -4.589994633e+001 -4.589994633e+001 +4.1076e-002 -1.6688e+000
1358 0 +4.507469388e-005 -4.589995493e+001 -4.589995493e+001 +4.0300e-002 -1.6688e+000
1372 0 +1.218976254e-005 -4.589998781e+001 -4.589998781e+001 +3.9341e-002 -1.6688e+000
1417 0 +4.126243290e-006 -4.589999587e+001 -4.589999587e+001 +3.9209e-002 -1.6688e+000
1563 0 +3.606871815e-006 -4.589999639e+001 -4.589999639e+001 +3.9014e-002 -1.6688e+000
1668 0 +2.836801968e-006 -4.589999716e+001 -4.589999716e+001 +3.9152e-002 -1.6688e+000
1686 0 +2.563330774e-006 -4.589999744e+001 -4.589999744e+001 +3.9131e-002 -1.6688e+000
1777 0 +2.180343778e-006 -4.589999782e+001 -4.589999782e+001 +3.9116e-002 -1.6688e+000
1875 0 +1.882089663e-006 -4.589999812e+001 -4.589999812e+001 +3.9174e-002 -1.6688e+000
2006 0 +1.820755564e-006 -4.589999818e+001 -4.589999818e+001 +3.9176e-002 -1.6688e+000
2098 0 +1.761271953e-006 -4.589999824e+001 -4.589999824e+001 +3.9368e-002 -1.6688e+000
2162 0 +1.717028773e-006 -4.589999828e+001 -4.589999828e+001 +3.9410e-002 -1.6688e+000
2163 0 +1.056898313e-006 -4.589999894e+001 -4.589999894e+001 +3.9473e-002 -1.6688e+000
2170 0 +4.593037701e-007 -4.589999954e+001 -4.589999954e+001 +3.9594e-002 -1.6688e+000
2230 0 +1.022674851e-007 -4.589999990e+001 -4.589999990e+001 +3.9812e-002 -1.6688e+000
2291 0 +4.672952514e-008 -4.589999995e+001 -4.589999995e+001 +4.0088e-002 -1.6688e+000
2332 0 +4.078098215e-008 -4.589999996e+001 -4.589999996e+001 +4.0092e-002 -1.6688e+000
2422 0 +3.747847188e-008 -4.589999996e+001 -4.589999996e+001 +4.0097e-002 -1.6688e+000
2777 0 +2.696150148e-008 -4.589999997e+001 -4.589999997e+001 +4.0049e-002 -1.6688e+000
2806 0 +2.423836065e-008 -4.589999998e+001 -4.589999998e+001 +4.0021e-002 -1.6688e+000
2829 0 +5.107409606e-009 -4.589999999e+001 -4.589999999e+001 +4.0022e-002 -1.6688e+000
