% f evaluations | g evaluations | best noise-free fitness - Fopt (7.948000000000e+001) + sum g_i+ | measured fitness | best measured fitness or single-digit g-values | x1 | x2...
1 0 +3.353404698e+002 +4.148204698e+002 +4.148204698e+002 -5.0000e+000 +5.0000e+000 -5.0000e+000 -5.0000e+000 +5.0000e+000 +5.0000e+000 -5.0000e+000 +5.0000e+000 -5.0000e+000 +5.0000e+000
2 0 +3.302844698e+002 +4.097644698e+002 +4.097644698e+002 +5.0000e+000 +5.0000e+000 -5.0000e+000 -5.0000e+000 +5.0000e+000 +5.0000e+000 -5.0000e+000 +5.0000e+000 -5.0000e+000 +5.0000e+000
3 0 +3.122044698e+002 +3.916844698e+002 +3.916844698e+002 -5.0000e+000 -5.0000e+000 -5.0000e+000 -5.0000e+000 +5.0000e+000 +5.0000e+000 -5.0000e+000 +5.0000e+000 -5.0000e+000 +5.0000e+000
5 0 +2.968124698e+002 +3.762924698e+002 +3.762924698e+002 -5.0000e+000 +5.0000e+000 -5.0000e+000 +5.0000e+000 +5.0000e+000 +5.0000e+000 -5.0000e+000 +5.0000e+000 -5.0000e+000 +5.0000e+000
6 0 +2.817244698e+002 +3.612044698e+002 +3.612044698e+002 -5.0000e+000 +5.0000e+000 -5.0000e+000 -5.0000e+000 -5.0000e+000 +5.0000e+000 -5.0000e+000 +5.0000e+000 -5.0000e+000 +5.0000e+000
11 0 +2.743164698e+002 +3.537964698e+002 +3.537964698e+002 -5.0000e+000 +5.0000e+000 -5.0000e+000 -5.0000e+000 +5.0000e+000 +5.0000e+000 -5.0000e+000 +5.0000e+000 -5.0000e+000 -5.0000e+000
12 0 +1.539804698e+002 +2.334604698e+002 +2.334604698e+002 +5.0000e+000 -5.0000e+000 -5.0000e+000 +5.0000e+000 -5.0000e+000 +5.0000e+000 -5.0000e+000 +5.0000e+000 -5.0000e+000 -5.0000e+000
19 0 +1.059388447e+002 +1.854188447e+002 +1.854188447e+002 +2.2280e+000 -4.8129e+000 -4.9980e+000 +2.4214e+000 -2.2413e+000 +4.9192e+000 -4.5784e+000 +4.7699e+000 -4.4350e+000 -2.3146e+000
22 0 +1.982115593e+001 +9.930115593e+001 +9.930115593e+001 +2.5933e-001 -1.1284e+000 -7.4906e-001 +1.8640e+000 -5.0000e+000 +4.4344e-001 -6.8778e-002 +2.7386e-002 -5.0000e+000 -1.2847e+000
28 0 +0.000000000e+000 +7.948000000e+001 +7.948000000e+001 +2.5280e-001 -1.1568e+000 -7.2400e-001 +1.9264e+000 -2.6808e+000 +4.3920e-001 -1.1680e-001 +1.2000e-001 -1.6376e+000 -3.0512e+000
% f evaluations | g evaluations | best noise-free fitness - Fopt (3.944800000000e+002) + sum g_i+ | measured fitness | best measured fitness or single-digit g-values | x1 | x2...
1 0 +3.400529754e+002 +7.345329754e+002 +7.345329754e+002 -5.0000e+000 -5.0000e+000 +5.0000e+000 -5.0000e+000 -5.0000e+000 -5.0000e+000 -5.0000e+000 +5.0000e+000 +5.0000e+000 -5.0000e+000
4 0 +2.640049754e+002 +6.584849754e+002 +6.584849754e+002 -5.0000e+000 -5.0000e+000 -5.0000e+000 -5.0000e+000 -5.0000e+000 -5.0000e+000 -5.0000e+000 +5.0000e+000 +5.0000e+000 -5.0000e+000
5 0 +2.619409754e+002 +6.564209754e+002 +6.564209754e+002 -5.0000e+000 -5.0000e+000 +5.0000e+000 +5.0000e+000 -5.0000e+000 -5.0000e+000 -5.0000e+000 +5.0000e+000 +5.0000e+000 -5.0000e+000
12 0 +7.016497536e+001 +4.646449754e+002 +4.646449754e+002 -5.0000e+000 -5.0000e+000 -5.0000e+000 +5.0000e+000 +5.0000e+000 -5.0000e+000 +5.0000e+000 -5.0000e+000 -5.0000e+000 -5.0000e+000
14 0 +3.162461361e+001 +4.261046136e+002 +4.261046136e+002 -5.0000e+000 -5.0000e+000 -5.0000e+000 +6.4793e-001 +6.4793e-001 -5.0000e+000 +6.4793e-001 -6.4793e-001 -6.4793e-001 -5.0000e+000
24 0 +2.565570975e+001 +4.201357097e+002 +4.201357097e+002 -1.6758e+000 -4.1704e+000 -4.5218e+000 +3.7439e+000 +1.1483e+000 +1.1323e-001 +4.5968e+000 -1.4010e+000 -3.5541e+000 -4.2202e+000
28 0 +0.000000000e+000 +3.944800000e+002 +3.944800000e+002 -3.8984e+000 -2.8904e+000 -3.8024e+000 +3.9056e+000 +8.5920e-001 -2.9048e+000 +3.4448e+000 -6.0000e-001 -8.8240e-001 -3.7352e+000
% f evaluations | g evaluations | best noise-free fitness - Fopt (-2.471100000000e+002) + sum g_i+ | measured fitness | best measured fitness or single-digit g-values | x1 | x2...
1 0 +3.554989178e+002 +1.083889178e+002 +1.083889178e+002 +5.0000e+000 -5.0000e+000 +5.0000e+000 -5.0000e+000 +5.0000e+000 -5.0000e+000 -5.0000e+000 -5.0000e+000 -5.0000e+000 +5.0000e+000
2 0 +2.795309178e+002 +3.242091776e+001 +3.242091776e+001 -5.0000e+000 -5.0000e+000 +5.0000e+000 -5.0000e+000 +5.0000e+000 -5.0000e+000 -5.0000e+000 -5.0000e+000 -5.0000e+000 +5.0000e+000
12 0 +8.892291776e+001 -1.581870822e+002 -1.581870822e+002 -5.0000e+000 +5.0000e+000 -5.0000e+000 -5.0000e+000 -5.0000e+000 +5.0000e+000 +5.0000e+000 -5.0000e+000 -5.0000e+000 +5.0000e+000
15 0 +8.656942452e+001 -1.605405755e+002 -1.605405755e+002 -4.9029e+000 +4.9029e+000 -5.0000e+000 -5.0000e+000 -4.9029e+000 +4.9029e+000 +4.9029e+000 -5.0000e+000 -5.0000e+000 +5.0000e+000
19 0 +5.961668213e+001 -1.874933179e+002 -1.874933179e+002 -3.8131e+000 +3.8125e+000 -4.0405e+000 -4.5434e+000 -3.8414e+000 +4.8898e+000 +3.9917e+000 -4.8944e+000 -4.7295e+000 +4.8772e+000
28 0 +0.000000000e+000 -2.471100000e+002 -2.471100000e+002 -3.7984e+000 +2.0320e-001 -6.9120e-001 -3.6912e+000 -3.0992e+000 +2.3168e+000 +3.2200e+000 -3.9160e+000 -7.1200e-002 +2.8224e+000
% f evaluations | g evaluations | best noise-free fitness - Fopt (-1.520400000000e+002) + sum g_i+ | measured fitness | best measured fitness or single-digit g-values | x1 | x2...
1 0 +3.540759418e+002 +2.020359418e+002 +2.020359418e+002 -5.0000e+000 +5.0000e+000 +5.0000e+000 -5.0000e+000 +5.0000e+000 -5.0000e+000 +5.0000e+000 -5.0000e+000 +5.0000e+000 -5.0000e+000
4 0 +2.755799418e+002 +1.235399418e+002 +1.235399418e+002 -5.0000e+000 +5.0000e+000 -5.0000e+000 -5.0000e+000 +5.0000e+000 -5.0000e+000 +5.0000e+000 -5.0000e+000 +5.0000e+000 -5.0000e+000
12 0 +1.194519418e+002 -3.258805824e+001 -3.258805824e+001 -5.0000e+000 +5.0000e+000 -5.0000e+000 +5.0000e+000 +5.0000e+000 +5.0000e+000 -5.0000e+000 -5.0000e+000 +5.0000e+000 +5.0000e+000
21 0 +7.466644695e+001 -7.737355305e+001 -7.737355305e+001 -2.1293e+000 +3.7804e+000 -2.7156e+000 +3.7577e+000 +4.7462e+000 +4.6073e+000 -4.3664e+000 -4.7061e+000 +4.6290e+000 +4.3140e+000
22 0 +4.574463263e+001 -1.062953674e+002 -1.062953674e+002 -5.0000e+000 +1.5256e-002 -3.9248e+000 +4.6647e+000 +5.0000e+000 +1.9845e-001 -5.7211e-001 -5.8240e-003 +5.0000e+000 +3.4808e+000
25 0 +2.666192991e+001 -1.253780701e+002 -1.253780701e+002 -2.6889e+000 -3.1561e-001 -1.9042e+000 +4.1501e+000 +4.7868e+000 -4.5190e-001 -1.3963e+000 +1.1754e-001 +3.9505e+000 +3.7018e+000
28 0 +0.000000000e+000 -1.520400000e+002 -1.520400000e+002 -2.6720e-001 +1.4240e+000 -3.9248e+000 +3.2968e+000 +2.4192e+000 +1.5040e-001 -8.7840e-001 -7.0080e-001 +1.5000e+000 +3.4808e+000
% f evaluations | g evaluations | best noise-free fitness - Fopt (-2.525000000000e+001) + sum g_i+ | measured fitness | best measured fitness or single-digit g-values | x1 | x2...
1 0 +3.218909434e+002 +2.966409434e+002 +2.966409434e+002 -5.0000e+000 +5.0000e+000 -5.0000e+000 +5.0000e+000 -5.0000e+000 -5.0000e+000 -5.0000e+000 +5.0000e+000 +5.0000e+000 -5.0000e+000
2 0 +2.496029434e+002 +2.243529434e+002 +2.243529434e+002 +5.0000e+000 +5.0000e+000 -5.0000e+000 +5.0000e+000 -5.0000e+000 -5.0000e+000 -5.0000e+000 +5.0000e+000 +5.0000e+000 -5.0000e+000
12 0 +1.043069434e+002 +7.905694336e+001 +7.905694336e+001 +5.0000e+000 +5.0000e+000 -5.0000e+000 -5.0000e+000 +5.0000e+000 -5.0000e+000 -5.0000e+000 -5.0000e+000 +5.0000e+000 -5.0000e+000
14 0 +9.008218454e+001 +6.483218454e+001 +6.483218454e+001 +5.0000e+000 +5.0000e+000 -5.0000e+000 -1.0408e+000 +1.0408e+000 -5.0000e+000 -5.0000e+000 -1.0408e+000 +5.0000e+000 -5.0000e+000
16 0 +8.632749714e+001 +6.107749714e+001 +6.107749714e+001 +1.2599e+000 +5.0000e+000 -3.5326e+000 -1.2599e+000 +1.2599e+000 -5.0000e+000 -5.0000e+000 -3.5326e+000 +5.0000e+000 -5.0000e+000
17 0 +7.532843695e+001 +5.007843695e+001 +5.007843695e+001 +4.8342e+000 +4.8467e+000 -4.4336e+000 -4.5381e+000 +4.8097e+000 -4.9668e+000 -4.6989e+000 -4.4731e+000 +2.6751e+000 -3.9046e+000
26 0 +7.161748388e+001 +4.636748388e+001 +4.636748388e+001 +3.4049e+000 +4.8648e+000 -4.8606e+000 -3.5987e+000 +3.4896e+000 -3.5398e+000 -4.9922e+000 -3.7545e+000 +4.9362e+000 -4.8369e+000
28 0 +0.000000000e+000 -2.525000000e+001 -2.525000000e+001 +3.6144e+000 +6.3520e-001 -1.4216e+000 -2.1528e+000 +3.2968e+000 -1.0160e-001 -2.4752e+000 -1.8152e+000 +1.3128e+000 -2.6728e+000
% f evaluations | g evaluations | best noise-free fitness - Fopt (1.830100000000e+002) + sum g_i+ | measured fitness | best measured fitness or single-digit g-values | x1 | x2...
1 0 +3.615080026e+002 +5.445180026e+002 +5.445180026e+002 -5.0000e+000 -5.0000e+000 +5.0000e+000 +5.0000e+000 +5.0000e+000 +5.0000e+000 -5.0000e+000 -5.0000e+000 +5.0000e+000 +5.0000e+000
3 0 +2.994440026e+002 +4.824540026e+002 +4.824540026e+002 -5.0000e+000 +5.0000e+000 +5.0000e+000 +5.0000e+000 +5.0000e+000 +5.0000e+000 -5.0000e+000 -5.0000e+000 +5.0000e+000 +5.0000e+000
6 0 +2.903720026e+002 +4.733820026e+002 +4.733820026e+002 -5.0000e+000 -5.0000e+000 +5.0000e+000 +5.0000e+000 -5.0000e+000 +5.0000e+000 -5.0000e+000 -5.0000e+000 +5.0000e+000 +5.0000e+000
12 0 +7.610000256e+001 +2.591100026e+002 +2.591100026e+002 -5.0000e+000 +5.0000e+000 -5.0000e+000 +5.0000e+000 -5.0000e+000 +5.0000e+000 -5.0000e+000 +5.0000e+000 +5.0000e+000 -5.0000e+000
15 0 +3.852153979e+001 +2.215315398e+002 +2.215315398e+002 -3.5986e+000 +4.4218e+000 -4.5732e+000 +4.6661e+000 -4.1280e+000 +3.3662e+000 -4.3993e+000 +4.1513e+000 +3.9358e+000 -4.3577e+000
28 0 +1.905571346e+001 +2.020657135e+002 +2.020657135e+002 -4.7141e+000 +5.0000e+000 -1.8112e+000 +1.4497e+000 -1.3757e+000 +2.7120e-001 -5.0000e+000 +2.5403e+000 +2.1840e+000 -1.0611e+000
34 0 +0.000000000e+000 +1.830100000e+002 +1.830100000e+002 -2.1360e+000 +3.1032e+000 -2.8520e+000 +1.0296e+000 -3.5568e+000 +2.7760e-001 -3.9568e+000 +2.5720e+000 +2.8464e+000 -2.1864e+000
% f evaluations | g evaluations | best noise-free fitness - Fopt (1.835200000000e+002) + sum g_i+ | measured fitness | best measured fitness or single-digit g-values | x1 | x2...
1 0 +2.928877702e+002 +4.764077702e+002 +4.764077702e+002 -5.0000e+000 +5.0000e+000 +5.0000e+000 -5.0000e+000 -5.0000e+000 -5.0000e+000 +5.0000e+000 +5.0000e+000 +5.0000e+000 +5.0000e+000
3 0 +2.140557702e+002 +3.975757702e+002 +3.975757702e+002 -5.0000e+000 -5.0000e+000 +5.0000e+000 -5.0000e+000 -5.0000e+000 -5.0000e+000 +5.0000e+000 +5.0000e+000 +5.0000e+000 +5.0000e+000
12 0 +1.136877702e+002 +2.972077702e+002 +2.972077702e+002 -5.0000e+000 -5.0000e+000 -5.0000e+000 -5.0000e+000 -5.0000e+000 +5.0000e+000 +5.0000e+000 +5.0000e+000 +5.0000e+000 -5.0000e+000
13 0 +6.760171088e+001 +2.511217109e+002 +2.511217109e+002 -4.2381e+000 -4.4088e+000 -4.4220e+000 -3.8866e+000 -4.4219e+000 +4.4000e+000 +4.0753e+000 +3.2278e+000 +4.2299e+000 -3.8109e+000
23 0 +5.218904459e+001 +2.357090446e+002 +2.357090446e+002 -2.4535e+000 -3.7302e+000 -2.6653e+000 -4.0495e+000 -4.2916e+000 +4.6992e+000 +4.2177e+000 +3.8259e+000 +3.9529e+000 -3.8628e+000
28 0 +0.000000000e+000 +1.835200000e+002 +1.835200000e+002 -2.1600e-002 -3.9416e+000 -2.3344e+000 -2.0432e+000 -6.5760e-001 +2.5064e+000 +3.6328e+000 +2.5576e+000 +1.0288e+000 -1.7760e-001
% f evaluations | g evaluations | best noise-free fitness - Fopt (-5.938400000000e+002) + sum g_i+ | measured fitness | best measured fitness or single-digit g-values | x1 | x2...
1 0 +1.487929882e+002 -4.450470118e+002 -4.450470118e+002 -5.0000e+000 -5.0000e+000 +5.0000e+000 +5.0000e+000 +5.0000e+000 +5.0000e+000 -5.0000e+000 -5.0000e+000 -5.0000e+000 -5.0000e+000
3 0 +1.469049882e+002 -4.469350118e+002 -4.469350118e+002 -5.0000e+000 +5.0000e+000 +5.0000e+000 +5.0000e+000 +5.0000e+000 +5.0000e+000 -5.0000e+000 -5.0000e+000 -5.0000e+000 -5.0000e+000
11 0 +1.028569882e+002 -4.909830118e+002 -4.909830118e+002 -5.0000e+000 -5.0000e+000 +5.0000e+000 +5.0000e+000 +5.0000e+000 +5.0000e+000 -5.0000e+000 -5.0000e+000 -5.0000e+000 +5.0000e+000
12 0 +1.009689882e+002 -4.928710118e+002 -4.928710118e+002 -5.0000e+000 +5.0000e+000 +5.0000e+000 +5.0000e+000 +5.0000e+000 +5.0000e+000 -5.0000e+000 -5.0000e+000 -5.0000e+000 +5.0000e+000
14 0 +8.398510201e+001 -5.098548980e+002 -5.098548980e+002 -5.0000e+000 -5.0000e+000 +3.2448e+000 +5.0000e+000 +5.0000e+000 +5.0000e+000 -5.0000e+000 -5.0000e+000 -5.0000e+000 +3.2448e+000
16 0 +7.796198327e+001 -5.158780167e+002 -5.158780167e+002 -5.0000e+000 +2.6595e+000 +4.5892e+000 +5.0000e+000 +5.0000e+000 +5.0000e+000 -5.0000e+000 -5.0000e+000 -5.0000e+000 +4.5892e+000
23 0 +1.843201914e+001 -5.754079809e+002 -5.754079809e+002 -2.5696e+000 +9.4400e-002 +5.7200e-001 +2.1336e+000 +1.3664e+000 +3.4864e-002 -5.0000e+000 -5.0000e+000 -3.0680e+000 +2.2968e+000
29 0 +0.000000000e+000 -5.938400000e+002 -5.938400000e+002 -2.5696e+000 +9.4400e-002 +5.7200e-001 +2.1336e+000 +1.3664e+000 +2.4672e+000 -3.6240e+000 -1.7408e+000 -3.0680e+000 +2.2968e+000
% f evaluations | g evaluations | best noise-free fitness - Fopt (-1.000000000000e+003) + sum g_i+ | measured fitness | best measured fitness or single-digit g-values | x1 | x2...
1 0 +2.947575629e+002 -7.052424371e+002 -7.052424371e+002 -5.0000e+000 -5.0000e+000 -5.0000e+000 +5.0000e+000 -5.0000e+000 -5.0000e+000 +5.0000e+000 -5.0000e+000 -5.0000e+000 +5.0000e+000
3 0 +2.177015629e+002 -7.822984371e+002 -7.822984371e+002 -5.0000e+000 +5.0000e+000 -5.0000e+000 +5.0000e+000 -5.0000e+000 -5.0000e+000 +5.0000e+000 -5.0000e+000 -5.0000e+000 +5.0000e+000
12 0 +6.822956288e+001 -9.317704371e+002 -9.317704371e+002 -5.0000e+000 +5.0000e+000 -5.0000e+000 -5.0000e+000 +5.0000e+000 +5.0000e+000 +5.0000e+000 +5.0000e+000 -5.0000e+000 +5.0000e+000
20 0 +5.569300618e+001 -9.443069938e+002 -9.443069938e+002 -4.9970e+000 +4.6563e+000 -4.9973e+000 -4.6415e+000 +4.5958e+000 +4.6529e+000 +4.9596e+000 +4.6044e+000 -4.6012e+000 +4.9655e+000
22 0 +4.633426051e+001 -9.536657395e+002 -9.536657395e+002 -5.0000e+000 +5.0000e+000 -3.0691e+000 -3.7121e-001 +6.0998e-001 +4.4321e-001 +3.3819e+000 +5.0000e+000 -5.0000e+000 +5.0000e+000
24 0 +3.969899336e+001 -9.603010066e+002 -9.603010066e+002 -3.8069e+000 +4.9321e+000 -4.4775e+000 +6.7444e-001 -1.3132e+000 +1.1014e+000 +2.9026e+000 +3.2401e+000 -3.9810e+000 +4.0980e+000
25 0 +3.382059748e+001 -9.661794025e+002 -9.661794025e+002 -3.9235e+000 +4.9388e+000 -4.5286e+000 +1.2006e-001 -6.9640e-001 +1.4823e+000 +3.1075e+000 +3.4121e+000 -4.0805e+000 +4.1861e+000
27 0 +2.768863738e+001 -9.723113626e+002 -9.723113626e+002 -4.1096e+000 +4.8620e+000 -4.6097e+000 -6.7751e-001 +1.8959e-001 +2.0046e+000 +3.4257e+000 +3.5871e+000 -4.1387e+000 +4.3186e+000
28 0 +0.000000000e+000 -1.000000000e+003 -1.000000000e+003 -3.8432e+000 +3.8528e+000 -3.8216e+000 -2.4456e+000 +2.3008e+000 +1.3064e+000 +3.7192e+000 +1.4208e+000 -1.4160e+000 +1.9280e+000
% f evaluations | g evaluations | best noise-free fitness - Fopt (-2.531000000000e+001) + sum g_i+ | measured fitness | best measured fitness or single-digit g-values | x1 | x2...
1 0 +1.705231802e+002 +1.452131802e+002 +1.452131802e+002 +5.0000e+000 -5.0000e+000 +5.0000e+000 +5.0000e+000 +5.0000e+000 -5.0000e+000 -5.0000e+000 -5.0000e+000 -5.0000e+000 +5.0000e+000
3 0 +9.986718016e+001 +7.455718016e+001 +7.455718016e+001 +5.0000e+000 +5.0000e+000 +5.0000e+000 +5.0000e+000 +5.0000e+000 -5.0000e+000 -5.0000e+000 -5.0000e+000 -5.0000e+000 +5.0000e+000
12 0 +9.457118016e+001 +6.926118016e+001 +6.926118016e+001 +5.0000e+000 +5.0000e+000 +5.0000e+000 +5.0000e+000 +5.0000e+000 -5.0000e+000 -5.0000e+000 +5.0000e+000 -5.0000e+000 +5.0000e+000
13 0 +7.400290394e+001 +4.869290394e+001 +4.869290394e+001 +5.0000e+000 -6.9608e-001 -6.9608e-001 +5.0000e+000 +5.0000e+000 -5.0000e+000 -5.0000e+000 -6.9608e-001 -5.0000e+000 +5.0000e+000
15 0 +4.557578275e+001 +2.026578275e+001 +2.026578275e+001 +4.9266e+000 +4.6669e+000 +2.8179e+000 +3.5779e+000 +4.0983e+000 -3.1414e+000 -4.1569e+000 +3.8876e+000 -3.7097e+000 +4.6956e+000
20 0 +3.606961297e+001 +1.075961297e+001 +1.075961297e+001 +4.8030e+000 +2.8449e+000 +2.3250e+000 +3.7709e+000 +4.2523e+000 -3.3901e+000 -4.2658e+000 +2.3336e+000 -3.9130e+000 +4.6949e+000
22 0 +2.583866059e+001 +5.286605909e-001 +5.286605909e-001 +7.0660e-001 +3.5328e+000 +8.5280e-001 +5.0000e+000 +1.3448e-001 -2.6344e+000 -8.4797e-001 +2.6480e-001 -6.4175e-001 +1.6867e-001
28 0 +0.000000000e+000 -2.531000000e+001 -2.531000000e+001 +3.4688e+000 +3.5328e+000 +8.5280e-001 +3.1864e+000 +2.3872e+000 -1.7624e+000 -1.6648e+000 +2.6480e-001 -3.4312e+000 +9.6640e-001
% f evaluations | g evaluations | best noise-free fitness - Fopt (2.228000000000e+001) + sum g_i+ | measured fitness | best measured fitness or single-digit g-values | x1 | x2...
1 0 +3.007187136e+002 +3.229987136e+002 +3.229987136e+002 +5.0000e+000 +5.0000e+000 +5.0000e+000 +5.0000e+000 -5.0000e+000 -5.0000e+000 -5.0000e+000 +5.0000e+000 -5.0000e+000 +5.0000e+000
3 0 +2.651827136e+002 +2.874627136e+002 +2.874627136e+002 +5.0000e+000 -5.0000e+000 +5.0000e+000 +5.0000e+000 -5.0000e+000 -5.0000e+000 -5.0000e+000 +5.0000e+000 -5.0000e+000 +5.0000e+000
7 0 +2.257907136e+002 +2.480707136e+002 +2.480707136e+002 +5.0000e+000 +5.0000e+000 +5.0000e+000 +5.0000e+000 -5.0000e+000 +5.0000e+000 -5.0000e+000 +5.0000e+000 -5.0000e+000 +5.0000e+000
12 0 +9.396671360e+001 +1.162467136e+002 +1.162467136e+002 +5.0000e+000 -5.0000e+000 -5.0000e+000 +5.0000e+000 -5.0000e+000 +5.0000e+000 +5.0000e+000 +5.0000e+000 +5.0000e+000 +5.0000e+000
13 0 +6.723419437e+001 +8.951419437e+001 +8.951419437e+001 +4.1484e+000 -4.1484e+000 -4.1484e+000 +5.0000e+000 -5.0000e+000 +4.1484e+000 +4.1484e+000 +5.0000e+000 +4.1484e+000 +5.0000e+000
14 0 +4.629133719e+001 +6.857133719e+001 +6.857133719e+001 +4.2314e+000 -3.2560e+000 -3.2560e+000 +4.0246e+000 -5.0000e+000 +3.2560e+000 +3.2560e+000 +5.0000e+000 +3.2560e+000 +5.0000e+000
16 0 +3.498303676e+001 +5.726303676e+001 +5.726303676e+001 +4.3179e+000 -2.3268e+000 -2.3268e+000 +3.0089e+000 -5.0000e+000 +2.3268e+000 +2.3268e+000 +5.0000e+000 +2.3268e+000 +5.0000e+000
26 0 +2.602690029e+001 +4.830690029e+001 +4.830690029e+001 +3.9796e+000 -2.1208e+000 -1.9205e+000 +2.4787e+000 -4.8220e+000 +2.3652e+000 +2.8105e+000 +3.6432e+000 +4.0978e+000 +3.9624e+000
27 0 +2.265503321e+001 +4.493503321e+001 +4.493503321e+001 +4.1155e+000 -1.1726e+000 -9.9901e-001 +2.8144e+000 -4.8457e+000 +2.7160e+000 +1.7705e+000 +3.8239e+000 +2.8864e+000 +4.1005e+000
28 0 +0.000000000e+000 +2.228000000e+001 +2.228000000e+001 +1.4128e+000 -1.7768e+000 -1.8216e+000 +1.0176e+000 -2.6616e+000 +3.7464e+000 +2.8480e-001 +2.7000e+000 +2.7080e+000 +2.7792e+000
% f evaluations | g evaluations | best noise-free fitness - Fopt (3.561400000000e+002) + sum g_i+ | measured fitness | best measured fitness or single-digit g-values | x1 | x2...
1 0 +3.010588166e+002 +6.571988166e+002 +6.571988166e+002 +5.0000e+000 -5.0000e+000 +5.0000e+000 -5.0000e+000 +5.0000e+000 +5.0000e+000 +5.0000e+000 +5.0000e+000 -5.0000e+000 -5.0000e+000
4 0 +2.303068166e+002 +5.864468166e+002 +5.864468166e+002 +5.0000e+000 -5.0000e+000 -5.0000e+000 -5.0000e+000 +5.0000e+000 +5.0000e+000 +5.0000e+000 +5.0000e+000 -5.0000e+000 -5.0000e+000
12 0 +1.185468166e+002 +4.746868166e+002 +4.746868166e+002 +5.0000e+000 -5.0000e+000 -5.0000e+000 +5.0000e+000 +5.0000e+000 +5.0000e+000 +5.0000e+000 +5.0000e+000 -5.0000e+000 +5.0000e+000
15 0 +6.410269232e+001 +4.202426923e+002 +4.202426923e+002 +4.1251e+000 -4.3982e+000 -3.5651e+000 +3.5830e+000 +4.3807e+000 +3.5298e+000 +3.0089e+000 +3.6678e+000 -4.6458e+000 +4.9905e+000
21 0 +5.982929655e+001 +4.159692965e+002 +4.159692965e+002 +3.1710e+000 -4.7152e+000 -2.4746e+000 +9.4752e-001 +4.3540e+000 +3.3698e+000 +3.1144e+000 +3.4541e+000 -4.4233e+000 +4.7994e+000
22 0 +1.745026445e+001 +3.735902645e+002 +3.735902645e+002 +1.2193e+000 -5.2480e-001 -3.5376e+000 +2.2224e+000 +1.0076e+000 +9.6419e-001 +8.8800e-001 +5.0000e+000 -1.5742e+000 +3.3656e+000
28 0 +0.000000000e+000 +3.561400000e+002 +3.561400000e+002 +1.4584e+000 -5.2480e-001 -3.5376e+000 +2.2224e+000 +1.4280e+000 +1.6232e+000 +8.8800e-001 +9.4240e-001 -1.0104e+000 +3.3656e+000
% f evaluations | g evaluations | best noise-free fitness - Fopt (-4.757000000000e+002) + sum g_i+ | measured fitness | best measured fitness or single-digit g-values | x1 | x2...
1 0 +2.597192896e+002 -2.159807104e+002 -2.159807104e+002 -5.0000e+000 -5.0000e+000 +5.0000e+000 -5.0000e+000 -5.0000e+000 +5.0000e+000 -5.0000e+000 +5.0000e+000 -5.0000e+000 +5.0000e+000
5 0 +1.995912896e+002 -2.761087104e+002 -2.761087104e+002 -5.0000e+000 -5.0000e+000 +5.0000e+000 +5.0000e+000 -5.0000e+000 +5.0000e+000 -5.0000e+000 +5.0000e+000 -5.0000e+000 +5.0000e+000
12 0 +1.243272896e+002 -3.513727104e+002 -3.513727104e+002 -5.0000e+000 -5.0000e+000 +5.0000e+000 +5.0000e+000 -5.0000e+000 -5.0000e+000 +5.0000e+000 -5.0000e+000 -5.0000e+000 +5.0000e+000
21 0 +7.121952734e+001 -4.044804727e+002 -4.044804727e+002 -2.4108e+000 -3.5641e+000 +4.9137e+000 +4.8920e+000 -4.2341e+000 -4.6229e+000 +4.9082e+000 -3.2608e+000 -4.8347e+000 +4.3646e+000
28 0 +0.000000000e+000 -4.757000000e+002 -4.757000000e+002 -8.2960e-001 -4.4400e-001 +3.7872e+000 +3.0064e+000 -1.6832e+000 -2.7352e+000 +8.4800e-001 -1.8000e-001 -3.8344e+000 +2.2800e-001
% f evaluations | g evaluations | best noise-free fitness - Fopt (-1.000000000000e+003) + sum g_i+ | measured fitness | best measured fitness or single-digit g-values | x1 | x2...
1 0 +2.767937171e+002 -7.232062829e+002 -7.232062829e+002 -5.0000e+000 -5.0000e+000 +5.0000e+000 -5.0000e+000 -5.0000e+000 +5.0000e+000 -5.0000e+000 -5.0000e+000 +5.0000e+000 +5.0000e+000
3 0 +2.103617171e+002 -7.896382829e+002 -7.896382829e+002 -5.0000e+000 +5.0000e+000 +5.0000e+000 -5.0000e+000 -5.0000e+000 +5.0000e+000 -5.0000e+000 -5.0000e+000 +5.0000e+000 +5.0000e+000
12 0 +7.186571712e+001 -9.281342829e+002 -9.281342829e+002 -5.0000e+000 +5.0000e+000 +5.0000e+000 -5.0000e+000 -5.0000e+000 -5.0000e+000 -5.0000e+000 +5.0000e+000 +5.0000e+000 -5.0000e+000
13 0 +5.540971687e+001 -9.445902831e+002 -9.445902831e+002 -5.0000e+000 +1.3632e+000 +5.0000e+000 -5.0000e+000 -5.0000e+000 -1.3632e+000 -5.0000e+000 +1.3632e+000 +5.0000e+000 -5.0000e+000
16 0 +5.263816370e+001 -9.473618363e+002 -9.473618363e+002 -5.0000e+000 +1.9706e+000 +5.0000e+000 -5.0000e+000 -5.0000e+000 -1.9706e+000 -5.0000e+000 +1.9706e+000 +5.0000e+000 -5.0000e+000
18 0 +4.614152389e+001 -9.538584761e+002 -9.538584761e+002 -3.7596e+000 +4.7707e+000 +4.8439e+000 -4.5713e+000 -3.2903e+000 -3.9736e+000 -4.3166e+000 +4.1739e+000 +4.9197e+000 -4.6379e+000
23 0 +4.080527124e+001 -9.591947288e+002 -9.591947288e+002 -5.0000e+000 +2.2015e+000 +4.1481e+000 -4.3884e+000 -4.1611e+000 -2.0255e+000 -4.1534e+000 +1.9190e+000 +5.0000e+000 -5.0000e+000
25 0 +3.761713734e+001 -9.623828627e+002 -9.623828627e+002 -4.2969e+000 +4.8271e+000 +4.3201e+000 -4.7814e+000 -2.3859e+000 -4.8985e+000 -3.3857e+000 +3.7513e+000 +3.6429e+000 -4.5464e+000
28 0 +0.000000000e+000 -1.000000000e+003 -1.000000000e+003 -3.8024e+000 +3.3216e+000 +3.7328e+000 -1.4208e+000 -1.8336e+000 -2.2920e+000 -3.8944e+000 +1.6688e+000 +5.9840e-001 -2.9640e+000
% f evaluations | g evaluations | best noise-free fitness - Fopt (-4.158000000000e+001) + sum g_i+ | measured fitness | best measured fitness or single-digit g-values | x1 | x2...
1 0 +2.267878317e+002 +1.852078317e+002 +1.852078317e+002 -5.0000e+000 -5.0000e+000 -5.0000e+000 -5.0000e+000 +5.0000e+000 +5.0000e+000 +5.0000e+000 -5.0000e+000 -5.0000e+000 +5.0000e+000
2 0 +2.148358317e+002 +1.732558317e+002 +1.732558317e+002 +5.0000e+000 -5.0000e+000 -5.0000e+000 -5.0000e+000 +5.0000e+000 +5.0000e+000 +5.0000e+000 -5.0000e+000 -5.0000e+000 +5.0000e+000
3 0 +1.697318317e+002 +1.281518317e+002 +1.281518317e+002 -5.0000e+000 +5.0000e+000 -5.0000e+000 -5.0000e+000 +5.0000e+000 +5.0000e+000 +5.0000e+000 -5.0000e+000 -5.0000e+000 +5.0000e+000
12 0 +1.097958317e+002 +6.821583168e+001 +6.821583168e+001 +5.0000e+000 +5.0000e+000 -5.0000e+000 -5.0000e+000 -5.0000e+000 +5.0000e+000 +5.0000e+000 -5.0000e+000 +5.0000e+000 +5.0000e+000
18 0 +5.943110885e+001 +1.785110885e+001 +1.785110885e+001 +4.6381e+000 +3.5346e+000 -4.6924e+000 -3.8311e+000 -4.1886e+000 +4.6144e+000 +3.8993e+000 -3.2075e+000 +3.3172e+000 +4.4273e+000
22 0 +5.176813212e+001 +1.018813212e+001 +1.018813212e+001 +1.5952e-001 +8.4067e-001 -5.0000e+000 -3.6263e-003 -3.3358e-001 +5.0000e+000 +5.0000e+000 -5.0000e+000 +5.0000e+000 +5.0000e+000
25 0 +4.150543350e+001 -7.456650099e-002 -7.456650099e-002 +3.4327e+000 +2.3970e+000 -4.5329e+000 -3.9292e+000 -2.6523e+000 +4.4182e+000 +3.9575e+000 -3.5300e+000 +2.2180e+000 +4.5213e+000
26 0 +3.737052056e+001 -4.209479443e+000 -4.209479443e+000 +1.9313e+000 +1.2659e+000 -4.6343e+000 -4.0327e+000 -3.3761e+000 +4.6148e+000 +3.2009e+000 -3.6789e+000 +1.0186e+000 +4.5097e+000
28 0 +0.000000000e+000 -4.158000000e+001 -4.158000000e+001 +5.9760e-001 +2.8528e+000 -3.1376e+000 -1.0480e-001 -1.1320e+000 +3.2112e+000 +9.3600e-001 -2.4240e+000 +1.2672e+000 +3.2320e+000
