% function evaluation | noise-free fitness - Fopt (-2.787500000000e+02) | best noise-free fitness - Fopt | measured fitness | best measured fitness | x1 | x2...
1 +1.224681685e+02 +1.224681685e+02 -1.562818315e+02 -1.562818315e+02 +3.2269e+00 +2.3738e+00 +3.4849e-01 -3.9138e+00 -1.1379e+00 -2.2548e+00 +1.6452e-01 +2.9765e+00 -2.8304e+00 -1.8293e+00
2 +8.808633364e+01 +8.808633364e+01 -1.906636664e+02 -1.906636664e+02 +9.5876e-01 +1.7675e+00 +1.8669e+00 -5.0000e+00 +1.9800e+00 -2.8267e+00 -2.6901e-02 +3.4822e+00 +2.1112e-01 -1.8883e+00
4 +6.223299225e+01 +6.223299225e+01 -2.165170078e+02 -2.165170078e+02 -5.2878e-01 +3.6174e+00 -1.1291e+00 -4.4005e+00 +7.1473e-01 -1.1987e+00 -1.1986e+00 -1.4812e-01 -4.9176e+00 -2.7023e-01
65 +3.590870767e+01 +3.590870767e+01 -2.428412923e+02 -2.428412923e+02 -3.8817e+00 +4.5037e+00 -3.7269e+00 -4.9984e-01 +2.0702e+00 +1.7282e+00 +2.6583e+00 -8.0970e-01 -1.0717e+00 -1.8697e+00
97 +1.826186939e+01 +1.826186939e+01 -2.604881306e+02 -2.604881306e+02 -4.1484e+00 +5.0000e+00 -6.8602e-01 +1.2061e+00 +9.1948e-02 +1.3616e-01 +3.5519e+00 +2.7107e+00 -4.1117e+00 -1.2630e-03
122 +1.576228928e+01 +1.576228928e+01 -2.629877107e+02 -2.629877107e+02 -3.4445e+00 +4.4488e+00 -7.6664e-01 +9.5913e-01 -8.6990e-01 +1.6375e+00 +1.5195e+00 +3.5657e+00 -2.7131e+00 -1.8546e+00
125 +9.619057362e+00 +9.619057362e+00 -2.691309426e+02 -2.691309426e+02 -4.1639e+00 +3.1310e+00 -1.0961e+00 -3.5496e-01 -5.5782e-01 +2.4979e+00 +1.6638e+00 +3.3691e+00 -6.7937e-01 -1.3550e+00
152 +4.918282191e+00 +4.918282191e+00 -2.738317178e+02 -2.738317178e+02 -4.2092e+00 +3.3099e+00 -2.7342e-01 -4.6217e-01 +1.4893e-01 +2.2424e+00 +2.3588e+00 +3.4718e+00 +6.1652e-01 -9.6844e-01
238 +3.942078063e+00 +3.942078063e+00 -2.748079219e+02 -2.748079219e+02 -4.2895e+00 +2.9117e+00 +6.6467e-02 -4.9553e-01 +9.8981e-02 +2.5707e+00 +1.9494e+00 +3.1402e+00 +1.2335e+00 -1.0094e+00
269 +2.416993351e+00 +2.416993351e+00 -2.763330066e+02 -2.763330066e+02 -4.0923e+00 +2.9845e+00 -8.3511e-02 -2.2977e-01 -1.3764e-01 +2.6413e+00 +1.9404e+00 +3.2437e+00 +6.8520e-01 -9.8009e-01
330 +1.401023019e+00 +1.401023019e+00 -2.773489770e+02 -2.773489770e+02 -4.1086e+00 +2.9240e+00 +7.9717e-02 -2.1334e-01 -8.4742e-02 +2.6050e+00 +1.9312e+00 +3.1574e+00 +5.9404e-01 -1.0614e+00
411 +9.979365408e-01 +9.979365408e-01 -2.777520635e+02 -2.777520635e+02 -4.1303e+00 +2.9311e+00 +9.6892e-02 -1.9584e-01 -5.8286e-02 +2.6047e+00 +1.9231e+00 +3.0968e+00 +5.7499e-01 -1.0659e+00
1880 +5.151716374e-01 +5.151716374e-01 -2.782348284e+02 -2.782348284e+02 -4.3309e+00 +3.0681e+00 +3.3127e-01 -4.4247e-02 -2.8853e-02 +2.2863e+00 +1.8284e+00 +3.2292e+00 +6.6192e-01 -1.1413e+00
2052 +3.666287166e-01 +3.666287166e-01 -2.783833713e+02 -2.783833713e+02 -4.3172e+00 +3.0725e+00 +3.0252e-01 -4.5251e-02 -3.4129e-02 +2.3161e+00 +1.8287e+00 +3.2268e+00 +6.5745e-01 -1.1541e+00
% function evaluation | noise-free fitness - Fopt (-1.677000000000e+01) | best noise-free fitness - Fopt | measured fitness | best measured fitness | x1 | x2...
1 +1.013580648e+02 +1.013580648e+02 +8.458806484e+01 +8.458806484e+01 -1.7466e+00 -2.1712e+00 +3.0101e+00 -1.6123e+00 -2.8843e+00 +2.6201e+00 -1.5046e+00 -2.8619e+00 +3.6238e+00 +8.4732e-01
4 +4.836264380e+01 +4.836264380e+01 +3.159264380e+01 +3.159264380e+01 +7.7236e-01 -3.0830e+00 +4.7403e+00 +3.2475e+00 -3.6563e+00 +4.0929e-01 -4.2066e+00 -7.3967e-01 +2.9369e+00 -3.2787e+00
34 +3.899853545e+01 +3.899853545e+01 +2.222853545e+01 +2.222853545e+01 -3.7789e-01 +1.1996e+00 +4.2910e+00 +1.4076e+00 -1.2226e+00 -2.2271e+00 -3.5331e+00 -1.3265e+00 +2.2044e-01 -4.3762e+00
78 +1.785901365e+01 +1.785901365e+01 +1.089013650e+00 +1.089013650e+00 +3.8102e+00 +2.7343e+00 +4.5505e+00 -5.5639e-01 -1.6020e+00 -4.4795e+00 -3.0018e+00 -1.7041e+00 +5.9104e-01 +2.4573e+00
105 +1.330551368e+01 +1.330551368e+01 -3.464486324e+00 -3.464486324e+00 +2.8131e+00 +4.0122e+00 +5.0000e+00 -4.3450e-01 -1.6560e+00 -4.5064e+00 -1.9727e+00 -2.5468e+00 -2.5094e-02 +1.3287e+00
199 +9.502720516e+00 +9.502720516e+00 -7.267279484e+00 -7.267279484e+00 +3.3078e+00 +3.5556e+00 +4.6901e+00 -5.5012e-01 -1.6169e+00 -3.9784e+00 -2.4108e+00 -2.5341e+00 +7.5570e-03 +2.0190e+00
230 +6.067434379e+00 +6.067434379e+00 -1.070256562e+01 -1.070256562e+01 +3.1359e+00 +3.4554e+00 +4.5348e+00 -7.1450e-01 -1.3410e+00 -4.2064e+00 -2.3269e+00 -2.5909e+00 +4.0309e-02 +1.9381e+00
384 +3.882885389e+00 +3.882885389e+00 -1.288711461e+01 -1.288711461e+01 +3.1954e+00 +3.4162e+00 +4.4711e+00 -5.7905e-01 -1.4365e+00 -4.0773e+00 -2.1862e+00 -2.4262e+00 +8.7359e-02 +1.8140e+00
1887 +2.382751060e+00 +2.382751060e+00 -1.438724894e+01 -1.438724894e+01 +1.1620e+00 +1.3278e+00 +3.4712e+00 +3.0470e+00 -2.2136e+00 -4.0264e+00 -3.1717e+00 -2.0284e+00 +1.1115e+00 -2.3516e-01
1929 +1.566394407e+00 +1.566394407e+00 -1.520360559e+01 -1.520360559e+01 +1.0569e+00 +1.2328e+00 +3.7099e+00 +3.0448e+00 -2.2211e+00 -3.8709e+00 -3.1802e+00 -1.7395e+00 +1.2498e+00 -3.0595e-01
2015 +9.921279605e-01 +9.921279605e-01 -1.577787204e+01 -1.577787204e+01 +1.0051e+00 +1.3192e+00 +3.8024e+00 +3.2265e+00 -2.2792e+00 -3.5711e+00 -3.0914e+00 -1.7833e+00 +1.2333e+00 -3.6508e-01
2090 +5.620715535e-01 +5.620715535e-01 -1.620792845e+01 -1.620792845e+01 +9.9495e-01 +1.3105e+00 +3.7181e+00 +3.1120e+00 -2.2220e+00 -3.7025e+00 -3.1028e+00 -1.8563e+00 +1.2331e+00 -2.9478e-01
2167 +3.830218528e-01 +3.830218528e-01 -1.638697815e+01 -1.638697815e+01 +9.6076e-01 +1.2882e+00 +3.7132e+00 +3.2339e+00 -2.2230e+00 -3.6611e+00 -3.0874e+00 -1.7509e+00 +1.2891e+00 -4.4333e-01
2371 +2.350468129e-01 +2.350468129e-01 -1.653495319e+01 -1.653495319e+01 +9.5427e-01 +1.2912e+00 +3.7173e+00 +3.2382e+00 -2.2208e+00 -3.6545e+00 -3.0810e+00 -1.7458e+00 +1.2921e+00 -4.4750e-01
% function evaluation | noise-free fitness - Fopt (-8.593000000000e+01) | best noise-free fitness - Fopt | measured fitness | best measured fitness | x1 | x2...
1 +7.992420937e+02 +7.992420937e+02 +7.133120937e+02 +7.133120937e+02 -3.5242e+00 -5.6885e-01 +3.4464e+00 +3.3477e+00 +2.4462e-01 -3.9223e+00 -3.1319e+00 +1.6853e+00 -6.3977e-01 +2.4105e+00
3 +1.118881084e+02 +1.118881084e+02 +2.595810842e+01 +2.595810842e+01 +7.6759e-01 +7.0588e-01 -5.0000e+00 +4.7745e+00 +5.8893e-01 -5.0000e+00 -2.6974e+00 +2.6229e+00 +1.5175e+00 -6.2119e-01
22 +5.316241930e+01 +5.316241930e+01 -3.276758070e+01 -3.276758070e+01 -3.4208e+00 +4.0026e+00 +5.8118e-01 +1.1496e+00 -1.8901e+00 -5.0000e+00 +2.5428e+00 +8.7988e-01 +4.2973e+00 +1.5248e+00
88 +3.631408557e+01 +3.631408557e+01 -4.961591443e+01 -4.961591443e+01 -4.1437e+00 +2.8781e+00 -1.6056e+00 +6.4807e-01 +1.4114e-02 -5.0000e+00 -3.1635e+00 +5.0000e+00 +3.0374e+00 -2.2217e+00
169 +2.432821328e+01 +2.432821328e+01 -6.160178672e+01 -6.160178672e+01 +8.8290e-01 +2.8492e+00 +2.3433e-01 +3.3506e+00 +5.0000e+00 -5.0000e+00 -1.1824e+00 +4.5677e+00 +5.0000e+00 -1.5578e+00
220 +1.557133102e+01 +1.557133102e+01 -7.035866898e+01 -7.035866898e+01 +5.7029e-01 +4.5894e+00 +8.7523e-01 +4.1861e-01 +4.2404e+00 -3.3368e+00 +6.3084e-01 +3.4202e+00 +2.9714e+00 -4.7125e+00
243 +9.987490070e+00 +9.987490070e+00 -7.594250993e+01 -7.594250993e+01 +3.3930e-01 +4.6140e+00 +4.3908e-01 -5.6178e-01 +3.3772e+00 -2.7816e+00 +3.9627e-01 +3.8304e+00 +2.9420e+00 -4.8477e+00
349 +5.522785130e+00 +5.522785130e+00 -8.040721487e+01 -8.040721487e+01 +1.8285e-01 +3.6378e+00 +4.9163e-01 -3.8124e-01 +2.8266e+00 -3.2993e+00 +7.8275e-01 +3.4922e+00 +2.7944e+00 -4.1094e+00
393 +3.577491751e+00 +3.577491751e+00 -8.235250825e+01 -8.235250825e+01 +1.3586e-01 +3.6720e+00 +3.4058e-01 -4.2656e-01 +2.7342e+00 -3.1242e+00 +7.2137e-01 +3.5693e+00 +2.8233e+00 -4.0734e+00
3056 +2.371295984e+00 +2.371295984e+00 -8.355870402e+01 -8.355870402e+01 +9.9918e-01 +3.0988e+00 +2.8027e-01 -2.0645e+00 +3.0297e+00 -1.7726e+00 +8.7579e-01 +3.4589e+00 +3.0549e+00 -3.5563e+00
3095 +1.534169600e+00 +1.534169600e+00 -8.439583040e+01 -8.439583040e+01 +1.1539e+00 +2.9214e+00 +4.9551e-01 -2.2566e+00 +3.0620e+00 -1.9381e+00 +8.8781e-01 +3.3645e+00 +3.0206e+00 -3.5173e+00
3160 +7.291859216e-01 +7.291859216e-01 -8.520081408e+01 -8.520081408e+01 +1.0706e+00 +3.0397e+00 +3.9446e-01 -2.0378e+00 +3.1175e+00 -2.0103e+00 +8.9544e-01 +3.3278e+00 +2.8678e+00 -3.6405e+00
3173 +4.715159939e-01 +4.715159939e-01 -8.545848401e+01 -8.545848401e+01 +1.0647e+00 +3.0495e+00 +3.2467e-01 -1.9779e+00 +3.0976e+00 -1.9992e+00 +9.2469e-01 +3.3622e+00 +2.8591e+00 -3.6376e+00
3242 +3.317452133e-01 +3.317452133e-01 -8.559825479e+01 -8.559825479e+01 +1.0835e+00 +3.0713e+00 +3.3565e-01 -1.9918e+00 +3.1136e+00 -2.0356e+00 +9.1090e-01 +3.3449e+00 +2.8678e+00 -3.6364e+00
3331 +2.372978994e-01 +2.372978994e-01 -8.569270210e+01 -8.569270210e+01 +1.0773e+00 +3.0680e+00 +3.3980e-01 -1.9851e+00 +3.0954e+00 -2.0218e+00 +9.1544e-01 +3.3563e+00 +2.8663e+00 -3.6366e+00
3501 +1.537938548e-01 +1.537938548e-01 -8.577620615e+01 -8.577620615e+01 +1.0800e+00 +3.0691e+00 +3.4048e-01 -1.9824e+00 +3.1026e+00 -2.0277e+00 +9.1567e-01 +3.3518e+00 +2.8676e+00 -3.6361e+00
% function evaluation | noise-free fitness - Fopt (4.966000000000e+01) | best noise-free fitness - Fopt | measured fitness | best measured fitness | x1 | x2...
1 +2.886219993e+02 +2.886219993e+02 +3.382819993e+02 +3.382819993e+02 -2.4410e+00 +3.9056e+00 -4.6078e-01 -1.4420e-03 +2.2659e+00 +1.4901e+00 -4.0159e-02 -1.1065e-01 -3.7163e+00 +1.8231e+00
7 +1.572542219e+02 +1.572542219e+02 +2.069142219e+02 +2.069142219e+02 -7.9017e-01 +2.8452e+00 +3.8296e+00 +1.9164e-01 +2.6419e+00 -1.4089e-01 -4.9222e-01 -4.9086e+00 -2.6894e+00 +9.8171e-01
44 +4.797651849e+01 +4.797651849e+01 +9.763651849e+01 +9.763651849e+01 +4.0555e-01 +1.4316e+00 +1.0365e-01 -9.4358e-01 -4.6485e+00 +3.4692e-02 +1.9556e+00 -1.7550e+00 -2.2770e+00 +1.0125e+00
67 +3.527035052e+01 +3.527035052e+01 +8.493035052e+01 +8.493035052e+01 +2.4809e-02 +2.4918e+00 +1.6586e+00 -1.3164e+00 -2.8041e+00 -1.2894e+00 -2.0634e+00 -1.4758e+00 +1.8952e+00 -2.3774e+00
123 +2.031617514e+01 +2.031617514e+01 +6.997617514e+01 +6.997617514e+01 -5.3808e-01 -5.2230e-01 +1.1667e+00 -6.2734e-01 -3.0749e+00 -2.6756e-01 -1.6530e+00 -3.5271e+00 -2.5956e+00 -1.8126e+00
144 +1.545448071e+01 +1.545448071e+01 +6.511448071e+01 +6.511448071e+01 -2.2284e+00 -1.0205e+00 +9.8185e-01 +3.7423e-01 -2.3047e+00 +4.0918e-01 -6.7798e-01 -3.6775e+00 +1.0062e+00 -3.2365e+00
148 +9.825234806e+00 +9.825234806e+00 +5.948523481e+01 +5.948523481e+01 -1.7111e+00 -3.1001e-01 -6.4390e-01 +8.3022e-01 -2.6585e+00 +1.7518e-01 -5.8735e-01 -2.9405e+00 -2.0187e-01 -3.2728e+00
231 +5.609214322e+00 +5.609214322e+00 +5.526921432e+01 +5.526921432e+01 -2.3509e+00 -9.2745e-01 -2.9131e-01 +3.6393e-01 -2.1529e+00 -3.1567e-01 -6.8420e-01 -2.3580e+00 +5.1538e-01 -3.5374e+00
286 +3.972957304e+00 +3.972957304e+00 +5.363295730e+01 +5.363295730e+01 -2.3004e+00 -1.1454e+00 -1.8612e-01 +6.7467e-03 -1.9018e+00 -3.0913e-01 -5.6818e-01 -2.1438e+00 +2.5048e-01 -3.2940e+00
371 +2.349806225e+00 +2.349806225e+00 +5.200980622e+01 +5.200980622e+01 -2.1018e+00 -8.8978e-01 -9.2330e-02 +4.1363e-02 -2.0015e+00 -2.3266e-01 -6.9649e-01 -2.2202e+00 +3.9799e-01 -3.1836e+00
590 +1.580407725e+00 +1.580407725e+00 +5.124040773e+01 +5.124040773e+01 -2.1311e+00 -8.9279e-01 -1.3049e-01 -1.3081e-02 -1.9712e+00 -2.5901e-01 -7.1409e-01 -2.2018e+00 +4.0093e-01 -3.2055e+00
2348 +9.862784551e-01 +9.862784551e-01 +5.064627846e+01 +5.064627846e+01 -2.3543e+00 -1.1914e+00 -4.7332e-01 -4.0249e-02 -1.8767e+00 -3.4030e-01 -4.0790e-01 -1.7567e+00 +8.6181e-01 -3.3215e+00
4807 +5.104934801e-01 +5.104934801e-01 +5.017049348e+01 +5.017049348e+01 -3.0008e+00 -2.3693e+00 -1.3779e+00 -6.3099e-01 -1.1781e+00 -1.3541e+00 -2.1601e-01 +2.8233e-01 +3.1476e+00 -3.8332e+00
4899 +3.756884973e-01 +3.756884973e-01 +5.003568850e+01 +5.003568850e+01 -2.9859e+00 -2.3226e+00 -1.3635e+00 -6.1533e-01 -1.1957e+00 -1.3626e+00 -2.2950e-01 +3.2968e-01 +3.2215e+00 -3.8167e+00
4914 +2.345399678e-01 +2.345399678e-01 +4.989453997e+01 +4.989453997e+01 -2.9981e+00 -2.2901e+00 -1.3895e+00 -6.3074e-01 -1.2038e+00 -1.3028e+00 -1.8331e-01 +2.9094e-01 +3.1184e+00 -3.8015e+00
4998 +1.479181361e-01 +1.479181361e-01 +4.980791814e+01 +4.980791814e+01 -2.9465e+00 -2.2983e+00 -1.3328e+00 -5.9461e-01 -1.2011e+00 -1.3190e+00 -2.2081e-01 +3.2252e-01 +3.2028e+00 -3.8401e+00
5080 +6.207717213e-02 +6.207717213e-02 +4.972207717e+01 +4.972207717e+01 -2.9762e+00 -2.2981e+00 -1.3697e+00 -6.1902e-01 -1.1968e+00 -1.3295e+00 -1.9870e-01 +3.2036e-01 +3.1960e+00 -3.8229e+00
5257 +3.853498139e-02 +3.853498139e-02 +4.969853498e+01 +4.969853498e+01 -2.9720e+00 -2.2939e+00 -1.3734e+00 -6.1183e-01 -1.2037e+00 -1.3281e+00 -1.9959e-01 +3.1651e-01 +3.1987e+00 -3.8223e+00
5344 +2.447808117e-02 +2.447808117e-02 +4.968447808e+01 +4.968447808e+01 -2.9712e+00 -2.2932e+00 -1.3733e+00 -6.1148e-01 -1.2058e+00 -1.3255e+00 -1.9743e-01 +3.1162e-01 +3.1916e+00 -3.8195e+00
5662 +1.578289409e-02 +1.578289409e-02 +4.967578289e+01 +4.967578289e+01 -2.9745e+00 -2.2917e+00 -1.3776e+00 -6.1327e-01 -1.2066e+00 -1.3258e+00 -1.9481e-01 +3.0985e-01 +3.1882e+00 -3.8180e+00
% function evaluation | noise-free fitness - Fopt (2.652800000000e+02) | best noise-free fitness - Fopt | measured fitness | best measured fitness | x1 | x2...
1 +1.081909496e+03 +1.081909496e+03 +1.347189496e+03 +1.347189496e+03 -5.6449e-01 -1.0369e+00 -3.1115e+00 +3.7923e+00 +2.9582e+00 +3.7377e+00 -4.6598e-01 +2.3844e+00 -2.2127e-01 -2.1177e+00
3 +9.287307224e+02 +9.287307224e+02 +1.194010722e+03 +1.194010722e+03 +5.0000e+00 -2.4070e+00 -5.0000e+00 +3.0677e+00 +8.6979e-01 +9.9848e-01 -2.3198e+00 +4.1447e+00 -5.2225e-01 -4.1857e+00
5 +5.637546477e+02 +5.637546477e+02 +8.290346477e+02 +8.290346477e+02 -1.6722e+00 +1.9040e+00 -5.0000e+00 +3.3797e+00 -1.1597e+00 +5.0000e+00 -2.9738e-01 +5.0000e+00 +1.6266e+00 -1.7667e+00
24 +3.810835662e+02 +3.810835662e+02 +6.463635662e+02 +6.463635662e+02 +3.2353e+00 +1.2097e+00 -3.5456e+00 +5.0000e+00 -3.2065e+00 +5.0000e+00 -3.6754e+00 +4.5929e+00 +2.9737e+00 -2.5901e+00
26 +1.663573012e+02 +1.663573012e+02 +4.316373012e+02 +4.316373012e+02 +4.9465e+00 +9.4619e-01 -4.6574e-01 +5.0000e+00 -3.5961e+00 +5.0000e+00 -3.0997e+00 +5.0000e+00 +5.0000e+00 -3.8957e+00
42 +1.381462440e+02 +1.381462440e+02 +4.034262440e+02 +4.034262440e+02 +3.1632e+00 +7.0897e-01 +7.9093e-01 +5.0000e+00 +1.5318e+00 -5.0006e-01 -2.8054e+00 +2.1138e+00 +2.3561e+00 -4.0364e+00
51 +6.511069259e+01 +6.511069259e+01 +3.303906926e+02 +3.303906926e+02 -4.3481e+00 -2.6194e-01 +5.3289e-01 -8.0575e-01 +3.9703e+00 -2.7215e+00 -3.5968e+00 +3.7522e+00 +2.6600e+00 +1.5545e+00
56 +4.493869610e+01 +4.493869610e+01 +3.102186961e+02 +3.102186961e+02 +6.6593e-02 -2.6582e-01 -8.6324e-01 +1.6425e+00 +4.2367e-01 -2.4505e+00 +4.0835e+00 +4.0084e+00 +5.0000e+00 -5.0000e+00
71 +3.757346344e+01 +3.757346344e+01 +3.028534634e+02 +3.028534634e+02 +1.7604e+00 -1.1878e+00 +2.1514e+00 +4.6037e+00 -4.1333e+00 +1.3706e+00 +9.1690e-01 +5.0000e+00 +2.9711e+00 -5.0000e+00
188 +2.339677134e+01 +2.339677134e+01 +2.886767713e+02 +2.886767713e+02 +2.3369e+00 -1.5374e+00 +2.8891e-01 +4.0853e+00 -1.0166e+00 -2.9914e+00 -2.4521e+00 +2.6373e+00 +3.5477e+00 -1.6136e+00
202 +1.547428744e+01 +1.547428744e+01 +2.807542874e+02 +2.807542874e+02 +5.9091e-01 -1.2957e+00 +1.8129e+00 +8.8115e-01 -4.5583e+00 -1.7351e+00 -2.8364e-01 +1.4017e+00 +3.7617e+00 -4.0194e+00
225 +8.906829020e+00 +8.906829020e+00 +2.741868290e+02 +2.741868290e+02 +1.1629e+00 +7.2795e-01 +3.6563e+00 -2.0882e+00 -3.7052e+00 -3.5439e+00 -2.0045e+00 +5.0324e-01 +3.7624e+00 -4.6651e+00
264 +5.935059287e+00 +5.935059287e+00 +2.712150593e+02 +2.712150593e+02 +8.5780e-01 +6.6649e-01 +2.4470e+00 -5.4301e-01 -2.2267e+00 -3.6803e+00 -1.0721e+00 -3.1226e-01 +3.5281e+00 -2.6470e+00
281 +3.893916125e+00 +3.893916125e+00 +2.691739161e+02 +2.691739161e+02 +8.3582e-01 +6.9541e-01 +2.1344e+00 -9.2608e-01 -2.9078e+00 -2.9653e+00 -1.3280e+00 -5.4853e-02 +3.3984e+00 -3.4500e+00
336 +1.942810429e+00 +1.942810429e+00 +2.672228104e+02 +2.672228104e+02 +6.8118e-01 +5.5873e-01 +2.2647e+00 -9.4516e-01 -2.9812e+00 -3.1303e+00 -1.1829e+00 -1.3827e-01 +3.3784e+00 -3.1751e+00
353 +1.283055713e+00 +1.283055713e+00 +2.665630557e+02 +2.665630557e+02 +5.7960e-01 +4.3965e-01 +2.3730e+00 -9.8103e-01 -3.1290e+00 -3.1127e+00 -1.5016e+00 -4.9644e-02 +3.3153e+00 -3.1197e+00
394 +9.509003238e-01 +9.509003238e-01 +2.662309003e+02 +2.662309003e+02 +5.7477e-01 +5.3948e-01 +2.2808e+00 -9.8856e-01 -2.9647e+00 -3.1865e+00 -1.4635e+00 -6.6751e-02 +3.3437e+00 -3.0796e+00
440 +5.620474485e-01 +5.620474485e-01 +2.658420474e+02 +2.658420474e+02 +6.3235e-01 +4.8271e-01 +2.2426e+00 -9.2389e-01 -3.0070e+00 -3.1382e+00 -1.4055e+00 -1.2569e-01 +3.4041e+00 -3.1397e+00
501 +3.961463384e-01 +3.961463384e-01 +2.656761463e+02 +2.656761463e+02 +6.1694e-01 +5.1249e-01 +2.2336e+00 -9.2304e-01 -3.0428e+00 -3.1476e+00 -1.3883e+00 -1.1384e-01 +3.3951e+00 -3.1611e+00
691 +2.507010708e-01 +2.507010708e-01 +2.655307011e+02 +2.655307011e+02 +6.2790e-01 +4.9748e-01 +2.2549e+00 -9.4100e-01 -3.0639e+00 -3.1630e+00 -1.3877e+00 -1.3376e-01 +3.4165e+00 -3.1931e+00
3166 +1.521793879e-01 +1.521793879e-01 +2.654321794e+02 +2.654321794e+02 +6.2099e-01 +4.8886e-01 +2.2334e+00 -9.3001e-01 -3.0685e+00 -3.1487e+00 -1.3775e+00 -1.2262e-01 +3.4152e+00 -3.1945e+00
