% f evaluations | g evaluations | best noise-free fitness - Fopt (3.590000000000e+001) + sum g_i+ | measured fitness | best measured fitness or single-digit g-values | x1 | x2...
1 0 +7.074753326e+004 +7.078343326e+004 +7.078343326e+004 +2.0101e+000 -3.6848e+000 +2.7800e+000
2 0 +3.084306281e+002 +3.443306281e+002 +3.443306281e+002 +4.6725e+000 -9.0483e-001 -4.8398e+000
3 0 +2.147902350e+002 +2.506902350e+002 +2.506902350e+002 +2.2518e+000 +1.0435e+000 -4.5859e+000
8 0 +1.667992573e+002 +2.026992573e+002 +2.026992573e+002 +5.0000e+000 -5.0000e+000 -1.3722e+000
10 0 +1.011570035e+002 +1.370570035e+002 +1.370570035e+002 +4.2926e-001 -1.5854e+000 -2.0494e+000
25 0 +6.429884336e+001 +1.001988434e+002 +1.001988434e+002 +2.1901e+000 -7.9639e-001 -9.2986e-001
38 0 +4.878777811e+001 +8.468777811e+001 +8.468777811e+001 +3.0000e+000 -2.3163e+000 +3.2980e-001
48 0 +3.803632302e+001 +7.393632302e+001 +7.393632302e+001 +2.7945e+000 -1.3540e+000 +4.7090e-001
50 0 +3.264888045e+001 +6.854888045e+001 +6.854888045e+001 +2.1219e+000 -9.4302e-001 +3.5467e-001
54 0 +2.224081020e+001 +5.814081020e+001 +5.814081020e+001 +2.2304e+000 -1.0586e+000 +1.1119e+000
85 0 +1.205210391e+001 +4.795210391e+001 +4.795210391e+001 +2.5906e+000 +6.3932e-001 +1.2214e+000
125 0 +2.797391326e+000 +3.869739133e+001 +3.869739133e+001 +2.8869e+000 +1.4906e-001 +2.2651e+000
131 0 +1.401210382e+000 +3.730121038e+001 +3.730121038e+001 +2.9281e+000 +4.6911e-001 +2.3688e+000
295 0 +8.865284991e-001 +3.678652850e+001 +3.678652850e+001 +2.9254e+000 +6.7157e-001 +2.4010e+000
325 0 +7.852678832e-001 +3.668526788e+001 +3.668526788e+001 +2.5879e+000 +7.8493e-001 +2.3100e+000
338 0 +2.948314874e-001 +3.619483149e+001 +3.619483149e+001 +2.6194e+000 +1.0297e+000 +2.3893e+000
458 0 +2.156153116e-001 +3.611561531e+001 +3.611561531e+001 +2.7616e+000 +9.7334e-001 +2.4596e+000
506 0 +1.267976361e-001 +3.602679764e+001 +3.602679764e+001 +2.8014e+000 +1.0178e+000 +2.5027e+000
561 0 +7.668813078e-002 +3.597668813e+001 +3.597668813e+001 +2.6964e+000 +1.0954e+000 +2.4906e+000
793 0 +2.530656648e-002 +3.592530657e+001 +3.592530657e+001 +2.7313e+000 +1.1217e+000 +2.5263e+000
968 0 +4.688596561e-003 +3.590468860e+001 +3.590468860e+001 +2.7708e+000 +1.1203e+000 +2.5645e+000
995 0 +2.919069784e-003 +3.590291907e+001 +3.590291907e+001 +2.7758e+000 +1.1118e+000 +2.5710e+000
1000 0 +2.483160428e-003 +3.590248316e+001 +3.590248316e+001 +2.7770e+000 +1.1124e+000 +2.5730e+000
1012 0 +1.724877237e-003 +3.590172488e+001 +3.590172488e+001 +2.7799e+000 +1.1114e+000 +2.5764e+000
1067 0 +9.755387516e-004 +3.590097554e+001 +3.590097554e+001 +2.7789e+000 +1.1143e+000 +2.5786e+000
1139 0 +5.113842708e-004 +3.590051138e+001 +3.590051138e+001 +2.7819e+000 +1.1132e+000 +2.5821e+000
1191 0 +3.691467461e-004 +3.590036915e+001 +3.590036915e+001 +2.7840e+000 +1.1092e+000 +2.5846e+000
1318 0 +2.744423621e-004 +3.590027444e+001 +3.590027444e+001 +2.7860e+000 +1.1080e+000 +2.5868e+000
1366 0 +2.169699822e-004 +3.590021697e+001 +3.590021697e+001 +2.7811e+000 +1.1111e+000 +2.5843e+000
1375 0 +1.234366941e-004 +3.590012344e+001 +3.590012344e+001 +2.7823e+000 +1.1107e+000 +2.5858e+000
1553 0 +1.147378772e-004 +3.590011474e+001 +3.590011474e+001 +2.7826e+000 +1.1112e+000 +2.5858e+000
1643 0 +9.495735557e-005 +3.590009496e+001 +3.590009496e+001 +2.7817e+000 +1.1103e+000 +2.5862e+000
1799 0 +7.391181642e-005 +3.590007391e+001 +3.590007391e+001 +2.7815e+000 +1.1110e+000 +2.5862e+000
1956 0 +5.970179268e-005 +3.590005970e+001 +3.590005970e+001 +2.7813e+000 +1.1116e+000 +2.5861e+000
2016 0 +3.483751523e-005 +3.590003484e+001 +3.590003484e+001 +2.7826e+000 +1.1113e+000 +2.5871e+000
2092 0 +2.282857334e-005 +3.590002283e+001 +3.590002283e+001 +2.7817e+000 +1.1121e+000 +2.5868e+000
2106 0 +8.191676670e-006 +3.590000819e+001 +3.590000819e+001 +2.7815e+000 +1.1130e+000 +2.5868e+000
2141 0 +6.735490381e-006 +3.590000674e+001 +3.590000674e+001 +2.7818e+000 +1.1131e+000 +2.5869e+000
2296 0 +1.851145647e-006 +3.590000185e+001 +3.590000185e+001 +2.7815e+000 +1.1135e+000 +2.5869e+000
2304 0 +1.351481558e-006 +3.590000135e+001 +3.590000135e+001 +2.7816e+000 +1.1136e+000 +2.5870e+000
2380 0 +1.196441012e-006 +3.590000120e+001 +3.590000120e+001 +2.7816e+000 +1.1135e+000 +2.5870e+000
2416 0 +1.021330455e-006 +3.590000102e+001 +3.590000102e+001 +2.7815e+000 +1.1136e+000 +2.5870e+000
2495 0 +7.319466775e-007 +3.590000073e+001 +3.590000073e+001 +2.7815e+000 +1.1136e+000 +2.5870e+000
2686 0 +3.420281871e-007 +3.590000034e+001 +3.590000034e+001 +2.7817e+000 +1.1136e+000 +2.5872e+000
2960 0 +2.009307423e-007 +3.590000020e+001 +3.590000020e+001 +2.7817e+000 +1.1136e+000 +2.5872e+000
3001 0 +1.161013756e-007 +3.590000012e+001 +3.590000012e+001 +2.7816e+000 +1.1135e+000 +2.5872e+000
3058 0 +2.563020729e-008 +3.590000003e+001 +3.590000003e+001 +2.7816e+000 +1.1136e+000 +2.5872e+000
3193 0 +8.444970945e-009 +3.590000001e+001 +3.590000001e+001 +2.7816e+000 +1.1136e+000 +2.5872e+000
% f evaluations | g evaluations | best noise-free fitness - Fopt (3.137000000000e+001) + sum g_i+ | measured fitness | best measured fitness or single-digit g-values | x1 | x2...
1 0 +5.474159180e+004 +5.477296180e+004 +5.477296180e+004 -3.8002e+000 +2.3606e+000 +1.7568e+000
2 0 +3.710521898e+004 +3.713658898e+004 +3.713658898e+004 -3.0522e-001 -4.8368e+000 +6.5792e-002
3 0 +1.612852563e+003 +1.644222563e+003 +1.644222563e+003 +3.3854e+000 -5.8954e-001 -1.8507e+000
5 0 +4.432441789e+002 +4.746141789e+002 +4.746141789e+002 +5.0000e+000 +5.0000e+000 +5.0000e+000
8 0 +1.170304314e+002 +1.484004314e+002 +1.484004314e+002 +5.0000e+000 +5.0000e+000 -2.7440e+000
21 0 +4.226426775e+001 +7.363426775e+001 +7.363426775e+001 +2.0698e+000 +1.3730e+000 -2.9274e+000
37 0 +4.086570502e+001 +7.223570502e+001 +7.223570502e+001 +1.7727e+000 +1.4609e+000 -2.6032e+000
59 0 +3.101622826e+001 +6.238622826e+001 +6.238622826e+001 -7.9619e-001 +1.4608e+000 -5.0208e-001
67 0 +3.025731228e+001 +6.162731228e+001 +6.162731228e+001 +3.7909e-001 +2.5906e+000 -1.4545e+000
81 0 +2.864560971e+001 +6.001560971e+001 +6.001560971e+001 +1.6217e+000 +1.8188e+000 -2.8976e+000
95 0 +6.895546908e+000 +3.826554691e+001 +3.826554691e+001 +1.8843e-001 +3.5593e+000 -3.3863e+000
115 0 +2.538846885e+000 +3.390884689e+001 +3.390884689e+001 +4.0343e-001 +2.3558e+000 -3.8381e+000
141 0 +2.379515968e+000 +3.374951597e+001 +3.374951597e+001 +6.4262e-001 +2.6198e+000 -4.3245e+000
179 0 +2.252667886e+000 +3.362266789e+001 +3.362266789e+001 +6.1812e-001 +2.5952e+000 -4.3217e+000
271 0 +2.232134795e+000 +3.360213479e+001 +3.360213479e+001 +1.2002e-001 +2.5111e+000 -3.6293e+000
332 0 +5.300308820e-001 +3.190003088e+001 +3.190003088e+001 -1.0986e-001 +1.9196e+000 -3.7245e+000
348 0 +2.187526886e-001 +3.158875269e+001 +3.158875269e+001 -2.7032e-001 +1.9121e+000 -3.6969e+000
402 0 +1.511526184e-001 +3.152115262e+001 +3.152115262e+001 -2.8107e-001 +2.0673e+000 -3.7844e+000
432 0 +7.736607861e-002 +3.144736608e+001 +3.144736608e+001 -2.8107e-001 +1.9097e+000 -3.7763e+000
516 0 +4.631765004e-002 +3.141631765e+001 +3.141631765e+001 -2.6765e-001 +1.9522e+000 -3.8126e+000
521 0 +4.385479835e-002 +3.141385480e+001 +3.141385480e+001 -2.4622e-001 +1.9388e+000 -3.8274e+000
575 0 +3.236441338e-002 +3.140236441e+001 +3.140236441e+001 -2.3920e-001 +1.8730e+000 -3.8566e+000
582 0 +2.740883156e-002 +3.139740883e+001 +3.139740883e+001 -2.6705e-001 +1.8760e+000 -3.8289e+000
612 0 +4.139307639e-003 +3.137413931e+001 +3.137413931e+001 -2.5620e-001 +1.9089e+000 -3.8795e+000
625 0 +1.608725471e-003 +3.137160873e+001 +3.137160873e+001 -2.6724e-001 +1.8982e+000 -3.8756e+000
759 0 +1.511034221e-003 +3.137151103e+001 +3.137151103e+001 -2.6945e-001 +1.8930e+000 -3.8745e+000
793 0 +1.270474095e-003 +3.137127047e+001 +3.137127047e+001 -2.6821e-001 +1.9013e+000 -3.8765e+000
823 0 +5.170003054e-004 +3.137051700e+001 +3.137051700e+001 -2.6737e-001 +1.9056e+000 -3.8833e+000
1134 0 +2.925445777e-004 +3.137029254e+001 +3.137029254e+001 -2.6852e-001 +1.8982e+000 -3.8823e+000
1260 0 +2.626751043e-004 +3.137026268e+001 +3.137026268e+001 -2.6752e-001 +1.8996e+000 -3.8844e+000
1359 0 +8.385376417e-005 +3.137008385e+001 +3.137008385e+001 -2.6935e-001 +1.8978e+000 -3.8846e+000
1640 0 +6.503229368e-005 +3.137006503e+001 +3.137006503e+001 -2.7025e-001 +1.8975e+000 -3.8837e+000
1702 0 +1.802956559e-005 +3.137001803e+001 +3.137001803e+001 -2.7213e-001 +1.8971e+000 -3.8829e+000
1720 0 +4.499480941e-006 +3.137000450e+001 +3.137000450e+001 -2.7215e-001 +1.8963e+000 -3.8835e+000
1897 0 +3.944324355e-006 +3.137000394e+001 +3.137000394e+001 -2.7215e-001 +1.8964e+000 -3.8835e+000
1997 0 +3.452256294e-006 +3.137000345e+001 +3.137000345e+001 -2.7214e-001 +1.8964e+000 -3.8836e+000
2008 0 +3.308700578e-006 +3.137000331e+001 +3.137000331e+001 -2.7214e-001 +1.8967e+000 -3.8835e+000
2186 0 +3.084922067e-006 +3.137000308e+001 +3.137000308e+001 -2.7209e-001 +1.8966e+000 -3.8836e+000
2297 0 +2.940927232e-006 +3.137000294e+001 +3.137000294e+001 -2.7207e-001 +1.8965e+000 -3.8836e+000
2336 0 +2.550881721e-006 +3.137000255e+001 +3.137000255e+001 -2.7209e-001 +1.8965e+000 -3.8836e+000
2389 0 +2.260580803e-006 +3.137000226e+001 +3.137000226e+001 -2.7208e-001 +1.8965e+000 -3.8836e+000
2408 0 +1.738537371e-006 +3.137000174e+001 +3.137000174e+001 -2.7209e-001 +1.8965e+000 -3.8837e+000
2457 0 +1.723087870e-006 +3.137000172e+001 +3.137000172e+001 -2.7206e-001 +1.8966e+000 -3.8837e+000
2458 0 +1.162910852e-006 +3.137000116e+001 +3.137000116e+001 -2.7204e-001 +1.8967e+000 -3.8837e+000
2488 0 +1.033903569e-006 +3.137000103e+001 +3.137000103e+001 -2.7203e-001 +1.8970e+000 -3.8838e+000
2541 0 +9.976134550e-007 +3.137000100e+001 +3.137000100e+001 -2.7204e-001 +1.8969e+000 -3.8838e+000
2554 0 +5.925350415e-007 +3.137000059e+001 +3.137000059e+001 -2.7196e-001 +1.8969e+000 -3.8839e+000
2559 0 +4.947621477e-007 +3.137000049e+001 +3.137000049e+001 -2.7203e-001 +1.8968e+000 -3.8838e+000
2589 0 +1.896000654e-007 +3.137000019e+001 +3.137000019e+001 -2.7203e-001 +1.8968e+000 -3.8839e+000
2664 0 +1.408803456e-007 +3.137000014e+001 +3.137000014e+001 -2.7201e-001 +1.8968e+000 -3.8839e+000
2826 0 +1.034807902e-007 +3.137000010e+001 +3.137000010e+001 -2.7196e-001 +1.8969e+000 -3.8840e+000
2849 0 +9.976750803e-008 +3.137000010e+001 +3.137000010e+001 -2.7200e-001 +1.8968e+000 -3.8840e+000
2885 0 +5.400813663e-008 +3.137000005e+001 +3.137000005e+001 -2.7195e-001 +1.8968e+000 -3.8840e+000
3065 0 +5.355596500e-008 +3.137000005e+001 +3.137000005e+001 -2.7195e-001 +1.8968e+000 -3.8840e+000
3118 0 +3.154458383e-008 +3.137000003e+001 +3.137000003e+001 -2.7197e-001 +1.8968e+000 -3.8840e+000
3127 0 +4.115207730e-009 +3.137000000e+001 +3.137000000e+001 -2.7200e-001 +1.8968e+000 -3.8840e+000
% f evaluations | g evaluations | best noise-free fitness - Fopt (-1.000000000000e+003) + sum g_i+ | measured fitness | best measured fitness or single-digit g-values | x1 | x2...
1 0 +1.488788276e+005 +1.478788276e+005 +1.478788276e+005 +4.8483e+000 -6.6669e-001 -1.2345e+000
12 0 +1.196227001e+005 +1.186227001e+005 +1.186227001e+005 +4.4186e-001 -1.4805e+000 -1.7987e+000
13 0 +1.035462082e+005 +1.025462082e+005 +1.025462082e+005 +1.6178e+000 -3.2092e+000 -2.2888e-001
15 0 +3.430449086e+004 +3.330449086e+004 +3.330449086e+004 -5.3212e-001 -2.8968e+000 +4.7297e+000
17 0 +6.813138447e+002 -3.186861553e+002 -3.186861553e+002 -7.7198e-001 -3.6687e+000 +2.6720e+000
21 0 +7.492895316e+000 -9.925071047e+002 -9.925071047e+002 -2.2259e+000 -3.2741e+000 +3.0592e+000
53 0 +6.805230804e+000 -9.931947692e+002 -9.931947692e+002 -2.1374e+000 -3.4045e+000 +3.1287e+000
108 0 +3.929067539e+000 -9.960709325e+002 -9.960709325e+002 -1.6069e+000 -4.0303e+000 +3.2788e+000
121 0 +3.810416679e+000 -9.961895833e+002 -9.961895833e+002 -1.5846e+000 -3.9979e+000 +3.2565e+000
141 0 +3.195060865e+000 -9.968049391e+002 -9.968049391e+002 -1.3579e+000 -4.0536e+000 +3.2052e+000
171 0 +8.876778779e-001 -9.991123221e+002 -9.991123221e+002 -7.5684e-001 -3.6817e+000 +2.9837e+000
369 0 +3.090216840e-001 -9.996909783e+002 -9.996909783e+002 -5.1914e-001 -3.4595e+000 +2.8828e+000
429 0 +2.968468344e-001 -9.997031532e+002 -9.997031532e+002 -4.6449e-001 -3.4711e+000 +2.8433e+000
437 0 +1.559680991e-001 -9.998440319e+002 -9.998440319e+002 -3.6805e-001 -3.5025e+000 +2.9089e+000
497 0 +1.489903592e-001 -9.998510096e+002 -9.998510096e+002 -3.8788e-001 -3.4954e+000 +2.9312e+000
529 0 +1.418739138e-001 -9.998581261e+002 -9.998581261e+002 -3.4461e-001 -3.4721e+000 +2.8770e+000
539 0 +1.299018097e-001 -9.998700982e+002 -9.998700982e+002 -3.1607e-001 -3.4811e+000 +2.8853e+000
645 0 +8.964208599e-002 -9.999103579e+002 -9.999103579e+002 -3.7056e-001 -3.3823e+000 +2.9381e+000
646 0 +5.086910141e-002 -9.999491309e+002 -9.999491309e+002 -3.0603e-001 -3.4272e+000 +2.9451e+000
659 0 +4.169662847e-002 -9.999583034e+002 -9.999583034e+002 -2.8180e-001 -3.4237e+000 +2.9229e+000
775 0 +4.116650276e-002 -9.999588335e+002 -9.999588335e+002 -2.8611e-001 -3.4185e+000 +2.9012e+000
779 0 +2.820889784e-002 -9.999717911e+002 -9.999717911e+002 -2.6037e-001 -3.4120e+000 +2.9073e+000
823 0 +1.445970288e-002 -9.999855403e+002 -9.999855403e+002 -2.5246e-001 -3.3499e+000 +2.8428e+000
845 0 +4.185815264e-003 -9.999958142e+002 -9.999958142e+002 -2.1640e-001 -3.3315e+000 +2.8276e+000
964 0 +3.989441061e-003 -9.999960106e+002 -9.999960106e+002 -2.1640e-001 -3.3397e+000 +2.8437e+000
994 0 +3.601834811e-003 -9.999963982e+002 -9.999963982e+002 -2.1640e-001 -3.3352e+000 +2.8312e+000
1084 0 +2.961343265e-003 -9.999970387e+002 -9.999970387e+002 -2.1514e-001 -3.3371e+000 +2.8363e+000
1114 0 +2.418544779e-003 -9.999975815e+002 -9.999975815e+002 -2.0963e-001 -3.3386e+000 +2.8400e+000
1144 0 +2.256422725e-003 -9.999977436e+002 -9.999977436e+002 -2.0610e-001 -3.3396e+000 +2.8424e+000
1235 0 +1.603496107e-003 -9.999983965e+002 -9.999983965e+002 -2.0278e-001 -3.3373e+000 +2.8396e+000
1265 0 +1.091534720e-003 -9.999989085e+002 -9.999989085e+002 -1.9772e-001 -3.3374e+000 +2.8382e+000
1385 0 +9.094603890e-004 -9.999990905e+002 -9.999990905e+002 -1.9885e-001 -3.3371e+000 +2.8357e+000
1587 0 +5.251747818e-004 -9.999994748e+002 -9.999994748e+002 -1.9664e-001 -3.3370e+000 +2.8292e+000
1630 0 +5.137176300e-004 -9.999994863e+002 -9.999994863e+002 -1.9582e-001 -3.3371e+000 +2.8286e+000
1780 0 +5.029750466e-004 -9.999994970e+002 -9.999994970e+002 -1.9550e-001 -3.3367e+000 +2.8285e+000
1907 0 +4.751817351e-004 -9.999995248e+002 -9.999995248e+002 -1.9550e-001 -3.3368e+000 +2.8308e+000
2021 0 +2.987177018e-004 -9.999997013e+002 -9.999997013e+002 -1.9448e-001 -3.3322e+000 +2.8260e+000
2111 0 +2.849926050e-004 -9.999997150e+002 -9.999997150e+002 -1.9422e-001 -3.3339e+000 +2.8269e+000
2121 0 +2.751438507e-004 -9.999997249e+002 -9.999997249e+002 -1.9345e-001 -3.3322e+000 +2.8247e+000
2135 0 +2.105942864e-004 -9.999997894e+002 -9.999997894e+002 -1.9186e-001 -3.3314e+000 +2.8239e+000
2142 0 +2.074817321e-004 -9.999997925e+002 -9.999997925e+002 -1.9238e-001 -3.3345e+000 +2.8282e+000
2157 0 +1.896732317e-004 -9.999998103e+002 -9.999998103e+002 -1.9244e-001 -3.3339e+000 +2.8281e+000
2187 0 +1.280561709e-004 -9.999998719e+002 -9.999998719e+002 -1.9047e-001 -3.3324e+000 +2.8278e+000
2198 0 +1.183249459e-004 -9.999998817e+002 -9.999998817e+002 -1.9046e-001 -3.3335e+000 +2.8278e+000
2234 0 +6.382280526e-005 -9.999999362e+002 -9.999999362e+002 -1.8918e-001 -3.3318e+000 +2.8245e+000
2244 0 +5.531094166e-005 -9.999999447e+002 -9.999999447e+002 -1.8883e-001 -3.3321e+000 +2.8247e+000
2285 0 +3.082448529e-005 -9.999999692e+002 -9.999999692e+002 -1.8865e-001 -3.3316e+000 +2.8251e+000
2337 0 +2.788622635e-005 -9.999999721e+002 -9.999999721e+002 -1.8821e-001 -3.3317e+000 +2.8251e+000
2345 0 +1.809334981e-005 -9.999999819e+002 -9.999999819e+002 -1.8795e-001 -3.3316e+000 +2.8252e+000
2405 0 +1.714455004e-005 -9.999999829e+002 -9.999999829e+002 -1.8789e-001 -3.3316e+000 +2.8252e+000
2418 0 +8.634269761e-006 -9.999999914e+002 -9.999999914e+002 -1.8726e-001 -3.3313e+000 +2.8247e+000
2653 0 +6.708285696e-006 -9.999999933e+002 -9.999999933e+002 -1.8705e-001 -3.3309e+000 +2.8242e+000
2803 0 +1.798411517e-006 -9.999999982e+002 -9.999999982e+002 -1.8685e-001 -3.3306e+000 +2.8243e+000
2854 0 +1.010593905e-006 -9.999999990e+002 -9.999999990e+002 -1.8672e-001 -3.3305e+000 +2.8242e+000
3017 0 +9.988564216e-007 -9.999999990e+002 -9.999999990e+002 -1.8672e-001 -3.3305e+000 +2.8242e+000
3079 0 +9.514313888e-007 -9.999999990e+002 -9.999999990e+002 -1.8671e-001 -3.3305e+000 +2.8242e+000
3191 0 +5.366589448e-007 -9.999999995e+002 -9.999999995e+002 -1.8664e-001 -3.3305e+000 +2.8241e+000
3270 0 +4.198436727e-007 -9.999999996e+002 -9.999999996e+002 -1.8661e-001 -3.3305e+000 +2.8241e+000
3329 0 +2.815896778e-007 -9.999999997e+002 -9.999999997e+002 -1.8655e-001 -3.3305e+000 +2.8241e+000
3378 0 +1.917389909e-007 -9.999999998e+002 -9.999999998e+002 -1.8653e-001 -3.3304e+000 +2.8241e+000
3399 0 +6.466098057e-008 -9.999999999e+002 -9.999999999e+002 -1.8648e-001 -3.3304e+000 +2.8240e+000
3413 0 +5.319213869e-008 -9.999999999e+002 -9.999999999e+002 -1.8646e-001 -3.3304e+000 +2.8240e+000
3532 0 +4.687899491e-008 -1.000000000e+003 -1.000000000e+003 -1.8644e-001 -3.3304e+000 +2.8240e+000
3652 0 +3.693708095e-008 -1.000000000e+003 -1.000000000e+003 -1.8645e-001 -3.3304e+000 +2.8240e+000
3863 0 +4.774619811e-009 -1.000000000e+003 -1.000000000e+003 -1.8641e-001 -3.3304e+000 +2.8240e+000
% f evaluations | g evaluations | best noise-free fitness - Fopt (1.319200000000e+002) + sum g_i+ | measured fitness | best measured fitness or single-digit g-values | x1 | x2...
1 0 +1.936405543e+005 +1.937724743e+005 +1.937724743e+005 +3.6307e+000 -4.8583e+000 +2.2142e+000
2 0 +1.232569864e+005 +1.233889064e+005 +1.233889064e+005 +2.4472e+000 +2.8157e+000 +1.0690e+000
3 0 +1.382798931e+004 +1.395990931e+004 +1.395990931e+004 +4.0115e+000 +2.8945e+000 -2.4116e+000
5 0 +6.720948807e+003 +6.852868807e+003 +6.852868807e+003 +5.0000e+000 +5.0000e+000 -5.0000e+000
10 0 +3.447156989e+002 +4.766356989e+002 +4.766356989e+002 +5.0000e+000 -6.6494e-001 -5.0000e+000
12 0 +3.253388279e+002 +4.572588279e+002 +4.572588279e+002 +5.0000e+000 -3.4127e-002 -3.9078e+000
20 0 +3.209294094e+002 +4.528494094e+002 +4.528494094e+002 +5.0000e+000 +1.0956e-001 -3.6857e+000
22 0 +3.090022439e+002 +4.409222439e+002 +4.409222439e+002 +5.0000e+000 +3.0087e-001 -3.5945e+000
26 0 +2.842875427e+002 +4.162075427e+002 +4.162075427e+002 +5.0000e+000 +5.7611e-001 -3.7141e+000
31 0 +2.159397536e+002 +3.478597536e+002 +3.478597536e+002 +3.6307e+000 +5.7611e-001 -3.7141e+000
32 0 +1.130778090e+002 +2.449978090e+002 +2.449978090e+002 +1.3731e+000 +1.5263e+000 -3.0203e+000
62 0 +1.018810095e+002 +2.338010095e+002 +2.338010095e+002 +1.0294e+000 +1.1137e+000 -4.3289e+000
66 0 +3.571446448e+001 +1.676344645e+002 +1.676344645e+002 -1.0936e-001 +2.7897e+000 -4.3604e+000
67 0 +7.269346909e+000 +1.391893469e+002 +1.391893469e+002 -2.4103e+000 +2.1094e+000 -4.0587e+000
97 0 +6.110083447e+000 +1.380300834e+002 +1.380300834e+002 -2.6033e+000 +2.2876e+000 -4.7663e+000
102 0 +4.602958337e+000 +1.365229583e+002 +1.365229583e+002 -3.1804e+000 +2.0398e+000 -4.9096e+000
148 0 +1.312500424e+000 +1.332325004e+002 +1.332325004e+002 -4.3112e+000 +1.2707e+000 -4.0950e+000
335 0 +4.445725448e-001 +1.323645725e+002 +1.323645725e+002 -4.1316e+000 +1.5436e+000 -3.9331e+000
380 0 +8.138843306e-002 +1.320013884e+002 +1.320013884e+002 -3.9347e+000 +1.8305e+000 -3.7574e+000
452 0 +8.092321774e-002 +1.320009232e+002 +1.320009232e+002 -3.9327e+000 +1.8334e+000 -3.7556e+000
465 0 +4.432124455e-002 +1.319643212e+002 +1.319643212e+002 -4.0029e+000 +1.8107e+000 -3.7508e+000
710 0 +4.252524574e-002 +1.319625252e+002 +1.319625252e+002 -3.9072e+000 +1.9062e+000 -3.7141e+000
727 0 +3.545808309e-002 +1.319554581e+002 +1.319554581e+002 -3.9206e+000 +1.9030e+000 -3.7060e+000
757 0 +2.231961928e-002 +1.319423196e+002 +1.319423196e+002 -3.9465e+000 +1.8887e+000 -3.7060e+000
780 0 +1.836241391e-002 +1.319383624e+002 +1.319383624e+002 -3.9233e+000 +1.9282e+000 -3.7390e+000
883 0 +1.754260562e-002 +1.319375426e+002 +1.319375426e+002 -3.9547e+000 +1.8938e+000 -3.7456e+000
943 0 +1.581592809e-002 +1.319358159e+002 +1.319358159e+002 -3.9578e+000 +1.8957e+000 -3.7454e+000
992 0 +1.174896403e-002 +1.319317490e+002 +1.319317490e+002 -3.9858e+000 +1.8690e+000 -3.7244e+000
1071 0 +8.784351188e-003 +1.319287844e+002 +1.319287844e+002 -3.9761e+000 +1.8837e+000 -3.7247e+000
1094 0 +8.703370973e-003 +1.319287034e+002 +1.319287034e+002 -3.9809e+000 +1.8815e+000 -3.7265e+000
1095 0 +7.555536099e-003 +1.319275555e+002 +1.319275555e+002 -3.9583e+000 +1.9105e+000 -3.7287e+000
1137 0 +1.312604690e-003 +1.319213126e+002 +1.319213126e+002 -3.9681e+000 +1.9193e+000 -3.7100e+000
1199 0 +5.560158476e-004 +1.319205560e+002 +1.319205560e+002 -3.9739e+000 +1.9118e+000 -3.7024e+000
1305 0 +5.120315228e-004 +1.319205120e+002 +1.319205120e+002 -3.9755e+000 +1.9109e+000 -3.6997e+000
1346 0 +1.554181524e-004 +1.319201554e+002 +1.319201554e+002 -3.9777e+000 +1.9139e+000 -3.7024e+000
1482 0 +1.426747650e-004 +1.319201427e+002 +1.319201427e+002 -3.9815e+000 +1.9084e+000 -3.7025e+000
1521 0 +9.343624328e-005 +1.319200934e+002 +1.319200934e+002 -3.9819e+000 +1.9085e+000 -3.7017e+000
1525 0 +6.614839651e-005 +1.319200661e+002 +1.319200661e+002 -3.9822e+000 +1.9086e+000 -3.7012e+000
1624 0 +6.127473199e-005 +1.319200613e+002 +1.319200613e+002 -3.9828e+000 +1.9083e+000 -3.7011e+000
1875 0 +3.629309256e-005 +1.319200363e+002 +1.319200363e+002 -3.9812e+000 +1.9099e+000 -3.7000e+000
1951 0 +2.655544105e-005 +1.319200266e+002 +1.319200266e+002 -3.9829e+000 +1.9091e+000 -3.6999e+000
2009 0 +1.617969454e-005 +1.319200162e+002 +1.319200162e+002 -3.9829e+000 +1.9091e+000 -3.7000e+000
2042 0 +1.574462416e-005 +1.319200157e+002 +1.319200157e+002 -3.9828e+000 +1.9093e+000 -3.7000e+000
2045 0 +5.470657641e-006 +1.319200055e+002 +1.319200055e+002 -3.9824e+000 +1.9099e+000 -3.6996e+000
2104 0 +4.907352690e-006 +1.319200049e+002 +1.319200049e+002 -3.9819e+000 +1.9105e+000 -3.6993e+000
2140 0 +3.156379080e-006 +1.319200032e+002 +1.319200032e+002 -3.9820e+000 +1.9104e+000 -3.6993e+000
2221 0 +1.703449669e-006 +1.319200017e+002 +1.319200017e+002 -3.9820e+000 +1.9105e+000 -3.6994e+000
2327 0 +9.232743992e-007 +1.319200009e+002 +1.319200009e+002 -3.9822e+000 +1.9105e+000 -3.6994e+000
2333 0 +4.818325579e-007 +1.319200005e+002 +1.319200005e+002 -3.9822e+000 +1.9105e+000 -3.6993e+000
2450 0 +2.995127772e-007 +1.319200003e+002 +1.319200003e+002 -3.9823e+000 +1.9104e+000 -3.6993e+000
2630 0 +1.781540391e-007 +1.319200002e+002 +1.319200002e+002 -3.9824e+000 +1.9104e+000 -3.6992e+000
2633 0 +1.720587477e-007 +1.319200002e+002 +1.319200002e+002 -3.9824e+000 +1.9104e+000 -3.6992e+000
2690 0 +1.204457192e-007 +1.319200001e+002 +1.319200001e+002 -3.9824e+000 +1.9104e+000 -3.6992e+000
2693 0 +1.147786293e-007 +1.319200001e+002 +1.319200001e+002 -3.9824e+000 +1.9103e+000 -3.6992e+000
2723 0 +4.996394409e-008 +1.319200000e+002 +1.319200000e+002 -3.9824e+000 +1.9104e+000 -3.6992e+000
2820 0 +4.527043984e-008 +1.319200000e+002 +1.319200000e+002 -3.9824e+000 +1.9104e+000 -3.6992e+000
2868 0 +4.327387160e-008 +1.319200000e+002 +1.319200000e+002 -3.9824e+000 +1.9104e+000 -3.6992e+000
2949 0 +2.969355251e-008 +1.319200000e+002 +1.319200000e+002 -3.9824e+000 +1.9104e+000 -3.6992e+000
3003 0 +2.574432756e-008 +1.319200000e+002 +1.319200000e+002 -3.9824e+000 +1.9104e+000 -3.6992e+000
3129 0 +1.183744303e-008 +1.319200000e+002 +1.319200000e+002 -3.9824e+000 +1.9104e+000 -3.6992e+000
3209 0 +1.775845249e-009 +1.319200000e+002 +1.319200000e+002 -3.9824e+000 +1.9104e+000 -3.6992e+000
% f evaluations | g evaluations | best noise-free fitness - Fopt (5.908400000000e+002) + sum g_i+ | measured fitness | best measured fitness or single-digit g-values | x1 | x2...
1 0 +5.594517341e+005 +5.600425741e+005 +5.600425741e+005 -4.9995e+000 +3.2424e+000 -4.7910e+000
2 0 +6.259362899e+004 +6.318446899e+004 +6.318446899e+004 +7.7146e-001 +7.3065e-001 +1.2088e+000
5 0 +2.123545776e+002 +8.031945776e+002 +8.031945776e+002 +5.0000e+000 -5.0000e+000 +5.0000e+000
12 0 +8.758835747e+001 +6.784283575e+002 +6.784283575e+002 +2.0063e+000 -5.0000e+000 +1.0427e+000
34 0 +6.781295376e+001 +6.586529538e+002 +6.586529538e+002 +4.0747e+000 -1.5857e+000 +2.0777e+000
42 0 +3.267997582e+001 +6.235199758e+002 +6.235199758e+002 +2.4855e+000 -3.6551e+000 -3.4699e-001
43 0 +1.239113960e+001 +6.032311396e+002 +6.032311396e+002 +2.8018e+000 -3.0172e+000 -1.5907e+000
48 0 +1.422406665e+000 +5.922624067e+002 +5.922624067e+002 +1.9470e+000 -4.0315e+000 -3.4246e+000
116 0 +1.402540771e+000 +5.922425408e+002 +5.922425408e+002 +1.7968e+000 -3.9871e+000 -3.2347e+000
143 0 +1.366357026e+000 +5.922063570e+002 +5.922063570e+002 +1.8948e+000 -3.3743e+000 -2.9967e+000
283 0 +4.060151059e-001 +5.912460151e+002 +5.912460151e+002 +1.6798e+000 -3.3115e+000 -3.2213e+000
386 0 +2.967035497e-001 +5.911367035e+002 +5.911367035e+002 +1.6688e+000 -3.3075e+000 -3.3122e+000
427 0 +1.575029608e-001 +5.909975030e+002 +5.909975030e+002 +1.5932e+000 -3.4464e+000 -3.3958e+000
520 0 +1.511255255e-001 +5.909911255e+002 +5.909911255e+002 +1.5809e+000 -3.4718e+000 -3.4111e+000
523 0 +1.464066918e-001 +5.909864067e+002 +5.909864067e+002 +1.5660e+000 -3.4887e+000 -3.4212e+000
536 0 +1.280027051e-001 +5.909680027e+002 +5.909680027e+002 +1.5516e+000 -3.4845e+000 -3.4315e+000
573 0 +8.234230752e-002 +5.909223423e+002 +5.909223423e+002 +1.5361e+000 -3.4811e+000 -3.4603e+000
747 0 +8.034101796e-002 +5.909203410e+002 +5.909203410e+002 +1.5378e+000 -3.4594e+000 -3.4520e+000
780 0 +7.452410994e-002 +5.909145241e+002 +5.909145241e+002 +1.5041e+000 -3.4838e+000 -3.4740e+000
844 0 +7.305577199e-002 +5.909130558e+002 +5.909130558e+002 +1.5064e+000 -3.4784e+000 -3.4717e+000
883 0 +3.917101129e-002 +5.908791710e+002 +5.908791710e+002 +1.5163e+000 -3.3743e+000 -3.4693e+000
913 0 +2.490128641e-002 +5.908649013e+002 +5.908649013e+002 +1.5011e+000 -3.3397e+000 -3.4483e+000
930 0 +2.280418559e-002 +5.908628042e+002 +5.908628042e+002 +1.4971e+000 -3.3416e+000 -3.4516e+000
1018 0 +1.737400350e-002 +5.908573740e+002 +5.908573740e+002 +1.4886e+000 -3.3205e+000 -3.4524e+000
1024 0 +1.693198072e-002 +5.908569320e+002 +5.908569320e+002 +1.4908e+000 -3.3248e+000 -3.4590e+000
1125 0 +1.573255771e-002 +5.908557326e+002 +5.908557326e+002 +1.4735e+000 -3.3272e+000 -3.4482e+000
1135 0 +1.538552318e-002 +5.908553855e+002 +5.908553855e+002 +1.4710e+000 -3.3064e+000 -3.4442e+000
1215 0 +1.338855396e-002 +5.908533886e+002 +5.908533886e+002 +1.4735e+000 -3.3362e+000 -3.4561e+000
1245 0 +1.216555188e-002 +5.908521656e+002 +5.908521656e+002 +1.4735e+000 -3.3088e+000 -3.4527e+000
1247 0 +1.088835479e-002 +5.908508884e+002 +5.908508884e+002 +1.4714e+000 -3.3074e+000 -3.4540e+000
1309 0 +9.837100204e-003 +5.908498371e+002 +5.908498371e+002 +1.4713e+000 -3.3036e+000 -3.4568e+000
1316 0 +7.390694559e-003 +5.908473907e+002 +5.908473907e+002 +1.4660e+000 -3.3240e+000 -3.4657e+000
1348 0 +5.174104601e-003 +5.908451741e+002 +5.908451741e+002 +1.4663e+000 -3.3130e+000 -3.4719e+000
1400 0 +4.969679334e-003 +5.908449697e+002 +5.908449697e+002 +1.4659e+000 -3.3164e+000 -3.4717e+000
1407 0 +4.701529956e-003 +5.908447015e+002 +5.908447015e+002 +1.4648e+000 -3.3151e+000 -3.4733e+000
1438 0 +4.668630089e-003 +5.908446686e+002 +5.908446686e+002 +1.4641e+000 -3.3151e+000 -3.4734e+000
1471 0 +2.546574696e-003 +5.908425466e+002 +5.908425466e+002 +1.4614e+000 -3.3428e+000 -3.4864e+000
1491 0 +2.812479897e-004 +5.908402812e+002 +5.908402812e+002 +1.4506e+000 -3.3370e+000 -3.4950e+000
1498 0 +2.693734208e-004 +5.908402694e+002 +5.908402694e+002 +1.4497e+000 -3.3397e+000 -3.4959e+000
1518 0 +2.590175137e-004 +5.908402590e+002 +5.908402590e+002 +1.4498e+000 -3.3350e+000 -3.4946e+000
1572 0 +1.495614141e-004 +5.908401496e+002 +5.908401496e+002 +1.4490e+000 -3.3365e+000 -3.4958e+000
1703 0 +1.462111594e-004 +5.908401462e+002 +5.908401462e+002 +1.4489e+000 -3.3368e+000 -3.4960e+000
1708 0 +1.320682289e-004 +5.908401321e+002 +5.908401321e+002 +1.4464e+000 -3.3385e+000 -3.4964e+000
1715 0 +1.099477194e-004 +5.908401099e+002 +5.908401099e+002 +1.4456e+000 -3.3378e+000 -3.4966e+000
1794 0 +1.082439236e-004 +5.908401082e+002 +5.908401082e+002 +1.4457e+000 -3.3380e+000 -3.4966e+000
1828 0 +4.884031614e-005 +5.908400488e+002 +5.908400488e+002 +1.4472e+000 -3.3366e+000 -3.4970e+000
1835 0 +3.373719812e-005 +5.908400337e+002 +5.908400337e+002 +1.4469e+000 -3.3365e+000 -3.4971e+000
1888 0 +3.082603132e-005 +5.908400308e+002 +5.908400308e+002 +1.4467e+000 -3.3362e+000 -3.4970e+000
1998 0 +1.772762539e-005 +5.908400177e+002 +5.908400177e+002 +1.4466e+000 -3.3370e+000 -3.4981e+000
2248 0 +1.706669570e-005 +5.908400171e+002 +5.908400171e+002 +1.4466e+000 -3.3369e+000 -3.4981e+000
2298 0 +1.648379998e-005 +5.908400165e+002 +5.908400165e+002 +1.4464e+000 -3.3373e+000 -3.4981e+000
2368 0 +1.577667717e-005 +5.908400158e+002 +5.908400158e+002 +1.4465e+000 -3.3368e+000 -3.4981e+000
2392 0 +1.144247460e-005 +5.908400114e+002 +5.908400114e+002 +1.4459e+000 -3.3366e+000 -3.4978e+000
2397 0 +9.918609408e-006 +5.908400099e+002 +5.908400099e+002 +1.4459e+000 -3.3366e+000 -3.4979e+000
2415 0 +7.602818187e-006 +5.908400076e+002 +5.908400076e+002 +1.4459e+000 -3.3367e+000 -3.4981e+000
2452 0 +2.359876021e-006 +5.908400024e+002 +5.908400024e+002 +1.4459e+000 -3.3358e+000 -3.4981e+000
2461 0 +1.933886210e-006 +5.908400019e+002 +5.908400019e+002 +1.4459e+000 -3.3358e+000 -3.4981e+000
2476 0 +1.796410970e-006 +5.908400018e+002 +5.908400018e+002 +1.4458e+000 -3.3358e+000 -3.4981e+000
2516 0 +1.388873216e-006 +5.908400014e+002 +5.908400014e+002 +1.4457e+000 -3.3359e+000 -3.4981e+000
2521 0 +1.186002578e-006 +5.908400012e+002 +5.908400012e+002 +1.4458e+000 -3.3359e+000 -3.4981e+000
2583 0 +9.447782077e-007 +5.908400009e+002 +5.908400009e+002 +1.4458e+000 -3.3359e+000 -3.4982e+000
2584 0 +4.494413588e-007 +5.908400004e+002 +5.908400004e+002 +1.4457e+000 -3.3361e+000 -3.4983e+000
2828 0 +4.276537311e-007 +5.908400004e+002 +5.908400004e+002 +1.4457e+000 -3.3362e+000 -3.4984e+000
2998 0 +3.281877525e-007 +5.908400003e+002 +5.908400003e+002 +1.4457e+000 -3.3361e+000 -3.4983e+000
3011 0 +3.193074463e-007 +5.908400003e+002 +5.908400003e+002 +1.4457e+000 -3.3361e+000 -3.4983e+000
3033 0 +7.306255156e-008 +5.908400001e+002 +5.908400001e+002 +1.4456e+000 -3.3360e+000 -3.4984e+000
3069 0 +6.061350177e-008 +5.908400001e+002 +5.908400001e+002 +1.4456e+000 -3.3360e+000 -3.4984e+000
3143 0 +5.847994089e-008 +5.908400001e+002 +5.908400001e+002 +1.4456e+000 -3.3360e+000 -3.4984e+000
3338 0 +5.676349701e-008 +5.908400001e+002 +5.908400001e+002 +1.4456e+000 -3.3360e+000 -3.4984e+000
3363 0 +2.039780611e-008 +5.908400000e+002 +5.908400000e+002 +1.4456e+000 -3.3360e+000 -3.4984e+000
3423 0 +1.581258857e-008 +5.908400000e+002 +5.908400000e+002 +1.4456e+000 -3.3360e+000 -3.4984e+000
3482 0 +1.514138148e-008 +5.908400000e+002 +5.908400000e+002 +1.4456e+000 -3.3360e+000 -3.4984e+000
3486 0 +1.258206339e-008 +5.908400000e+002 +5.908400000e+002 +1.4456e+000 -3.3360e+000 -3.4984e+000
3501 0 +1.117132342e-008 +5.908400000e+002 +5.908400000e+002 +1.4456e+000 -3.3360e+000 -3.4984e+000
3546 0 +6.065306479e-009 +5.908400000e+002 +5.908400000e+002 +1.4456e+000 -3.3360e+000 -3.4984e+000
% f evaluations | g evaluations | best noise-free fitness - Fopt (6.749000000000e+001) + sum g_i+ | measured fitness | best measured fitness or single-digit g-values | x1 | x2...
1 0 +1.007254490e+005 +1.007929390e+005 +1.007929390e+005 +3.7398e+000 +3.9286e-001 +1.4004e+000
3 0 +6.336055816e+004 +6.342804816e+004 +6.342804816e+004 -4.7867e+000 -3.5662e+000 +3.9901e+000
5 0 +3.232415001e+002 +3.907315001e+002 +3.907315001e+002 -5.0000e+000 +5.0000e+000 +5.0000e+000
8 0 +8.246076711e+001 +1.499507671e+002 +1.499507671e+002 -2.7749e+000 +5.0000e+000 -4.2017e-002
21 0 +4.954861802e+001 +1.170386180e+002 +1.170386180e+002 -1.4993e-002 +3.8031e+000 +2.0024e+000
23 0 +6.136977542e+000 +7.362697754e+001 +7.362697754e+001 -7.3672e-001 +9.8224e-001 +3.4030e-001
74 0 +3.246840164e+000 +7.073684016e+001 +7.073684016e+001 -1.1594e+000 +1.6401e-001 +5.2679e-001
75 0 +2.118942363e+000 +6.960894236e+001 +6.960894236e+001 -7.0574e-001 +1.4296e-001 +7.2647e-001
76 0 +1.789279335e+000 +6.927927933e+001 +6.927927933e+001 -6.1052e-001 +1.2349e-001 +7.6255e-001
164 0 +1.380761726e+000 +6.887076173e+001 +6.887076173e+001 -1.0339e+000 -4.7809e-001 +9.4830e-001
189 0 +5.796640362e-001 +6.806966404e+001 +6.806966404e+001 -8.5939e-001 -6.8964e-001 +9.5196e-001
206 0 +3.773448510e-001 +6.786734485e+001 +6.786734485e+001 -9.9773e-001 -7.7388e-001 +8.8196e-001
236 0 +2.884456668e-001 +6.777844567e+001 +6.777844567e+001 -9.4778e-001 -7.7388e-001 +8.8196e-001
266 0 +2.442057141e-001 +6.773420571e+001 +6.773420571e+001 -9.1581e-001 -7.7388e-001 +8.8196e-001
289 0 +1.556103192e-001 +6.764561032e+001 +6.764561032e+001 -9.4222e-001 -8.1331e-001 +8.4919e-001
518 0 +1.545292882e-001 +6.764452929e+001 +6.764452929e+001 -8.5379e-001 -7.5159e-001 +8.6090e-001
537 0 +1.167965262e-001 +6.760679653e+001 +6.760679653e+001 -8.7901e-001 -7.9888e-001 +8.5159e-001
597 0 +8.519680522e-002 +6.757519681e+001 +6.757519681e+001 -8.7314e-001 -8.1725e-001 +8.5159e-001
723 0 +7.991882151e-002 +6.756991882e+001 +6.756991882e+001 -8.7606e-001 -8.0070e-001 +8.3143e-001
757 0 +4.877549409e-002 +6.753877549e+001 +6.753877549e+001 -7.7686e-001 -7.6357e-001 +8.0983e-001
827 0 +4.126287621e-002 +6.753126288e+001 +6.753126288e+001 -7.9558e-001 -7.8978e-001 +8.1137e-001
927 0 +4.041054471e-002 +6.753041054e+001 +6.753041054e+001 -8.6067e-001 -7.8504e-001 +7.6893e-001
966 0 +2.604980762e-002 +6.751604981e+001 +6.751604981e+001 -9.3575e-001 -8.7626e-001 +7.8505e-001
1004 0 +2.406622053e-002 +6.751406622e+001 +6.751406622e+001 -9.1942e-001 -8.7305e-001 +7.9701e-001
1074 0 +2.025208465e-002 +6.751025208e+001 +6.751025208e+001 -8.5177e-001 -8.2755e-001 +7.9836e-001
1078 0 +1.804946053e-002 +6.750804946e+001 +6.750804946e+001 -8.7429e-001 -8.3168e-001 +7.8117e-001
1092 0 +1.776157066e-002 +6.750776157e+001 +6.750776157e+001 -8.4348e-001 -8.1868e-001 +7.8118e-001
1108 0 +1.518295659e-002 +6.750518296e+001 +6.750518296e+001 -8.7429e-001 -8.3719e-001 +7.7875e-001
1138 0 +1.361345927e-002 +6.750361346e+001 +6.750361346e+001 -8.7429e-001 -8.4071e-001 +7.7721e-001
1142 0 +1.347896711e-002 +6.750347897e+001 +6.750347897e+001 -8.6755e-001 -8.4809e-001 +7.9542e-001
1168 0 +1.241961156e-002 +6.750241961e+001 +6.750241961e+001 -8.7429e-001 -8.4297e-001 +7.7622e-001
1171 0 +1.213220618e-002 +6.750213221e+001 +6.750213221e+001 -8.6549e-001 -8.3939e-001 +7.7824e-001
1185 0 +6.616771266e-003 +6.749661677e+001 +6.749661677e+001 -8.6593e-001 -8.7024e-001 +7.9893e-001
1220 0 +3.742688401e-003 +6.749374269e+001 +6.749374269e+001 -8.8269e-001 -8.7726e-001 +7.8329e-001
1254 0 +3.694828162e-003 +6.749369483e+001 +6.749369483e+001 -8.8445e-001 -8.7845e-001 +7.8268e-001
1284 0 +3.542056786e-003 +6.749354206e+001 +6.749354206e+001 -8.8365e-001 -8.7796e-001 +7.7917e-001
1366 0 +2.506837893e-003 +6.749250684e+001 +6.749250684e+001 -8.8405e-001 -8.8273e-001 +7.7994e-001
1370 0 +1.738669495e-003 +6.749173867e+001 +6.749173867e+001 -8.8723e-001 -8.8973e-001 +7.8283e-001
1379 0 +1.648894717e-003 +6.749164889e+001 +6.749164889e+001 -8.8707e-001 -8.9006e-001 +7.8304e-001
1393 0 +1.400415244e-003 +6.749140042e+001 +6.749140042e+001 -8.8896e-001 -8.9361e-001 +7.8367e-001
1394 0 +8.088833042e-004 +6.749080888e+001 +6.749080888e+001 -8.8501e-001 -8.9766e-001 +7.8910e-001
1397 0 +6.872194293e-004 +6.749068722e+001 +6.749068722e+001 -8.8246e-001 -8.9445e-001 +7.8639e-001
1409 0 +4.337249076e-004 +6.749043372e+001 +6.749043372e+001 -8.8170e-001 -8.9963e-001 +7.9009e-001
1499 0 +1.489528525e-004 +6.749014895e+001 +6.749014895e+001 -8.8325e-001 -9.0134e-001 +7.8692e-001
1666 0 +1.469795054e-004 +6.749014698e+001 +6.749014698e+001 -8.8280e-001 -9.0138e-001 +7.8766e-001
1683 0 +1.422539281e-004 +6.749014225e+001 +6.749014225e+001 -8.8365e-001 -9.0191e-001 +7.8634e-001
1688 0 +6.684775248e-005 +6.749006685e+001 +6.749006685e+001 -8.8332e-001 -9.0365e-001 +7.8807e-001
1792 0 +5.666552146e-005 +6.749005667e+001 +6.749005667e+001 -8.8296e-001 -9.0368e-001 +7.8811e-001
1798 0 +2.730695414e-005 +6.749002731e+001 +6.749002731e+001 -8.8323e-001 -9.0487e-001 +7.8813e-001
1858 0 +1.600329183e-005 +6.749001600e+001 +6.749001600e+001 -8.8312e-001 -9.0485e-001 +7.8760e-001
1884 0 +1.568939241e-005 +6.749001569e+001 +6.749001569e+001 -8.8313e-001 -9.0494e-001 +7.8758e-001
2035 0 +8.568846411e-006 +6.749000857e+001 +6.749000857e+001 -8.8261e-001 -9.0515e-001 +7.8797e-001
2179 0 +6.764478243e-006 +6.749000676e+001 +6.749000676e+001 -8.8270e-001 -9.0532e-001 +7.8796e-001
2194 0 +5.620942815e-006 +6.749000562e+001 +6.749000562e+001 -8.8292e-001 -9.0544e-001 +7.8784e-001
2229 0 +3.255068577e-006 +6.749000326e+001 +6.749000326e+001 -8.8299e-001 -9.0598e-001 +7.8822e-001
2270 0 +2.574486800e-006 +6.749000257e+001 +6.749000257e+001 -8.8322e-001 -9.0615e-001 +7.8816e-001
2359 0 +9.260126888e-007 +6.749000093e+001 +6.749000093e+001 -8.8324e-001 -9.0617e-001 +7.8800e-001
2360 0 +8.492178694e-007 +6.749000085e+001 +6.749000085e+001 -8.8308e-001 -9.0607e-001 +7.8797e-001
2428 0 +5.372973959e-007 +6.749000054e+001 +6.749000054e+001 -8.8310e-001 -9.0613e-001 +7.8798e-001
2643 0 +3.692950798e-007 +6.749000037e+001 +6.749000037e+001 -8.8307e-001 -9.0623e-001 +7.8805e-001
2719 0 +1.839787842e-007 +6.749000018e+001 +6.749000018e+001 -8.8312e-001 -9.0626e-001 +7.8801e-001
2786 0 +1.739727793e-007 +6.749000017e+001 +6.749000017e+001 -8.8313e-001 -9.0627e-001 +7.8801e-001
2826 0 +1.645008894e-007 +6.749000016e+001 +6.749000016e+001 -8.8314e-001 -9.0628e-001 +7.8801e-001
2942 0 +3.658135483e-008 +6.749000004e+001 +6.749000004e+001 -8.8319e-001 -9.0637e-001 +7.8802e-001
3054 0 +7.542880098e-009 +6.749000001e+001 +6.749000001e+001 -8.8321e-001 -9.0640e-001 +7.8800e-001
% f evaluations | g evaluations | best noise-free fitness - Fopt (3.085000000000e+001) + sum g_i+ | measured fitness | best measured fitness or single-digit g-values | x1 | x2...
1 0 +1.087873532e+004 +1.090958532e+004 +1.090958532e+004 +2.8718e+000 -4.6050e+000 +5.2003e-002
2 0 +2.104781017e+002 +2.413281017e+002 +2.413281017e+002 +1.9665e-001 +4.1775e+000 -1.6175e+000
7 0 +1.068675519e+002 +1.377175519e+002 +1.377175519e+002 +1.7174e+000 -2.5218e+000 -4.1006e+000
9 0 +4.654680948e+001 +7.739680948e+001 +7.739680948e+001 +1.6398e+000 +2.1043e-001 -5.1739e-001
41 0 +3.487033177e+001 +6.572033177e+001 +6.572033177e+001 +1.0384e+000 -2.9892e+000 -1.3658e+000
45 0 +2.351873148e+001 +5.436873148e+001 +5.436873148e+001 +9.5020e-001 -4.3126e+000 -1.2850e+000
49 0 +2.018750681e+001 +5.103750681e+001 +5.103750681e+001 +2.7916e+000 -1.4672e+000 -9.0619e-001
63 0 +8.315560726e+000 +3.916556073e+001 +3.916556073e+001 +1.8811e+000 -3.3065e+000 -5.2470e-001
73 0 +7.256613218e+000 +3.810661322e+001 +3.810661322e+001 +2.0890e+000 -3.8362e+000 -9.0849e-001
81 0 +4.728666526e+000 +3.557866653e+001 +3.557866653e+001 +2.0668e+000 -4.6972e+000 -8.3747e-001
94 0 +2.000289588e+000 +3.285028959e+001 +3.285028959e+001 +2.1782e+000 -4.0346e+000 -1.0131e-001
183 0 +1.888018269e+000 +3.273801827e+001 +3.273801827e+001 +2.1900e+000 -3.9872e+000 -6.8498e-002
213 0 +1.525064371e+000 +3.237506437e+001 +3.237506437e+001 +2.2645e+000 -4.1833e+000 -2.2678e-001
243 0 +1.460990551e+000 +3.231099055e+001 +3.231099055e+001 +2.3121e+000 -4.3087e+000 -3.2809e-001
254 0 +1.423405366e+000 +3.227340537e+001 +3.227340537e+001 +2.5227e+000 -4.1605e+000 -5.6100e-001
266 0 +7.397518512e-001 +3.158975185e+001 +3.158975185e+001 +2.8702e+000 -3.7433e+000 -4.9020e-001
285 0 +7.178132937e-001 +3.156781329e+001 +3.156781329e+001 +2.5657e+000 -3.6111e+000 -1.0959e-001
304 0 +4.101445686e-001 +3.126014457e+001 +3.126014457e+001 +2.6705e+000 -3.5712e+000 -1.1618e-001
391 0 +3.858357371e-001 +3.123583574e+001 +3.123583574e+001 +2.7074e+000 -3.5501e+000 -1.3367e-001
409 0 +1.885436888e-001 +3.103854369e+001 +3.103854369e+001 +2.7921e+000 -3.5707e+000 -1.4299e-001
426 0 +1.826464414e-001 +3.103264644e+001 +3.103264644e+001 +2.7896e+000 -3.6378e+000 -1.8615e-001
438 0 +1.500777632e-001 +3.100007776e+001 +3.100007776e+001 +2.8160e+000 -3.9006e+000 -2.9544e-001
492 0 +1.436929699e-001 +3.099369297e+001 +3.099369297e+001 +2.7759e+000 -3.8739e+000 -2.3861e-001
496 0 +1.240528755e-001 +3.097405288e+001 +3.097405288e+001 +2.7761e+000 -3.8575e+000 -2.1580e-001
508 0 +5.465877526e-002 +3.090465878e+001 +3.090465878e+001 +2.8594e+000 -3.8228e+000 -2.4185e-001
551 0 +4.289277817e-002 +3.089289278e+001 +3.089289278e+001 +2.8450e+000 -3.7708e+000 -2.0249e-001
611 0 +2.458643401e-002 +3.087458643e+001 +3.087458643e+001 +2.8608e+000 -3.7664e+000 -1.9270e-001
762 0 +1.769973392e-002 +3.086769973e+001 +3.086769973e+001 +2.8858e+000 -3.7680e+000 -2.0427e-001
880 0 +1.705650167e-002 +3.086705650e+001 +3.086705650e+001 +2.8794e+000 -3.7862e+000 -2.0030e-001
937 0 +1.545259191e-002 +3.086545259e+001 +3.086545259e+001 +2.8796e+000 -3.7833e+000 -1.9640e-001
941 0 +1.401770454e-002 +3.086401770e+001 +3.086401770e+001 +2.8886e+000 -3.7572e+000 -1.9724e-001
971 0 +8.832862643e-003 +3.085883286e+001 +3.085883286e+001 +2.8999e+000 -3.7682e+000 -1.9651e-001
1078 0 +4.476243521e-003 +3.085447624e+001 +3.085447624e+001 +2.8910e+000 -3.7165e+000 -1.6146e-001
1198 0 +3.549096661e-003 +3.085354910e+001 +3.085354910e+001 +2.8889e+000 -3.7331e+000 -1.6186e-001
1211 0 +2.856338357e-003 +3.085285634e+001 +3.085285634e+001 +2.9049e+000 -3.7283e+000 -1.7728e-001
1271 0 +2.293228532e-003 +3.085229323e+001 +3.085229323e+001 +2.9063e+000 -3.7434e+000 -1.7536e-001
1324 0 +1.790839914e-003 +3.085179084e+001 +3.085179084e+001 +2.9069e+000 -3.7356e+000 -1.7590e-001
1361 0 +1.752984319e-003 +3.085175298e+001 +3.085175298e+001 +2.9063e+000 -3.7382e+000 -1.7577e-001
1484 0 +1.165837253e-003 +3.085116584e+001 +3.085116584e+001 +2.9050e+000 -3.7344e+000 -1.7154e-001
1489 0 +1.093397783e-003 +3.085109340e+001 +3.085109340e+001 +2.9039e+000 -3.7319e+000 -1.6998e-001
1508 0 +9.714973628e-004 +3.085097150e+001 +3.085097150e+001 +2.9043e+000 -3.7323e+000 -1.6957e-001
1518 0 +9.336718365e-004 +3.085093367e+001 +3.085093367e+001 +2.9043e+000 -3.7318e+000 -1.6913e-001
1528 0 +7.384977405e-004 +3.085073850e+001 +3.085073850e+001 +2.9062e+000 -3.7317e+000 -1.6924e-001
1540 0 +4.734126020e-004 +3.085047341e+001 +3.085047341e+001 +2.9070e+000 -3.7209e+000 -1.6482e-001
1596 0 +3.004008819e-004 +3.085030040e+001 +3.085030040e+001 +2.9083e+000 -3.7170e+000 -1.6286e-001
1636 0 +2.646636957e-004 +3.085026466e+001 +3.085026466e+001 +2.9079e+000 -3.7187e+000 -1.6277e-001
1643 0 +2.527791540e-004 +3.085025278e+001 +3.085025278e+001 +2.9074e+000 -3.7246e+000 -1.6474e-001
1715 0 +1.571690543e-005 +3.085001572e+001 +3.085001572e+001 +2.9097e+000 -3.7212e+000 -1.6215e-001
1837 0 +1.449003872e-005 +3.085001449e+001 +3.085001449e+001 +2.9098e+000 -3.7216e+000 -1.6228e-001
1934 0 +1.108590418e-005 +3.085001109e+001 +3.085001109e+001 +2.9097e+000 -3.7206e+000 -1.6165e-001
2013 0 +9.135740719e-006 +3.085000914e+001 +3.085000914e+001 +2.9098e+000 -3.7204e+000 -1.6155e-001
2048 0 +8.812060077e-006 +3.085000881e+001 +3.085000881e+001 +2.9099e+000 -3.7217e+000 -1.6214e-001
2098 0 +5.551567277e-006 +3.085000555e+001 +3.085000555e+001 +2.9102e+000 -3.7213e+000 -1.6212e-001
2112 0 +5.484981283e-006 +3.085000548e+001 +3.085000548e+001 +2.9102e+000 -3.7213e+000 -1.6213e-001
2232 0 +4.094176020e-006 +3.085000409e+001 +3.085000409e+001 +2.9103e+000 -3.7215e+000 -1.6209e-001
2256 0 +1.701241505e-006 +3.085000170e+001 +3.085000170e+001 +2.9102e+000 -3.7210e+000 -1.6177e-001
2261 0 +9.025033911e-007 +3.085000090e+001 +3.085000090e+001 +2.9102e+000 -3.7208e+000 -1.6153e-001
2342 0 +7.508595310e-007 +3.085000075e+001 +3.085000075e+001 +2.9102e+000 -3.7208e+000 -1.6154e-001
2343 0 +6.023563834e-007 +3.085000060e+001 +3.085000060e+001 +2.9103e+000 -3.7207e+000 -1.6157e-001
2410 0 +5.816221673e-007 +3.085000058e+001 +3.085000058e+001 +2.9103e+000 -3.7207e+000 -1.6156e-001
2642 0 +4.940129585e-007 +3.085000049e+001 +3.085000049e+001 +2.9103e+000 -3.7207e+000 -1.6156e-001
2677 0 +4.062162056e-007 +3.085000041e+001 +3.085000041e+001 +2.9103e+000 -3.7208e+000 -1.6157e-001
2680 0 +3.696396398e-007 +3.085000037e+001 +3.085000037e+001 +2.9103e+000 -3.7208e+000 -1.6164e-001
2790 0 +2.229221785e-007 +3.085000022e+001 +3.085000022e+001 +2.9103e+000 -3.7208e+000 -1.6162e-001
2792 0 +1.598244346e-007 +3.085000016e+001 +3.085000016e+001 +2.9104e+000 -3.7208e+000 -1.6164e-001
2885 0 +1.354360215e-007 +3.085000014e+001 +3.085000014e+001 +2.9103e+000 -3.7208e+000 -1.6164e-001
2910 0 +8.344576941e-008 +3.085000008e+001 +3.085000008e+001 +2.9104e+000 -3.7208e+000 -1.6160e-001
2970 0 +3.643913971e-008 +3.085000004e+001 +3.085000004e+001 +2.9104e+000 -3.7208e+000 -1.6161e-001
3076 0 +1.130226934e-008 +3.085000001e+001 +3.085000001e+001 +2.9104e+000 -3.7208e+000 -1.6160e-001
3163 0 +1.116998050e-008 +3.085000001e+001 +3.085000001e+001 +2.9104e+000 -3.7208e+000 -1.6160e-001
3239 0 +4.232845185e-009 +3.085000000e+001 +3.085000000e+001 +2.9104e+000 -3.7208e+000 -1.6160e-001
% f evaluations | g evaluations | best noise-free fitness - Fopt (-1.255000000000e+001) + sum g_i+ | measured fitness | best measured fitness or single-digit g-values | x1 | x2...
1 0 +2.018449644e+006 +2.018437094e+006 +2.018437094e+006 -1.6697e+000 -3.7365e+000 -3.8765e+000
2 0 +1.142723319e+002 +1.017223319e+002 +1.017223319e+002 +4.1902e+000 +1.8970e+000 +2.7621e+000
28 0 +4.343480278e+001 +3.088480278e+001 +3.088480278e+001 +5.0000e+000 +2.7481e+000 +5.0000e+000
30 0 +3.946411894e+001 +2.691411894e+001 +2.691411894e+001 +5.0000e+000 +3.3503e+000 +4.5134e+000
34 0 +6.666519547e+000 -5.883480453e+000 -5.883480453e+000 +4.2546e+000 +1.2620e+000 +3.5430e+000
75 0 +4.535810881e+000 -8.014189119e+000 -8.014189119e+000 +4.1260e+000 +2.3679e+000 +3.3276e+000
94 0 +2.818989458e+000 -9.731010542e+000 -9.731010542e+000 +4.3670e+000 +2.8537e+000 +2.6640e+000
116 0 +2.787096951e+000 -9.762903049e+000 -9.762903049e+000 +3.9784e+000 +1.7619e+000 +3.1884e+000
147 0 +1.422814969e+000 -1.112718503e+001 -1.112718503e+001 +3.7270e+000 +2.1911e+000 +3.1740e+000
159 0 +7.245204363e-001 -1.182547956e+001 -1.182547956e+001 +3.8044e+000 +2.4095e+000 +2.7979e+000
161 0 +4.166652307e-001 -1.213333477e+001 -1.213333477e+001 +3.6740e+000 +2.3484e+000 +2.7883e+000
172 0 +1.851564497e-001 -1.236484355e+001 -1.236484355e+001 +3.5779e+000 +2.4455e+000 +2.7706e+000
320 0 +6.225443361e-002 -1.248774557e+001 -1.248774557e+001 +3.4504e+000 +2.4928e+000 +2.8345e+000
341 0 +4.267366054e-002 -1.250732634e+001 -1.250732634e+001 +3.4239e+000 +2.5061e+000 +2.8370e+000
449 0 +1.980077612e-002 -1.253019922e+001 -1.253019922e+001 +3.3998e+000 +2.5140e+000 +2.8241e+000
669 0 +1.917310320e-002 -1.253082690e+001 -1.253082690e+001 +3.3943e+000 +2.5096e+000 +2.8277e+000
685 0 +1.742135884e-002 -1.253257864e+001 -1.253257864e+001 +3.4095e+000 +2.5206e+000 +2.8125e+000
702 0 +2.495710695e-003 -1.254750429e+001 -1.254750429e+001 +3.3727e+000 +2.5259e+000 +2.8040e+000
882 0 +2.441803719e-003 -1.254755820e+001 -1.254755820e+001 +3.3719e+000 +2.5259e+000 +2.8038e+000
927 0 +2.170210308e-003 -1.254782979e+001 -1.254782979e+001 +3.3705e+000 +2.5258e+000 +2.8030e+000
1171 0 +5.211480197e-004 -1.254947885e+001 -1.254947885e+001 +3.3790e+000 +2.5328e+000 +2.7905e+000
1321 0 +2.032912946e-004 -1.254979671e+001 -1.254979671e+001 +3.3783e+000 +2.5356e+000 +2.7875e+000
1446 0 +1.185369196e-004 -1.254988146e+001 -1.254988146e+001 +3.3775e+000 +2.5368e+000 +2.7870e+000
1476 0 +9.828190189e-005 -1.254990172e+001 -1.254990172e+001 +3.3774e+000 +2.5371e+000 +2.7868e+000
1506 0 +8.881867779e-005 -1.254991118e+001 -1.254991118e+001 +3.3774e+000 +2.5373e+000 +2.7866e+000
1536 0 +8.363817904e-005 -1.254991636e+001 -1.254991636e+001 +3.3773e+000 +2.5374e+000 +2.7866e+000
1566 0 +8.024914920e-005 -1.254991975e+001 -1.254991975e+001 +3.3773e+000 +2.5375e+000 +2.7865e+000
1585 0 +6.522400231e-005 -1.254993478e+001 -1.254993478e+001 +3.3771e+000 +2.5381e+000 +2.7865e+000
1667 0 +4.666760621e-005 -1.254995333e+001 -1.254995333e+001 +3.3768e+000 +2.5381e+000 +2.7861e+000
1692 0 +4.366333268e-005 -1.254995634e+001 -1.254995634e+001 +3.3768e+000 +2.5382e+000 +2.7861e+000
1781 0 +8.184353774e-006 -1.254999182e+001 -1.254999182e+001 +3.3762e+000 +2.5393e+000 +2.7854e+000
1877 0 +7.027975283e-006 -1.254999297e+001 -1.254999297e+001 +3.3761e+000 +2.5396e+000 +2.7854e+000
1891 0 +5.148325110e-006 -1.254999485e+001 -1.254999485e+001 +3.3761e+000 +2.5398e+000 +2.7853e+000
1976 0 +6.237217640e-007 -1.254999938e+001 -1.254999938e+001 +3.3762e+000 +2.5401e+000 +2.7848e+000
2257 0 +6.073186789e-007 -1.254999939e+001 -1.254999939e+001 +3.3762e+000 +2.5401e+000 +2.7848e+000
2281 0 +5.996653449e-007 -1.254999940e+001 -1.254999940e+001 +3.3762e+000 +2.5401e+000 +2.7848e+000
2452 0 +5.551456166e-007 -1.254999944e+001 -1.254999944e+001 +3.3761e+000 +2.5400e+000 +2.7849e+000
2462 0 +4.750497613e-007 -1.254999952e+001 -1.254999952e+001 +3.3761e+000 +2.5401e+000 +2.7848e+000
2599 0 +4.397064028e-007 -1.254999956e+001 -1.254999956e+001 +3.3762e+000 +2.5401e+000 +2.7848e+000
2638 0 +3.923027236e-007 -1.254999961e+001 -1.254999961e+001 +3.3762e+000 +2.5401e+000 +2.7848e+000
2668 0 +3.189800388e-007 -1.254999968e+001 -1.254999968e+001 +3.3761e+000 +2.5401e+000 +2.7848e+000
2671 0 +2.545318267e-007 -1.254999975e+001 -1.254999975e+001 +3.3760e+000 +2.5400e+000 +2.7849e+000
2699 0 +2.312968661e-007 -1.254999977e+001 -1.254999977e+001 +3.3761e+000 +2.5399e+000 +2.7848e+000
2719 0 +2.049312542e-007 -1.254999980e+001 -1.254999980e+001 +3.3761e+000 +2.5400e+000 +2.7848e+000
2726 0 +1.880432734e-007 -1.254999981e+001 -1.254999981e+001 +3.3761e+000 +2.5400e+000 +2.7848e+000
2749 0 +1.009579425e-007 -1.254999990e+001 -1.254999990e+001 +3.3761e+000 +2.5400e+000 +2.7848e+000
2773 0 +9.357009390e-008 -1.254999991e+001 -1.254999991e+001 +3.3761e+000 +2.5400e+000 +2.7848e+000
2779 0 +5.604229791e-008 -1.254999994e+001 -1.254999994e+001 +3.3760e+000 +2.5400e+000 +2.7848e+000
2809 0 +4.865746028e-008 -1.254999995e+001 -1.254999995e+001 +3.3760e+000 +2.5400e+000 +2.7848e+000
2929 0 +4.718239133e-008 -1.254999995e+001 -1.254999995e+001 +3.3760e+000 +2.5400e+000 +2.7848e+000
2937 0 +4.409436549e-008 -1.254999996e+001 -1.254999996e+001 +3.3760e+000 +2.5400e+000 +2.7848e+000
2938 0 +2.893540341e-008 -1.254999997e+001 -1.254999997e+001 +3.3760e+000 +2.5400e+000 +2.7848e+000
2943 0 +1.915858228e-008 -1.254999998e+001 -1.254999998e+001 +3.3760e+000 +2.5400e+000 +2.7848e+000
3003 0 +8.513593386e-009 -1.254999999e+001 -1.254999999e+001 +3.3760e+000 +2.5400e+000 +2.7848e+000
% f evaluations | g evaluations | best noise-free fitness - Fopt (5.383900000000e+002) + sum g_i+ | measured fitness | best measured fitness or single-digit g-values | x1 | x2...
1 0 +2.406158559e+005 +2.411542459e+005 +2.411542459e+005 -4.2595e+000 -7.9870e-001 +2.4230e+000
2 0 +3.651026957e+003 +4.189416957e+003 +4.189416957e+003 -4.0311e-001 +3.8789e+000 -4.7546e+000
12 0 +2.442989987e+003 +2.981379987e+003 +2.981379987e+003 +7.3847e-001 +3.4937e+000 -3.5795e+000
14 0 +1.927696565e+003 +2.466086565e+003 +2.466086565e+003 +2.3083e-001 +3.8699e+000 -5.0000e+000
16 0 +1.649664763e+003 +2.188054763e+003 +2.188054763e+003 +3.3111e-001 +3.7943e+000 -4.2063e+000
18 0 +1.142161950e+002 +6.526061950e+002 +6.526061950e+002 +6.6215e-001 +4.0483e+000 -4.2394e+000
20 0 +7.453106713e+001 +6.129210671e+002 +6.129210671e+002 +9.1195e-001 +4.1364e+000 -1.9916e+000
28 0 +6.819795915e+001 +6.065879592e+002 +6.065879592e+002 +9.8864e-001 +3.8234e+000 -2.1117e+000
37 0 +2.610743534e+001 +5.644974353e+002 +5.644974353e+002 +2.0965e+000 +3.8909e+000 -5.2477e-001
48 0 +1.244048211e+001 +5.508304821e+002 +5.508304821e+002 +3.3829e+000 +4.0483e+000 -6.6354e-001
79 0 +9.644067389e+000 +5.480340674e+002 +5.480340674e+002 +4.2220e+000 +4.3261e+000 -2.5400e-001
101 0 +7.597627718e+000 +5.459876277e+002 +5.459876277e+002 +3.2343e+000 +4.0950e+000 +9.5829e-001
114 0 +7.303440316e+000 +5.456934403e+002 +5.456934403e+002 +3.3098e+000 +4.1199e+000 +9.9467e-001
123 0 +6.834092547e+000 +5.452240925e+002 +5.452240925e+002 +3.5101e+000 +4.0751e+000 +5.7947e-001
144 0 +4.949321682e+000 +5.433393217e+002 +5.433393217e+002 +3.3718e+000 +3.5793e+000 +1.6879e-002
168 0 +4.700255245e+000 +5.430902552e+002 +5.430902552e+002 +3.5653e+000 +3.9040e+000 +1.2207e+000
169 0 +3.571397009e+000 +5.419613970e+002 +5.419613970e+002 +3.5165e+000 +3.7174e+000 +1.0102e+000
201 0 +3.279531719e+000 +5.416695317e+002 +5.416695317e+002 +3.6326e+000 +3.4651e+000 -1.3429e-001
203 0 +2.678341662e+000 +5.410683417e+002 +5.410683417e+002 +3.0112e+000 +2.9558e+000 +2.9486e-001
251 0 +2.341367933e+000 +5.407313679e+002 +5.407313679e+002 +3.3111e+000 +3.1322e+000 +8.3232e-002
255 0 +1.898772727e+000 +5.402887727e+002 +5.402887727e+002 +3.2644e+000 +3.0872e+000 +2.3402e-001
257 0 +1.771021118e+000 +5.401610211e+002 +5.401610211e+002 +3.4477e+000 +3.1746e+000 +8.5034e-002
260 0 +1.451346922e+000 +5.398413469e+002 +5.398413469e+002 +3.4747e+000 +3.2946e+000 +5.4206e-001
291 0 +9.787003908e-001 +5.393687004e+002 +5.393687004e+002 +3.3335e+000 +3.1169e+000 +7.4379e-001
321 0 +8.157144623e-001 +5.392057145e+002 +5.392057145e+002 +3.5048e+000 +3.1782e+000 +7.3222e-001
407 0 +3.172818697e-001 +5.387072819e+002 +5.387072819e+002 +3.3367e+000 +2.7807e+000 +4.1761e-001
461 0 +2.602392338e-001 +5.386502392e+002 +5.386502392e+002 +3.3410e+000 +2.7624e+000 +4.2879e-001
478 0 +1.794528378e-001 +5.385694528e+002 +5.385694528e+002 +3.3909e+000 +2.7802e+000 +4.1936e-001
538 0 +1.468284132e-001 +5.385368284e+002 +5.385368284e+002 +3.3847e+000 +2.7480e+000 +4.3274e-001
657 0 +4.707326458e-002 +5.384370733e+002 +5.384370733e+002 +3.4454e+000 +2.7613e+000 +4.7061e-001
728 0 +4.443418295e-002 +5.384344342e+002 +5.384344342e+002 +3.4263e+000 +2.7687e+000 +5.3250e-001
801 0 +4.249251488e-002 +5.384324925e+002 +5.384324925e+002 +3.4579e+000 +2.7749e+000 +5.0070e-001
847 0 +3.535052214e-002 +5.384253505e+002 +5.384253505e+002 +3.4594e+000 +2.7263e+000 +4.3627e-001
875 0 +2.643902791e-002 +5.384164390e+002 +5.384164390e+002 +3.4604e+000 +2.7178e+000 +4.4052e-001
897 0 +1.929679204e-002 +5.384092968e+002 +5.384092968e+002 +3.4594e+000 +2.7408e+000 +4.9191e-001
910 0 +1.809566026e-002 +5.384080957e+002 +5.384080957e+002 +3.4556e+000 +2.7405e+000 +4.9897e-001
922 0 +4.314815122e-003 +5.383943148e+002 +5.383943148e+002 +3.4478e+000 +2.7174e+000 +5.2642e-001
1036 0 +3.094189299e-003 +5.383930942e+002 +5.383930942e+002 +3.4480e+000 +2.7197e+000 +5.3493e-001
1055 0 +2.639488922e-003 +5.383926395e+002 +5.383926395e+002 +3.4446e+000 +2.7178e+000 +5.3934e-001
1081 0 +2.387178247e-003 +5.383923872e+002 +5.383923872e+002 +3.4354e+000 +2.7111e+000 +5.5369e-001
1166 0 +1.233733127e-003 +5.383912337e+002 +5.383912337e+002 +3.4429e+000 +2.7122e+000 +5.4610e-001
1196 0 +1.423575554e-004 +5.383901424e+002 +5.383901424e+002 +3.4457e+000 +2.7094e+000 +5.5255e-001
1546 0 +7.559694598e-005 +5.383900756e+002 +5.383900756e+002 +3.4454e+000 +2.7083e+000 +5.5264e-001
1643 0 +2.800056575e-005 +5.383900280e+002 +5.383900280e+002 +3.4456e+000 +2.7077e+000 +5.5381e-001
1731 0 +1.967253343e-005 +5.383900197e+002 +5.383900197e+002 +3.4452e+000 +2.7069e+000 +5.5286e-001
1769 0 +1.622938976e-005 +5.383900162e+002 +5.383900162e+002 +3.4451e+000 +2.7068e+000 +5.5336e-001
1859 0 +1.598595975e-005 +5.383900160e+002 +5.383900160e+002 +3.4451e+000 +2.7069e+000 +5.5338e-001
1912 0 +1.485010125e-005 +5.383900149e+002 +5.383900149e+002 +3.4450e+000 +2.7068e+000 +5.5390e-001
1926 0 +8.696029226e-006 +5.383900087e+002 +5.383900087e+002 +3.4454e+000 +2.7069e+000 +5.5343e-001
1973 0 +6.180262631e-006 +5.383900062e+002 +5.383900062e+002 +3.4455e+000 +2.7068e+000 +5.5334e-001
2030 0 +3.544834954e-006 +5.383900035e+002 +5.383900035e+002 +3.4454e+000 +2.7066e+000 +5.5340e-001
2068 0 +1.563725618e-006 +5.383900016e+002 +5.383900016e+002 +3.4457e+000 +2.7065e+000 +5.5322e-001
2123 0 +1.356129246e-006 +5.383900014e+002 +5.383900014e+002 +3.4457e+000 +2.7065e+000 +5.5320e-001
2124 0 +2.400320227e-007 +5.383900002e+002 +5.383900002e+002 +3.4456e+000 +2.7065e+000 +5.5362e-001
2406 0 +1.913610959e-007 +5.383900002e+002 +5.383900002e+002 +3.4456e+000 +2.7065e+000 +5.5359e-001
2532 0 +1.464245543e-007 +5.383900001e+002 +5.383900001e+002 +3.4456e+000 +2.7065e+000 +5.5363e-001
2544 0 +5.212064025e-008 +5.383900001e+002 +5.383900001e+002 +3.4456e+000 +2.7064e+000 +5.5362e-001
2643 0 +4.150626864e-008 +5.383900000e+002 +5.383900000e+002 +3.4456e+000 +2.7064e+000 +5.5361e-001
2843 0 +3.378409019e-008 +5.383900000e+002 +5.383900000e+002 +3.4456e+000 +2.7064e+000 +5.5360e-001
2846 0 +2.678120836e-008 +5.383900000e+002 +5.383900000e+002 +3.4456e+000 +2.7064e+000 +5.5360e-001
2871 0 +1.616285772e-008 +5.383900000e+002 +5.383900000e+002 +3.4456e+000 +2.7064e+000 +5.5360e-001
2919 0 +1.330693067e-008 +5.383900000e+002 +5.383900000e+002 +3.4456e+000 +2.7064e+000 +5.5359e-001
2980 0 +1.159901331e-008 +5.383900000e+002 +5.383900000e+002 +3.4456e+000 +2.7064e+000 +5.5359e-001
2988 0 +1.054456789e-008 +5.383900000e+002 +5.383900000e+002 +3.4456e+000 +2.7064e+000 +5.5359e-001
3017 0 +6.082473192e-009 +5.383900000e+002 +5.383900000e+002 +3.4456e+000 +2.7064e+000 +5.5358e-001
% f evaluations | g evaluations | best noise-free fitness - Fopt (-1.055600000000e+002) + sum g_i+ | measured fitness | best measured fitness or single-digit g-values | x1 | x2...
1 0 +9.249420122e+004 +9.238864122e+004 +9.238864122e+004 +4.3402e+000 -2.4779e+000 +4.2242e+000
2 0 +3.091207073e+002 +2.035607073e+002 +2.035607073e+002 +4.1729e-001 -4.2575e+000 -4.6824e+000
8 0 +9.014268197e+001 -1.541731803e+001 -1.541731803e+001 +1.0022e+000 -5.0000e+000 +1.8686e-001
11 0 +8.521845703e+001 -2.034154297e+001 -2.034154297e+001 +1.8633e+000 -1.4528e+000 -1.5969e+000
33 0 +4.184558419e+001 -6.371441581e+001 -6.371441581e+001 +6.9321e-002 -1.3078e+000 -1.5635e-001
55 0 +1.758385534e+001 -8.797614466e+001 -8.797614466e+001 +7.6373e-001 -1.2720e+000 +1.0330e+000
99 0 +1.617458892e+001 -8.938541108e+001 -8.938541108e+001 +6.7127e-001 -1.3209e+000 +1.1105e+000
120 0 +3.539986868e+000 -1.020200131e+002 -1.020200131e+002 +1.7182e+000 -3.9917e+000 +3.3673e+000
159 0 +2.650942019e+000 -1.029090580e+002 -1.029090580e+002 +1.5446e+000 -4.6493e+000 +3.9529e+000
219 0 +2.467362672e+000 -1.030926373e+002 -1.030926373e+002 +1.3916e+000 -4.6697e+000 +4.0156e+000
249 0 +2.093802283e+000 -1.034661977e+002 -1.034661977e+002 +1.4081e+000 -4.5123e+000 +3.9364e+000
277 0 +1.448572129e+000 -1.041114279e+002 -1.041114279e+002 +1.5649e+000 -4.3673e+000 +3.9185e+000
308 0 +1.376989825e+000 -1.041830102e+002 -1.041830102e+002 +1.5497e+000 -4.2068e+000 +3.8108e+000
309 0 +8.520799004e-001 -1.047079201e+002 -1.047079201e+002 +1.4820e+000 -4.2328e+000 +3.9394e+000
338 0 +7.264669321e-001 -1.048335331e+002 -1.048335331e+002 +1.5659e+000 -4.0638e+000 +3.8700e+000
340 0 +4.391858741e-001 -1.051208141e+002 -1.051208141e+002 +1.3928e+000 -3.8617e+000 +3.7504e+000
368 0 +4.059836758e-001 -1.051540163e+002 -1.051540163e+002 +1.5762e+000 -3.9723e+000 +3.9079e+000
376 0 +3.433945687e-001 -1.052166054e+002 -1.052166054e+002 +1.4679e+000 -3.9841e+000 +3.9078e+000
385 0 +4.400722687e-002 -1.055159928e+002 -1.055159928e+002 +1.3097e+000 -3.6802e+000 +3.8136e+000
548 0 +1.572426006e-002 -1.055442757e+002 -1.055442757e+002 +1.3415e+000 -3.7095e+000 +3.8578e+000
645 0 +3.282708169e-003 -1.055567173e+002 -1.055567173e+002 +1.3622e+000 -3.7189e+000 +3.8875e+000
1007 0 +2.420407911e-003 -1.055575796e+002 -1.055575796e+002 +1.3616e+000 -3.7137e+000 +3.8862e+000
1148 0 +5.393596998e-004 -1.055594606e+002 -1.055594606e+002 +1.3641e+000 -3.6937e+000 +3.8784e+000
1387 0 +4.124041524e-004 -1.055595876e+002 -1.055595876e+002 +1.3640e+000 -3.6936e+000 +3.8795e+000
1513 0 +3.223974642e-004 -1.055596776e+002 -1.055596776e+002 +1.3614e+000 -3.6912e+000 +3.8777e+000
1548 0 +2.699067423e-004 -1.055597301e+002 -1.055597301e+002 +1.3591e+000 -3.6935e+000 +3.8795e+000
1636 0 +2.989011952e-005 -1.055599701e+002 -1.055599701e+002 +1.3598e+000 -3.6933e+000 +3.8821e+000
1642 0 +1.454096176e-005 -1.055599855e+002 -1.055599855e+002 +1.3599e+000 -3.6927e+000 +3.8822e+000
1843 0 +5.195129233e-006 -1.055599948e+002 -1.055599948e+002 +1.3597e+000 -3.6923e+000 +3.8822e+000
1877 0 +4.338686040e-006 -1.055599957e+002 -1.055599957e+002 +1.3597e+000 -3.6921e+000 +3.8821e+000
2124 0 +4.103292056e-006 -1.055599959e+002 -1.055599959e+002 +1.3598e+000 -3.6922e+000 +3.8821e+000
2126 0 +1.726384113e-006 -1.055599983e+002 -1.055599983e+002 +1.3599e+000 -3.6920e+000 +3.8822e+000
2335 0 +9.835382713e-007 -1.055599990e+002 -1.055599990e+002 +1.3599e+000 -3.6921e+000 +3.8823e+000
2388 0 +8.328559318e-007 -1.055599992e+002 -1.055599992e+002 +1.3599e+000 -3.6921e+000 +3.8823e+000
2473 0 +4.612923874e-007 -1.055599995e+002 -1.055599995e+002 +1.3599e+000 -3.6921e+000 +3.8824e+000
2614 0 +3.549558443e-007 -1.055599996e+002 -1.055599996e+002 +1.3599e+000 -3.6921e+000 +3.8824e+000
2711 0 +2.890785993e-007 -1.055599997e+002 -1.055599997e+002 +1.3599e+000 -3.6921e+000 +3.8824e+000
2803 0 +1.936520135e-007 -1.055599998e+002 -1.055599998e+002 +1.3600e+000 -3.6921e+000 +3.8824e+000
2856 0 +1.883679346e-007 -1.055599998e+002 -1.055599998e+002 +1.3600e+000 -3.6921e+000 +3.8824e+000
2875 0 +1.692830267e-007 -1.055599998e+002 -1.055599998e+002 +1.3600e+000 -3.6921e+000 +3.8824e+000
2893 0 +1.149071238e-007 -1.055599999e+002 -1.055599999e+002 +1.3600e+000 -3.6921e+000 +3.8824e+000
2895 0 +1.074372733e-007 -1.055599999e+002 -1.055599999e+002 +1.3600e+000 -3.6920e+000 +3.8824e+000
2945 0 +1.045576141e-007 -1.055599999e+002 -1.055599999e+002 +1.3600e+000 -3.6921e+000 +3.8824e+000
2987 0 +1.007095847e-007 -1.055599999e+002 -1.055599999e+002 +1.3600e+000 -3.6921e+000 +3.8824e+000
2994 0 +5.391177638e-008 -1.055599999e+002 -1.055599999e+002 +1.3600e+000 -3.6920e+000 +3.8824e+000
2995 0 +3.961088169e-008 -1.055600000e+002 -1.055600000e+002 +1.3600e+000 -3.6920e+000 +3.8824e+000
3092 0 +2.231836049e-008 -1.055600000e+002 -1.055600000e+002 +1.3600e+000 -3.6920e+000 +3.8824e+000
3099 0 +1.844755104e-008 -1.055600000e+002 -1.055600000e+002 +1.3600e+000 -3.6920e+000 +3.8824e+000
3155 0 +2.705462521e-009 -1.055600000e+002 -1.055600000e+002 +1.3600e+000 -3.6920e+000 +3.8824e+000
% f evaluations | g evaluations | best noise-free fitness - Fopt (9.803000000000e+001) + sum g_i+ | measured fitness | best measured fitness or single-digit g-values | x1 | x2...
1 0 +3.040401306e+005 +3.041381606e+005 +3.041381606e+005 -2.1693e+000 +2.0785e+000 +1.0414e+000
2 0 +3.266438019e+004 +3.276241019e+004 +3.276241019e+004 +3.4184e-001 +1.1518e+000 +1.0321e-001
4 0 +3.106814713e+003 +3.204844713e+003 +3.204844713e+003 +4.6039e+000 +3.4142e+000 +6.5945e-001
10 0 +1.402455198e+002 +2.382755198e+002 +2.382755198e+002 +4.2953e+000 +1.8778e+000 -3.6458e+000
12 0 +1.066319717e+002 +2.046619717e+002 +2.046619717e+002 +3.5685e+000 +1.8517e+000 -2.7139e+000
16 0 +7.832703924e+001 +1.763570392e+002 +1.763570392e+002 +3.1772e+000 +6.4841e-001 -2.5334e+000
24 0 +5.626667336e+001 +1.542966734e+002 +1.542966734e+002 +2.4412e+000 +1.4735e-001 -2.8841e+000
31 0 +2.272262836e+001 +1.207526284e+002 +1.207526284e+002 +3.1452e-001 +4.3017e-001 -4.3595e+000
50 0 +6.568379474e+000 +1.045983795e+002 +1.045983795e+002 -3.2492e-001 -5.9827e-001 -4.1412e+000
79 0 +2.458575494e+000 +1.004885755e+002 +1.004885755e+002 -3.6424e-001 -9.4156e-001 -3.3829e+000
228 0 +1.455086023e+000 +9.948508602e+001 +9.948508602e+001 -4.5310e-001 -9.4730e-001 -3.2791e+000
287 0 +4.549553073e-001 +9.848495531e+001 +9.848495531e+001 -7.7457e-001 -9.7010e-001 -3.4234e+000
469 0 +4.410942672e-001 +9.847109427e+001 +9.847109427e+001 -7.3310e-001 -1.2696e+000 -3.5591e+000
471 0 +4.186192263e-001 +9.844861923e+001 +9.844861923e+001 -7.3874e-001 -1.2705e+000 -3.5553e+000
491 0 +4.087782664e-001 +9.843877827e+001 +9.843877827e+001 -7.5551e-001 -1.3219e+000 -3.5868e+000
552 0 +3.324555169e-001 +9.836245552e+001 +9.836245552e+001 -7.8397e-001 -1.3205e+000 -3.5854e+000
600 0 +2.214735652e-001 +9.825147357e+001 +9.825147357e+001 -8.2798e-001 -1.3533e+000 -3.5996e+000
622 0 +4.211037455e-002 +9.807211037e+001 +9.807211037e+001 -9.2673e-001 -1.2883e+000 -3.6042e+000
862 0 +4.083401073e-002 +9.807083401e+001 +9.807083401e+001 -9.3859e-001 -1.2762e+000 -3.6081e+000
891 0 +6.948184435e-003 +9.803694818e+001 +9.803694818e+001 -9.2893e-001 -1.3042e+000 -3.5384e+000
1083 0 +5.815931654e-003 +9.803581593e+001 +9.803581593e+001 -9.2940e-001 -1.3116e+000 -3.5403e+000
1143 0 +4.667409195e-003 +9.803466741e+001 +9.803466741e+001 -9.3150e-001 -1.3158e+000 -3.5403e+000
1190 0 +4.543788975e-003 +9.803454379e+001 +9.803454379e+001 -9.3175e-001 -1.2953e+000 -3.5189e+000
1354 0 +3.867098881e-003 +9.803386710e+001 +9.803386710e+001 -9.3093e-001 -1.2995e+000 -3.5201e+000
1381 0 +1.587768712e-003 +9.803158777e+001 +9.803158777e+001 -9.4353e-001 -1.3090e+000 -3.5380e+000
1514 0 +1.503572598e-003 +9.803150357e+001 +9.803150357e+001 -9.4259e-001 -1.3092e+000 -3.5367e+000
1532 0 +1.066522451e-003 +9.803106652e+001 +9.803106652e+001 -9.4108e-001 -1.3134e+000 -3.5352e+000
1557 0 +1.030848581e-003 +9.803103085e+001 +9.803103085e+001 -9.4106e-001 -1.3134e+000 -3.5348e+000
1653 0 +9.971753624e-004 +9.803099718e+001 +9.803099718e+001 -9.3852e-001 -1.3100e+000 -3.5251e+000
1747 0 +9.314153678e-004 +9.803093142e+001 +9.803093142e+001 -9.4203e-001 -1.3182e+000 -3.5384e+000
1771 0 +5.156683255e-004 +9.803051567e+001 +9.803051567e+001 -9.4362e-001 -1.3223e+000 -3.5382e+000
1854 0 +2.705986209e-004 +9.803027060e+001 +9.803027060e+001 -9.4093e-001 -1.3195e+000 -3.5297e+000
1896 0 +4.991325615e-005 +9.803004991e+001 +9.803004991e+001 -9.4307e-001 -1.3196e+000 -3.5285e+000
1985 0 +3.160167445e-005 +9.803003160e+001 +9.803003160e+001 -9.4301e-001 -1.3199e+000 -3.5279e+000
2142 0 +2.947135783e-005 +9.803002947e+001 +9.803002947e+001 -9.4346e-001 -1.3214e+000 -3.5299e+000
2171 0 +2.250860696e-005 +9.803002251e+001 +9.803002251e+001 -9.4358e-001 -1.3216e+000 -3.5298e+000
2256 0 +1.936237659e-005 +9.803001936e+001 +9.803001936e+001 -9.4316e-001 -1.3208e+000 -3.5285e+000
2262 0 +8.351397014e-006 +9.803000835e+001 +9.803000835e+001 -9.4378e-001 -1.3211e+000 -3.5293e+000
2532 0 +7.981105853e-006 +9.803000798e+001 +9.803000798e+001 -9.4378e-001 -1.3211e+000 -3.5292e+000
2603 0 +5.311849620e-006 +9.803000531e+001 +9.803000531e+001 -9.4369e-001 -1.3214e+000 -3.5290e+000
2688 0 +4.907682566e-006 +9.803000491e+001 +9.803000491e+001 -9.4365e-001 -1.3212e+000 -3.5288e+000
2705 0 +3.138422670e-006 +9.803000314e+001 +9.803000314e+001 -9.4375e-001 -1.3213e+000 -3.5288e+000
2802 0 +3.038277001e-006 +9.803000304e+001 +9.803000304e+001 -9.4374e-001 -1.3212e+000 -3.5287e+000
2817 0 +3.016942870e-006 +9.803000302e+001 +9.803000302e+001 -9.4372e-001 -1.3212e+000 -3.5285e+000
2832 0 +2.709930882e-006 +9.803000271e+001 +9.803000271e+001 -9.4373e-001 -1.3213e+000 -3.5287e+000
2862 0 +2.671602672e-006 +9.803000267e+001 +9.803000267e+001 -9.4372e-001 -1.3214e+000 -3.5287e+000
2895 0 +2.279893323e-006 +9.803000228e+001 +9.803000228e+001 -9.4376e-001 -1.3213e+000 -3.5287e+000
3002 0 +2.076095143e-006 +9.803000208e+001 +9.803000208e+001 -9.4381e-001 -1.3212e+000 -3.5287e+000
3008 0 +5.993397423e-007 +9.803000060e+001 +9.803000060e+001 -9.4390e-001 -1.3215e+000 -3.5288e+000
3014 0 +3.806772355e-007 +9.803000038e+001 +9.803000038e+001 -9.4391e-001 -1.3216e+000 -3.5288e+000
3050 0 +3.796354946e-007 +9.803000038e+001 +9.803000038e+001 -9.4391e-001 -1.3216e+000 -3.5288e+000
3242 0 +1.991143819e-007 +9.803000020e+001 +9.803000020e+001 -9.4395e-001 -1.3215e+000 -3.5288e+000
3302 0 +1.788185813e-007 +9.803000018e+001 +9.803000018e+001 -9.4395e-001 -1.3215e+000 -3.5288e+000
3331 0 +1.070990692e-007 +9.803000011e+001 +9.803000011e+001 -9.4395e-001 -1.3215e+000 -3.5288e+000
3332 0 +9.900493581e-008 +9.803000010e+001 +9.803000010e+001 -9.4398e-001 -1.3216e+000 -3.5289e+000
3379 0 +8.878622282e-008 +9.803000009e+001 +9.803000009e+001 -9.4398e-001 -1.3216e+000 -3.5288e+000
3428 0 +6.085731741e-008 +9.803000006e+001 +9.803000006e+001 -9.4399e-001 -1.3216e+000 -3.5289e+000
3439 0 +5.039522932e-008 +9.803000005e+001 +9.803000005e+001 -9.4397e-001 -1.3216e+000 -3.5288e+000
3441 0 +4.081198313e-008 +9.803000004e+001 +9.803000004e+001 -9.4397e-001 -1.3216e+000 -3.5288e+000
3459 0 +3.518796632e-008 +9.803000004e+001 +9.803000004e+001 -9.4398e-001 -1.3216e+000 -3.5288e+000
3529 0 +3.417339656e-008 +9.803000003e+001 +9.803000003e+001 -9.4398e-001 -1.3216e+000 -3.5288e+000
3542 0 +3.009091643e-008 +9.803000003e+001 +9.803000003e+001 -9.4399e-001 -1.3216e+000 -3.5288e+000
3766 0 +2.005963040e-008 +9.803000002e+001 +9.803000002e+001 -9.4400e-001 -1.3216e+000 -3.5288e+000
3823 0 +1.004903538e-008 +9.803000001e+001 +9.803000001e+001 -9.4399e-001 -1.3216e+000 -3.5288e+000
3833 0 +6.243226380e-009 +9.803000001e+001 +9.803000001e+001 -9.4400e-001 -1.3216e+000 -3.5288e+000
% f evaluations | g evaluations | best noise-free fitness - Fopt (1.000000000000e+003) + sum g_i+ | measured fitness | best measured fitness or single-digit g-values | x1 | x2...
1 0 +7.549946669e+004 +7.649946669e+004 +7.649946669e+004 +4.9398e+000 +3.0040e+000 -1.9457e+000
3 0 +9.259126910e+003 +1.025912691e+004 +1.025912691e+004 +4.3551e+000 +2.6197e+000 +1.0253e+000
5 0 +2.320778948e+002 +1.232077895e+003 +1.232077895e+003 +5.0000e+000 +5.0000e+000 +5.0000e+000
8 0 +9.644100565e+001 +1.096441006e+003 +1.096441006e+003 +5.0000e+000 +5.8799e-001 +5.0000e+000
9 0 +8.050617798e+001 +1.080506178e+003 +1.080506178e+003 -3.1170e-002 +2.1636e+000 +4.9991e+000
32 0 +4.881798683e+001 +1.048817987e+003 +1.048817987e+003 -1.0158e+000 +1.3016e+000 +2.7198e+000
37 0 +1.983718398e+001 +1.019837184e+003 +1.019837184e+003 -1.3290e+000 +1.3642e-001 +3.1330e+000
44 0 +1.484674053e+001 +1.014846741e+003 +1.014846741e+003 -2.5233e+000 +4.6717e-002 +3.3679e+000
93 0 +1.019085994e+001 +1.010190860e+003 +1.010190860e+003 -2.3923e+000 -2.9155e-001 +3.4756e+000
118 0 +9.294895224e+000 +1.009294895e+003 +1.009294895e+003 -1.0322e+000 -9.5824e-001 +4.5675e+000
129 0 +6.778944352e+000 +1.006778944e+003 +1.006778944e+003 -1.7409e+000 -6.1345e-001 +4.1718e+000
164 0 +6.513957179e+000 +1.006513957e+003 +1.006513957e+003 -2.4272e+000 -5.3445e-001 +3.4415e+000
173 0 +4.142682672e+000 +1.004142683e+003 +1.004142683e+003 -1.5265e+000 -1.0312e+000 +3.9739e+000
206 0 +1.434845490e+000 +1.001434845e+003 +1.001434845e+003 -2.2352e+000 -1.0800e+000 +3.7297e+000
216 0 +1.403274994e+000 +1.001403275e+003 +1.001403275e+003 -2.0452e+000 -1.2543e+000 +3.8175e+000
253 0 +3.271068553e-001 +1.000327107e+003 +1.000327107e+003 -2.5805e+000 -1.2893e+000 +3.7240e+000
429 0 +2.966724726e-001 +1.000296672e+003 +1.000296672e+003 -2.7143e+000 -1.2587e+000 +3.7168e+000
456 0 +2.259435693e-001 +1.000225944e+003 +1.000225944e+003 -2.7618e+000 -1.2774e+000 +3.7129e+000
497 0 +1.740919346e-001 +1.000174092e+003 +1.000174092e+003 -2.7864e+000 -1.2923e+000 +3.6868e+000
631 0 +1.696426437e-001 +1.000169643e+003 +1.000169643e+003 -2.7809e+000 -1.2938e+000 +3.7007e+000
650 0 +1.249749712e-001 +1.000124975e+003 +1.000124975e+003 -2.8088e+000 -1.3353e+000 +3.8172e+000
651 0 +4.089057066e-002 +1.000040891e+003 +1.000040891e+003 -2.8616e+000 -1.3597e+000 +3.7269e+000
656 0 +2.646435870e-002 +1.000026464e+003 +1.000026464e+003 -2.8823e+000 -1.3681e+000 +3.7216e+000
720 0 +2.490640867e-002 +1.000024906e+003 +1.000024906e+003 -2.8440e+000 -1.4008e+000 +3.7706e+000
866 0 +2.291707488e-002 +1.000022917e+003 +1.000022917e+003 -2.8424e+000 -1.3957e+000 +3.7612e+000
873 0 +1.346889880e-002 +1.000013469e+003 +1.000013469e+003 -2.8514e+000 -1.4038e+000 +3.7466e+000
920 0 +9.294068887e-003 +1.000009294e+003 +1.000009294e+003 -2.8939e+000 -1.3965e+000 +3.7602e+000
938 0 +5.491046836e-003 +1.000005491e+003 +1.000005491e+003 -2.8945e+000 -1.3957e+000 +3.7412e+000
941 0 +3.971545552e-003 +1.000003972e+003 +1.000003972e+003 -2.9025e+000 -1.4014e+000 +3.7430e+000
1117 0 +2.028904503e-003 +1.000002029e+003 +1.000002029e+003 -2.8988e+000 -1.4077e+000 +3.7387e+000
1147 0 +1.915495121e-003 +1.000001915e+003 +1.000001915e+003 -2.8975e+000 -1.4066e+000 +3.7369e+000
1174 0 +6.938651858e-004 +1.000000694e+003 +1.000000694e+003 -2.9021e+000 -1.4085e+000 +3.7295e+000
1326 0 +1.461510891e-004 +1.000000146e+003 +1.000000146e+003 -2.8966e+000 -1.4108e+000 +3.7231e+000
1384 0 +1.388897729e-004 +1.000000139e+003 +1.000000139e+003 -2.8967e+000 -1.4110e+000 +3.7230e+000
1525 0 +4.886250770e-005 +1.000000049e+003 +1.000000049e+003 -2.8967e+000 -1.4111e+000 +3.7206e+000
1650 0 +2.911857837e-005 +1.000000029e+003 +1.000000029e+003 -2.8967e+000 -1.4116e+000 +3.7204e+000
1651 0 +2.258742325e-005 +1.000000023e+003 +1.000000023e+003 -2.8963e+000 -1.4115e+000 +3.7200e+000
1724 0 +3.204596737e-006 +1.000000003e+003 +1.000000003e+003 -2.8959e+000 -1.4117e+000 +3.7187e+000
2020 0 +1.718879162e-006 +1.000000002e+003 +1.000000002e+003 -2.8959e+000 -1.4118e+000 +3.7186e+000
2187 0 +9.298688610e-007 +1.000000001e+003 +1.000000001e+003 -2.8959e+000 -1.4119e+000 +3.7185e+000
2249 0 +8.768956832e-007 +1.000000001e+003 +1.000000001e+003 -2.8959e+000 -1.4119e+000 +3.7184e+000
2318 0 +3.578262522e-007 +1.000000000e+003 +1.000000000e+003 -2.8959e+000 -1.4119e+000 +3.7184e+000
2554 0 +3.429670414e-007 +1.000000000e+003 +1.000000000e+003 -2.8959e+000 -1.4119e+000 +3.7184e+000
2579 0 +2.183734296e-007 +1.000000000e+003 +1.000000000e+003 -2.8959e+000 -1.4119e+000 +3.7184e+000
2618 0 +1.014434474e-007 +1.000000000e+003 +1.000000000e+003 -2.8960e+000 -1.4120e+000 +3.7184e+000
2644 0 +7.421419923e-008 +1.000000000e+003 +1.000000000e+003 -2.8960e+000 -1.4120e+000 +3.7184e+000
2704 0 +7.268306490e-008 +1.000000000e+003 +1.000000000e+003 -2.8960e+000 -1.4120e+000 +3.7184e+000
2708 0 +3.365448720e-008 +1.000000000e+003 +1.000000000e+003 -2.8960e+000 -1.4120e+000 +3.7184e+000
2757 0 +3.193702014e-008 +1.000000000e+003 +1.000000000e+003 -2.8960e+000 -1.4120e+000 +3.7184e+000
2842 0 +7.613948583e-009 +1.000000000e+003 +1.000000000e+003 -2.8960e+000 -1.4120e+000 +3.7184e+000
% f evaluations | g evaluations | best noise-free fitness - Fopt (1.490000000000e+000) + sum g_i+ | measured fitness | best measured fitness or single-digit g-values | x1 | x2...
1 0 +3.252510412e+005 +3.252525312e+005 +3.252525312e+005 -2.4672e+000 -1.8947e+000 +2.3336e+000
2 0 +3.155777213e+005 +3.155792113e+005 +3.155792113e+005 -2.6617e+000 -2.0693e-001 +3.3520e+000
3 0 +7.394209795e+003 +7.395699795e+003 +7.395699795e+003 +3.2627e+000 -1.2989e+000 -2.2315e+000
5 0 +9.712801366e+001 +9.861801366e+001 +9.861801366e+001 +5.0000e+000 +5.0000e+000 -5.0000e+000
12 0 +4.874417821e+001 +5.023417821e+001 +5.023417821e+001 +4.0776e+000 +4.2199e+000 -1.8074e+000
17 0 +4.037134238e+001 +4.186134238e+001 +4.186134238e+001 +3.3650e+000 +4.1075e+000 -2.9388e+000
19 0 +2.329414466e+001 +2.478414466e+001 +2.478414466e+001 +1.9867e+000 +9.4402e-001 -4.5795e+000
35 0 +1.199687010e+001 +1.348687010e+001 +1.348687010e+001 +3.8250e+000 +1.9001e+000 -4.0874e+000
51 0 +1.024291705e+001 +1.173291705e+001 +1.173291705e+001 +3.7762e+000 +1.1653e+000 -3.4228e+000
65 0 +9.715007116e+000 +1.120500712e+001 +1.120500712e+001 +3.0730e+000 -8.3855e-002 -3.5033e+000
110 0 +8.825038174e+000 +1.031503817e+001 +1.031503817e+001 +3.4246e+000 +1.2582e+000 -4.4098e+000
120 0 +6.847988381e+000 +8.337988381e+000 +8.337988381e+000 +3.7390e+000 +4.3261e-001 -3.3288e+000
133 0 +6.492888545e+000 +7.982888545e+000 +7.982888545e+000 +3.7293e+000 +3.3428e-001 -3.3909e+000
142 0 +6.122541522e+000 +7.612541522e+000 +7.612541522e+000 +3.2833e+000 -4.7361e-002 -3.8044e+000
148 0 +2.890967615e+000 +4.380967615e+000 +4.380967615e+000 +3.5001e+000 -3.9040e-001 -4.0249e+000
163 0 +2.624396035e+000 +4.114396035e+000 +4.114396035e+000 +3.5203e+000 -5.4148e-001 -4.2289e+000
247 0 +2.431038468e+000 +3.921038468e+000 +3.921038468e+000 +3.3749e+000 -1.0275e+000 -4.0412e+000
282 0 +1.270639631e+000 +2.760639631e+000 +2.760639631e+000 +3.7756e+000 -8.3754e-001 -3.8907e+000
352 0 +3.380667200e-001 +1.828066720e+000 +1.828066720e+000 +3.8135e+000 -1.4171e+000 -3.8288e+000
413 0 +2.777461119e-001 +1.767746112e+000 +1.767746112e+000 +3.9168e+000 -1.3513e+000 -3.7668e+000
452 0 +1.849672894e-001 +1.674967289e+000 +1.674967289e+000 +3.9162e+000 -1.4545e+000 -3.7646e+000
549 0 +8.727458023e-002 +1.577274580e+000 +1.577274580e+000 +3.9058e+000 -1.6000e+000 -3.6685e+000
568 0 +8.495387867e-002 +1.574953879e+000 +1.574953879e+000 +3.9063e+000 -1.6007e+000 -3.6717e+000
638 0 +8.182690469e-002 +1.571826905e+000 +1.571826905e+000 +3.8709e+000 -1.6637e+000 -3.7034e+000
654 0 +4.161752929e-002 +1.531617529e+000 +1.531617529e+000 +3.9075e+000 -1.7140e+000 -3.6652e+000
656 0 +3.839681759e-002 +1.528396818e+000 +1.528396818e+000 +3.9117e+000 -1.7118e+000 -3.6691e+000
686 0 +9.555682898e-003 +1.499555683e+000 +1.499555683e+000 +3.9390e+000 -1.7743e+000 -3.6424e+000
700 0 +2.501177219e-003 +1.492501177e+000 +1.492501177e+000 +3.9493e+000 -1.7972e+000 -3.6437e+000
785 0 +1.788208677e-003 +1.491788209e+000 +1.491788209e+000 +3.9472e+000 -1.7981e+000 -3.6566e+000
891 0 +1.463295713e-003 +1.491463296e+000 +1.491463296e+000 +3.9484e+000 -1.7997e+000 -3.6559e+000
900 0 +3.592760293e-004 +1.490359276e+000 +1.490359276e+000 +3.9532e+000 -1.8104e+000 -3.6479e+000
1081 0 +2.203523713e-004 +1.490220352e+000 +1.490220352e+000 +3.9534e+000 -1.8132e+000 -3.6480e+000
1123 0 +1.764915365e-004 +1.490176492e+000 +1.490176492e+000 +3.9530e+000 -1.8143e+000 -3.6482e+000
1160 0 +1.690599161e-004 +1.490169060e+000 +1.490169060e+000 +3.9529e+000 -1.8148e+000 -3.6480e+000
1311 0 +9.173413660e-005 +1.490091734e+000 +1.490091734e+000 +3.9535e+000 -1.8172e+000 -3.6471e+000
1346 0 +5.366998585e-005 +1.490053670e+000 +1.490053670e+000 +3.9537e+000 -1.8187e+000 -3.6470e+000
1369 0 +3.067485084e-005 +1.490030675e+000 +1.490030675e+000 +3.9537e+000 -1.8199e+000 -3.6470e+000
1616 0 +2.977766100e-005 +1.490029778e+000 +1.490029778e+000 +3.9540e+000 -1.8193e+000 -3.6470e+000
1704 0 +2.166268145e-005 +1.490021663e+000 +1.490021663e+000 +3.9540e+000 -1.8193e+000 -3.6475e+000
1712 0 +8.445231755e-006 +1.490008445e+000 +1.490008445e+000 +3.9539e+000 -1.8209e+000 -3.6473e+000
1738 0 +8.191789525e-006 +1.490008192e+000 +1.490008192e+000 +3.9539e+000 -1.8208e+000 -3.6476e+000
1751 0 +8.080070771e-006 +1.490008080e+000 +1.490008080e+000 +3.9539e+000 -1.8209e+000 -3.6476e+000
1828 0 +5.785660764e-006 +1.490005786e+000 +1.490005786e+000 +3.9539e+000 -1.8211e+000 -3.6475e+000
1891 0 +1.714084007e-006 +1.490001714e+000 +1.490001714e+000 +3.9543e+000 -1.8211e+000 -3.6472e+000
2011 0 +9.166328123e-007 +1.490000917e+000 +1.490000917e+000 +3.9544e+000 -1.8212e+000 -3.6473e+000
2072 0 +3.176660481e-007 +1.490000318e+000 +1.490000318e+000 +3.9544e+000 -1.8214e+000 -3.6473e+000
2274 0 +1.937341922e-007 +1.490000194e+000 +1.490000194e+000 +3.9544e+000 -1.8214e+000 -3.6472e+000
2486 0 +1.793585003e-007 +1.490000179e+000 +1.490000179e+000 +3.9544e+000 -1.8214e+000 -3.6472e+000
2548 0 +1.489985948e-007 +1.490000149e+000 +1.490000149e+000 +3.9544e+000 -1.8215e+000 -3.6472e+000
2587 0 +1.253998121e-007 +1.490000125e+000 +1.490000125e+000 +3.9544e+000 -1.8215e+000 -3.6472e+000
2592 0 +1.012277180e-007 +1.490000101e+000 +1.490000101e+000 +3.9544e+000 -1.8215e+000 -3.6472e+000
2714 0 +9.024908709e-008 +1.490000090e+000 +1.490000090e+000 +3.9544e+000 -1.8215e+000 -3.6472e+000
2722 0 +7.065813112e-008 +1.490000071e+000 +1.490000071e+000 +3.9544e+000 -1.8215e+000 -3.6472e+000
2725 0 +5.791067981e-008 +1.490000058e+000 +1.490000058e+000 +3.9544e+000 -1.8215e+000 -3.6472e+000
2738 0 +5.366190758e-008 +1.490000054e+000 +1.490000054e+000 +3.9544e+000 -1.8215e+000 -3.6472e+000
2821 0 +4.890889671e-008 +1.490000049e+000 +1.490000049e+000 +3.9544e+000 -1.8215e+000 -3.6472e+000
2844 0 +2.259625420e-008 +1.490000023e+000 +1.490000023e+000 +3.9544e+000 -1.8216e+000 -3.6472e+000
2864 0 +2.141623368e-008 +1.490000021e+000 +1.490000021e+000 +3.9544e+000 -1.8216e+000 -3.6472e+000
3063 0 +4.123338115e-009 +1.490000004e+000 +1.490000004e+000 +3.9544e+000 -1.8216e+000 -3.6472e+000
% f evaluations | g evaluations | best noise-free fitness - Fopt (5.963500000000e+002) + sum g_i+ | measured fitness | best measured fitness or single-digit g-values | x1 | x2...
1 0 +3.156291280e+005 +3.162254780e+005 +3.162254780e+005 -2.1605e+000 -3.6729e+000 -1.7226e+000
3 0 +1.210614476e+005 +1.216577976e+005 +1.216577976e+005 -2.3104e+000 +2.7446e+000 +4.4792e+000
6 0 +5.887504047e+004 +5.947139047e+004 +5.947139047e+004 -4.9715e+000 +2.3162e+000 +4.8637e+000
7 0 +1.767193013e+004 +1.826828013e+004 +1.826828013e+004 -4.1384e+000 +4.2996e-001 +1.9953e+000
8 0 +2.168140002e+003 +2.764490002e+003 +2.764490002e+003 -4.5050e+000 -4.2432e-001 +5.0000e+000
10 0 +1.641250416e+000 +5.979912504e+002 +5.979912504e+002 -4.7655e+000 -3.4351e-001 +3.9265e+000
37 0 +7.160209407e-001 +5.970660209e+002 +5.970660209e+002 -4.1910e+000 -9.9467e-002 +3.9020e+000
101 0 +5.059514775e-001 +5.968559515e+002 +5.968559515e+002 -3.9924e+000 -4.9003e-002 +3.8131e+000
128 0 +4.612111450e-001 +5.968112111e+002 +5.968112111e+002 -4.2427e+000 -1.1135e-001 +3.4874e+000
143 0 +4.553875629e-001 +5.968053876e+002 +5.968053876e+002 -4.2419e+000 -1.1250e-001 +3.4917e+000
238 0 +1.980101695e-001 +5.965480102e+002 +5.965480102e+002 -3.9956e+000 -1.6605e-001 +3.6060e+000
328 0 +1.503955176e-001 +5.965003955e+002 +5.965003955e+002 -3.9256e+000 -1.6978e-001 +3.5823e+000
358 0 +9.356060297e-002 +5.964435606e+002 +5.964435606e+002 -3.8828e+000 -1.6261e-001 +3.5357e+000
374 0 +7.678559989e-002 +5.964267856e+002 +5.964267856e+002 -3.8298e+000 -1.9796e-001 +3.4637e+000
418 0 +5.737735614e-002 +5.964073774e+002 +5.964073774e+002 -3.8379e+000 -1.5509e-001 +3.4867e+000
437 0 +4.235162534e-002 +5.963923516e+002 +5.963923516e+002 -3.8134e+000 -1.4055e-001 +3.4600e+000
525 0 +2.899054053e-002 +5.963789905e+002 +5.963789905e+002 -3.8026e+000 -1.5886e-001 +3.4280e+000
637 0 +2.392912414e-002 +5.963739291e+002 +5.963739291e+002 -3.7522e+000 -1.3296e-001 +3.4394e+000
642 0 +1.116380901e-002 +5.963611638e+002 +5.963611638e+002 -3.7242e+000 -1.4524e-001 +3.4194e+000
688 0 +9.435093032e-003 +5.963594351e+002 +5.963594351e+002 -3.7172e+000 -1.4970e-001 +3.4176e+000
717 0 +6.342850326e-003 +5.963563429e+002 +5.963563429e+002 -3.7242e+000 -1.5022e-001 +3.3992e+000
727 0 +2.494061853e-003 +5.963524941e+002 +5.963524941e+002 -3.6862e+000 -1.4858e-001 +3.3870e+000
747 0 +4.183578540e-004 +5.963504184e+002 +5.963504184e+002 -3.6882e+000 -1.5490e-001 +3.3710e+000
896 0 +7.272314986e-005 +5.963500727e+002 +5.963500727e+002 -3.6809e+000 -1.5460e-001 +3.3673e+000
1443 0 +5.909185052e-005 +5.963500591e+002 +5.963500591e+002 -3.6800e+000 -1.5462e-001 +3.3670e+000
1659 0 +1.557372491e-005 +5.963500156e+002 +5.963500156e+002 -3.6791e+000 -1.5462e-001 +3.3651e+000
1725 0 +1.511440257e-005 +5.963500151e+002 +5.963500151e+002 -3.6789e+000 -1.5456e-001 +3.3652e+000
1809 0 +8.743872741e-006 +5.963500087e+002 +5.963500087e+002 -3.6788e+000 -1.5463e-001 +3.3645e+000
1878 0 +6.461404610e-006 +5.963500065e+002 +5.963500065e+002 -3.6783e+000 -1.5450e-001 +3.3648e+000
1956 0 +6.424628737e-006 +5.963500064e+002 +5.963500064e+002 -3.6783e+000 -1.5450e-001 +3.3648e+000
2153 0 +5.884429811e-006 +5.963500059e+002 +5.963500059e+002 -3.6785e+000 -1.5441e-001 +3.3648e+000
2165 0 +4.351183406e-006 +5.963500044e+002 +5.963500044e+002 -3.6783e+000 -1.5444e-001 +3.3647e+000
2277 0 +3.036071348e-006 +5.963500030e+002 +5.963500030e+002 -3.6783e+000 -1.5441e-001 +3.3645e+000
2313 0 +2.657636060e-006 +5.963500027e+002 +5.963500027e+002 -3.6782e+000 -1.5451e-001 +3.3644e+000
2316 0 +1.639998573e-006 +5.963500016e+002 +5.963500016e+002 -3.6779e+000 -1.5446e-001 +3.3644e+000
2339 0 +9.953689641e-007 +5.963500010e+002 +5.963500010e+002 -3.6780e+000 -1.5442e-001 +3.3643e+000
2444 0 +9.104036280e-007 +5.963500009e+002 +5.963500009e+002 -3.6779e+000 -1.5441e-001 +3.3643e+000
2450 0 +8.404661003e-007 +5.963500008e+002 +5.963500008e+002 -3.6779e+000 -1.5441e-001 +3.3643e+000
2455 0 +5.194723371e-007 +5.963500005e+002 +5.963500005e+002 -3.6779e+000 -1.5444e-001 +3.3641e+000
2536 0 +4.968517260e-007 +5.963500005e+002 +5.963500005e+002 -3.6779e+000 -1.5444e-001 +3.3641e+000
2586 0 +4.581357871e-007 +5.963500005e+002 +5.963500005e+002 -3.6779e+000 -1.5443e-001 +3.3641e+000
2713 0 +3.592897428e-007 +5.963500004e+002 +5.963500004e+002 -3.6778e+000 -1.5445e-001 +3.3641e+000
2763 0 +3.479666475e-007 +5.963500003e+002 +5.963500003e+002 -3.6778e+000 -1.5444e-001 +3.3641e+000
2776 0 +3.380780527e-007 +5.963500003e+002 +5.963500003e+002 -3.6778e+000 -1.5445e-001 +3.3641e+000
2804 0 +3.155636250e-007 +5.963500003e+002 +5.963500003e+002 -3.6778e+000 -1.5445e-001 +3.3641e+000
2865 0 +2.873173344e-007 +5.963500003e+002 +5.963500003e+002 -3.6778e+000 -1.5437e-001 +3.3641e+000
2903 0 +2.438680440e-007 +5.963500002e+002 +5.963500002e+002 -3.6778e+000 -1.5437e-001 +3.3641e+000
2928 0 +2.074091299e-007 +5.963500002e+002 +5.963500002e+002 -3.6777e+000 -1.5436e-001 +3.3641e+000
2947 0 +6.154925813e-008 +5.963500001e+002 +5.963500001e+002 -3.6777e+000 -1.5439e-001 +3.3640e+000
2971 0 +3.104560165e-008 +5.963500000e+002 +5.963500000e+002 -3.6776e+000 -1.5439e-001 +3.3640e+000
3151 0 +2.507147201e-008 +5.963500000e+002 +5.963500000e+002 -3.6776e+000 -1.5440e-001 +3.3640e+000
3169 0 +2.293859325e-008 +5.963500000e+002 +5.963500000e+002 -3.6776e+000 -1.5439e-001 +3.3640e+000
3202 0 +2.290380507e-008 +5.963500000e+002 +5.963500000e+002 -3.6776e+000 -1.5439e-001 +3.3640e+000
3219 0 +1.144371709e-008 +5.963500000e+002 +5.963500000e+002 -3.6776e+000 -1.5440e-001 +3.3640e+000
3307 0 +1.118087312e-008 +5.963500000e+002 +5.963500000e+002 -3.6776e+000 -1.5440e-001 +3.3640e+000
3327 0 +5.770630196e-009 +5.963500000e+002 +5.963500000e+002 -3.6776e+000 -1.5440e-001 +3.3640e+000
% f evaluations | g evaluations | best noise-free fitness - Fopt (-1.189700000000e+002) + sum g_i+ | measured fitness | best measured fitness or single-digit g-values | x1 | x2...
1 0 +1.889367388e+005 +1.888177688e+005 +1.888177688e+005 +6.5147e-001 -1.0266e+000 -2.3022e+000
7 0 +1.101809176e+005 +1.100619476e+005 +1.100619476e+005 +9.7543e-001 +3.6985e-001 -5.7840e-001
14 0 +6.480688333e+004 +6.468791333e+004 +6.468791333e+004 +4.3682e-001 +1.8964e+000 +4.8424e-001
26 0 +6.147372774e+004 +6.135475774e+004 +6.135475774e+004 +8.6764e-001 +2.2407e+000 +5.8429e-001
27 0 +1.808158841e+004 +1.796261841e+004 +1.796261841e+004 -8.8075e-002 +4.0062e+000 -1.9371e+000
34 0 +1.684120413e+004 +1.672223413e+004 +1.672223413e+004 -8.5371e-001 +4.8263e+000 -2.7832e+000
36 0 +1.553499387e+000 -1.174165006e+002 -1.174165006e+002 -2.0789e+000 +4.2584e+000 -3.2577e+000
194 0 +1.363396479e+000 -1.176066035e+002 -1.176066035e+002 -1.9855e+000 +4.1950e+000 -3.0374e+000
231 0 +1.292730843e+000 -1.176772692e+002 -1.176772692e+002 -1.9291e+000 +4.2180e+000 -2.9799e+000
243 0 +1.192416366e+000 -1.177775836e+002 -1.177775836e+002 -1.9019e+000 +4.1972e+000 -2.9494e+000
303 0 +8.269074777e-001 -1.181430925e+002 -1.181430925e+002 -1.6302e+000 +4.3225e+000 -2.8772e+000
325 0 +3.476637289e-001 -1.186223363e+002 -1.186223363e+002 -1.5294e+000 +3.9689e+000 -2.5665e+000
385 0 +2.764754449e-001 -1.186935246e+002 -1.186935246e+002 -1.4770e+000 +4.0901e+000 -2.6052e+000
403 0 +1.761339673e-001 -1.187938660e+002 -1.187938660e+002 -1.4568e+000 +3.9090e+000 -2.6317e+000
445 0 +1.514191197e-001 -1.188185809e+002 -1.188185809e+002 -1.3543e+000 +4.0111e+000 -2.6010e+000
631 0 +1.068467866e-001 -1.188631532e+002 -1.188631532e+002 -1.2559e+000 +4.0061e+000 -2.3652e+000
672 0 +1.005265322e-001 -1.188694735e+002 -1.188694735e+002 -1.2583e+000 +4.0063e+000 -2.3757e+000
683 0 +8.991463674e-002 -1.188800854e+002 -1.188800854e+002 -1.2602e+000 +4.0017e+000 -2.3836e+000
725 0 +6.100655312e-002 -1.189089934e+002 -1.189089934e+002 -1.2557e+000 +3.9549e+000 -2.3774e+000
767 0 +5.908459476e-002 -1.189109154e+002 -1.189109154e+002 -1.2549e+000 +3.9546e+000 -2.3774e+000
815 0 +5.540807884e-002 -1.189145919e+002 -1.189145919e+002 -1.3063e+000 +3.9372e+000 -2.5258e+000
901 0 +5.019870887e-002 -1.189198013e+002 -1.189198013e+002 -1.3183e+000 +3.9328e+000 -2.4746e+000
902 0 +4.322082804e-002 -1.189267792e+002 -1.189267792e+002 -1.3109e+000 +3.9112e+000 -2.5195e+000
920 0 +3.643817133e-002 -1.189335618e+002 -1.189335618e+002 -1.2913e+000 +3.9180e+000 -2.4597e+000
955 0 +3.214148840e-002 -1.189378585e+002 -1.189378585e+002 -1.2656e+000 +3.9277e+000 -2.4248e+000
964 0 +2.015558110e-002 -1.189498444e+002 -1.189498444e+002 -1.2610e+000 +3.8594e+000 -2.4270e+000
986 0 +1.658859972e-002 -1.189534114e+002 -1.189534114e+002 -1.2463e+000 +3.8967e+000 -2.4085e+000
1033 0 +1.441651251e-002 -1.189555835e+002 -1.189555835e+002 -1.2583e+000 +3.8868e+000 -2.4515e+000
1045 0 +1.261294808e-002 -1.189573871e+002 -1.189573871e+002 -1.2545e+000 +3.8790e+000 -2.4556e+000
1079 0 +1.045115900e-002 -1.189595488e+002 -1.189595488e+002 -1.2485e+000 +3.8729e+000 -2.4560e+000
1083 0 +6.220362836e-003 -1.189637796e+002 -1.189637796e+002 -1.2326e+000 +3.8784e+000 -2.4303e+000
1117 0 +5.295678131e-003 -1.189647043e+002 -1.189647043e+002 -1.2295e+000 +3.8784e+000 -2.4267e+000
1133 0 +5.237153533e-003 -1.189647628e+002 -1.189647628e+002 -1.2292e+000 +3.8784e+000 -2.4264e+000
1151 0 +4.758193414e-003 -1.189652418e+002 -1.189652418e+002 -1.2270e+000 +3.8754e+000 -2.4281e+000
1171 0 +2.951324675e-003 -1.189670487e+002 -1.189670487e+002 -1.2174e+000 +3.8687e+000 -2.4020e+000
1212 0 +2.392227758e-003 -1.189676078e+002 -1.189676078e+002 -1.2191e+000 +3.8643e+000 -2.4107e+000
1242 0 +2.017569986e-003 -1.189679824e+002 -1.189679824e+002 -1.2131e+000 +3.8631e+000 -2.4002e+000
1287 0 +1.922678947e-003 -1.189680773e+002 -1.189680773e+002 -1.2121e+000 +3.8632e+000 -2.3992e+000
1293 0 +1.034394630e-003 -1.189689656e+002 -1.189689656e+002 -1.2114e+000 +3.8606e+000 -2.4073e+000
1310 0 +9.288706156e-004 -1.189690711e+002 -1.189690711e+002 -1.2078e+000 +3.8618e+000 -2.4067e+000
1489 0 +7.920647349e-004 -1.189692079e+002 -1.189692079e+002 -1.2055e+000 +3.8607e+000 -2.4057e+000
1637 0 +4.681523553e-004 -1.189695318e+002 -1.189695318e+002 -1.2051e+000 +3.8580e+000 -2.4023e+000
1640 0 +2.715362681e-004 -1.189697285e+002 -1.189697285e+002 -1.2047e+000 +3.8542e+000 -2.4035e+000
1730 0 +2.601439353e-004 -1.189697399e+002 -1.189697399e+002 -1.2038e+000 +3.8531e+000 -2.4041e+000
1751 0 +2.496510997e-004 -1.189697503e+002 -1.189697503e+002 -1.2037e+000 +3.8530e+000 -2.4038e+000
1760 0 +1.868724982e-004 -1.189698131e+002 -1.189698131e+002 -1.2033e+000 +3.8525e+000 -2.4024e+000
1790 0 +1.723724740e-004 -1.189698276e+002 -1.189698276e+002 -1.2030e+000 +3.8521e+000 -2.4013e+000
1850 0 +1.690414502e-004 -1.189698310e+002 -1.189698310e+002 -1.2029e+000 +3.8522e+000 -2.4008e+000
1885 0 +1.603563335e-004 -1.189698396e+002 -1.189698396e+002 -1.2027e+000 +3.8519e+000 -2.4006e+000
1917 0 +1.465798316e-004 -1.189698534e+002 -1.189698534e+002 -1.2023e+000 +3.8517e+000 -2.4004e+000
1999 0 +1.381391016e-004 -1.189698619e+002 -1.189698619e+002 -1.2021e+000 +3.8518e+000 -2.4005e+000
2058 0 +2.739883891e-005 -1.189699726e+002 -1.189699726e+002 -1.1993e+000 +3.8518e+000 -2.3989e+000
2113 0 +2.611318044e-005 -1.189699739e+002 -1.189699739e+002 -1.1994e+000 +3.8517e+000 -2.3987e+000
2134 0 +2.993740935e-006 -1.189699970e+002 -1.189699970e+002 -1.1980e+000 +3.8514e+000 -2.3974e+000
2176 0 +2.664565045e-006 -1.189699973e+002 -1.189699973e+002 -1.1981e+000 +3.8515e+000 -2.3973e+000
2584 0 +6.514735276e-007 -1.189699993e+002 -1.189699993e+002 -1.1978e+000 +3.8514e+000 -2.3969e+000
2637 0 +6.112254738e-007 -1.189699994e+002 -1.189699994e+002 -1.1978e+000 +3.8514e+000 -2.3969e+000
2651 0 +3.376418789e-007 -1.189699997e+002 -1.189699997e+002 -1.1978e+000 +3.8513e+000 -2.3969e+000
2916 0 +2.052842376e-007 -1.189699998e+002 -1.189699998e+002 -1.1977e+000 +3.8513e+000 -2.3969e+000
2948 0 +2.001788886e-007 -1.189699998e+002 -1.189699998e+002 -1.1977e+000 +3.8513e+000 -2.3968e+000
3201 0 +1.981673563e-007 -1.189699998e+002 -1.189699998e+002 -1.1977e+000 +3.8513e+000 -2.3968e+000
3251 0 +1.467955997e-007 -1.189699999e+002 -1.189699999e+002 -1.1977e+000 +3.8513e+000 -2.3968e+000
3321 0 +2.992914006e-008 -1.189700000e+002 -1.189700000e+002 -1.1976e+000 +3.8512e+000 -2.3968e+000
3508 0 +1.889335977e-008 -1.189700000e+002 -1.189700000e+002 -1.1976e+000 +3.8512e+000 -2.3968e+000
3550 0 +1.443292774e-008 -1.189700000e+002 -1.189700000e+002 -1.1976e+000 +3.8512e+000 -2.3968e+000
4038 0 +1.389389581e-008 -1.189700000e+002 -1.189700000e+002 -1.1976e+000 +3.8512e+000 -2.3968e+000
4096 0 +1.337792810e-008 -1.189700000e+002 -1.189700000e+002 -1.1976e+000 +3.8512e+000 -2.3968e+000
4161 0 +1.105878766e-008 -1.189700000e+002 -1.189700000e+002 -1.1976e+000 +3.8512e+000 -2.3968e+000
4187 0 +8.194348311e-009 -1.189700000e+002 -1.189700000e+002 -1.1976e+000 +3.8512e+000 -2.3968e+000
