% f evaluations | g evaluations | best noise-free fitness - Fopt (-9.210000000000e+000) + sum g_i+ | measured fitness | best measured fitness or single-digit g-values | x1 | x2...
1 0 +1.156397032e+002 +1.064297032e+002 +1.064297032e+002 -5.0000e+000 -5.0000e+000 -5.0000e+000 -5.0000e+000 -5.0000e+000
2 0 +1.056397032e+002 +9.642970322e+001 +9.642970322e+001 +5.0000e+000 -5.0000e+000 -5.0000e+000 -5.0000e+000 -5.0000e+000
3 0 +9.785690912e+001 +8.864690912e+001 +8.864690912e+001 -5.0000e+000 +5.0000e+000 -5.0000e+000 -5.0000e+000 -5.0000e+000
4 0 +8.401692662e+001 +7.480692662e+001 +7.480692662e+001 -5.0000e+000 -5.0000e+000 +5.0000e+000 -5.0000e+000 -5.0000e+000
5 0 +5.940557070e+001 +5.019557070e+001 +5.019557070e+001 -5.0000e+000 -5.0000e+000 -5.0000e+000 +5.0000e+000 -5.0000e+000
7 0 +0.000000000e+000 -9.210000000e+000 -9.210000000e+000 +5.0000e+000 +5.0000e+000 +5.0000e+000 +5.0000e+000 -5.0000e+000
% f evaluations | g evaluations | best noise-free fitness - Fopt (6.559900000000e+002) + sum g_i+ | measured fitness | best measured fitness or single-digit g-values | x1 | x2...
1 0 +1.594055707e+002 +8.153955707e+002 +8.153955707e+002 -5.0000e+000 +5.0000e+000 +5.0000e+000 +5.0000e+000 +5.0000e+000
2 0 +1.494055707e+002 +8.053955707e+002 +8.053955707e+002 +5.0000e+000 +5.0000e+000 +5.0000e+000 +5.0000e+000 +5.0000e+000
3 0 +1.416227766e+002 +7.976127766e+002 +7.976127766e+002 -5.0000e+000 -5.0000e+000 +5.0000e+000 +5.0000e+000 +5.0000e+000
4 0 +1.277827941e+002 +7.837727941e+002 +7.837727941e+002 -5.0000e+000 +5.0000e+000 -5.0000e+000 +5.0000e+000 +5.0000e+000
6 0 +5.940557070e+001 +7.153955707e+002 +7.153955707e+002 -5.0000e+000 +5.0000e+000 +5.0000e+000 +5.0000e+000 -5.0000e+000
7 0 +0.000000000e+000 +6.559900000e+002 +6.559900000e+002 +5.0000e+000 -5.0000e+000 -5.0000e+000 +5.0000e+000 -5.0000e+000
% f evaluations | g evaluations | best noise-free fitness - Fopt (6.671000000000e+001) + sum g_i+ | measured fitness | best measured fitness or single-digit g-values | x1 | x2...
1 0 +3.162277660e+001 +9.833277660e+001 +9.833277660e+001 -5.0000e+000 -5.0000e+000 +5.0000e+000 +5.0000e+000 -5.0000e+000
4 0 +0.000000000e+000 +6.671000000e+001 +6.671000000e+001 -5.0000e+000 -5.0000e+000 -5.0000e+000 +5.0000e+000 -5.0000e+000
% f evaluations | g evaluations | best noise-free fitness - Fopt (9.416700000000e+002) + sum g_i+ | measured fitness | best measured fitness or single-digit g-values | x1 | x2...
1 0 +1.100000000e+002 +1.051670000e+003 +1.051670000e+003 +5.0000e+000 -5.0000e+000 +5.0000e+000 +5.0000e+000 +5.0000e+000
2 0 +1.000000000e+002 +1.041670000e+003 +1.041670000e+003 -5.0000e+000 -5.0000e+000 +5.0000e+000 +5.0000e+000 +5.0000e+000
6 0 +1.000000000e+001 +9.516700000e+002 +9.516700000e+002 +5.0000e+000 -5.0000e+000 +5.0000e+000 +5.0000e+000 -5.0000e+000
7 0 +0.000000000e+000 +9.416700000e+002 +9.416700000e+002 -5.0000e+000 -5.0000e+000 +5.0000e+000 +5.0000e+000 -5.0000e+000
% f evaluations | g evaluations | best noise-free fitness - Fopt (-3.745000000000e+001) + sum g_i+ | measured fitness | best measured fitness or single-digit g-values | x1 | x2...
1 0 +8.785690912e+001 +5.040690912e+001 +5.040690912e+001 +5.0000e+000 +5.0000e+000 -5.0000e+000 +5.0000e+000 -5.0000e+000
4 0 +5.623413252e+001 +1.878413252e+001 +1.878413252e+001 +5.0000e+000 +5.0000e+000 +5.0000e+000 +5.0000e+000 -5.0000e+000
5 0 +3.162277660e+001 -5.827223398e+000 -5.827223398e+000 +5.0000e+000 +5.0000e+000 -5.0000e+000 -5.0000e+000 -5.0000e+000
7 0 +0.000000000e+000 -3.745000000e+001 -3.745000000e+001 +5.0000e+000 +5.0000e+000 +5.0000e+000 -5.0000e+000 -5.0000e+000
% f evaluations | g evaluations | best noise-free fitness - Fopt (-6.639000000000e+001) + sum g_i+ | measured fitness | best measured fitness or single-digit g-values | x1 | x2...
1 0 +1.562341325e+002 +8.984413252e+001 +8.984413252e+001 -5.0000e+000 +5.0000e+000 -5.0000e+000 -5.0000e+000 +5.0000e+000
5 0 +1.000000000e+002 +3.361000000e+001 +3.361000000e+001 -5.0000e+000 +5.0000e+000 -5.0000e+000 +5.0000e+000 +5.0000e+000
6 0 +5.623413252e+001 -1.015586748e+001 -1.015586748e+001 -5.0000e+000 +5.0000e+000 -5.0000e+000 -5.0000e+000 -5.0000e+000
7 0 +0.000000000e+000 -6.639000000e+001 -6.639000000e+001 -5.0000e+000 +5.0000e+000 -5.0000e+000 +5.0000e+000 -5.0000e+000
% f evaluations | g evaluations | best noise-free fitness - Fopt (-2.260100000000e+002) + sum g_i+ | measured fitness | best measured fitness or single-digit g-values | x1 | x2...
1 0 +8.401692662e+001 -1.419930734e+002 -1.419930734e+002 +5.0000e+000 -5.0000e+000 +5.0000e+000 -5.0000e+000 -5.0000e+000
2 0 +7.401692662e+001 -1.519930734e+002 -1.519930734e+002 -5.0000e+000 -5.0000e+000 +5.0000e+000 -5.0000e+000 -5.0000e+000
3 0 +6.623413252e+001 -1.597758675e+002 -1.597758675e+002 +5.0000e+000 +5.0000e+000 +5.0000e+000 -5.0000e+000 -5.0000e+000
5 0 +2.778279410e+001 -1.982272059e+002 -1.982272059e+002 +5.0000e+000 -5.0000e+000 +5.0000e+000 +5.0000e+000 -5.0000e+000
7 0 +0.000000000e+000 -2.260100000e+002 -2.260100000e+002 -5.0000e+000 +5.0000e+000 +5.0000e+000 +5.0000e+000 -5.0000e+000
% f evaluations | g evaluations | best noise-free fitness - Fopt (1.000000000000e+003) + sum g_i+ | measured fitness | best measured fitness or single-digit g-values | x1 | x2...
1 0 +1.177827941e+002 +1.117782794e+003 +1.117782794e+003 -5.0000e+000 -5.0000e+000 +5.0000e+000 +5.0000e+000 +5.0000e+000
3 0 +1.000000000e+002 +1.100000000e+003 +1.100000000e+003 -5.0000e+000 +5.0000e+000 +5.0000e+000 +5.0000e+000 +5.0000e+000
6 0 +1.778279410e+001 +1.017782794e+003 +1.017782794e+003 -5.0000e+000 -5.0000e+000 +5.0000e+000 +5.0000e+000 -5.0000e+000
7 0 +0.000000000e+000 +1.000000000e+003 +1.000000000e+003 -5.0000e+000 +5.0000e+000 +5.0000e+000 +5.0000e+000 -5.0000e+000
% f evaluations | g evaluations | best noise-free fitness - Fopt (-1.830200000000e+002) + sum g_i+ | measured fitness | best measured fitness or single-digit g-values | x1 | x2...
1 0 +1.594055707e+002 -2.361442930e+001 -2.361442930e+001 -5.0000e+000 +5.0000e+000 +5.0000e+000 -5.0000e+000 +5.0000e+000
2 0 +1.494055707e+002 -3.361442930e+001 -3.361442930e+001 +5.0000e+000 +5.0000e+000 +5.0000e+000 -5.0000e+000 +5.0000e+000
3 0 +1.416227766e+002 -4.139722340e+001 -4.139722340e+001 -5.0000e+000 -5.0000e+000 +5.0000e+000 -5.0000e+000 +5.0000e+000
4 0 +1.277827941e+002 -5.523720590e+001 -5.523720590e+001 -5.0000e+000 +5.0000e+000 -5.0000e+000 -5.0000e+000 +5.0000e+000
6 0 +5.940557070e+001 -1.236144293e+002 -1.236144293e+002 -5.0000e+000 +5.0000e+000 +5.0000e+000 -5.0000e+000 -5.0000e+000
7 0 +0.000000000e+000 -1.830200000e+002 -1.830200000e+002 +5.0000e+000 -5.0000e+000 -5.0000e+000 -5.0000e+000 -5.0000e+000
% f evaluations | g evaluations | best noise-free fitness - Fopt (-1.026200000000e+002) + sum g_i+ | measured fitness | best measured fitness or single-digit g-values | x1 | x2...
1 0 +1.494055707e+002 +4.678557070e+001 +4.678557070e+001 -5.0000e+000 +5.0000e+000 +5.0000e+000 -5.0000e+000 -5.0000e+000
3 0 +1.316227766e+002 +2.900277660e+001 +2.900277660e+001 -5.0000e+000 -5.0000e+000 +5.0000e+000 -5.0000e+000 -5.0000e+000
4 0 +1.177827941e+002 +1.516279410e+001 +1.516279410e+001 -5.0000e+000 +5.0000e+000 -5.0000e+000 -5.0000e+000 -5.0000e+000
6 0 +4.940557070e+001 -5.321442930e+001 -5.321442930e+001 -5.0000e+000 +5.0000e+000 +5.0000e+000 -5.0000e+000 +5.0000e+000
7 0 +0.000000000e+000 -1.026200000e+002 -1.026200000e+002 -5.0000e+000 -5.0000e+000 -5.0000e+000 -5.0000e+000 +5.0000e+000
% f evaluations | g evaluations | best noise-free fitness - Fopt (9.953000000000e+001) + sum g_i+ | measured fitness | best measured fitness or single-digit g-values | x1 | x2...
1 0 +2.778279410e+001 +1.273127941e+002 +1.273127941e+002 +5.0000e+000 +5.0000e+000 -5.0000e+000 +5.0000e+000 +5.0000e+000
2 0 +1.778279410e+001 +1.173127941e+002 +1.173127941e+002 -5.0000e+000 +5.0000e+000 -5.0000e+000 +5.0000e+000 +5.0000e+000
3 0 +1.000000000e+001 +1.095300000e+002 +1.095300000e+002 +5.0000e+000 -5.0000e+000 -5.0000e+000 +5.0000e+000 +5.0000e+000
7 0 +0.000000000e+000 +9.953000000e+001 +9.953000000e+001 -5.0000e+000 -5.0000e+000 -5.0000e+000 +5.0000e+000 +5.0000e+000
% f evaluations | g evaluations | best noise-free fitness - Fopt (1.495900000000e+002) + sum g_i+ | measured fitness | best measured fitness or single-digit g-values | x1 | x2...
1 0 +1.156397032e+002 +2.652297032e+002 +2.652297032e+002 +5.0000e+000 -5.0000e+000 +5.0000e+000 +5.0000e+000 +5.0000e+000
2 0 +1.056397032e+002 +2.552297032e+002 +2.552297032e+002 -5.0000e+000 -5.0000e+000 +5.0000e+000 +5.0000e+000 +5.0000e+000
3 0 +9.785690912e+001 +2.474469091e+002 +2.474469091e+002 +5.0000e+000 +5.0000e+000 +5.0000e+000 +5.0000e+000 +5.0000e+000
4 0 +8.401692662e+001 +2.336069266e+002 +2.336069266e+002 +5.0000e+000 -5.0000e+000 -5.0000e+000 +5.0000e+000 +5.0000e+000
5 0 +5.940557070e+001 +2.089955707e+002 +2.089955707e+002 +5.0000e+000 -5.0000e+000 +5.0000e+000 -5.0000e+000 +5.0000e+000
7 0 +0.000000000e+000 +1.495900000e+002 +1.495900000e+002 -5.0000e+000 +5.0000e+000 -5.0000e+000 -5.0000e+000 +5.0000e+000
% f evaluations | g evaluations | best noise-free fitness - Fopt (-1.000000000000e+003) + sum g_i+ | measured fitness | best measured fitness or single-digit g-values | x1 | x2...
1 0 +9.785690912e+001 -9.021430909e+002 -9.021430909e+002 -5.0000e+000 -5.0000e+000 +5.0000e+000 +5.0000e+000 +5.0000e+000
2 0 +8.785690912e+001 -9.121430909e+002 -9.121430909e+002 +5.0000e+000 -5.0000e+000 +5.0000e+000 +5.0000e+000 +5.0000e+000
4 0 +6.623413252e+001 -9.337658675e+002 -9.337658675e+002 -5.0000e+000 -5.0000e+000 -5.0000e+000 +5.0000e+000 +5.0000e+000
5 0 +4.162277660e+001 -9.583772234e+002 -9.583772234e+002 -5.0000e+000 -5.0000e+000 +5.0000e+000 -5.0000e+000 +5.0000e+000
7 0 +0.000000000e+000 -1.000000000e+003 -1.000000000e+003 +5.0000e+000 -5.0000e+000 -5.0000e+000 -5.0000e+000 +5.0000e+000
% f evaluations | g evaluations | best noise-free fitness - Fopt (-2.922000000000e+001) + sum g_i+ | measured fitness | best measured fitness or single-digit g-values | x1 | x2...
1 0 +1.156397032e+002 +8.641970322e+001 +8.641970322e+001 +5.0000e+000 +5.0000e+000 +5.0000e+000 -5.0000e+000 +5.0000e+000
2 0 +1.056397032e+002 +7.641970322e+001 +7.641970322e+001 -5.0000e+000 +5.0000e+000 +5.0000e+000 -5.0000e+000 +5.0000e+000
3 0 +9.785690912e+001 +6.863690912e+001 +6.863690912e+001 +5.0000e+000 -5.0000e+000 +5.0000e+000 -5.0000e+000 +5.0000e+000
4 0 +8.401692662e+001 +5.479692662e+001 +5.479692662e+001 +5.0000e+000 +5.0000e+000 -5.0000e+000 -5.0000e+000 +5.0000e+000
5 0 +5.940557070e+001 +3.018557070e+001 +3.018557070e+001 +5.0000e+000 +5.0000e+000 +5.0000e+000 +5.0000e+000 +5.0000e+000
7 0 +0.000000000e+000 -2.922000000e+001 -2.922000000e+001 -5.0000e+000 -5.0000e+000 -5.0000e+000 +5.0000e+000 +5.0000e+000
% f evaluations | g evaluations | best noise-free fitness - Fopt (-4.096000000000e+001) + sum g_i+ | measured fitness | best measured fitness or single-digit g-values | x1 | x2...
1 0 +1.000000000e+002 +5.904000000e+001 +5.904000000e+001 +5.0000e+000 +5.0000e+000 +5.0000e+000 +5.0000e+000 +5.0000e+000
6 0 +0.000000000e+000 -4.096000000e+001 -4.096000000e+001 +5.0000e+000 +5.0000e+000 +5.0000e+000 +5.0000e+000 -5.0000e+000
