% f evaluations | g evaluations | best noise-free fitness - Fopt (-4.620900000000e+002) + sum g_i+ | measured fitness | best measured fitness or single-digit g-values | x1 | x2...
1 0 +5.975983875e+002 +1.355083875e+002 +1.355083875e+002 +5.0000e+000 +5.0000e+000 -5.0000e+000
2 0 +5.488224959e+002 +8.673249594e+001 +8.673249594e+001 -5.0000e+000 +5.0000e+000 -5.0000e+000
4 0 +2.898628572e+002 -1.722271428e+002 -1.722271428e+002 +5.0000e+000 +5.0000e+000 +5.0000e+000
5 0 +2.410869657e+002 -2.210030343e+002 -2.210030343e+002 -5.0000e+000 +5.0000e+000 +5.0000e+000
6 0 +2.359767168e+002 -2.261132832e+002 -2.261132832e+002 -6.0291e-001 +5.0000e+000 +5.0000e+000
7 0 +1.405135909e+002 -3.215764091e+002 -3.215764091e+002 +2.1053e+000 +5.0000e+000 +1.6645e-001
9 0 +4.016131838e+001 -4.219286816e+002 -4.219286816e+002 -2.2624e+000 +4.5259e-001 +1.4677e+000
11 0 +3.419910483e+001 -4.278908952e+002 -4.278908952e+002 -2.0246e+000 +1.1250e+000 +1.4871e+000
13 0 +2.469140520e+001 -4.373985948e+002 -4.373985948e+002 -2.0551e+000 +1.1888e+000 +1.4827e+000
17 0 +2.248763180e+001 -4.396023682e+002 -4.396023682e+002 -2.5681e+000 +1.1488e+000 +1.5105e+000
25 0 +1.497543825e+001 -4.471145618e+002 -4.471145618e+002 -2.3442e+000 +1.1734e+000 +1.5911e+000
49 0 +1.069181697e+001 -4.513981830e+002 -4.513981830e+002 -3.4020e+000 +2.3804e+000 +2.6432e+000
78 0 +2.397809520e+000 -4.596921905e+002 -4.596921905e+002 -2.4003e+000 +2.3059e+000 +2.6095e+000
148 0 +1.885908292e+000 -4.602040917e+002 -4.602040917e+002 -2.3993e+000 +1.7227e+000 +2.2234e+000
208 0 +1.646092218e+000 -4.604439078e+002 -4.604439078e+002 -2.3816e+000 +1.7289e+000 +2.2062e+000
327 0 +1.377531581e+000 -4.607124684e+002 -4.607124684e+002 -2.3487e+000 +1.7059e+000 +2.2001e+000
417 0 +1.132726009e+000 -4.609572740e+002 -4.609572740e+002 -2.3169e+000 +1.7059e+000 +2.2114e+000
485 0 +1.117825666e+000 -4.609721743e+002 -4.609721743e+002 -2.3183e+000 +1.7064e+000 +2.2109e+000
486 0 +1.069262086e+000 -4.610207379e+002 -4.610207379e+002 -2.3257e+000 +1.6992e+000 +2.2104e+000
521 0 +1.042956285e+000 -4.610470437e+002 -4.610470437e+002 -2.3280e+000 +1.6973e+000 +2.2127e+000
568 0 +1.014576825e+000 -4.610754232e+002 -4.610754232e+002 -2.3381e+000 +1.7032e+000 +2.2106e+000
608 0 +9.999740042e-001 -4.610900260e+002 -4.610900260e+002 -2.3404e+000 +1.7077e+000 +2.2129e+000
1742 0 +7.268181375e-001 -4.613631819e+002 -4.613631819e+002 -2.3915e+000 +2.2828e+000 +2.2116e+000
1748 0 +2.300482649e-001 -4.618599517e+002 -4.618599517e+002 -2.3272e+000 +2.2854e+000 +2.2195e+000
1758 0 +2.283661017e-001 -4.618616339e+002 -4.618616339e+002 -2.3273e+000 +2.2853e+000 +2.2193e+000
1811 0 +1.745522135e-001 -4.619154478e+002 -4.619154478e+002 -2.3215e+000 +2.2872e+000 +2.2150e+000
1834 0 +1.679181841e-001 -4.619220818e+002 -4.619220818e+002 -2.3587e+000 +2.2874e+000 +2.2149e+000
1841 0 +1.500898539e-001 -4.619399101e+002 -4.619399101e+002 -2.3595e+000 +2.2885e+000 +2.2136e+000
1842 0 +1.029869564e-001 -4.619870130e+002 -4.619870130e+002 -2.3548e+000 +2.2900e+000 +2.2117e+000
1847 0 +5.661291318e-002 -4.620333871e+002 -4.620333871e+002 -2.3544e+000 +2.2966e+000 +2.2159e+000
1856 0 +3.873225552e-002 -4.620512677e+002 -4.620512677e+002 -2.3314e+000 +2.2951e+000 +2.2149e+000
1863 0 +3.142064296e-002 -4.620585794e+002 -4.620585794e+002 -2.3389e+000 +2.2935e+000 +2.2154e+000
1865 0 +2.245679254e-002 -4.620675432e+002 -4.620675432e+002 -2.3391e+000 +2.2942e+000 +2.2138e+000
1878 0 +1.669668919e-002 -4.620733033e+002 -4.620733033e+002 -2.3457e+000 +2.2966e+000 +2.2150e+000
1879 0 +1.160063585e-002 -4.620783994e+002 -4.620783994e+002 -2.3449e+000 +2.2978e+000 +2.2153e+000
1899 0 +1.036140477e-002 -4.620796386e+002 -4.620796386e+002 -2.3423e+000 +2.2986e+000 +2.2156e+000
1902 0 +6.890857777e-004 -4.620893109e+002 -4.620893109e+002 -2.3421e+000 +2.3006e+000 +2.2133e+000
1929 0 +1.280416620e-004 -4.620898720e+002 -4.620898720e+002 -2.3401e+000 +2.2999e+000 +2.2137e+000
1986 0 +8.800251305e-005 -4.620899120e+002 -4.620899120e+002 -2.3402e+000 +2.2999e+000 +2.2137e+000
2056 0 +6.778015819e-005 -4.620899322e+002 -4.620899322e+002 -2.3413e+000 +2.2999e+000 +2.2136e+000
2079 0 +4.693410483e-005 -4.620899531e+002 -4.620899531e+002 -2.3412e+000 +2.3000e+000 +2.2136e+000
2080 0 +2.696063149e-005 -4.620899730e+002 -4.620899730e+002 -2.3411e+000 +2.3000e+000 +2.2136e+000
2083 0 +2.284005865e-005 -4.620899772e+002 -4.620899772e+002 -2.3411e+000 +2.3000e+000 +2.2136e+000
2106 0 +2.085425763e-005 -4.620899791e+002 -4.620899791e+002 -2.3411e+000 +2.3000e+000 +2.2136e+000
2112 0 +1.471717781e-005 -4.620899853e+002 -4.620899853e+002 -2.3411e+000 +2.3000e+000 +2.2136e+000
2142 0 +9.221411858e-006 -4.620899908e+002 -4.620899908e+002 -2.3408e+000 +2.2999e+000 +2.2136e+000
2151 0 +8.903726439e-006 -4.620899911e+002 -4.620899911e+002 -2.3409e+000 +2.3000e+000 +2.2137e+000
2154 0 +8.663456526e-006 -4.620899913e+002 -4.620899913e+002 -2.3409e+000 +2.3000e+000 +2.2137e+000
2164 0 +6.585854578e-006 -4.620899934e+002 -4.620899934e+002 -2.3408e+000 +2.3000e+000 +2.2137e+000
2180 0 +3.656102194e-006 -4.620899963e+002 -4.620899963e+002 -2.3409e+000 +2.3000e+000 +2.2136e+000
2192 0 +3.154120577e-006 -4.620899968e+002 -4.620899968e+002 -2.3409e+000 +2.3000e+000 +2.2136e+000
2194 0 +2.645892039e-006 -4.620899974e+002 -4.620899974e+002 -2.3408e+000 +2.3000e+000 +2.2136e+000
2200 0 +2.436816203e-006 -4.620899976e+002 -4.620899976e+002 -2.3408e+000 +2.3000e+000 +2.2136e+000
2208 0 +2.052449020e-006 -4.620899979e+002 -4.620899979e+002 -2.3408e+000 +2.3000e+000 +2.2136e+000
2210 0 +1.995540515e-006 -4.620899980e+002 -4.620899980e+002 -2.3408e+000 +2.3000e+000 +2.2136e+000
2212 0 +1.566943524e-006 -4.620899984e+002 -4.620899984e+002 -2.3408e+000 +2.3000e+000 +2.2136e+000
2218 0 +1.286415909e-006 -4.620899987e+002 -4.620899987e+002 -2.3408e+000 +2.3000e+000 +2.2136e+000
2234 0 +9.954661664e-007 -4.620899990e+002 -4.620899990e+002 -2.3408e+000 +2.3000e+000 +2.2136e+000
2259 0 +9.079311099e-007 -4.620899991e+002 -4.620899991e+002 -2.3408e+000 +2.3000e+000 +2.2136e+000
2260 0 +6.602525104e-007 -4.620899993e+002 -4.620899993e+002 -2.3408e+000 +2.3000e+000 +2.2136e+000
2270 0 +3.669492230e-007 -4.620899996e+002 -4.620899996e+002 -2.3408e+000 +2.3000e+000 +2.2136e+000
2286 0 +1.298239454e-007 -4.620899999e+002 -4.620899999e+002 -2.3408e+000 +2.3000e+000 +2.2136e+000
2291 0 +1.129915290e-007 -4.620899999e+002 -4.620899999e+002 -2.3408e+000 +2.3000e+000 +2.2136e+000
2293 0 +1.094360300e-007 -4.620899999e+002 -4.620899999e+002 -2.3408e+000 +2.3000e+000 +2.2136e+000
2303 0 +3.285271077e-008 -4.620900000e+002 -4.620900000e+002 -2.3408e+000 +2.3000e+000 +2.2136e+000
2315 0 +1.479588718e-008 -4.620900000e+002 -4.620900000e+002 -2.3408e+000 +2.3000e+000 +2.2136e+000
2322 0 +8.039307886e-009 -4.620900000e+002 -4.620900000e+002 -2.3408e+000 +2.3000e+000 +2.2136e+000
% f evaluations | g evaluations | best noise-free fitness - Fopt (7.766000000000e+001) + sum g_i+ | measured fitness | best measured fitness or single-digit g-values | x1 | x2...
1 0 +2.984757098e+003 +3.062417098e+003 +3.062417098e+003 +5.0000e+000 +5.0000e+000 +5.0000e+000
3 0 +2.799099451e+003 +2.876759451e+003 +2.876759451e+003 +5.0000e+000 -5.0000e+000 +5.0000e+000
4 0 +4.240178219e+002 +5.016778219e+002 +5.016778219e+002 +5.0000e+000 +5.0000e+000 -5.0000e+000
5 0 +2.383601752e+002 +3.160201752e+002 +3.160201752e+002 +5.0000e+000 -5.0000e+000 -5.0000e+000
7 0 +1.517918249e+002 +2.294518249e+002 +2.294518249e+002 +4.8351e+000 -1.3706e+000 -4.7896e+000
10 0 +6.573466300e+001 +1.433946630e+002 +1.433946630e+002 +1.2580e+000 -1.7947e+000 -3.0402e+000
29 0 +2.929513982e+001 +1.069551398e+002 +1.069551398e+002 +2.2855e+000 -2.3558e+000 -1.8298e+000
32 0 +1.822619325e+001 +9.588619325e+001 +9.588619325e+001 +6.4541e-001 -1.3104e+000 -6.5309e-001
50 0 +1.606670216e+001 +9.372670216e+001 +9.372670216e+001 +5.2648e-001 -1.3380e+000 -5.4457e-001
93 0 +1.565602731e+001 +9.331602731e+001 +9.331602731e+001 -7.3763e-001 -8.6969e-001 -1.2149e+000
102 0 +1.391471482e+001 +9.157471482e+001 +9.157471482e+001 -6.7646e-001 -9.3928e-001 -1.2392e+000
232 0 +1.351972425e+001 +9.117972425e+001 +9.117972425e+001 +3.8688e-001 -1.3318e+000 -1.9745e+000
253 0 +7.212115912e+000 +8.487211591e+001 +8.487211591e+001 +3.9452e-001 -1.3693e+000 -1.2811e+000
361 0 +6.430575281e+000 +8.409057528e+001 +8.409057528e+001 +1.4699e+000 -1.3835e+000 -1.2991e+000
368 0 +5.990082955e+000 +8.365008295e+001 +8.365008295e+001 +1.3824e+000 -1.3524e+000 -1.2966e+000
402 0 +5.126378215e+000 +8.278637821e+001 +8.278637821e+001 +1.4808e+000 -1.3975e+000 -1.2769e+000
412 0 +4.581035244e+000 +8.224103524e+001 +8.224103524e+001 +1.3500e+000 -1.4481e+000 -1.2996e+000
415 0 +3.398553993e+000 +8.105855399e+001 +8.105855399e+001 +1.3799e+000 -1.4844e+000 -1.2934e+000
440 0 +2.901944556e+000 +8.056194456e+001 +8.056194456e+001 +1.3675e+000 -1.4850e+000 -1.2791e+000
450 0 +2.563002266e+000 +8.022300227e+001 +8.022300227e+001 +1.3704e+000 -1.4743e+000 -1.2750e+000
486 0 +2.236149539e+000 +7.989614954e+001 +7.989614954e+001 +1.3807e+000 -1.4513e+000 -1.2775e+000
501 0 +2.098798812e+000 +7.975879881e+001 +7.975879881e+001 +1.3968e+000 -1.4608e+000 -1.2782e+000
523 0 +2.036075849e+000 +7.969607585e+001 +7.969607585e+001 +1.4013e+000 -1.4538e+000 -1.2763e+000
636 0 +1.994221944e+000 +7.965422194e+001 +7.965422194e+001 +1.4022e+000 -1.4491e+000 -1.2730e+000
1698 0 +1.487723839e+000 +7.914772384e+001 +7.914772384e+001 +1.3674e+000 -8.5155e-001 -1.2720e+000
1709 0 +1.367693376e+000 +7.902769338e+001 +7.902769338e+001 +1.3747e+000 -8.5581e-001 -1.2652e+000
1769 0 +1.231098481e+000 +7.889109848e+001 +7.889109848e+001 +1.3798e+000 -8.5581e-001 -1.2760e+000
1832 0 +1.167255993e+000 +7.882725599e+001 +7.882725599e+001 +1.3830e+000 -8.6298e-001 -1.2721e+000
1846 0 +1.121581233e+000 +7.878158123e+001 +7.878158123e+001 +1.3915e+000 -8.6756e-001 -1.2732e+000
1849 0 +1.049908341e+000 +7.870990834e+001 +7.870990834e+001 +1.3905e+000 -8.5805e-001 -1.2722e+000
1858 0 +1.046965911e+000 +7.870696591e+001 +7.870696591e+001 +1.3975e+000 -8.4776e-001 -1.2732e+000
1864 0 +1.007320770e+000 +7.866732077e+001 +7.866732077e+001 +1.4027e+000 -8.5258e-001 -1.2702e+000
1901 0 +9.998113493e-001 +7.865981135e+001 +7.865981135e+001 +1.4008e+000 -8.5535e-001 -1.2704e+000
9414 0 +8.564520892e-002 +7.774564521e+001 +7.774564521e+001 +2.3858e+000 -8.6588e-001 -1.2718e+000
9531 0 +5.624003741e-002 +7.771624004e+001 +7.771624004e+001 +2.4057e+000 -8.6413e-001 -1.2697e+000
9533 0 +4.560687144e-002 +7.770560687e+001 +7.770560687e+001 +2.3962e+000 -8.6340e-001 -1.2688e+000
9559 0 +3.719630317e-002 +7.769719630e+001 +7.769719630e+001 +2.3964e+000 -8.6207e-001 -1.2689e+000
9651 0 +3.278696424e-002 +7.769278696e+001 +7.769278696e+001 +2.4002e+000 -8.6082e-001 -1.2688e+000
9675 0 +2.353715811e-002 +7.768353716e+001 +7.768353716e+001 +2.3922e+000 -8.5711e-001 -1.2688e+000
9678 0 +1.082580638e-002 +7.767082581e+001 +7.767082581e+001 +2.3968e+000 -8.5913e-001 -1.2734e+000
9679 0 +8.558730549e-003 +7.766855873e+001 +7.766855873e+001 +2.3930e+000 -8.5745e-001 -1.2727e+000
9680 0 +4.338392192e-003 +7.766433839e+001 +7.766433839e+001 +2.4006e+000 -8.5754e-001 -1.2730e+000
9696 0 +1.889882900e-003 +7.766188988e+001 +7.766188988e+001 +2.3989e+000 -8.5651e-001 -1.2711e+000
9711 0 +1.367107901e-003 +7.766136711e+001 +7.766136711e+001 +2.3981e+000 -8.5669e-001 -1.2712e+000
9724 0 +3.784052439e-004 +7.766037841e+001 +7.766037841e+001 +2.3985e+000 -8.5532e-001 -1.2717e+000
9765 0 +3.512939957e-004 +7.766035129e+001 +7.766035129e+001 +2.3985e+000 -8.5543e-001 -1.2717e+000
9795 0 +2.259028032e-004 +7.766022590e+001 +7.766022590e+001 +2.3985e+000 -8.5566e-001 -1.2717e+000
9804 0 +5.465101989e-005 +7.766005465e+001 +7.766005465e+001 +2.3985e+000 -8.5572e-001 -1.2719e+000
9843 0 +3.799955087e-005 +7.766003800e+001 +7.766003800e+001 +2.3984e+000 -8.5584e-001 -1.2719e+000
9879 0 +3.662386982e-005 +7.766003662e+001 +7.766003662e+001 +2.3984e+000 -8.5598e-001 -1.2721e+000
9897 0 +3.025224414e-005 +7.766003025e+001 +7.766003025e+001 +2.3981e+000 -8.5609e-001 -1.2720e+000
9910 0 +2.201339747e-005 +7.766002201e+001 +7.766002201e+001 +2.3984e+000 -8.5608e-001 -1.2721e+000
9915 0 +8.183271532e-006 +7.766000818e+001 +7.766000818e+001 +2.3984e+000 -8.5610e-001 -1.2720e+000
9953 0 +5.506548732e-006 +7.766000551e+001 +7.766000551e+001 +2.3983e+000 -8.5595e-001 -1.2720e+000
9957 0 +4.519162417e-006 +7.766000452e+001 +7.766000452e+001 +2.3984e+000 -8.5594e-001 -1.2720e+000
9961 0 +4.411768231e-006 +7.766000441e+001 +7.766000441e+001 +2.3984e+000 -8.5594e-001 -1.2720e+000
9964 0 +3.557138299e-006 +7.766000356e+001 +7.766000356e+001 +2.3984e+000 -8.5593e-001 -1.2720e+000
9978 0 +1.564419321e-006 +7.766000156e+001 +7.766000156e+001 +2.3984e+000 -8.5600e-001 -1.2720e+000
9984 0 +6.131710251e-007 +7.766000061e+001 +7.766000061e+001 +2.3984e+000 -8.5599e-001 -1.2720e+000
10021 0 +5.986509990e-007 +7.766000060e+001 +7.766000060e+001 +2.3984e+000 -8.5599e-001 -1.2720e+000
10028 0 +5.493651969e-007 +7.766000055e+001 +7.766000055e+001 +2.3984e+000 -8.5598e-001 -1.2720e+000
10051 0 +2.589301431e-007 +7.766000026e+001 +7.766000026e+001 +2.3984e+000 -8.5602e-001 -1.2720e+000
10080 0 +2.151892744e-007 +7.766000022e+001 +7.766000022e+001 +2.3984e+000 -8.5602e-001 -1.2720e+000
10096 0 +1.142260828e-007 +7.766000011e+001 +7.766000011e+001 +2.3984e+000 -8.5601e-001 -1.2720e+000
10112 0 +1.101148541e-007 +7.766000011e+001 +7.766000011e+001 +2.3984e+000 -8.5601e-001 -1.2720e+000
10124 0 +2.661494136e-008 +7.766000003e+001 +7.766000003e+001 +2.3984e+000 -8.5600e-001 -1.2720e+000
10172 0 +1.634433033e-008 +7.766000002e+001 +7.766000002e+001 +2.3984e+000 -8.5600e-001 -1.2720e+000
10176 0 +1.215748568e-008 +7.766000001e+001 +7.766000001e+001 +2.3984e+000 -8.5600e-001 -1.2720e+000
10189 0 +9.415259683e-009 +7.766000001e+001 +7.766000001e+001 +2.3984e+000 -8.5600e-001 -1.2720e+000
% f evaluations | g evaluations | best noise-free fitness - Fopt (1.156800000000e+002) + sum g_i+ | measured fitness | best measured fitness or single-digit g-values | x1 | x2...
1 0 +6.294748562e+002 +7.451548562e+002 +7.451548562e+002 +5.0000e+000 +5.0000e+000 -5.0000e+000
2 0 +5.715235471e+002 +6.872035471e+002 +6.872035471e+002 -5.0000e+000 +5.0000e+000 -5.0000e+000
3 0 +3.935336823e+002 +5.092136823e+002 +5.092136823e+002 +5.0000e+000 -5.0000e+000 -5.0000e+000
5 0 +3.355823732e+002 +4.512623732e+002 +4.512623732e+002 -5.0000e+000 -5.0000e+000 -5.0000e+000
6 0 +2.859762999e+002 +4.016562999e+002 +4.016562999e+002 -2.5147e+000 -2.5147e+000 -5.0000e+000
8 0 +7.950524190e+001 +1.951852419e+002 +1.951852419e+002 +6.2628e-001 +9.4721e-001 -1.5916e+000
11 0 +5.790514608e+001 +1.735851461e+002 +1.735851461e+002 -1.5983e+000 -2.0406e+000 -1.5702e+000
13 0 +5.099999065e+001 +1.666799907e+002 +1.666799907e+002 -1.9969e+000 -1.9989e+000 -1.5757e+000
15 0 +4.465732590e+001 +1.603373259e+002 +1.603373259e+002 -2.1034e+000 -2.1189e+000 -1.5445e+000
39 0 +3.751686549e+001 +1.531968655e+002 +1.531968655e+002 -4.3819e-001 -1.5855e+000 -3.1773e-001
46 0 +3.706556865e+001 +1.527455686e+002 +1.527455686e+002 -2.5169e+000 -1.2746e+000 -6.1994e-002
47 0 +2.459790401e+001 +1.402779040e+002 +1.402779040e+002 -4.1870e+000 -1.5817e+000 -9.6762e-001
57 0 +2.381341595e+001 +1.394934159e+002 +1.394934159e+002 -4.1701e+000 -1.5934e+000 -9.0884e-001
75 0 +1.727590940e+001 +1.329559094e+002 +1.329559094e+002 -2.2604e+000 -2.0948e+000 +7.0292e-001
87 0 +1.494962703e+001 +1.306296270e+002 +1.306296270e+002 -2.2153e+000 -1.5455e+000 +3.4791e-001
197 0 +7.299248928e+000 +1.229792489e+002 +1.229792489e+002 -4.1870e+000 -1.5817e+000 +2.1337e-001
293 0 +6.450458224e+000 +1.221304582e+002 +1.221304582e+002 -3.2213e+000 -1.4642e+000 +2.4202e-001
307 0 +5.581217329e+000 +1.212612173e+002 +1.212612173e+002 -3.1579e+000 -1.5487e+000 +2.0622e-001
338 0 +3.563404610e+000 +1.192434046e+002 +1.192434046e+002 -2.0970e+000 -1.5962e+000 +2.7233e-001
365 0 +2.958423656e+000 +1.186384237e+002 +1.186384237e+002 -2.2466e+000 -1.6104e+000 +2.2337e-001
443 0 +2.663282984e+000 +1.183432830e+002 +1.183432830e+002 -2.1718e+000 -1.5836e+000 +2.1605e-001
449 0 +2.544234119e+000 +1.182242341e+002 +1.182242341e+002 -1.2053e+000 -1.5584e+000 +2.4900e-001
463 0 +2.474991271e+000 +1.181549913e+002 +1.181549913e+002 -2.1064e+000 -1.5393e+000 +2.5544e-001
464 0 +2.309049173e+000 +1.179890492e+002 +1.179890492e+002 -2.1073e+000 -1.5383e+000 +2.4799e-001
473 0 +1.471211203e+000 +1.171512112e+002 +1.171512112e+002 -2.2230e+000 -1.5896e+000 +2.4602e-001
485 0 +1.162885332e+000 +1.168428853e+002 +1.168428853e+002 -2.1908e+000 -1.5719e+000 +2.3629e-001
507 0 +1.093258230e+000 +1.167732582e+002 +1.167732582e+002 -2.1901e+000 -1.5721e+000 +2.3981e-001
518 0 +1.057947086e+000 +1.167379471e+002 +1.167379471e+002 -2.1876e+000 -1.5800e+000 +2.4029e-001
607 0 +1.001955656e+000 +1.166819557e+002 +1.166819557e+002 -2.1842e+000 -1.5797e+000 +2.4485e-001
638 0 +9.989951596e-001 +1.166789952e+002 +1.166789952e+002 -2.1820e+000 -1.5783e+000 +2.4420e-001
3809 0 +9.485580781e-001 +1.166285581e+002 +1.166285581e+002 -2.2289e+000 -9.8054e-001 +2.6158e-001
3912 0 +9.084149506e-001 +1.165884150e+002 +1.165884150e+002 -2.2479e+000 -9.7750e-001 +2.5235e-001
3920 0 +7.257973533e-001 +1.164057974e+002 +1.164057974e+002 -2.2396e+000 -9.9362e-001 +2.4505e-001
3932 0 +7.178136581e-001 +1.163978137e+002 +1.163978137e+002 -2.2367e+000 -9.9518e-001 +2.4642e-001
3942 0 +5.985090867e-001 +1.162785091e+002 +1.162785091e+002 -2.2331e+000 -9.7750e-001 +2.4416e-001
3954 0 +4.860921565e-001 +1.161660922e+002 +1.161660922e+002 -2.2247e+000 -9.8027e-001 +2.4204e-001
3978 0 +4.543954142e-001 +1.161343954e+002 +1.161343954e+002 -2.2227e+000 -9.8647e-001 +2.4715e-001
3984 0 +2.285895145e-001 +1.159085895e+002 +1.159085895e+002 -2.1880e+000 -9.9802e-001 +2.3899e-001
3991 0 +8.503076799e-002 +1.157650308e+002 +1.157650308e+002 -2.1911e+000 -9.8508e-001 +2.5056e-001
3997 0 +7.602615296e-002 +1.157560262e+002 +1.157560262e+002 -2.1896e+000 -9.8488e-001 +2.5055e-001
4019 0 +5.574041990e-002 +1.157357404e+002 +1.157357404e+002 -2.1832e+000 -9.8409e-001 +2.5049e-001
4039 0 +3.009332023e-002 +1.157100933e+002 +1.157100933e+002 -2.1852e+000 -9.7931e-001 +2.4759e-001
4044 0 +2.950758511e-002 +1.157095076e+002 +1.157095076e+002 -2.1840e+000 -9.7915e-001 +2.4758e-001
4056 0 +2.382907276e-002 +1.157038291e+002 +1.157038291e+002 -2.1850e+000 -9.7893e-001 +2.4626e-001
4061 0 +1.848081152e-002 +1.156984808e+002 +1.156984808e+002 -2.1845e+000 -9.8653e-001 +2.4635e-001
4062 0 +1.164341690e-002 +1.156916434e+002 +1.156916434e+002 -2.1777e+000 -9.8525e-001 +2.4687e-001
4065 0 +7.102837221e-003 +1.156871028e+002 +1.156871028e+002 -2.1748e+000 -9.8343e-001 +2.4649e-001
4088 0 +5.426734623e-003 +1.156854267e+002 +1.156854267e+002 -2.1767e+000 -9.8367e-001 +2.4650e-001
4096 0 +4.011218674e-003 +1.156840112e+002 +1.156840112e+002 -2.1786e+000 -9.8537e-001 +2.4565e-001
4106 0 +3.822452010e-003 +1.156838225e+002 +1.156838225e+002 -2.1777e+000 -9.8526e-001 +2.4565e-001
4116 0 +3.540330407e-003 +1.156835403e+002 +1.156835403e+002 -2.1775e+000 -9.8521e-001 +2.4558e-001
4122 0 +3.248197917e-003 +1.156832482e+002 +1.156832482e+002 -2.1800e+000 -9.8449e-001 +2.4574e-001
4148 0 +1.033151478e-003 +1.156810332e+002 +1.156810332e+002 -2.1771e+000 -9.8423e-001 +2.4503e-001
4171 0 +1.022902870e-003 +1.156810229e+002 +1.156810229e+002 -2.1776e+000 -9.8425e-001 +2.4514e-001
4181 0 +9.177442312e-004 +1.156809177e+002 +1.156809177e+002 -2.1778e+000 -9.8423e-001 +2.4513e-001
4185 0 +5.235707477e-004 +1.156805236e+002 +1.156805236e+002 -2.1777e+000 -9.8398e-001 +2.4499e-001
4194 0 +4.477079153e-004 +1.156804477e+002 +1.156804477e+002 -2.1773e+000 -9.8282e-001 +2.4503e-001
4203 0 +2.803117704e-004 +1.156802803e+002 +1.156802803e+002 -2.1776e+000 -9.8351e-001 +2.4500e-001
4209 0 +2.245112974e-004 +1.156802245e+002 +1.156802245e+002 -2.1780e+000 -9.8358e-001 +2.4503e-001
4215 0 +1.226254577e-004 +1.156801226e+002 +1.156801226e+002 -2.1778e+000 -9.8345e-001 +2.4490e-001
4228 0 +9.269182007e-005 +1.156800927e+002 +1.156800927e+002 -2.1779e+000 -9.8323e-001 +2.4495e-001
4235 0 +5.470098752e-005 +1.156800547e+002 +1.156800547e+002 -2.1787e+000 -9.8300e-001 +2.4487e-001
4250 0 +1.308617799e-005 +1.156800131e+002 +1.156800131e+002 -2.1787e+000 -9.8319e-001 +2.4482e-001
4262 0 +3.804769449e-006 +1.156800038e+002 +1.156800038e+002 -2.1785e+000 -9.8323e-001 +2.4477e-001
4286 0 +3.288330888e-006 +1.156800033e+002 +1.156800033e+002 -2.1785e+000 -9.8322e-001 +2.4477e-001
4319 0 +1.585479453e-006 +1.156800016e+002 +1.156800016e+002 -2.1783e+000 -9.8323e-001 +2.4482e-001
4361 0 +1.437344352e-006 +1.156800014e+002 +1.156800014e+002 -2.1784e+000 -9.8323e-001 +2.4482e-001
4366 0 +1.290438689e-006 +1.156800013e+002 +1.156800013e+002 -2.1784e+000 -9.8322e-001 +2.4478e-001
4392 0 +3.465572433e-007 +1.156800003e+002 +1.156800003e+002 -2.1784e+000 -9.8322e-001 +2.4480e-001
4412 0 +2.835108859e-007 +1.156800003e+002 +1.156800003e+002 -2.1784e+000 -9.8322e-001 +2.4480e-001
4425 0 +2.608298644e-007 +1.156800003e+002 +1.156800003e+002 -2.1784e+000 -9.8322e-001 +2.4480e-001
4474 0 +2.261835021e-007 +1.156800002e+002 +1.156800002e+002 -2.1784e+000 -9.8322e-001 +2.4480e-001
4477 0 +1.708587547e-007 +1.156800002e+002 +1.156800002e+002 -2.1784e+000 -9.8321e-001 +2.4480e-001
4491 0 +1.232844937e-007 +1.156800001e+002 +1.156800001e+002 -2.1784e+000 -9.8321e-001 +2.4481e-001
4495 0 +6.502821748e-008 +1.156800001e+002 +1.156800001e+002 -2.1784e+000 -9.8321e-001 +2.4480e-001
4499 0 +8.798735962e-009 +1.156800000e+002 +1.156800000e+002 -2.1784e+000 -9.8320e-001 +2.4480e-001
% f evaluations | g evaluations | best noise-free fitness - Fopt (-3.710000000000e+000) + sum g_i+ | measured fitness | best measured fitness or single-digit g-values | x1 | x2...
1 0 +9.993530207e+002 +9.956430207e+002 +9.956430207e+002 +5.0000e+000 +5.0000e+000 -5.0000e+000
3 0 +4.617236407e+002 +4.580136407e+002 +4.580136407e+002 +5.0000e+000 -5.0000e+000 -5.0000e+000
5 0 +2.736786270e+002 +2.699686270e+002 +2.699686270e+002 +5.0000e+000 -5.0000e+000 +5.0000e+000
6 0 +2.170517042e+002 +2.133417042e+002 +2.133417042e+002 +5.0000e+000 -5.0000e+000 -2.3216e+000
7 0 +6.098497835e+001 +5.727497835e+001 +5.727497835e+001 +5.0000e+000 -5.0000e+000 +1.8863e+000
9 0 +4.854987165e+001 +4.483987165e+001 +4.483987165e+001 +5.0000e+000 -1.7289e-015 +1.0178e+000
11 0 +4.007467465e+001 +3.636467465e+001 +3.636467465e+001 +3.3331e-001 -2.2925e+000 +8.8704e-001
13 0 +2.759463312e+001 +2.388463312e+001 +2.388463312e+001 +3.0044e+000 -2.1413e+000 +8.6777e-001
17 0 +2.730578392e+001 +2.359578392e+001 +2.359578392e+001 +3.1717e+000 -2.2632e+000 +9.3035e-001
40 0 +2.382921795e+001 +2.011921795e+001 +2.011921795e+001 +8.3661e-001 -1.6908e+000 +1.1293e+000
45 0 +2.288307913e+001 +1.917307913e+001 +1.917307913e+001 +2.9704e+000 -2.3117e+000 +9.9635e-001
54 0 +1.036035153e+001 +6.650351534e+000 +6.650351534e+000 +4.0912e+000 -2.8724e+000 +1.1539e+000
80 0 +9.929641554e+000 +6.219641554e+000 +6.219641554e+000 +4.1371e+000 -2.8644e+000 +1.1507e+000
90 0 +7.398093273e+000 +3.688093273e+000 +3.688093273e+000 +4.0495e+000 -2.8484e+000 +1.4955e+000
153 0 +6.020815907e+000 +2.310815907e+000 +2.310815907e+000 +4.0818e+000 -2.8582e+000 +1.5013e+000
156 0 +5.120489844e+000 +1.410489844e+000 +1.410489844e+000 +4.0972e+000 -2.9026e+000 +1.5006e+000
187 0 +4.968385945e+000 +1.258385945e+000 +1.258385945e+000 +4.1216e+000 -2.8965e+000 +1.5017e+000
234 0 +4.559182556e+000 +8.491825562e-001 +8.491825562e-001 +4.0768e+000 -2.9129e+000 +1.4613e+000
293 0 +3.327455984e+000 -3.825440156e-001 -3.825440156e-001 +4.1162e+000 -2.9148e+000 +1.4653e+000
388 0 +2.212416572e+000 -1.497583428e+000 -1.497583428e+000 +4.1207e+000 -2.9086e+000 +1.7915e+000
406 0 +2.154638426e+000 -1.555361574e+000 -1.555361574e+000 +4.1140e+000 -2.9136e+000 +1.7829e+000
451 0 +2.052377087e+000 -1.657622913e+000 -1.657622913e+000 +4.1207e+000 -2.9045e+000 +1.7830e+000
461 0 +2.040777107e+000 -1.669222893e+000 -1.669222893e+000 +4.1188e+000 -2.9039e+000 +1.7829e+000
537 0 +1.994002287e+000 -1.715997713e+000 -1.715997713e+000 +4.1155e+000 -2.8924e+000 +1.7841e+000
1529 0 +1.242774160e+000 -2.467225840e+000 -2.467225840e+000 +3.1797e+000 -2.2741e+000 +1.7711e+000
1541 0 +6.130658278e-001 -3.096934172e+000 -3.096934172e+000 +3.0648e+000 -2.2887e+000 +1.7847e+000
1652 0 +3.703922621e-001 -3.339607738e+000 -3.339607738e+000 +3.0894e+000 -2.2907e+000 +1.7736e+000
1670 0 +1.469802761e-001 -3.563019724e+000 -3.563019724e+000 +3.1008e+000 -2.3001e+000 +1.7783e+000
1702 0 +5.128380193e-002 -3.658716198e+000 -3.658716198e+000 +3.1271e+000 -2.3015e+000 +1.7802e+000
1727 0 +3.765358604e-002 -3.672346414e+000 -3.672346414e+000 +3.1320e+000 -2.2983e+000 +1.7821e+000
1737 0 +1.790049607e-002 -3.692099504e+000 -3.692099504e+000 +3.1135e+000 -2.2966e+000 +1.7810e+000
1740 0 +9.914073806e-003 -3.700085926e+000 -3.700085926e+000 +3.1143e+000 -2.2972e+000 +1.7825e+000
1754 0 +8.625058041e-003 -3.701374942e+000 -3.701374942e+000 +3.1133e+000 -2.2943e+000 +1.7833e+000
1772 0 +2.272374762e-003 -3.707727625e+000 -3.707727625e+000 +3.1224e+000 -2.2951e+000 +1.7825e+000
1836 0 +1.687497598e-003 -3.708312502e+000 -3.708312502e+000 +3.1181e+000 -2.2952e+000 +1.7825e+000
1874 0 +1.270732232e-003 -3.708729268e+000 -3.708729268e+000 +3.1188e+000 -2.2949e+000 +1.7825e+000
1878 0 +1.253601966e-003 -3.708746398e+000 -3.708746398e+000 +3.1193e+000 -2.2955e+000 +1.7824e+000
1902 0 +3.886037985e-004 -3.709611396e+000 -3.709611396e+000 +3.1202e+000 -2.2955e+000 +1.7828e+000
1934 0 +2.767299364e-004 -3.709723270e+000 -3.709723270e+000 +3.1197e+000 -2.2955e+000 +1.7829e+000
1939 0 +2.727836423e-004 -3.709727216e+000 -3.709727216e+000 +3.1192e+000 -2.2955e+000 +1.7830e+000
1944 0 +1.985253107e-004 -3.709801475e+000 -3.709801475e+000 +3.1194e+000 -2.2956e+000 +1.7830e+000
1952 0 +6.929298731e-005 -3.709930707e+000 -3.709930707e+000 +3.1196e+000 -2.2954e+000 +1.7833e+000
1956 0 +3.303411938e-005 -3.709966966e+000 -3.709966966e+000 +3.1198e+000 -2.2954e+000 +1.7833e+000
1987 0 +2.316747867e-005 -3.709976833e+000 -3.709976833e+000 +3.1199e+000 -2.2954e+000 +1.7832e+000
1988 0 +2.028004896e-005 -3.709979720e+000 -3.709979720e+000 +3.1199e+000 -2.2954e+000 +1.7832e+000
1989 0 +1.789964084e-005 -3.709982100e+000 -3.709982100e+000 +3.1200e+000 -2.2954e+000 +1.7832e+000
2004 0 +1.133612378e-005 -3.709988664e+000 -3.709988664e+000 +3.1202e+000 -2.2953e+000 +1.7832e+000
2014 0 +7.734935242e-006 -3.709992265e+000 -3.709992265e+000 +3.1202e+000 -2.2952e+000 +1.7832e+000
2019 0 +6.386495481e-006 -3.709993614e+000 -3.709993614e+000 +3.1201e+000 -2.2952e+000 +1.7832e+000
2049 0 +5.263857823e-006 -3.709994736e+000 -3.709994736e+000 +3.1201e+000 -2.2952e+000 +1.7832e+000
2053 0 +1.416343506e-006 -3.709998584e+000 -3.709998584e+000 +3.1200e+000 -2.2952e+000 +1.7832e+000
2069 0 +7.991379496e-007 -3.709999201e+000 -3.709999201e+000 +3.1200e+000 -2.2952e+000 +1.7832e+000
2094 0 +4.708564822e-007 -3.709999529e+000 -3.709999529e+000 +3.1200e+000 -2.2952e+000 +1.7832e+000
2140 0 +2.607741543e-007 -3.709999739e+000 -3.709999739e+000 +3.1200e+000 -2.2952e+000 +1.7832e+000
2159 0 +2.514190052e-007 -3.709999749e+000 -3.709999749e+000 +3.1200e+000 -2.2952e+000 +1.7832e+000
2182 0 +2.090407065e-007 -3.709999791e+000 -3.709999791e+000 +3.1200e+000 -2.2952e+000 +1.7832e+000
2184 0 +1.980674402e-007 -3.709999802e+000 -3.709999802e+000 +3.1200e+000 -2.2952e+000 +1.7832e+000
2189 0 +1.894148882e-008 -3.709999981e+000 -3.709999981e+000 +3.1200e+000 -2.2952e+000 +1.7832e+000
2214 0 +7.554724846e-009 -3.709999992e+000 -3.709999992e+000 +3.1200e+000 -2.2952e+000 +1.7832e+000
% f evaluations | g evaluations | best noise-free fitness - Fopt (1.321800000000e+002) + sum g_i+ | measured fitness | best measured fitness or single-digit g-values | x1 | x2...
1 0 +1.152513015e+002 +2.474313015e+002 +2.474313015e+002 -5.0000e+000 +5.0000e+000 +5.0000e+000
5 0 +5.330349058e+001 +1.854834906e+002 +1.854834906e+002 -5.0000e+000 +4.8131e-001 +5.0000e+000
6 0 +3.610333411e+001 +1.682833341e+002 +1.682833341e+002 -4.7122e+000 -1.8002e-001 +3.3257e+000
12 0 +3.067107950e+001 +1.628510795e+002 +1.628510795e+002 -2.8945e+000 +5.6471e-001 +3.7995e+000
20 0 +2.180064506e+001 +1.539806451e+002 +1.539806451e+002 -3.4846e+000 +7.6857e-001 +3.4212e+000
42 0 +1.810780001e+001 +1.502878000e+002 +1.502878000e+002 -3.5683e+000 +1.9840e+000 +4.1837e+000
43 0 +1.358685317e+001 +1.457668532e+002 +1.457668532e+002 -2.7480e+000 +2.1098e+000 +4.1613e+000
113 0 +1.226699071e+001 +1.444469907e+002 +1.444469907e+002 -2.7602e+000 +2.0982e+000 +4.1527e+000
164 0 +1.131683055e+001 +1.434968306e+002 +1.434968306e+002 -2.8007e+000 +2.0682e+000 +4.1849e+000
174 0 +1.073417222e+001 +1.429141722e+002 +1.429141722e+002 -2.7771e+000 +2.0634e+000 +4.1997e+000
180 0 +1.021637024e+001 +1.423963702e+002 +1.423963702e+002 -2.7920e+000 +2.0514e+000 +4.1977e+000
234 0 +8.918232210e+000 +1.410982322e+002 +1.410982322e+002 -2.7963e+000 +2.0587e+000 +4.1299e+000
262 0 +8.666845815e+000 +1.408468458e+002 +1.408468458e+002 -2.7904e+000 +2.0640e+000 +4.1174e+000
354 0 +8.344440572e+000 +1.405244406e+002 +1.405244406e+002 -2.7989e+000 +2.0335e+000 +4.1427e+000
373 0 +6.480577468e+000 +1.386605775e+002 +1.386605775e+002 -2.7662e+000 +2.0276e+000 +4.1074e+000
378 0 +6.239475605e+000 +1.384194756e+002 +1.384194756e+002 -2.7644e+000 +2.0348e+000 +4.0988e+000
389 0 +6.133108100e+000 +1.383131081e+002 +1.383131081e+002 -2.7643e+000 +2.0287e+000 +4.0956e+000
390 0 +6.009395475e+000 +1.381893955e+002 +1.381893955e+002 -2.7636e+000 +2.0323e+000 +4.0882e+000
1197 0 +4.434403541e+000 +1.366144035e+002 +1.366144035e+002 -3.7912e+000 +8.9214e-001 +3.8782e+000
1249 0 +2.509515550e+000 +1.346895156e+002 +1.346895156e+002 -3.7782e+000 +8.9027e-001 +3.8511e+000
1287 0 +2.351815306e+000 +1.345318153e+002 +1.345318153e+002 -3.7295e+000 +8.9850e-001 +3.8374e+000
1295 0 +2.284727114e+000 +1.344647271e+002 +1.344647271e+002 -3.7297e+000 +8.6936e-001 +3.8267e+000
1352 0 +2.226622061e+000 +1.344066221e+002 +1.344066221e+002 -3.7367e+000 +8.7206e-001 +3.8265e+000
1384 0 +2.131054527e+000 +1.343110545e+002 +1.343110545e+002 -3.7579e+000 +8.9866e-001 +3.8354e+000
1411 0 +2.086560418e+000 +1.342665604e+002 +1.342665604e+002 -3.7768e+000 +8.7810e-001 +3.8315e+000
1461 0 +2.011680963e+000 +1.341916810e+002 +1.341916810e+002 -3.7600e+000 +8.8312e-001 +3.8174e+000
1533 0 +1.994799612e+000 +1.341747996e+002 +1.341747996e+002 -3.7594e+000 +8.8680e-001 +3.8223e+000
2506 0 +1.818016862e+000 +1.339980169e+002 +1.339980169e+002 -3.7474e+000 +2.0538e+000 +3.4619e+000
2523 0 +1.428201901e+000 +1.336082019e+002 +1.336082019e+002 -3.7360e+000 +2.0433e+000 +3.4590e+000
2529 0 +1.213504885e+000 +1.333935049e+002 +1.333935049e+002 -3.7793e+000 +2.0403e+000 +3.4586e+000
2594 0 +1.170496166e+000 +1.333504962e+002 +1.333504962e+002 -3.7678e+000 +2.0410e+000 +3.4623e+000
2597 0 +1.020716112e+000 +1.332007161e+002 +1.332007161e+002 -3.7649e+000 +2.0334e+000 +3.4640e+000
2746 0 +9.999369237e-001 +1.331799369e+002 +1.331799369e+002 -3.7666e+000 +2.0311e+000 +3.4628e+000
13737 0 +9.030189085e-001 +1.330830189e+002 +1.330830189e+002 -3.7773e+000 +1.5013e+000 +3.4825e+000
13756 0 +6.696116495e-001 +1.328496116e+002 +1.328496116e+002 -3.7613e+000 +1.4876e+000 +3.4822e+000
13763 0 +9.129887345e-002 +1.322712989e+002 +1.322712989e+002 -3.7531e+000 +1.4920e+000 +3.4647e+000
13808 0 +8.724428089e-002 +1.322672443e+002 +1.322672443e+002 -3.7546e+000 +1.4897e+000 +3.4660e+000
13832 0 +7.854578198e-002 +1.322585458e+002 +1.322585458e+002 -3.7727e+000 +1.4770e+000 +3.4668e+000
13839 0 +5.768772335e-002 +1.322376877e+002 +1.322376877e+002 -3.7689e+000 +1.4776e+000 +3.4658e+000
13850 0 +4.441868959e-002 +1.322244187e+002 +1.322244187e+002 -3.7638e+000 +1.4770e+000 +3.4653e+000
13854 0 +2.475026853e-002 +1.322047503e+002 +1.322047503e+002 -3.7596e+000 +1.4808e+000 +3.4650e+000
13865 0 +2.096433045e-002 +1.322009643e+002 +1.322009643e+002 -3.7610e+000 +1.4815e+000 +3.4650e+000
13871 0 +1.803974617e-002 +1.321980397e+002 +1.321980397e+002 -3.7595e+000 +1.4820e+000 +3.4646e+000
13880 0 +7.518953486e-003 +1.321875190e+002 +1.321875190e+002 -3.7665e+000 +1.4842e+000 +3.4632e+000
13893 0 +6.764398232e-003 +1.321867644e+002 +1.321867644e+002 -3.7645e+000 +1.4846e+000 +3.4631e+000
13894 0 +6.242381067e-003 +1.321862424e+002 +1.321862424e+002 -3.7648e+000 +1.4845e+000 +3.4630e+000
13896 0 +4.791407113e-003 +1.321847914e+002 +1.321847914e+002 -3.7649e+000 +1.4841e+000 +3.4630e+000
13905 0 +4.502862370e-003 +1.321845029e+002 +1.321845029e+002 -3.7649e+000 +1.4838e+000 +3.4631e+000
13906 0 +4.462036598e-003 +1.321844620e+002 +1.321844620e+002 -3.7649e+000 +1.4838e+000 +3.4631e+000
13911 0 +4.330895198e-003 +1.321843309e+002 +1.321843309e+002 -3.7648e+000 +1.4834e+000 +3.4631e+000
13920 0 +4.093207463e-003 +1.321840932e+002 +1.321840932e+002 -3.7616e+000 +1.4830e+000 +3.4627e+000
13926 0 +3.528910780e-003 +1.321835289e+002 +1.321835289e+002 -3.7626e+000 +1.4831e+000 +3.4629e+000
13928 0 +1.931866591e-003 +1.321819319e+002 +1.321819319e+002 -3.7666e+000 +1.4816e+000 +3.4619e+000
13929 0 +1.781479967e-003 +1.321817815e+002 +1.321817815e+002 -3.7665e+000 +1.4816e+000 +3.4619e+000
13931 0 +1.654178188e-003 +1.321816542e+002 +1.321816542e+002 -3.7664e+000 +1.4816e+000 +3.4619e+000
13939 0 +1.615662361e-003 +1.321816157e+002 +1.321816157e+002 -3.7656e+000 +1.4811e+000 +3.4619e+000
13944 0 +1.574233032e-003 +1.321815742e+002 +1.321815742e+002 -3.7651e+000 +1.4830e+000 +3.4624e+000
13948 0 +1.346308300e-003 +1.321813463e+002 +1.321813463e+002 -3.7652e+000 +1.4826e+000 +3.4624e+000
13949 0 +8.091080883e-004 +1.321808091e+002 +1.321808091e+002 -3.7642e+000 +1.4818e+000 +3.4621e+000
13980 0 +5.614155086e-004 +1.321805614e+002 +1.321805614e+002 -3.7642e+000 +1.4826e+000 +3.4621e+000
13983 0 +4.676099614e-004 +1.321804676e+002 +1.321804676e+002 -3.7632e+000 +1.4822e+000 +3.4612e+000
13988 0 +3.238767353e-004 +1.321803239e+002 +1.321803239e+002 -3.7631e+000 +1.4828e+000 +3.4614e+000
13989 0 +3.014564924e-004 +1.321803015e+002 +1.321803015e+002 -3.7632e+000 +1.4828e+000 +3.4614e+000
13995 0 +2.418915855e-004 +1.321802419e+002 +1.321802419e+002 -3.7632e+000 +1.4827e+000 +3.4614e+000
14004 0 +9.773306525e-005 +1.321800977e+002 +1.321800977e+002 -3.7638e+000 +1.4822e+000 +3.4614e+000
14016 0 +2.638409271e-005 +1.321800264e+002 +1.321800264e+002 -3.7638e+000 +1.4824e+000 +3.4615e+000
14050 0 +2.487020163e-005 +1.321800249e+002 +1.321800249e+002 -3.7638e+000 +1.4824e+000 +3.4615e+000
14053 0 +2.343703795e-005 +1.321800234e+002 +1.321800234e+002 -3.7637e+000 +1.4823e+000 +3.4615e+000
14060 0 +2.275880018e-005 +1.321800228e+002 +1.321800228e+002 -3.7637e+000 +1.4824e+000 +3.4615e+000
14083 0 +1.784240087e-005 +1.321800178e+002 +1.321800178e+002 -3.7637e+000 +1.4823e+000 +3.4616e+000
14085 0 +1.755619382e-005 +1.321800176e+002 +1.321800176e+002 -3.7637e+000 +1.4824e+000 +3.4616e+000
14089 0 +4.933319104e-006 +1.321800049e+002 +1.321800049e+002 -3.7639e+000 +1.4824e+000 +3.4616e+000
14090 0 +4.763277076e-006 +1.321800048e+002 +1.321800048e+002 -3.7640e+000 +1.4825e+000 +3.4616e+000
14104 0 +4.410444802e-006 +1.321800044e+002 +1.321800044e+002 -3.7639e+000 +1.4825e+000 +3.4616e+000
14110 0 +2.833986002e-006 +1.321800028e+002 +1.321800028e+002 -3.7639e+000 +1.4825e+000 +3.4616e+000
14115 0 +1.681143601e-006 +1.321800017e+002 +1.321800017e+002 -3.7639e+000 +1.4824e+000 +3.4616e+000
14130 0 +1.209734677e-006 +1.321800012e+002 +1.321800012e+002 -3.7639e+000 +1.4824e+000 +3.4616e+000
14135 0 +9.756102486e-007 +1.321800010e+002 +1.321800010e+002 -3.7639e+000 +1.4824e+000 +3.4616e+000
14163 0 +7.967232136e-007 +1.321800008e+002 +1.321800008e+002 -3.7639e+000 +1.4824e+000 +3.4616e+000
14168 0 +4.452319331e-007 +1.321800004e+002 +1.321800004e+002 -3.7640e+000 +1.4824e+000 +3.4616e+000
14187 0 +1.532262957e-007 +1.321800002e+002 +1.321800002e+002 -3.7640e+000 +1.4824e+000 +3.4616e+000
14190 0 +6.057047131e-008 +1.321800001e+002 +1.321800001e+002 -3.7640e+000 +1.4824e+000 +3.4616e+000
14197 0 +6.000675512e-008 +1.321800001e+002 +1.321800001e+002 -3.7640e+000 +1.4824e+000 +3.4616e+000
14225 0 +3.697522288e-009 +1.321800000e+002 +1.321800000e+002 -3.7640e+000 +1.4824e+000 +3.4616e+000
% f evaluations | g evaluations | best noise-free fitness - Fopt (-3.930000000000e+001) + sum g_i+ | measured fitness | best measured fitness or single-digit g-values | x1 | x2...
1 0 +5.459311023e+002 +5.066311023e+002 +5.066311023e+002 +5.0000e+000 +5.0000e+000 +5.0000e+000
2 0 +5.020290297e+002 +4.627290297e+002 +4.627290297e+002 -5.0000e+000 +5.0000e+000 +5.0000e+000
3 0 +2.778834680e+002 +2.385834680e+002 +2.385834680e+002 +5.0000e+000 -5.0000e+000 +5.0000e+000
5 0 +2.339813953e+002 +1.946813953e+002 +1.946813953e+002 -5.0000e+000 -5.0000e+000 +5.0000e+000
6 0 +2.140380912e+002 +1.747380912e+002 +1.747380912e+002 +3.6424e+000 -4.2502e+000 +4.7166e+000
7 0 +1.794864834e+002 +1.401864834e+002 +1.401864834e+002 -5.0000e+000 -1.9000e+000 +5.0000e+000
8 0 +9.419003603e+001 +5.489003603e+001 +5.489003603e+001 -5.0000e+000 -2.0836e+000 +1.1596e-001
10 0 +3.913504316e+001 -1.649568425e-001 -1.649568425e-001 -1.8143e+000 -2.0799e+000 +1.6727e+000
17 0 +2.713487300e+001 -1.216512700e+001 -1.216512700e+001 -1.3612e+000 -1.6841e+000 +2.2645e+000
41 0 +7.543439283e+000 -3.175656072e+001 -3.175656072e+001 -1.5874e+000 -1.7471e+000 +2.2976e+000
146 0 +4.362332571e+000 -3.493766743e+001 -3.493766743e+001 -1.5877e+000 -1.8368e+000 +2.3115e+000
177 0 +3.625030971e+000 -3.567496903e+001 -3.567496903e+001 -1.5147e+000 -1.8026e+000 +2.6752e+000
214 0 +3.229393324e+000 -3.607060668e+001 -3.607060668e+001 -1.5202e+000 -1.8161e+000 +2.6834e+000
398 0 +3.150783746e+000 -3.614921625e+001 -3.614921625e+001 -1.5231e+000 -1.8180e+000 +2.6845e+000
403 0 +2.386304532e+000 -3.691369547e+001 -3.691369547e+001 -1.5127e+000 -1.8293e+000 +2.3298e+000
418 0 +2.228627248e+000 -3.707137275e+001 -3.707137275e+001 -1.5386e+000 -1.8473e+000 +2.3233e+000
502 0 +2.135726938e+000 -3.716427306e+001 -3.716427306e+001 -1.5332e+000 -1.8459e+000 +2.3279e+000
542 0 +2.037739882e+000 -3.726226012e+001 -3.726226012e+001 -1.5344e+000 -1.8310e+000 +2.3265e+000
581 0 +1.994335067e+000 -3.730566493e+001 -3.730566493e+001 -1.5373e+000 -1.8292e+000 +2.3303e+000
2661 0 +1.902192626e+000 -3.739780737e+001 -3.739780737e+001 -2.5663e+000 -6.9620e-001 +2.3442e+000
2679 0 +1.661314711e+000 -3.763868529e+001 -3.763868529e+001 -2.5558e+000 -6.9715e-001 +2.3403e+000
2758 0 +1.195106350e+000 -3.810489365e+001 -3.810489365e+001 -2.5501e+000 -6.8653e-001 +2.3226e+000
2775 0 +1.042972509e+000 -3.825702749e+001 -3.825702749e+001 -2.5422e+000 -6.8433e-001 +2.3271e+000
2781 0 +1.015605093e+000 -3.828439491e+001 -3.828439491e+001 -2.5326e+000 -6.7902e-001 +2.3325e+000
2899 0 +9.996467354e-001 -3.830035326e+001 -3.830035326e+001 -2.5336e+000 -6.8077e-001 +2.3319e+000
3639 0 +9.166490784e-001 -3.838335092e+001 -3.838335092e+001 -2.6062e+000 -1.2401e+000 +2.3304e+000
3661 0 +8.730084523e-001 -3.842699155e+001 -3.842699155e+001 -2.6040e+000 -1.2401e+000 +2.3304e+000
3811 0 +8.180370079e-001 -3.848196299e+001 -3.848196299e+001 -2.6019e+000 -1.2387e+000 +2.3304e+000
3930 0 +7.973467303e-001 -3.850265327e+001 -3.850265327e+001 -2.6006e+000 -1.2385e+000 +2.3320e+000
3946 0 +2.283611600e-001 -3.907163884e+001 -3.907163884e+001 -2.5075e+000 -1.2389e+000 +2.3342e+000
3952 0 +1.607251736e-001 -3.913927483e+001 -3.913927483e+001 -2.5105e+000 -1.2230e+000 +2.3339e+000
3953 0 +1.533809792e-001 -3.914661902e+001 -3.914661902e+001 -2.5111e+000 -1.2231e+000 +2.3340e+000
3961 0 +3.031373328e-002 -3.926968627e+001 -3.926968627e+001 -2.5331e+000 -1.2269e+000 +2.3342e+000
3975 0 +1.335115888e-002 -3.928664884e+001 -3.928664884e+001 -2.5321e+000 -1.2283e+000 +2.3332e+000
3979 0 +6.314978300e-003 -3.929368502e+001 -3.929368502e+001 -2.5326e+000 -1.2319e+000 +2.3318e+000
3988 0 +4.015712693e-003 -3.929598429e+001 -3.929598429e+001 -2.5342e+000 -1.2307e+000 +2.3319e+000
4033 0 +3.104604238e-003 -3.929689540e+001 -3.929689540e+001 -2.5342e+000 -1.2277e+000 +2.3309e+000
4042 0 +1.591013422e-003 -3.929840899e+001 -3.929840899e+001 -2.5334e+000 -1.2281e+000 +2.3308e+000
4043 0 +9.897526565e-004 -3.929901025e+001 -3.929901025e+001 -2.5334e+000 -1.2285e+000 +2.3307e+000
4050 0 +6.349440979e-004 -3.929936506e+001 -3.929936506e+001 -2.5342e+000 -1.2292e+000 +2.3309e+000
4053 0 +3.711484520e-004 -3.929962885e+001 -3.929962885e+001 -2.5342e+000 -1.2296e+000 +2.3308e+000
4058 0 +1.711458836e-004 -3.929982885e+001 -3.929982885e+001 -2.5344e+000 -1.2295e+000 +2.3302e+000
4074 0 +1.449951389e-004 -3.929985500e+001 -3.929985500e+001 -2.5343e+000 -1.2296e+000 +2.3303e+000
4094 0 +1.413213048e-004 -3.929985868e+001 -3.929985868e+001 -2.5343e+000 -1.2296e+000 +2.3303e+000
4109 0 +1.328493108e-004 -3.929986715e+001 -3.929986715e+001 -2.5343e+000 -1.2296e+000 +2.3303e+000
4113 0 +1.223749351e-004 -3.929987763e+001 -3.929987763e+001 -2.5343e+000 -1.2296e+000 +2.3303e+000
4116 0 +1.199065881e-004 -3.929988009e+001 -3.929988009e+001 -2.5344e+000 -1.2295e+000 +2.3304e+000
4129 0 +1.026051681e-004 -3.929989739e+001 -3.929989739e+001 -2.5342e+000 -1.2296e+000 +2.3305e+000
4133 0 +3.296186792e-005 -3.929996704e+001 -3.929996704e+001 -2.5338e+000 -1.2297e+000 +2.3305e+000
4146 0 +1.181955113e-005 -3.929998818e+001 -3.929998818e+001 -2.5338e+000 -1.2297e+000 +2.3304e+000
4155 0 +1.039209196e-005 -3.929998961e+001 -3.929998961e+001 -2.5337e+000 -1.2297e+000 +2.3304e+000
4162 0 +1.959650660e-006 -3.929999804e+001 -3.929999804e+001 -2.5336e+000 -1.2296e+000 +2.3304e+000
4206 0 +1.314729225e-006 -3.929999869e+001 -3.929999869e+001 -2.5336e+000 -1.2296e+000 +2.3304e+000
4207 0 +6.648387014e-007 -3.929999934e+001 -3.929999934e+001 -2.5336e+000 -1.2296e+000 +2.3304e+000
4232 0 +6.502464132e-007 -3.929999935e+001 -3.929999935e+001 -2.5336e+000 -1.2296e+000 +2.3304e+000
4239 0 +4.865431080e-007 -3.929999951e+001 -3.929999951e+001 -2.5336e+000 -1.2296e+000 +2.3304e+000
4244 0 +4.724562359e-007 -3.929999953e+001 -3.929999953e+001 -2.5336e+000 -1.2296e+000 +2.3304e+000
4248 0 +4.082563336e-007 -3.929999959e+001 -3.929999959e+001 -2.5336e+000 -1.2296e+000 +2.3304e+000
4255 0 +2.724389248e-007 -3.929999973e+001 -3.929999973e+001 -2.5336e+000 -1.2296e+000 +2.3304e+000
4273 0 +2.659278948e-007 -3.929999973e+001 -3.929999973e+001 -2.5336e+000 -1.2296e+000 +2.3304e+000
4276 0 +2.139212327e-007 -3.929999979e+001 -3.929999979e+001 -2.5336e+000 -1.2296e+000 +2.3304e+000
4279 0 +1.881390546e-007 -3.929999981e+001 -3.929999981e+001 -2.5336e+000 -1.2296e+000 +2.3304e+000
4288 0 +1.603977964e-007 -3.929999984e+001 -3.929999984e+001 -2.5336e+000 -1.2296e+000 +2.3304e+000
4291 0 +1.327972896e-007 -3.929999987e+001 -3.929999987e+001 -2.5336e+000 -1.2296e+000 +2.3304e+000
4306 0 +1.298500081e-007 -3.929999987e+001 -3.929999987e+001 -2.5336e+000 -1.2296e+000 +2.3304e+000
4332 0 +6.854872936e-008 -3.929999993e+001 -3.929999993e+001 -2.5336e+000 -1.2296e+000 +2.3304e+000
4338 0 +4.406671650e-008 -3.929999996e+001 -3.929999996e+001 -2.5336e+000 -1.2296e+000 +2.3304e+000
4372 0 +4.321859848e-008 -3.929999996e+001 -3.929999996e+001 -2.5336e+000 -1.2296e+000 +2.3304e+000
4383 0 +9.472245210e-009 -3.929999999e+001 -3.929999999e+001 -2.5336e+000 -1.2296e+000 +2.3304e+000
% f evaluations | g evaluations | best noise-free fitness - Fopt (4.296000000000e+001) + sum g_i+ | measured fitness | best measured fitness or single-digit g-values | x1 | x2...
1 0 +6.730736567e+003 +6.773696567e+003 +6.773696567e+003 +5.0000e+000 +5.0000e+000 +5.0000e+000
4 0 +1.277767465e+002 +1.707367465e+002 +1.707367465e+002 +5.0000e+000 +5.0000e+000 -5.0000e+000
5 0 +1.139603555e+002 +1.569203555e+002 +1.569203555e+002 +5.0000e+000 +5.0000e+000 -1.4952e+000
6 0 +8.711212177e+001 +1.300721218e+002 +1.300721218e+002 +4.0734e+000 +4.2618e+000 -2.2196e+000
7 0 +6.544826779e+001 +1.084082678e+002 +1.084082678e+002 +4.3970e+000 +4.5196e+000 -3.1905e+000
21 0 +6.446641221e+001 +1.074264122e+002 +1.074264122e+002 +4.5157e+000 +4.6141e+000 -3.5467e+000
24 0 +5.848035371e+001 +1.014403537e+002 +1.014403537e+002 +8.6810e-001 +2.6011e+000 -3.2142e+000
26 0 +5.294673766e+001 +9.590673766e+001 +9.590673766e+001 +5.0000e+000 +2.3109e+000 -3.2164e+000
36 0 +4.455381707e+001 +8.751381707e+001 +8.751381707e+001 +4.0734e+000 +2.3098e+000 -3.2164e+000
43 0 +2.737586007e+001 +7.033586007e+001 +7.033586007e+001 +4.0734e+000 +2.3098e+000 -2.1571e+000
75 0 +1.919283986e+001 +6.215283986e+001 +6.215283986e+001 +4.6051e+000 +1.0237e+000 -2.1531e+000
87 0 +1.175222456e+001 +5.471222456e+001 +5.471222456e+001 +4.5965e+000 +1.6901e+000 -2.4255e+000
124 0 +1.104412659e+001 +5.400412659e+001 +5.400412659e+001 +4.5728e+000 +1.7088e+000 -2.7984e+000
160 0 +9.580134123e+000 +5.254013412e+001 +5.254013412e+001 +4.5641e+000 +1.7231e+000 -2.7860e+000
239 0 +9.380232131e+000 +5.234023213e+001 +5.234023213e+001 +4.5659e+000 +1.7204e+000 -2.7583e+000
243 0 +9.264367917e+000 +5.222436792e+001 +5.222436792e+001 +4.5715e+000 +1.7229e+000 -2.7606e+000
340 0 +9.096573372e+000 +5.205657337e+001 +5.205657337e+001 +4.5722e+000 +1.7239e+000 -2.7729e+000
1275 0 +7.583101674e+000 +5.054310167e+001 +5.054310167e+001 +1.4413e+000 +1.8247e+000 -3.0539e+000
1307 0 +6.722701464e+000 +4.968270146e+001 +4.968270146e+001 +1.6922e+000 +1.7400e+000 -2.7474e+000
1323 0 +8.298513610e-001 +4.378985136e+001 +4.378985136e+001 +1.5692e+000 +1.7281e+000 -2.7778e+000
1358 0 +3.720527516e-001 +4.333205275e+001 +4.333205275e+001 +1.5491e+000 +1.7248e+000 -2.7761e+000
1492 0 +1.750061817e-001 +4.313500618e+001 +4.313500618e+001 +1.4946e+000 +1.7238e+000 -2.7701e+000
1569 0 +1.197561803e-001 +4.307975618e+001 +4.307975618e+001 +1.5291e+000 +1.7303e+000 -2.7653e+000
1588 0 +1.065871230e-002 +4.297065871e+001 +4.297065871e+001 +1.5188e+000 +1.7349e+000 -2.7715e+000
1656 0 +1.876988520e-003 +4.296187699e+001 +4.296187699e+001 +1.5112e+000 +1.7355e+000 -2.7699e+000
1664 0 +5.913200670e-004 +4.296059132e+001 +4.296059132e+001 +1.5143e+000 +1.7362e+000 -2.7704e+000
1702 0 +2.380945707e-004 +4.296023809e+001 +4.296023809e+001 +1.5131e+000 +1.7364e+000 -2.7701e+000
1743 0 +2.179864298e-004 +4.296021799e+001 +4.296021799e+001 +1.5132e+000 +1.7365e+000 -2.7701e+000
1759 0 +6.562254149e-005 +4.296006562e+001 +4.296006562e+001 +1.5124e+000 +1.7366e+000 -2.7705e+000
1762 0 +4.464007986e-005 +4.296004464e+001 +4.296004464e+001 +1.5125e+000 +1.7366e+000 -2.7705e+000
1770 0 +3.068548408e-005 +4.296003069e+001 +4.296003069e+001 +1.5128e+000 +1.7366e+000 -2.7704e+000
1785 0 +2.818752473e-005 +4.296002819e+001 +4.296002819e+001 +1.5129e+000 +1.7366e+000 -2.7705e+000
1788 0 +2.669297637e-005 +4.296002669e+001 +4.296002669e+001 +1.5129e+000 +1.7366e+000 -2.7704e+000
1790 0 +7.252866816e-006 +4.296000725e+001 +4.296000725e+001 +1.5129e+000 +1.7367e+000 -2.7704e+000
1820 0 +3.414397298e-006 +4.296000341e+001 +4.296000341e+001 +1.5129e+000 +1.7368e+000 -2.7704e+000
1824 0 +2.025552725e-006 +4.296000203e+001 +4.296000203e+001 +1.5129e+000 +1.7368e+000 -2.7704e+000
1839 0 +1.513015235e-006 +4.296000151e+001 +4.296000151e+001 +1.5129e+000 +1.7368e+000 -2.7704e+000
1840 0 +1.230330774e-006 +4.296000123e+001 +4.296000123e+001 +1.5129e+000 +1.7368e+000 -2.7704e+000
1846 0 +5.514698245e-007 +4.296000055e+001 +4.296000055e+001 +1.5128e+000 +1.7368e+000 -2.7704e+000
1853 0 +5.375312995e-007 +4.296000054e+001 +4.296000054e+001 +1.5128e+000 +1.7368e+000 -2.7704e+000
1883 0 +7.494630694e-008 +4.296000007e+001 +4.296000007e+001 +1.5128e+000 +1.7368e+000 -2.7704e+000
1896 0 +4.904367046e-008 +4.296000005e+001 +4.296000005e+001 +1.5128e+000 +1.7368e+000 -2.7704e+000
1938 0 +2.895337303e-008 +4.296000003e+001 +4.296000003e+001 +1.5128e+000 +1.7368e+000 -2.7704e+000
1945 0 +1.541996397e-008 +4.296000002e+001 +4.296000002e+001 +1.5128e+000 +1.7368e+000 -2.7704e+000
1958 0 +1.461742016e-008 +4.296000001e+001 +4.296000001e+001 +1.5128e+000 +1.7368e+000 -2.7704e+000
1966 0 +1.334536393e-008 +4.296000001e+001 +4.296000001e+001 +1.5128e+000 +1.7368e+000 -2.7704e+000
1967 0 +9.253447786e-009 +4.296000001e+001 +4.296000001e+001 +1.5128e+000 +1.7368e+000 -2.7704e+000
% f evaluations | g evaluations | best noise-free fitness - Fopt (2.842200000000e+002) + sum g_i+ | measured fitness | best measured fitness or single-digit g-values | x1 | x2...
1 0 +4.399229156e+002 +7.241429156e+002 +7.241429156e+002 +5.0000e+000 +5.0000e+000 -5.0000e+000
2 0 +3.797402740e+002 +6.639602740e+002 +6.639602740e+002 -5.0000e+000 +5.0000e+000 -5.0000e+000
3 0 +3.389450508e+002 +6.231650508e+002 +6.231650508e+002 +5.0000e+000 -5.0000e+000 -5.0000e+000
5 0 +2.787624092e+002 +5.629824092e+002 +5.629824092e+002 -5.0000e+000 -5.0000e+000 -5.0000e+000
6 0 +1.400033644e+002 +4.242233644e+002 +4.242233644e+002 -4.4083e+000 -3.6954e+000 -3.9288e+000
8 0 +5.159823683e+001 +3.358182368e+002 +3.358182368e+002 -3.8322e+000 +4.8556e-001 +2.3584e-001
10 0 +2.940344176e+001 +3.136234418e+002 +3.136234418e+002 -4.0836e+000 -1.3389e+000 -1.5815e+000
35 0 +2.194386876e+001 +3.061638688e+002 +3.061638688e+002 -4.0810e+000 -1.2419e-002 -7.3113e-001
40 0 +1.759258364e+001 +3.018125836e+002 +3.018125836e+002 -4.0463e+000 -1.8028e+000 -1.7347e+000
121 0 +1.710164726e+001 +3.013216473e+002 +3.013216473e+002 -4.0703e+000 -1.7826e+000 -1.7341e+000
171 0 +8.357893241e+000 +2.925778932e+002 +2.925778932e+002 -3.8565e+000 -2.5020e-001 -1.0511e+000
181 0 +6.824093354e+000 +2.910440934e+002 +2.910440934e+002 -4.0703e+000 -2.6096e-001 -1.0169e+000
237 0 +6.239250644e+000 +2.904592506e+002 +2.904592506e+002 -4.0357e+000 -2.5254e-001 -1.0198e+000
321 0 +5.763996711e+000 +2.899839967e+002 +2.899839967e+002 -4.0570e+000 -1.8533e-001 -1.0250e+000
382 0 +5.423117730e+000 +2.896431177e+002 +2.896431177e+002 -4.0433e+000 -2.2860e-001 -1.0216e+000
402 0 +4.582068632e+000 +2.888020686e+002 +2.888020686e+002 -4.0257e+000 -1.8755e-001 -1.0490e+000
434 0 +4.570023758e+000 +2.887900238e+002 +2.887900238e+002 -4.0258e+000 -1.8747e-001 -1.0526e+000
501 0 +4.235249610e+000 +2.884552496e+002 +2.884552496e+002 -4.0241e+000 -2.0506e-001 -1.0567e+000
551 0 +4.002125838e+000 +2.882221258e+002 +2.882221258e+002 -4.0547e+000 -2.2341e-001 -1.0534e+000
719 0 +3.980819023e+000 +2.882008190e+002 +2.882008190e+002 -4.0539e+000 -2.1822e-001 -1.0525e+000
1538 0 +3.332187588e+000 +2.875521876e+002 +2.875521876e+002 -3.0718e+000 -8.4606e-001 -1.0721e+000
1618 0 +2.951178194e+000 +2.871711782e+002 +2.871711782e+002 -3.0816e+000 -8.5227e-001 -1.0662e+000
1652 0 +2.880735624e+000 +2.871007356e+002 +2.871007356e+002 -3.0827e+000 -8.5057e-001 -1.0660e+000
1687 0 +2.624308243e+000 +2.868443082e+002 +2.868443082e+002 -3.0894e+000 -8.4751e-001 -1.0638e+000
1698 0 +2.367368078e+000 +2.865873681e+002 +2.865873681e+002 -3.1223e+000 -8.3272e-001 -1.0536e+000
1807 0 +2.243478170e+000 +2.864634782e+002 +2.864634782e+002 -3.1187e+000 -8.2600e-001 -1.0547e+000
1850 0 +2.150064168e+000 +2.863700642e+002 +2.863700642e+002 -3.1102e+000 -8.2669e-001 -1.0560e+000
1896 0 +2.130018113e+000 +2.863500181e+002 +2.863500181e+002 -3.1097e+000 -8.2212e-001 -1.0567e+000
1910 0 +2.070047077e+000 +2.862900471e+002 +2.862900471e+002 -3.1087e+000 -8.1865e-001 -1.0548e+000
1938 0 +2.018543939e+000 +2.862385439e+002 +2.862385439e+002 -3.0880e+000 -8.1363e-001 -1.0524e+000
1954 0 +1.994275590e+000 +2.862142756e+002 +2.862142756e+002 -3.0971e+000 -8.1814e-001 -1.0519e+000
3779 0 +1.287529085e+000 +2.855075291e+002 +2.855075291e+002 -3.0818e+000 -2.2620e-001 -1.0620e+000
3798 0 +1.220681921e+000 +2.854406819e+002 +2.854406819e+002 -3.1031e+000 -2.2620e-001 -1.0620e+000
3828 0 +1.044347565e+000 +2.852643476e+002 +2.852643476e+002 -3.1017e+000 -2.2683e-001 -1.0525e+000
4072 0 +1.004377110e+000 +2.852243771e+002 +2.852243771e+002 -3.0965e+000 -2.1997e-001 -1.0500e+000
4154 0 +9.990040066e-001 +2.852190040e+002 +2.852190040e+002 -3.0984e+000 -2.1756e-001 -1.0510e+000
15122 0 +5.905996651e-001 +2.848105997e+002 +2.848105997e+002 -2.0850e+000 -2.0132e-001 -1.0359e+000
15167 0 +3.634144114e-001 +2.845834144e+002 +2.845834144e+002 -2.0847e+000 -2.0132e-001 -1.0420e+000
15185 0 +3.357789164e-001 +2.845557789e+002 +2.845557789e+002 -2.0860e+000 -1.9737e-001 -1.0464e+000
15224 0 +2.496496956e-001 +2.844696497e+002 +2.844696497e+002 -2.0867e+000 -1.9871e-001 -1.0499e+000
15254 0 +1.566410208e-001 +2.843766410e+002 +2.843766410e+002 -2.0867e+000 -2.1532e-001 -1.0439e+000
15296 0 +1.232127111e-001 +2.843432127e+002 +2.843432127e+002 -2.0867e+000 -2.1553e-001 -1.0588e+000
15304 0 +9.539243047e-002 +2.843153924e+002 +2.843153924e+002 -2.0869e+000 -2.1772e-001 -1.0572e+000
15325 0 +4.813697121e-002 +2.842681370e+002 +2.842681370e+002 -2.0856e+000 -2.1760e-001 -1.0538e+000
15342 0 +1.877982482e-002 +2.842387798e+002 +2.842387798e+002 -2.1042e+000 -2.1827e-001 -1.0488e+000
15360 0 +1.498155763e-002 +2.842349816e+002 +2.842349816e+002 -2.1043e+000 -2.2044e-001 -1.0500e+000
15414 0 +7.833248239e-003 +2.842278332e+002 +2.842278332e+002 -2.1058e+000 -2.1941e-001 -1.0515e+000
15485 0 +7.712490285e-003 +2.842277125e+002 +2.842277125e+002 -2.1057e+000 -2.1938e-001 -1.0515e+000
15508 0 +3.265513182e-003 +2.842232655e+002 +2.842232655e+002 -2.1025e+000 -2.1876e-001 -1.0530e+000
15514 0 +2.429709694e-003 +2.842224297e+002 +2.842224297e+002 -2.1020e+000 -2.1935e-001 -1.0528e+000
15527 0 +2.263607256e-003 +2.842222636e+002 +2.842222636e+002 -2.1020e+000 -2.1936e-001 -1.0527e+000
15528 0 +1.402949729e-003 +2.842214029e+002 +2.842214029e+002 -2.1016e+000 -2.1915e-001 -1.0525e+000
15532 0 +5.188479126e-004 +2.842205188e+002 +2.842205188e+002 -2.1016e+000 -2.1834e-001 -1.0520e+000
15538 0 +4.320189329e-004 +2.842204320e+002 +2.842204320e+002 -2.0989e+000 -2.1794e-001 -1.0522e+000
15541 0 +3.209386861e-004 +2.842203209e+002 +2.842203209e+002 -2.0988e+000 -2.1829e-001 -1.0519e+000
15573 0 +6.835176180e-006 +2.842200068e+002 +2.842200068e+002 -2.0999e+000 -2.1839e-001 -1.0519e+000
15636 0 +2.500739186e-006 +2.842200025e+002 +2.842200025e+002 -2.1000e+000 -2.1846e-001 -1.0520e+000
15647 0 +1.951492663e-006 +2.842200020e+002 +2.842200020e+002 -2.1000e+000 -2.1845e-001 -1.0520e+000
15693 0 +1.920566717e-006 +2.842200019e+002 +2.842200019e+002 -2.1000e+000 -2.1845e-001 -1.0520e+000
15707 0 +1.257504607e-006 +2.842200013e+002 +2.842200013e+002 -2.1001e+000 -2.1840e-001 -1.0520e+000
15710 0 +1.227330642e-006 +2.842200012e+002 +2.842200012e+002 -2.1001e+000 -2.1840e-001 -1.0520e+000
15713 0 +8.851963003e-007 +2.842200009e+002 +2.842200009e+002 -2.1001e+000 -2.1839e-001 -1.0520e+000
15735 0 +8.192806717e-007 +2.842200008e+002 +2.842200008e+002 -2.1000e+000 -2.1839e-001 -1.0520e+000
15737 0 +2.211828587e-007 +2.842200002e+002 +2.842200002e+002 -2.1000e+000 -2.1841e-001 -1.0520e+000
15765 0 +9.870336726e-008 +2.842200001e+002 +2.842200001e+002 -2.1000e+000 -2.1840e-001 -1.0520e+000
15771 0 +9.230984688e-008 +2.842200001e+002 +2.842200001e+002 -2.1000e+000 -2.1840e-001 -1.0520e+000
15775 0 +6.693352361e-008 +2.842200001e+002 +2.842200001e+002 -2.1000e+000 -2.1840e-001 -1.0520e+000
15777 0 +3.969648787e-008 +2.842200000e+002 +2.842200000e+002 -2.1000e+000 -2.1840e-001 -1.0520e+000
15818 0 +1.647720183e-008 +2.842200000e+002 +2.842200000e+002 -2.1000e+000 -2.1840e-001 -1.0520e+000
15820 0 +7.412779723e-009 +2.842200000e+002 +2.842200000e+002 -2.1000e+000 -2.1840e-001 -1.0520e+000
% f evaluations | g evaluations | best noise-free fitness - Fopt (-3.217000000000e+001) + sum g_i+ | measured fitness | best measured fitness or single-digit g-values | x1 | x2...
1 0 +9.396550201e+002 +9.074850201e+002 +9.074850201e+002 +5.0000e+000 -5.0000e+000 +5.0000e+000
3 0 +8.488219198e+002 +8.166519198e+002 +8.166519198e+002 +5.0000e+000 +5.0000e+000 +5.0000e+000
4 0 +4.769564551e+002 +4.447864551e+002 +4.447864551e+002 +5.0000e+000 -5.0000e+000 -5.0000e+000
5 0 +3.861233548e+002 +3.539533548e+002 +3.539533548e+002 +5.0000e+000 +5.0000e+000 -5.0000e+000
6 0 +2.321509007e+002 +1.999809007e+002 +1.999809007e+002 +2.5532e+000 +2.9327e+000 -4.0914e+000
8 0 +4.128439953e+001 +9.114399526e+000 +9.114399526e+000 +5.0000e+000 +1.2865e+000 -2.7759e-001
13 0 +3.599000914e+001 +3.820009140e+000 +3.820009140e+000 +4.0937e+000 +2.4219e+000 -7.1290e-001
17 0 +1.779145716e+001 -1.437854284e+001 -1.437854284e+001 +4.3269e+000 +1.8042e+000 +7.5775e-001
32 0 +1.658048831e+001 -1.558951169e+001 -1.558951169e+001 +4.2584e+000 +1.9276e+000 +8.0181e-001
92 0 +1.299965452e+001 -1.917034548e+001 -1.917034548e+001 +4.2584e+000 +1.8530e+000 +4.5931e-001
156 0 +8.183283394e+000 -2.398671661e+001 -2.398671661e+001 +2.4676e+000 +1.1899e+000 -2.1382e-001
223 0 +4.376870265e+000 -2.779312974e+001 -2.779312974e+001 +2.4101e+000 +1.8593e+000 +1.7667e-001
310 0 +3.824788206e+000 -2.834521179e+001 -2.834521179e+001 +2.4485e+000 +1.8513e+000 +1.2427e-001
456 0 +3.785688517e+000 -2.838431148e+001 -2.838431148e+001 +2.4202e+000 +2.3752e+000 +4.5099e-001
464 0 +2.996686270e+000 -2.917331373e+001 -2.917331373e+001 +1.4380e+000 +1.9134e+000 +8.1026e-001
468 0 +2.944671131e+000 -2.922532887e+001 -2.922532887e+001 +1.4472e+000 +1.9161e+000 +8.2670e-001
485 0 +1.534535482e+000 -3.063546452e+001 -3.063546452e+001 +1.4379e+000 +1.8840e+000 +8.1368e-001
523 0 +1.148493726e+000 -3.102150627e+001 -3.102150627e+001 +1.4393e+000 +1.8688e+000 +8.1503e-001
545 0 +1.038654933e+000 -3.113134507e+001 -3.113134507e+001 +1.4582e+000 +1.8581e+000 +8.1813e-001
678 0 +1.001643139e+000 -3.116835686e+001 -3.116835686e+001 +1.4443e+000 +1.8578e+000 +8.2169e-001
712 0 +9.991584707e-001 -3.117084153e+001 -3.117084153e+001 +1.4454e+000 +1.8572e+000 +8.2199e-001
14517 0 +9.443286501e-001 -3.122567135e+001 -3.122567135e+001 +1.3763e+000 +1.8557e+000 +4.6969e-001
14530 0 +8.435681891e-001 -3.132643181e+001 -3.132643181e+001 +1.3763e+000 +1.8557e+000 +4.5687e-001
14549 0 +4.600857056e-001 -3.170991429e+001 -3.170991429e+001 +1.4367e+000 +1.8526e+000 +4.7817e-001
14556 0 +1.337608546e-001 -3.203623915e+001 -3.203623915e+001 +1.4394e+000 +1.8447e+000 +4.6761e-001
14613 0 +6.799204232e-002 -3.210200796e+001 -3.210200796e+001 +1.4503e+000 +1.8446e+000 +4.6360e-001
14642 0 +4.433559380e-002 -3.212566441e+001 -3.212566441e+001 +1.4507e+000 +1.8462e+000 +4.6245e-001
14691 0 +4.164900670e-002 -3.212835099e+001 -3.212835099e+001 +1.4466e+000 +1.8472e+000 +4.5819e-001
14693 0 +2.803724437e-002 -3.214196276e+001 -3.214196276e+001 +1.4432e+000 +1.8481e+000 +4.5976e-001
14720 0 +2.240043074e-002 -3.214759957e+001 -3.214759957e+001 +1.4446e+000 +1.8488e+000 +4.6147e-001
14737 0 +1.348022884e-002 -3.215651977e+001 -3.215651977e+001 +1.4438e+000 +1.8504e+000 +4.6087e-001
14756 0 +1.219110512e-002 -3.215780889e+001 -3.215780889e+001 +1.4427e+000 +1.8509e+000 +4.6046e-001
14767 0 +9.201855926e-003 -3.216079814e+001 -3.216079814e+001 +1.4438e+000 +1.8510e+000 +4.6076e-001
14768 0 +5.697871745e-003 -3.216430213e+001 -3.216430213e+001 +1.4440e+000 +1.8524e+000 +4.5970e-001
14775 0 +1.410648273e-003 -3.216858935e+001 -3.216858935e+001 +1.4453e+000 +1.8533e+000 +4.6038e-001
14781 0 +1.351913464e-003 -3.216864809e+001 -3.216864809e+001 +1.4453e+000 +1.8533e+000 +4.6039e-001
14782 0 +9.284874119e-004 -3.216907151e+001 -3.216907151e+001 +1.4467e+000 +1.8550e+000 +4.6142e-001
14823 0 +4.900535329e-004 -3.216950995e+001 -3.216950995e+001 +1.4464e+000 +1.8546e+000 +4.6131e-001
14848 0 +4.217553905e-004 -3.216957824e+001 -3.216957824e+001 +1.4463e+000 +1.8553e+000 +4.6081e-001
14877 0 +3.218913517e-004 -3.216967811e+001 -3.216967811e+001 +1.4463e+000 +1.8551e+000 +4.6077e-001
14890 0 +3.101246472e-004 -3.216968988e+001 -3.216968988e+001 +1.4460e+000 +1.8550e+000 +4.6069e-001
14893 0 +3.007537928e-004 -3.216969925e+001 -3.216969925e+001 +1.4462e+000 +1.8549e+000 +4.6053e-001
14911 0 +5.249841377e-005 -3.216994750e+001 -3.216994750e+001 +1.4464e+000 +1.8546e+000 +4.6089e-001
14926 0 +9.196994029e-006 -3.216999080e+001 -3.216999080e+001 +1.4462e+000 +1.8545e+000 +4.6078e-001
14944 0 +7.878971950e-006 -3.216999212e+001 -3.216999212e+001 +1.4462e+000 +1.8544e+000 +4.6078e-001
15009 0 +8.233524724e-007 -3.216999918e+001 -3.216999918e+001 +1.4463e+000 +1.8544e+000 +4.6080e-001
15029 0 +7.972339944e-007 -3.216999920e+001 -3.216999920e+001 +1.4464e+000 +1.8544e+000 +4.6079e-001
15060 0 +6.619157062e-007 -3.216999934e+001 -3.216999934e+001 +1.4464e+000 +1.8544e+000 +4.6079e-001
15067 0 +5.419569078e-007 -3.216999946e+001 -3.216999946e+001 +1.4464e+000 +1.8544e+000 +4.6079e-001
15078 0 +5.022631910e-008 -3.216999995e+001 -3.216999995e+001 +1.4464e+000 +1.8544e+000 +4.6080e-001
15122 0 +1.283638795e-008 -3.216999999e+001 -3.216999999e+001 +1.4464e+000 +1.8544e+000 +4.6080e-001
15147 0 +2.665508703e-009 -3.217000000e+001 -3.217000000e+001 +1.4464e+000 +1.8544e+000 +4.6080e-001
% f evaluations | g evaluations | best noise-free fitness - Fopt (-5.858000000000e+001) + sum g_i+ | measured fitness | best measured fitness or single-digit g-values | x1 | x2...
1 0 +1.006008031e+003 +9.474280308e+002 +9.474280308e+002 -5.0000e+000 +5.0000e+000 -5.0000e+000
2 0 +9.707820058e+002 +9.122020058e+002 +9.122020058e+002 +5.0000e+000 +5.0000e+000 -5.0000e+000
3 0 +4.147301850e+002 +3.561501850e+002 +3.561501850e+002 -5.0000e+000 -5.0000e+000 -5.0000e+000
5 0 +3.795041600e+002 +3.209241600e+002 +3.209241600e+002 +5.0000e+000 -5.0000e+000 -5.0000e+000
9 0 +7.213839063e+001 +1.355839063e+001 +1.355839063e+001 +1.4544e+000 -2.1170e+000 -6.0367e-001
13 0 +6.771237147e+001 +9.132371470e+000 +9.132371470e+000 +1.2640e+000 -2.6317e+000 -7.9838e-001
15 0 +6.701676918e+001 +8.436769185e+000 +8.436769185e+000 +1.2725e+000 -2.6299e+000 -8.0054e-001
19 0 +5.516737137e+001 -3.412628634e+000 -3.412628634e+000 +1.3806e+000 -2.5910e+000 -8.0262e-001
40 0 +3.405717980e+001 -2.452282020e+001 -2.452282020e+001 +2.5400e+000 -3.8519e+000 +1.7558e-002
68 0 +3.383415276e+001 -2.474584724e+001 -2.474584724e+001 +2.5186e+000 -3.8577e+000 +1.2595e-002
79 0 +2.834783575e+001 -3.023216425e+001 -3.023216425e+001 +3.7417e+000 -2.5910e+000 +2.1099e-001
82 0 +2.639064715e+001 -3.218935285e+001 -3.218935285e+001 +3.7212e+000 -2.5977e+000 +2.1429e-001
106 0 +1.861418365e+001 -3.996581635e+001 -3.996581635e+001 +1.8190e+000 -2.5192e+000 +2.5424e-001
115 0 +1.335958240e+001 -4.522041760e+001 -4.522041760e+001 +3.5368e+000 -1.7826e+000 +1.3332e+000
180 0 +1.146110385e+001 -4.711889615e+001 -4.711889615e+001 +3.5478e+000 -1.8700e+000 +1.2889e+000
248 0 +1.039291802e+001 -4.818708198e+001 -4.818708198e+001 +3.4926e+000 -1.9108e+000 +1.3207e+000
263 0 +1.021404404e+001 -4.836595596e+001 -4.836595596e+001 +3.6090e+000 -1.8504e+000 +1.3381e+000
280 0 +7.156941861e+000 -5.142305814e+001 -5.142305814e+001 +3.6189e+000 -1.9469e+000 +1.3974e+000
314 0 +6.437018738e+000 -5.214298126e+001 -5.214298126e+001 +3.5438e+000 -1.9926e+000 +1.3585e+000
315 0 +4.598902172e+000 -5.398109783e+001 -5.398109783e+001 +3.5532e+000 -1.9363e+000 +1.3212e+000
405 0 +4.501281232e+000 -5.407871877e+001 -5.407871877e+001 +3.5532e+000 -1.9380e+000 +1.3210e+000
411 0 +3.641834506e+000 -5.493816549e+001 -5.493816549e+001 +3.5607e+000 -1.9693e+000 +1.3313e+000
442 0 +3.517738930e+000 -5.506226107e+001 -5.506226107e+001 +3.5594e+000 -1.9591e+000 +1.3364e+000
470 0 +3.442143088e+000 -5.513785691e+001 -5.513785691e+001 +3.5640e+000 -1.9663e+000 +1.3343e+000
485 0 +3.123731910e+000 -5.545626809e+001 -5.545626809e+001 +3.5837e+000 -1.9586e+000 +1.3191e+000
523 0 +3.085836678e+000 -5.549416332e+001 -5.549416332e+001 +3.5925e+000 -1.9606e+000 +1.3219e+000
568 0 +3.007733596e+000 -5.557226640e+001 -5.557226640e+001 +3.5823e+000 -1.9591e+000 +1.3315e+000
1355 0 +1.909409314e+000 -5.667059069e+001 -5.667059069e+001 +2.5164e+000 -2.4936e+000 +9.5094e-001
1383 0 +8.673860624e-001 -5.771261394e+001 -5.771261394e+001 +2.5553e+000 -2.4762e+000 +9.6552e-001
1410 0 +6.788351929e-001 -5.790116481e+001 -5.790116481e+001 +2.5621e+000 -2.4831e+000 +9.6349e-001
1411 0 +6.015178101e-001 -5.797848219e+001 -5.797848219e+001 +2.5531e+000 -2.4932e+000 +9.6286e-001
1417 0 +3.967574496e-001 -5.818324255e+001 -5.818324255e+001 +2.5548e+000 -2.4934e+000 +9.7395e-001
1501 0 +3.418188205e-001 -5.823818118e+001 -5.823818118e+001 +2.5547e+000 -2.4975e+000 +9.7348e-001
1566 0 +2.562783472e-001 -5.832372165e+001 -5.832372165e+001 +2.5564e+000 -2.5088e+000 +9.7271e-001
1570 0 +2.151312454e-001 -5.836486875e+001 -5.836486875e+001 +2.5589e+000 -2.5096e+000 +9.7305e-001
1583 0 +2.049608602e-001 -5.837503914e+001 -5.837503914e+001 +2.6195e+000 -2.5003e+000 +9.7128e-001
1604 0 +1.096407124e-001 -5.847035929e+001 -5.847035929e+001 +2.6117e+000 -2.5048e+000 +9.7007e-001
1606 0 +1.042014666e-001 -5.847579853e+001 -5.847579853e+001 +2.6121e+000 -2.5055e+000 +9.7094e-001
1607 0 +9.132427493e-002 -5.848867573e+001 -5.848867573e+001 +2.6081e+000 -2.5149e+000 +9.7157e-001
1620 0 +8.907678823e-002 -5.849092321e+001 -5.849092321e+001 +2.6065e+000 -2.5152e+000 +9.7105e-001
1636 0 +8.171125868e-002 -5.849828874e+001 -5.849828874e+001 +2.6067e+000 -2.5138e+000 +9.7095e-001
1654 0 +5.531376189e-002 -5.852468624e+001 -5.852468624e+001 +2.6024e+000 -2.5132e+000 +9.7140e-001
1659 0 +3.626181845e-002 -5.854373818e+001 -5.854373818e+001 +2.5989e+000 -2.5058e+000 +9.6968e-001
1673 0 +2.674475695e-002 -5.855325524e+001 -5.855325524e+001 +2.5864e+000 -2.5058e+000 +9.6959e-001
1676 0 +1.896577494e-002 -5.856103423e+001 -5.856103423e+001 +2.5998e+000 -2.5064e+000 +9.7226e-001
1678 0 +6.564196095e-003 -5.857343580e+001 -5.857343580e+001 +2.5893e+000 -2.5103e+000 +9.7297e-001
1683 0 +2.365476825e-003 -5.857763452e+001 -5.857763452e+001 +2.5916e+000 -2.5089e+000 +9.7317e-001
1694 0 +2.332245591e-003 -5.857766775e+001 -5.857766775e+001 +2.5877e+000 -2.5080e+000 +9.7340e-001
1716 0 +2.067757552e-003 -5.857793224e+001 -5.857793224e+001 +2.5916e+000 -2.5087e+000 +9.7320e-001
1721 0 +8.930762679e-004 -5.857910692e+001 -5.857910692e+001 +2.5897e+000 -2.5083e+000 +9.7269e-001
1754 0 +6.155003578e-004 -5.857938450e+001 -5.857938450e+001 +2.5919e+000 -2.5072e+000 +9.7313e-001
1795 0 +5.538968363e-004 -5.857944610e+001 -5.857944610e+001 +2.5914e+000 -2.5078e+000 +9.7300e-001
1799 0 +2.968662427e-004 -5.857970313e+001 -5.857970313e+001 +2.5903e+000 -2.5079e+000 +9.7280e-001
1829 0 +1.539352912e-004 -5.857984606e+001 -5.857984606e+001 +2.5903e+000 -2.5073e+000 +9.7252e-001
1831 0 +1.045606695e-004 -5.857989544e+001 -5.857989544e+001 +2.5907e+000 -2.5075e+000 +9.7268e-001
1850 0 +7.287727972e-005 -5.857992712e+001 -5.857992712e+001 +2.5904e+000 -2.5074e+000 +9.7264e-001
1879 0 +6.422686578e-005 -5.857993577e+001 -5.857993577e+001 +2.5905e+000 -2.5074e+000 +9.7266e-001
1886 0 +5.706713861e-005 -5.857994293e+001 -5.857994293e+001 +2.5906e+000 -2.5070e+000 +9.7267e-001
1889 0 +1.585225543e-005 -5.857998415e+001 -5.857998415e+001 +2.5906e+000 -2.5071e+000 +9.7276e-001
1899 0 +1.080745736e-005 -5.857998919e+001 -5.857998919e+001 +2.5905e+000 -2.5071e+000 +9.7280e-001
1907 0 +7.512115296e-006 -5.857999249e+001 -5.857999249e+001 +2.5905e+000 -2.5072e+000 +9.7276e-001
1936 0 +7.146054109e-006 -5.857999285e+001 -5.857999285e+001 +2.5904e+000 -2.5073e+000 +9.7282e-001
1976 0 +1.936092367e-006 -5.857999806e+001 -5.857999806e+001 +2.5905e+000 -2.5072e+000 +9.7281e-001
2024 0 +9.484906158e-007 -5.857999905e+001 -5.857999905e+001 +2.5904e+000 -2.5072e+000 +9.7282e-001
2031 0 +7.965926443e-007 -5.857999920e+001 -5.857999920e+001 +2.5903e+000 -2.5072e+000 +9.7280e-001
2046 0 +3.127981074e-007 -5.857999969e+001 -5.857999969e+001 +2.5904e+000 -2.5072e+000 +9.7280e-001
2086 0 +2.631532467e-007 -5.857999974e+001 -5.857999974e+001 +2.5904e+000 -2.5072e+000 +9.7280e-001
2091 0 +1.358200876e-007 -5.857999986e+001 -5.857999986e+001 +2.5904e+000 -2.5072e+000 +9.7280e-001
2101 0 +1.250478903e-007 -5.857999987e+001 -5.857999987e+001 +2.5904e+000 -2.5072e+000 +9.7280e-001
2108 0 +5.724491103e-008 -5.857999994e+001 -5.857999994e+001 +2.5904e+000 -2.5072e+000 +9.7280e-001
2109 0 +4.405649179e-009 -5.858000000e+001 -5.858000000e+001 +2.5904e+000 -2.5072e+000 +9.7280e-001
% f evaluations | g evaluations | best noise-free fitness - Fopt (-6.049200000000e+002) + sum g_i+ | measured fitness | best measured fitness or single-digit g-values | x1 | x2...
1 0 +4.855707829e+002 -1.193492171e+002 -1.193492171e+002 -5.0000e+000 +5.0000e+000 +5.0000e+000
3 0 +2.504084718e+002 -3.545115282e+002 -3.545115282e+002 -5.0000e+000 -5.0000e+000 +5.0000e+000
8 0 +1.510797432e+002 -4.538402568e+002 -4.538402568e+002 +1.5059e+000 +1.3710e+000 -7.3032e-001
9 0 +2.846450310e+001 -5.764554969e+002 -5.764554969e+002 -2.1932e+000 -1.1412e+000 +1.7169e+000
17 0 +2.538198700e+001 -5.795380130e+002 -5.795380130e+002 -2.8656e-001 -1.7408e+000 +1.3610e+000
19 0 +7.440821624e+000 -5.974791784e+002 -5.974791784e+002 -1.0851e+000 -1.5788e+000 +1.3617e+000
78 0 +5.379495224e+000 -5.995405048e+002 -5.995405048e+002 -3.5108e-003 -2.1157e+000 +2.0745e+000
242 0 +2.690691919e+000 -6.022293081e+002 -6.022293081e+002 -3.7930e-002 -1.0495e+000 +2.0745e+000
273 0 +1.485448125e+000 -6.034345519e+002 -6.034345519e+002 +1.2159e-002 -1.0119e+000 +2.0602e+000
376 0 +1.357501001e-001 -6.047842499e+002 -6.047842499e+002 -9.7751e-001 -1.0214e+000 +2.0702e+000
504 0 +1.087162245e-001 -6.048112838e+002 -6.048112838e+002 -1.0118e+000 -1.0197e+000 +2.0686e+000
532 0 +7.133556530e-002 -6.048486644e+002 -6.048486644e+002 -9.9912e-001 -1.0214e+000 +2.0691e+000
577 0 +5.147780377e-002 -6.048685222e+002 -6.048685222e+002 -9.9532e-001 -1.0214e+000 +2.0702e+000
595 0 +3.817410744e-002 -6.048818259e+002 -6.048818259e+002 -9.8895e-001 -1.0178e+000 +2.0708e+000
605 0 +3.113135453e-002 -6.048888686e+002 -6.048888686e+002 -9.8709e-001 -1.0182e+000 +2.0733e+000
610 0 +3.085200693e-002 -6.048891480e+002 -6.048891480e+002 -9.9851e-001 -1.0145e+000 +2.0700e+000
613 0 +2.977402507e-002 -6.048902260e+002 -6.048902260e+002 -9.9601e-001 -1.0149e+000 +2.0701e+000
619 0 +2.101051677e-002 -6.048989895e+002 -6.048989895e+002 -9.9802e-001 -1.0205e+000 +2.0727e+000
625 0 +2.005662252e-002 -6.048999434e+002 -6.048999434e+002 -9.9897e-001 -1.0204e+000 +2.0728e+000
630 0 +9.963901508e-003 -6.049100361e+002 -6.049100361e+002 -1.0010e+000 -1.0181e+000 +2.0723e+000
660 0 +8.219966263e-003 -6.049117800e+002 -6.049117800e+002 -9.9770e-001 -1.0181e+000 +2.0724e+000
661 0 +7.945485877e-003 -6.049120545e+002 -6.049120545e+002 -9.9686e-001 -1.0180e+000 +2.0724e+000
675 0 +7.888577577e-003 -6.049121114e+002 -6.049121114e+002 -1.0001e+000 -1.0177e+000 +2.0722e+000
680 0 +1.424709093e-003 -6.049185753e+002 -6.049185753e+002 -1.0003e+000 -1.0152e+000 +2.0730e+000
718 0 +1.263403100e-003 -6.049187366e+002 -6.049187366e+002 -9.9990e-001 -1.0152e+000 +2.0730e+000
723 0 +1.144832111e-003 -6.049188552e+002 -6.049188552e+002 -9.9813e-001 -1.0161e+000 +2.0730e+000
740 0 +8.067744542e-004 -6.049191932e+002 -6.049191932e+002 -1.0003e+000 -1.0148e+000 +2.0737e+000
749 0 +6.512285350e-004 -6.049193488e+002 -6.049193488e+002 -1.0001e+000 -1.0149e+000 +2.0737e+000
768 0 +5.802331907e-004 -6.049194198e+002 -6.049194198e+002 -9.9996e-001 -1.0149e+000 +2.0737e+000
798 0 +5.450975417e-004 -6.049194549e+002 -6.049194549e+002 -9.9992e-001 -1.0149e+000 +2.0737e+000
815 0 +4.750756226e-004 -6.049195249e+002 -6.049195249e+002 -9.9993e-001 -1.0151e+000 +2.0737e+000
816 0 +3.352952676e-004 -6.049196647e+002 -6.049196647e+002 -9.9855e-001 -1.0158e+000 +2.0738e+000
818 0 +2.832674877e-004 -6.049197167e+002 -6.049197167e+002 -9.9851e-001 -1.0158e+000 +2.0737e+000
832 0 +1.509051353e-004 -6.049198491e+002 -6.049198491e+002 -9.9917e-001 -1.0155e+000 +2.0736e+000
879 0 +1.372978398e-004 -6.049198627e+002 -6.049198627e+002 -9.9908e-001 -1.0155e+000 +2.0735e+000
883 0 +1.143152697e-004 -6.049198857e+002 -6.049198857e+002 -9.9902e-001 -1.0154e+000 +2.0735e+000
896 0 +6.517528391e-005 -6.049199348e+002 -6.049199348e+002 -9.9886e-001 -1.0152e+000 +2.0735e+000
897 0 +4.500709451e-005 -6.049199550e+002 -6.049199550e+002 -9.9876e-001 -1.0153e+000 +2.0735e+000
901 0 +3.191573160e-005 -6.049199681e+002 -6.049199681e+002 -9.9869e-001 -1.0153e+000 +2.0735e+000
903 0 +2.639025467e-005 -6.049199736e+002 -6.049199736e+002 -9.9867e-001 -1.0151e+000 +2.0735e+000
906 0 +1.463396609e-005 -6.049199854e+002 -6.049199854e+002 -9.9834e-001 -1.0152e+000 +2.0735e+000
916 0 +1.338103186e-005 -6.049199866e+002 -6.049199866e+002 -9.9864e-001 -1.0153e+000 +2.0736e+000
920 0 +6.267742833e-006 -6.049199937e+002 -6.049199937e+002 -9.9855e-001 -1.0152e+000 +2.0736e+000
936 0 +4.874114211e-006 -6.049199951e+002 -6.049199951e+002 -9.9854e-001 -1.0152e+000 +2.0736e+000
939 0 +4.074195203e-006 -6.049199959e+002 -6.049199959e+002 -9.9852e-001 -1.0152e+000 +2.0736e+000
973 0 +2.747155349e-006 -6.049199973e+002 -6.049199973e+002 -9.9829e-001 -1.0152e+000 +2.0736e+000
979 0 +2.620892815e-006 -6.049199974e+002 -6.049199974e+002 -9.9830e-001 -1.0152e+000 +2.0736e+000
980 0 +2.552652631e-007 -6.049199997e+002 -6.049199997e+002 -9.9839e-001 -1.0152e+000 +2.0736e+000
985 0 +2.363044587e-007 -6.049199998e+002 -6.049199998e+002 -9.9839e-001 -1.0152e+000 +2.0736e+000
1048 0 +5.564822914e-008 -6.049199999e+002 -6.049199999e+002 -9.9840e-001 -1.0152e+000 +2.0736e+000
1079 0 +2.636204499e-008 -6.049200000e+002 -6.049200000e+002 -9.9840e-001 -1.0152e+000 +2.0736e+000
1124 0 +1.887667622e-008 -6.049200000e+002 -6.049200000e+002 -9.9840e-001 -1.0152e+000 +2.0736e+000
1135 0 +1.103308023e-008 -6.049200000e+002 -6.049200000e+002 -9.9840e-001 -1.0152e+000 +2.0736e+000
1174 0 +4.472894943e-009 -6.049200000e+002 -6.049200000e+002 -9.9840e-001 -1.0152e+000 +2.0736e+000
% f evaluations | g evaluations | best noise-free fitness - Fopt (1.337000000000e+002) + sum g_i+ | measured fitness | best measured fitness or single-digit g-values | x1 | x2...
1 0 +3.933714370e+002 +5.270714370e+002 +5.270714370e+002 -5.0000e+000 +5.0000e+000 -5.0000e+000
2 0 +3.636417081e+002 +4.973417081e+002 +4.973417081e+002 +5.0000e+000 +5.0000e+000 -5.0000e+000
5 0 +3.546331682e+002 +4.883331682e+002 +4.883331682e+002 +5.0000e+000 -5.0000e+000 -5.0000e+000
7 0 +3.158237562e+002 +4.495237562e+002 +4.495237562e+002 -5.0000e+000 -1.7984e+000 -5.0000e+000
8 0 +5.674362913e+001 +1.904436291e+002 +1.904436291e+002 +3.9560e+000 -2.9799e-001 -4.7042e-001
15 0 +5.619041460e+001 +1.898904146e+002 +1.898904146e+002 +1.5228e+000 -1.2082e-001 -2.0101e+000
39 0 +3.294518154e+001 +1.666451815e+002 +1.666451815e+002 +3.4811e+000 -3.3458e-001 -4.3690e-001
41 0 +1.070075300e+001 +1.444007530e+002 +1.444007530e+002 +4.4566e+000 -1.5790e-001 +1.0228e-002
253 0 +7.189363914e+000 +1.408893639e+002 +1.408893639e+002 +4.2744e-001 +3.3945e-001 +4.0950e-003
722 0 +5.591412096e+000 +1.392914121e+002 +1.392914121e+002 +1.4190e+000 +1.5074e+000 +2.4600e-002
727 0 +5.041900727e+000 +1.387419007e+002 +1.387419007e+002 +1.4821e+000 +1.5048e+000 +3.5780e-002
831 0 +4.370605353e+000 +1.380706054e+002 +1.380706054e+002 +3.4929e+000 +3.6268e-001 +2.3736e-002
877 0 +4.075176897e+000 +1.377751769e+002 +1.377751769e+002 +3.4765e+000 +3.5725e-001 +2.3581e-002
902 0 +3.839182144e+000 +1.375391821e+002 +1.375391821e+002 +3.4768e+000 +3.9155e-001 +1.2526e-002
969 0 +3.544821982e+000 +1.372448220e+002 +1.372448220e+002 +3.4744e+000 +3.4822e-001 +1.2493e-002
972 0 +3.220181588e+000 +1.369201816e+002 +1.369201816e+002 +3.4787e+000 +3.5869e-001 +1.9600e-003
1045 0 +3.152095550e+000 +1.368520955e+002 +1.368520955e+002 +3.4606e+000 +3.5729e-001 -2.8444e-002
1089 0 +2.996077433e+000 +1.366960774e+002 +1.366960774e+002 +3.4737e+000 +3.5437e-001 -2.0544e-002
2074 0 +2.713192363e+000 +1.364131924e+002 +1.364131924e+002 +1.4395e+000 +3.4020e-001 -3.7802e-001
2084 0 +2.494710167e+000 +1.361947102e+002 +1.361947102e+002 +1.4518e+000 +3.4235e-001 -3.6968e-001
2089 0 +2.382357245e+000 +1.360823572e+002 +1.360823572e+002 +1.4582e+000 +3.7615e-001 -3.6979e-001
2113 0 +2.317099610e+000 +1.360170996e+002 +1.360170996e+002 +1.5005e+000 +3.6676e-001 -3.8685e-001
2114 0 +2.034909758e+000 +1.357349098e+002 +1.357349098e+002 +1.4816e+000 +3.6961e-001 -3.7992e-001
2269 0 +1.995004476e+000 +1.356950045e+002 +1.356950045e+002 +1.4787e+000 +3.6076e-001 -3.7971e-001
3080 0 +1.339241588e+000 +1.350392416e+002 +1.350392416e+002 +2.4598e+000 +1.4989e+000 -3.6553e-001
3147 0 +1.295389581e+000 +1.349953896e+002 +1.349953896e+002 +2.4573e+000 +1.4989e+000 -3.6692e-001
3237 0 +1.262780066e+000 +1.349627801e+002 +1.349627801e+002 +2.4762e+000 +1.4969e+000 -3.6687e-001
3283 0 +1.258018608e+000 +1.349580186e+002 +1.349580186e+002 +2.4619e+000 +1.4973e+000 -3.6781e-001
3286 0 +1.179982397e+000 +1.348799824e+002 +1.348799824e+002 +2.4634e+000 +1.4998e+000 -3.6913e-001
3295 0 +1.027703487e+000 +1.347277035e+002 +1.347277035e+002 +2.4654e+000 +1.4998e+000 -3.7665e-001
3349 0 +1.001028185e+000 +1.347010282e+002 +1.347010282e+002 +2.4805e+000 +1.5024e+000 -3.7892e-001
3376 0 +9.997572521e-001 +1.346997573e+002 +1.346997573e+002 +2.4740e+000 +1.5008e+000 -3.7821e-001
4267 0 +5.764579901e-001 +1.342764580e+002 +1.342764580e+002 +2.4894e+000 +9.2589e-001 -3.7545e-001
4293 0 +1.829390948e-001 +1.338829391e+002 +1.338829391e+002 +2.4782e+000 +9.4675e-001 -3.8776e-001
4323 0 +1.411932139e-001 +1.338411932e+002 +1.338411932e+002 +2.4782e+000 +9.4675e-001 -3.8642e-001
4327 0 +1.341310972e-002 +1.337134131e+002 +1.337134131e+002 +2.4734e+000 +9.5486e-001 -3.7545e-001
4410 0 +1.277881260e-002 +1.337127788e+002 +1.337127788e+002 +2.4732e+000 +9.5506e-001 -3.7568e-001
4449 0 +3.896366688e-003 +1.337038964e+002 +1.337038964e+002 +2.4725e+000 +9.5454e-001 -3.7729e-001
4456 0 +3.137537389e-003 +1.337031375e+002 +1.337031375e+002 +2.4725e+000 +9.5440e-001 -3.7745e-001
4514 0 +2.199948688e-003 +1.337021999e+002 +1.337021999e+002 +2.4727e+000 +9.5476e-001 -3.7764e-001
4544 0 +2.129373841e-003 +1.337021294e+002 +1.337021294e+002 +2.4728e+000 +9.5467e-001 -3.7761e-001
4547 0 +1.340484977e-003 +1.337013405e+002 +1.337013405e+002 +2.4726e+000 +9.5434e-001 -3.7819e-001
4554 0 +5.810943754e-004 +1.337005811e+002 +1.337005811e+002 +2.4743e+000 +9.5436e-001 -3.7791e-001
4590 0 +3.107780383e-004 +1.337003108e+002 +1.337003108e+002 +2.4749e+000 +9.5451e-001 -3.7803e-001
4612 0 +2.156658290e-004 +1.337002157e+002 +1.337002157e+002 +2.4743e+000 +9.5471e-001 -3.7837e-001
4627 0 +1.825337383e-004 +1.337001825e+002 +1.337001825e+002 +2.4746e+000 +9.5460e-001 -3.7861e-001
4630 0 +1.052766557e-004 +1.337001053e+002 +1.337001053e+002 +2.4747e+000 +9.5458e-001 -3.7848e-001
4645 0 +8.432552264e-005 +1.337000843e+002 +1.337000843e+002 +2.4746e+000 +9.5448e-001 -3.7838e-001
4654 0 +2.200138832e-005 +1.337000220e+002 +1.337000220e+002 +2.4750e+000 +9.5437e-001 -3.7849e-001
4674 0 +1.917858185e-005 +1.337000192e+002 +1.337000192e+002 +2.4750e+000 +9.5437e-001 -3.7847e-001
4692 0 +1.095857178e-005 +1.337000110e+002 +1.337000110e+002 +2.4753e+000 +9.5434e-001 -3.7846e-001
4698 0 +2.111926335e-006 +1.337000021e+002 +1.337000021e+002 +2.4752e+000 +9.5437e-001 -3.7843e-001
4744 0 +1.984496350e-006 +1.337000020e+002 +1.337000020e+002 +2.4752e+000 +9.5444e-001 -3.7841e-001
4771 0 +1.787253268e-006 +1.337000018e+002 +1.337000018e+002 +2.4752e+000 +9.5445e-001 -3.7840e-001
4786 0 +1.124252606e-006 +1.337000011e+002 +1.337000011e+002 +2.4752e+000 +9.5438e-001 -3.7838e-001
4823 0 +5.703830652e-007 +1.337000006e+002 +1.337000006e+002 +2.4752e+000 +9.5442e-001 -3.7841e-001
4826 0 +5.114250428e-007 +1.337000005e+002 +1.337000005e+002 +2.4752e+000 +9.5442e-001 -3.7841e-001
4831 0 +3.085895628e-007 +1.337000003e+002 +1.337000003e+002 +2.4752e+000 +9.5439e-001 -3.7841e-001
4839 0 +1.628694122e-007 +1.337000002e+002 +1.337000002e+002 +2.4752e+000 +9.5439e-001 -3.7841e-001
4843 0 +5.721025786e-008 +1.337000001e+002 +1.337000001e+002 +2.4752e+000 +9.5439e-001 -3.7840e-001
4849 0 +1.888355428e-008 +1.337000000e+002 +1.337000000e+002 +2.4752e+000 +9.5440e-001 -3.7840e-001
4906 0 +1.682246875e-008 +1.337000000e+002 +1.337000000e+002 +2.4752e+000 +9.5440e-001 -3.7840e-001
4914 0 +1.612252731e-008 +1.337000000e+002 +1.337000000e+002 +2.4752e+000 +9.5440e-001 -3.7840e-001
4922 0 +8.677801588e-009 +1.337000000e+002 +1.337000000e+002 +2.4752e+000 +9.5440e-001 -3.7840e-001
% f evaluations | g evaluations | best noise-free fitness - Fopt (-2.098000000000e+001) + sum g_i+ | measured fitness | best measured fitness or single-digit g-values | x1 | x2...
1 0 +4.274805551e+002 +4.065005551e+002 +4.065005551e+002 +5.0000e+000 -5.0000e+000 -5.0000e+000
3 0 +3.367678855e+002 +3.157878855e+002 +3.157878855e+002 +5.0000e+000 +5.0000e+000 -5.0000e+000
8 0 +4.781766439e+001 +2.683766439e+001 +2.683766439e+001 +5.0000e+000 +1.6023e-014 -9.1889e-014
30 0 +4.266884436e+001 +2.168884436e+001 +2.168884436e+001 +5.0000e+000 +6.8864e-001 +1.7382e-001
34 0 +2.599158396e+001 +5.011583955e+000 +5.011583955e+000 +1.8000e+000 +1.1944e+000 +7.1054e-001
36 0 +2.421171399e+001 +3.231713992e+000 +3.231713992e+000 +1.8000e+000 +7.6638e-001 +6.8545e-001
38 0 +2.142762332e+001 +4.476233154e-001 +4.476233154e-001 +1.8000e+000 +7.9615e-001 +6.9217e-001
46 0 +2.113596506e+001 +1.559650602e-001 +1.559650602e-001 +4.1993e+000 +8.4216e-001 +6.9021e-001
53 0 +1.863176601e+001 -2.348233987e+000 -2.348233987e+000 +3.9351e+000 +7.9151e-001 +6.0126e-001
106 0 +1.612832445e+001 -4.851675551e+000 -4.851675551e+000 +4.9696e+000 +1.3039e+000 +6.9021e-001
108 0 +1.210565930e+001 -8.874340699e+000 -8.874340699e+000 +4.9976e+000 +1.3046e+000 +6.2014e-001
156 0 +7.633619645e+000 -1.334638036e+001 -1.334638036e+001 +1.0829e+000 +1.2842e+000 +3.2465e-001
176 0 +3.624344944e+000 -1.735565506e+001 -1.735565506e+001 +1.0829e+000 +1.2842e+000 +6.2254e-001
227 0 +3.509686630e+000 -1.747031337e+001 -1.747031337e+001 +1.0293e+000 +1.3103e+000 +6.2576e-001
351 0 +2.079472028e+000 -1.890052797e+001 -1.890052797e+001 +2.0696e+000 +1.3244e+000 +6.1393e-001
504 0 +1.893456063e+000 -1.908654394e+001 -1.908654394e+001 +2.0579e+000 +1.9492e+000 +2.3725e-001
522 0 +6.143244741e-001 -2.036567553e+001 -2.036567553e+001 +2.0840e+000 +1.9371e+000 +2.5129e-001
526 0 +5.363896930e-001 -2.044361031e+001 -2.044361031e+001 +2.0756e+000 +1.9361e+000 +2.5099e-001
529 0 +4.555663874e-001 -2.052443361e+001 -2.052443361e+001 +2.0761e+000 +1.9323e+000 +2.5154e-001
536 0 +2.919904103e-001 -2.068800959e+001 -2.068800959e+001 +2.0656e+000 +1.9238e+000 +2.5212e-001
553 0 +2.653288826e-001 -2.071467112e+001 -2.071467112e+001 +2.0647e+000 +1.9234e+000 +2.5255e-001
561 0 +1.444959885e-001 -2.083550401e+001 -2.083550401e+001 +2.0781e+000 +1.9104e+000 +2.5970e-001
567 0 +1.375491159e-001 -2.084245088e+001 -2.084245088e+001 +2.0758e+000 +1.9127e+000 +2.5846e-001
568 0 +8.979294005e-002 -2.089020706e+001 -2.089020706e+001 +2.0782e+000 +1.9182e+000 +2.6792e-001
579 0 +4.970569406e-002 -2.093029431e+001 -2.093029431e+001 +2.0733e+000 +1.9234e+000 +2.6493e-001
587 0 +2.251159753e-002 -2.095748840e+001 -2.095748840e+001 +2.0608e+000 +1.9148e+000 +2.6596e-001
591 0 +1.689595560e-002 -2.096310404e+001 -2.096310404e+001 +2.0604e+000 +1.9152e+000 +2.6571e-001
594 0 +1.591566401e-002 -2.096408434e+001 -2.096408434e+001 +2.0603e+000 +1.9150e+000 +2.6515e-001
612 0 +1.415016261e-002 -2.096584984e+001 -2.096584984e+001 +2.0602e+000 +1.9152e+000 +2.6499e-001
623 0 +1.123344730e-002 -2.096876655e+001 -2.096876655e+001 +2.0634e+000 +1.9183e+000 +2.6604e-001
624 0 +1.016830488e-002 -2.096983170e+001 -2.096983170e+001 +2.0588e+000 +1.9187e+000 +2.6613e-001
662 0 +8.977653821e-004 -2.097910223e+001 -2.097910223e+001 +2.0599e+000 +1.9200e+000 +2.6353e-001
665 0 +1.176215296e-004 -2.097988238e+001 -2.097988238e+001 +2.0596e+000 +1.9195e+000 +2.6413e-001
670 0 +8.528853730e-005 -2.097991471e+001 -2.097991471e+001 +2.0603e+000 +1.9189e+000 +2.6394e-001
671 0 +8.000253390e-005 -2.097992000e+001 -2.097992000e+001 +2.0594e+000 +1.9192e+000 +2.6399e-001
677 0 +6.505225297e-005 -2.097993495e+001 -2.097993495e+001 +2.0595e+000 +1.9192e+000 +2.6408e-001
693 0 +3.352658067e-005 -2.097996647e+001 -2.097996647e+001 +2.0598e+000 +1.9190e+000 +2.6406e-001
706 0 +3.144670407e-005 -2.097996855e+001 -2.097996855e+001 +2.0598e+000 +1.9190e+000 +2.6406e-001
730 0 +2.231511602e-005 -2.097997768e+001 -2.097997768e+001 +2.0597e+000 +1.9191e+000 +2.6407e-001
733 0 +9.985270903e-006 -2.097999001e+001 -2.097999001e+001 +2.0601e+000 +1.9193e+000 +2.6399e-001
734 0 +6.924204669e-006 -2.097999308e+001 -2.097999308e+001 +2.0600e+000 +1.9193e+000 +2.6405e-001
753 0 +6.307123364e-006 -2.097999369e+001 -2.097999369e+001 +2.0600e+000 +1.9192e+000 +2.6406e-001
773 0 +4.791790293e-006 -2.097999521e+001 -2.097999521e+001 +2.0600e+000 +1.9191e+000 +2.6403e-001
799 0 +3.925914012e-006 -2.097999607e+001 -2.097999607e+001 +2.0601e+000 +1.9192e+000 +2.6402e-001
837 0 +1.127757894e-006 -2.097999887e+001 -2.097999887e+001 +2.0600e+000 +1.9192e+000 +2.6401e-001
860 0 +1.100025237e-006 -2.097999890e+001 -2.097999890e+001 +2.0601e+000 +1.9192e+000 +2.6401e-001
863 0 +1.089728052e-006 -2.097999891e+001 -2.097999891e+001 +2.0601e+000 +1.9192e+000 +2.6401e-001
870 0 +1.059506918e-006 -2.097999894e+001 -2.097999894e+001 +2.0601e+000 +1.9192e+000 +2.6401e-001
885 0 +8.045876001e-007 -2.097999920e+001 -2.097999920e+001 +2.0600e+000 +1.9192e+000 +2.6402e-001
888 0 +7.254492083e-007 -2.097999927e+001 -2.097999927e+001 +2.0601e+000 +1.9192e+000 +2.6399e-001
896 0 +4.270400744e-007 -2.097999957e+001 -2.097999957e+001 +2.0600e+000 +1.9192e+000 +2.6400e-001
899 0 +3.326633617e-007 -2.097999967e+001 -2.097999967e+001 +2.0600e+000 +1.9192e+000 +2.6400e-001
907 0 +3.104582440e-007 -2.097999969e+001 -2.097999969e+001 +2.0600e+000 +1.9192e+000 +2.6400e-001
910 0 +1.861106895e-007 -2.097999981e+001 -2.097999981e+001 +2.0600e+000 +1.9192e+000 +2.6400e-001
922 0 +1.323651979e-007 -2.097999987e+001 -2.097999987e+001 +2.0600e+000 +1.9192e+000 +2.6399e-001
926 0 +1.149584783e-007 -2.097999989e+001 -2.097999989e+001 +2.0600e+000 +1.9192e+000 +2.6400e-001
947 0 +4.360409633e-008 -2.097999996e+001 -2.097999996e+001 +2.0600e+000 +1.9192e+000 +2.6400e-001
950 0 +1.303440911e-008 -2.097999999e+001 -2.097999999e+001 +2.0600e+000 +1.9192e+000 +2.6400e-001
959 0 +8.619743141e-009 -2.097999999e+001 -2.097999999e+001 +2.0600e+000 +1.9192e+000 +2.6400e-001
% f evaluations | g evaluations | best noise-free fitness - Fopt (1.353300000000e+002) + sum g_i+ | measured fitness | best measured fitness or single-digit g-values | x1 | x2...
1 0 +5.405745290e+002 +6.759045290e+002 +6.759045290e+002 -5.0000e+000 +5.0000e+000 -5.0000e+000
2 0 +5.371030955e+002 +6.724330955e+002 +6.724330955e+002 +5.0000e+000 +5.0000e+000 -5.0000e+000
3 0 +4.522268197e+002 +5.875568197e+002 +5.875568197e+002 -5.0000e+000 -5.0000e+000 -5.0000e+000
6 0 +4.160028243e+002 +5.513328243e+002 +5.513328243e+002 +3.6582e+000 +4.7428e+000 -4.2172e+000
8 0 +9.351404225e+001 +2.288440422e+002 +2.288440422e+002 +5.7030e-002 -2.4058e+000 -6.8464e-001
10 0 +7.814860147e+001 +2.134786015e+002 +2.134786015e+002 +1.5437e-001 -2.3812e+000 -5.5361e-001
16 0 +5.660626867e+001 +1.919362687e+002 +1.919362687e+002 -5.0407e-001 -6.8678e-001 -6.8969e-001
20 0 +5.380063600e+001 +1.891306360e+002 +1.891306360e+002 -4.0068e-001 -6.3278e-001 -6.7803e-001
27 0 +1.960197376e+001 +1.549319738e+002 +1.549319738e+002 +5.0534e-001 +5.0189e-001 +4.1030e-002
66 0 +1.581452595e+001 +1.511445260e+002 +1.511445260e+002 +6.9718e-001 -1.4647e+000 +6.6434e-001
122 0 +8.203529078e+000 +1.435335291e+002 +1.435335291e+002 +5.9064e-001 -1.0142e+000 +6.5600e-001
152 0 +6.075875920e+000 +1.414058759e+002 +1.414058759e+002 +4.7424e-001 -6.6691e-001 +6.7288e-001
212 0 +3.175941434e+000 +1.385059414e+002 +1.385059414e+002 +4.7078e-001 -5.5292e-001 +6.7562e-001
237 0 +2.534211472e+000 +1.378642115e+002 +1.378642115e+002 +5.1113e-001 -5.8033e-001 +6.5670e-001
428 0 +2.243590360e+000 +1.375735904e+002 +1.375735904e+002 +5.1187e-001 -5.7954e-001 +6.6731e-001
502 0 +2.236272323e+000 +1.375662723e+002 +1.375662723e+002 +5.1482e-001 -5.5961e-001 +6.6916e-001
524 0 +2.134786561e+000 +1.374647866e+002 +1.374647866e+002 +5.2018e-001 +5.3395e-002 +6.8136e-001
544 0 +1.660759140e+000 +1.369907591e+002 +1.369907591e+002 +5.1905e-001 +1.9676e-002 +6.8119e-001
550 0 +1.276616050e+000 +1.366066161e+002 +1.366066161e+002 +5.1924e-001 +2.4469e-002 +6.7459e-001
619 0 +1.190724855e+000 +1.365207249e+002 +1.365207249e+002 +5.1918e-001 +3.1869e-002 +6.6360e-001
627 0 +1.112335665e+000 +1.364423357e+002 +1.364423357e+002 +5.6243e-001 +2.1678e-002 +6.6223e-001
628 0 +1.040714199e+000 +1.363707142e+002 +1.363707142e+002 +5.3548e-001 +1.6480e-002 +6.6662e-001
667 0 +1.016912377e+000 +1.363469124e+002 +1.363469124e+002 +5.3790e-001 +1.9951e-002 +6.6757e-001
703 0 +9.956169876e-001 +1.363256170e+002 +1.363256170e+002 +5.4321e-001 +2.3921e-002 +6.6668e-001
3879 0 +9.680530145e-001 +1.362980530e+002 +1.362980530e+002 +5.2966e-001 +5.4894e-002 +9.9363e-001
3900 0 +8.794466180e-001 +1.362094466e+002 +1.362094466e+002 +5.3873e-001 +5.0848e-002 +9.9363e-001
3923 0 +7.404825629e-001 +1.360704826e+002 +1.360704826e+002 +5.8537e-001 +1.4766e-002 +9.6292e-001
3977 0 +6.869631640e-001 +1.360169632e+002 +1.360169632e+002 +5.9152e-001 +8.4297e-003 +9.7315e-001
4016 0 +6.391739044e-001 +1.359691739e+002 +1.359691739e+002 +5.9070e-001 +8.0571e-003 +9.7552e-001
4095 0 +5.259481539e-002 +1.353825948e+002 +1.353825948e+002 +5.3823e-001 +3.2437e-002 +9.7769e-001
4101 0 +1.636050334e-002 +1.353463605e+002 +1.353463605e+002 +5.3823e-001 +2.7586e-002 +9.7757e-001
4121 0 +8.648424499e-003 +1.353386484e+002 +1.353386484e+002 +5.4360e-001 +2.3981e-002 +9.7465e-001
4186 0 +8.225652937e-003 +1.353382257e+002 +1.353382257e+002 +5.4226e-001 +2.7500e-002 +9.7644e-001
4188 0 +6.097170963e-003 +1.353360972e+002 +1.353360972e+002 +5.4266e-001 +2.7147e-002 +9.7638e-001
4197 0 +2.996252575e-003 +1.353329963e+002 +1.353329963e+002 +5.4344e-001 +2.5744e-002 +9.7612e-001
4209 0 +2.465211370e-003 +1.353324652e+002 +1.353324652e+002 +5.4428e-001 +2.5726e-002 +9.7622e-001
4210 0 +1.815635869e-003 +1.353318156e+002 +1.353318156e+002 +5.4389e-001 +2.5466e-002 +9.7631e-001
4222 0 +1.682398790e-003 +1.353316824e+002 +1.353316824e+002 +5.4274e-001 +2.4717e-002 +9.7629e-001
4224 0 +1.127377642e-003 +1.353311274e+002 +1.353311274e+002 +5.4263e-001 +2.3618e-002 +9.7710e-001
4226 0 +1.034707144e-003 +1.353310347e+002 +1.353310347e+002 +5.4268e-001 +2.3701e-002 +9.7710e-001
4231 0 +7.565011948e-004 +1.353307565e+002 +1.353307565e+002 +5.4423e-001 +2.4729e-002 +9.7725e-001
4242 0 +4.439153526e-004 +1.353304439e+002 +1.353304439e+002 +5.4541e-001 +2.3379e-002 +9.7707e-001
4243 0 +3.925700115e-004 +1.353303926e+002 +1.353303926e+002 +5.4533e-001 +2.3433e-002 +9.7706e-001
4253 0 +3.676508429e-004 +1.353303677e+002 +1.353303677e+002 +5.4533e-001 +2.3454e-002 +9.7704e-001
4262 0 +3.437760733e-004 +1.353303438e+002 +1.353303438e+002 +5.4544e-001 +2.3610e-002 +9.7651e-001
4265 0 +1.357214438e-004 +1.353301357e+002 +1.353301357e+002 +5.4491e-001 +2.3887e-002 +9.7653e-001
4293 0 +3.111679806e-005 +1.353300311e+002 +1.353300311e+002 +5.4487e-001 +2.3763e-002 +9.7681e-001
4307 0 +7.090864074e-006 +1.353300071e+002 +1.353300071e+002 +5.4496e-001 +2.4060e-002 +9.7679e-001
4343 0 +4.959412223e-006 +1.353300050e+002 +1.353300050e+002 +5.4494e-001 +2.4058e-002 +9.7680e-001
4365 0 +4.546599087e-006 +1.353300045e+002 +1.353300045e+002 +5.4493e-001 +2.4023e-002 +9.7683e-001
4368 0 +6.733543216e-007 +1.353300007e+002 +1.353300007e+002 +5.4485e-001 +2.4011e-002 +9.7681e-001
4389 0 +5.064509594e-007 +1.353300005e+002 +1.353300005e+002 +5.4484e-001 +2.4007e-002 +9.7679e-001
4406 0 +2.643677703e-007 +1.353300003e+002 +1.353300003e+002 +5.4477e-001 +2.3986e-002 +9.7680e-001
4426 0 +2.517954272e-007 +1.353300003e+002 +1.353300003e+002 +5.4477e-001 +2.3986e-002 +9.7680e-001
4429 0 +2.166449065e-007 +1.353300002e+002 +1.353300002e+002 +5.4481e-001 +2.3981e-002 +9.7680e-001
4433 0 +1.316687985e-007 +1.353300001e+002 +1.353300001e+002 +5.4481e-001 +2.3987e-002 +9.7680e-001
4446 0 +2.734745408e-008 +1.353300000e+002 +1.353300000e+002 +5.4480e-001 +2.3997e-002 +9.7680e-001
4494 0 +7.386290690e-009 +1.353300000e+002 +1.353300000e+002 +5.4480e-001 +2.4002e-002 +9.7680e-001
% f evaluations | g evaluations | best noise-free fitness - Fopt (4.066000000000e+001) + sum g_i+ | measured fitness | best measured fitness or single-digit g-values | x1 | x2...
1 0 +9.362045203e+002 +9.768645203e+002 +9.768645203e+002 +5.0000e+000 -5.0000e+000 -5.0000e+000
3 0 +8.982621119e+002 +9.389221119e+002 +9.389221119e+002 +5.0000e+000 +5.0000e+000 -5.0000e+000
4 0 +1.613440444e+002 +2.020040444e+002 +2.020040444e+002 +5.0000e+000 -5.0000e+000 +5.0000e+000
5 0 +1.234016361e+002 +1.640616361e+002 +1.640616361e+002 +5.0000e+000 +5.0000e+000 +5.0000e+000
7 0 +1.202084674e+002 +1.608684674e+002 +1.608684674e+002 +5.0000e+000 -3.5400e+000 +5.0000e+000
9 0 +3.585033273e+001 +7.651033273e+001 +7.651033273e+001 +5.0000e+000 +6.6451e-001 +2.6746e+000
13 0 +3.377472085e+001 +7.443472085e+001 +7.443472085e+001 +3.6985e+000 +1.1612e+000 +3.0111e+000
16 0 +3.072690678e+001 +7.138690678e+001 +7.138690678e+001 +4.0713e+000 +3.2476e+000 +3.3301e+000
42 0 +2.344223299e+001 +6.410223299e+001 +6.410223299e+001 +3.7189e+000 +1.3887e+000 +4.3034e+000
46 0 +2.089287423e+001 +6.155287423e+001 +6.155287423e+001 +3.7964e+000 +1.2869e+000 +4.6622e+000
69 0 +9.528779982e+000 +5.018877998e+001 +5.018877998e+001 +3.1637e+000 +6.7744e-001 +4.6080e+000
72 0 +9.143920427e+000 +4.980392043e+001 +4.980392043e+001 +2.8780e+000 +1.1912e+000 +4.2602e+000
131 0 +7.268465021e+000 +4.792846502e+001 +4.792846502e+001 +2.8741e+000 +1.2386e+000 +4.2701e+000
196 0 +3.969597722e+000 +4.462959772e+001 +4.462959772e+001 +3.0009e+000 +1.1938e+000 +4.2533e+000
198 0 +2.456008780e+000 +4.311600878e+001 +4.311600878e+001 +3.0908e+000 +1.2698e+000 +4.2497e+000
216 0 +2.327211373e+000 +4.298721137e+001 +4.298721137e+001 +3.0711e+000 +1.2756e+000 +4.2516e+000
294 0 +1.672638159e+000 +4.233263816e+001 +4.233263816e+001 +3.0437e+000 +1.2591e+000 +4.2556e+000
324 0 +1.634939084e+000 +4.229493908e+001 +4.229493908e+001 +3.0014e+000 +1.2578e+000 +4.2757e+000
346 0 +1.422651529e+000 +4.208265153e+001 +4.208265153e+001 +3.0750e+000 +1.2256e+000 +4.2781e+000
374 0 +1.386139453e+000 +4.204613945e+001 +4.204613945e+001 +3.0751e+000 +1.2272e+000 +4.2782e+000
376 0 +1.052684629e+000 +4.171268463e+001 +4.171268463e+001 +3.0550e+000 +1.2417e+000 +4.2931e+000
433 0 +1.045043730e+000 +4.170504373e+001 +4.170504373e+001 +3.0616e+000 +1.2494e+000 +4.2921e+000
457 0 +1.012817515e+000 +4.167281751e+001 +4.167281751e+001 +3.0559e+000 +1.2429e+000 +4.2860e+000
464 0 +9.992814724e-001 +4.165928147e+001 +4.165928147e+001 +3.0486e+000 +1.2461e+000 +4.2864e+000
9418 0 +6.332490424e-001 +4.129324904e+001 +4.129324904e+001 +3.0231e+000 +1.2451e+000 +3.9418e+000
9440 0 +4.469418474e-001 +4.110694185e+001 +4.110694185e+001 +3.0505e+000 +1.2449e+000 +3.9414e+000
9455 0 +6.632698521e-002 +4.072632699e+001 +4.072632699e+001 +3.0455e+000 +1.2437e+000 +3.9297e+000
9468 0 +6.597851927e-002 +4.072597852e+001 +4.072597852e+001 +3.0682e+000 +1.2520e+000 +3.9229e+000
9513 0 +4.530639793e-002 +4.070530640e+001 +4.070530640e+001 +3.0614e+000 +1.2511e+000 +3.9274e+000
9540 0 +1.036730095e-002 +4.067036730e+001 +4.067036730e+001 +3.0479e+000 +1.2449e+000 +3.9255e+000
9549 0 +9.772895979e-003 +4.066977290e+001 +4.066977290e+001 +3.0481e+000 +1.2450e+000 +3.9255e+000
9564 0 +9.541571122e-003 +4.066954157e+001 +4.066954157e+001 +3.0481e+000 +1.2453e+000 +3.9256e+000
9571 0 +4.767103303e-003 +4.066476710e+001 +4.066476710e+001 +3.0513e+000 +1.2491e+000 +3.9229e+000
9588 0 +4.137274279e-003 +4.066413727e+001 +4.066413727e+001 +3.0513e+000 +1.2492e+000 +3.9231e+000
9602 0 +3.703427646e-003 +4.066370343e+001 +4.066370343e+001 +3.0513e+000 +1.2493e+000 +3.9235e+000
9635 0 +3.692680890e-004 +4.066036927e+001 +4.066036927e+001 +3.0508e+000 +1.2474e+000 +3.9242e+000
9637 0 +7.989747481e-005 +4.066007990e+001 +4.066007990e+001 +3.0515e+000 +1.2470e+000 +3.9240e+000
9652 0 +6.804384034e-005 +4.066006804e+001 +4.066006804e+001 +3.0516e+000 +1.2470e+000 +3.9239e+000
9687 0 +6.529625567e-005 +4.066006530e+001 +4.066006530e+001 +3.0516e+000 +1.2470e+000 +3.9239e+000
9697 0 +4.057603454e-005 +4.066004058e+001 +4.066004058e+001 +3.0518e+000 +1.2473e+000 +3.9239e+000
9702 0 +3.481742615e-005 +4.066003482e+001 +4.066003482e+001 +3.0518e+000 +1.2473e+000 +3.9239e+000
9704 0 +1.814730744e-005 +4.066001815e+001 +4.066001815e+001 +3.0520e+000 +1.2471e+000 +3.9239e+000
9714 0 +5.545903662e-006 +4.066000555e+001 +4.066000555e+001 +3.0521e+000 +1.2472e+000 +3.9240e+000
9745 0 +3.447305986e-006 +4.066000345e+001 +4.066000345e+001 +3.0521e+000 +1.2472e+000 +3.9240e+000
9773 0 +1.408648842e-006 +4.066000141e+001 +4.066000141e+001 +3.0521e+000 +1.2472e+000 +3.9240e+000
9776 0 +1.239746830e-006 +4.066000124e+001 +4.066000124e+001 +3.0521e+000 +1.2472e+000 +3.9240e+000
9806 0 +9.645156993e-007 +4.066000096e+001 +4.066000096e+001 +3.0520e+000 +1.2472e+000 +3.9240e+000
9817 0 +6.517968174e-007 +4.066000065e+001 +4.066000065e+001 +3.0520e+000 +1.2472e+000 +3.9240e+000
9826 0 +8.419564779e-008 +4.066000008e+001 +4.066000008e+001 +3.0520e+000 +1.2472e+000 +3.9240e+000
9871 0 +7.686559655e-008 +4.066000008e+001 +4.066000008e+001 +3.0520e+000 +1.2472e+000 +3.9240e+000
9884 0 +4.631584005e-008 +4.066000005e+001 +4.066000005e+001 +3.0520e+000 +1.2472e+000 +3.9240e+000
9914 0 +1.401622995e-008 +4.066000001e+001 +4.066000001e+001 +3.0520e+000 +1.2472e+000 +3.9240e+000
9929 0 +1.153143359e-008 +4.066000001e+001 +4.066000001e+001 +3.0520e+000 +1.2472e+000 +3.9240e+000
9930 0 +6.012975007e-009 +4.066000001e+001 +4.066000001e+001 +3.0520e+000 +1.2472e+000 +3.9240e+000
