% f evaluations | g evaluations | best noise-free fitness - Fopt (-4.620900000000e+002) + sum g_i+ | measured fitness | best measured fitness or single-digit g-values | x1 | x2...
1 0 +3.351185596e+002 -1.269714404e+002 -1.269714404e+002 +2.5999e+000 -3.4007e+000 -2.1149e+000
2 0 +1.456277773e+002 -3.164622227e+002 -3.164622227e+002 +3.5417e+000 +3.2327e+000 -6.3271e-001
4 0 +1.326225954e+002 -3.294674046e+002 -3.294674046e+002 +1.9829e+000 -2.3378e+000 +3.1066e+000
6 0 +1.080899860e+002 -3.540000140e+002 -3.540000140e+002 -1.9551e+000 +4.7178e+000 +6.0583e-001
7 0 +5.413206199e+001 -4.079579380e+002 -4.079579380e+002 -4.6762e+000 -6.2936e-003 +1.3236e+000
8 0 +2.482284459e+001 -4.372671554e+002 -4.372671554e+002 -1.3023e+000 +1.2759e+000 +1.8165e+000
37 0 +1.121902211e+001 -4.508709779e+002 -4.508709779e+002 +7.0042e-001 +1.6775e+000 +1.8992e+000
279 0 +5.382138935e+000 -4.567078611e+002 -4.567078611e+002 -1.3991e+000 +2.8183e+000 +2.2105e+000
313 0 +5.148096630e+000 -4.569419034e+002 -4.569419034e+002 -1.3963e+000 +2.8194e+000 +2.2082e+000
317 0 +4.730522564e+000 -4.573594774e+002 -4.573594774e+002 -1.3913e+000 +2.8210e+000 +2.2076e+000
329 0 +3.140615725e+000 -4.589493843e+002 -4.589493843e+002 -1.3106e+000 +2.8457e+000 +2.2294e+000
376 0 +2.156701061e+000 -4.599332989e+002 -4.599332989e+002 -1.3588e+000 +2.8500e+000 +2.2129e+000
406 0 +2.103273054e+000 -4.599867269e+002 -4.599867269e+002 -1.3493e+000 +2.8531e+000 +2.2193e+000
407 0 +2.069708638e+000 -4.600202914e+002 -4.600202914e+002 -1.3438e+000 +2.8522e+000 +2.2194e+000
437 0 +1.994730370e+000 -4.600952696e+002 -4.600952696e+002 -1.3436e+000 +2.8491e+000 +2.2149e+000
518 0 +1.455945593e+000 -4.606340544e+002 -4.606340544e+002 -1.3482e+000 +2.3251e+000 +2.2182e+000
529 0 +1.411563586e+000 -4.606784364e+002 -4.606784364e+002 -1.3388e+000 +2.3234e+000 +2.2199e+000
541 0 +1.100668314e+000 -4.609893317e+002 -4.609893317e+002 -1.3391e+000 +2.2879e+000 +2.2128e+000
589 0 +1.007437157e+000 -4.610825628e+002 -4.610825628e+002 -1.3401e+000 +2.3029e+000 +2.2132e+000
609 0 +9.989645985e-001 -4.610910354e+002 -4.610910354e+002 -1.3456e+000 +2.3003e+000 +2.2130e+000
1606 0 +6.211207097e-002 -4.620278879e+002 -4.620278879e+002 -2.3303e+000 +2.3070e+000 +2.2166e+000
1630 0 +4.427216102e-002 -4.620457278e+002 -4.620457278e+002 -2.3432e+000 +2.3061e+000 +2.2173e+000
1633 0 +3.346726858e-002 -4.620565327e+002 -4.620565327e+002 -2.3396e+000 +2.3040e+000 +2.2172e+000
1635 0 +3.296235870e-002 -4.620570376e+002 -4.620570376e+002 -2.3388e+000 +2.3037e+000 +2.2173e+000
1640 0 +2.313302408e-002 -4.620668670e+002 -4.620668670e+002 -2.3372e+000 +2.3049e+000 +2.2154e+000
1666 0 +1.558725579e-002 -4.620744127e+002 -4.620744127e+002 -2.3474e+000 +2.3026e+000 +2.2152e+000
1676 0 +9.010607430e-003 -4.620809894e+002 -4.620809894e+002 -2.3416e+000 +2.3031e+000 +2.2153e+000
1682 0 +1.394033351e-003 -4.620886060e+002 -4.620886060e+002 -2.3399e+000 +2.2996e+000 +2.2144e+000
1690 0 +1.210985529e-003 -4.620887890e+002 -4.620887890e+002 -2.3397e+000 +2.2995e+000 +2.2142e+000
1693 0 +5.660855289e-004 -4.620894339e+002 -4.620894339e+002 -2.3419e+000 +2.2999e+000 +2.2140e+000
1716 0 +5.500652675e-004 -4.620894499e+002 -4.620894499e+002 -2.3416e+000 +2.2998e+000 +2.2141e+000
1733 0 +4.887480048e-004 -4.620895113e+002 -4.620895113e+002 -2.3421e+000 +2.2997e+000 +2.2139e+000
1750 0 +1.112946590e-004 -4.620898887e+002 -4.620898887e+002 -2.3412e+000 +2.3003e+000 +2.2135e+000
1751 0 +9.863193384e-006 -4.620899901e+002 -4.620899901e+002 -2.3408e+000 +2.3001e+000 +2.2136e+000
1769 0 +3.983333841e-006 -4.620899960e+002 -4.620899960e+002 -2.3407e+000 +2.3000e+000 +2.2136e+000
1773 0 +1.223401910e-006 -4.620899988e+002 -4.620899988e+002 -2.3409e+000 +2.3000e+000 +2.2136e+000
1774 0 +3.550130714e-007 -4.620899996e+002 -4.620899996e+002 -2.3408e+000 +2.3000e+000 +2.2136e+000
1778 0 +1.286223892e-007 -4.620899999e+002 -4.620899999e+002 -2.3408e+000 +2.3000e+000 +2.2136e+000
1783 0 +6.940223329e-008 -4.620899999e+002 -4.620899999e+002 -2.3408e+000 +2.3000e+000 +2.2136e+000
1791 0 +4.181731583e-008 -4.620900000e+002 -4.620900000e+002 -2.3408e+000 +2.3000e+000 +2.2136e+000
1797 0 +1.523403625e-010 -4.620900000e+002 -4.620900000e+002 -2.3408e+000 +2.3000e+000 +2.2136e+000
% f evaluations | g evaluations | best noise-free fitness - Fopt (7.766000000000e+001) + sum g_i+ | measured fitness | best measured fitness or single-digit g-values | x1 | x2...
1 0 +7.489423346e+002 +8.266023346e+002 +8.266023346e+002 +3.2133e-001 +1.1936e+000 +3.2258e+000
2 0 +1.181565839e+002 +1.958165839e+002 +1.958165839e+002 +2.0819e+000 +2.9994e+000 -1.7781e+000
10 0 +7.997835740e+001 +1.576383574e+002 +1.576383574e+002 -5.0000e+000 -1.0512e+000 -1.3760e+000
14 0 +5.180798492e+001 +1.294679849e+002 +1.294679849e+002 -5.2383e-001 -2.1539e+000 -2.2649e+000
42 0 +4.536113399e+001 +1.230211340e+002 +1.230211340e+002 +7.6364e-001 -3.1382e+000 -2.4664e+000
44 0 +4.226313353e+001 +1.199231335e+002 +1.199231335e+002 -5.2383e-001 -9.0797e-002 -2.4814e+000
45 0 +2.100464883e+001 +9.866464883e+001 +9.866464883e+001 +1.1221e+000 -8.3989e-001 -9.3782e-001
62 0 +1.640458419e+001 +9.406458419e+001 +9.406458419e+001 +3.3103e+000 -8.6382e-001 -8.1275e-001
76 0 +9.412797704e+000 +8.707279770e+001 +8.707279770e+001 +3.1520e-001 -1.3724e+000 -1.2957e+000
96 0 +8.137986363e+000 +8.579798636e+001 +8.579798636e+001 +3.6104e-001 -1.5017e+000 -1.3010e+000
111 0 +7.970019332e+000 +8.563001933e+001 +8.563001933e+001 +3.6305e-001 -1.4988e+000 -1.3007e+000
292 0 +6.378506998e+000 +8.403850700e+001 +8.403850700e+001 +1.4574e+000 -1.4468e+000 -1.3107e+000
294 0 +4.464186763e+000 +8.212418676e+001 +8.212418676e+001 +1.4588e+000 -1.4566e+000 -1.2975e+000
468 0 +3.581027696e+000 +8.124102770e+001 +8.124102770e+001 +1.4195e+000 -1.4704e+000 -1.2985e+000
488 0 +3.346798621e+000 +8.100679862e+001 +8.100679862e+001 +1.4011e+000 -1.4488e+000 -1.2984e+000
508 0 +2.166674630e+000 +7.982667463e+001 +7.982667463e+001 +1.3810e+000 -1.4532e+000 -1.2720e+000
516 0 +2.019056080e+000 +7.967905608e+001 +7.967905608e+001 +1.4017e+000 -1.4443e+000 -1.2694e+000
518 0 +1.992848118e+000 +7.965284812e+001 +7.965284812e+001 +1.4026e+000 -1.4509e+000 -1.2731e+000
664 0 +1.109457767e+000 +7.876945777e+001 +7.876945777e+001 +2.3742e+000 -1.4511e+000 -1.2721e+000
715 0 +1.015172771e+000 +7.867517277e+001 +7.867517277e+001 +2.3917e+000 -1.4509e+000 -1.2693e+000
745 0 +9.974511754e-001 +7.865745118e+001 +7.865745118e+001 +2.4019e+000 -1.4517e+000 -1.2723e+000
4569 0 +6.300651640e-001 +7.829006516e+001 +7.829006516e+001 +2.3720e+000 -8.2658e-001 -1.2732e+000
4674 0 +3.044070247e-001 +7.796440702e+001 +7.796440702e+001 +2.3629e+000 -8.6112e-001 -1.2733e+000
4769 0 +6.200104754e-002 +7.772200105e+001 +7.772200105e+001 +2.3918e+000 -8.5644e-001 -1.2768e+000
4843 0 +6.610146416e-003 +7.766661015e+001 +7.766661015e+001 +2.3930e+000 -8.5531e-001 -1.2721e+000
4900 0 +6.799341811e-004 +7.766067993e+001 +7.766067993e+001 +2.3977e+000 -8.5652e-001 -1.2715e+000
4911 0 +3.953592145e-004 +7.766039536e+001 +7.766039536e+001 +2.3987e+000 -8.5573e-001 -1.2716e+000
4953 0 +3.422116317e-004 +7.766034221e+001 +7.766034221e+001 +2.3987e+000 -8.5574e-001 -1.2716e+000
4971 0 +4.544864041e-006 +7.766000454e+001 +7.766000454e+001 +2.3985e+000 -8.5600e-001 -1.2720e+000
4995 0 +1.216884158e-006 +7.766000122e+001 +7.766000122e+001 +2.3984e+000 -8.5602e-001 -1.2720e+000
5058 0 +1.995850596e-008 +7.766000002e+001 +7.766000002e+001 +2.3984e+000 -8.5600e-001 -1.2720e+000
5080 0 +1.732709620e-008 +7.766000002e+001 +7.766000002e+001 +2.3984e+000 -8.5600e-001 -1.2720e+000
5088 0 +1.061140154e-008 +7.766000001e+001 +7.766000001e+001 +2.3984e+000 -8.5600e-001 -1.2720e+000
5108 0 +1.200959332e-009 +7.766000000e+001 +7.766000000e+001 +2.3984e+000 -8.5600e-001 -1.2720e+000
5242 0 +0.000000000e+000 +7.766000000e+001 +7.766000000e+001 +2.3984e+000 -8.5600e-001 -1.2720e+000
% f evaluations | g evaluations | best noise-free fitness - Fopt (1.156800000000e+002) + sum g_i+ | measured fitness | best measured fitness or single-digit g-values | x1 | x2...
1 0 +9.854883286e+001 +2.142288329e+002 +2.142288329e+002 -1.4554e+000 -9.5474e-001 -2.7103e+000
4 0 +6.147450004e+001 +1.771545000e+002 +1.771545000e+002 -4.3673e+000 +3.1420e-001 +1.6633e+000
12 0 +3.884913055e+001 +1.545291306e+002 +1.545291306e+002 -1.2453e+000 -3.9056e-001 -8.4133e-001
18 0 +2.742724292e+001 +1.431072429e+002 +1.431072429e+002 -2.2061e+000 -1.5777e+000 -6.0027e-001
24 0 +1.473031017e+001 +1.304103102e+002 +1.304103102e+002 -2.1907e+000 -1.5119e+000 -5.1676e-001
136 0 +1.286546944e+001 +1.285454694e+002 +1.285454694e+002 -2.1342e+000 -1.5483e+000 -5.1062e-001
152 0 +1.202015363e+001 +1.277001536e+002 +1.277001536e+002 -2.0219e+000 -1.5102e+000 -4.0845e-001
157 0 +8.416164230e+000 +1.240961642e+002 +1.240961642e+002 -1.9926e+000 -1.5580e+000 +2.2135e-001
160 0 +6.177096630e+000 +1.218570966e+002 +1.218570966e+002 -2.0201e+000 -1.5673e+000 +2.2499e-001
179 0 +5.559442991e+000 +1.212394430e+002 +1.212394430e+002 -2.2513e+000 -1.6100e+000 +2.0502e-001
229 0 +2.912971367e+000 +1.185929714e+002 +1.185929714e+002 -2.1731e+000 -1.5639e+000 -8.3144e-002
281 0 +2.002219921e+000 +1.176822199e+002 +1.176822199e+002 -2.1748e+000 -1.5831e+000 -6.6511e-002
377 0 +1.813907611e+000 +1.174939076e+002 +1.174939076e+002 -2.2197e+000 -1.5595e+000 +2.3210e-001
378 0 +1.604014345e+000 +1.172840143e+002 +1.172840143e+002 -2.2170e+000 -1.5514e+000 +2.5016e-001
396 0 +1.411660125e+000 +1.170916601e+002 +1.170916601e+002 -2.2116e+000 -1.5572e+000 +2.4898e-001
407 0 +1.192268680e+000 +1.168722687e+002 +1.168722687e+002 -2.1973e+000 -1.5595e+000 +2.4779e-001
451 0 +1.081028506e+000 +1.167610285e+002 +1.167610285e+002 -2.1801e+000 -1.5624e+000 +2.4600e-001
480 0 +9.979580094e-001 +1.166779580e+002 +1.166779580e+002 -2.1796e+000 -1.5792e+000 +2.4597e-001
7076 0 +7.356481593e-001 +1.164156482e+002 +1.164156482e+002 -2.1135e+000 -9.8320e-001 +2.4480e-001
7094 0 +3.036631367e-001 +1.159836631e+002 +1.159836631e+002 -2.2151e+000 -9.8320e-001 +2.4480e-001
7126 0 +2.138077102e-001 +1.158938077e+002 +1.158938077e+002 -2.1424e+000 -9.8320e-001 +2.4480e-001
7128 0 +2.758572602e-005 +1.156800276e+002 +1.156800276e+002 -2.1780e+000 -9.8320e-001 +2.4480e-001
7259 0 +8.403474041e-006 +1.156800084e+002 +1.156800084e+002 -2.1786e+000 -9.8320e-001 +2.4480e-001
7268 0 +5.521723608e-006 +1.156800055e+002 +1.156800055e+002 -2.1786e+000 -9.8320e-001 +2.4480e-001
7304 0 +1.106466527e-007 +1.156800001e+002 +1.156800001e+002 -2.1784e+000 -9.8320e-001 +2.4480e-001
7384 0 +5.405297543e-008 +1.156800001e+002 +1.156800001e+002 -2.1784e+000 -9.8320e-001 +2.4480e-001
7393 0 +1.524938398e-009 +1.156800000e+002 +1.156800000e+002 -2.1784e+000 -9.8320e-001 +2.4480e-001
% f evaluations | g evaluations | best noise-free fitness - Fopt (-3.710000000000e+000) + sum g_i+ | measured fitness | best measured fitness or single-digit g-values | x1 | x2...
1 0 +1.980405435e+002 +1.943305435e+002 +1.943305435e+002 -4.1278e-001 +2.5485e+000 +1.9578e+000
4 0 +1.681247181e+002 +1.644147181e+002 +1.644147181e+002 -8.9389e-001 -4.3599e+000 -1.7358e+000
10 0 +3.579609598e+001 +3.208609598e+001 +3.208609598e+001 +1.7928e-001 -1.9775e+000 +1.1089e+000
12 0 +3.263707250e+001 +2.892707250e+001 +2.892707250e+001 +1.4123e+000 -1.8937e+000 +1.1382e+000
22 0 +2.344404109e+001 +1.973404109e+001 +1.973404109e+001 +3.1214e+000 -2.0212e+000 +1.5056e+000
47 0 +2.037533193e+001 +1.666533193e+001 +1.666533193e+001 +3.1570e+000 -2.0539e+000 +1.4546e+000
62 0 +1.657439633e+001 +1.286439633e+001 +1.286439633e+001 +4.1616e+000 -2.7069e+000 +2.0875e+000
80 0 +7.910925017e+000 +4.200925017e+000 +4.200925017e+000 +4.1131e+000 -2.9428e+000 +1.8451e+000
89 0 +7.351301828e+000 +3.641301828e+000 +3.641301828e+000 +4.1066e+000 -2.9162e+000 +1.8468e+000
147 0 +2.145235239e+000 -1.564764761e+000 -1.564764761e+000 +3.1207e+000 -2.8272e+000 +1.7867e+000
213 0 +1.630217402e+000 -2.079782598e+000 -2.079782598e+000 +3.0892e+000 -2.8958e+000 +1.7687e+000
288 0 +1.260024161e+000 -2.449975839e+000 -2.449975839e+000 +3.1451e+000 -2.8996e+000 +1.7755e+000
328 0 +1.256291039e+000 -2.453708961e+000 -2.453708961e+000 +3.1456e+000 -2.8975e+000 +1.7756e+000
347 0 +1.053848905e+000 -2.656151095e+000 -2.656151095e+000 +3.1295e+000 -2.8874e+000 +1.7874e+000
379 0 +1.025278973e+000 -2.684721027e+000 -2.684721027e+000 +3.1201e+000 -2.8830e+000 +1.7854e+000
404 0 +1.000217839e+000 -2.709782161e+000 -2.709782161e+000 +3.1218e+000 -2.8902e+000 +1.7848e+000
423 0 +9.975359815e-001 -2.712464019e+000 -2.712464019e+000 +3.1217e+000 -2.8910e+000 +1.7842e+000
1262 0 +6.553071498e-001 -3.054692850e+000 -3.054692850e+000 +3.1670e+000 -2.2807e+000 +1.7871e+000
1276 0 +5.221901417e-001 -3.187809858e+000 -3.187809858e+000 +3.1668e+000 -2.2921e+000 +1.7865e+000
1293 0 +2.015406012e-001 -3.508459399e+000 -3.508459399e+000 +3.1522e+000 -2.2921e+000 +1.7861e+000
1320 0 +2.854580286e-002 -3.681454197e+000 -3.681454197e+000 +3.1273e+000 -2.2980e+000 +1.7863e+000
1330 0 +1.905701178e-002 -3.690942988e+000 -3.690942988e+000 +3.1215e+000 -2.2976e+000 +1.7804e+000
1346 0 +7.400123679e-003 -3.702599876e+000 -3.702599876e+000 +3.1228e+000 -2.2937e+000 +1.7816e+000
1369 0 +4.722805434e-003 -3.705277195e+000 -3.705277195e+000 +3.1241e+000 -2.2962e+000 +1.7828e+000
1372 0 +1.358526857e-003 -3.708641473e+000 -3.708641473e+000 +3.1225e+000 -2.2955e+000 +1.7832e+000
1376 0 +7.679338689e-005 -3.709923207e+000 -3.709923207e+000 +3.1205e+000 -2.2951e+000 +1.7833e+000
1408 0 +4.579024843e-005 -3.709954210e+000 -3.709954210e+000 +3.1198e+000 -2.2950e+000 +1.7832e+000
1424 0 +1.271801913e-005 -3.709987282e+000 -3.709987282e+000 +3.1200e+000 -2.2951e+000 +1.7832e+000
1425 0 +3.382163349e-007 -3.709999662e+000 -3.709999662e+000 +3.1200e+000 -2.2952e+000 +1.7832e+000
1468 0 +1.738590845e-007 -3.709999826e+000 -3.709999826e+000 +3.1200e+000 -2.2952e+000 +1.7832e+000
1487 0 +1.392221924e-007 -3.709999861e+000 -3.709999861e+000 +3.1200e+000 -2.2952e+000 +1.7832e+000
1502 0 +5.392567726e-008 -3.709999946e+000 -3.709999946e+000 +3.1200e+000 -2.2952e+000 +1.7832e+000
1519 0 +1.847248887e-008 -3.709999982e+000 -3.709999982e+000 +3.1200e+000 -2.2952e+000 +1.7832e+000
1529 0 +5.665479197e-009 -3.709999994e+000 -3.709999994e+000 +3.1200e+000 -2.2952e+000 +1.7832e+000
% f evaluations | g evaluations | best noise-free fitness - Fopt (1.321800000000e+002) + sum g_i+ | measured fitness | best measured fitness or single-digit g-values | x1 | x2...
1 0 +3.581988699e+002 +4.903788699e+002 +4.903788699e+002 +1.5886e+000 -2.9340e+000 -1.4836e+000
4 0 +1.413129516e+002 +2.734929516e+002 +2.734929516e+002 +3.2115e+000 +3.9524e+000 +4.8433e+000
8 0 +6.109141163e+001 +1.932714116e+002 +1.932714116e+002 -5.0000e+000 +8.1405e-002 +5.0000e+000
12 0 +3.613082703e+000 +1.357930827e+002 +1.357930827e+002 -3.8408e+000 +9.1651e-001 +3.8494e+000
46 0 +3.380398670e+000 +1.355603987e+002 +1.355603987e+002 -3.8452e+000 +9.0580e-001 +3.8037e+000
86 0 +3.042109150e+000 +1.352221091e+002 +1.352221091e+002 -3.7961e+000 +8.4496e-001 +3.8016e+000
146 0 +2.567986825e+000 +1.347479868e+002 +1.347479868e+002 -3.8019e+000 +8.5808e-001 +3.8227e+000
167 0 +2.067655513e+000 +1.342476555e+002 +1.342476555e+002 -3.7690e+000 +8.9607e-001 +3.8138e+000
198 0 +2.009239063e+000 +1.341892391e+002 +1.341892391e+002 -3.7635e+000 +8.8190e-001 +3.8177e+000
286 0 +1.994899669e+000 +1.341748997e+002 +1.341748997e+002 -3.7597e+000 +8.8550e-001 +3.8234e+000
812 0 +1.330828057e+000 +1.335108281e+002 +1.335108281e+002 -3.7679e+000 +8.7981e-001 +3.4755e+000
818 0 +1.018960081e+000 +1.331989601e+002 +1.331989601e+002 -3.7703e+000 +8.8160e-001 +3.4637e+000
996 0 +9.950990432e-001 +1.331750990e+002 +1.331750990e+002 -3.7639e+000 +8.8595e-001 +3.4618e+000
3191 0 +2.113772022e-001 +1.323913772e+002 +1.323913772e+002 -3.7640e+000 +1.5023e+000 +3.4616e+000
3219 0 +1.854316793e-001 +1.323654317e+002 +1.323654317e+002 -3.7656e+000 +1.5013e+000 +3.4616e+000
3272 0 +1.633782665e-001 +1.323433783e+002 +1.323433783e+002 -3.7677e+000 +1.5000e+000 +3.4616e+000
3315 0 +2.064944964e-002 +1.322006494e+002 +1.322006494e+002 -3.7597e+000 +1.4848e+000 +3.4645e+000
3441 0 +6.916515793e-004 +1.321806917e+002 +1.321806917e+002 -3.7646e+000 +1.4832e+000 +3.4613e+000
3458 0 +2.952185004e-004 +1.321802952e+002 +1.321802952e+002 -3.7637e+000 +1.4830e+000 +3.4618e+000
3465 0 +2.161843456e-004 +1.321802162e+002 +1.321802162e+002 -3.7635e+000 +1.4829e+000 +3.4616e+000
3466 0 +2.897584358e-005 +1.321800290e+002 +1.321800290e+002 -3.7641e+000 +1.4824e+000 +3.4617e+000
3509 0 +1.884109312e-005 +1.321800188e+002 +1.321800188e+002 -3.7643e+000 +1.4824e+000 +3.4617e+000
3514 0 +1.160085810e-005 +1.321800116e+002 +1.321800116e+002 -3.7641e+000 +1.4823e+000 +3.4616e+000
3518 0 +1.187568984e-006 +1.321800012e+002 +1.321800012e+002 -3.7640e+000 +1.4824e+000 +3.4616e+000
3525 0 +4.372974161e-007 +1.321800004e+002 +1.321800004e+002 -3.7640e+000 +1.4824e+000 +3.4616e+000
3526 0 +4.050284588e-007 +1.321800004e+002 +1.321800004e+002 -3.7640e+000 +1.4824e+000 +3.4616e+000
3543 0 +2.516480890e-007 +1.321800003e+002 +1.321800003e+002 -3.7640e+000 +1.4824e+000 +3.4616e+000
3546 0 +1.771243205e-007 +1.321800002e+002 +1.321800002e+002 -3.7640e+000 +1.4824e+000 +3.4616e+000
3547 0 +8.484076375e-008 +1.321800001e+002 +1.321800001e+002 -3.7640e+000 +1.4824e+000 +3.4616e+000
3573 0 +2.272770416e-009 +1.321800000e+002 +1.321800000e+002 -3.7640e+000 +1.4824e+000 +3.4616e+000
% f evaluations | g evaluations | best noise-free fitness - Fopt (-3.930000000000e+001) + sum g_i+ | measured fitness | best measured fitness or single-digit g-values | x1 | x2...
1 0 +3.570866361e+001 -3.591336388e+000 -3.591336388e+000 +1.0782e+000 -1.1542e+000 +2.6948e+000
12 0 +3.317457539e+001 -6.125424608e+000 -6.125424608e+000 -5.0000e+000 -1.2764e+000 +1.7047e+000
31 0 +2.768975224e+001 -1.161024776e+001 -1.161024776e+001 -8.6679e-001 -1.1926e+000 +2.3878e+000
50 0 +1.441997589e+001 -2.488002411e+001 -2.488002411e+001 -2.6414e+000 -5.1148e-001 +2.0463e+000
68 0 +1.343982730e+001 -2.586017270e+001 -2.586017270e+001 -2.6552e+000 -5.1959e-001 +2.0245e+000
90 0 +7.167203631e+000 -3.213279637e+001 -3.213279637e+001 -2.4189e+000 -1.2055e+000 +2.2856e+000
120 0 +1.971507162e+000 -3.732849284e+001 -3.732849284e+001 -2.6156e+000 -1.1981e+000 +2.3461e+000
248 0 +7.587667029e-001 -3.854123330e+001 -3.854123330e+001 -2.5167e+000 -1.1999e+000 +2.3419e+000
348 0 +2.129418782e-002 -3.927870581e+001 -3.927870581e+001 -2.5326e+000 -1.2288e+000 +2.3339e+000
410 0 +6.449911537e-003 -3.929355009e+001 -3.929355009e+001 -2.5327e+000 -1.2295e+000 +2.3322e+000
419 0 +8.030945936e-005 -3.929991969e+001 -3.929991969e+001 -2.5337e+000 -1.2297e+000 +2.3302e+000
437 0 +5.341993464e-005 -3.929994658e+001 -3.929994658e+001 -2.5337e+000 -1.2299e+000 +2.3303e+000
473 0 +1.512602765e-006 -3.929999849e+001 -3.929999849e+001 -2.5337e+000 -1.2296e+000 +2.3304e+000
490 0 +1.440769779e-006 -3.929999856e+001 -3.929999856e+001 -2.5337e+000 -1.2296e+000 +2.3304e+000
494 0 +5.552615434e-007 -3.929999944e+001 -3.929999944e+001 -2.5336e+000 -1.2296e+000 +2.3304e+000
499 0 +2.132073007e-007 -3.929999979e+001 -3.929999979e+001 -2.5336e+000 -1.2296e+000 +2.3304e+000
503 0 +1.057970778e-007 -3.929999989e+001 -3.929999989e+001 -2.5336e+000 -1.2296e+000 +2.3304e+000
505 0 +3.029522588e-008 -3.929999997e+001 -3.929999997e+001 -2.5336e+000 -1.2296e+000 +2.3304e+000
519 0 +8.222301062e-009 -3.929999999e+001 -3.929999999e+001 -2.5336e+000 -1.2296e+000 +2.3304e+000
% f evaluations | g evaluations | best noise-free fitness - Fopt (4.296000000000e+001) + sum g_i+ | measured fitness | best measured fitness or single-digit g-values | x1 | x2...
1 0 +8.467163122e+002 +8.896763122e+002 +8.896763122e+002 -4.8867e+000 -1.3591e+000 +1.7755e+000
2 0 +8.337133240e+001 +1.263313324e+002 +1.263313324e+002 +3.7254e+000 -1.0574e+000 -1.1559e+000
4 0 +6.278824785e+001 +1.057482479e+002 +1.057482479e+002 -2.8544e+000 +2.2960e+000 -3.6083e+000
19 0 +4.529468907e+001 +8.825468907e+001 +8.825468907e+001 -1.5092e+000 -1.1766e+000 -3.7104e+000
30 0 +2.217687554e+001 +6.513687554e+001 +6.513687554e+001 -1.5821e+000 +1.3096e+000 -2.1438e+000
64 0 +2.156089362e+001 +6.452089362e+001 +6.452089362e+001 -1.5873e+000 +1.3008e+000 -2.1386e+000
91 0 +1.106067219e+001 +5.402067219e+001 +5.402067219e+001 -2.7612e-001 +1.2359e+000 -3.0782e+000
152 0 +6.100598225e+000 +4.906059822e+001 +4.906059822e+001 +1.4552e+000 +1.7563e+000 -2.1013e+000
182 0 +5.166893833e+000 +4.812689383e+001 +4.812689383e+001 +1.4670e+000 +1.7725e+000 -2.1585e+000
206 0 +5.094407214e+000 +4.805440721e+001 +4.805440721e+001 +1.4708e+000 +1.7679e+000 -2.1604e+000
242 0 +4.894245668e+000 +4.785424567e+001 +4.785424567e+001 +1.5295e+000 +1.7492e+000 -2.1166e+000
279 0 +4.630749026e+000 +4.759074903e+001 +4.759074903e+001 +1.5332e+000 +1.7164e+000 -2.1627e+000
419 0 +2.327298447e+000 +4.528729845e+001 +4.528729845e+001 +1.5900e+000 +1.7156e+000 -2.4183e+000
434 0 +1.805856423e+000 +4.476585642e+001 +4.476585642e+001 +1.5647e+000 +1.7207e+000 -2.4077e+000
470 0 +1.018799351e+000 +4.397879935e+001 +4.397879935e+001 +1.5236e+000 +1.7366e+000 -2.4083e+000
521 0 +9.979287879e-001 +4.395792879e+001 +4.395792879e+001 +1.5100e+000 +1.7384e+000 -2.4088e+000
3397 0 +4.414051653e-001 +4.340140517e+001 +4.340140517e+001 +1.5394e+000 +1.7327e+000 -2.7577e+000
3418 0 +3.771060302e-001 +4.333710603e+001 +4.333710603e+001 +1.5399e+000 +1.7421e+000 -2.7594e+000
3429 0 +1.065565301e-001 +4.306655653e+001 +4.306655653e+001 +1.5335e+000 +1.7396e+000 -2.7669e+000
3441 0 +1.037956486e-001 +4.306379565e+001 +4.306379565e+001 +1.5256e+000 +1.7365e+000 -2.7763e+000
3448 0 +5.394195152e-002 +4.301394195e+001 +4.301394195e+001 +1.5238e+000 +1.7373e+000 -2.7665e+000
3465 0 +2.354172861e-002 +4.298354173e+001 +4.298354173e+001 +1.5226e+000 +1.7366e+000 -2.7688e+000
3469 0 +1.498365215e-003 +4.296149837e+001 +4.296149837e+001 +1.5140e+000 +1.7383e+000 -2.7704e+000
3477 0 +1.028419977e-003 +4.296102842e+001 +4.296102842e+001 +1.5143e+000 +1.7378e+000 -2.7703e+000
3492 0 +3.681017860e-004 +4.296036810e+001 +4.296036810e+001 +1.5126e+000 +1.7373e+000 -2.7701e+000
3513 0 +1.186806475e-004 +4.296011868e+001 +4.296011868e+001 +1.5125e+000 +1.7364e+000 -2.7704e+000
3519 0 +5.663242568e-005 +4.296005663e+001 +4.296005663e+001 +1.5131e+000 +1.7366e+000 -2.7705e+000
3521 0 +4.026838962e-005 +4.296004027e+001 +4.296004027e+001 +1.5129e+000 +1.7370e+000 -2.7703e+000
3523 0 +3.695602402e-006 +4.296000370e+001 +4.296000370e+001 +1.5128e+000 +1.7369e+000 -2.7704e+000
3549 0 +3.305891170e-007 +4.296000033e+001 +4.296000033e+001 +1.5128e+000 +1.7368e+000 -2.7704e+000
3558 0 +2.119030569e-007 +4.296000021e+001 +4.296000021e+001 +1.5128e+000 +1.7368e+000 -2.7704e+000
3572 0 +5.495444100e-009 +4.296000001e+001 +4.296000001e+001 +1.5128e+000 +1.7368e+000 -2.7704e+000
% f evaluations | g evaluations | best noise-free fitness - Fopt (2.842200000000e+002) + sum g_i+ | measured fitness | best measured fitness or single-digit g-values | x1 | x2...
1 0 +7.527866465e+001 +3.594986646e+002 +3.594986646e+002 -1.7712e+000 +5.6080e-002 +1.7491e-001
2 0 +3.677842429e+001 +3.209984243e+002 +3.209984243e+002 -2.1020e+000 -1.2311e+000 -2.5254e+000
26 0 +3.533786196e+001 +3.195578620e+002 +3.195578620e+002 -1.0534e+000 -9.4942e-002 -1.8824e+000
33 0 +3.326066126e+001 +3.174806613e+002 +3.174806613e+002 -1.0386e-001 -5.5913e-001 -1.9840e+000
44 0 +1.836402838e+001 +3.025840284e+002 +3.025840284e+002 -1.1900e+000 -2.7780e-001 -1.2852e+000
65 0 +1.122074350e+001 +2.954407435e+002 +2.954407435e+002 -3.2437e+000 -2.8208e-001 -1.0371e+000
142 0 +9.679949955e+000 +2.938999500e+002 +2.938999500e+002 -2.1277e+000 -7.7232e-001 -1.3031e+000
176 0 +2.903748860e+000 +2.871237489e+002 +2.871237489e+002 -1.1030e+000 -1.9332e-001 -1.0176e+000
247 0 +1.637757725e+000 +2.858577577e+002 +2.858577577e+002 -1.1106e+000 -1.9546e-001 -1.0391e+000
356 0 +1.135457614e+000 +2.853554576e+002 +2.853554576e+002 -1.1040e+000 -2.1890e-001 -1.0430e+000
385 0 +1.057915240e+000 +2.852779152e+002 +2.852779152e+002 -1.0992e+000 -2.2017e-001 -1.0461e+000
430 0 +1.019143405e+000 +2.852391434e+002 +2.852391434e+002 -1.1047e+000 -2.1916e-001 -1.0484e+000
434 0 +9.992942464e-001 +2.852192942e+002 +2.852192942e+002 -1.1039e+000 -2.1866e-001 -1.0505e+000
1442 0 +5.612913256e-001 +2.847812913e+002 +2.847812913e+002 -2.1178e+000 -1.9917e-001 -1.0385e+000
1445 0 +1.090547229e-001 +2.843290547e+002 +2.843290547e+002 -2.1018e+000 -2.0811e-001 -1.0465e+000
1460 0 +2.524802834e-002 +2.842452480e+002 +2.842452480e+002 -2.0931e+000 -2.2094e-001 -1.0491e+000
1461 0 +1.982111157e-002 +2.842398211e+002 +2.842398211e+002 -2.0939e+000 -2.1399e-001 -1.0520e+000
1470 0 +1.600866800e-002 +2.842360087e+002 +2.842360087e+002 -2.0927e+000 -2.1512e-001 -1.0517e+000
1472 0 +1.051834812e-002 +2.842305183e+002 +2.842305183e+002 -2.1022e+000 -2.1799e-001 -1.0499e+000
1480 0 +9.716173044e-003 +2.842297162e+002 +2.842297162e+002 -2.0972e+000 -2.1838e-001 -1.0500e+000
1483 0 +1.393898660e-003 +2.842213939e+002 +2.842213939e+002 -2.0998e+000 -2.1772e-001 -1.0512e+000
1504 0 +4.235535673e-004 +2.842204236e+002 +2.842204236e+002 -2.0996e+000 -2.1770e-001 -1.0518e+000
1508 0 +3.257607364e-004 +2.842203258e+002 +2.842203258e+002 -2.0998e+000 -2.1805e-001 -1.0517e+000
1514 0 +3.183216165e-004 +2.842203183e+002 +2.842203183e+002 -2.0998e+000 -2.1808e-001 -1.0517e+000
1519 0 +1.401662090e-004 +2.842201402e+002 +2.842201402e+002 -2.1001e+000 -2.1831e-001 -1.0517e+000
1526 0 +8.665584721e-005 +2.842200867e+002 +2.842200867e+002 -2.1001e+000 -2.1843e-001 -1.0518e+000
1544 0 +8.206910479e-006 +2.842200082e+002 +2.842200082e+002 -2.1001e+000 -2.1834e-001 -1.0520e+000
1570 0 +7.324826470e-007 +2.842200007e+002 +2.842200007e+002 -2.1001e+000 -2.1839e-001 -1.0520e+000
1572 0 +1.628475275e-007 +2.842200002e+002 +2.842200002e+002 -2.1000e+000 -2.1839e-001 -1.0520e+000
1623 0 +8.769075066e-008 +2.842200001e+002 +2.842200001e+002 -2.1000e+000 -2.1840e-001 -1.0520e+000
1626 0 +4.718515356e-009 +2.842200000e+002 +2.842200000e+002 -2.1000e+000 -2.1840e-001 -1.0520e+000
1771 0 +0.000000000e+000 +2.842200000e+002 +2.842200000e+002 -2.1000e+000 -2.1840e-001 -1.0520e+000
% f evaluations | g evaluations | best noise-free fitness - Fopt (-3.217000000000e+001) + sum g_i+ | measured fitness | best measured fitness or single-digit g-values | x1 | x2...
1 0 +1.270329122e+002 +9.486291223e+001 +9.486291223e+001 -4.2555e+000 -2.3614e+000 +8.5063e-001
6 0 +1.020693643e+002 +6.989936430e+001 +6.989936430e+001 +4.0695e+000 +2.8279e+000 -1.9089e+000
8 0 +7.086489021e+001 +3.869489021e+001 +3.869489021e+001 +3.2692e+000 -1.5247e-001 -3.6110e-001
10 0 +5.637745959e+001 +2.420745959e+001 +2.420745959e+001 +1.7731e+000 -3.7521e-001 -3.5710e-001
27 0 +4.068754597e+001 +8.517545969e+000 +8.517545969e+000 -5.6633e-001 +8.9123e-001 +6.6279e-001
35 0 +3.784394927e+001 +5.673949269e+000 +5.673949269e+000 +2.5467e+000 +9.4030e-001 +9.0993e-001
38 0 +2.424763959e+001 -7.922360408e+000 -7.922360408e+000 +1.8409e+000 +2.8918e+000 +8.6173e-001
94 0 +2.268540923e+001 -9.484590774e+000 -9.484590774e+000 +1.1793e+000 +2.3708e+000 +9.0993e-001
109 0 +1.526858423e+001 -1.690141577e+001 -1.690141577e+001 +3.4911e+000 +3.6067e+000 +4.6254e-001
162 0 +1.253550035e+001 -1.963449965e+001 -1.963449965e+001 +3.5404e+000 +1.2413e+000 +1.8056e-001
342 0 +8.096632756e+000 -2.407336724e+001 -2.407336724e+001 +3.4918e+000 +1.2417e+000 +1.7072e-001
367 0 +7.663763771e+000 -2.450623623e+001 -2.450623623e+001 +3.4067e+000 +1.2618e+000 +1.6902e-001
402 0 +6.141159870e+000 -2.602884013e+001 -2.602884013e+001 +3.4413e+000 +1.2752e+000 +1.5608e-001
488 0 +5.969983979e+000 -2.620001602e+001 -2.620001602e+001 +3.4467e+000 +1.2580e+000 +1.5089e-001
580 0 +4.426921112e+000 -2.774307889e+001 -2.774307889e+001 +2.3956e+000 +1.2600e+000 +1.5091e-001
606 0 +3.184772633e+000 -2.898522737e+001 -2.898522737e+001 +2.4345e+000 +1.2753e+000 +1.4622e-001
633 0 +3.100908502e+000 -2.906909150e+001 -2.906909150e+001 +2.4345e+000 +1.2586e+000 +1.4622e-001
639 0 +2.988288738e+000 -2.918171126e+001 -2.918171126e+001 +2.4456e+000 +1.2596e+000 +1.5047e-001
720 0 +2.940982040e+000 -2.922901796e+001 -2.922901796e+001 +1.3694e+000 +1.2580e+000 +1.5093e-001
758 0 +2.836783214e+000 -2.933321679e+001 -2.933321679e+001 +1.5157e+000 +1.2577e+000 +1.4624e-001
768 0 +2.790930613e+000 -2.937906939e+001 -2.937906939e+001 +1.5163e+000 +1.2576e+000 +1.5083e-001
783 0 +2.592502900e+000 -2.957749710e+001 -2.957749710e+001 +1.4966e+000 +1.2570e+000 +1.5092e-001
791 0 +2.418813790e+000 -2.975118621e+001 -2.975118621e+001 +1.4910e+000 +1.2565e+000 +1.4987e-001
798 0 +2.002572069e+000 -3.016742793e+001 -3.016742793e+001 +1.4392e+000 +1.2567e+000 +1.4989e-001
856 0 +1.994763076e+000 -3.017523692e+001 -3.017523692e+001 +1.4420e+000 +1.2580e+000 +1.5125e-001
1425 0 +1.559165772e+000 -3.061083423e+001 -3.061083423e+001 +1.4143e+000 +1.2448e+000 +4.7391e-001
1452 0 +1.109280828e+000 -3.106071917e+001 -3.106071917e+001 +1.3988e+000 +1.8730e+000 +4.7826e-001
1458 0 +6.064612483e-001 -3.156353875e+001 -3.156353875e+001 +1.4097e+000 +1.8766e+000 +4.5829e-001
1533 0 +4.774429589e-001 -3.169255704e+001 -3.169255704e+001 +1.4009e+000 +1.8534e+000 +4.5754e-001
1572 0 +1.384859225e-001 -3.203151408e+001 -3.203151408e+001 +1.4286e+000 +1.8541e+000 +4.5460e-001
1585 0 +1.306383222e-001 -3.203936168e+001 -3.203936168e+001 +1.4330e+000 +1.8527e+000 +4.5348e-001
1597 0 +4.143617210e-002 -3.212856383e+001 -3.212856383e+001 +1.4602e+000 +1.8563e+000 +4.6133e-001
1601 0 +2.805205914e-002 -3.214194794e+001 -3.214194794e+001 +1.4510e+000 +1.8497e+000 +4.6270e-001
1611 0 +2.563606713e-003 -3.216743639e+001 -3.216743639e+001 +1.4497e+000 +1.8541e+000 +4.6138e-001
1615 0 +2.439332004e-003 -3.216756067e+001 -3.216756067e+001 +1.4495e+000 +1.8540e+000 +4.6143e-001
1622 0 +1.218144032e-003 -3.216878186e+001 -3.216878186e+001 +1.4470e+000 +1.8541e+000 +4.6160e-001
1641 0 +4.719061489e-004 -3.216952809e+001 -3.216952809e+001 +1.4468e+000 +1.8544e+000 +4.6129e-001
1649 0 +1.406986221e-004 -3.216985930e+001 -3.216985930e+001 +1.4468e+000 +1.8548e+000 +4.6080e-001
1668 0 +1.351740154e-004 -3.216986483e+001 -3.216986483e+001 +1.4457e+000 +1.8543e+000 +4.6066e-001
1678 0 +7.289667869e-005 -3.216992710e+001 -3.216992710e+001 +1.4465e+000 +1.8546e+000 +4.6064e-001
1680 0 +6.538752871e-005 -3.216993461e+001 -3.216993461e+001 +1.4463e+000 +1.8545e+000 +4.6063e-001
1696 0 +4.011898990e-005 -3.216995988e+001 -3.216995988e+001 +1.4467e+000 +1.8544e+000 +4.6069e-001
1705 0 +3.254933314e-005 -3.216996745e+001 -3.216996745e+001 +1.4467e+000 +1.8545e+000 +4.6071e-001
1706 0 +7.347411454e-006 -3.216999265e+001 -3.216999265e+001 +1.4464e+000 +1.8545e+000 +4.6080e-001
1738 0 +2.882006321e-006 -3.216999712e+001 -3.216999712e+001 +1.4463e+000 +1.8544e+000 +4.6079e-001
1739 0 +9.939341723e-007 -3.216999901e+001 -3.216999901e+001 +1.4464e+000 +1.8544e+000 +4.6081e-001
1754 0 +2.703602249e-007 -3.216999973e+001 -3.216999973e+001 +1.4464e+000 +1.8544e+000 +4.6080e-001
1755 0 +1.791506676e-007 -3.216999982e+001 -3.216999982e+001 +1.4464e+000 +1.8544e+000 +4.6080e-001
1784 0 +3.331585674e-009 -3.217000000e+001 -3.217000000e+001 +1.4464e+000 +1.8544e+000 +4.6080e-001
% f evaluations | g evaluations | best noise-free fitness - Fopt (-5.858000000000e+001) + sum g_i+ | measured fitness | best measured fitness or single-digit g-values | x1 | x2...
1 0 +4.311974778e+002 +3.726174778e+002 +3.726174778e+002 +2.9689e+000 +2.9623e+000 +3.9494e+000
3 0 +5.027874495e+001 -8.301255050e+000 -8.301255050e+000 +3.3308e+000 -2.1064e+000 +5.3694e-001
8 0 +3.995027029e+001 -1.862972971e+001 -1.862972971e+001 +6.9676e-001 -1.7987e+000 +1.2014e-001
12 0 +1.387932386e+001 -4.470067614e+001 -4.470067614e+001 +7.1077e-001 -2.6050e+000 +2.6934e-001
93 0 +9.353131954e+000 -4.922686805e+001 -4.922686805e+001 +1.6487e+000 -2.5490e+000 +3.2584e-001
96 0 +8.997587249e+000 -4.958241275e+001 -4.958241275e+001 +5.6615e-001 -2.5277e+000 +2.7121e-001
158 0 +8.624035521e+000 -4.995596448e+001 -4.995596448e+001 +6.9676e-001 -2.5176e+000 +2.7329e-001
245 0 +8.367208251e+000 -5.021279175e+001 -5.021279175e+001 +5.9339e-001 -2.5149e+000 +2.7378e-001
284 0 +8.187357573e+000 -5.039264243e+001 -5.039264243e+001 +6.6165e-001 -2.5023e+000 +2.9555e-001
288 0 +7.997506425e+000 -5.058249357e+001 -5.058249357e+001 +6.4922e-001 -2.5045e+000 +2.8259e-001
444 0 +7.216612719e+000 -5.136338728e+001 -5.136338728e+001 +1.5286e+000 -2.5108e+000 +2.6679e-001
449 0 +7.052456488e+000 -5.152754351e+001 -5.152754351e+001 +1.5315e+000 -2.5078e+000 +2.6701e-001
478 0 +6.588390468e+000 -5.199160953e+001 -5.199160953e+001 +1.5304e+000 -2.5102e+000 +2.8554e-001
489 0 +5.736735737e+000 -5.284326426e+001 -5.284326426e+001 +1.5505e+000 -2.5078e+000 +2.8425e-001
499 0 +5.024580323e+000 -5.355541968e+001 -5.355541968e+001 +1.5835e+000 -2.5080e+000 +2.8356e-001
500 0 +4.284233138e+000 -5.429576686e+001 -5.429576686e+001 +2.5537e+000 -2.5069e+000 +2.8483e-001
501 0 +4.060236559e+000 -5.451976344e+001 -5.451976344e+001 +2.5721e+000 -2.5031e+000 +2.8455e-001
585 0 +3.980902772e+000 -5.459909723e+001 -5.459909723e+001 +2.5890e+000 -2.5076e+000 +2.8492e-001
1211 0 +3.750397733e+000 -5.482960227e+001 -5.482960227e+001 +1.5968e+000 -2.4555e+000 +1.3420e+000
1297 0 +2.128773772e+000 -5.645122623e+001 -5.645122623e+001 +1.5566e+000 -2.5090e+000 +9.9241e-001
1299 0 +2.079255143e+000 -5.650074486e+001 -5.650074486e+001 +1.5937e+000 -2.5168e+000 +1.3423e+000
1303 0 +2.022256822e+000 -5.655774318e+001 -5.655774318e+001 +1.5951e+000 -2.5146e+000 +1.3358e+000
1431 0 +1.990195124e+000 -5.658980488e+001 -5.658980488e+001 +1.5937e+000 -2.5073e+000 +1.3345e+000
1491 0 +1.164841765e+000 -5.741515824e+001 -5.741515824e+001 +2.6179e+000 -2.5073e+000 +1.3312e+000
1507 0 +1.084972409e+000 -5.749502759e+001 -5.749502759e+001 +2.6065e+000 -2.4992e+000 +1.3319e+000
1539 0 +1.061422373e+000 -5.751857763e+001 -5.751857763e+001 +2.6071e+000 -2.5096e+000 +1.3293e+000
1542 0 +1.002733902e+000 -5.757726610e+001 -5.757726610e+001 +2.5878e+000 -2.5078e+000 +1.3304e+000
1572 0 +9.964989884e-001 -5.758350101e+001 -5.758350101e+001 +2.5878e+000 -2.5078e+000 +1.3335e+000
2908 0 +4.562636918e-002 -5.853437363e+001 -5.853437363e+001 +2.5904e+000 -2.5072e+000 +9.7799e-001
2924 0 +4.451898333e-002 -5.853548102e+001 -5.853548102e+001 +2.5904e+000 -2.5073e+000 +9.7780e-001
2930 0 +4.080566025e-002 -5.853919434e+001 -5.853919434e+001 +2.5904e+000 -2.5073e+000 +9.6867e-001
2932 0 +3.908703096e-002 -5.854091297e+001 -5.854091297e+001 +2.5904e+000 -2.5073e+000 +9.6875e-001
2963 0 +3.465841436e-002 -5.854534159e+001 -5.854534159e+001 +2.5905e+000 -2.5072e+000 +9.6896e-001
2977 0 +1.377054968e-002 -5.856622945e+001 -5.856622945e+001 +2.5905e+000 -2.5060e+000 +9.7018e-001
2996 0 +1.284563063e-002 -5.856715437e+001 -5.856715437e+001 +2.5904e+000 -2.5057e+000 +9.7029e-001
3001 0 +1.219674885e-002 -5.856780325e+001 -5.856780325e+001 +2.5902e+000 -2.5067e+000 +9.7562e-001
3011 0 +2.055517564e-003 -5.857794448e+001 -5.857794448e+001 +2.5902e+000 -2.5068e+000 +9.7379e-001
3015 0 +2.019130181e-003 -5.857798087e+001 -5.857798087e+001 +2.5904e+000 -2.5068e+000 +9.7379e-001
3033 0 +1.937788947e-003 -5.857806221e+001 -5.857806221e+001 +2.5904e+000 -2.5068e+000 +9.7377e-001
3037 0 +7.065669721e-004 -5.857929343e+001 -5.857929343e+001 +2.5904e+000 -2.5069e+000 +9.7338e-001
3042 0 +2.487803516e-004 -5.857975122e+001 -5.857975122e+001 +2.5904e+000 -2.5069e+000 +9.7311e-001
3054 0 +5.107010930e-005 -5.857994893e+001 -5.857994893e+001 +2.5905e+000 -2.5069e+000 +9.7275e-001
3061 0 +3.979492678e-005 -5.857996021e+001 -5.857996021e+001 +2.5905e+000 -2.5070e+000 +9.7273e-001
3062 0 +2.996448222e-005 -5.857997004e+001 -5.857997004e+001 +2.5905e+000 -2.5070e+000 +9.7279e-001
3145 0 +1.718189429e-005 -5.857998282e+001 -5.857998282e+001 +2.5906e+000 -2.5071e+000 +9.7277e-001
3184 0 +1.546154400e-005 -5.857998454e+001 -5.857998454e+001 +2.5906e+000 -2.5071e+000 +9.7276e-001
3200 0 +1.110881764e-005 -5.857998889e+001 -5.857998889e+001 +2.5905e+000 -2.5071e+000 +9.7280e-001
3218 0 +8.041663001e-006 -5.857999196e+001 -5.857999196e+001 +2.5904e+000 -2.5071e+000 +9.7284e-001
3224 0 +6.619360072e-006 -5.857999338e+001 -5.857999338e+001 +2.5905e+000 -2.5071e+000 +9.7280e-001
3232 0 +6.120955803e-006 -5.857999388e+001 -5.857999388e+001 +2.5904e+000 -2.5071e+000 +9.7284e-001
3239 0 +4.669807467e-006 -5.857999533e+001 -5.857999533e+001 +2.5904e+000 -2.5071e+000 +9.7283e-001
3245 0 +3.758117145e-006 -5.857999624e+001 -5.857999624e+001 +2.5905e+000 -2.5072e+000 +9.7279e-001
3248 0 +2.587445003e-006 -5.857999741e+001 -5.857999741e+001 +2.5905e+000 -2.5071e+000 +9.7281e-001
3249 0 +9.611491905e-007 -5.857999904e+001 -5.857999904e+001 +2.5904e+000 -2.5072e+000 +9.7279e-001
3250 0 +7.470352870e-007 -5.857999925e+001 -5.857999925e+001 +2.5904e+000 -2.5072e+000 +9.7281e-001
3263 0 +3.217542996e-007 -5.857999968e+001 -5.857999968e+001 +2.5904e+000 -2.5072e+000 +9.7280e-001
3275 0 +1.444253925e-007 -5.857999986e+001 -5.857999986e+001 +2.5904e+000 -2.5072e+000 +9.7280e-001
3280 0 +4.238202678e-009 -5.858000000e+001 -5.858000000e+001 +2.5904e+000 -2.5072e+000 +9.7280e-001
% f evaluations | g evaluations | best noise-free fitness - Fopt (-6.049200000000e+002) + sum g_i+ | measured fitness | best measured fitness or single-digit g-values | x1 | x2...
1 0 +1.166450556e+002 -4.882749444e+002 -4.882749444e+002 +1.7210e+000 +2.0426e+000 +7.5010e-001
3 0 +8.325323139e+001 -5.216667686e+002 -5.216667686e+002 +3.9520e+000 -1.5707e-001 +3.3131e+000
4 0 +2.539502516e+001 -5.795249748e+002 -5.795249748e+002 +1.6936e+000 -4.9456e-001 +2.0092e+000
21 0 +1.944547549e+001 -5.854745245e+002 -5.854745245e+002 -1.8200e+000 -1.5983e+000 +1.4525e+000
32 0 +1.828625917e+001 -5.866337408e+002 -5.866337408e+002 -1.8200e+000 -1.4979e+000 +1.3746e+000
43 0 +1.756011454e+001 -5.873598855e+002 -5.873598855e+002 -1.8533e+000 -1.5685e+000 +1.3309e+000
75 0 +9.448479123e+000 -5.954715209e+002 -5.954715209e+002 -9.5176e-002 -1.6001e+000 +1.7365e+000
177 0 +8.928940720e+000 -5.959910593e+002 -5.959910593e+002 -9.8784e-002 -1.6181e+000 +1.7429e+000
193 0 +5.117727027e+000 -5.998022730e+002 -5.998022730e+002 -8.8817e-001 -1.6043e+000 +1.7785e+000
245 0 +2.719966247e+000 -6.022000338e+002 -6.022000338e+002 -9.9422e-001 -1.5750e+000 +1.7521e+000
361 0 +2.128797979e+000 -6.027912020e+002 -6.027912020e+002 -9.8844e-001 -1.5910e+000 +1.7633e+000
406 0 +2.068222871e+000 -6.028517771e+002 -6.028517771e+002 -9.9612e-001 -1.6269e+000 +1.7645e+000
414 0 +2.000411858e+000 -6.029195881e+002 -6.029195881e+002 -1.0061e+000 -1.6106e+000 +1.7634e+000
445 0 +1.990302955e+000 -6.029296970e+002 -6.029296970e+002 -9.9855e-001 -1.6124e+000 +1.7637e+000
739 0 +9.950508442e-001 -6.039249492e+002 -6.039249492e+002 -9.9840e-001 -1.0148e+000 +1.7637e+000
5587 0 +2.217447439e-001 -6.046982553e+002 -6.046982553e+002 -1.0039e+000 -1.0119e+000 +2.0849e+000
5588 0 +1.797966567e-001 -6.047402033e+002 -6.047402033e+002 -9.9833e-001 -1.0125e+000 +2.0839e+000
5617 0 +4.495517557e-002 -6.048750448e+002 -6.048750448e+002 -1.0062e+000 -1.0183e+000 +2.0775e+000
5618 0 +6.565935325e-003 -6.049134341e+002 -6.049134341e+002 -1.0011e+000 -1.0160e+000 +2.0753e+000
5658 0 +5.723649238e-003 -6.049142764e+002 -6.049142764e+002 -1.0018e+000 -1.0158e+000 +2.0749e+000
5674 0 +4.593642792e-003 -6.049154064e+002 -6.049154064e+002 -9.9630e-001 -1.0173e+000 +2.0743e+000
5675 0 +9.189595029e-004 -6.049190810e+002 -6.049190810e+002 -9.9852e-001 -1.0154e+000 +2.0729e+000
5703 0 +1.799536730e-004 -6.049198200e+002 -6.049198200e+002 -9.9841e-001 -1.0154e+000 +2.0733e+000
5704 0 +5.435304388e-005 -6.049199456e+002 -6.049199456e+002 -9.9848e-001 -1.0153e+000 +2.0735e+000
5705 0 +1.193729292e-005 -6.049199881e+002 -6.049199881e+002 -9.9848e-001 -1.0153e+000 +2.0735e+000
5725 0 +1.168250242e-005 -6.049199883e+002 -6.049199883e+002 -9.9847e-001 -1.0153e+000 +2.0735e+000
5734 0 +6.436130093e-006 -6.049199936e+002 -6.049199936e+002 -9.9856e-001 -1.0152e+000 +2.0736e+000
5735 0 +3.703900802e-006 -6.049199963e+002 -6.049199963e+002 -9.9852e-001 -1.0152e+000 +2.0736e+000
5736 0 +3.602256356e-006 -6.049199964e+002 -6.049199964e+002 -9.9852e-001 -1.0152e+000 +2.0736e+000
5740 0 +2.781821422e-006 -6.049199972e+002 -6.049199972e+002 -9.9851e-001 -1.0152e+000 +2.0736e+000
5743 0 +1.647498948e-006 -6.049199984e+002 -6.049199984e+002 -9.9848e-001 -1.0152e+000 +2.0736e+000
5765 0 +1.177567697e-006 -6.049199988e+002 -6.049199988e+002 -9.9846e-001 -1.0152e+000 +2.0736e+000
5766 0 +1.495101287e-007 -6.049199999e+002 -6.049199999e+002 -9.9842e-001 -1.0152e+000 +2.0736e+000
5770 0 +7.482685760e-008 -6.049199999e+002 -6.049199999e+002 -9.9838e-001 -1.0152e+000 +2.0736e+000
5784 0 +5.139895620e-009 -6.049200000e+002 -6.049200000e+002 -9.9840e-001 -1.0152e+000 +2.0736e+000
% f evaluations | g evaluations | best noise-free fitness - Fopt (1.337000000000e+002) + sum g_i+ | measured fitness | best measured fitness or single-digit g-values | x1 | x2...
1 0 +6.583202103e+002 +7.920202103e+002 +7.920202103e+002 +2.5688e+000 -3.7674e+000 +3.7987e+000
2 0 +1.552205156e+002 +2.889205156e+002 +2.889205156e+002 -5.5824e-001 -1.4796e+000 +2.0226e+000
3 0 +8.892907985e+001 +2.226290798e+002 +2.226290798e+002 -3.7106e+000 +2.0454e+000 -2.2811e+000
4 0 +7.300658382e+001 +2.067065838e+002 +2.067065838e+002 +1.1400e+000 -2.0800e+000 -4.7298e-001
10 0 +5.287583073e+001 +1.865758307e+002 +1.865758307e+002 -7.5832e-001 -3.1937e-002 -1.5114e+000
16 0 +2.849685733e+001 +1.621968573e+002 +1.621968573e+002 +4.6426e-001 -6.5148e-002 -1.3813e+000
30 0 +2.159733138e+001 +1.552973314e+002 +1.552973314e+002 +1.5647e+000 +2.8489e-001 -1.2941e+000
63 0 +1.987262250e+001 +1.535726225e+002 +1.535726225e+002 +3.4780e+000 +1.3904e+000 -3.2388e-001
71 0 +1.599600191e+001 +1.496960019e+002 +1.496960019e+002 +4.4255e+000 -5.9305e-001 -6.7111e-001
151 0 +3.355525394e+000 +1.370555254e+002 +1.370555254e+002 +2.5409e+000 +3.5076e-001 -7.0351e-001
599 0 +2.168958818e+000 +1.358689588e+002 +1.358689588e+002 +2.5009e+000 +3.6310e-001 -6.9109e-001
621 0 +2.116415123e+000 +1.358164151e+002 +1.358164151e+002 +2.4705e+000 +3.7732e-001 -6.8575e-001
655 0 +1.993354280e+000 +1.356933543e+002 +1.356933543e+002 +2.4744e+000 +3.5922e-001 -6.8719e-001
1627 0 +1.313045767e+000 +1.350130458e+002 +1.350130458e+002 +2.4767e+000 +9.6236e-001 -3.8571e-002
1778 0 +9.970466560e-001 +1.346970467e+002 +1.346970467e+002 +2.4744e+000 +9.5477e-001 -1.9264e-002
2731 0 +8.722416574e-001 +1.345722417e+002 +1.345722417e+002 +2.4259e+000 +9.7805e-001 -3.8102e-001
2753 0 +4.778905857e-001 +1.341778906e+002 +1.341778906e+002 +2.4753e+000 +9.7927e-001 -3.7131e-001
2777 0 +2.125449451e-001 +1.339125449e+002 +1.339125449e+002 +2.4815e+000 +9.7112e-001 -3.8350e-001
2782 0 +9.163793721e-002 +1.337916379e+002 +1.337916379e+002 +2.4851e+000 +9.5722e-001 -3.7179e-001
2791 0 +6.091376467e-002 +1.337609138e+002 +1.337609138e+002 +2.4910e+000 +9.5624e-001 -3.7596e-001
2792 0 +2.573367388e-002 +1.337257337e+002 +1.337257337e+002 +2.4695e+000 +9.5074e-001 -3.7631e-001
2794 0 +1.707412279e-002 +1.337170741e+002 +1.337170741e+002 +2.4719e+000 +9.5111e-001 -3.7648e-001
2807 0 +8.443627087e-004 +1.337008444e+002 +1.337008444e+002 +2.4767e+000 +9.5473e-001 -3.7794e-001
2821 0 +5.445239005e-004 +1.337005445e+002 +1.337005445e+002 +2.4749e+000 +9.5532e-001 -3.7845e-001
2822 0 +3.367005081e-004 +1.337003367e+002 +1.337003367e+002 +2.4753e+000 +9.5515e-001 -3.7848e-001
2824 0 +1.945762653e-004 +1.337001946e+002 +1.337001946e+002 +2.4752e+000 +9.5494e-001 -3.7830e-001
2837 0 +9.641347268e-005 +1.337000964e+002 +1.337000964e+002 +2.4746e+000 +9.5440e-001 -3.7851e-001
2845 0 +5.399409909e-005 +1.337000540e+002 +1.337000540e+002 +2.4755e+000 +9.5422e-001 -3.7828e-001
2852 0 +2.894223911e-006 +1.337000029e+002 +1.337000029e+002 +2.4752e+000 +9.5445e-001 -3.7838e-001
2854 0 +2.482923207e-006 +1.337000025e+002 +1.337000025e+002 +2.4752e+000 +9.5443e-001 -3.7837e-001
2866 0 +1.599689199e-007 +1.337000002e+002 +1.337000002e+002 +2.4752e+000 +9.5441e-001 -3.7840e-001
2908 0 +5.376176659e-008 +1.337000001e+002 +1.337000001e+002 +2.4752e+000 +9.5440e-001 -3.7840e-001
2909 0 +4.850230084e-008 +1.337000000e+002 +1.337000000e+002 +2.4752e+000 +9.5439e-001 -3.7840e-001
2915 0 +2.088134465e-008 +1.337000000e+002 +1.337000000e+002 +2.4752e+000 +9.5440e-001 -3.7840e-001
2924 0 +6.455707080e-010 +1.337000000e+002 +1.337000000e+002 +2.4752e+000 +9.5440e-001 -3.7840e-001
3030 0 +0.000000000e+000 +1.337000000e+002 +1.337000000e+002 +2.4752e+000 +9.5440e-001 -3.7840e-001
% f evaluations | g evaluations | best noise-free fitness - Fopt (-2.098000000000e+001) + sum g_i+ | measured fitness | best measured fitness or single-digit g-values | x1 | x2...
1 0 +2.902932331e+002 +2.693132331e+002 +2.693132331e+002 +8.6649e-001 +9.8403e-001 +3.6478e+000
2 0 +1.857410113e+002 +1.647610113e+002 +1.647610113e+002 -4.2485e+000 -3.1455e+000 -2.3031e+000
3 0 +7.683454378e+001 +5.585454378e+001 +5.585454378e+001 -1.2690e+000 +4.3876e+000 +8.5862e-001
8 0 +2.834364830e+001 +7.363648303e+000 +7.363648303e+000 +5.0000e+000 +4.6491e-001 +3.2136e-001
38 0 +1.514476746e+001 -5.835232545e+000 -5.835232545e+000 +3.0912e+000 +3.0113e-001 +2.3196e-001
173 0 +1.400355550e+001 -6.976444499e+000 -6.976444499e+000 +3.0792e+000 +3.0250e-001 +2.3608e-001
279 0 +1.348296150e+001 -7.497038500e+000 -7.497038500e+000 +3.0860e+000 +3.0658e-001 +2.4095e-001
319 0 +1.194197469e+001 -9.038025305e+000 -9.038025305e+000 +3.0661e+000 +4.0041e-001 +2.9808e-001
357 0 +1.108547361e+001 -9.894526394e+000 -9.894526394e+000 +3.0960e+000 +3.8408e-001 +2.6473e-001
379 0 +1.003132845e+001 -1.094867155e+001 -1.094867155e+001 +3.0525e+000 +3.6743e-001 +2.7026e-001
404 0 +9.968465473e+000 -1.101153453e+001 -1.101153453e+001 +3.0540e+000 +3.7070e-001 +2.6638e-001
549 0 +2.148337348e+000 -1.883166265e+001 -1.883166265e+001 +3.0565e+000 +1.3461e+000 +2.6579e-001
651 0 +2.120363832e+000 -1.885963617e+001 -1.885963617e+001 +3.0515e+000 +1.3322e+000 +2.7112e-001
661 0 +1.996980347e+000 -1.898301965e+001 -1.898301965e+001 +3.0549e+000 +1.3240e+000 +2.6517e-001
690 0 +1.990889052e+000 -1.898911095e+001 -1.898911095e+001 +3.0577e+000 +1.3237e+000 +2.6466e-001
948 0 +1.008496233e+000 -1.997150377e+001 -1.997150377e+001 +3.0573e+000 +1.9237e+000 +2.6400e-001
1141 0 +9.949888561e-001 -1.998501114e+001 -1.998501114e+001 +3.0573e+000 +1.9194e+000 +2.6400e-001
3795 0 +4.158400926e-001 -2.056415991e+001 -2.056415991e+001 +2.0706e+000 +1.8988e+000 +2.7283e-001
3798 0 +3.572492766e-001 -2.062275072e+001 -2.062275072e+001 +2.0784e+000 +1.9031e+000 +2.7252e-001
3809 0 +3.464853360e-001 -2.063351466e+001 -2.063351466e+001 +2.0782e+000 +1.9031e+000 +2.7220e-001
3821 0 +2.548023057e-001 -2.072519769e+001 -2.072519769e+001 +2.0781e+000 +1.9024e+000 +2.6696e-001
3833 0 +2.158049013e-001 -2.076419510e+001 -2.076419510e+001 +2.0516e+000 +1.9015e+000 +2.6552e-001
3847 0 +2.118413347e-001 -2.076815867e+001 -2.076815867e+001 +2.0509e+000 +1.9024e+000 +2.6129e-001
3864 0 +1.689323273e-001 -2.081106767e+001 -2.081106767e+001 +2.0508e+000 +1.9039e+000 +2.6338e-001
3877 0 +8.843416874e-002 -2.089156583e+001 -2.089156583e+001 +2.0407e+000 +1.9192e+000 +2.6129e-001
3882 0 +3.187252804e-004 -2.097968127e+001 -2.097968127e+001 +2.0605e+000 +1.9197e+000 +2.6425e-001
3966 0 +5.356320515e-005 -2.097994644e+001 -2.097994644e+001 +2.0600e+000 +1.9194e+000 +2.6411e-001
3967 0 +1.947509237e-005 -2.097998052e+001 -2.097998052e+001 +2.0599e+000 +1.9193e+000 +2.6407e-001
3972 0 +8.839280575e-006 -2.097999116e+001 -2.097999116e+001 +2.0601e+000 +1.9192e+000 +2.6406e-001
3974 0 +1.609737215e-006 -2.097999839e+001 -2.097999839e+001 +2.0600e+000 +1.9192e+000 +2.6403e-001
4011 0 +2.632059797e-007 -2.097999974e+001 -2.097999974e+001 +2.0600e+000 +1.9192e+000 +2.6401e-001
4026 0 +1.232251066e-007 -2.097999988e+001 -2.097999988e+001 +2.0600e+000 +1.9192e+000 +2.6401e-001
4031 0 +1.043148679e-007 -2.097999990e+001 -2.097999990e+001 +2.0600e+000 +1.9192e+000 +2.6401e-001
4048 0 +9.786271704e-008 -2.097999990e+001 -2.097999990e+001 +2.0600e+000 +1.9192e+000 +2.6400e-001
4061 0 +3.653582326e-009 -2.098000000e+001 -2.098000000e+001 +2.0600e+000 +1.9192e+000 +2.6400e-001
% f evaluations | g evaluations | best noise-free fitness - Fopt (1.353300000000e+002) + sum g_i+ | measured fitness | best measured fitness or single-digit g-values | x1 | x2...
1 0 +7.691742147e+001 +2.122474215e+002 +2.122474215e+002 -8.8294e-001 -7.0507e-002 -1.2239e+000
13 0 +4.010578871e+001 +1.754357887e+002 +1.754357887e+002 +4.6172e+000 -9.3080e-001 +1.2758e+000
20 0 +3.979972952e+001 +1.751297295e+002 +1.751297295e+002 +8.6795e-001 -1.4500e+000 +2.1261e-001
22 0 +3.228109422e+001 +1.676110942e+002 +1.676110942e+002 +1.3747e+000 -1.5817e+000 +2.2000e-001
24 0 +2.475637258e+001 +1.600863726e+002 +1.600863726e+002 +7.3763e-001 -1.5291e+000 +2.3223e-001
39 0 +2.372345242e+001 +1.590534524e+002 +1.590534524e+002 +1.3199e+000 -7.3631e-001 +9.9422e-001
48 0 +1.252578303e+001 +1.478557830e+002 +1.478557830e+002 +1.4531e+000 -1.0775e+000 +1.3899e+000
71 0 +7.910037216e+000 +1.432400372e+002 +1.432400372e+002 +1.5331e+000 -1.0200e+000 +1.3406e+000
99 0 +7.259061773e+000 +1.425890618e+002 +1.425890618e+002 +1.5329e+000 -1.0210e+000 +9.9422e-001
335 0 +7.195654389e+000 +1.425256544e+002 +1.425256544e+002 +5.3079e-001 -1.0162e+000 +1.0001e+000
373 0 +6.699366810e+000 +1.420293668e+002 +1.420293668e+002 +5.6420e-001 -1.0781e+000 +1.0170e+000
378 0 +4.104732429e+000 +1.394347324e+002 +1.394347324e+002 +5.5968e-001 -1.0663e+000 +9.7903e-001
386 0 +4.023763499e+000 +1.393537635e+002 +1.393537635e+002 +5.3984e-001 -1.0633e+000 +9.7410e-001
457 0 +3.980507688e+000 +1.393105077e+002 +1.393105077e+002 +5.4477e-001 -1.0597e+000 +9.7677e-001
592 0 +3.238191308e+000 +1.385681913e+002 +1.385681913e+002 +1.5340e+000 -5.0725e-001 +9.8206e-001
631 0 +2.216412079e+000 +1.375464121e+002 +1.375464121e+002 +5.4480e-001 -5.0674e-001 +9.8210e-001
642 0 +2.170011530e+000 +1.375000115e+002 +1.375000115e+002 +5.4480e-001 -5.0674e-001 +9.7680e-001
646 0 +1.264353584e+000 +1.365943536e+002 +1.365943536e+002 +5.3573e-001 -5.4219e-001 +9.7682e-001
667 0 +1.046747920e+000 +1.363767479e+002 +1.363767479e+002 +5.3327e-001 -5.6373e-001 +9.7862e-001
770 0 +1.003453329e+000 +1.363334533e+002 +1.363334533e+002 +5.4935e-001 -5.7525e-001 +9.7628e-001
772 0 +9.980955171e-001 +1.363280955e+002 +1.363280955e+002 +5.4770e-001 -5.7368e-001 +9.7611e-001
4730 0 +5.273374839e-001 +1.358573375e+002 +1.358573375e+002 +5.7169e-001 +2.3135e-003 +9.8369e-001
4843 0 +5.111900776e-001 +1.358411901e+002 +1.358411901e+002 +5.7044e-001 -7.1153e-005 +9.7530e-001
4850 0 +3.992625214e-002 +1.353699263e+002 +1.353699263e+002 +5.4067e-001 +2.6391e-002 +9.8083e-001
4873 0 +2.193132126e-002 +1.353519313e+002 +1.353519313e+002 +5.3715e-001 +2.4129e-002 +9.7960e-001
4902 0 +4.593286062e-003 +1.353345933e+002 +1.353345933e+002 +5.4272e-001 +2.6390e-002 +9.7669e-001
4914 0 +3.507588513e-003 +1.353335076e+002 +1.353335076e+002 +5.4436e-001 +2.5085e-002 +9.7796e-001
4940 0 +8.269771384e-004 +1.353308270e+002 +1.353308270e+002 +5.4537e-001 +2.4382e-002 +9.7740e-001
4944 0 +6.093463881e-005 +1.353300609e+002 +1.353300609e+002 +5.4511e-001 +2.3924e-002 +9.7695e-001
4972 0 +4.910214491e-005 +1.353300491e+002 +1.353300491e+002 +5.4436e-001 +2.3954e-002 +9.7683e-001
4980 0 +4.093813772e-006 +1.353300041e+002 +1.353300041e+002 +5.4479e-001 +2.3921e-002 +9.7679e-001
4994 0 +3.961055114e-006 +1.353300040e+002 +1.353300040e+002 +5.4468e-001 +2.3970e-002 +9.7682e-001
5009 0 +1.847977643e-006 +1.353300018e+002 +1.353300018e+002 +5.4478e-001 +2.4049e-002 +9.7679e-001
5010 0 +2.850086105e-007 +1.353300003e+002 +1.353300003e+002 +5.4478e-001 +2.3983e-002 +9.7680e-001
5030 0 +1.775979115e-007 +1.353300002e+002 +1.353300002e+002 +5.4479e-001 +2.3984e-002 +9.7680e-001
5038 0 +2.239656283e-008 +1.353300000e+002 +1.353300000e+002 +5.4481e-001 +2.4003e-002 +9.7680e-001
5039 0 +2.097581842e-008 +1.353300000e+002 +1.353300000e+002 +5.4480e-001 +2.3998e-002 +9.7680e-001
5040 0 +6.382578022e-009 +1.353300000e+002 +1.353300000e+002 +5.4480e-001 +2.3999e-002 +9.7680e-001
5167 0 +0.000000000e+000 +1.353300000e+002 +1.353300000e+002 +5.4480e-001 +2.4000e-002 +9.7680e-001
% f evaluations | g evaluations | best noise-free fitness - Fopt (4.066000000000e+001) + sum g_i+ | measured fitness | best measured fitness or single-digit g-values | x1 | x2...
1 0 +6.771406081e+002 +7.178006081e+002 +7.178006081e+002 -1.2809e+000 -3.1350e+000 -3.8638e+000
3 0 +3.139340485e+001 +7.205340485e+001 +7.205340485e+001 +1.3619e+000 +2.0135e+000 +4.4934e+000
10 0 +2.725726236e+001 +6.791726236e+001 +6.791726236e+001 +2.7738e+000 +7.7930e-001 +4.0125e+000
12 0 +2.242653863e+001 +6.308653863e+001 +6.308653863e+001 +2.8870e+000 +7.3153e-001 +4.0347e+000
14 0 +2.107860805e+001 +6.173860805e+001 +6.173860805e+001 +3.1374e+000 +6.7687e-001 +4.0778e+000
20 0 +2.078163893e+001 +6.144163893e+001 +6.144163893e+001 +3.1918e+000 +5.2129e-001 +4.1936e+000
37 0 +1.310383835e+001 +5.376383835e+001 +5.376383835e+001 +1.1864e+000 +7.7646e-001 +3.8861e+000
64 0 +1.264331401e+001 +5.330331401e+001 +5.330331401e+001 +3.0399e+000 +7.4776e-001 +4.6975e+000
133 0 +9.056089489e+000 +4.971608949e+001 +4.971608949e+001 +5.0000e+000 +6.4353e-001 +3.9664e+000
154 0 +3.670649920e+000 +4.433064992e+001 +4.433064992e+001 +3.0399e+000 +6.4353e-001 +3.9664e+000
244 0 +3.350832026e+000 +4.401083203e+001 +4.401083203e+001 +3.0399e+000 +6.4157e-001 +3.9648e+000
267 0 +2.729346129e+000 +4.338934613e+001 +4.338934613e+001 +3.0318e+000 +6.3903e-001 +3.9598e+000
349 0 +1.148277257e+000 +4.180827726e+001 +4.180827726e+001 +3.0636e+000 +6.3655e-001 +3.9303e+000
403 0 +1.101812961e+000 +4.176181296e+001 +4.176181296e+001 +3.0352e+000 +6.6388e-001 +3.9232e+000
409 0 +1.050047517e+000 +4.171004752e+001 +4.171004752e+001 +3.0445e+000 +6.4766e-001 +3.9286e+000
410 0 +1.013219938e+000 +4.167321994e+001 +4.167321994e+001 +3.0469e+000 +6.5295e-001 +3.9265e+000
430 0 +9.970184631e-001 +4.165701846e+001 +4.165701846e+001 +3.0494e+000 +6.5182e-001 +3.9246e+000
2324 0 +1.671879461e-001 +4.082718795e+001 +4.082718795e+001 +3.0639e+000 +1.2330e+000 +3.9221e+000
2330 0 +1.389541737e-001 +4.079895417e+001 +4.079895417e+001 +3.0543e+000 +1.2329e+000 +3.9224e+000
2409 0 +1.343587235e-001 +4.079435872e+001 +4.079435872e+001 +3.0549e+000 +1.2331e+000 +3.9226e+000
2416 0 +1.100182113e-001 +4.077001821e+001 +4.077001821e+001 +3.0610e+000 +1.2350e+000 +3.9245e+000
2452 0 +7.571720835e-002 +4.073571721e+001 +4.073571721e+001 +3.0551e+000 +1.2360e+000 +3.9244e+000
2454 0 +5.312081225e-003 +4.066531208e+001 +4.066531208e+001 +3.0524e+000 +1.2452e+000 +3.9252e+000
2473 0 +5.057225823e-003 +4.066505723e+001 +4.066505723e+001 +3.0520e+000 +1.2471e+000 +3.9257e+000
2481 0 +2.902561472e-004 +4.066029026e+001 +4.066029026e+001 +3.0524e+000 +1.2473e+000 +3.9243e+000
2497 0 +9.547012660e-005 +4.066009547e+001 +4.066009547e+001 +3.0522e+000 +1.2473e+000 +3.9242e+000
2511 0 +1.266652068e-005 +4.066001267e+001 +4.066001267e+001 +3.0521e+000 +1.2473e+000 +3.9241e+000
2514 0 +4.735718242e-006 +4.066000474e+001 +4.066000474e+001 +3.0521e+000 +1.2472e+000 +3.9240e+000
2544 0 +2.389082049e-006 +4.066000239e+001 +4.066000239e+001 +3.0519e+000 +1.2472e+000 +3.9240e+000
2547 0 +1.132169899e-006 +4.066000113e+001 +4.066000113e+001 +3.0520e+000 +1.2472e+000 +3.9240e+000
2569 0 +5.791538555e-007 +4.066000058e+001 +4.066000058e+001 +3.0520e+000 +1.2472e+000 +3.9240e+000
2591 0 +5.164768595e-007 +4.066000052e+001 +4.066000052e+001 +3.0520e+000 +1.2472e+000 +3.9240e+000
2599 0 +6.050342449e-009 +4.066000001e+001 +4.066000001e+001 +3.0520e+000 +1.2472e+000 +3.9240e+000
