% f evaluations | g evaluations | best noise-free fitness - Fopt (-4.620900000000e+002) + sum g_i+ | measured fitness | best measured fitness or single-digit g-values | x1 | x2...
1 0 +6.732351876e+002 +2.111451876e+002 +2.111451876e+002 -5.0000e+000 -5.0000e+000 -5.0000e+000
3 0 +5.488224959e+002 +8.673249594e+001 +8.673249594e+001 -5.0000e+000 +5.0000e+000 -5.0000e+000
4 0 +3.654996574e+002 -9.659034264e+001 -9.659034264e+001 -5.0000e+000 -5.0000e+000 +5.0000e+000
5 0 +2.410869657e+002 -2.210030343e+002 -2.210030343e+002 -5.0000e+000 +5.0000e+000 +5.0000e+000
6 0 +1.977298284e+002 -2.643601716e+002 -2.643601716e+002 -3.5936e+000 +4.5877e+000 +4.8882e+000
8 0 +8.477623383e+001 -3.773137662e+002 -3.773137662e+002 -5.0000e+000 +1.5602e+000 +1.1806e-002
10 0 +6.004944362e+001 -4.020405564e+002 -4.020405564e+002 -8.3528e-001 +1.9087e+000 +1.3716e+000
12 0 +3.433873252e+001 -4.277512675e+002 -4.277512675e+002 -1.7838e+000 +1.8330e+000 +1.4627e+000
14 0 +3.317956849e+001 -4.289104315e+002 -4.289104315e+002 -1.5224e+000 +1.8394e+000 +1.4344e+000
16 0 +2.111109295e+001 -4.409789071e+002 -4.409789071e+002 -1.2543e+000 +1.7122e+000 +1.4446e+000
79 0 +2.055887244e+001 -4.415311276e+002 -4.415311276e+002 -1.4469e+000 +1.6656e+000 +1.2211e+000
96 0 +1.253281182e+001 -4.495571882e+002 -4.495571882e+002 -1.3644e+000 +1.6442e+000 +1.2483e+000
126 0 +1.155344740e+001 -4.505365526e+002 -4.505365526e+002 -1.3496e+000 +1.6862e+000 +1.2422e+000
170 0 +7.959022870e+000 -4.541309771e+002 -4.541309771e+002 -2.2953e+000 +1.7153e+000 +2.1484e+000
212 0 +3.091272280e+000 -4.589987277e+002 -4.589987277e+002 -2.2925e+000 +1.7190e+000 +2.1862e+000
241 0 +1.889851245e+000 -4.602001488e+002 -4.602001488e+002 -2.3019e+000 +1.7194e+000 +2.1970e+000
326 0 +1.836415648e+000 -4.602535844e+002 -4.602535844e+002 -2.3035e+000 +1.7120e+000 +2.1965e+000
332 0 +1.615116503e+000 -4.604748835e+002 -4.604748835e+002 -2.2983e+000 +1.7122e+000 +2.2022e+000
375 0 +1.356809758e+000 -4.607331902e+002 -4.607331902e+002 -2.3023e+000 +1.7181e+000 +2.2090e+000
458 0 +1.185054097e+000 -4.609049459e+002 -4.609049459e+002 -2.3647e+000 +1.7199e+000 +2.2121e+000
504 0 +1.093701321e+000 -4.609962987e+002 -4.609962987e+002 -2.3545e+000 +1.7183e+000 +2.2132e+000
518 0 +1.060065948e+000 -4.610299341e+002 -4.610299341e+002 -2.3525e+000 +1.7145e+000 +2.2119e+000
576 0 +1.043033935e+000 -4.610469661e+002 -4.610469661e+002 -2.3437e+000 +1.7060e+000 +2.2187e+000
581 0 +1.005282122e+000 -4.610847179e+002 -4.610847179e+002 -2.3467e+000 +1.7073e+000 +2.2134e+000
598 0 +9.984184147e-001 -4.610915816e+002 -4.610915816e+002 -2.3440e+000 +1.7040e+000 +2.2127e+000
2526 0 +7.311699751e-001 -4.613588300e+002 -4.613588300e+002 -2.3088e+000 +2.2802e+000 +2.2271e+000
2600 0 +3.925689896e-001 -4.616974310e+002 -4.616974310e+002 -2.3170e+000 +2.3038e+000 +2.2020e+000
2640 0 +1.803652036e-001 -4.619096348e+002 -4.619096348e+002 -2.3181e+000 +2.3012e+000 +2.2078e+000
2696 0 +9.787128490e-002 -4.619921287e+002 -4.619921287e+002 -2.3193e+000 +2.2982e+000 +2.2147e+000
2742 0 +5.594754170e-002 -4.620340525e+002 -4.620340525e+002 -2.3265e+000 +2.3044e+000 +2.2146e+000
2761 0 +1.317067718e-002 -4.620768293e+002 -4.620768293e+002 -2.3365e+000 +2.2970e+000 +2.2124e+000
2833 0 +9.991150069e-003 -4.620800088e+002 -4.620800088e+002 -2.3454e+000 +2.3004e+000 +2.2153e+000
2834 0 +5.377901576e-003 -4.620846221e+002 -4.620846221e+002 -2.3373e+000 +2.3007e+000 +2.2148e+000
2853 0 +3.862964401e-003 -4.620861370e+002 -4.620861370e+002 -2.3392e+000 +2.3014e+000 +2.2147e+000
2857 0 +2.113446876e-003 -4.620878866e+002 -4.620878866e+002 -2.3399e+000 +2.3002e+000 +2.2146e+000
2862 0 +1.277372355e-003 -4.620887226e+002 -4.620887226e+002 -2.3407e+000 +2.3010e+000 +2.2142e+000
2866 0 +1.152422663e-003 -4.620888476e+002 -4.620888476e+002 -2.3401e+000 +2.3007e+000 +2.2142e+000
2867 0 +7.622938863e-004 -4.620892377e+002 -4.620892377e+002 -2.3408e+000 +2.3004e+000 +2.2142e+000
2876 0 +6.011586838e-004 -4.620893988e+002 -4.620893988e+002 -2.3413e+000 +2.3004e+000 +2.2141e+000
2879 0 +4.690844579e-004 -4.620895309e+002 -4.620895309e+002 -2.3414e+000 +2.3007e+000 +2.2139e+000
2883 0 +2.459181387e-004 -4.620897541e+002 -4.620897541e+002 -2.3408e+000 +2.3001e+000 +2.2139e+000
2885 0 +2.224967657e-004 -4.620897775e+002 -4.620897775e+002 -2.3407e+000 +2.3003e+000 +2.2139e+000
2907 0 +2.058953974e-004 -4.620897941e+002 -4.620897941e+002 -2.3412e+000 +2.3001e+000 +2.2139e+000
2909 0 +1.550458084e-004 -4.620898450e+002 -4.620898450e+002 -2.3407e+000 +2.3001e+000 +2.2139e+000
2921 0 +1.473629613e-004 -4.620898526e+002 -4.620898526e+002 -2.3408e+000 +2.3000e+000 +2.2139e+000
2923 0 +7.101467440e-005 -4.620899290e+002 -4.620899290e+002 -2.3410e+000 +2.3001e+000 +2.2138e+000
2947 0 +2.981361706e-005 -4.620899702e+002 -4.620899702e+002 -2.3408e+000 +2.2998e+000 +2.2136e+000
2950 0 +2.723906454e-005 -4.620899728e+002 -4.620899728e+002 -2.3409e+000 +2.2998e+000 +2.2136e+000
2954 0 +5.610559981e-006 -4.620899944e+002 -4.620899944e+002 -2.3408e+000 +2.3001e+000 +2.2136e+000
2960 0 +5.021525965e-006 -4.620899950e+002 -4.620899950e+002 -2.3408e+000 +2.3001e+000 +2.2136e+000
2969 0 +1.768479251e-006 -4.620899982e+002 -4.620899982e+002 -2.3409e+000 +2.3000e+000 +2.2136e+000
2971 0 +1.666007620e-006 -4.620899983e+002 -4.620899983e+002 -2.3409e+000 +2.3000e+000 +2.2136e+000
2972 0 +1.268321626e-006 -4.620899987e+002 -4.620899987e+002 -2.3409e+000 +2.3000e+000 +2.2136e+000
2977 0 +8.717601077e-007 -4.620899991e+002 -4.620899991e+002 -2.3409e+000 +2.3000e+000 +2.2136e+000
2980 0 +4.655336170e-007 -4.620899995e+002 -4.620899995e+002 -2.3408e+000 +2.3000e+000 +2.2136e+000
2985 0 +2.455082608e-007 -4.620899998e+002 -4.620899998e+002 -2.3408e+000 +2.3000e+000 +2.2136e+000
2994 0 +1.239278049e-007 -4.620899999e+002 -4.620899999e+002 -2.3408e+000 +2.3000e+000 +2.2136e+000
2995 0 +1.169751727e-007 -4.620899999e+002 -4.620899999e+002 -2.3408e+000 +2.3000e+000 +2.2136e+000
2996 0 +3.458262654e-008 -4.620900000e+002 -4.620900000e+002 -2.3408e+000 +2.3000e+000 +2.2136e+000
3027 0 +2.491566420e-008 -4.620900000e+002 -4.620900000e+002 -2.3408e+000 +2.3000e+000 +2.2136e+000
3063 0 +5.153424354e-009 -4.620900000e+002 -4.620900000e+002 -2.3408e+000 +2.3000e+000 +2.2136e+000
% f evaluations | g evaluations | best noise-free fitness - Fopt (7.766000000000e+001) + sum g_i+ | measured fitness | best measured fitness or single-digit g-values | x1 | x2...
1 0 +2.677290419e+002 +3.453890419e+002 +3.453890419e+002 -5.0000e+000 -5.0000e+000 -5.0000e+000
2 0 +2.383601752e+002 +3.160201752e+002 +3.160201752e+002 +5.0000e+000 -5.0000e+000 -5.0000e+000
9 0 +1.804121604e+002 +2.580721604e+002 +2.580721604e+002 +3.6002e+000 -4.7451e-015 -5.0000e+000
10 0 +1.682184609e+002 +2.458784609e+002 +2.458784609e+002 +1.4603e-001 -1.4603e-001 -5.0000e+000
11 0 +3.132855337e+001 +1.089885534e+002 +1.089885534e+002 +2.1285e+000 -1.4879e+000 -1.1172e+000
34 0 +2.160836860e+001 +9.926836860e+001 +9.926836860e+001 +1.1163e+000 -8.3896e-001 -1.5647e+000
39 0 +9.210975336e+000 +8.687097534e+001 +8.687097534e+001 +1.4533e+000 -7.8997e-001 -1.9875e+000
143 0 +6.709941893e+000 +8.436994189e+001 +8.436994189e+001 +1.4344e+000 -8.1339e-001 -1.9436e+000
213 0 +2.756065952e+000 +8.041606595e+001 +8.041606595e+001 +1.3957e+000 -8.5291e-001 -1.5647e+000
292 0 +2.623862658e+000 +8.028386266e+001 +8.028386266e+001 +1.4071e+000 -8.7389e-001 -1.5691e+000
303 0 +2.258758104e+000 +7.991875810e+001 +7.991875810e+001 +1.3805e+000 -8.5291e-001 -1.5764e+000
364 0 +2.215159983e+000 +7.987515998e+001 +7.987515998e+001 +1.3798e+000 -8.5476e-001 -1.5851e+000
395 0 +2.022760138e+000 +7.968276014e+001 +7.968276014e+001 +1.4003e+000 -8.5922e-001 -1.5849e+000
473 0 +1.382185263e+000 +7.904218526e+001 +7.904218526e+001 +1.4055e+000 -8.5879e-001 -1.2564e+000
494 0 +1.206850281e+000 +7.886685028e+001 +7.886685028e+001 +1.4127e+000 -8.6050e-001 -1.2626e+000
538 0 +1.152316262e+000 +7.881231626e+001 +7.881231626e+001 +1.4125e+000 -8.6064e-001 -1.2644e+000
546 0 +9.992169910e-001 +7.865921699e+001 +7.865921699e+001 +1.4023e+000 -8.5812e-001 -1.2729e+000
2491 0 +2.130931046e-001 +7.787309310e+001 +7.787309310e+001 +2.3674e+000 -8.5939e-001 -1.2725e+000
2685 0 +2.055372578e-001 +7.786553726e+001 +7.786553726e+001 +2.3678e+000 -8.5947e-001 -1.2719e+000
2687 0 +1.962690771e-001 +7.785626908e+001 +7.785626908e+001 +2.4210e+000 -8.6787e-001 -1.2718e+000
2711 0 +6.252286317e-002 +7.772252286e+001 +7.772252286e+001 +2.3843e+000 -8.4961e-001 -1.2723e+000
2727 0 +4.274382487e-002 +7.770274382e+001 +7.770274382e+001 +2.3868e+000 -8.5059e-001 -1.2727e+000
2823 0 +3.667018479e-002 +7.769667018e+001 +7.769667018e+001 +2.3882e+000 -8.5011e-001 -1.2719e+000
2833 0 +2.696898156e-002 +7.768696898e+001 +7.768696898e+001 +2.3901e+000 -8.5092e-001 -1.2722e+000
2837 0 +4.954499196e-003 +7.766495450e+001 +7.766495450e+001 +2.3958e+000 -8.5850e-001 -1.2721e+000
2839 0 +1.738606545e-003 +7.766173861e+001 +7.766173861e+001 +2.4003e+000 -8.5467e-001 -1.2720e+000
2869 0 +9.257735724e-004 +7.766092577e+001 +7.766092577e+001 +2.3983e+000 -8.5719e-001 -1.2722e+000
2887 0 +9.018279054e-004 +7.766090183e+001 +7.766090183e+001 +2.3983e+000 -8.5717e-001 -1.2722e+000
2902 0 +8.665039668e-004 +7.766086650e+001 +7.766086650e+001 +2.3985e+000 -8.5513e-001 -1.2715e+000
2914 0 +2.424729488e-004 +7.766024247e+001 +7.766024247e+001 +2.3985e+000 -8.5655e-001 -1.2719e+000
2929 0 +2.339707437e-004 +7.766023397e+001 +7.766023397e+001 +2.3984e+000 -8.5654e-001 -1.2719e+000
2933 0 +6.258541903e-005 +7.766006259e+001 +7.766006259e+001 +2.3983e+000 -8.5597e-001 -1.2718e+000
2964 0 +4.621355136e-005 +7.766004621e+001 +7.766004621e+001 +2.3985e+000 -8.5584e-001 -1.2719e+000
2969 0 +2.964601012e-005 +7.766002965e+001 +7.766002965e+001 +2.3987e+000 -8.5595e-001 -1.2721e+000
2977 0 +2.334160733e-005 +7.766002334e+001 +7.766002334e+001 +2.3983e+000 -8.5603e-001 -1.2721e+000
2980 0 +2.196431274e-005 +7.766002196e+001 +7.766002196e+001 +2.3983e+000 -8.5604e-001 -1.2721e+000
2983 0 +1.948240103e-005 +7.766001948e+001 +7.766001948e+001 +2.3984e+000 -8.5603e-001 -1.2721e+000
2988 0 +3.988087940e-006 +7.766000399e+001 +7.766000399e+001 +2.3983e+000 -8.5596e-001 -1.2720e+000
3004 0 +2.299813644e-006 +7.766000230e+001 +7.766000230e+001 +2.3983e+000 -8.5598e-001 -1.2720e+000
3026 0 +4.118227537e-007 +7.766000041e+001 +7.766000041e+001 +2.3984e+000 -8.5599e-001 -1.2720e+000
3070 0 +1.711099031e-007 +7.766000017e+001 +7.766000017e+001 +2.3984e+000 -8.5599e-001 -1.2720e+000
3096 0 +1.628005606e-007 +7.766000016e+001 +7.766000016e+001 +2.3984e+000 -8.5599e-001 -1.2720e+000
3112 0 +3.441387264e-008 +7.766000003e+001 +7.766000003e+001 +2.3984e+000 -8.5600e-001 -1.2720e+000
3129 0 +1.179324727e-008 +7.766000001e+001 +7.766000001e+001 +2.3984e+000 -8.5600e-001 -1.2720e+000
3143 0 +9.652254107e-009 +7.766000001e+001 +7.766000001e+001 +2.3984e+000 -8.5600e-001 -1.2720e+000
% f evaluations | g evaluations | best noise-free fitness - Fopt (1.156800000000e+002) + sum g_i+ | measured fitness | best measured fitness or single-digit g-values | x1 | x2...
1 0 +1.245379248e+003 +1.361059248e+003 +1.361059248e+003 +5.0000e+000 +5.0000e+000 +5.0000e+000
2 0 +1.187427939e+003 +1.303107939e+003 +1.303107939e+003 -5.0000e+000 +5.0000e+000 +5.0000e+000
3 0 +1.009438074e+003 +1.125118074e+003 +1.125118074e+003 +5.0000e+000 -5.0000e+000 +5.0000e+000
4 0 +6.294748562e+002 +7.451548562e+002 +7.451548562e+002 +5.0000e+000 +5.0000e+000 -5.0000e+000
5 0 +3.355823732e+002 +4.512623732e+002 +4.512623732e+002 -5.0000e+000 -5.0000e+000 -5.0000e+000
6 0 +3.158780921e+002 +4.315580921e+002 +4.315580921e+002 -3.4967e+000 -3.4967e+000 -5.0000e+000
8 0 +2.052458048e+002 +3.209258048e+002 +3.209258048e+002 -5.0000e+000 -6.1491e-001 -3.8494e+000
10 0 +1.001720240e+002 +2.158520240e+002 +2.158520240e+002 -9.1852e-001 -5.0000e+000 -1.2092e+000
12 0 +6.760117105e+001 +1.832811711e+002 +1.832811711e+002 -3.7821e+000 -2.6088e+000 -1.4860e+000
20 0 +5.821707835e+001 +1.738970783e+002 +1.738970783e+002 -2.1312e+000 -2.2084e+000 -1.5378e+000
36 0 +3.562226325e+001 +1.513022632e+002 +1.513022632e+002 -3.4814e+000 -3.5451e-001 -4.9699e-001
37 0 +2.429395919e+001 +1.399739592e+002 +1.399739592e+002 -2.9979e+000 -3.7493e-001 -5.0361e-001
79 0 +1.784675819e+001 +1.335267582e+002 +1.335267582e+002 -2.0532e+000 -1.7361e+000 -4.6647e-001
82 0 +6.585897403e+000 +1.222658974e+002 +1.222658974e+002 -2.2066e+000 -1.5913e+000 -1.0777e-001
119 0 +3.560574942e+000 +1.192405749e+002 +1.192405749e+002 -2.0680e+000 -9.8447e-001 -6.6346e-002
261 0 +2.252584423e+000 +1.179325844e+002 +1.179325844e+002 -2.2107e+000 -9.4284e-001 +6.2547e-001
340 0 +2.175279525e+000 +1.178552795e+002 +1.178552795e+002 -2.2060e+000 -9.4295e-001 +6.2558e-001
379 0 +1.498924562e+000 +1.171789246e+002 +1.171789246e+002 -2.2228e+000 -9.7992e-001 +6.1641e-001
400 0 +1.368386932e+000 +1.170483869e+002 +1.170483869e+002 -2.2060e+000 -9.8457e-001 +6.2558e-001
496 0 +1.215214922e+000 +1.168952149e+002 +1.168952149e+002 -2.1865e+000 -9.9109e-001 +5.8871e-001
571 0 +1.120447077e+000 +1.168004471e+002 +1.168004471e+002 -2.1930e+000 -9.9453e-001 +6.0287e-001
576 0 +1.086818212e+000 +1.167668182e+002 +1.167668182e+002 -2.1865e+000 -9.9423e-001 +6.0165e-001
591 0 +1.015794441e+000 +1.166957944e+002 +1.166957944e+002 -2.1745e+000 -9.7774e-001 +6.0423e-001
618 0 +9.995359029e-001 +1.166795359e+002 +1.166795359e+002 -2.1751e+000 -9.8420e-001 +6.0380e-001
2121 0 +5.165750316e-001 +1.161965750e+002 +1.161965750e+002 -2.1744e+000 -9.7168e-001 +2.6206e-001
2195 0 +2.293224715e-001 +1.159093225e+002 +1.159093225e+002 -2.1673e+000 -9.6670e-001 +2.5114e-001
2209 0 +1.319895088e-001 +1.158119895e+002 +1.158119895e+002 -2.1837e+000 -9.7178e-001 +2.4012e-001
2240 0 +8.255540162e-002 +1.157625554e+002 +1.157625554e+002 -2.1839e+000 -9.7636e-001 +2.5055e-001
2241 0 +4.487388221e-002 +1.157248739e+002 +1.157248739e+002 -2.1824e+000 -9.7504e-001 +2.4547e-001
2259 0 +1.529289588e-002 +1.156952929e+002 +1.156952929e+002 -2.1762e+000 -9.7886e-001 +2.4400e-001
2274 0 +1.275769552e-002 +1.156927577e+002 +1.156927577e+002 -2.1750e+000 -9.7933e-001 +2.4404e-001
2297 0 +9.066174409e-003 +1.156890662e+002 +1.156890662e+002 -2.1755e+000 -9.7960e-001 +2.4449e-001
2321 0 +8.129911091e-003 +1.156881299e+002 +1.156881299e+002 -2.1745e+000 -9.8026e-001 +2.4434e-001
2393 0 +5.307865285e-003 +1.156853079e+002 +1.156853079e+002 -2.1763e+000 -9.8235e-001 +2.4639e-001
2394 0 +4.632372770e-003 +1.156846324e+002 +1.156846324e+002 -2.1767e+000 -9.8378e-001 +2.4639e-001
2403 0 +4.279997110e-003 +1.156842800e+002 +1.156842800e+002 -2.1759e+000 -9.8307e-001 +2.4612e-001
2408 0 +2.093483324e-003 +1.156820935e+002 +1.156820935e+002 -2.1773e+000 -9.8276e-001 +2.4575e-001
2412 0 +1.420056489e-003 +1.156814201e+002 +1.156814201e+002 -2.1776e+000 -9.8271e-001 +2.4562e-001
2413 0 +6.954706290e-004 +1.156806955e+002 +1.156806955e+002 -2.1777e+000 -9.8278e-001 +2.4435e-001
2431 0 +6.481071113e-004 +1.156806481e+002 +1.156806481e+002 -2.1777e+000 -9.8278e-001 +2.4437e-001
2448 0 +3.549690250e-004 +1.156803550e+002 +1.156803550e+002 -2.1779e+000 -9.8304e-001 +2.4517e-001
2458 0 +5.903816277e-005 +1.156800590e+002 +1.156800590e+002 -2.1782e+000 -9.8305e-001 +2.4494e-001
2493 0 +2.667581168e-005 +1.156800267e+002 +1.156800267e+002 -2.1784e+000 -9.8301e-001 +2.4481e-001
2495 0 +2.378818321e-005 +1.156800238e+002 +1.156800238e+002 -2.1784e+000 -9.8310e-001 +2.4471e-001
2499 0 +1.900249261e-005 +1.156800190e+002 +1.156800190e+002 -2.1784e+000 -9.8310e-001 +2.4472e-001
2515 0 +4.028118127e-006 +1.156800040e+002 +1.156800040e+002 -2.1783e+000 -9.8317e-001 +2.4482e-001
2532 0 +2.443270532e-006 +1.156800024e+002 +1.156800024e+002 -2.1783e+000 -9.8323e-001 +2.4481e-001
2558 0 +5.450280298e-007 +1.156800005e+002 +1.156800005e+002 -2.1784e+000 -9.8321e-001 +2.4481e-001
2566 0 +4.368620381e-007 +1.156800004e+002 +1.156800004e+002 -2.1784e+000 -9.8320e-001 +2.4481e-001
2568 0 +2.168419826e-007 +1.156800002e+002 +1.156800002e+002 -2.1784e+000 -9.8320e-001 +2.4481e-001
2579 0 +1.066896402e-007 +1.156800001e+002 +1.156800001e+002 -2.1784e+000 -9.8321e-001 +2.4479e-001
2597 0 +5.157021121e-008 +1.156800001e+002 +1.156800001e+002 -2.1784e+000 -9.8321e-001 +2.4480e-001
2631 0 +3.582056252e-008 +1.156800000e+002 +1.156800000e+002 -2.1784e+000 -9.8320e-001 +2.4480e-001
2648 0 +1.112094594e-008 +1.156800000e+002 +1.156800000e+002 -2.1784e+000 -9.8320e-001 +2.4480e-001
2666 0 +4.210363613e-009 +1.156800000e+002 +1.156800000e+002 -2.1784e+000 -9.8320e-001 +2.4480e-001
% f evaluations | g evaluations | best noise-free fitness - Fopt (-3.710000000000e+000) + sum g_i+ | measured fitness | best measured fitness or single-digit g-values | x1 | x2...
1 0 +8.662665326e+002 +8.625565326e+002 +8.625565326e+002 -5.0000e+000 +5.0000e+000 +5.0000e+000
2 0 +8.113080070e+002 +8.075980070e+002 +8.075980070e+002 +5.0000e+000 +5.0000e+000 +5.0000e+000
3 0 +3.286371526e+002 +3.249271526e+002 +3.249271526e+002 -5.0000e+000 -5.0000e+000 +5.0000e+000
5 0 +2.736786270e+002 +2.699686270e+002 +2.699686270e+002 +5.0000e+000 -5.0000e+000 +5.0000e+000
6 0 +2.495090017e+002 +2.457990017e+002 +2.457990017e+002 -3.8795e+000 -4.6713e+000 +4.6571e+000
8 0 +8.575698165e+001 +8.204698165e+001 +8.204698165e+001 +5.0000e+000 -5.0000e+000 +2.0263e-002
10 0 +4.161810761e+001 +3.790810761e+001 +3.790810761e+001 +6.5667e-001 -3.8378e+000 +8.3269e-001
29 0 +4.004434856e+001 +3.633434856e+001 +3.633434856e+001 -6.8232e-001 -3.3040e+000 +8.1924e-001
39 0 +3.534426158e+001 +3.163426158e+001 +3.163426158e+001 +2.1452e+000 -9.3859e-001 +2.7659e+000
51 0 +1.730155185e+001 +1.359155185e+001 +1.359155185e+001 +9.4201e-001 -2.2844e+000 +1.1587e+000
83 0 +7.317181393e+000 +3.607181393e+000 +3.607181393e+000 +4.1214e+000 -2.3857e+000 +2.1044e+000
174 0 +5.422934243e+000 +1.712934243e+000 +1.712934243e+000 +2.0408e+000 -2.3194e+000 +1.4855e+000
214 0 +4.878848023e+000 +1.168848023e+000 +1.168848023e+000 +3.1870e+000 -2.3319e+000 +1.7449e+000
219 0 +4.427907564e+000 +7.179075636e-001 +7.179075636e-001 +3.0992e+000 -2.3520e+000 +1.4494e+000
283 0 +4.095475992e+000 +3.854759923e-001 +3.854759923e-001 +2.9977e+000 -2.3293e+000 +1.7709e+000
294 0 +3.992959353e+000 +2.829593528e-001 +2.829593528e-001 +2.0995e+000 -2.9392e+000 +1.4763e+000
512 0 +3.455073640e+000 -2.549263603e-001 -2.549263603e-001 +2.1198e+000 -2.9288e+000 +1.4755e+000
604 0 +3.129939976e+000 -5.800600243e-001 -5.800600243e-001 +2.1091e+000 -2.9042e+000 +1.4714e+000
653 0 +3.085681298e+000 -6.243187023e-001 -6.243187023e-001 +2.1086e+000 -2.8854e+000 +1.4740e+000
658 0 +2.996547177e+000 -7.134528231e-001 -7.134528231e-001 +2.1255e+000 -2.8857e+000 +1.4740e+000
673 0 +2.797027560e+000 -9.129724400e-001 -9.129724400e-001 +2.1252e+000 -2.3293e+000 +1.4727e+000
674 0 +2.149885501e+000 -1.560114499e+000 -1.560114499e+000 +2.1063e+000 -2.3016e+000 +1.4757e+000
708 0 +2.111395062e+000 -1.598604938e+000 -1.598604938e+000 +2.1135e+000 -2.2997e+000 +1.4783e+000
767 0 +1.992147213e+000 -1.717852787e+000 -1.717852787e+000 +2.1232e+000 -2.2966e+000 +1.4740e+000
1746 0 +1.113121023e+000 -2.596878977e+000 -2.596878977e+000 +3.0976e+000 -2.8989e+000 +1.7820e+000
1849 0 +1.092919356e+000 -2.617080644e+000 -2.617080644e+000 +3.1025e+000 -2.9007e+000 +1.7852e+000
1899 0 +1.035883161e+000 -2.674116839e+000 -2.674116839e+000 +3.1230e+000 -2.8933e+000 +1.7792e+000
1910 0 +1.016165054e+000 -2.693834946e+000 -2.693834946e+000 +3.1223e+000 -2.8932e+000 +1.7802e+000
1999 0 +9.981416870e-001 -2.711858313e+000 -2.711858313e+000 +3.1205e+000 -2.8918e+000 +1.7846e+000
3446 0 +4.841627732e-001 -3.225837227e+000 -3.225837227e+000 +3.1200e+000 -2.2662e+000 +1.7832e+000
3488 0 +4.654915211e-001 -3.244508479e+000 -3.244508479e+000 +3.1343e+000 -2.2695e+000 +1.7844e+000
3657 0 +4.319457409e-001 -3.278054259e+000 -3.278054259e+000 +3.1238e+000 -2.2693e+000 +1.7823e+000
3673 0 +2.378209247e-002 -3.686217908e+000 -3.686217908e+000 +3.1252e+000 -2.2899e+000 +1.7820e+000
3697 0 +1.826039599e-002 -3.691739604e+000 -3.691739604e+000 +3.1200e+000 -2.2950e+000 +1.7802e+000
3698 0 +1.678624073e-002 -3.693213759e+000 -3.693213759e+000 +3.1204e+000 -2.2947e+000 +1.7803e+000
3739 0 +1.448454432e-002 -3.695515456e+000 -3.695515456e+000 +3.1125e+000 -2.2929e+000 +1.7840e+000
3752 0 +1.221163441e-002 -3.697788366e+000 -3.697788366e+000 +3.1164e+000 -2.2925e+000 +1.7816e+000
3771 0 +7.957103540e-003 -3.702042896e+000 -3.702042896e+000 +3.1160e+000 -2.2942e+000 +1.7847e+000
3787 0 +3.980579797e-003 -3.706019420e+000 -3.706019420e+000 +3.1215e+000 -2.2965e+000 +1.7843e+000
3806 0 +3.341264926e-003 -3.706658735e+000 -3.706658735e+000 +3.1199e+000 -2.2949e+000 +1.7847e+000
3821 0 +2.965353465e-003 -3.707034647e+000 -3.707034647e+000 +3.1191e+000 -2.2954e+000 +1.7844e+000
3822 0 +2.949133821e-003 -3.707050866e+000 -3.707050866e+000 +3.1192e+000 -2.2953e+000 +1.7844e+000
3824 0 +2.122993780e-003 -3.707877006e+000 -3.707877006e+000 +3.1197e+000 -2.2950e+000 +1.7842e+000
3825 0 +1.212505030e-003 -3.708787495e+000 -3.708787495e+000 +3.1196e+000 -2.2953e+000 +1.7840e+000
3831 0 +8.632134549e-004 -3.709136787e+000 -3.709136787e+000 +3.1185e+000 -2.2952e+000 +1.7837e+000
3833 0 +1.980678205e-004 -3.709801932e+000 -3.709801932e+000 +3.1200e+000 -2.2955e+000 +1.7835e+000
3835 0 +1.595649703e-004 -3.709840435e+000 -3.709840435e+000 +3.1207e+000 -2.2949e+000 +1.7832e+000
3851 0 +9.129307648e-005 -3.709908707e+000 -3.709908707e+000 +3.1203e+000 -2.2949e+000 +1.7833e+000
3859 0 +5.954776138e-005 -3.709940452e+000 -3.709940452e+000 +3.1205e+000 -2.2953e+000 +1.7833e+000
3865 0 +3.875775681e-005 -3.709961242e+000 -3.709961242e+000 +3.1203e+000 -2.2953e+000 +1.7833e+000
3895 0 +3.004073606e-005 -3.709969959e+000 -3.709969959e+000 +3.1200e+000 -2.2951e+000 +1.7833e+000
3899 0 +1.536996546e-005 -3.709984630e+000 -3.709984630e+000 +3.1199e+000 -2.2953e+000 +1.7832e+000
3901 0 +9.792400006e-006 -3.709990208e+000 -3.709990208e+000 +3.1201e+000 -2.2951e+000 +1.7832e+000
3921 0 +3.327030236e-006 -3.709996673e+000 -3.709996673e+000 +3.1199e+000 -2.2952e+000 +1.7832e+000
3930 0 +2.646693863e-006 -3.709997353e+000 -3.709997353e+000 +3.1201e+000 -2.2952e+000 +1.7832e+000
3933 0 +1.910927137e-006 -3.709998089e+000 -3.709998089e+000 +3.1201e+000 -2.2952e+000 +1.7832e+000
3938 0 +8.771460567e-007 -3.709999123e+000 -3.709999123e+000 +3.1200e+000 -2.2952e+000 +1.7832e+000
3939 0 +8.337692758e-007 -3.709999166e+000 -3.709999166e+000 +3.1200e+000 -2.2952e+000 +1.7832e+000
3944 0 +5.255541429e-007 -3.709999474e+000 -3.709999474e+000 +3.1200e+000 -2.2952e+000 +1.7832e+000
3961 0 +5.207031388e-007 -3.709999479e+000 -3.709999479e+000 +3.1200e+000 -2.2952e+000 +1.7832e+000
3963 0 +7.038877925e-008 -3.709999930e+000 -3.709999930e+000 +3.1200e+000 -2.2952e+000 +1.7832e+000
3994 0 +5.430232930e-008 -3.709999946e+000 -3.709999946e+000 +3.1200e+000 -2.2952e+000 +1.7832e+000
4006 0 +2.658236120e-008 -3.709999973e+000 -3.709999973e+000 +3.1200e+000 -2.2952e+000 +1.7832e+000
4017 0 +7.010334091e-009 -3.709999993e+000 -3.709999993e+000 +3.1200e+000 -2.2952e+000 +1.7832e+000
% f evaluations | g evaluations | best noise-free fitness - Fopt (1.321800000000e+002) + sum g_i+ | measured fitness | best measured fitness or single-digit g-values | x1 | x2...
1 0 +1.899250474e+002 +3.221050474e+002 +3.221050474e+002 +5.0000e+000 +5.0000e+000 +5.0000e+000
2 0 +1.152513015e+002 +2.474313015e+002 +2.474313015e+002 -5.0000e+000 +5.0000e+000 +5.0000e+000
9 0 +5.234137792e+001 +1.845213779e+002 +1.845213779e+002 -4.4474e-015 +9.2260e-001 +5.0000e+000
11 0 +2.294303175e+001 +1.551230318e+002 +1.551230318e+002 -2.4155e+000 +8.4952e-001 +3.4880e+000
15 0 +1.933843605e+001 +1.515184361e+002 +1.515184361e+002 -3.5327e+000 +7.7419e-001 +3.5196e+000
17 0 +1.834064087e+001 +1.505206409e+002 +1.505206409e+002 -4.7375e+000 +7.2684e-001 +3.7485e+000
33 0 +1.641633398e+001 +1.485963340e+002 +1.485963340e+002 -4.9744e+000 +8.4978e-001 +3.4486e+000
51 0 +1.108642895e+001 +1.432664290e+002 +1.432664290e+002 -4.7015e+000 +7.7508e-001 +3.7706e+000
79 0 +7.823673243e+000 +1.400036732e+002 +1.400036732e+002 -3.7794e+000 +8.2526e-001 +4.1384e+000
125 0 +7.348413967e+000 +1.395284140e+002 +1.395284140e+002 -3.7268e+000 +8.2683e-001 +4.1207e+000
162 0 +6.043814833e+000 +1.382238148e+002 +1.382238148e+002 -3.7221e+000 +8.3972e-001 +4.0875e+000
186 0 +5.392244907e+000 +1.375722449e+002 +1.375722449e+002 -4.7225e+000 +8.2352e-001 +3.8525e+000
256 0 +3.123567810e+000 +1.353035678e+002 +1.353035678e+002 -3.7232e+000 +8.3970e-001 +3.8371e+000
315 0 +2.631827184e+000 +1.348118272e+002 +1.348118272e+002 -3.7960e+000 +8.7117e-001 +3.8474e+000
349 0 +2.526165956e+000 +1.347061660e+002 +1.347061660e+002 -3.7977e+000 +8.5882e-001 +3.8319e+000
381 0 +2.412306611e+000 +1.345923066e+002 +1.345923066e+002 -3.7823e+000 +8.6672e-001 +3.8431e+000
385 0 +2.369180366e+000 +1.345491804e+002 +1.345491804e+002 -3.7834e+000 +8.6587e-001 +3.8403e+000
407 0 +2.235007867e+000 +1.344150079e+002 +1.344150079e+002 -3.7822e+000 +8.6777e-001 +3.8340e+000
431 0 +2.143079320e+000 +1.343230793e+002 +1.343230793e+002 -3.7868e+000 +8.7856e-001 +3.8149e+000
436 0 +2.039265127e+000 +1.342192651e+002 +1.342192651e+002 -3.7773e+000 +8.9088e-001 +3.8190e+000
488 0 +1.994513659e+000 +1.341745137e+002 +1.341745137e+002 -3.7668e+000 +8.8911e-001 +3.8238e+000
1723 0 +1.025828796e+000 +1.332058288e+002 +1.332058288e+002 -3.7612e+000 +1.4826e+000 +3.8299e+000
1875 0 +1.006828411e+000 +1.331868284e+002 +1.331868284e+002 -3.7602e+000 +1.4822e+000 +3.8266e+000
1945 0 +9.996430190e-001 +1.331796430e+002 +1.331796430e+002 -3.7645e+000 +1.4818e+000 +3.8254e+000
1982 0 +7.950878463e-001 +1.329750878e+002 +1.329750878e+002 -3.7749e+000 +1.4827e+000 +3.4834e+000
1985 0 +7.535522183e-001 +1.329335522e+002 +1.329335522e+002 -3.7704e+000 +1.4830e+000 +3.4832e+000
1988 0 +6.273836097e-001 +1.328073836e+002 +1.328073836e+002 -3.7313e+000 +1.4851e+000 +3.4789e+000
2006 0 +6.091939601e-001 +1.327891940e+002 +1.327891940e+002 -3.7316e+000 +1.4851e+000 +3.4784e+000
2036 0 +6.000663706e-001 +1.327800664e+002 +1.327800664e+002 -3.7329e+000 +1.4851e+000 +3.4783e+000
2041 0 +4.257582088e-001 +1.326057582e+002 +1.326057582e+002 -3.7279e+000 +1.4870e+000 +3.4726e+000
2045 0 +4.050390429e-001 +1.325850390e+002 +1.325850390e+002 -3.7239e+000 +1.4830e+000 +3.4697e+000
2049 0 +3.933851032e-001 +1.325733851e+002 +1.325733851e+002 -3.7238e+000 +1.4830e+000 +3.4693e+000
2051 0 +2.326182720e-001 +1.324126183e+002 +1.324126183e+002 -3.7658e+000 +1.4821e+000 +3.4735e+000
2065 0 +2.812299061e-002 +1.322081230e+002 +1.322081230e+002 -3.7650e+000 +1.4822e+000 +3.4655e+000
2067 0 +2.545838664e-002 +1.322054584e+002 +1.322054584e+002 -3.7650e+000 +1.4823e+000 +3.4653e+000
2076 0 +8.768451944e-003 +1.321887685e+002 +1.321887685e+002 -3.7699e+000 +1.4835e+000 +3.4623e+000
2085 0 +6.189595618e-003 +1.321861896e+002 +1.321861896e+002 -3.7661e+000 +1.4838e+000 +3.4633e+000
2103 0 +4.513228695e-003 +1.321845132e+002 +1.321845132e+002 -3.7673e+000 +1.4838e+000 +3.4608e+000
2144 0 +2.366028123e-003 +1.321823660e+002 +1.321823660e+002 -3.7662e+000 +1.4840e+000 +3.4619e+000
2153 0 +1.962259191e-003 +1.321819623e+002 +1.321819623e+002 -3.7660e+000 +1.4839e+000 +3.4617e+000
2167 0 +1.527772366e-003 +1.321815278e+002 +1.321815278e+002 -3.7653e+000 +1.4839e+000 +3.4614e+000
2207 0 +3.705668364e-004 +1.321803706e+002 +1.321803706e+002 -3.7636e+000 +1.4822e+000 +3.4620e+000
2211 0 +1.136641682e-004 +1.321801137e+002 +1.321801137e+002 -3.7640e+000 +1.4826e+000 +3.4618e+000
2222 0 +2.518562752e-006 +1.321800025e+002 +1.321800025e+002 -3.7640e+000 +1.4824e+000 +3.4616e+000
2238 0 +2.287925753e-006 +1.321800023e+002 +1.321800023e+002 -3.7641e+000 +1.4824e+000 +3.4616e+000
2282 0 +1.860848755e-006 +1.321800019e+002 +1.321800019e+002 -3.7640e+000 +1.4824e+000 +3.4616e+000
2288 0 +1.244967535e-006 +1.321800012e+002 +1.321800012e+002 -3.7641e+000 +1.4824e+000 +3.4616e+000
2297 0 +4.917957313e-007 +1.321800005e+002 +1.321800005e+002 -3.7640e+000 +1.4824e+000 +3.4616e+000
2317 0 +2.771182324e-007 +1.321800003e+002 +1.321800003e+002 -3.7640e+000 +1.4824e+000 +3.4616e+000
2321 0 +2.378621105e-007 +1.321800002e+002 +1.321800002e+002 -3.7640e+000 +1.4824e+000 +3.4616e+000
2362 0 +2.171188669e-007 +1.321800002e+002 +1.321800002e+002 -3.7640e+000 +1.4824e+000 +3.4616e+000
2386 0 +7.696087323e-008 +1.321800001e+002 +1.321800001e+002 -3.7640e+000 +1.4824e+000 +3.4616e+000
2391 0 +8.652023098e-009 +1.321800000e+002 +1.321800000e+002 -3.7640e+000 +1.4824e+000 +3.4616e+000
% f evaluations | g evaluations | best noise-free fitness - Fopt (-3.930000000000e+001) + sum g_i+ | measured fitness | best measured fitness or single-digit g-values | x1 | x2...
1 0 +5.459311023e+002 +5.066311023e+002 +5.066311023e+002 +5.0000e+000 +5.0000e+000 +5.0000e+000
2 0 +5.020290297e+002 +4.627290297e+002 +4.627290297e+002 -5.0000e+000 +5.0000e+000 +5.0000e+000
3 0 +2.778834680e+002 +2.385834680e+002 +2.385834680e+002 +5.0000e+000 -5.0000e+000 +5.0000e+000
5 0 +2.339813953e+002 +1.946813953e+002 +1.946813953e+002 -5.0000e+000 -5.0000e+000 +5.0000e+000
7 0 +2.212101295e+002 +1.819101295e+002 +1.819101295e+002 -4.2152e+000 -5.0000e+000 +5.0000e+000
8 0 +4.251194291e+001 +3.211942915e+000 +3.211942915e+000 -2.4418e-001 -3.4604e+000 +2.3127e+000
11 0 +3.595162564e+001 -3.348374356e+000 -3.348374356e+000 -2.7513e+000 -1.7168e+000 +1.5155e+000
19 0 +2.732918062e+001 -1.197081938e+001 -1.197081938e+001 -2.5472e+000 -2.3090e+000 +1.5176e+000
94 0 +2.417333138e+001 -1.512666862e+001 -1.512666862e+001 -1.5191e+000 -1.8462e+000 +1.8351e+000
111 0 +2.194888288e+001 -1.735111712e+001 -1.735111712e+001 -1.3514e+000 -1.8170e+000 +1.6067e+000
113 0 +1.383387090e+001 -2.546612910e+001 -2.546612910e+001 -4.6211e+000 -1.8310e+000 +1.9690e+000
129 0 +2.470767754e+000 -3.682923225e+001 -3.682923225e+001 -2.5412e+000 -1.7962e+000 +2.0113e+000
152 0 +2.452310684e+000 -3.684768932e+001 -3.684768932e+001 -2.5298e+000 -1.7970e+000 +2.0113e+000
269 0 +2.342050461e+000 -3.695794954e+001 -3.695794954e+001 -2.5390e+000 -1.7975e+000 +2.0138e+000
395 0 +2.274889979e+000 -3.702511002e+001 -3.702511002e+001 -2.5458e+000 -1.8018e+000 +2.0146e+000
453 0 +2.232729282e+000 -3.706727072e+001 -3.706727072e+001 -2.5343e+000 -1.8018e+000 +2.0151e+000
472 0 +2.100540468e+000 -3.719945953e+001 -3.719945953e+001 -2.5554e+000 -1.8202e+000 +2.0187e+000
485 0 +2.019414934e+000 -3.728058507e+001 -3.728058507e+001 -2.5316e+000 -1.8338e+000 +2.0187e+000
558 0 +1.991366097e+000 -3.730863390e+001 -3.730863390e+001 -2.5318e+000 -1.8241e+000 +2.0205e+000
1135 0 +1.706845408e+000 -3.759315459e+001 -3.759315459e+001 -2.4920e+000 -1.8375e+000 +2.3448e+000
1148 0 +1.665974339e+000 -3.763402566e+001 -3.763402566e+001 -2.4943e+000 -1.8443e+000 +2.3437e+000
1170 0 +1.444342919e+000 -3.785565708e+001 -3.785565708e+001 -2.5093e+000 -6.7071e-001 +2.3392e+000
1220 0 +1.074237370e+000 -3.822576263e+001 -3.822576263e+001 -2.5456e+000 -1.2672e+000 +2.3259e+000
1241 0 +6.019812454e-002 -3.923980188e+001 -3.923980188e+001 -2.5427e+000 -1.2342e+000 +2.3268e+000
1248 0 +5.042378665e-002 -3.924957621e+001 -3.924957621e+001 -2.5357e+000 -1.2335e+000 +2.3264e+000
1346 0 +1.165915110e-002 -3.928834085e+001 -3.928834085e+001 -2.5311e+000 -1.2283e+000 +2.3281e+000
1443 0 +4.734712633e-003 -3.929526529e+001 -3.929526529e+001 -2.5336e+000 -1.2285e+000 +2.3290e+000
1446 0 +1.304075465e-003 -3.929869592e+001 -3.929869592e+001 -2.5345e+000 -1.2289e+000 +2.3297e+000
1489 0 +1.044702203e-003 -3.929895530e+001 -3.929895530e+001 -2.5347e+000 -1.2290e+000 +2.3299e+000
1492 0 +9.523989250e-004 -3.929904760e+001 -3.929904760e+001 -2.5332e+000 -1.2289e+000 +2.3310e+000
1513 0 +8.566946620e-004 -3.929914331e+001 -3.929914331e+001 -2.5330e+000 -1.2287e+000 +2.3307e+000
1516 0 +7.835446127e-004 -3.929921646e+001 -3.929921646e+001 -2.5332e+000 -1.2292e+000 +2.3310e+000
1521 0 +2.904102480e-004 -3.929970959e+001 -3.929970959e+001 -2.5326e+000 -1.2294e+000 +2.3305e+000
1527 0 +1.090504108e-004 -3.929989095e+001 -3.929989095e+001 -2.5330e+000 -1.2296e+000 +2.3303e+000
1558 0 +1.046645008e-004 -3.929989534e+001 -3.929989534e+001 -2.5329e+000 -1.2297e+000 +2.3304e+000
1582 0 +8.778129425e-005 -3.929991222e+001 -3.929991222e+001 -2.5332e+000 -1.2294e+000 +2.3305e+000
1596 0 +6.400911658e-005 -3.929993599e+001 -3.929993599e+001 -2.5333e+000 -1.2294e+000 +2.3305e+000
1602 0 +4.579954047e-005 -3.929995420e+001 -3.929995420e+001 -2.5337e+000 -1.2294e+000 +2.3305e+000
1603 0 +2.142639359e-005 -3.929997857e+001 -3.929997857e+001 -2.5336e+000 -1.2295e+000 +2.3305e+000
1608 0 +1.013408267e-005 -3.929998987e+001 -3.929998987e+001 -2.5335e+000 -1.2295e+000 +2.3304e+000
1609 0 +7.511488242e-006 -3.929999249e+001 -3.929999249e+001 -2.5336e+000 -1.2295e+000 +2.3304e+000
1610 0 +7.359452226e-006 -3.929999264e+001 -3.929999264e+001 -2.5337e+000 -1.2296e+000 +2.3304e+000
1614 0 +5.700297180e-006 -3.929999430e+001 -3.929999430e+001 -2.5336e+000 -1.2295e+000 +2.3304e+000
1616 0 +2.080404947e-006 -3.929999792e+001 -3.929999792e+001 -2.5337e+000 -1.2296e+000 +2.3304e+000
1619 0 +1.359004450e-006 -3.929999864e+001 -3.929999864e+001 -2.5337e+000 -1.2296e+000 +2.3304e+000
1620 0 +1.135997032e-006 -3.929999886e+001 -3.929999886e+001 -2.5336e+000 -1.2296e+000 +2.3304e+000
1625 0 +9.106995833e-007 -3.929999909e+001 -3.929999909e+001 -2.5336e+000 -1.2296e+000 +2.3304e+000
1632 0 +1.545696335e-007 -3.929999985e+001 -3.929999985e+001 -2.5336e+000 -1.2296e+000 +2.3304e+000
1647 0 +1.152653866e-007 -3.929999988e+001 -3.929999988e+001 -2.5336e+000 -1.2296e+000 +2.3304e+000
1672 0 +1.076431886e-007 -3.929999989e+001 -3.929999989e+001 -2.5336e+000 -1.2296e+000 +2.3304e+000
1673 0 +2.604208049e-008 -3.929999997e+001 -3.929999997e+001 -2.5336e+000 -1.2296e+000 +2.3304e+000
1697 0 +1.469344113e-008 -3.929999999e+001 -3.929999999e+001 -2.5336e+000 -1.2296e+000 +2.3304e+000
1700 0 +7.461991913e-009 -3.929999999e+001 -3.929999999e+001 -2.5336e+000 -1.2296e+000 +2.3304e+000
% f evaluations | g evaluations | best noise-free fitness - Fopt (4.296000000000e+001) + sum g_i+ | measured fitness | best measured fitness or single-digit g-values | x1 | x2...
1 0 +6.820364823e+003 +6.863324823e+003 +6.863324823e+003 +5.0000e+000 -5.0000e+000 +5.0000e+000
3 0 +6.730736567e+003 +6.773696567e+003 +6.773696567e+003 +5.0000e+000 +5.0000e+000 +5.0000e+000
4 0 +2.174050017e+002 +2.603650017e+002 +2.603650017e+002 +5.0000e+000 -5.0000e+000 -5.0000e+000
5 0 +1.277767465e+002 +1.707367465e+002 +1.707367465e+002 +5.0000e+000 +5.0000e+000 -5.0000e+000
8 0 +1.169216049e+002 +1.598816049e+002 +1.598816049e+002 +2.0595e-003 +5.0000e+000 -5.0000e+000
9 0 +7.331084653e+001 +1.162708465e+002 +1.162708465e+002 +7.8019e-001 +3.4431e+000 -5.0000e+000
10 0 +5.996996351e+001 +1.029299635e+002 +1.029299635e+002 +7.2780e-001 +1.1459e+000 -4.3482e+000
11 0 +5.590984642e+001 +9.886984642e+001 +9.886984642e+001 +7.4353e-001 +1.8355e+000 -4.5439e+000
15 0 +4.660384332e+001 +8.956384332e+001 +8.956384332e+001 -1.1775e-001 +1.9311e+000 -3.6705e+000
20 0 +4.068060185e+001 +8.364060185e+001 +8.364060185e+001 +6.0585e-001 +1.8063e+000 -4.2853e+000
22 0 +3.836573873e+001 +8.132573873e+001 +8.132573873e+001 +5.7741e-001 +1.8031e+000 -4.2817e+000
54 0 +3.551216735e+001 +7.847216735e+001 +7.847216735e+001 -5.1172e-001 +1.6322e+000 -4.2223e+000
68 0 +2.363722952e+001 +6.659722952e+001 +6.659722952e+001 -2.5543e+000 +1.1633e+000 -3.4791e+000
114 0 +2.172043883e+001 +6.468043883e+001 +6.468043883e+001 -1.6607e+000 +1.1230e+000 -3.3958e+000
126 0 +1.810877626e+001 +6.106877626e+001 +6.106877626e+001 -1.5111e+000 +6.7475e-001 -3.4396e+000
136 0 +1.618310828e+001 +5.914310828e+001 +5.914310828e+001 +1.4701e+000 +1.5499e+000 -2.7627e+000
139 0 +1.155568766e+001 +5.451568766e+001 +5.451568766e+001 +2.4238e+000 +1.0921e+000 -2.8205e+000
140 0 +9.658345019e+000 +5.261834502e+001 +5.261834502e+001 +2.3755e+000 +1.6964e+000 -2.7776e+000
225 0 +2.130127031e+000 +4.509012703e+001 +4.509012703e+001 +2.5399e+000 +1.7086e+000 -2.7714e+000
513 0 +1.423706228e+000 +4.438370623e+001 +4.438370623e+001 +2.5117e+000 +1.7107e+000 -2.7699e+000
552 0 +1.178276578e+000 +4.413827658e+001 +4.413827658e+001 +2.5099e+000 +1.7201e+000 -2.7695e+000
600 0 +1.038007999e+000 +4.399800800e+001 +4.399800800e+001 +2.5067e+000 +1.7439e+000 -2.7723e+000
641 0 +1.002245316e+000 +4.396224532e+001 +4.396224532e+001 +2.5100e+000 +1.7347e+000 -2.7719e+000
646 0 +9.991054955e-001 +4.395910550e+001 +4.395910550e+001 +2.5112e+000 +1.7350e+000 -2.7713e+000
686 0 +3.034414868e-001 +4.326344149e+001 +4.326344149e+001 +1.5207e+000 +1.7462e+000 -2.7817e+000
696 0 +1.966484268e-001 +4.315664843e+001 +4.315664843e+001 +1.5169e+000 +1.7388e+000 -2.7807e+000
700 0 +1.728670044e-001 +4.313286700e+001 +4.313286700e+001 +1.5162e+000 +1.7395e+000 -2.7802e+000
701 0 +9.810536092e-003 +4.296981054e+001 +4.296981054e+001 +1.5174e+000 +1.7360e+000 -2.7719e+000
725 0 +6.167451322e-003 +4.296616745e+001 +4.296616745e+001 +1.5174e+000 +1.7360e+000 -2.7711e+000
767 0 +5.373888135e-003 +4.296537389e+001 +4.296537389e+001 +1.5176e+000 +1.7361e+000 -2.7706e+000
772 0 +2.707599885e-003 +4.296270760e+001 +4.296270760e+001 +1.5164e+000 +1.7364e+000 -2.7704e+000
795 0 +2.653716947e-003 +4.296265372e+001 +4.296265372e+001 +1.5164e+000 +1.7367e+000 -2.7704e+000
800 0 +1.608951578e-003 +4.296160895e+001 +4.296160895e+001 +1.5156e+000 +1.7365e+000 -2.7701e+000
813 0 +1.508776190e-003 +4.296150878e+001 +4.296150878e+001 +1.5154e+000 +1.7365e+000 -2.7701e+000
816 0 +1.160823449e-003 +4.296116082e+001 +4.296116082e+001 +1.5138e+000 +1.7357e+000 -2.7701e+000
818 0 +8.282644205e-004 +4.296082826e+001 +4.296082826e+001 +1.5141e+000 +1.7360e+000 -2.7701e+000
821 0 +6.008933770e-004 +4.296060089e+001 +4.296060089e+001 +1.5141e+000 +1.7363e+000 -2.7701e+000
824 0 +4.660651816e-004 +4.296046607e+001 +4.296046607e+001 +1.5141e+000 +1.7365e+000 -2.7701e+000
838 0 +4.350782993e-004 +4.296043508e+001 +4.296043508e+001 +1.5136e+000 +1.7362e+000 -2.7701e+000
854 0 +2.051293353e-004 +4.296020513e+001 +4.296020513e+001 +1.5121e+000 +1.7367e+000 -2.7701e+000
855 0 +1.293990711e-004 +4.296012940e+001 +4.296012940e+001 +1.5132e+000 +1.7369e+000 -2.7702e+000
878 0 +2.304148382e-005 +4.296002304e+001 +4.296002304e+001 +1.5130e+000 +1.7368e+000 -2.7703e+000
896 0 +2.251159533e-005 +4.296002251e+001 +4.296002251e+001 +1.5129e+000 +1.7368e+000 -2.7703e+000
909 0 +9.618999520e-006 +4.296000962e+001 +4.296000962e+001 +1.5129e+000 +1.7368e+000 -2.7703e+000
912 0 +8.630783775e-006 +4.296000863e+001 +4.296000863e+001 +1.5129e+000 +1.7368e+000 -2.7703e+000
935 0 +2.456462482e-006 +4.296000246e+001 +4.296000246e+001 +1.5127e+000 +1.7368e+000 -2.7704e+000
951 0 +2.333922723e-006 +4.296000233e+001 +4.296000233e+001 +1.5127e+000 +1.7368e+000 -2.7704e+000
964 0 +5.672453582e-007 +4.296000057e+001 +4.296000057e+001 +1.5128e+000 +1.7368e+000 -2.7704e+000
994 0 +1.164526822e-007 +4.296000012e+001 +4.296000012e+001 +1.5128e+000 +1.7368e+000 -2.7704e+000
1046 0 +5.856742291e-008 +4.296000006e+001 +4.296000006e+001 +1.5128e+000 +1.7368e+000 -2.7704e+000
1070 0 +5.232415390e-009 +4.296000001e+001 +4.296000001e+001 +1.5128e+000 +1.7368e+000 -2.7704e+000
% f evaluations | g evaluations | best noise-free fitness - Fopt (2.842200000000e+002) + sum g_i+ | measured fitness | best measured fitness or single-digit g-values | x1 | x2...
1 0 +2.379784255e+003 +2.664004255e+003 +2.664004255e+003 -5.0000e+000 -5.0000e+000 +5.0000e+000
4 0 +2.787624092e+002 +5.629824092e+002 +5.629824092e+002 -5.0000e+000 -5.0000e+000 -5.0000e+000
5 0 +1.223498335e+002 +4.065698335e+002 +4.065698335e+002 -5.0000e+000 -5.0000e+000 -8.7056e-001
7 0 +1.194980810e+002 +4.037180810e+002 +4.037180810e+002 -4.6223e+000 -4.5880e+000 -2.1792e+000
19 0 +6.525965721e+001 +3.494796572e+002 +3.494796572e+002 -2.9963e+000 -2.8266e+000 -1.5678e+000
21 0 +3.560813424e+001 +3.198281342e+002 +3.198281342e+002 -4.0551e+000 -2.3578e+000 -2.0125e+000
24 0 +3.527385519e+001 +3.194938552e+002 +3.194938552e+002 -3.9881e+000 -1.2702e+000 -2.5107e+000
33 0 +2.692017344e+001 +3.111401734e+002 +3.111401734e+002 -3.9887e+000 -8.4186e-001 -1.9413e+000
80 0 +2.598501471e+001 +3.102050147e+002 +3.102050147e+002 -1.6622e+000 -8.9350e-001 -1.7300e+000
113 0 +1.910800820e+001 +3.033280082e+002 +3.033280082e+002 -2.3784e+000 -8.9262e-001 -1.7296e+000
116 0 +7.724781837e+000 +2.919447818e+002 +2.919447818e+002 -2.0419e+000 -1.0718e-001 -1.0334e+000
118 0 +6.531858661e+000 +2.907518587e+002 +2.907518587e+002 -1.0432e+000 -2.4817e-001 -7.3524e-001
173 0 +6.231509919e+000 +2.904515099e+002 +2.904515099e+002 -1.0419e+000 -2.4161e-001 -7.3342e-001
212 0 +5.008538646e+000 +2.892285386e+002 +2.892285386e+002 -1.0602e+000 -2.2134e-001 -7.3743e-001
294 0 +3.774374717e+000 +2.879943747e+002 +2.879943747e+002 -1.0561e+000 -2.3659e-001 -6.7961e-001
377 0 +2.333539306e+000 +2.865535393e+002 +2.865535393e+002 -1.1091e+000 -2.1059e-001 -7.1215e-001
394 0 +2.195155653e+000 +2.864151557e+002 +2.864151557e+002 -1.0899e+000 -2.1539e-001 -1.3561e+000
419 0 +2.172458126e+000 +2.863924581e+002 +2.863924581e+002 -1.0915e+000 -2.1517e-001 -1.3560e+000
433 0 +2.125758184e+000 +2.863457582e+002 +2.863457582e+002 -1.0908e+000 -2.2626e-001 -1.3630e+000
473 0 +2.019016728e+000 +2.862390167e+002 +2.862390167e+002 -1.1043e+000 -2.2498e-001 -1.3627e+000
553 0 +1.712516810e+000 +2.859325168e+002 +2.859325168e+002 -1.1251e+000 -2.2029e-001 -1.0657e+000
566 0 +1.239318125e+000 +2.854593181e+002 +2.854593181e+002 -1.1045e+000 -2.1154e-001 -1.0628e+000
652 0 +1.226528693e+000 +2.854465287e+002 +2.854465287e+002 -1.1059e+000 -2.0921e-001 -1.0620e+000
690 0 +1.199551693e+000 +2.854195517e+002 +2.854195517e+002 -1.1035e+000 -2.2265e-001 -1.0623e+000
696 0 +1.174823802e+000 +2.853948238e+002 +2.853948238e+002 -1.1029e+000 -2.2239e-001 -1.0618e+000
703 0 +1.037192600e+000 +2.852571926e+002 +2.852571926e+002 -1.0981e+000 -2.2288e-001 -1.0491e+000
709 0 +1.010144819e+000 +2.852301448e+002 +2.852301448e+002 -1.1001e+000 -2.1667e-001 -1.0500e+000
734 0 +9.989880955e-001 +2.852189881e+002 +2.852189881e+002 -1.1016e+000 -2.1811e-001 -1.0506e+000
1690 0 +8.077487229e-001 +2.850277487e+002 +2.850277487e+002 -2.0927e+000 -2.1043e-001 -1.0303e+000
1746 0 +6.977951066e-001 +2.849177951e+002 +2.849177951e+002 -2.1455e+000 -2.1564e-001 -1.0400e+000
1765 0 +5.359173150e-001 +2.847559173e+002 +2.847559173e+002 -2.1503e+000 -2.1670e-001 -1.0545e+000
1766 0 +4.042915132e-001 +2.846242915e+002 +2.846242915e+002 -2.1162e+000 -2.3660e-001 -1.0430e+000
1767 0 +2.546741339e-001 +2.844746741e+002 +2.844746741e+002 -2.1097e+000 -2.3187e-001 -1.0437e+000
1772 0 +1.270087805e-001 +2.843470088e+002 +2.843470088e+002 -2.1129e+000 -2.2412e-001 -1.0581e+000
1799 0 +3.918721935e-002 +2.842591872e+002 +2.842591872e+002 -2.1094e+000 -2.2188e-001 -1.0548e+000
1820 0 +3.504304157e-002 +2.842550430e+002 +2.842550430e+002 -2.1104e+000 -2.2221e-001 -1.0536e+000
1849 0 +1.058823248e-002 +2.842305882e+002 +2.842305882e+002 -2.0992e+000 -2.1835e-001 -1.0498e+000
1850 0 +9.942215544e-003 +2.842299422e+002 +2.842299422e+002 -2.1052e+000 -2.1884e-001 -1.0534e+000
1858 0 +7.735122615e-003 +2.842277351e+002 +2.842277351e+002 -2.1039e+000 -2.1734e-001 -1.0505e+000
1874 0 +6.442606732e-003 +2.842264426e+002 +2.842264426e+002 -2.1036e+000 -2.1762e-001 -1.0506e+000
1880 0 +5.397902021e-003 +2.842253979e+002 +2.842253979e+002 -2.1018e+000 -2.1669e-001 -1.0533e+000
1891 0 +5.007275302e-003 +2.842250073e+002 +2.842250073e+002 -2.1020e+000 -2.1672e-001 -1.0532e+000
1895 0 +4.548897639e-003 +2.842245489e+002 +2.842245489e+002 -2.1013e+000 -2.1548e-001 -1.0519e+000
1911 0 +4.029685502e-003 +2.842240297e+002 +2.842240297e+002 -2.0978e+000 -2.1813e-001 -1.0508e+000
1916 0 +3.424161878e-003 +2.842234242e+002 +2.842234242e+002 -2.0988e+000 -2.1899e-001 -1.0507e+000
1920 0 +1.306387724e-003 +2.842213064e+002 +2.842213064e+002 -2.0986e+000 -2.1802e-001 -1.0513e+000
1932 0 +9.459197419e-004 +2.842209459e+002 +2.842209459e+002 -2.1002e+000 -2.1785e-001 -1.0514e+000
1938 0 +7.964922679e-004 +2.842207965e+002 +2.842207965e+002 -2.0994e+000 -2.1833e-001 -1.0514e+000
1940 0 +7.645217842e-004 +2.842207645e+002 +2.842207645e+002 -2.0997e+000 -2.1823e-001 -1.0514e+000
1941 0 +7.192822486e-004 +2.842207193e+002 +2.842207193e+002 -2.0999e+000 -2.1822e-001 -1.0514e+000
1947 0 +6.139420130e-004 +2.842206139e+002 +2.842206139e+002 -2.0999e+000 -2.1811e-001 -1.0514e+000
1951 0 +2.532139816e-004 +2.842202532e+002 +2.842202532e+002 -2.1000e+000 -2.1796e-001 -1.0517e+000
1962 0 +1.748053510e-004 +2.842201748e+002 +2.842201748e+002 -2.0995e+000 -2.1811e-001 -1.0518e+000
1964 0 +1.119150369e-004 +2.842201119e+002 +2.842201119e+002 -2.0999e+000 -2.1798e-001 -1.0520e+000
2010 0 +8.647334084e-006 +2.842200086e+002 +2.842200086e+002 -2.0999e+000 -2.1844e-001 -1.0519e+000
2019 0 +3.237896010e-006 +2.842200032e+002 +2.842200032e+002 -2.0999e+000 -2.1843e-001 -1.0520e+000
2025 0 +2.031922520e-006 +2.842200020e+002 +2.842200020e+002 -2.0999e+000 -2.1839e-001 -1.0520e+000
2027 0 +1.588129749e-006 +2.842200016e+002 +2.842200016e+002 -2.0999e+000 -2.1839e-001 -1.0520e+000
2031 0 +1.335088712e-006 +2.842200013e+002 +2.842200013e+002 -2.0999e+000 -2.1841e-001 -1.0520e+000
2035 0 +1.045513670e-006 +2.842200010e+002 +2.842200010e+002 -2.0999e+000 -2.1841e-001 -1.0520e+000
2040 0 +5.013652640e-007 +2.842200005e+002 +2.842200005e+002 -2.1000e+000 -2.1842e-001 -1.0520e+000
2049 0 +2.939713681e-007 +2.842200003e+002 +2.842200003e+002 -2.1000e+000 -2.1838e-001 -1.0520e+000
2057 0 +1.133664114e-007 +2.842200001e+002 +2.842200001e+002 -2.1000e+000 -2.1839e-001 -1.0520e+000
2072 0 +5.457212637e-008 +2.842200001e+002 +2.842200001e+002 -2.1000e+000 -2.1840e-001 -1.0520e+000
2085 0 +3.368728585e-008 +2.842200000e+002 +2.842200000e+002 -2.1000e+000 -2.1840e-001 -1.0520e+000
2127 0 +1.345517830e-008 +2.842200000e+002 +2.842200000e+002 -2.1000e+000 -2.1840e-001 -1.0520e+000
2132 0 +1.270660732e-008 +2.842200000e+002 +2.842200000e+002 -2.1000e+000 -2.1840e-001 -1.0520e+000
2154 0 +6.565414878e-009 +2.842200000e+002 +2.842200000e+002 -2.1000e+000 -2.1840e-001 -1.0520e+000
% f evaluations | g evaluations | best noise-free fitness - Fopt (-3.217000000000e+001) + sum g_i+ | measured fitness | best measured fitness or single-digit g-values | x1 | x2...
1 0 +8.547354184e+002 +8.225654184e+002 +8.225654184e+002 -5.0000e+000 +5.0000e+000 +5.0000e+000
2 0 +8.488219198e+002 +8.166519198e+002 +8.166519198e+002 +5.0000e+000 +5.0000e+000 +5.0000e+000
4 0 +3.920368534e+002 +3.598668534e+002 +3.598668534e+002 -5.0000e+000 +5.0000e+000 -5.0000e+000
5 0 +3.861233548e+002 +3.539533548e+002 +3.539533548e+002 +5.0000e+000 +5.0000e+000 -5.0000e+000
6 0 +1.129430561e+002 +8.077305608e+001 +8.077305608e+001 +5.0000e+000 +5.0000e+000 -3.3562e-001
7 0 +9.201212781e+001 +5.984212781e+001 +5.984212781e+001 +4.2031e+000 +5.0000e+000 -7.0734e-001
9 0 +7.985645389e+001 +4.768645389e+001 +4.768645389e+001 +1.8346e-001 +6.9326e-001 -1.1774e+000
15 0 +5.324832627e+001 +2.107832627e+001 +2.107832627e+001 +1.3572e+000 +1.3041e+000 -1.1750e+000
21 0 +4.128429059e+001 +9.114290594e+000 +9.114290594e+000 -7.6596e-001 +2.3478e+000 -9.6774e-001
23 0 +3.838371946e+001 +6.213719461e+000 +6.213719461e+000 -7.0402e-001 +2.4643e+000 -9.5759e-001
42 0 +3.456457836e+001 +2.394578359e+000 +2.394578359e+000 -1.4716e+000 +7.8733e-001 +6.8828e-001
48 0 +3.002105532e+001 -2.148944679e+000 -2.148944679e+000 -1.6419e+000 +3.2761e-001 -5.2554e-001
52 0 +1.998666175e+001 -1.218333825e+001 -1.218333825e+001 +1.2905e+000 +3.5764e+000 +3.9909e-001
65 0 +1.922825384e+001 -1.294174616e+001 -1.294174616e+001 +1.3026e+000 +3.6047e+000 +4.1038e-001
109 0 +1.440801395e+001 -1.776198605e+001 -1.776198605e+001 +1.5804e+000 +3.6063e+000 +8.3257e-001
175 0 +1.343115455e+001 -1.873884545e+001 -1.873884545e+001 +1.5844e+000 +3.5852e+000 +8.3225e-001
187 0 +5.709771837e+000 -2.646022816e+001 -2.646022816e+001 +1.4933e+000 +1.2492e+000 +7.6306e-001
282 0 +3.436606455e+000 -2.873339355e+001 -2.873339355e+001 +1.4734e+000 +1.9220e+000 +8.0268e-001
301 0 +3.116305759e+000 -2.905369424e+001 -2.905369424e+001 +1.4594e+000 +1.9229e+000 +8.2106e-001
396 0 +3.030543308e+000 -2.913945669e+001 -2.913945669e+001 +1.4592e+000 +1.9202e+000 +8.2155e-001
398 0 +1.179491528e+000 -3.099050847e+001 -3.099050847e+001 +1.4612e+000 +1.8607e+000 +8.3663e-001
481 0 +1.056836787e+000 -3.111316321e+001 -3.111316321e+001 +1.4629e+000 +1.8575e+000 +8.2515e-001
520 0 +1.043987341e+000 -3.112601266e+001 -3.112601266e+001 +1.4612e+000 +1.8565e+000 +8.2398e-001
550 0 +1.020967862e+000 -3.114903214e+001 -3.114903214e+001 +1.4435e+000 +1.8565e+000 +8.1563e-001
554 0 +9.986055851e-001 -3.117139441e+001 -3.117139441e+001 +1.4437e+000 +1.8557e+000 +8.2334e-001
1397 0 +2.813646454e-001 -3.188863535e+001 -3.188863535e+001 +1.4407e+000 +1.8444e+000 +4.4990e-001
1441 0 +4.257317011e-002 -3.212742683e+001 -3.212742683e+001 +1.4604e+000 +1.8524e+000 +4.6143e-001
1445 0 +4.072256629e-002 -3.212927743e+001 -3.212927743e+001 +1.4598e+000 +1.8521e+000 +4.6001e-001
1484 0 +2.907930938e-002 -3.214092069e+001 -3.214092069e+001 +1.4581e+000 +1.8531e+000 +4.6010e-001
1491 0 +2.854693532e-002 -3.214145306e+001 -3.214145306e+001 +1.4569e+000 +1.8579e+000 +4.6069e-001
1520 0 +1.844100900e-002 -3.215155899e+001 -3.215155899e+001 +1.4536e+000 +1.8515e+000 +4.6210e-001
1525 0 +1.782878257e-002 -3.215217122e+001 -3.215217122e+001 +1.4512e+000 +1.8523e+000 +4.6299e-001
1544 0 +1.598313055e-002 -3.215401687e+001 -3.215401687e+001 +1.4518e+000 +1.8512e+000 +4.6238e-001
1573 0 +1.455933379e-002 -3.215544067e+001 -3.215544067e+001 +1.4510e+000 +1.8509e+000 +4.6164e-001
1580 0 +1.350197014e-002 -3.215649803e+001 -3.215649803e+001 +1.4511e+000 +1.8514e+000 +4.6210e-001
1588 0 +6.564255799e-003 -3.216343574e+001 -3.216343574e+001 +1.4478e+000 +1.8570e+000 +4.6187e-001
1595 0 +5.445569767e-003 -3.216455443e+001 -3.216455443e+001 +1.4494e+000 +1.8565e+000 +4.6147e-001
1598 0 +4.549537536e-003 -3.216545046e+001 -3.216545046e+001 +1.4457e+000 +1.8543e+000 +4.6247e-001
1603 0 +3.651659766e-003 -3.216634834e+001 -3.216634834e+001 +1.4459e+000 +1.8541e+000 +4.6233e-001
1604 0 +1.383026962e-003 -3.216861697e+001 -3.216861697e+001 +1.4454e+000 +1.8532e+000 +4.6117e-001
1610 0 +1.362165598e-003 -3.216863783e+001 -3.216863783e+001 +1.4469e+000 +1.8543e+000 +4.6166e-001
1613 0 +1.088813299e-003 -3.216891119e+001 -3.216891119e+001 +1.4469e+000 +1.8542e+000 +4.6157e-001
1615 0 +6.698653023e-004 -3.216933013e+001 -3.216933013e+001 +1.4461e+000 +1.8547e+000 +4.6136e-001
1623 0 +5.802938925e-004 -3.216941971e+001 -3.216941971e+001 +1.4478e+000 +1.8549e+000 +4.6101e-001
1628 0 +1.433977735e-004 -3.216985660e+001 -3.216985660e+001 +1.4463e+000 +1.8547e+000 +4.6100e-001
1635 0 +9.419563556e-005 -3.216990580e+001 -3.216990580e+001 +1.4462e+000 +1.8546e+000 +4.6097e-001
1639 0 +1.605534761e-005 -3.216998394e+001 -3.216998394e+001 +1.4464e+000 +1.8545e+000 +4.6074e-001
1687 0 +7.865258354e-006 -3.216999213e+001 -3.216999213e+001 +1.4464e+000 +1.8545e+000 +4.6077e-001
1702 0 +5.536485205e-006 -3.216999446e+001 -3.216999446e+001 +1.4465e+000 +1.8545e+000 +4.6084e-001
1703 0 +4.202510496e-006 -3.216999580e+001 -3.216999580e+001 +1.4464e+000 +1.8545e+000 +4.6083e-001
1724 0 +3.682652363e-006 -3.216999632e+001 -3.216999632e+001 +1.4464e+000 +1.8544e+000 +4.6084e-001
1729 0 +3.015803117e-006 -3.216999698e+001 -3.216999698e+001 +1.4464e+000 +1.8544e+000 +4.6084e-001
1733 0 +1.004721852e-007 -3.216999990e+001 -3.216999990e+001 +1.4464e+000 +1.8544e+000 +4.6080e-001
1735 0 +2.383160336e-008 -3.216999998e+001 -3.216999998e+001 +1.4464e+000 +1.8544e+000 +4.6080e-001
1788 0 +2.094528639e-008 -3.216999998e+001 -3.216999998e+001 +1.4464e+000 +1.8544e+000 +4.6080e-001
1794 0 +1.519909887e-008 -3.216999998e+001 -3.216999998e+001 +1.4464e+000 +1.8544e+000 +4.6080e-001
1798 0 +1.349818035e-008 -3.216999999e+001 -3.216999999e+001 +1.4464e+000 +1.8544e+000 +4.6080e-001
1814 0 +1.340460187e-009 -3.217000000e+001 -3.217000000e+001 +1.4464e+000 +1.8544e+000 +4.6080e-001
% f evaluations | g evaluations | best noise-free fitness - Fopt (-5.858000000000e+001) + sum g_i+ | measured fitness | best measured fitness or single-digit g-values | x1 | x2...
1 0 +5.607487353e+002 +5.021687353e+002 +5.021687353e+002 +5.0000e+000 -5.0000e+000 +5.0000e+000
4 0 +3.795041600e+002 +3.209241600e+002 +3.209241600e+002 +5.0000e+000 -5.0000e+000 -5.0000e+000
5 0 +8.103101070e+001 +2.245101070e+001 +2.245101070e+001 -2.4910e+000 -5.0000e+000 +2.4910e+000
9 0 +5.519701338e+001 -3.382986624e+000 -3.382986624e+000 -1.3286e+000 -4.6651e+000 +7.8048e-001
28 0 +5.125039700e+001 -7.329603001e+000 -7.329603001e+000 +2.4579e+000 -2.8297e+000 -2.7431e-001
47 0 +3.136441001e+001 -2.721558999e+001 -2.721558999e+001 +1.7303e+000 -2.5737e+000 +4.8929e-001
53 0 +2.753873752e+001 -3.104126248e+001 -3.104126248e+001 +1.5586e+000 -2.5737e+000 +9.6593e-002
76 0 +2.681250210e+001 -3.176749790e+001 -3.176749790e+001 +2.3957e+000 -1.9616e+000 +1.8244e-001
87 0 +1.795089440e+001 -4.062910560e+001 -4.062910560e+001 +2.5135e+000 -2.5157e+000 +5.6262e-001
91 0 +1.711371287e+001 -4.146628713e+001 -4.146628713e+001 +1.7276e+000 -3.0703e+000 +1.9088e-002
97 0 +1.185072291e+001 -4.672927709e+001 -4.672927709e+001 -5.3231e-001 -2.5414e+000 +9.9584e-001
144 0 +9.852210192e+000 -4.872778981e+001 -4.872778981e+001 +1.6309e+000 -2.4338e+000 +1.0458e+000
279 0 +3.637506839e+000 -5.494249316e+001 -5.494249316e+001 +1.5726e+000 -2.4335e+000 +9.7974e-001
358 0 +3.587332810e+000 -5.499266719e+001 -5.499266719e+001 +1.5669e+000 -2.4381e+000 +9.8336e-001
391 0 +2.502672056e+000 -5.607732794e+001 -5.607732794e+001 +1.5721e+000 -3.0703e+000 +9.7530e-001
489 0 +2.407126245e+000 -5.617287375e+001 -5.617287375e+001 +1.5726e+000 -3.0758e+000 +9.6992e-001
510 0 +2.091609004e+000 -5.648839100e+001 -5.648839100e+001 +1.5939e+000 -3.0880e+000 +9.6899e-001
567 0 +2.000444011e+000 -5.657955599e+001 -5.657955599e+001 +2.6215e+000 -3.1306e+000 +9.9267e-001
601 0 +1.177348699e+000 -5.740265130e+001 -5.740265130e+001 +2.5848e+000 -3.1138e+000 +9.8187e-001
613 0 +7.599210135e-001 -5.782007899e+001 -5.782007899e+001 +2.5300e+000 -2.4937e+000 +9.7227e-001
634 0 +5.140149403e-002 -5.852859851e+001 -5.852859851e+001 +2.5767e+000 -2.5029e+000 +9.7305e-001
808 0 +2.753322305e-002 -5.855246678e+001 -5.855246678e+001 +2.5838e+000 -2.5011e+000 +9.7325e-001
809 0 +1.994983467e-002 -5.856005017e+001 -5.856005017e+001 +2.5933e+000 -2.5123e+000 +9.7264e-001
846 0 +1.746987524e-002 -5.856253012e+001 -5.856253012e+001 +2.5931e+000 -2.5118e+000 +9.7252e-001
863 0 +1.559609670e-002 -5.856440390e+001 -5.856440390e+001 +2.5939e+000 -2.5114e+000 +9.7247e-001
870 0 +7.248003192e-003 -5.857275200e+001 -5.857275200e+001 +2.5916e+000 -2.5104e+000 +9.7324e-001
873 0 +5.880925098e-003 -5.857411907e+001 -5.857411907e+001 +2.5863e+000 -2.5056e+000 +9.7337e-001
897 0 +3.470534209e-003 -5.857652947e+001 -5.857652947e+001 +2.5922e+000 -2.5091e+000 +9.7226e-001
921 0 +1.648891334e-003 -5.857835111e+001 -5.857835111e+001 +2.5921e+000 -2.5069e+000 +9.7358e-001
927 0 +1.294766812e-003 -5.857870523e+001 -5.857870523e+001 +2.5922e+000 -2.5065e+000 +9.7330e-001
946 0 +7.173448241e-004 -5.857928266e+001 -5.857928266e+001 +2.5909e+000 -2.5070e+000 +9.7339e-001
948 0 +6.730407206e-004 -5.857932696e+001 -5.857932696e+001 +2.5909e+000 -2.5071e+000 +9.7337e-001
960 0 +4.802560316e-005 -5.857995197e+001 -5.857995197e+001 +2.5904e+000 -2.5070e+000 +9.7294e-001
961 0 +4.383543507e-005 -5.857995616e+001 -5.857995616e+001 +2.5906e+000 -2.5071e+000 +9.7294e-001
962 0 +4.085898371e-005 -5.857995914e+001 -5.857995914e+001 +2.5905e+000 -2.5071e+000 +9.7294e-001
964 0 +2.280189148e-005 -5.857997720e+001 -5.857997720e+001 +2.5905e+000 -2.5071e+000 +9.7289e-001
967 0 +5.295467389e-006 -5.857999470e+001 -5.857999470e+001 +2.5904e+000 -2.5072e+000 +9.7285e-001
985 0 +4.857965671e-006 -5.857999514e+001 -5.857999514e+001 +2.5905e+000 -2.5071e+000 +9.7282e-001
987 0 +3.222520391e-006 -5.857999678e+001 -5.857999678e+001 +2.5903e+000 -2.5072e+000 +9.7282e-001
1005 0 +1.883627711e-006 -5.857999812e+001 -5.857999812e+001 +2.5903e+000 -2.5072e+000 +9.7280e-001
1028 0 +1.846192873e-006 -5.857999815e+001 -5.857999815e+001 +2.5903e+000 -2.5072e+000 +9.7280e-001
1029 0 +1.702577542e-006 -5.857999830e+001 -5.857999830e+001 +2.5903e+000 -2.5072e+000 +9.7280e-001
1035 0 +1.418959492e-006 -5.857999858e+001 -5.857999858e+001 +2.5903e+000 -2.5072e+000 +9.7280e-001
1040 0 +2.143397566e-007 -5.857999979e+001 -5.857999979e+001 +2.5904e+000 -2.5072e+000 +9.7279e-001
1075 0 +3.626088585e-008 -5.857999996e+001 -5.857999996e+001 +2.5904e+000 -2.5072e+000 +9.7280e-001
1083 0 +2.984946690e-008 -5.857999997e+001 -5.857999997e+001 +2.5904e+000 -2.5072e+000 +9.7280e-001
1085 0 +1.953804230e-008 -5.857999998e+001 -5.857999998e+001 +2.5904e+000 -2.5072e+000 +9.7280e-001
1097 0 +7.864173313e-009 -5.857999999e+001 -5.857999999e+001 +2.5904e+000 -2.5072e+000 +9.7280e-001
% f evaluations | g evaluations | best noise-free fitness - Fopt (-6.049200000000e+002) + sum g_i+ | measured fitness | best measured fitness or single-digit g-values | x1 | x2...
1 0 +7.512833220e+002 +1.463633220e+002 +1.463633220e+002 -5.0000e+000 +5.0000e+000 -5.0000e+000
3 0 +5.161210109e+002 -8.879898914e+001 -8.879898914e+001 -5.0000e+000 -5.0000e+000 -5.0000e+000
4 0 +4.855707829e+002 -1.193492171e+002 -1.193492171e+002 -5.0000e+000 +5.0000e+000 +5.0000e+000
5 0 +2.504084718e+002 -3.545115282e+002 -3.545115282e+002 -5.0000e+000 -5.0000e+000 +5.0000e+000
6 0 +2.336867171e+002 -3.712332829e+002 -3.712332829e+002 -4.7492e+000 +3.5366e+000 +4.2264e+000
8 0 +6.831384835e+001 -5.366061517e+002 -5.366061517e+002 -5.0000e+000 -1.5412e+000 +4.2313e-001
9 0 +4.779538625e+001 -5.571246137e+002 -5.571246137e+002 -5.0000e+000 +2.6930e-001 +2.7573e+000
10 0 +2.781813101e+001 -5.771018690e+002 -5.771018690e+002 -3.4393e-002 -1.4229e+000 +1.5049e+000
18 0 +2.748426249e+001 -5.774357375e+002 -5.774357375e+002 -2.1207e+000 -1.3347e+000 +1.7499e+000
24 0 +2.436433856e+001 -5.805556614e+002 -5.805556614e+002 -2.1519e+000 -1.6269e+000 +1.6809e+000
26 0 +9.783901157e+000 -5.951360988e+002 -5.951360988e+002 -1.9641e+000 -1.5986e+000 +1.7109e+000
48 0 +3.938930491e+000 -6.009810695e+002 -6.009810695e+002 -1.9694e+000 -1.5851e+000 +1.7499e+000
234 0 +3.439137232e+000 -6.014808628e+002 -6.014808628e+002 -1.9730e+000 -1.5923e+000 +1.7716e+000
277 0 +3.382705695e+000 -6.015372943e+002 -6.015372943e+002 -2.0061e+000 -1.5913e+000 +1.7732e+000
291 0 +3.261787334e+000 -6.016582127e+002 -6.016582127e+002 -2.0138e+000 -1.5957e+000 +1.7686e+000
317 0 +3.195745825e+000 -6.017242542e+002 -6.017242542e+002 -1.9839e+000 -1.6022e+000 +1.7711e+000
362 0 +3.052903301e+000 -6.018670967e+002 -6.018670967e+002 -1.9945e+000 -1.6011e+000 +1.7675e+000
368 0 +2.550238761e+000 -6.023697612e+002 -6.023697612e+002 -2.0225e+000 -1.6123e+000 +2.0859e+000
370 0 +2.064475558e+000 -6.028555244e+002 -6.028555244e+002 -1.9841e+000 -1.6030e+000 +2.0714e+000
382 0 +2.014465996e+000 -6.029055340e+002 -6.029055340e+002 -1.9881e+000 -1.6072e+000 +2.0726e+000
440 0 +1.994375469e+000 -6.029256245e+002 -6.029256245e+002 -1.9977e+000 -1.6101e+000 +2.0729e+000
2090 0 +1.385636991e+000 -6.035343630e+002 -6.035343630e+002 -9.9373e-001 -1.6218e+000 +2.0884e+000
2106 0 +1.039841618e+000 -6.038801584e+002 -6.038801584e+002 -9.9559e-001 -1.6007e+000 +2.0758e+000
2136 0 +1.018112087e+000 -6.039018879e+002 -6.039018879e+002 -9.9743e-001 -1.6073e+000 +2.0770e+000
2162 0 +9.969281316e-001 -6.039230719e+002 -6.039230719e+002 -9.9619e-001 -1.6103e+000 +2.0741e+000
11063 0 +4.630609695e-001 -6.044569390e+002 -6.044569390e+002 -9.5272e-001 -1.0145e+000 +2.0740e+000
11071 0 +4.563536577e-001 -6.044636463e+002 -6.044636463e+002 -9.5293e-001 -1.0142e+000 +2.0741e+000
11076 0 +3.685843885e-001 -6.045514156e+002 -6.045514156e+002 -9.5805e-001 -1.0171e+000 +2.0803e+000
11104 0 +3.611979795e-001 -6.045588020e+002 -6.045588020e+002 -9.6612e-001 -1.0129e+000 +2.0637e+000
11206 0 +3.411496689e-001 -6.045788503e+002 -6.045788503e+002 -9.6791e-001 -1.0108e+000 +2.0643e+000
11207 0 +1.580393658e-001 -6.047619606e+002 -6.047619606e+002 -9.7323e-001 -1.0125e+000 +2.0714e+000
11217 0 +6.133212105e-002 -6.048586679e+002 -6.048586679e+002 -9.8675e-001 -1.0132e+000 +2.0699e+000
11228 0 +3.931906603e-002 -6.048806809e+002 -6.048806809e+002 -9.8929e-001 -1.0139e+000 +2.0704e+000
11243 0 +2.283638799e-002 -6.048971636e+002 -6.048971636e+002 -9.8908e-001 -1.0121e+000 +2.0740e+000
11245 0 +5.632713324e-003 -6.049143673e+002 -6.049143673e+002 -1.0010e+000 -1.0126e+000 +2.0741e+000
11313 0 +5.395867641e-003 -6.049146041e+002 -6.049146041e+002 -1.0008e+000 -1.0126e+000 +2.0741e+000
11321 0 +4.676011918e-003 -6.049153240e+002 -6.049153240e+002 -1.0021e+000 -1.0139e+000 +2.0742e+000
11335 0 +1.738090515e-003 -6.049182619e+002 -6.049182619e+002 -9.9784e-001 -1.0140e+000 +2.0743e+000
11363 0 +1.736828743e-003 -6.049182632e+002 -6.049182632e+002 -9.9782e-001 -1.0140e+000 +2.0743e+000
11371 0 +1.616377872e-003 -6.049183836e+002 -6.049183836e+002 -9.9797e-001 -1.0143e+000 +2.0744e+000
11374 0 +1.444221069e-003 -6.049185558e+002 -6.049185558e+002 -9.9912e-001 -1.0143e+000 +2.0743e+000
11377 0 +6.900280130e-004 -6.049193100e+002 -6.049193100e+002 -9.9941e-001 -1.0147e+000 +2.0741e+000
11386 0 +5.753343620e-004 -6.049194247e+002 -6.049194247e+002 -9.9794e-001 -1.0146e+000 +2.0732e+000
11395 0 +3.443978629e-004 -6.049196556e+002 -6.049196556e+002 -9.9861e-001 -1.0146e+000 +2.0739e+000
11404 0 +2.830693711e-004 -6.049197169e+002 -6.049197169e+002 -9.9849e-001 -1.0147e+000 +2.0739e+000
11416 0 +2.373519319e-004 -6.049197626e+002 -6.049197626e+002 -9.9900e-001 -1.0153e+000 +2.0739e+000
11425 0 +1.778939718e-004 -6.049198221e+002 -6.049198221e+002 -9.9936e-001 -1.0153e+000 +2.0736e+000
11429 0 +6.293262243e-005 -6.049199371e+002 -6.049199371e+002 -9.9882e-001 -1.0154e+000 +2.0736e+000
11434 0 +6.050469358e-005 -6.049199395e+002 -6.049199395e+002 -9.9881e-001 -1.0154e+000 +2.0736e+000
11444 0 +7.512433058e-007 -6.049199992e+002 -6.049199992e+002 -9.9840e-001 -1.0152e+000 +2.0736e+000
11510 0 +1.900116331e-007 -6.049199998e+002 -6.049199998e+002 -9.9842e-001 -1.0152e+000 +2.0736e+000
11511 0 +1.850314675e-007 -6.049199998e+002 -6.049199998e+002 -9.9843e-001 -1.0152e+000 +2.0736e+000
11537 0 +1.651054617e-007 -6.049199998e+002 -6.049199998e+002 -9.9841e-001 -1.0152e+000 +2.0736e+000
11556 0 +1.079695267e-007 -6.049199999e+002 -6.049199999e+002 -9.9838e-001 -1.0152e+000 +2.0736e+000
11557 0 +2.355034212e-008 -6.049200000e+002 -6.049200000e+002 -9.9841e-001 -1.0152e+000 +2.0736e+000
11562 0 +6.386699170e-009 -6.049200000e+002 -6.049200000e+002 -9.9840e-001 -1.0152e+000 +2.0736e+000
% f evaluations | g evaluations | best noise-free fitness - Fopt (1.337000000000e+002) + sum g_i+ | measured fitness | best measured fitness or single-digit g-values | x1 | x2...
1 0 +1.497797868e+003 +1.631497868e+003 +1.631497868e+003 -5.0000e+000 +5.0000e+000 +5.0000e+000
2 0 +1.468068140e+003 +1.601768140e+003 +1.601768140e+003 +5.0000e+000 +5.0000e+000 +5.0000e+000
4 0 +3.933714370e+002 +5.270714370e+002 +5.270714370e+002 -5.0000e+000 +5.0000e+000 -5.0000e+000
5 0 +3.546331682e+002 +4.883331682e+002 +4.883331682e+002 +5.0000e+000 -5.0000e+000 -5.0000e+000
6 0 +2.726313208e+002 +4.063313208e+002 +4.063313208e+002 +4.4365e+000 -3.6455e+000 -4.6181e+000
10 0 +7.775194571e+001 +2.114519457e+002 +2.114519457e+002 +1.8572e+000 -8.2139e-002 -2.5655e+000
27 0 +6.897347380e+001 +2.026734738e+002 +2.026734738e+002 +1.1355e+000 -1.2256e+000 -1.4205e+000
28 0 +6.701224409e+001 +2.007122441e+002 +2.007122441e+002 +6.6101e-001 +1.7379e-002 -2.2657e+000
30 0 +6.579765192e+001 +1.994976519e+002 +1.994976519e+002 +6.4242e-001 +1.8416e-002 -2.2591e+000
37 0 +5.628504850e+001 +1.899850485e+002 +1.899850485e+002 -1.6224e+000 +2.0689e+000 -1.5006e+000
49 0 +4.360519235e+001 +1.773051923e+002 +1.773051923e+002 -1.3399e+000 +2.0455e+000 -1.5719e+000
51 0 +2.896894178e+001 +1.626689418e+002 +1.626689418e+002 +1.4175e+000 +3.2506e+000 -3.4274e-001
114 0 +1.507530634e+001 +1.487753063e+002 +1.487753063e+002 +8.2680e-001 +3.9884e-001 -4.1856e-002
180 0 +9.646407695e+000 +1.433464077e+002 +1.433464077e+002 +2.6793e+000 +1.0143e+000 -3.9257e-001
191 0 +4.657473538e+000 +1.383574735e+002 +1.383574735e+002 +3.4889e+000 +3.7217e-001 -6.6429e-001
218 0 +4.361213771e+000 +1.380612138e+002 +1.380612138e+002 +2.5722e+000 +9.2610e-001 -3.4089e-001
354 0 +3.298649060e+000 +1.369986491e+002 +1.369986491e+002 +2.5562e+000 +1.0115e+000 -3.6645e-001
424 0 +2.751116209e+000 +1.364511162e+002 +1.364511162e+002 +2.4783e+000 +1.0035e+000 -3.5240e-001
459 0 +2.566094391e+000 +1.362660944e+002 +1.362660944e+002 +2.5218e+000 +9.1561e-001 -1.3422e-002
486 0 +2.032146240e+000 +1.357321462e+002 +1.357321462e+002 +2.5113e+000 +9.2037e-001 -1.0946e-002
541 0 +1.199180492e+000 +1.348991805e+002 +1.348991805e+002 +2.4624e+000 +9.4762e-001 -1.1933e-003
547 0 +7.878049032e-001 +1.344878049e+002 +1.344878049e+002 +2.5311e+000 +9.4624e-001 -3.8360e-001
561 0 +7.313893916e-001 +1.344313894e+002 +1.344313894e+002 +2.5307e+000 +9.4580e-001 -3.7730e-001
565 0 +2.430052233e-001 +1.339430052e+002 +1.339430052e+002 +2.5002e+000 +9.4238e-001 -3.7613e-001
571 0 +1.743434070e-001 +1.338743434e+002 +1.338743434e+002 +2.4789e+000 +9.4058e-001 -3.8288e-001
606 0 +1.360187419e-001 +1.338360187e+002 +1.338360187e+002 +2.4988e+000 +9.5695e-001 -3.8056e-001
631 0 +8.419936423e-002 +1.337841994e+002 +1.337841994e+002 +2.4588e+000 +9.6080e-001 -3.7645e-001
636 0 +5.768118143e-002 +1.337576812e+002 +1.337576812e+002 +2.4750e+000 +9.6081e-001 -3.8231e-001
679 0 +3.630822061e-002 +1.337363082e+002 +1.337363082e+002 +2.4752e+000 +9.6063e-001 -3.8127e-001
687 0 +1.348810713e-002 +1.337134881e+002 +1.337134881e+002 +2.4705e+000 +9.5799e-001 -3.7908e-001
691 0 +1.290443473e-002 +1.337129044e+002 +1.337129044e+002 +2.4734e+000 +9.5709e-001 -3.8054e-001
701 0 +1.155425780e-002 +1.337115543e+002 +1.337115543e+002 +2.4751e+000 +9.5442e-001 -3.7582e-001
719 0 +6.072242996e-003 +1.337060722e+002 +1.337060722e+002 +2.4724e+000 +9.5565e-001 -3.7685e-001
723 0 +5.625207413e-003 +1.337056252e+002 +1.337056252e+002 +2.4725e+000 +9.5588e-001 -3.7702e-001
743 0 +3.132450342e-003 +1.337031325e+002 +1.337031325e+002 +2.4743e+000 +9.5441e-001 -3.7709e-001
753 0 +2.463837819e-003 +1.337024638e+002 +1.337024638e+002 +2.4755e+000 +9.5491e-001 -3.7734e-001
754 0 +1.168068412e-003 +1.337011681e+002 +1.337011681e+002 +2.4756e+000 +9.5390e-001 -3.7766e-001
788 0 +8.686732113e-004 +1.337008687e+002 +1.337008687e+002 +2.4748e+000 +9.5545e-001 -3.7822e-001
790 0 +3.219114973e-004 +1.337003219e+002 +1.337003219e+002 +2.4758e+000 +9.5487e-001 -3.7812e-001
793 0 +1.597539750e-004 +1.337001598e+002 +1.337001598e+002 +2.4753e+000 +9.5472e-001 -3.7818e-001
794 0 +1.168865156e-004 +1.337001169e+002 +1.337001169e+002 +2.4751e+000 +9.5454e-001 -3.7815e-001
799 0 +9.909157990e-005 +1.337000991e+002 +1.337000991e+002 +2.4753e+000 +9.5439e-001 -3.7816e-001
806 0 +7.129857519e-005 +1.337000713e+002 +1.337000713e+002 +2.4748e+000 +9.5439e-001 -3.7826e-001
812 0 +3.656188497e-005 +1.337000366e+002 +1.337000366e+002 +2.4749e+000 +9.5450e-001 -3.7835e-001
822 0 +2.342539116e-005 +1.337000234e+002 +1.337000234e+002 +2.4749e+000 +9.5451e-001 -3.7836e-001
845 0 +2.258284778e-005 +1.337000226e+002 +1.337000226e+002 +2.4750e+000 +9.5445e-001 -3.7832e-001
850 0 +3.572381615e-006 +1.337000036e+002 +1.337000036e+002 +2.4752e+000 +9.5447e-001 -3.7841e-001
872 0 +1.494895514e-006 +1.337000015e+002 +1.337000015e+002 +2.4752e+000 +9.5439e-001 -3.7837e-001
874 0 +4.822666426e-007 +1.337000005e+002 +1.337000005e+002 +2.4752e+000 +9.5443e-001 -3.7840e-001
894 0 +4.526213502e-007 +1.337000005e+002 +1.337000005e+002 +2.4752e+000 +9.5442e-001 -3.7840e-001
899 0 +3.213077946e-007 +1.337000003e+002 +1.337000003e+002 +2.4752e+000 +9.5441e-001 -3.7839e-001
908 0 +2.510924162e-007 +1.337000003e+002 +1.337000003e+002 +2.4752e+000 +9.5439e-001 -3.7839e-001
911 0 +2.306515228e-007 +1.337000002e+002 +1.337000002e+002 +2.4752e+000 +9.5438e-001 -3.7840e-001
915 0 +1.264324112e-007 +1.337000001e+002 +1.337000001e+002 +2.4752e+000 +9.5441e-001 -3.7839e-001
931 0 +1.136351102e-007 +1.337000001e+002 +1.337000001e+002 +2.4752e+000 +9.5441e-001 -3.7839e-001
932 0 +7.857840956e-008 +1.337000001e+002 +1.337000001e+002 +2.4752e+000 +9.5439e-001 -3.7841e-001
948 0 +4.284399324e-008 +1.337000000e+002 +1.337000000e+002 +2.4752e+000 +9.5440e-001 -3.7840e-001
951 0 +1.897529955e-008 +1.337000000e+002 +1.337000000e+002 +2.4752e+000 +9.5440e-001 -3.7840e-001
952 0 +1.228582391e-008 +1.337000000e+002 +1.337000000e+002 +2.4752e+000 +9.5440e-001 -3.7840e-001
953 0 +1.091117952e-008 +1.337000000e+002 +1.337000000e+002 +2.4752e+000 +9.5440e-001 -3.7840e-001
961 0 +3.173482810e-009 +1.337000000e+002 +1.337000000e+002 +2.4752e+000 +9.5440e-001 -3.7840e-001
% f evaluations | g evaluations | best noise-free fitness - Fopt (-2.098000000000e+001) + sum g_i+ | measured fitness | best measured fitness or single-digit g-values | x1 | x2...
1 0 +3.865550428e+002 +3.655750428e+002 +3.655750428e+002 -5.0000e+000 +5.0000e+000 -5.0000e+000
2 0 +3.367678855e+002 +3.157878855e+002 +3.157878855e+002 +5.0000e+000 +5.0000e+000 -5.0000e+000
6 0 +3.283187726e+002 +3.073387726e+002 +3.073387726e+002 +3.8985e+000 +4.4762e+000 -5.0000e+000
8 0 +1.831127332e+002 +1.621327332e+002 +1.621327332e+002 -1.2088e+000 +9.3092e-001 -3.4258e+000
9 0 +5.729545810e+001 +3.631545810e+001 +3.631545810e+001 +1.1397e+000 +1.3875e+000 -2.0297e+000
13 0 +3.894431156e+001 +1.796431156e+001 +1.796431156e+001 +2.1898e+000 +1.9137e+000 -1.5374e+000
65 0 +3.503204220e+001 +1.405204220e+001 +1.405204220e+001 +1.4840e+000 +3.0477e+000 +2.4187e-001
73 0 +3.154196715e+001 +1.056196715e+001 +1.056196715e+001 +3.2699e+000 +3.6902e+000 +2.2875e-001
81 0 +2.512626497e+001 +4.146264974e+000 +4.146264974e+000 +2.7386e+000 +2.4486e+000 +1.0471e+000
84 0 +2.283870156e+001 +1.858701563e+000 +1.858701563e+000 +3.0555e+000 +3.5643e+000 +1.2379e+000
92 0 +3.681127074e+000 -1.729887293e+001 -1.729887293e+001 +2.1298e+000 +1.3835e+000 +2.4262e-001
181 0 +1.915022064e+000 -1.906497794e+001 -1.906497794e+001 +2.1298e+000 +1.3220e+000 +2.5551e-001
397 0 +1.886143997e+000 -1.909385600e+001 -1.909385600e+001 +2.1326e+000 +1.3144e+000 +2.6184e-001
408 0 +1.613968710e+000 -1.936603129e+001 -1.936603129e+001 +2.0790e+000 +1.3654e+000 +2.5941e-001
425 0 +1.340914120e+000 -1.963908588e+001 -1.963908588e+001 +2.0540e+000 +1.3575e+000 +2.6508e-001
442 0 +1.253928379e+000 -1.972607162e+001 -1.972607162e+001 +2.0514e+000 +1.3415e+000 +2.7332e-001
443 0 +1.078860768e+000 -1.990113923e+001 -1.990113923e+001 +2.0518e+000 +1.3379e+000 +2.6608e-001
473 0 +1.057381053e+000 -1.992261895e+001 -1.992261895e+001 +2.0550e+000 +1.3370e+000 +2.6450e-001
483 0 +1.042629091e+000 -1.993737091e+001 -1.993737091e+001 +2.0563e+000 +1.3355e+000 +2.6386e-001
511 0 +1.016977344e+000 -1.996302266e+001 -1.996302266e+001 +2.0500e+000 +1.3268e+000 +2.6442e-001
575 0 +9.965598721e-001 -1.998344013e+001 -1.998344013e+001 +2.0605e+000 +1.3249e+000 +2.6349e-001
1407 0 +4.847690931e-001 -2.049523091e+001 -2.049523091e+001 +2.0968e+000 +1.9002e+000 +2.6025e-001
1463 0 +2.543022323e-001 -2.072569777e+001 -2.072569777e+001 +2.0656e+000 +1.8994e+000 +2.6571e-001
1516 0 +1.198645797e-001 -2.086013542e+001 -2.086013542e+001 +2.0459e+000 +1.9102e+000 +2.6820e-001
1545 0 +3.222399423e-002 -2.094777601e+001 -2.094777601e+001 +2.0666e+000 +1.9137e+000 +2.6557e-001
1598 0 +1.267036561e-002 -2.096732963e+001 -2.096732963e+001 +2.0623e+000 +1.9193e+000 +2.6649e-001
1652 0 +5.692890248e-003 -2.097430711e+001 -2.097430711e+001 +2.0617e+000 +1.9194e+000 +2.6574e-001
1685 0 +3.484547375e-003 -2.097651545e+001 -2.097651545e+001 +2.0608e+000 +1.9200e+000 +2.6531e-001
1686 0 +3.363385845e-003 -2.097663661e+001 -2.097663661e+001 +2.0603e+000 +1.9200e+000 +2.6531e-001
1687 0 +3.093157943e-003 -2.097690684e+001 -2.097690684e+001 +2.0609e+000 +1.9196e+000 +2.6523e-001
1688 0 +2.677216773e-003 -2.097732278e+001 -2.097732278e+001 +2.0609e+000 +1.9197e+000 +2.6508e-001
1689 0 +1.998014535e-003 -2.097800199e+001 -2.097800199e+001 +2.0609e+000 +1.9197e+000 +2.6494e-001
1694 0 +1.967601746e-003 -2.097803240e+001 -2.097803240e+001 +2.0610e+000 +1.9197e+000 +2.6492e-001
1698 0 +1.039916869e-003 -2.097896008e+001 -2.097896008e+001 +2.0602e+000 +1.9199e+000 +2.6463e-001
1706 0 +1.010384004e-003 -2.097898962e+001 -2.097898962e+001 +2.0605e+000 +1.9196e+000 +2.6469e-001
1707 0 +9.417822910e-004 -2.097905822e+001 -2.097905822e+001 +2.0601e+000 +1.9195e+000 +2.6472e-001
1709 0 +3.087515624e-004 -2.097969125e+001 -2.097969125e+001 +2.0602e+000 +1.9196e+000 +2.6431e-001
1721 0 +8.066034659e-005 -2.097991934e+001 -2.097991934e+001 +2.0604e+000 +1.9193e+000 +2.6386e-001
1722 0 +2.411110386e-005 -2.097997589e+001 -2.097997589e+001 +2.0599e+000 +1.9192e+000 +2.6389e-001
1726 0 +2.037292020e-005 -2.097997963e+001 -2.097997963e+001 +2.0602e+000 +1.9192e+000 +2.6391e-001
1729 0 +1.142691955e-005 -2.097998857e+001 -2.097998857e+001 +2.0600e+000 +1.9191e+000 +2.6394e-001
1755 0 +3.172727638e-006 -2.097999683e+001 -2.097999683e+001 +2.0601e+000 +1.9192e+000 +2.6398e-001
1756 0 +1.503808136e-006 -2.097999850e+001 -2.097999850e+001 +2.0601e+000 +1.9192e+000 +2.6398e-001
1760 0 +1.202922789e-006 -2.097999880e+001 -2.097999880e+001 +2.0601e+000 +1.9192e+000 +2.6398e-001
1794 0 +1.186251414e-006 -2.097999881e+001 -2.097999881e+001 +2.0600e+000 +1.9192e+000 +2.6402e-001
1795 0 +3.087463760e-007 -2.097999969e+001 -2.097999969e+001 +2.0600e+000 +1.9192e+000 +2.6401e-001
1801 0 +1.261114591e-007 -2.097999987e+001 -2.097999987e+001 +2.0600e+000 +1.9192e+000 +2.6400e-001
1823 0 +5.325556174e-008 -2.097999995e+001 -2.097999995e+001 +2.0600e+000 +1.9192e+000 +2.6400e-001
1824 0 +2.789392894e-008 -2.097999997e+001 -2.097999997e+001 +2.0600e+000 +1.9192e+000 +2.6400e-001
1832 0 +2.582101999e-008 -2.097999997e+001 -2.097999997e+001 +2.0600e+000 +1.9192e+000 +2.6400e-001
1833 0 +2.530567045e-008 -2.097999997e+001 -2.097999997e+001 +2.0600e+000 +1.9192e+000 +2.6400e-001
1835 0 +1.170478114e-008 -2.097999999e+001 -2.097999999e+001 +2.0600e+000 +1.9192e+000 +2.6400e-001
1841 0 +1.031253660e-008 -2.097999999e+001 -2.097999999e+001 +2.0600e+000 +1.9192e+000 +2.6400e-001
1856 0 +7.520249312e-009 -2.097999999e+001 -2.097999999e+001 +2.0600e+000 +1.9192e+000 +2.6400e-001
% f evaluations | g evaluations | best noise-free fitness - Fopt (1.353300000000e+002) + sum g_i+ | measured fitness | best measured fitness or single-digit g-values | x1 | x2...
1 0 +4.522268197e+002 +5.875568197e+002 +5.875568197e+002 -5.0000e+000 -5.0000e+000 -5.0000e+000
2 0 +4.487553861e+002 +5.840853861e+002 +5.840853861e+002 +5.0000e+000 -5.0000e+000 -5.0000e+000
5 0 +3.553916850e+002 +4.907216850e+002 +4.907216850e+002 -4.5264e+000 -3.8883e+000 -4.3618e+000
8 0 +1.169945807e+002 +2.523245807e+002 +2.523245807e+002 +1.8952e-014 -5.0000e+000 -3.2939e-015
12 0 +1.140355423e+002 +2.493655423e+002 +2.493655423e+002 -3.5721e-002 -3.8446e+000 -5.8668e-001
14 0 +8.038920692e+001 +2.157192069e+002 +2.157192069e+002 +2.7707e-001 -1.8339e+000 -5.5778e-001
16 0 +4.876242287e+001 +1.840924229e+002 +1.840924229e+002 +1.6698e+000 -9.8863e-001 -5.1041e-001
45 0 +4.147740387e+001 +1.768074039e+002 +1.768074039e+002 +3.7755e+000 -5.8524e-001 -4.3072e-001
53 0 +3.814256173e+001 +1.734725617e+002 +1.734725617e+002 +3.5362e+000 -1.2721e-002 -6.8076e-002
54 0 +3.206914563e+001 +1.673991456e+002 +1.673991456e+002 +2.3442e+000 -3.6211e-002 +2.1267e-001
55 0 +2.672717959e+001 +1.620571796e+002 +1.620571796e+002 +2.4509e+000 -3.0189e-002 +1.9596e-001
83 0 +1.933551825e+001 +1.546655182e+002 +1.546655182e+002 +1.4679e+000 -3.1175e-002 -1.7962e-002
111 0 +1.892478585e+001 +1.542547858e+002 +1.542547858e+002 +1.4814e+000 -3.0412e-002 -2.0080e-002
122 0 +1.598757717e+001 +1.513175772e+002 +1.513175772e+002 +1.5413e+000 +5.4187e-002 -2.2204e-002
130 0 +1.331971560e+001 +1.486497156e+002 +1.486497156e+002 +1.5398e+000 +9.2231e-003 +4.7407e-002
240 0 +1.040384264e+001 +1.457338426e+002 +1.457338426e+002 +1.5293e+000 +4.3070e-002 +1.0343e-002
242 0 +9.980670679e+000 +1.453106707e+002 +1.453106707e+002 +1.5466e+000 +2.1212e-002 +1.4894e-002
273 0 +4.021048393e+000 +1.393510484e+002 +1.393510484e+002 +1.5025e+000 +1.2732e-002 +6.8635e-001
333 0 +3.641984475e+000 +1.389719845e+002 +1.389719845e+002 +1.5157e+000 +1.8435e-003 +6.8568e-001
344 0 +3.380186350e+000 +1.387101864e+002 +1.387101864e+002 +1.5230e+000 +6.6792e-002 +6.5967e-001
375 0 +3.101616221e+000 +1.384316162e+002 +1.384316162e+002 +1.5235e+000 +6.5173e-002 +6.6801e-001
388 0 +2.532764303e+000 +1.378627643e+002 +1.378627643e+002 +1.5302e+000 +1.9553e-002 +6.5410e-001
417 0 +2.027701794e+000 +1.373577018e+002 +1.373577018e+002 +1.5407e+000 +2.4558e-002 +6.7065e-001
550 0 +1.994163461e+000 +1.373241635e+002 +1.373241635e+002 +1.5414e+000 +2.6251e-002 +6.6725e-001
2311 0 +1.595495350e+000 +1.369254953e+002 +1.369254953e+002 +4.9431e-001 +2.8452e-002 +1.3275e+000
2326 0 +1.540203794e+000 +1.368702038e+002 +1.368702038e+002 +4.9378e-001 +2.6359e-002 +1.3339e+000
2341 0 +1.229003202e+000 +1.365590032e+002 +1.365590032e+002 +5.4897e-001 +5.4439e-003 +1.3424e+000
2347 0 +1.092230172e+000 +1.364222302e+002 +1.364222302e+002 +5.4855e-001 +3.6631e-002 +1.3395e+000
2354 0 +1.040867926e+000 +1.363708679e+002 +1.363708679e+002 +5.5348e-001 +2.5189e-002 +1.3451e+000
2440 0 +1.007037815e+000 +1.363370378e+002 +1.363370378e+002 +5.3888e-001 +2.4138e-002 +1.3348e+000
2444 0 +9.989529863e-001 +1.363289530e+002 +1.363289530e+002 +5.4104e-001 +2.3927e-002 +1.3389e+000
2993 0 +6.049942427e-001 +1.359349942e+002 +1.359349942e+002 +5.2742e-001 +2.8188e-002 +9.6070e-001
3030 0 +3.123925128e-001 +1.356423925e+002 +1.356423925e+002 +5.2520e-001 +2.8392e-002 +9.6582e-001
3077 0 +2.487288039e-001 +1.355787288e+002 +1.355787288e+002 +5.7984e-001 +3.2453e-002 +9.7794e-001
3145 0 +1.785072873e-001 +1.355085073e+002 +1.355085073e+002 +5.5024e-001 +2.4085e-002 +9.6687e-001
3162 0 +5.753718726e-002 +1.353875372e+002 +1.353875372e+002 +5.5347e-001 +2.9448e-002 +9.8055e-001
3200 0 +4.519632219e-002 +1.353751963e+002 +1.353751963e+002 +5.3789e-001 +3.0329e-002 +9.8006e-001
3207 0 +3.267664703e-002 +1.353626766e+002 +1.353626766e+002 +5.4121e-001 +3.0251e-002 +9.7451e-001
3208 0 +2.084788239e-002 +1.353508479e+002 +1.353508479e+002 +5.3705e-001 +2.7766e-002 +9.7778e-001
3232 0 +1.897772715e-002 +1.353489777e+002 +1.353489777e+002 +5.4084e-001 +2.6461e-002 +9.7928e-001
3271 0 +9.850904667e-003 +1.353398509e+002 +1.353398509e+002 +5.4638e-001 +2.4978e-002 +9.7885e-001
3278 0 +5.287459545e-003 +1.353352875e+002 +1.353352875e+002 +5.4541e-001 +2.5004e-002 +9.7848e-001
3280 0 +2.422169936e-003 +1.353324222e+002 +1.353324222e+002 +5.4575e-001 +2.5717e-002 +9.7737e-001
3307 0 +6.753681708e-004 +1.353306754e+002 +1.353306754e+002 +5.4583e-001 +2.4230e-002 +9.7728e-001
3318 0 +4.335975197e-004 +1.353304336e+002 +1.353304336e+002 +5.4533e-001 +2.4032e-002 +9.7725e-001
3325 0 +1.006023246e-004 +1.353301006e+002 +1.353301006e+002 +5.4470e-001 +2.4103e-002 +9.7702e-001
3335 0 +8.978609108e-005 +1.353300898e+002 +1.353300898e+002 +5.4462e-001 +2.4033e-002 +9.7699e-001
3348 0 +8.690719008e-005 +1.353300869e+002 +1.353300869e+002 +5.4467e-001 +2.3938e-002 +9.7699e-001
3353 0 +8.246604520e-005 +1.353300825e+002 +1.353300825e+002 +5.4467e-001 +2.3944e-002 +9.7698e-001
3354 0 +7.024032382e-005 +1.353300702e+002 +1.353300702e+002 +5.4469e-001 +2.4006e-002 +9.7697e-001
3357 0 +3.027164669e-005 +1.353300303e+002 +1.353300303e+002 +5.4462e-001 +2.3841e-002 +9.7674e-001
3362 0 +6.231620972e-006 +1.353300062e+002 +1.353300062e+002 +5.4465e-001 +2.3988e-002 +9.7677e-001
3403 0 +5.646837792e-006 +1.353300056e+002 +1.353300056e+002 +5.4475e-001 +2.4084e-002 +9.7681e-001
3405 0 +3.466186712e-006 +1.353300035e+002 +1.353300035e+002 +5.4487e-001 +2.4067e-002 +9.7679e-001
3408 0 +2.808816987e-006 +1.353300028e+002 +1.353300028e+002 +5.4486e-001 +2.4062e-002 +9.7680e-001
3423 0 +2.079181343e-006 +1.353300021e+002 +1.353300021e+002 +5.4479e-001 +2.4035e-002 +9.7683e-001
3441 0 +2.499788252e-007 +1.353300002e+002 +1.353300002e+002 +5.4479e-001 +2.3998e-002 +9.7681e-001
3451 0 +9.118875255e-008 +1.353300001e+002 +1.353300001e+002 +5.4478e-001 +2.3993e-002 +9.7680e-001
3467 0 +5.835252637e-008 +1.353300001e+002 +1.353300001e+002 +5.4481e-001 +2.4002e-002 +9.7680e-001
3481 0 +5.389119906e-008 +1.353300001e+002 +1.353300001e+002 +5.4481e-001 +2.4002e-002 +9.7680e-001
3483 0 +4.204991910e-008 +1.353300000e+002 +1.353300000e+002 +5.4481e-001 +2.4004e-002 +9.7680e-001
3506 0 +7.265754220e-009 +1.353300000e+002 +1.353300000e+002 +5.4480e-001 +2.4003e-002 +9.7680e-001
% f evaluations | g evaluations | best noise-free fitness - Fopt (4.066000000000e+001) + sum g_i+ | measured fitness | best measured fitness or single-digit g-values | x1 | x2...
1 0 +9.615896330e+002 +1.002249633e+003 +1.002249633e+003 -5.0000e+000 +5.0000e+000 -5.0000e+000
2 0 +8.982621119e+002 +9.389221119e+002 +9.389221119e+002 +5.0000e+000 +5.0000e+000 -5.0000e+000
4 0 +1.867291572e+002 +2.273891572e+002 +2.273891572e+002 -5.0000e+000 +5.0000e+000 +5.0000e+000
5 0 +1.234016361e+002 +1.640616361e+002 +1.640616361e+002 +5.0000e+000 +5.0000e+000 +5.0000e+000
9 0 +1.226495398e+002 +1.633095398e+002 +1.633095398e+002 +5.0000e+000 +5.0000e+000 +2.4971e+000
10 0 +1.196506630e+002 +1.603106630e+002 +1.603106630e+002 +5.0000e+000 +5.0000e+000 +4.4332e+000
11 0 +7.689048169e+001 +1.175504817e+002 +1.175504817e+002 +1.6616e+000 +3.9755e+000 +3.1408e+000
13 0 +5.324330672e+001 +9.390330672e+001 +9.390330672e+001 +1.7096e+000 +2.4470e+000 +3.1962e+000
14 0 +4.586696580e+001 +8.652696580e+001 +8.652696580e+001 +2.2455e+000 +2.8628e+000 +3.3977e+000
15 0 +2.604931867e+001 +6.670931867e+001 +6.670931867e+001 +2.0912e+000 +8.8729e-001 +3.3031e+000
22 0 +2.560556678e+001 +6.626556678e+001 +6.626556678e+001 +2.1456e+000 +8.5581e-001 +3.3073e+000
34 0 +1.397555496e+001 +5.463555496e+001 +5.463555496e+001 +1.9125e+000 +1.8110e+000 +3.2512e+000
148 0 +1.092916796e+001 +5.158916796e+001 +5.158916796e+001 +2.0601e+000 +1.8829e+000 +3.6442e+000
159 0 +8.373877483e+000 +4.903387748e+001 +4.903387748e+001 +2.0302e+000 +1.8262e+000 +3.6551e+000
247 0 +7.778738097e+000 +4.843873810e+001 +4.843873810e+001 +2.0404e+000 +1.8196e+000 +3.6552e+000
252 0 +5.818601644e+000 +4.647860164e+001 +4.647860164e+001 +2.0166e+000 +1.7814e+000 +3.6420e+000
372 0 +4.533124997e+000 +4.519312500e+001 +4.519312500e+001 +2.0115e+000 +1.2533e+000 +3.6408e+000
398 0 +4.312633808e+000 +4.497263381e+001 +4.497263381e+001 +2.0760e+000 +1.8245e+000 +3.6133e+000
452 0 +3.836926721e+000 +4.449692672e+001 +4.449692672e+001 +2.0834e+000 +1.7849e+000 +3.6261e+000
463 0 +3.694336794e+000 +4.435433679e+001 +4.435433679e+001 +2.0833e+000 +1.8084e+000 +3.6216e+000
485 0 +3.437815473e+000 +4.409781547e+001 +4.409781547e+001 +2.0404e+000 +1.8060e+000 +3.6225e+000
578 0 +3.343369623e+000 +4.400336962e+001 +4.400336962e+001 +2.0640e+000 +1.7859e+000 +3.6226e+000
593 0 +3.308906619e+000 +4.396890662e+001 +4.396890662e+001 +2.0458e+000 +1.7874e+000 +3.6226e+000
598 0 +3.215888726e+000 +4.387588873e+001 +4.387588873e+001 +2.0735e+000 +1.7879e+000 +3.6165e+000
636 0 +2.397548423e+000 +4.305754842e+001 +4.305754842e+001 +2.0300e+000 +1.2530e+000 +3.6211e+000
644 0 +2.282693372e+000 +4.294269337e+001 +4.294269337e+001 +2.0769e+000 +1.2392e+000 +3.6197e+000
669 0 +2.063638652e+000 +4.272363865e+001 +4.272363865e+001 +2.0631e+000 +1.2451e+000 +3.6184e+000
710 0 +2.037706821e+000 +4.269770682e+001 +4.269770682e+001 +2.0660e+000 +1.2455e+000 +3.6131e+000
718 0 +1.994669219e+000 +4.265466922e+001 +4.265466922e+001 +2.0582e+000 +1.2489e+000 +3.6145e+000
1340 0 +1.712260366e+000 +4.237226037e+001 +4.237226037e+001 +3.0243e+000 +1.2811e+000 +4.2784e+000
1364 0 +1.672666666e+000 +4.233266667e+001 +4.233266667e+001 +2.9906e+000 +1.2498e+000 +4.2883e+000
1396 0 +1.559780434e+000 +4.221978043e+001 +4.221978043e+001 +3.0110e+000 +1.2661e+000 +4.2859e+000
1407 0 +1.338330267e+000 +4.199833027e+001 +4.199833027e+001 +3.0175e+000 +1.2576e+000 +4.2793e+000
1450 0 +1.270699316e+000 +4.193069932e+001 +4.193069932e+001 +3.0413e+000 +1.2322e+000 +4.2990e+000
1467 0 +1.243357352e+000 +4.190335735e+001 +4.190335735e+001 +3.0192e+000 +1.2489e+000 +4.2899e+000
1508 0 +1.021233268e+000 +4.168123327e+001 +4.168123327e+001 +3.0476e+000 +1.2420e+000 +4.2871e+000
1578 0 +9.972991281e-001 +4.165729913e+001 +4.165729913e+001 +3.0525e+000 +1.2472e+000 +4.2829e+000
2368 0 +8.573051264e-001 +4.151730513e+001 +4.151730513e+001 +2.9874e+000 +1.2396e+000 +3.9321e+000
2371 0 +2.478600039e-001 +4.090786000e+001 +4.090786000e+001 +3.0409e+000 +1.2412e+000 +3.9134e+000
2385 0 +2.262939834e-001 +4.088629398e+001 +4.088629398e+001 +3.0457e+000 +1.2420e+000 +3.9135e+000
2423 0 +2.154046934e-001 +4.087540469e+001 +4.087540469e+001 +3.0568e+000 +1.2417e+000 +3.9137e+000
2444 0 +1.401848419e-001 +4.080018484e+001 +4.080018484e+001 +3.0525e+000 +1.2426e+000 +3.9154e+000
2472 0 +6.262914482e-002 +4.072262914e+001 +4.072262914e+001 +3.0400e+000 +1.2449e+000 +3.9203e+000
2490 0 +4.298114093e-002 +4.070298114e+001 +4.070298114e+001 +3.0455e+000 +1.2450e+000 +3.9203e+000
2504 0 +1.386366793e-002 +4.067386367e+001 +4.067386367e+001 +3.0448e+000 +1.2479e+000 +3.9257e+000
2508 0 +1.339095609e-002 +4.067339096e+001 +4.067339096e+001 +3.0460e+000 +1.2490e+000 +3.9226e+000
2517 0 +5.637793828e-003 +4.066563779e+001 +4.066563779e+001 +3.0551e+000 +1.2447e+000 +3.9236e+000
2526 0 +5.246634815e-003 +4.066524663e+001 +4.066524663e+001 +3.0529e+000 +1.2469e+000 +3.9224e+000
2527 0 +3.102091136e-003 +4.066310209e+001 +4.066310209e+001 +3.0528e+000 +1.2467e+000 +3.9228e+000
2559 0 +3.047897398e-003 +4.066304790e+001 +4.066304790e+001 +3.0526e+000 +1.2468e+000 +3.9228e+000
2571 0 +9.493558984e-004 +4.066094936e+001 +4.066094936e+001 +3.0513e+000 +1.2476e+000 +3.9246e+000
2609 0 +7.246788737e-004 +4.066072468e+001 +4.066072468e+001 +3.0518e+000 +1.2467e+000 +3.9245e+000
2610 0 +6.095051477e-005 +4.066006095e+001 +4.066006095e+001 +3.0522e+000 +1.2474e+000 +3.9241e+000
2619 0 +3.399943427e-005 +4.066003400e+001 +4.066003400e+001 +3.0519e+000 +1.2473e+000 +3.9241e+000
2655 0 +2.498175878e-005 +4.066002498e+001 +4.066002498e+001 +3.0519e+000 +1.2472e+000 +3.9241e+000
2656 0 +2.373898685e-005 +4.066002374e+001 +4.066002374e+001 +3.0520e+000 +1.2473e+000 +3.9241e+000
2666 0 +6.471785028e-006 +4.066000647e+001 +4.066000647e+001 +3.0519e+000 +1.2472e+000 +3.9240e+000
2685 0 +3.352432358e-006 +4.066000335e+001 +4.066000335e+001 +3.0519e+000 +1.2472e+000 +3.9240e+000
2702 0 +1.702733158e-006 +4.066000170e+001 +4.066000170e+001 +3.0519e+000 +1.2472e+000 +3.9240e+000
2726 0 +1.642431585e-006 +4.066000164e+001 +4.066000164e+001 +3.0519e+000 +1.2472e+000 +3.9240e+000
2744 0 +1.782211783e-007 +4.066000018e+001 +4.066000018e+001 +3.0520e+000 +1.2472e+000 +3.9240e+000
2770 0 +1.756199026e-007 +4.066000018e+001 +4.066000018e+001 +3.0520e+000 +1.2472e+000 +3.9240e+000
2785 0 +9.650165111e-008 +4.066000010e+001 +4.066000010e+001 +3.0520e+000 +1.2472e+000 +3.9240e+000
2800 0 +7.298531557e-008 +4.066000007e+001 +4.066000007e+001 +3.0520e+000 +1.2472e+000 +3.9240e+000
2809 0 +3.219143707e-008 +4.066000003e+001 +4.066000003e+001 +3.0520e+000 +1.2472e+000 +3.9240e+000
2821 0 +1.955731932e-008 +4.066000002e+001 +4.066000002e+001 +3.0520e+000 +1.2472e+000 +3.9240e+000
2833 0 +3.425135731e-009 +4.066000000e+001 +4.066000000e+001 +3.0520e+000 +1.2472e+000 +3.9240e+000
