% f evaluations | g evaluations | best noise-free fitness - Fopt (7.948000000000e+001) + sum g_i+ | measured fitness | best measured fitness or single-digit g-values | x1 | x2...
1 0 +2.369578976e+002 +3.164378976e+002 +3.164378976e+002 +2.5824e+000 +4.4992e+000 -2.9927e+000 -2.0164e+000 -9.2141e-001 -4.2619e+000 -3.0679e+000 -1.1179e+000 -2.2369e+000 +1.6175e+000 -1.7274e+000 -4.1980e+000 +1.5837e+000 +3.7290e+000 -7.1617e-001 -1.8475e+000 +3.2117e+000 -3.8477e+000 -6.6219e-001 +1.8870e-001
2 0 +2.338178124e+002 +3.132978124e+002 +3.132978124e+002 -2.6152e+000 +3.6147e-001 +2.9168e+000 +3.8160e+000 +6.0875e-001 +2.9329e+000 -3.1814e+000 +3.5697e+000 -1.1458e+000 -1.4834e+000 -3.7063e+000 +2.4495e+000 +4.1267e+000 +1.1706e+000 -2.5195e+000 -4.4197e+000 -3.6539e+000 -4.3967e+000 -4.5275e+000 -2.2810e-001
4 0 +1.903738214e+002 +2.698538214e+002 +2.698538214e+002 -7.9169e-001 +2.3730e+000 -3.6078e+000 +1.1501e+000 -4.2600e+000 -1.0340e+000 +1.1863e+000 -1.7634e+000 -3.8979e+000 -5.2986e-001 +3.3107e+000 -3.6040e+000 +2.6855e+000 +2.9262e+000 +4.2252e+000 +4.0628e+000 +1.1273e+000 -3.1158e+000 -3.3076e+000 -2.6344e+000
6 0 +1.808587581e+002 +2.603387581e+002 +2.603387581e+002 -2.8858e+000 -1.0377e+000 +1.3776e+000 +1.0252e+000 +2.4660e+000 +2.0483e+000 -3.6982e+000 +3.7550e+000 +2.5499e+000 -1.0095e+000 +4.3949e+000 +2.0275e+000 +1.3918e+000 +1.1678e+000 +1.8892e+000 +2.6613e+000 +1.2928e+000 -3.5833e-001 +1.9498e+000 +2.4377e+000
8 0 +1.114743762e+002 +1.909543762e+002 +1.909543762e+002 -9.2323e-001 -4.0132e-001 -2.3843e+000 -2.5876e+000 -3.6080e+000 +1.0257e+000 -3.1795e+000 -3.7788e+000 +1.2353e+000 +4.2047e-001 -4.1622e-001 +3.4936e+000 +3.6678e+000 -3.6863e+000 +2.6437e+000 +1.3556e+000 +1.5499e+000 -3.6207e+000 +2.0131e+000 +1.8428e+000
42 0 +0.000000000e+000 +7.948000000e+001 +7.948000000e+001 +2.5280e-001 -1.1568e+000 -7.2400e-001 +1.9264e+000 -2.6808e+000 +4.3920e-001 -1.1680e-001 +1.2000e-001 -1.6376e+000 -3.0512e+000 -3.8536e+000 +2.0160e+000 +1.0864e+000 -8.6400e-002 +3.6472e+000 +2.9088e+000 -1.2480e-001 -3.9280e+000 +2.3624e+000 +1.3584e+000
% f evaluations | g evaluations | best noise-free fitness - Fopt (3.944800000000e+002) + sum g_i+ | measured fitness | best measured fitness or single-digit g-values | x1 | x2...
1 0 +3.370323805e+002 +7.315123805e+002 +7.315123805e+002 -7.7436e-002 +2.5800e+000 +3.6663e+000 -1.5302e+000 -1.3032e+000 -1.7505e+000 +2.6254e+000 -4.7923e+000 +6.1266e-001 -2.8431e+000 -2.6381e+000 -3.1222e+000 -3.1839e+000 -3.9185e+000 +2.4671e+000 -5.5713e-001 -1.9882e+000 -3.6985e+000 +1.3553e-001 +8.5650e-001
3 0 +2.556917798e+002 +6.501717798e+002 +6.501717798e+002 -2.1448e+000 -3.7305e+000 -2.4695e+000 +3.5900e-001 +1.6953e+000 -3.2094e+000 +2.3895e+000 +4.3371e+000 +1.6194e+000 +1.6455e+000 -4.4629e+000 +1.7304e+000 +2.3384e+000 +9.3859e-001 +4.2726e+000 +2.9290e+000 +3.6499e+000 +6.8957e-001 -2.9815e+000 -8.3380e-001
4 0 +2.375576189e+002 +6.320376189e+002 +6.320376189e+002 -3.9971e+000 +3.3490e+000 +4.2998e+000 +4.9397e+000 -1.4247e+000 -1.5460e+000 +3.4573e+000 +8.9947e-001 +3.3441e+000 -7.2285e-001 +3.6235e+000 -4.0093e+000 +2.3034e+000 +2.8917e+000 -2.4229e+000 +1.8662e+000 +3.9863e+000 +4.6393e-001 -2.5066e+000 -3.7429e-001
12 0 +1.984174255e+002 +5.928974255e+002 +5.928974255e+002 +1.4257e+000 -4.3430e+000 -3.6511e+000 +9.6786e-002 -4.4524e+000 -4.5140e+000 +3.1272e+000 +1.2715e+000 +1.2369e+000 -6.1599e-001 +2.5213e+000 +2.8318e-001 +8.2231e-001 -3.2241e+000 -8.5680e-001 +2.7110e+000 -1.4233e+000 +1.8751e+000 -4.6236e+000 -1.8702e+000
35 0 +1.870832392e+002 +5.815632392e+002 +5.815632392e+002 +7.5240e-001 -1.3641e+000 +4.1717e+000 +4.2189e+000 +2.3514e+000 +1.2309e+000 +2.7881e+000 +7.6992e-002 -2.0923e+000 -2.3707e+000 -1.3328e+000 +3.2602e+000 +5.9977e-001 -1.3012e+000 +2.3273e-001 +2.8423e+000 +6.4745e-001 +3.6465e-001 -1.3997e+000 +6.3023e-001
42 0 +0.000000000e+000 +3.944800000e+002 +3.944800000e+002 -3.8984e+000 -2.8904e+000 -3.8024e+000 +3.9056e+000 +8.5920e-001 -2.9048e+000 +3.4448e+000 -6.0000e-001 -8.8240e-001 -3.7352e+000 +1.9096e+000 +1.2704e+000 +1.5712e+000 +3.7712e+000 -3.8160e+000 +2.9600e+000 -2.8976e+000 -1.3928e+000 +1.0400e-001 +1.2824e+000
% f evaluations | g evaluations | best noise-free fitness - Fopt (-2.471100000000e+002) + sum g_i+ | measured fitness | best measured fitness or single-digit g-values | x1 | x2...
1 0 +2.973205793e+002 +5.021057930e+001 +5.021057930e+001 +1.6866e+000 -4.1862e+000 -1.5938e+000 +6.8179e-001 +1.8617e+000 +3.5423e-001 -1.5843e+000 -4.5918e+000 -1.2379e+000 -3.7697e+000 +3.5346e+000 -2.4078e+000 -4.8438e+000 +2.7041e+000 +3.3907e+000 -1.9112e+000 -1.1598e+000 +8.0017e-001 -2.7288e-001 -4.4847e+000
3 0 +2.014893148e+002 -4.562068520e+001 -4.562068520e+001 -1.5808e+000 -4.9666e+000 +3.5870e+000 -1.7200e+000 -1.1532e+000 -1.9623e+000 +2.4464e+000 +1.2846e+000 -2.3993e+000 -1.0377e-001 -2.0484e-001 +1.3412e+000 -2.2734e+000 -3.7560e-002 -1.0952e+000 +4.9802e+000 +1.4070e+000 -3.8508e-001 +3.8730e+000 +9.4279e-001
10 0 +1.410408780e+002 -1.060691220e+002 -1.060691220e+002 -4.8364e+000 +4.5646e+000 -3.0483e+000 -2.9530e+000 +3.3329e+000 +3.4007e+000 +2.4368e+000 -4.5130e+000 +1.1343e+000 +4.6558e+000 +1.6103e+000 +2.8223e+000 +7.6322e-001 -6.1484e-001 -3.1228e+000 -8.6483e-001 +1.9859e+000 +1.4197e+000 +2.4997e+000 -9.5859e-001
42 0 +0.000000000e+000 -2.471100000e+002 -2.471100000e+002 -3.7984e+000 +2.0320e-001 -6.9120e-001 -3.6912e+000 -3.0992e+000 +2.3168e+000 +3.2200e+000 -3.9160e+000 -7.1200e-002 +2.8224e+000 +2.3304e+000 +1.3848e+000 +2.8232e+000 +8.7840e-001 +3.9736e+000 +5.7120e-001 +2.9448e+000 -1.5920e-001 +2.2280e+000 +2.8400e-001
% f evaluations | g evaluations | best noise-free fitness - Fopt (-1.520400000000e+002) + sum g_i+ | measured fitness | best measured fitness or single-digit g-values | x1 | x2...
1 0 +2.831516499e+002 +1.311116499e+002 +1.311116499e+002 +1.5411e-001 -4.2206e-001 -6.7413e-001 +3.3773e+000 -4.4183e+000 -3.2094e+000 -3.6683e+000 +1.6057e+000 +3.9765e+000 -5.6757e-001 +4.8576e-002 -1.1067e+000 +4.4915e+000 +1.8439e+000 -3.8982e-002 -2.2850e+000 -1.8712e+000 +1.3239e+000 +1.0852e+000 -4.1957e+000
2 0 +2.307457091e+002 +7.870570907e+001 +7.870570907e+001 -1.2012e+000 +1.7905e+000 -2.6388e+000 -2.5437e+000 +4.7432e-001 +2.3939e+000 +2.7893e+000 -4.7743e+000 +1.6524e+000 -9.5577e-001 -1.6742e+000 -3.3307e+000 -4.8475e-001 -4.1137e+000 +1.3570e-001 +2.5056e+000 +2.6783e+000 +6.4182e-001 +2.7076e+000 -2.8916e+000
7 0 +1.909915331e+002 +3.895153313e+001 +3.895153313e+001 -4.9955e+000 -4.6836e+000 -2.1015e+000 +1.3944e+000 -8.5854e-001 +5.5041e-002 -1.6543e-001 +3.8760e+000 +1.3932e+000 +3.6956e+000 -1.8184e-001 -6.2100e-001 +6.2581e-002 -1.3057e+000 +4.3305e+000 +3.2674e+000 +2.3135e+000 +2.7160e+000 -1.7384e+000 -1.1101e-001
8 0 +1.859316269e+002 +3.389162689e+001 +3.389162689e+001 +1.5135e+000 -8.2412e-001 -2.7942e+000 +1.2567e+000 -2.2663e-001 -3.2278e+000 -2.6258e+000 -3.8298e+000 +3.2813e+000 -3.4249e+000 +4.7119e+000 -2.8377e-001 -1.4142e+000 -1.3134e+000 +1.7702e+000 -8.0819e-001 +3.8522e+000 +1.7474e+000 -1.8410e+000 +1.4078e+000
12 0 +1.756568679e+002 +2.361686795e+001 +2.361686795e+001 -1.0859e-001 -2.6850e+000 -3.6263e+000 +1.7263e+000 +4.4948e+000 +2.1161e+000 +3.1495e+000 -4.2317e+000 -1.6794e+000 +2.0190e+000 -2.2072e+000 +7.9491e-001 -1.4511e+000 +8.1665e-001 -3.8900e+000 -1.3736e+000 +3.7177e+000 -1.4183e+000 -7.7889e-001 -2.9603e+000
24 0 +1.530347078e+002 +9.947078389e-001 +9.947078389e-001 -2.2419e+000 +4.2775e+000 -1.5655e+000 +3.5261e-001 +4.6124e+000 -4.2173e+000 -8.0387e-001 +7.6899e-001 -8.4681e-001 +4.5390e+000 +3.4849e-002 +2.6593e-002 +2.0133e+000 +4.3734e+000 -4.6035e-001 -2.0335e+000 -3.3799e+000 -2.2628e+000 -1.1194e+000 +2.2153e+000
42 0 +0.000000000e+000 -1.520400000e+002 -1.520400000e+002 -2.6720e-001 +1.4240e+000 -3.9248e+000 +3.2968e+000 +2.4192e+000 +1.5040e-001 -8.7840e-001 -7.0080e-001 +1.5000e+000 +3.4808e+000 -8.4400e-001 -2.6416e+000 -3.9088e+000 +3.8936e+000 +2.8400e-001 +1.2368e+000 +2.0504e+000 +2.9920e-001 -3.6400e-001 +3.9512e+000
% f evaluations | g evaluations | best noise-free fitness - Fopt (-2.525000000000e+001) + sum g_i+ | measured fitness | best measured fitness or single-digit g-values | x1 | x2...
1 0 +2.526950187e+002 +2.274450187e+002 +2.274450187e+002 +2.8553e+000 +2.1053e+000 -2.9324e+000 +1.3634e+000 -3.1758e+000 -4.3239e+000 +3.3499e+000 +2.5495e+000 +3.6389e+000 +3.2718e+000 -2.4495e+000 +4.7244e+000 -3.7449e+000 -3.5508e+000 +2.2888e+000 +9.9404e-001 +4.8896e-001 -3.9600e+000 -2.5575e+000 +2.2093e+000
2 0 +2.460240242e+002 +2.207740242e+002 +2.207740242e+002 -2.1639e+000 -3.2888e+000 -1.2864e+000 -1.2988e+000 -4.5053e+000 +1.1718e+000 -3.5394e+000 -2.2237e+000 -1.0448e+000 +2.7799e+000 +8.6331e-001 +2.5665e+000 +4.0114e+000 -2.8120e+000 +2.3943e+000 -2.6318e+000 +1.8557e+000 +3.3599e+000 -2.2430e-001 -3.0417e+000
4 0 +2.219861577e+002 +1.967361577e+002 +1.967361577e+002 -1.8910e-001 -7.8180e-001 -1.0933e+000 -1.7147e+000 -3.3252e+000 +1.3565e+000 +3.5619e+000 +2.8273e+000 +2.7730e+000 -6.9341e-001 +1.3209e+000 -2.7999e-001 +2.5483e+000 +1.0957e+000 +2.6540e+000 -4.9815e+000 +4.5305e+000 +1.5393e+000 +7.5194e-001 -2.0735e+000
5 0 +2.074172660e+002 +1.821672660e+002 +1.821672660e+002 -3.4109e+000 +2.1808e+000 -2.3824e+000 -3.5072e+000 +2.8872e+000 +4.7577e+000 -1.8048e+000 +4.4654e+000 -1.8779e+000 -4.4689e+000 +4.9258e+000 +3.3261e+000 -4.1780e+000 -3.1132e+000 +2.7045e+000 -4.7458e+000 +3.9594e+000 -4.9683e-001 +2.1160e+000 -2.6890e+000
10 0 +1.589948753e+002 +1.337448753e+002 +1.337448753e+002 +1.8288e+000 +2.5670e+000 -3.6628e+000 -9.9697e-001 -2.8901e-001 +3.1852e+000 +2.3897e-001 +2.2209e+000 +2.2755e+000 +1.4564e+000 -1.8844e+000 -7.8877e-001 -4.0108e-001 +2.8581e+000 +3.7429e+000 +1.4221e+000 -4.5278e-001 +2.5518e+000 -2.5770e+000 +2.8406e+000
13 0 +1.544211309e+002 +1.291711309e+002 +1.291711309e+002 +2.2306e+000 -2.5403e+000 +1.2246e+000 -3.2273e+000 +4.5727e+000 -4.4991e+000 -1.8796e+000 -2.1826e-001 +4.1235e+000 -2.8021e+000 +3.1456e+000 +2.4257e+000 +1.9386e+000 -3.4358e+000 +3.4387e+000 +4.6389e+000 -4.3338e+000 -4.4932e+000 +3.7330e+000 +2.3390e+000
19 0 +1.440272332e+002 +1.187772332e+002 +1.187772332e+002 -9.6100e-001 +1.8661e+000 -2.1718e+000 -2.2529e+000 +4.2767e+000 -3.9863e+000 +1.7296e+000 -3.9637e+000 +1.5755e+000 -4.7400e+000 -9.4884e-001 +1.8668e+000 +1.3646e+000 -1.2734e+000 -5.4804e-001 -8.0879e-001 -1.7371e+000 -3.8656e+000 -1.7249e+000 +4.0952e+000
29 0 +1.170696611e+002 +9.181966114e+001 +9.181966114e+001 -3.1422e-001 -4.6239e+000 -3.8049e+000 -4.5803e+000 +2.7282e+000 +9.2853e-001 -2.5132e+000 +4.4374e-001 +2.6809e+000 +4.8284e-001 -1.1034e-001 +3.3696e-002 -2.2306e+000 +1.5279e+000 -1.2002e+000 -1.5300e+000 -7.5624e-001 +1.1418e+000 +1.5824e+000 -4.5597e+000
42 0 +0.000000000e+000 -2.525000000e+001 -2.525000000e+001 +3.6144e+000 +6.3520e-001 -1.4216e+000 -2.1528e+000 +3.2968e+000 -1.0160e-001 -2.4752e+000 -1.8152e+000 +1.3128e+000 -2.6728e+000 +2.6424e+000 +1.1200e+000 -2.5704e+000 +4.2400e-002 +2.0408e+000 +3.1440e-001 -6.3120e-001 -1.3080e+000 +3.6080e-001 -1.1552e+000
% f evaluations | g evaluations | best noise-free fitness - Fopt (1.830100000000e+002) + sum g_i+ | measured fitness | best measured fitness or single-digit g-values | x1 | x2...
1 0 +2.299211389e+002 +4.129311389e+002 +4.129311389e+002 -3.3188e+000 +8.8925e-001 +8.4755e-001 +1.7317e-001 +2.7773e+000 -3.3361e+000 -4.2444e+000 -2.6344e+000 +2.2846e+000 +1.2104e+000 +1.8453e-002 +2.1158e+000 -1.5567e+000 -1.5499e+000 -2.5390e+000 -2.2657e+000 +2.8236e+000 -4.7032e-001 +2.4445e+000 +3.9958e+000
3 0 +2.174998441e+002 +4.005098441e+002 +4.005098441e+002 -1.9321e+000 +2.6562e+000 -1.3018e+000 -2.0674e+000 -3.2511e-001 +4.1267e+000 +4.4459e+000 +9.9389e-002 +4.9955e+000 -3.7896e+000 -6.5126e-001 -2.0392e+000 -1.7856e+000 -2.5649e+000 -1.5849e+000 +7.6735e-001 -3.7319e+000 -3.0160e+000 -5.3699e-001 +9.8566e-001
4 0 +2.010368736e+002 +3.840468736e+002 +3.840468736e+002 -2.2690e+000 -1.9866e+000 -1.3915e+000 +3.2319e+000 -3.3221e+000 +2.7604e+000 +1.0325e+000 -1.0627e+000 +3.4756e+000 -4.6653e+000 -2.3447e+000 -3.8028e+000 -6.0947e-001 +9.0746e-001 -3.1245e-001 -2.6693e-001 +2.1391e+000 +6.4510e-001 +4.6756e+000 +4.1879e+000
10 0 +1.931410385e+002 +3.761510385e+002 +3.761510385e+002 -2.3943e+000 -2.5877e+000 -2.3600e+000 -2.5798e+000 -4.5330e+000 +4.4962e+000 -2.3625e+000 +4.9685e+000 -1.3073e+000 +3.1930e+000 +2.1647e+000 -3.1284e+000 +2.2367e+000 -4.1016e+000 +6.9533e-001 +1.7242e+000 -8.9055e-001 -1.4445e+000 +2.0257e+000 +4.0957e+000
33 0 +1.266352550e+002 +3.096452550e+002 +3.096452550e+002 +9.9212e-001 +3.8893e+000 -3.2127e+000 +4.7215e+000 -3.9497e+000 +2.4766e+000 -2.9968e+000 +4.5874e+000 +2.1898e-001 -4.9948e+000 +5.0792e-001 -2.8748e+000 -2.7600e-001 +2.9382e+000 +3.1320e+000 -9.3582e-001 +1.3970e+000 +8.6017e-001 +1.7578e+000 -1.6457e+000
42 0 +0.000000000e+000 +1.830100000e+002 +1.830100000e+002 -2.1360e+000 +3.1032e+000 -2.8520e+000 +1.0296e+000 -3.5568e+000 +2.7760e-001 -3.9568e+000 +2.5720e+000 +2.8464e+000 -2.1864e+000 +1.4856e+000 -3.6800e-002 -1.2928e+000 -3.8144e+000 +3.5672e+000 +3.1264e+000 +8.5760e-001 -3.2560e-001 +3.6720e+000 -1.7696e+000
% f evaluations | g evaluations | best noise-free fitness - Fopt (1.835200000000e+002) + sum g_i+ | measured fitness | best measured fitness or single-digit g-values | x1 | x2...
1 0 +2.629225234e+002 +4.464425234e+002 +4.464425234e+002 -3.7607e+000 +6.0281e-001 -3.3171e-001 -2.1524e+000 -3.7656e+000 +3.7125e+000 -3.9466e+000 +3.3832e+000 +4.6953e+000 +8.6051e-001 +2.5862e+000 +3.4269e+000 -2.5018e+000 -2.9965e+000 -2.2008e+000 -2.8932e+000 -3.2100e+000 -1.4478e+000 -2.0149e+000 +2.0005e+000
4 0 +2.539901624e+002 +4.375101624e+002 +4.375101624e+002 -2.8013e+000 -3.0627e+000 -1.4813e+000 -2.1264e+000 +1.9131e+000 -4.2357e-002 +2.0262e+000 +1.8095e+000 -1.0523e+000 -4.4605e+000 +3.4878e+000 -2.1231e-001 -3.7722e+000 -7.5827e-001 -3.6530e+000 -4.9573e+000 -1.3194e+000 -4.8426e+000 +3.9686e+000 -2.3773e+000
6 0 +2.262807007e+002 +4.098007007e+002 +4.098007007e+002 +6.4752e-001 -1.4415e-001 -3.6576e+000 +2.7823e+000 -2.2472e+000 -3.5831e+000 -1.7710e+000 -1.5916e+000 +2.8556e-001 +4.5150e+000 +2.1563e+000 +1.2266e+000 -4.0469e+000 -3.2150e+000 -4.1465e+000 -2.1559e+000 +3.9294e+000 +1.6883e+000 -9.6715e-001 -4.3650e+000
7 0 +1.666417868e+002 +3.501617868e+002 +3.501617868e+002 -2.9244e+000 +2.8738e+000 -3.0312e+000 +2.0828e+000 -2.7576e+000 +1.4044e+000 +2.1474e+000 +3.1174e+000 -1.8243e-002 -3.8831e+000 -1.0078e+000 -7.2786e-001 -6.9605e-002 +2.0231e-001 -1.9908e+000 +3.9653e+000 -1.6338e+000 +2.7310e+000 -2.6553e+000 -3.4978e+000
10 0 +1.061215107e+002 +2.896415107e+002 +2.896415107e+002 -2.9235e+000 -3.0971e+000 -3.0556e-001 -1.0887e+000 +3.0357e+000 +4.9638e+000 +2.5042e+000 -7.6241e-001 +1.0030e+000 -1.6577e+000 +4.2326e+000 +2.3668e+000 -2.9993e+000 -3.2119e+000 -1.6197e+000 +2.0162e+000 +1.6684e+000 +2.4163e-001 -1.5249e+000 -1.5515e+000
42 0 +0.000000000e+000 +1.835200000e+002 +1.835200000e+002 -2.1600e-002 -3.9416e+000 -2.3344e+000 -2.0432e+000 -6.5760e-001 +2.5064e+000 +3.6328e+000 +2.5576e+000 +1.0288e+000 -1.7760e-001 -2.4912e+000 +3.6360e+000 -3.8624e+000 -2.3104e+000 -1.2120e+000 +3.6232e+000 +2.6400e+000 -4.1040e-001 -2.0264e+000 -3.7976e+000
% f evaluations | g evaluations | best noise-free fitness - Fopt (-5.938400000000e+002) + sum g_i+ | measured fitness | best measured fitness or single-digit g-values | x1 | x2...
1 0 +2.559309510e+002 -3.379090490e+002 -3.379090490e+002 -1.2088e+000 -3.5740e+000 -2.8509e+000 +5.7326e-001 -3.0325e+000 -3.4726e+000 +3.2959e+000 -4.8907e+000 +2.5492e-001 +4.3795e+000 -1.3929e-001 -4.0538e+000 -2.0929e+000 +3.5304e+000 +4.2773e+000 -4.8325e+000 +1.9301e+000 -4.9161e+000 -2.3671e-001 -8.0435e-001
2 0 +2.155078531e+002 -3.783321469e+002 -3.783321469e+002 +3.6019e+000 +3.7222e+000 +2.0784e+000 +1.6366e+000 -5.1278e-001 -1.2303e+000 +1.5094e+000 -4.7779e+000 -3.3650e+000 -1.7011e+000 +2.1966e+000 -1.8368e+000 -9.2071e-001 +4.6015e+000 -2.4637e-001 +3.2002e+000 -4.4947e+000 -2.5171e+000 -2.7160e+000 +3.4327e+000
5 0 +2.040511995e+002 -3.897888005e+002 -3.897888005e+002 +3.6777e+000 +4.2749e+000 +1.3440e+000 +2.3926e+000 -2.2178e+000 +7.2435e-001 -2.6352e-001 +2.2004e+000 -2.8864e+000 +2.8238e+000 -2.6766e-001 -4.0366e+000 -5.9891e-001 -5.9035e-001 -2.8468e+000 -3.9725e+000 +2.2323e-002 +2.4636e+000 -2.9781e+000 +4.5147e+000
11 0 +1.552044354e+002 -4.386355646e+002 -4.386355646e+002 +2.8100e+000 +1.2924e+000 +1.1101e+000 +4.4417e+000 -1.5636e+000 -1.0831e+000 -3.3799e+000 -2.3293e+000 -2.3214e+000 -4.0516e+000 +1.9672e+000 -2.2556e+000 +2.0095e-001 +1.9253e+000 +2.3906e+000 +8.0194e-001 -3.5202e+000 -3.4426e+000 +3.6569e+000 +3.7325e+000
42 0 +0.000000000e+000 -5.938400000e+002 -5.938400000e+002 -2.5696e+000 +9.4400e-002 +5.7200e-001 +2.1336e+000 +1.3664e+000 +2.4672e+000 -3.6240e+000 -1.7408e+000 -3.0680e+000 +2.2968e+000 +3.8064e+000 -3.5560e+000 -3.2920e+000 -7.1120e-001 -3.0240e-001 +2.7600e-001 +3.0560e-001 -2.5912e+000 +1.5312e+000 +1.4688e+000
% f evaluations | g evaluations | best noise-free fitness - Fopt (-1.000000000000e+003) + sum g_i+ | measured fitness | best measured fitness or single-digit g-values | x1 | x2...
1 0 +3.103127309e+002 -6.896872691e+002 -6.896872691e+002 +2.1092e+000 +1.0611e+000 +3.8137e+000 +9.6745e-001 -7.4001e-001 -3.0657e+000 +3.4143e+000 -3.7216e+000 +2.8892e+000 -8.8982e-001 -6.2587e-001 +1.7217e+000 -1.6957e+000 +4.2003e+000 +3.1031e+000 -6.9243e-001 +3.0266e+000 +3.6999e+000 -2.7490e+000 -2.7672e+000
2 0 +2.947706949e+002 -7.052293051e+002 -7.052293051e+002 +3.6861e+000 -1.4434e+000 -1.2259e+000 -4.6446e+000 +3.8705e+000 +3.9033e-001 -4.2743e+000 +2.6723e+000 -1.9809e+000 -5.9532e-001 -8.0992e-001 +4.3065e+000 -8.0803e-001 +2.1681e+000 -4.0669e+000 -3.6974e+000 -3.3950e+000 +3.3871e+000 +1.8027e+000 +1.3335e-001
3 0 +2.610132486e+002 -7.389867514e+002 -7.389867514e+002 +2.1874e+000 +4.5566e+000 +6.8958e-001 -4.7649e+000 +4.1031e+000 -1.0583e+000 -1.0538e+000 -2.8814e+000 -8.3202e-001 -3.2669e+000 +5.6183e-001 +6.4319e-001 -4.5949e+000 -3.5874e+000 +4.1047e+000 +2.8953e+000 +5.9738e-001 -1.6221e+000 -1.5322e+000 -2.2208e+000
6 0 +2.223688497e+002 -7.776311503e+002 -7.776311503e+002 +2.6105e+000 -2.6632e+000 -4.6232e+000 +3.1658e+000 +2.2365e+000 -1.6565e+000 +3.2568e+000 -4.5577e+000 +1.7771e+000 +1.1205e+000 -2.7958e+000 +3.2797e+000 +3.5943e+000 +4.0528e+000 -4.9649e+000 +2.9986e+000 +6.4727e-001 -1.1309e+000 +3.7383e+000 -3.3176e+000
7 0 +1.767227574e+002 -8.232772426e+002 -8.232772426e+002 -1.6160e+000 +2.1031e+000 +1.0048e+000 -2.5411e+000 -3.2154e+000 +3.4307e+000 -1.2447e-001 +5.2990e-001 -1.8519e-004 +3.0428e+000 -4.5575e+000 +9.8040e-001 -3.4187e+000 -1.3362e+000 +4.4935e+000 +5.0626e-001 +4.1732e+000 -9.1843e-001 +1.2722e+000 -8.8911e-001
24 0 +1.695385424e+002 -8.304614576e+002 -8.304614576e+002 -3.2331e+000 +2.7766e-002 +1.6205e+000 +2.7456e+000 -9.4001e-001 +1.4588e+000 +2.5127e+000 +1.6204e+000 +3.8199e+000 +2.0784e-001 -9.7987e-001 -4.8993e+000 -1.5652e-001 -9.3676e-001 +3.1386e+000 +1.1121e+000 +1.7954e+000 -9.1150e-001 +3.0157e+000 +1.3584e+000
32 0 +1.484724955e+002 -8.515275045e+002 -8.515275045e+002 +1.9131e+000 +1.9681e+000 -3.5227e+000 +4.0540e+000 +3.2120e+000 -2.0734e+000 +3.9950e+000 +2.5708e-001 +3.8748e-001 -3.3789e+000 -1.1740e+000 +8.6434e-001 +3.3463e+000 +6.2374e-002 -4.1148e+000 +2.3280e+000 +2.4727e+000 -2.2440e+000 +1.1211e+000 -1.5627e+000
42 0 +0.000000000e+000 -1.000000000e+003 -1.000000000e+003 -3.8432e+000 +3.8528e+000 -3.8216e+000 -2.4456e+000 +2.3008e+000 +1.3064e+000 +3.7192e+000 +1.4208e+000 -1.4160e+000 +1.9280e+000 -2.2776e+000 -8.2560e-001 +1.4880e+000 +1.1848e+000 -1.4192e+000 +3.0120e+000 +1.0776e+000 -4.4880e-001 +2.5784e+000 -8.2960e-001
% f evaluations | g evaluations | best noise-free fitness - Fopt (-2.531000000000e+001) + sum g_i+ | measured fitness | best measured fitness or single-digit g-values | x1 | x2...
1 0 +2.828417044e+002 +2.575317044e+002 +2.575317044e+002 -4.1119e+000 +9.1195e-001 +1.3858e+000 -2.3429e+000 -4.6111e+000 +1.4497e+000 -2.8425e+000 -4.2965e-001 -4.1581e+000 -1.6621e+000 -3.8551e+000 -4.0247e+000 +3.1028e+000 +1.1480e+000 -4.8741e+000 -4.4283e-001 +8.0341e-001 -1.1850e+000 -3.2751e+000 -1.7257e+000
2 0 +2.687746877e+002 +2.434646877e+002 +2.434646877e+002 -4.6938e+000 -4.4525e+000 -6.3002e-001 +2.7889e+000 +3.9442e+000 +1.2596e+000 +1.7446e+000 +2.7180e+000 +2.3464e+000 -3.5849e+000 +2.7748e+000 +4.2244e+000 -2.9246e-001 -2.8688e+000 -2.3448e+000 +6.6366e-002 -7.7201e-001 +1.4075e-001 +1.9086e-001 +4.6448e+000
3 0 +1.910368081e+002 +1.657268081e+002 +1.657268081e+002 +4.6334e+000 -1.2104e+000 +1.8242e+000 +8.1162e-001 +2.6756e+000 +6.2713e-001 -1.8885e+000 +2.2476e+000 -4.1747e+000 +4.3477e+000 +4.1299e+000 -4.9318e+000 -1.0164e+000 -1.1510e+000 +1.3198e+000 +4.9838e+000 -1.0260e+000 -4.9092e-003 -3.9371e-001 +1.8194e+000
12 0 +1.779444673e+002 +1.526344673e+002 +1.526344673e+002 -2.5491e+000 -1.6949e-001 +6.8057e-001 -3.7619e+000 +2.9698e+000 +7.1546e-001 -2.6748e+000 +1.7276e+000 -1.1131e+000 -3.2728e+000 -7.8371e-001 +4.1497e+000 -1.5696e+000 +1.3620e+000 -3.3412e+000 -4.3061e+000 -4.7864e+000 +2.8963e+000 +7.2624e-001 +3.4837e+000
18 0 +1.415957832e+002 +1.162857832e+002 +1.162857832e+002 +3.9611e+000 +6.1534e-001 -3.0437e+000 +3.1329e-001 -1.1514e+000 -2.3221e+000 +1.8952e-001 +3.1929e+000 -3.7204e+000 -6.2529e-001 +2.7064e+000 +1.6888e+000 -7.3438e-003 +2.8369e+000 +1.5901e+000 -6.9202e-001 +2.5433e+000 -1.3338e+000 +6.5350e-001 -2.0811e+000
38 0 +1.345642984e+002 +1.092542984e+002 +1.092542984e+002 +4.2212e+000 -9.9789e-001 +4.3292e-001 -8.4054e-001 +2.7777e+000 -3.1312e+000 +1.3587e-001 +2.1142e+000 -2.3837e+000 -2.8931e+000 -1.3207e+000 +3.2509e+000 +3.0142e+000 +3.2031e-001 +2.6230e+000 +4.0185e-001 -1.8871e+000 +4.2825e+000 -3.0983e+000 +2.0964e+000
42 0 +0.000000000e+000 -2.531000000e+001 -2.531000000e+001 +3.4688e+000 +3.5328e+000 +8.5280e-001 +3.1864e+000 +2.3872e+000 -1.7624e+000 -1.6648e+000 +2.6480e-001 -3.4312e+000 +9.6640e-001 +1.0360e+000 +1.9592e+000 +1.6736e+000 +1.1784e+000 -1.5888e+000 -2.1512e+000 -3.9384e+000 -1.0536e+000 -7.1040e-001 +2.0800e+000
% f evaluations | g evaluations | best noise-free fitness - Fopt (2.228000000000e+001) + sum g_i+ | measured fitness | best measured fitness or single-digit g-values | x1 | x2...
1 0 +2.550087838e+002 +2.772887838e+002 +2.772887838e+002 +1.9740e+000 -3.0872e+000 -3.3087e-001 +2.4613e+000 +4.7791e+000 -8.6060e-001 -4.1444e-001 -9.3254e-001 -4.2148e+000 -2.3301e+000 +9.7691e-001 -4.2548e+000 -7.5741e-001 -2.8430e+000 +4.6888e+000 +2.7698e+000 +9.5420e-001 -1.4423e+000 +3.2906e+000 +3.3965e-001
6 0 +1.923997277e+002 +2.146797277e+002 +2.146797277e+002 +3.9639e+000 -3.5102e+000 -3.3539e+000 -4.9106e+000 +1.6672e+000 -3.3406e+000 -1.8407e+000 -1.2280e+000 +3.4169e+000 -3.9393e-001 -1.6067e+000 -2.0216e+000 -4.0148e+000 -3.4127e+000 +4.3876e+000 -3.4435e+000 -1.3658e+000 -6.8422e-001 -2.0334e+000 +2.0481e+000
14 0 +1.659908708e+002 +1.882708708e+002 +1.882708708e+002 +2.2777e-001 -1.7027e+000 -7.0372e-001 -4.3676e+000 -6.2280e-001 +2.6573e+000 -3.7493e+000 +1.6317e+000 +4.5682e+000 -4.9361e-001 +1.6853e-001 -3.4630e+000 -4.6084e+000 -1.8357e+000 +3.9244e+000 -2.5735e+000 -2.7199e+000 -4.5670e+000 -2.4385e+000 +4.4674e+000
33 0 +1.502465247e+002 +1.725265247e+002 +1.725265247e+002 +9.3304e-001 +4.9600e+000 -2.8875e-001 +6.4184e-001 -4.8893e+000 +2.5180e+000 +2.3779e-001 -3.6690e+000 +3.1003e+000 +9.5915e-001 +1.4219e+000 +3.4455e+000 -3.8426e+000 -1.9194e+000 -3.1342e+000 +7.9527e-001 -2.5414e+000 +3.6471e-001 +1.8222e+000 +1.3747e+000
42 0 +0.000000000e+000 +2.228000000e+001 +2.228000000e+001 +1.4128e+000 -1.7768e+000 -1.8216e+000 +1.0176e+000 -2.6616e+000 +3.7464e+000 +2.8480e-001 +2.7000e+000 +2.7080e+000 +2.7792e+000 -4.8000e-002 +1.4632e+000 -2.4000e+000 -3.3776e+000 +1.8056e+000 -2.3760e+000 -2.1200e-001 +9.5280e-001 +2.0640e+000 +2.4000e+000
% f evaluations | g evaluations | best noise-free fitness - Fopt (3.561400000000e+002) + sum g_i+ | measured fitness | best measured fitness or single-digit g-values | x1 | x2...
1 0 +2.451224307e+002 +6.012624307e+002 +6.012624307e+002 +3.5996e+000 -1.6833e+000 -2.0736e+000 -3.0314e+000 -1.2043e+000 +4.4887e+000 -3.2859e+000 -1.1882e+000 -3.6812e+000 +9.9064e-001 -2.9140e+000 +1.5005e+000 -1.4921e+000 +4.8041e+000 -3.1759e+000 -3.6742e-001 +2.6677e+000 -3.8739e+000 +4.1388e-001 +1.1183e+000
5 0 +2.297563392e+002 +5.858963392e+002 +5.858963392e+002 +3.8406e+000 +7.5926e-001 -2.4828e+000 -3.7154e-001 -2.5126e+000 +4.5395e+000 -2.8669e-001 -3.5284e+000 -4.6166e+000 +2.8036e+000 +2.7226e+000 -4.8584e+000 -1.9054e+000 -4.5427e+000 +2.7021e+000 -2.9858e+000 -7.3879e-001 +2.3452e+000 -3.0910e+000 +3.9613e-002
10 0 +1.733159639e+002 +5.294559639e+002 +5.294559639e+002 -4.0371e+000 -3.3524e+000 -1.2105e+000 +5.4562e-001 -1.1478e+000 -2.7867e+000 -8.0654e-001 +9.0178e-001 +3.7042e+000 -6.6694e-001 +3.7185e+000 +7.8851e-001 -1.0664e+000 -3.9018e-001 -1.5080e-001 -1.3127e-002 +1.3067e-001 +1.0895e+000 +1.6805e+000 -3.3498e+000
42 0 +0.000000000e+000 +3.561400000e+002 +3.561400000e+002 +1.4584e+000 -5.2480e-001 -3.5376e+000 +2.2224e+000 +1.4280e+000 +1.6232e+000 +8.8800e-001 +9.4240e-001 -1.0104e+000 +3.3656e+000 +3.8648e+000 +3.2936e+000 +1.9632e+000 +1.5744e+000 -1.0840e+000 -2.2504e+000 -3.4600e+000 +2.6440e+000 +4.7680e-001 +8.3120e-001
% f evaluations | g evaluations | best noise-free fitness - Fopt (-4.757000000000e+002) + sum g_i+ | measured fitness | best measured fitness or single-digit g-values | x1 | x2...
1 0 +2.020699476e+002 -2.736300524e+002 -2.736300524e+002 -9.3930e-001 +3.3845e+000 -6.7842e-001 +3.5890e+000 +1.6964e+000 -1.5432e+000 +1.8679e+000 -3.0698e+000 -3.2206e+000 +1.2041e+000 -3.0802e+000 +3.3941e+000 -2.9482e+000 +1.3132e-001 -7.2455e-001 -3.8260e+000 +4.3104e+000 -3.6429e+000 +3.3768e+000 -2.5392e-001
16 0 +1.660759726e+002 -3.096240274e+002 -3.096240274e+002 +3.5940e+000 -2.2880e+000 +3.7336e+000 +4.0175e+000 -1.3949e+000 +1.3095e+000 +9.4490e-001 +4.1576e+000 -1.1388e+000 -2.5491e+000 -8.6703e-001 -1.4127e+000 -3.7769e+000 -6.3781e-001 -4.9176e-001 -4.7216e+000 -3.5383e+000 +2.3936e+000 +2.5938e+000 +1.2132e+000
20 0 +1.580487099e+002 -3.176512901e+002 -3.176512901e+002 +1.8943e+000 +2.0907e+000 +1.4318e+000 +2.9589e+000 -7.6572e-001 +6.1673e-001 -3.1487e-001 +4.0304e+000 +2.8976e+000 -2.9299e-001 -1.8757e+000 -4.9507e+000 -3.2633e+000 -1.5600e+000 -8.8956e-001 -2.3944e+000 +2.6656e+000 -8.2858e-001 -4.2986e+000 -2.0509e+000
35 0 +1.541874111e+002 -3.215125889e+002 -3.215125889e+002 +1.0896e+000 +1.7858e+000 +2.3724e+000 +1.2047e+000 +4.2211e+000 +1.0834e+000 +1.8009e+000 +7.7019e-001 -2.7925e+000 +2.2933e+000 -2.6719e+000 -1.7457e+000 +9.9931e-001 -5.5901e-001 +3.4734e+000 -3.0132e+000 -1.5795e+000 +9.4900e-001 +1.3804e+000 +2.6840e+000
42 0 +0.000000000e+000 -4.757000000e+002 -4.757000000e+002 -8.2960e-001 -4.4400e-001 +3.7872e+000 +3.0064e+000 -1.6832e+000 -2.7352e+000 +8.4800e-001 -1.8000e-001 -3.8344e+000 +2.2800e-001 +6.2240e-001 -7.8080e-001 -2.3544e+000 -1.0552e+000 +3.3144e+000 -3.9688e+000 -1.3376e+000 -1.0816e+000 -3.6552e+000 -2.7864e+000
% f evaluations | g evaluations | best noise-free fitness - Fopt (-1.000000000000e+003) + sum g_i+ | measured fitness | best measured fitness or single-digit g-values | x1 | x2...
1 0 +2.411903121e+002 -7.588096879e+002 -7.588096879e+002 +8.2661e-001 -6.3325e-001 -1.0462e+000 -2.7343e+000 -8.6270e-001 -2.8538e+000 -3.4223e+000 -1.2932e+000 -1.5323e+000 -4.9497e+000 +3.6235e+000 +5.4346e-001 -4.7433e+000 +2.7956e+000 -1.2672e+000 +9.8363e-001 +7.3541e-001 +4.9377e+000 -3.7130e+000 -1.6075e+000
6 0 +1.549987440e+002 -8.450012560e+002 -8.450012560e+002 -2.9539e+000 -3.3886e-001 +2.4095e+000 -2.2945e+000 +2.8255e+000 -3.1602e+000 +1.2557e+000 +2.1265e+000 +2.9711e+000 +3.9936e+000 -1.4903e+000 -2.0597e-001 -1.9912e+000 -1.4041e+000 +4.0545e+000 -4.7114e+000 -2.9740e-001 -1.6475e+000 -6.0170e-001 +2.5990e+000
42 0 +0.000000000e+000 -1.000000000e+003 -1.000000000e+003 -3.8024e+000 +3.3216e+000 +3.7328e+000 -1.4208e+000 -1.8336e+000 -2.2920e+000 -3.8944e+000 +1.6688e+000 +5.9840e-001 -2.9640e+000 -1.0656e+000 +3.2632e+000 -4.8640e-001 -1.9104e+000 +3.3616e+000 -3.6776e+000 +2.0480e-001 +2.0896e+000 +1.4592e+000 +1.9800e+000
% f evaluations | g evaluations | best noise-free fitness - Fopt (-4.158000000000e+001) + sum g_i+ | measured fitness | best measured fitness or single-digit g-values | x1 | x2...
1 0 +3.464946716e+002 +3.049146716e+002 +3.049146716e+002 -3.0563e+000 -4.5722e+000 +3.2854e+000 +2.9468e+000 -3.1960e+000 -3.4088e+000 -1.5561e+000 +3.7149e+000 -3.1109e+000 -1.8363e+000 -4.9309e-001 -3.7284e+000 +2.8679e+000 -6.5479e-001 -1.1232e+000 -3.2890e+000 +3.8035e+000 +2.0028e-001 +7.9495e-001 -4.3268e+000
2 0 +1.773351431e+002 +1.357551431e+002 +1.357551431e+002 -2.0378e+000 +3.9014e+000 -3.5483e+000 -1.4348e+000 -2.4714e+000 -4.8296e+000 -2.4812e+000 +8.7629e-001 +1.2809e+000 +1.2688e+000 +1.9272e+000 -1.6579e+000 -1.1024e+000 +1.8968e+000 +1.7399e+000 -6.2262e-001 +5.0039e-001 +2.1835e+000 -6.9433e-001 -2.3251e+000
21 0 +1.422369242e+002 +1.006569242e+002 +1.006569242e+002 +3.2359e+000 +3.2088e+000 -5.8025e-001 +8.8021e-002 -2.0347e+000 -2.5885e+000 -1.2260e+000 +8.9397e-001 -3.2291e+000 +1.7569e-001 +1.1843e+000 -7.1251e-001 +4.2010e+000 -3.5244e+000 -4.8788e+000 -9.9286e-001 +3.1404e+000 +1.3224e+000 +1.6270e+000 -6.0281e-001
40 0 +1.309130161e+002 +8.933301615e+001 +8.933301615e+001 +3.1772e-001 +1.3819e+000 -4.1331e+000 -4.8853e+000 +1.4385e+000 +2.9560e+000 +3.4422e+000 -2.7692e+000 +4.1865e+000 -1.2815e+000 -2.9542e+000 +3.6838e+000 +2.3904e+000 +2.7035e-001 -4.7569e+000 +4.2375e+000 +1.5982e-001 -1.1480e+000 -1.5125e+000 +5.1763e-001
42 0 +0.000000000e+000 -4.158000000e+001 -4.158000000e+001 +5.9760e-001 +2.8528e+000 -3.1376e+000 -1.0480e-001 -1.1320e+000 +3.2112e+000 +9.3600e-001 -2.4240e+000 +1.2672e+000 +3.2320e+000 -7.5120e-001 +2.5896e+000 +1.7832e+000 -2.5728e+000 -2.0504e+000 +1.2584e+000 +4.8720e-001 +3.2256e+000 +7.0960e-001 -2.3080e+000
