% f evaluations | g evaluations | best noise-free fitness - Fopt (-4.620900000000e+002) + sum g_i+ | measured fitness | best measured fitness or single-digit g-values | x1 | x2...
1 0 +1.254104760e+003 +7.920147598e+002 +7.920147598e+002 +5.0000e+000 -5.0000e+000
2 0 +5.302919149e+002 +6.820191487e+001 +6.820191487e+001 -5.0000e+000 -5.0000e+000
4 0 +1.350690056e+002 -3.270209944e+002 -3.270209944e+002 -5.0000e+000 +5.0000e+000
6 0 +3.654935419e+001 -4.255406458e+002 -4.255406458e+002 -2.0199e+000 +1.9783e+000
9 0 +3.519378954e+001 -4.268962105e+002 -4.268962105e+002 -3.0627e+000 +2.3087e+000
28 0 +3.191696599e+001 -4.301730340e+002 -4.301730340e+002 -2.6693e+000 +2.3549e+000
30 0 +1.871037637e+001 -4.433796236e+002 -4.433796236e+002 -5.8953e-001 +2.5570e+000
50 0 +5.957176623e+000 -4.561328234e+002 -4.561328234e+002 +1.2301e+000 +2.3040e+000
68 0 +5.275530091e+000 -4.568144699e+002 -4.568144699e+002 +1.4215e+000 +2.5839e+000
169 0 +2.679921375e+000 -4.594100786e+002 -4.594100786e+002 +1.3095e+000 +2.5961e+000
249 0 +2.116285736e+000 -4.599737143e+002 -4.599737143e+002 +1.3622e+000 +2.6059e+000
250 0 +2.002772221e+000 -4.600872278e+002 -4.600872278e+002 +1.3456e+000 +2.6081e+000
370 0 +1.992042810e+000 -4.600979572e+002 -4.600979572e+002 +1.3451e+000 +2.6047e+000
1291 0 +1.932360493e+000 -4.601576395e+002 -4.601576395e+002 +1.3861e+000 +2.3116e+000
1355 0 +1.844296626e+000 -4.602457034e+002 -4.602457034e+002 +2.2725e+000 +2.2764e+000
1441 0 +1.196761839e+000 -4.608932382e+002 -4.608932382e+002 +2.2631e+000 +2.2889e+000
1489 0 +1.053837304e+000 -4.610361627e+002 -4.610361627e+002 +1.3551e+000 +2.3024e+000
1533 0 +4.565719436e-001 -4.616334281e+002 -4.616334281e+002 +2.2956e+000 +2.3018e+000
1560 0 +2.116315279e-001 -4.618783685e+002 -4.618783685e+002 +2.3095e+000 +2.3012e+000
1731 0 +3.549130403e-002 -4.620545087e+002 -4.620545087e+002 +2.3278e+000 +2.2992e+000
1791 0 +4.395171801e-003 -4.620856048e+002 -4.620856048e+002 +2.3365e+000 +2.2999e+000
1920 0 +2.348225206e-003 -4.620876518e+002 -4.620876518e+002 +2.3375e+000 +2.3000e+000
1970 0 +1.581776883e-003 -4.620884182e+002 -4.620884182e+002 +2.3399e+000 +2.2991e+000
2023 0 +3.669582910e-004 -4.620896330e+002 -4.620896330e+002 +2.3406e+000 +2.2996e+000
2055 0 +7.751270329e-005 -4.620899225e+002 -4.620899225e+002 +2.3403e+000 +2.3001e+000
2077 0 +6.095180538e-007 -4.620899994e+002 -4.620899994e+002 +2.3408e+000 +2.3000e+000
2198 0 +3.872117418e-007 -4.620899996e+002 -4.620899996e+002 +2.3408e+000 +2.3000e+000
2238 0 +2.393688874e-007 -4.620899998e+002 -4.620899998e+002 +2.3408e+000 +2.3000e+000
2361 0 +1.885827032e-007 -4.620899998e+002 -4.620899998e+002 +2.3408e+000 +2.3000e+000
2371 0 +1.798509857e-007 -4.620899998e+002 -4.620899998e+002 +2.3408e+000 +2.3000e+000
2375 0 +1.259493843e-007 -4.620899999e+002 -4.620899999e+002 +2.3408e+000 +2.3000e+000
2387 0 +9.372735121e-008 -4.620899999e+002 -4.620899999e+002 +2.3408e+000 +2.3000e+000
2433 0 +7.001438007e-008 -4.620899999e+002 -4.620899999e+002 +2.3408e+000 +2.3000e+000
2453 0 +4.216292382e-008 -4.620900000e+002 -4.620900000e+002 +2.3408e+000 +2.3000e+000
2478 0 +2.257968390e-008 -4.620900000e+002 -4.620900000e+002 +2.3408e+000 +2.3000e+000
2489 0 +1.101739144e-008 -4.620900000e+002 -4.620900000e+002 +2.3408e+000 +2.3000e+000
2529 0 +3.070738330e-009 -4.620900000e+002 -4.620900000e+002 +2.3408e+000 +2.3000e+000
% f evaluations | g evaluations | best noise-free fitness - Fopt (7.766000000000e+001) + sum g_i+ | measured fitness | best measured fitness or single-digit g-values | x1 | x2...
1 0 +2.251302039e+002 +3.027902039e+002 +3.027902039e+002 -5.0000e+000 -5.0000e+000
4 0 +1.293415872e+002 +2.070015872e+002 +2.070015872e+002 -4.9508e+000 -3.7665e+000
6 0 +4.985285484e+001 +1.275128548e+002 +1.275128548e+002 -5.0000e+000 -8.3853e-001
26 0 +4.877419649e+001 +1.264341965e+002 +1.264341965e+002 -4.9568e+000 -8.5291e-001
35 0 +4.696584383e+001 +1.246258438e+002 +1.246258438e+002 +7.1736e-001 -2.6884e+000
39 0 +2.777394479e+001 +1.054339448e+002 +1.054339448e+002 -1.5416e-002 -3.0276e-001
54 0 +1.593296336e+001 +9.359296336e+001 +9.359296336e+001 +2.1060e+000 -1.1945e+000
60 0 +6.027582312e+000 +8.368758231e+001 +8.368758231e+001 +2.5019e+000 -5.1757e-001
224 0 +5.756490779e+000 +8.341649078e+001 +8.341649078e+001 +1.3142e+000 -5.2842e-001
262 0 +5.579231295e+000 +8.323923129e+001 +8.323923129e+001 +1.5037e+000 -5.4799e-001
302 0 +4.354370349e+000 +8.201437035e+001 +8.201437035e+001 +1.4811e+000 -5.5703e-001
303 0 +4.127947119e+000 +8.178794712e+001 +8.178794712e+001 +1.4582e+000 -5.7040e-001
320 0 +3.448967360e+000 +8.110896736e+001 +8.110896736e+001 +1.3712e+000 -5.7170e-001
322 0 +2.345937799e+000 +8.000593780e+001 +8.000593780e+001 +1.4206e+000 -5.3937e-001
333 0 +1.734920377e-001 +7.783349204e+001 +7.783349204e+001 +2.3698e+000 -8.5788e-001
494 0 +1.547346482e-001 +7.781473465e+001 +7.781473465e+001 +2.4015e+000 -8.5642e-001
567 0 +6.647700777e-002 +7.772647701e+001 +7.772647701e+001 +2.3804e+000 -8.5674e-001
611 0 +3.104674784e-002 +7.769104675e+001 +7.769104675e+001 +2.3859e+000 -8.5561e-001
663 0 +2.759733858e-002 +7.768759734e+001 +7.768759734e+001 +2.3879e+000 -8.5410e-001
673 0 +1.849117328e-002 +7.767849117e+001 +7.767849117e+001 +2.3907e+000 -8.5816e-001
691 0 +1.466015344e-002 +7.767466015e+001 +7.767466015e+001 +2.3892e+000 -8.5586e-001
711 0 +7.675192671e-003 +7.766767519e+001 +7.766767519e+001 +2.3920e+000 -8.5589e-001
731 0 +4.837795256e-003 +7.766483780e+001 +7.766483780e+001 +2.3939e+000 -8.5590e-001
751 0 +2.400818404e-003 +7.766240082e+001 +7.766240082e+001 +2.3951e+000 -8.5591e-001
771 0 +1.228491712e-003 +7.766122849e+001 +7.766122849e+001 +2.3958e+000 -8.5591e-001
816 0 +1.055442738e-003 +7.766105544e+001 +7.766105544e+001 +2.3976e+000 -8.5530e-001
827 0 +8.911773070e-004 +7.766089118e+001 +7.766089118e+001 +2.3967e+000 -8.5562e-001
965 0 +3.785529746e-004 +7.766037855e+001 +7.766037855e+001 +2.3971e+000 -8.5585e-001
970 0 +2.275455983e-004 +7.766022755e+001 +7.766022755e+001 +2.3973e+000 -8.5597e-001
986 0 +5.568952012e-005 +7.766005569e+001 +7.766005569e+001 +2.3979e+000 -8.5596e-001
1085 0 +5.445787467e-005 +7.766005446e+001 +7.766005446e+001 +2.3979e+000 -8.5596e-001
1112 0 +1.230809171e-005 +7.766001231e+001 +7.766001231e+001 +2.3984e+000 -8.5603e-001
1244 0 +5.959750794e-006 +7.766000596e+001 +7.766000596e+001 +2.3984e+000 -8.5602e-001
1303 0 +5.305153962e-006 +7.766000531e+001 +7.766000531e+001 +2.3982e+000 -8.5602e-001
1315 0 +1.579034873e-006 +7.766000158e+001 +7.766000158e+001 +2.3983e+000 -8.5600e-001
1343 0 +6.243725750e-007 +7.766000062e+001 +7.766000062e+001 +2.3984e+000 -8.5599e-001
1355 0 +9.988909255e-009 +7.766000001e+001 +7.766000001e+001 +2.3984e+000 -8.5600e-001
% f evaluations | g evaluations | best noise-free fitness - Fopt (1.156800000000e+002) + sum g_i+ | measured fitness | best measured fitness or single-digit g-values | x1 | x2...
1 0 +1.190222910e+003 +1.305902910e+003 +1.305902910e+003 +5.0000e+000 +5.0000e+000
2 0 +4.199171068e+002 +5.355971068e+002 +5.355971068e+002 -5.0000e+000 +5.0000e+000
4 0 +2.269954816e+002 +3.426754816e+002 +3.426754816e+002 -5.0000e+000 -5.0000e+000
6 0 +6.651579784e+001 +1.821957978e+002 +1.821957978e+002 -5.0000e+000 -3.0144e-001
8 0 +5.406854723e+001 +1.697485472e+002 +1.697485472e+002 -5.0000e+000 -9.7755e-001
12 0 +3.758832081e+001 +1.532683208e+002 +1.532683208e+002 -4.0518e+000 -9.6901e-001
53 0 +3.408505398e+001 +1.497650540e+002 +1.497650540e+002 -2.9637e+000 -1.9433e+000
57 0 +3.173618875e+001 +1.474161887e+002 +1.474161887e+002 -3.0458e+000 -7.1764e-001
60 0 +2.766841013e+001 +1.433484101e+002 +1.433484101e+002 -2.9446e+000 -7.0421e-001
72 0 +2.618735712e+001 +1.418673571e+002 +1.418673571e+002 -2.9089e+000 -1.0091e+000
99 0 +2.540789706e+001 +1.410878971e+002 +1.410878971e+002 -2.0200e+000 -9.6709e-001
100 0 +1.776906330e+001 +1.334490633e+002 +1.334490633e+002 -1.7270e+000 -6.7163e-001
120 0 +1.289029464e+001 +1.285702946e+002 +1.285702946e+002 -7.7835e-001 -1.0137e+000
179 0 +1.131514212e+001 +1.269951421e+002 +1.269951421e+002 -8.2180e-001 -1.0125e+000
191 0 +4.892194925e+000 +1.205721949e+002 +1.205721949e+002 +1.4747e-001 -9.7013e-001
219 0 +4.110563115e+000 +1.197905631e+002 +1.197905631e+002 +1.9184e-001 -9.8713e-001
306 0 +2.073546675e-001 +1.158873547e+002 +1.158873547e+002 +2.1769e+000 -9.9386e-001
801 0 +1.699628549e-002 +1.156969963e+002 +1.156969963e+002 +2.1700e+000 -9.8482e-001
813 0 +1.852296934e-003 +1.156818523e+002 +1.156818523e+002 +2.1758e+000 -9.8369e-001
929 0 +8.974911745e-004 +1.156808975e+002 +1.156808975e+002 +2.1762e+000 -9.8327e-001
959 0 +5.744722474e-004 +1.156805745e+002 +1.156805745e+002 +2.1785e+000 -9.8366e-001
1022 0 +2.305687967e-005 +1.156800231e+002 +1.156800231e+002 +2.1781e+000 -9.8327e-001
1158 0 +1.883943810e-006 +1.156800019e+002 +1.156800019e+002 +2.1783e+000 -9.8321e-001
1374 0 +1.622144822e-006 +1.156800016e+002 +1.156800016e+002 +2.1783e+000 -9.8319e-001
1450 0 +9.205160154e-007 +1.156800009e+002 +1.156800009e+002 +2.1783e+000 -9.8321e-001
1451 0 +1.930092850e-007 +1.156800002e+002 +1.156800002e+002 +2.1784e+000 -9.8321e-001
1464 0 +1.735431283e-007 +1.156800002e+002 +1.156800002e+002 +2.1784e+000 -9.8319e-001
1485 0 +7.640070976e-008 +1.156800001e+002 +1.156800001e+002 +2.1784e+000 -9.8320e-001
1504 0 +2.701148105e-008 +1.156800000e+002 +1.156800000e+002 +2.1784e+000 -9.8320e-001
1525 0 +1.838097319e-008 +1.156800000e+002 +1.156800000e+002 +2.1784e+000 -9.8320e-001
1539 0 +1.620959722e-008 +1.156800000e+002 +1.156800000e+002 +2.1784e+000 -9.8320e-001
1559 0 +1.163675734e-008 +1.156800000e+002 +1.156800000e+002 +2.1784e+000 -9.8320e-001
1579 0 +9.345242802e-009 +1.156800000e+002 +1.156800000e+002 +2.1784e+000 -9.8320e-001
% f evaluations | g evaluations | best noise-free fitness - Fopt (-3.710000000000e+000) + sum g_i+ | measured fitness | best measured fitness or single-digit g-values | x1 | x2...
1 0 +1.456120152e+002 +1.419020152e+002 +1.419020152e+002 -5.0000e+000 -5.0000e+000
4 0 +1.002653368e+002 +9.655533678e+001 +9.655533678e+001 +2.5538e+000 -5.0000e+000
7 0 +5.548568476e+001 +5.177568476e+001 +5.177568476e+001 +1.9646e+000 -4.2120e+000
8 0 +2.619591809e+001 +2.248591809e+001 +2.248591809e+001 -1.0611e+000 -1.9579e+000
40 0 +2.094296781e+001 +1.723296781e+001 +1.723296781e+001 +2.0429e+000 -2.1775e+000
89 0 +9.577037081e+000 +5.867037081e+000 +5.867037081e+000 +1.0493e+000 -1.9336e+000
145 0 +8.047119641e+000 +4.337119641e+000 +4.337119641e+000 +1.1378e+000 -1.7127e+000
166 0 +5.927221481e+000 +2.217221481e+000 +2.217221481e+000 +1.1121e+000 -2.5887e+000
285 0 +5.296261212e+000 +1.586261212e+000 +1.586261212e+000 +1.1132e+000 -2.6002e+000
321 0 +5.237063802e+000 +1.527063802e+000 +1.527063802e+000 +1.1280e+000 -2.5980e+000
324 0 +4.239878600e+000 +5.298785999e-001 +5.298785999e-001 +1.1336e+000 -2.3050e+000
389 0 +4.140591951e+000 +4.305919507e-001 +4.305919507e-001 +1.1356e+000 -2.3017e+000
449 0 +4.040358085e+000 +3.303580851e-001 +3.303580851e-001 +1.1518e+000 -2.2995e+000
553 0 +2.202126379e+000 -1.507873621e+000 -1.507873621e+000 +3.0503e+000 -2.5925e+000
607 0 +8.400107955e-001 -2.869989204e+000 -2.869989204e+000 +3.0704e+000 -2.2825e+000
717 0 +8.580751245e-002 -3.624192488e+000 -3.624192488e+000 +3.1020e+000 -2.2918e+000
849 0 +7.052957497e-002 -3.639470425e+000 -3.639470425e+000 +3.1018e+000 -2.2937e+000
855 0 +1.654508508e-002 -3.693454915e+000 -3.693454915e+000 +3.1204e+000 -2.2927e+000
903 0 +1.388956952e-002 -3.696110430e+000 -3.696110430e+000 +3.1135e+000 -2.2934e+000
950 0 +1.337118638e-002 -3.696628814e+000 -3.696628814e+000 +3.1137e+000 -2.2934e+000
953 0 +1.269093914e-002 -3.697309061e+000 -3.697309061e+000 +3.1130e+000 -2.2966e+000
958 0 +2.054726282e-003 -3.707945274e+000 -3.707945274e+000 +3.1169e+000 -2.2953e+000
987 0 +1.505769544e-003 -3.708494230e+000 -3.708494230e+000 +3.1176e+000 -2.2957e+000
988 0 +1.177053295e-003 -3.708822947e+000 -3.708822947e+000 +3.1183e+000 -2.2946e+000
1008 0 +2.407700475e-004 -3.709759230e+000 -3.709759230e+000 +3.1189e+000 -2.2952e+000
1060 0 +7.742063061e-006 -3.709992258e+000 -3.709992258e+000 +3.1199e+000 -2.2952e+000
1203 0 +6.341008589e-006 -3.709993659e+000 -3.709993659e+000 +3.1199e+000 -2.2952e+000
1216 0 +1.818773576e-009 -3.709999998e+000 -3.709999998e+000 +3.1200e+000 -2.2952e+000
% f evaluations | g evaluations | best noise-free fitness - Fopt (1.321800000000e+002) + sum g_i+ | measured fitness | best measured fitness or single-digit g-values | x1 | x2...
1 0 +2.103079246e+002 +3.424879246e+002 +3.424879246e+002 -5.0000e+000 +5.0000e+000
4 0 +1.403579838e+002 +2.725379838e+002 +2.725379838e+002 +2.2547e+000 +5.0000e+000
6 0 +4.767272071e+001 +1.798527207e+002 +1.798527207e+002 +4.1302e+000 +3.1092e-001
13 0 +3.665977580e+001 +1.688397758e+002 +1.688397758e+002 -4.1775e-001 +1.3847e+000
15 0 +2.533813852e+001 +1.575181385e+002 +1.575181385e+002 -2.8789e-001 +1.4064e+000
17 0 +2.273525368e+001 +1.549152537e+002 +1.549152537e+002 -2.5774e-001 +1.4190e+000
26 0 +2.199573773e+001 +1.541757377e+002 +1.541757377e+002 -2.4855e-001 +1.4241e+000
41 0 +1.105308319e+001 +1.432330832e+002 +1.432330832e+002 +7.1857e-001 +1.8152e+000
66 0 +6.687237614e+000 +1.388672376e+002 +1.388672376e+002 +2.6615e+000 +1.1850e+000
78 0 +3.488824376e+000 +1.356688244e+002 +1.356688244e+002 +2.7070e+000 +1.1763e+000
304 0 +3.236789639e+000 +1.354167896e+002 +1.354167896e+002 +2.8083e+000 +1.1573e+000
332 0 +2.194589471e+000 +1.343745895e+002 +1.343745895e+002 +2.7576e+000 +1.1646e+000
384 0 +2.187019728e+000 +1.343670197e+002 +1.343670197e+002 +2.7457e+000 +1.1740e+000
424 0 +2.006568966e+000 +1.341865690e+002 +1.341865690e+002 +2.7656e+000 +1.1701e+000
653 0 +1.992474207e+000 +1.341724742e+002 +1.341724742e+002 +2.7701e+000 +1.1726e+000
926 0 +9.987317313e-001 +1.331787317e+002 +1.331787317e+002 +2.7684e+000 +1.4838e+000
2481 0 +5.109272279e-001 +1.326909272e+002 +1.326909272e+002 +3.7557e+000 +1.4668e+000
2528 0 +4.852733879e-001 +1.326652734e+002 +1.326652734e+002 +3.7538e+000 +1.4673e+000
2637 0 +1.329767826e-002 +1.321932977e+002 +1.321932977e+002 +3.7551e+000 +1.4822e+000
2648 0 +1.161992500e-002 +1.321916199e+002 +1.321916199e+002 +3.7559e+000 +1.4829e+000
2732 0 +1.069046204e-002 +1.321906905e+002 +1.321906905e+002 +3.7561e+000 +1.4823e+000
2853 0 +3.094214976e-003 +1.321830942e+002 +1.321830942e+002 +3.7604e+000 +1.4827e+000
2876 0 +2.639341985e-003 +1.321826393e+002 +1.321826393e+002 +3.7606e+000 +1.4826e+000
2884 0 +2.363971930e-003 +1.321823640e+002 +1.321823640e+002 +3.7607e+000 +1.4826e+000
2923 0 +2.329074068e-003 +1.321823291e+002 +1.321823291e+002 +3.7608e+000 +1.4826e+000
2950 0 +1.452759239e-003 +1.321814528e+002 +1.321814528e+002 +3.7623e+000 +1.4817e+000
2956 0 +9.259340074e-004 +1.321809259e+002 +1.321809259e+002 +3.7619e+000 +1.4827e+000
2988 0 +3.999209153e-004 +1.321803999e+002 +1.321803999e+002 +3.7627e+000 +1.4826e+000
3023 0 +3.065921609e-005 +1.321800307e+002 +1.321800307e+002 +3.7636e+000 +1.4824e+000
3049 0 +1.932393809e-005 +1.321800193e+002 +1.321800193e+002 +3.7637e+000 +1.4824e+000
3054 0 +1.497782040e-005 +1.321800150e+002 +1.321800150e+002 +3.7637e+000 +1.4824e+000
3079 0 +4.649185200e-006 +1.321800046e+002 +1.321800046e+002 +3.7639e+000 +1.4824e+000
3138 0 +6.087403790e-007 +1.321800006e+002 +1.321800006e+002 +3.7640e+000 +1.4824e+000
3280 0 +6.667011121e-008 +1.321800001e+002 +1.321800001e+002 +3.7640e+000 +1.4824e+000
3320 0 +2.936843657e-008 +1.321800000e+002 +1.321800000e+002 +3.7640e+000 +1.4824e+000
3324 0 +1.055636289e-008 +1.321800000e+002 +1.321800000e+002 +3.7640e+000 +1.4824e+000
3370 0 +3.393125780e-009 +1.321800000e+002 +1.321800000e+002 +3.7640e+000 +1.4824e+000
% f evaluations | g evaluations | best noise-free fitness - Fopt (-3.930000000000e+001) + sum g_i+ | measured fitness | best measured fitness or single-digit g-values | x1 | x2...
1 0 +8.244508290e+002 +7.851508290e+002 +7.851508290e+002 +5.0000e+000 -5.0000e+000
2 0 +1.996759797e+002 +1.603759797e+002 +1.603759797e+002 -5.0000e+000 -5.0000e+000
4 0 +1.208238401e+002 +8.152384010e+001 +8.152384010e+001 -3.7810e+000 -4.1850e+000
5 0 +1.161701493e+002 +7.687014926e+001 +7.687014926e+001 -3.3731e+000 -3.8749e+000
8 0 +4.901547804e+001 +9.715478038e+000 +9.715478038e+000 -2.6982e+000 -2.1157e+000
9 0 +4.765519525e+001 +8.355195247e+000 +8.355195247e+000 -1.1605e+000 -2.3740e+000
10 0 +2.870581775e+001 -1.059418225e+001 -1.059418225e+001 -2.5801e+000 -1.5051e+000
15 0 +2.753653643e+001 -1.176346357e+001 -1.176346357e+001 -2.6468e+000 -1.5571e+000
32 0 +2.613406468e+001 -1.316593532e+001 -1.316593532e+001 -1.2505e+000 -1.9038e+000
41 0 +2.053077164e+001 -1.876922836e+001 -1.876922836e+001 -1.3840e+000 -1.9078e+000
111 0 +1.784308834e+001 -2.145691166e+001 -2.145691166e+001 -6.2693e-001 -1.4910e+000
124 0 +1.694821536e+001 -2.235178464e+001 -2.235178464e+001 -4.4466e-001 -1.4876e+000
132 0 +8.369952539e+000 -3.093004746e+001 -3.093004746e+001 +4.0192e-001 -1.5502e+000
191 0 +8.199823622e+000 -3.110017638e+001 -3.110017638e+001 +1.6297e+000 -1.9047e+000
204 0 +3.307253172e+000 -3.599274683e+001 -3.599274683e+001 +1.4802e+000 -1.5423e+000
214 0 +2.266635978e+000 -3.703336402e+001 -3.703336402e+001 +1.5521e+000 -1.5310e+000
384 0 +2.159893066e+000 -3.714010693e+001 -3.714010693e+001 +1.5516e+000 -1.5453e+000
408 0 +1.994657597e+000 -3.730534240e+001 -3.730534240e+001 +1.5381e+000 -1.5382e+000
648 0 +1.167362921e+000 -3.813263708e+001 -3.813263708e+001 +2.5233e+000 -1.5318e+000
675 0 +1.031803279e+000 -3.826819672e+001 -3.826819672e+001 +2.5218e+000 -1.5375e+000
726 0 +1.022257641e+000 -3.827774236e+001 -3.827774236e+001 +2.5217e+000 -1.5394e+000
859 0 +9.951947614e-001 -3.830480524e+001 -3.830480524e+001 +2.5325e+000 -1.5394e+000
2579 0 +7.483908254e-001 -3.855160917e+001 -3.855160917e+001 +2.4669e+000 -1.2308e+000
2586 0 +5.764483234e-001 -3.872355168e+001 -3.872355168e+001 +2.4792e+000 -1.2297e+000
2629 0 +5.752561026e-001 -3.872474390e+001 -3.872474390e+001 +2.4793e+000 -1.2297e+000
2658 0 +4.400542732e-001 -3.885994573e+001 -3.885994573e+001 +2.4890e+000 -1.2296e+000
2705 0 +2.924886855e-001 -3.900751131e+001 -3.900751131e+001 +2.4977e+000 -1.2309e+000
2724 0 +1.225131386e-001 -3.917748686e+001 -3.917748686e+001 +2.5095e+000 -1.2319e+000
2734 0 +6.582620560e-002 -3.923417379e+001 -3.923417379e+001 +2.5246e+000 -1.2343e+000
2767 0 +1.615815572e-002 -3.928384184e+001 -3.928384184e+001 +2.5255e+000 -1.2279e+000
2828 0 +6.574722896e-003 -3.929342528e+001 -3.929342528e+001 +2.5303e+000 -1.2280e+000
2867 0 +4.226547851e-003 -3.929577345e+001 -3.929577345e+001 +2.5300e+000 -1.2288e+000
2883 0 +1.557314712e-003 -3.929844269e+001 -3.929844269e+001 +2.5336e+000 -1.2305e+000
2887 0 +1.437239450e-004 -3.929985628e+001 -3.929985628e+001 +2.5329e+000 -1.2294e+000
2892 0 +1.314166178e-004 -3.929986858e+001 -3.929986858e+001 +2.5330e+000 -1.2294e+000
2969 0 +5.055235697e-005 -3.929994945e+001 -3.929994945e+001 +2.5335e+000 -1.2294e+000
3087 0 +4.301761934e-005 -3.929995698e+001 -3.929995698e+001 +2.5333e+000 -1.2295e+000
3169 0 +5.696013197e-006 -3.929999430e+001 -3.929999430e+001 +2.5334e+000 -1.2296e+000
3233 0 +5.415364093e-006 -3.929999458e+001 -3.929999458e+001 +2.5334e+000 -1.2296e+000
3295 0 +3.742655295e-006 -3.929999626e+001 -3.929999626e+001 +2.5336e+000 -1.2296e+000
3328 0 +6.809617119e-007 -3.929999932e+001 -3.929999932e+001 +2.5336e+000 -1.2296e+000
3352 0 +4.972255070e-007 -3.929999950e+001 -3.929999950e+001 +2.5336e+000 -1.2296e+000
3412 0 +4.169785583e-007 -3.929999958e+001 -3.929999958e+001 +2.5336e+000 -1.2296e+000
3432 0 +4.012083181e-007 -3.929999960e+001 -3.929999960e+001 +2.5336e+000 -1.2296e+000
3452 0 +3.768537624e-007 -3.929999962e+001 -3.929999962e+001 +2.5336e+000 -1.2296e+000
3453 0 +1.164739984e-007 -3.929999988e+001 -3.929999988e+001 +2.5336e+000 -1.2296e+000
3455 0 +7.553823167e-008 -3.929999992e+001 -3.929999992e+001 +2.5336e+000 -1.2296e+000
3504 0 +4.786708274e-008 -3.929999995e+001 -3.929999995e+001 +2.5336e+000 -1.2296e+000
3512 0 +2.388245690e-008 -3.929999998e+001 -3.929999998e+001 +2.5336e+000 -1.2296e+000
3518 0 +2.613006700e-009 -3.930000000e+001 -3.930000000e+001 +2.5336e+000 -1.2296e+000
% f evaluations | g evaluations | best noise-free fitness - Fopt (4.296000000000e+001) + sum g_i+ | measured fitness | best measured fitness or single-digit g-values | x1 | x2...
1 0 +4.434035510e+002 +4.863635510e+002 +4.863635510e+002 -5.0000e+000 -5.0000e+000
3 0 +1.414617956e+002 +1.844217956e+002 +1.844217956e+002 -5.0000e+000 +5.0000e+000
4 0 +8.075433593e+001 +1.237143359e+002 +1.237143359e+002 -5.0000e+000 +4.1072e-001
5 0 +6.481764661e+001 +1.077776466e+002 +1.077776466e+002 -4.5959e+000 +6.0403e-001
6 0 +5.029864843e+001 +9.325864843e+001 +9.325864843e+001 -3.8119e+000 +1.8812e+000
7 0 +4.981681060e+001 +9.277681060e+001 +9.277681060e+001 -4.6118e+000 +7.7782e-001
13 0 +3.639796068e+001 +7.935796068e+001 +7.935796068e+001 -3.9086e+000 +1.7236e+000
19 0 +3.448127286e+001 +7.744127286e+001 +7.744127286e+001 -2.3650e+000 +5.3855e-001
21 0 +1.079050096e+001 +5.375050096e+001 +5.375050096e+001 -4.9550e-001 +1.0955e+000
24 0 +6.437931615e+000 +4.939793162e+001 +4.939793162e+001 -2.9814e-001 +1.7218e+000
27 0 +5.258161016e+000 +4.821816102e+001 +4.821816102e+001 -4.3303e-001 +1.7112e+000
71 0 +3.293836222e+000 +4.625383622e+001 +4.625383622e+001 +4.5982e-001 +1.7137e+000
198 0 +1.719110892e+000 +4.467911089e+001 +4.467911089e+001 +1.4475e+000 +2.0423e+000
257 0 +1.037138676e+000 +4.399713868e+001 +4.399713868e+001 +5.1066e-001 +1.7332e+000
374 0 +6.580413821e-001 +4.361804138e+001 +4.361804138e+001 +1.5180e+000 +1.7447e+000
395 0 +4.554468946e-001 +4.341544689e+001 +4.341544689e+001 +1.5166e+000 +1.7456e+000
425 0 +2.949328861e-001 +4.325493289e+001 +4.325493289e+001 +1.4811e+000 +1.7434e+000
492 0 +2.277057971e-002 +4.298277058e+001 +4.298277058e+001 +1.5018e+000 +1.7364e+000
534 0 +2.139283209e-002 +4.298139283e+001 +4.298139283e+001 +1.5131e+000 +1.7402e+000
574 0 +6.202840605e-003 +4.296620284e+001 +4.296620284e+001 +1.5132e+000 +1.7380e+000
602 0 +1.290260272e-004 +4.296012903e+001 +4.296012903e+001 +1.5128e+000 +1.7365e+000
614 0 +8.226095956e-005 +4.296008226e+001 +4.296008226e+001 +1.5127e+000 +1.7366e+000
831 0 +6.784252689e-005 +4.296006784e+001 +4.296006784e+001 +1.5123e+000 +1.7368e+000
893 0 +2.503193375e-005 +4.296002503e+001 +4.296002503e+001 +1.5127e+000 +1.7367e+000
948 0 +2.239828151e-005 +4.296002240e+001 +4.296002240e+001 +1.5127e+000 +1.7367e+000
990 0 +1.965525085e-005 +4.296001966e+001 +4.296001966e+001 +1.5128e+000 +1.7367e+000
995 0 +1.817582778e-006 +4.296000182e+001 +4.296000182e+001 +1.5127e+000 +1.7368e+000
1068 0 +1.108432137e-006 +4.296000111e+001 +4.296000111e+001 +1.5127e+000 +1.7368e+000
1120 0 +1.001297036e-007 +4.296000010e+001 +4.296000010e+001 +1.5128e+000 +1.7368e+000
1180 0 +1.140416117e-008 +4.296000001e+001 +4.296000001e+001 +1.5128e+000 +1.7368e+000
1199 0 +1.359602209e-009 +4.296000000e+001 +4.296000000e+001 +1.5128e+000 +1.7368e+000
% f evaluations | g evaluations | best noise-free fitness - Fopt (2.842200000000e+002) + sum g_i+ | measured fitness | best measured fitness or single-digit g-values | x1 | x2...
1 0 +1.114785564e+003 +1.399005564e+003 +1.399005564e+003 +5.0000e+000 +5.0000e+000
2 0 +3.361098612e+002 +6.203298612e+002 +6.203298612e+002 -5.0000e+000 +5.0000e+000
4 0 +2.818184917e+002 +5.660384917e+002 +5.660384917e+002 -5.0000e+000 -5.0000e+000
5 0 +1.858899875e+002 +4.701099875e+002 +4.701099875e+002 -5.0000e+000 +3.2495e+000
6 0 +1.011539145e+002 +3.853739145e+002 +3.853739145e+002 -2.9186e+000 -2.6513e+000
7 0 +5.379468468e+001 +3.380146847e+002 +3.380146847e+002 -3.5575e+000 -2.7858e-001
11 0 +4.482245236e+001 +3.290424524e+002 +3.290424524e+002 -2.5198e+000 -2.7199e-001
18 0 +3.907196067e+001 +3.232919607e+002 +3.232919607e+002 -2.7607e+000 -2.9639e-001
27 0 +3.859574143e+001 +3.228157414e+002 +3.228157414e+002 -3.2451e+000 -2.8545e-001
33 0 +3.000833000e+001 +3.142283300e+002 +3.142283300e+002 -2.8989e+000 +3.6506e-001
36 0 +2.540930034e+001 +3.096293003e+002 +3.096293003e+002 -7.8591e-001 -8.2226e-001
38 0 +1.639868339e+001 +3.006186834e+002 +3.006186834e+002 +1.3115e+000 -8.8652e-001
39 0 +9.301669451e+000 +2.935216695e+002 +2.935216695e+002 +1.0281e+000 +1.6258e-001
92 0 +7.230048659e+000 +2.914500487e+002 +2.914500487e+002 +2.0822e+000 -4.7416e-001
100 0 +5.873197564e+000 +2.900931976e+002 +2.900931976e+002 +1.1202e+000 -8.8128e-001
135 0 +3.046572665e+000 +2.872665727e+002 +2.872665727e+002 +1.1477e+000 -5.3914e-001
158 0 +2.054173057e+000 +2.862741731e+002 +2.862741731e+002 +1.0623e+000 -2.0479e-001
236 0 +1.986061316e+000 +2.862060613e+002 +2.862060613e+002 +1.0585e+000 -2.0919e-001
242 0 +1.907866328e+000 +2.861278663e+002 +2.861278663e+002 +1.0569e+000 -2.2248e-001
300 0 +1.506812330e+000 +2.857268123e+002 +2.857268123e+002 +1.1022e+000 -2.3417e-001
303 0 +1.027815742e+000 +2.852478157e+002 +2.852478157e+002 +1.0963e+000 -2.2091e-001
335 0 +1.020441046e+000 +2.852404410e+002 +2.852404410e+002 +1.0964e+000 -2.1998e-001
340 0 +9.954091993e-001 +2.852154092e+002 +2.852154092e+002 +1.1046e+000 -2.1855e-001
3276 0 +2.059045452e-004 +2.842202059e+002 +2.842202059e+002 +2.1000e+000 -2.1808e-001
3321 0 +6.044624570e-007 +2.842200006e+002 +2.842200006e+002 +2.1000e+000 -2.1838e-001
3330 0 +6.015494591e-007 +2.842200006e+002 +2.842200006e+002 +2.1000e+000 -2.1838e-001
3442 0 +1.643303449e-007 +2.842200002e+002 +2.842200002e+002 +2.1000e+000 -2.1839e-001
3482 0 +1.408753860e-007 +2.842200001e+002 +2.842200001e+002 +2.1000e+000 -2.1841e-001
3502 0 +3.784435876e-008 +2.842200000e+002 +2.842200000e+002 +2.1000e+000 -2.1840e-001
3639 0 +2.631963980e-009 +2.842200000e+002 +2.842200000e+002 +2.1000e+000 -2.1840e-001
% f evaluations | g evaluations | best noise-free fitness - Fopt (-3.217000000000e+001) + sum g_i+ | measured fitness | best measured fitness or single-digit g-values | x1 | x2...
1 0 +4.728556225e+002 +4.406856225e+002 +4.406856225e+002 -5.0000e+000 -5.0000e+000
3 0 +1.454088911e+002 +1.132388911e+002 +1.132388911e+002 -5.0000e+000 +5.0000e+000
4 0 +6.429834020e+001 +3.212834020e+001 +3.212834020e+001 -5.0000e+000 +4.4205e-001
7 0 +4.017460214e+001 +8.004602141e+000 +8.004602141e+000 -3.1368e+000 +1.8554e+000
8 0 +3.465310889e+001 +2.483108891e+000 +2.483108891e+000 -2.6450e+000 +2.3754e+000
28 0 +2.493572919e+001 -7.234270811e+000 -7.234270811e+000 -2.4254e+000 +1.2196e+000
66 0 +2.354038763e+001 -8.629612374e+000 -8.629612374e+000 -2.6547e+000 +1.5081e+000
73 0 +1.788101804e+001 -1.428898196e+001 -1.428898196e+001 -2.5429e+000 +1.5261e+000
91 0 +1.735111224e+001 -1.481888776e+001 -1.481888776e+001 +3.0244e-001 +1.6064e+000
92 0 +8.079167782e+000 -2.409083222e+001 -2.409083222e+001 +4.2001e-001 +1.4949e+000
97 0 +5.853467622e+000 -2.631653238e+001 -2.631653238e+001 +3.6338e-001 +1.5638e+000
160 0 +3.448476386e+000 -2.872152361e+001 -2.872152361e+001 +3.9477e-001 +1.5542e+000
177 0 +2.858054253e+000 -2.931194575e+001 -2.931194575e+001 +4.0872e-001 +1.5361e+000
236 0 +2.244283798e+000 -2.992571620e+001 -2.992571620e+001 +4.2552e-001 +1.5469e+000
253 0 +2.220059758e+000 -2.994994024e+001 -2.994994024e+001 +4.2679e-001 +1.5469e+000
269 0 +1.997857417e+000 -3.017214258e+001 -3.017214258e+001 +4.4557e-001 +1.5442e+000
335 0 +1.993600815e+000 -3.017639918e+001 -3.017639918e+001 +4.4955e-001 +1.5457e+000
371 0 +1.859558117e+000 -3.031044188e+001 -3.031044188e+001 +1.5451e+000 +1.8586e+000
471 0 +1.254492201e+000 -3.091550780e+001 -3.091550780e+001 +1.5381e+000 +1.8546e+000
549 0 +1.215506731e+000 -3.095449327e+001 -3.095449327e+001 +1.4541e+000 +1.8525e+000
588 0 +2.437712506e-001 -3.192622875e+001 -3.192622875e+001 +1.4366e+000 +1.8433e+000
703 0 +1.935949842e-001 -3.197640502e+001 -3.197640502e+001 +1.4276e+000 +1.8458e+000
734 0 +1.240952580e-001 -3.204590474e+001 -3.204590474e+001 +1.4483e+000 +1.8592e+000
828 0 +9.991836245e-003 -3.216000816e+001 -3.216000816e+001 +1.4388e+000 +1.8546e+000
868 0 +1.197653848e-003 -3.216880235e+001 -3.216880235e+001 +1.4440e+000 +1.8542e+000
1060 0 +4.116637084e-004 -3.216958834e+001 -3.216958834e+001 +1.4450e+000 +1.8544e+000
1088 0 +3.940936259e-004 -3.216960591e+001 -3.216960591e+001 +1.4450e+000 +1.8545e+000
1149 0 +3.601227906e-004 -3.216963988e+001 -3.216963988e+001 +1.4458e+000 +1.8548e+000
1160 0 +2.876772534e-004 -3.216971232e+001 -3.216971232e+001 +1.4454e+000 +1.8542e+000
1169 0 +1.278896750e-004 -3.216987211e+001 -3.216987211e+001 +1.4456e+000 +1.8544e+000
1178 0 +1.101372478e-004 -3.216988986e+001 -3.216988986e+001 +1.4457e+000 +1.8545e+000
1210 0 +8.507070093e-005 -3.216991493e+001 -3.216991493e+001 +1.4458e+000 +1.8545e+000
1263 0 +2.243599939e-005 -3.216997756e+001 -3.216997756e+001 +1.4461e+000 +1.8544e+000
1291 0 +2.125068008e-005 -3.216997875e+001 -3.216997875e+001 +1.4461e+000 +1.8544e+000
1323 0 +7.380065433e-006 -3.216999262e+001 -3.216999262e+001 +1.4462e+000 +1.8544e+000
1324 0 +6.665617676e-006 -3.216999333e+001 -3.216999333e+001 +1.4463e+000 +1.8544e+000
1330 0 +4.178481852e-006 -3.216999582e+001 -3.216999582e+001 +1.4463e+000 +1.8544e+000
1333 0 +1.653826800e-007 -3.216999983e+001 -3.216999983e+001 +1.4464e+000 +1.8544e+000
1513 0 +5.726559493e-008 -3.216999994e+001 -3.216999994e+001 +1.4464e+000 +1.8544e+000
1581 0 +1.499804370e-008 -3.216999999e+001 -3.216999999e+001 +1.4464e+000 +1.8544e+000
1646 0 +4.087809202e-009 -3.217000000e+001 -3.217000000e+001 +1.4464e+000 +1.8544e+000
% f evaluations | g evaluations | best noise-free fitness - Fopt (-5.858000000000e+001) + sum g_i+ | measured fitness | best measured fitness or single-digit g-values | x1 | x2...
1 0 +6.846201411e+002 +6.260401411e+002 +6.260401411e+002 -5.0000e+000 +5.0000e+000
3 0 +1.359840348e+002 +7.740403484e+001 +7.740403484e+001 -5.0000e+000 -5.0000e+000
7 0 +1.542684935e+001 -4.315315065e+001 -4.315315065e+001 -5.2031e-001 -2.4561e+000
53 0 +1.163485128e+001 -4.694514872e+001 -4.694514872e+001 +5.7596e-001 -3.1410e+000
73 0 +8.380819747e+000 -5.019918025e+001 -5.019918025e+001 +1.5714e+000 -3.2397e+000
169 0 +5.698971283e+000 -5.288102872e+001 -5.288102872e+001 +1.6080e+000 -2.1414e+000
228 0 +3.358469099e+000 -5.522153090e+001 -5.522153090e+001 +1.5635e+000 -2.2221e+000
328 0 +2.858045923e+000 -5.572195408e+001 -5.572195408e+001 +1.5855e+000 -2.1783e+000
389 0 +2.329165443e+000 -5.625083456e+001 -5.625083456e+001 +1.5828e+000 -2.1888e+000
490 0 +1.038560749e+000 -5.754143925e+001 -5.754143925e+001 +1.5854e+000 -2.5042e+000
492 0 +7.306594558e-002 -5.850693405e+001 -5.850693405e+001 +2.5825e+000 -2.5126e+000
529 0 +2.251252515e-002 -5.855748747e+001 -5.855748747e+001 +2.5839e+000 -2.5042e+000
541 0 +1.841211591e-002 -5.856158788e+001 -5.856158788e+001 +2.5855e+000 -2.5048e+000
549 0 +1.129085793e-002 -5.856870914e+001 -5.856870914e+001 +2.5839e+000 -2.5058e+000
764 0 +4.599017819e-003 -5.857540098e+001 -5.857540098e+001 +2.5860e+000 -2.5073e+000
824 0 +4.326535604e-003 -5.857567346e+001 -5.857567346e+001 +2.5862e+000 -2.5073e+000
963 0 +2.681141085e-003 -5.857731886e+001 -5.857731886e+001 +2.5870e+000 -2.5071e+000
981 0 +2.471909659e-003 -5.857752809e+001 -5.857752809e+001 +2.5870e+000 -2.5071e+000
1010 0 +1.280402235e-003 -5.857871960e+001 -5.857871960e+001 +2.5879e+000 -2.5070e+000
1109 0 +5.302986644e-004 -5.857946970e+001 -5.857946970e+001 +2.5888e+000 -2.5073e+000
1179 0 +2.031915664e-005 -5.857997968e+001 -5.857997968e+001 +2.5903e+000 -2.5073e+000
1236 0 +1.094354601e-005 -5.857998906e+001 -5.857998906e+001 +2.5902e+000 -2.5072e+000
1257 0 +5.718397958e-006 -5.857999428e+001 -5.857999428e+001 +2.5902e+000 -2.5072e+000
1311 0 +2.701242309e-006 -5.857999730e+001 -5.857999730e+001 +2.5903e+000 -2.5072e+000
1318 0 +2.039000442e-006 -5.857999796e+001 -5.857999796e+001 +2.5903e+000 -2.5072e+000
1378 0 +1.959525292e-006 -5.857999804e+001 -5.857999804e+001 +2.5903e+000 -2.5072e+000
1405 0 +1.859057733e-006 -5.857999814e+001 -5.857999814e+001 +2.5904e+000 -2.5072e+000
1406 0 +1.476235568e-006 -5.857999852e+001 -5.857999852e+001 +2.5904e+000 -2.5072e+000
1411 0 +3.291875714e-007 -5.857999967e+001 -5.857999967e+001 +2.5904e+000 -2.5072e+000
1469 0 +7.820581516e-009 -5.857999999e+001 -5.857999999e+001 +2.5904e+000 -2.5072e+000
% f evaluations | g evaluations | best noise-free fitness - Fopt (-6.049200000000e+002) + sum g_i+ | measured fitness | best measured fitness or single-digit g-values | x1 | x2...
1 0 +1.772491597e+003 +1.167571597e+003 +1.167571597e+003 +5.0000e+000 -5.0000e+000
2 0 +2.223274011e+002 -3.825925989e+002 -3.825925989e+002 -5.0000e+000 -5.0000e+000
4 0 +1.988602067e+002 -4.060597933e+002 -4.060597933e+002 +1.3957e+000 -5.0000e+000
7 0 +2.800691309e+001 -5.769130869e+002 -5.769130869e+002 -1.7561e+000 -6.3521e-001
9 0 +1.453325708e+001 -5.903867429e+002 -5.903867429e+002 -1.9198e+000 -1.3074e+000
43 0 +1.344193416e+001 -5.914780658e+002 -5.914780658e+002 -7.6933e-001 -4.5933e-001
65 0 +1.011223779e+001 -5.948077622e+002 -5.948077622e+002 -7.5293e-001 -1.0480e+000
106 0 +8.387488658e+000 -5.965325113e+002 -5.965325113e+002 -9.4158e-001 -6.5225e-001
117 0 +6.873494040e+000 -5.980465060e+002 -5.980465060e+002 -9.1368e-001 -7.3620e-001
122 0 +5.711116268e+000 -5.992088837e+002 -5.992088837e+002 -1.0395e+000 -1.0387e+000
128 0 +4.540244657e+000 -6.003797553e+002 -6.003797553e+002 +9.4999e-003 -6.6280e-001
211 0 +2.815806196e+000 -6.021041938e+002 -6.021041938e+002 -5.5087e-003 -6.8692e-001
232 0 +2.516896511e+000 -6.024031035e+002 -6.024031035e+002 -2.3915e-002 -6.9757e-001
369 0 +2.502704271e+000 -6.024172957e+002 -6.024172957e+002 -1.0483e-002 -6.9328e-001
406 0 +2.264562608e+000 -6.026554374e+002 -6.026554374e+002 -2.4486e-003 -6.9734e-001
481 0 +2.236042521e+000 -6.026839575e+002 -6.026839575e+002 +1.9449e-002 -7.0139e-001
486 0 +2.062337996e+000 -6.028576620e+002 -6.028576620e+002 -2.4486e-003 -7.0378e-001
526 0 +2.009332561e+000 -6.029106674e+002 -6.029106674e+002 +4.6028e-003 -7.1240e-001
561 0 +1.990549066e+000 -6.029294509e+002 -6.029294509e+002 +2.6194e-003 -7.1006e-001
582 0 +1.065013012e+000 -6.038549870e+002 -6.038549870e+002 +1.5144e-002 -1.0144e+000
584 0 +1.013800685e+000 -6.039061993e+002 -6.039061993e+002 +8.6482e-003 -1.0159e+000
695 0 +9.953643607e-001 -6.039246356e+002 -6.039246356e+002 +2.7693e-003 -1.0155e+000
2261 0 +3.480806209e-001 -6.045719194e+002 -6.045719194e+002 +9.6217e-001 -1.0100e+000
2282 0 +2.768034337e-001 -6.046431966e+002 -6.046431966e+002 +9.6620e-001 -1.0100e+000
2300 0 +2.736064336e-001 -6.046463936e+002 -6.046463936e+002 +9.6636e-001 -1.0101e+000
2325 0 +8.020860725e-002 -6.048397914e+002 -6.048397914e+002 +9.8564e-001 -1.0106e+000
2370 0 +4.853114937e-002 -6.048714689e+002 -6.048714689e+002 +9.9622e-001 -1.0106e+000
2406 0 +2.869335833e-002 -6.048913066e+002 -6.048913066e+002 +9.9088e-001 -1.0182e+000
2413 0 +2.808805626e-002 -6.048919119e+002 -6.048919119e+002 +9.9067e-001 -1.0182e+000
2431 0 +2.592801566e-003 -6.049174072e+002 -6.049174072e+002 +9.9874e-001 -1.0154e+000
2448 0 +1.712386889e-004 -6.049198288e+002 -6.049198288e+002 +9.9776e-001 -1.0154e+000
2533 0 +2.194601666e-005 -6.049199781e+002 -6.049199781e+002 +9.9822e-001 -1.0153e+000
2721 0 +3.811449687e-006 -6.049199962e+002 -6.049199962e+002 +9.9839e-001 -1.0152e+000
2897 0 +3.667802389e-006 -6.049199963e+002 -6.049199963e+002 +9.9841e-001 -1.0152e+000
2901 0 +7.952883152e-008 -6.049199999e+002 -6.049199999e+002 +9.9838e-001 -1.0152e+000
2902 0 +7.534208635e-008 -6.049199999e+002 -6.049199999e+002 +9.9838e-001 -1.0152e+000
2995 0 +6.857442258e-008 -6.049199999e+002 -6.049199999e+002 +9.9838e-001 -1.0152e+000
3062 0 +3.229024514e-008 -6.049200000e+002 -6.049200000e+002 +9.9839e-001 -1.0152e+000
3069 0 +1.580269782e-008 -6.049200000e+002 -6.049200000e+002 +9.9839e-001 -1.0152e+000
3200 0 +1.617195267e-009 -6.049200000e+002 -6.049200000e+002 +9.9840e-001 -1.0152e+000
% f evaluations | g evaluations | best noise-free fitness - Fopt (1.337000000000e+002) + sum g_i+ | measured fitness | best measured fitness or single-digit g-values | x1 | x2...
1 0 +3.748725611e+002 +5.085725611e+002 +5.085725611e+002 -5.0000e+000 -5.0000e+000
3 0 +2.236713784e+002 +3.573713784e+002 +3.573713784e+002 -5.0000e+000 +5.0000e+000
4 0 +7.787634899e+001 +2.115763490e+002 +2.115763490e+002 -5.0000e+000 +1.2525e-001
7 0 +5.949012667e+001 +1.931901267e+002 +1.931901267e+002 -3.0442e+000 +8.3387e-001
9 0 +5.301671814e+001 +1.867167181e+002 +1.867167181e+002 -3.7127e+000 +8.4961e-001
21 0 +3.329923652e+001 +1.669992365e+002 +1.669992365e+002 +1.7677e+000 +4.6031e-002
32 0 +3.224784610e+001 +1.659478461e+002 +1.659478461e+002 +1.7638e+000 +4.2343e-002
48 0 +2.992665317e+001 +1.636266532e+002 +1.636266532e+002 -2.6816e+000 +9.0607e-001
59 0 +1.256004912e+001 +1.462600491e+002 +1.462600491e+002 +1.4903e+000 +7.2211e-001
75 0 +1.113357438e+001 +1.448335744e+002 +1.448335744e+002 +6.1525e-001 +1.0108e+000
94 0 +1.060835139e+001 +1.443083514e+002 +1.443083514e+002 +1.3477e+000 +1.2292e+000
155 0 +4.846794552e+000 +1.385467946e+002 +1.385467946e+002 +2.3455e+000 +1.2756e+000
255 0 +3.859590309e+000 +1.375595903e+002 +1.375595903e+002 +2.3578e+000 +1.2513e+000
265 0 +1.342006363e+000 +1.350420064e+002 +1.350420064e+002 +2.4368e+000 +1.2625e+000
534 0 +1.252509757e+000 +1.349525098e+002 +1.349525098e+002 +2.4411e+000 +1.2596e+000
552 0 +1.176746881e+000 +1.348767469e+002 +1.348767469e+002 +2.4468e+000 +1.2629e+000
559 0 +1.060932798e+000 +1.347609328e+002 +1.347609328e+002 +2.4593e+000 +1.2626e+000
669 0 +1.006917921e+000 +1.347069179e+002 +1.347069179e+002 +2.4694e+000 +1.2584e+000
678 0 +9.982321120e-001 +1.346982321e+002 +1.346982321e+002 +2.4716e+000 +1.2603e+000
875 0 +3.971451623e-001 +1.340971452e+002 +1.340971452e+002 +2.4793e+000 +9.5493e-001
883 0 +2.647967971e-001 +1.339647968e+002 +1.339647968e+002 +2.4788e+000 +9.5486e-001
941 0 +1.251081843e-001 +1.338251082e+002 +1.338251082e+002 +2.4503e+000 +9.5586e-001
952 0 +4.375022709e-002 +1.337437502e+002 +1.337437502e+002 +2.4611e+000 +9.5554e-001
954 0 +2.927184866e-002 +1.337292718e+002 +1.337292718e+002 +2.4631e+000 +9.5504e-001
966 0 +2.028453655e-002 +1.337202845e+002 +1.337202845e+002 +2.4715e+000 +9.5148e-001
1008 0 +1.718572363e-002 +1.337171857e+002 +1.337171857e+002 +2.4717e+000 +9.5166e-001
1016 0 +1.637121815e-002 +1.337163712e+002 +1.337163712e+002 +2.4731e+000 +9.5158e-001
1039 0 +7.585793573e-003 +1.337075858e+002 +1.337075858e+002 +2.4693e+000 +9.5493e-001
1080 0 +9.994660695e-004 +1.337009995e+002 +1.337009995e+002 +2.4735e+000 +9.5489e-001
1167 0 +5.908207548e-004 +1.337005908e+002 +1.337005908e+002 +2.4737e+000 +9.5466e-001
1193 0 +5.574074896e-004 +1.337005574e+002 +1.337005574e+002 +2.4735e+000 +9.5429e-001
1210 0 +3.950656976e-004 +1.337003951e+002 +1.337003951e+002 +2.4738e+000 +9.5441e-001
1256 0 +1.160076063e-004 +1.337001160e+002 +1.337001160e+002 +2.4744e+000 +9.5444e-001
1303 0 +4.648415100e-005 +1.337000465e+002 +1.337000465e+002 +2.4751e+000 +9.5425e-001
1340 0 +5.440165864e-007 +1.337000005e+002 +1.337000005e+002 +2.4752e+000 +9.5438e-001
1370 0 +3.369427759e-007 +1.337000003e+002 +1.337000003e+002 +2.4752e+000 +9.5439e-001
1502 0 +1.563890351e-007 +1.337000002e+002 +1.337000002e+002 +2.4752e+000 +9.5440e-001
1531 0 +6.996606317e-008 +1.337000001e+002 +1.337000001e+002 +2.4752e+000 +9.5439e-001
1555 0 +5.361104627e-008 +1.337000001e+002 +1.337000001e+002 +2.4752e+000 +9.5440e-001
1684 0 +5.096410405e-008 +1.337000001e+002 +1.337000001e+002 +2.4752e+000 +9.5440e-001
1719 0 +3.348469590e-008 +1.337000000e+002 +1.337000000e+002 +2.4752e+000 +9.5440e-001
1736 0 +3.258830361e-008 +1.337000000e+002 +1.337000000e+002 +2.4752e+000 +9.5440e-001
1746 0 +1.986003895e-008 +1.337000000e+002 +1.337000000e+002 +2.4752e+000 +9.5440e-001
1772 0 +2.813123956e-009 +1.337000000e+002 +1.337000000e+002 +2.4752e+000 +9.5440e-001
% f evaluations | g evaluations | best noise-free fitness - Fopt (-2.098000000000e+001) + sum g_i+ | measured fitness | best measured fitness or single-digit g-values | x1 | x2...
1 0 +1.293776253e+003 +1.272796253e+003 +1.272796253e+003 +5.0000e+000 -5.0000e+000
2 0 +5.022187976e+002 +4.812387976e+002 +4.812387976e+002 -5.0000e+000 -5.0000e+000
4 0 +1.703582754e+002 +1.493782754e+002 +1.493782754e+002 -5.0000e+000 +5.0000e+000
6 0 +1.008202280e+002 +7.984022803e+001 +7.984022803e+001 -5.0000e+000 +3.3454e-002
8 0 +5.170646622e+001 +3.072646622e+001 +3.072646622e+001 -3.2960e+000 +1.7891e+000
18 0 +4.461247553e+001 +2.363247553e+001 +2.363247553e+001 -3.4688e+000 +1.5850e+000
19 0 +4.146793568e+001 +2.048793568e+001 +2.048793568e+001 +1.2001e+000 +3.5293e+000
20 0 +2.701072863e+001 +6.030728627e+000 +6.030728627e+000 -1.9755e+000 +1.6797e+000
36 0 +2.419718221e+001 +3.217182212e+000 +3.217182212e+000 -1.0367e+000 +2.6562e+000
40 0 +2.211802711e+001 +1.138027114e+000 +1.138027114e+000 -9.2681e-001 +2.5948e+000
68 0 +1.824549827e+001 -2.734501726e+000 -2.734501726e+000 -1.0315e+000 +2.5547e+000
109 0 +1.033493856e+001 -1.064506144e+001 -1.064506144e+001 +9.7572e-001 +2.1774e+000
127 0 +7.143741610e+000 -1.383625839e+001 -1.383625839e+001 +2.0120e+000 +2.3057e+000
135 0 +1.398266125e+000 -1.958173388e+001 -1.958173388e+001 +2.0450e+000 +2.2391e+000
275 0 +9.828906283e-001 -1.999710937e+001 -1.999710937e+001 +2.0187e+000 +1.9374e+000
448 0 +5.435501647e-001 -2.043644984e+001 -2.043644984e+001 +2.0364e+000 +1.9341e+000
547 0 +2.940254357e-001 -2.068597456e+001 -2.068597456e+001 +2.0347e+000 +1.9282e+000
567 0 +1.709461662e-001 -2.080905383e+001 -2.080905383e+001 +2.0541e+000 +1.9281e+000
608 0 +1.022572256e-004 -2.097989774e+001 -2.097989774e+001 +2.0594e+000 +1.9191e+000
924 0 +9.236813328e-005 -2.097990763e+001 -2.097990763e+001 +2.0597e+000 +1.9190e+000
951 0 +9.096909177e-005 -2.097990903e+001 -2.097990903e+001 +2.0597e+000 +1.9190e+000
999 0 +5.334394596e-005 -2.097994666e+001 -2.097994666e+001 +2.0595e+000 +1.9192e+000
1012 0 +1.149686734e-005 -2.097998850e+001 -2.097998850e+001 +2.0598e+000 +1.9192e+000
1053 0 +6.408883610e-006 -2.097999359e+001 -2.097999359e+001 +2.0598e+000 +1.9192e+000
1081 0 +3.467866613e-006 -2.097999653e+001 -2.097999653e+001 +2.0599e+000 +1.9192e+000
1121 0 +6.415260607e-007 -2.097999936e+001 -2.097999936e+001 +2.0599e+000 +1.9192e+000
1233 0 +5.949044990e-008 -2.097999994e+001 -2.097999994e+001 +2.0600e+000 +1.9192e+000
1355 0 +4.197361392e-008 -2.097999996e+001 -2.097999996e+001 +2.0600e+000 +1.9192e+000
1363 0 +7.199801644e-009 -2.097999999e+001 -2.097999999e+001 +2.0600e+000 +1.9192e+000
% f evaluations | g evaluations | best noise-free fitness - Fopt (1.353300000000e+002) + sum g_i+ | measured fitness | best measured fitness or single-digit g-values | x1 | x2...
1 0 +3.042555565e+002 +4.395855565e+002 +4.395855565e+002 -5.0000e+000 -5.0000e+000
4 0 +9.703139666e+001 +2.323613967e+002 +2.323613967e+002 -5.0000e+000 -2.1433e+000
5 0 +4.571139650e+001 +1.810413965e+002 +1.810413965e+002 -5.0000e+000 -1.1901e-002
7 0 +3.127936355e+001 +1.666093636e+002 +1.666093636e+002 -3.0788e+000 +3.8178e-003
31 0 +2.662948676e+001 +1.619594868e+002 +1.619594868e+002 -2.5124e+000 +8.0487e-001
47 0 +2.459340918e+001 +1.599234092e+002 +1.599234092e+002 -1.9301e+000 +3.8178e-003
49 0 +1.200931432e+001 +1.473393143e+002 +1.473393143e+002 -1.4810e+000 +5.7329e-001
82 0 +9.391517306e+000 +1.447215173e+002 +1.447215173e+002 -1.5195e+000 +6.1330e-001
253 0 +8.547137824e+000 +1.438771378e+002 +1.438771378e+002 -1.4230e+000 +5.9134e-001
304 0 +6.373019282e+000 +1.417030193e+002 +1.417030193e+002 -1.5149e+000 -2.9683e-001
306 0 +6.234087805e+000 +1.415640878e+002 +1.415640878e+002 -1.5053e+000 -2.9771e-001
312 0 +5.997559519e+000 +1.413275595e+002 +1.413275595e+002 -1.4950e+000 -2.9684e-001
323 0 +3.949428821e+000 +1.392794288e+002 +1.392794288e+002 +4.9989e-001 +3.7616e-001
431 0 +3.555770808e+000 +1.388857708e+002 +1.388857708e+002 +4.9824e-001 +3.7075e-001
459 0 +1.524034738e+000 +1.368540347e+002 +1.368540347e+002 -4.8745e-001 +2.6708e-002
491 0 +1.402552033e+000 +1.367325520e+002 +1.367325520e+002 +5.3243e-001 +3.4440e-001
592 0 +1.272274785e+000 +1.366022748e+002 +1.366022748e+002 +5.1691e-001 +3.3761e-001
697 0 +1.159302632e+000 +1.364893026e+002 +1.364893026e+002 +5.3928e-001 +3.3887e-001
749 0 +1.123659022e+000 +1.364536590e+002 +1.364536590e+002 +5.2108e-001 +3.3272e-001
750 0 +5.573247470e-001 +1.358873247e+002 +1.358873247e+002 +5.1653e-001 +3.7992e-002
761 0 +2.020384551e-001 +1.355320385e+002 +1.355320385e+002 +5.4808e-001 +2.7354e-002
790 0 +2.236127828e-002 +1.353523613e+002 +1.353523613e+002 +5.3444e-001 +2.2749e-002
900 0 +1.541366351e-002 +1.353454137e+002 +1.353454137e+002 +5.3570e-001 +2.3141e-002
989 0 +8.976126531e-003 +1.353389761e+002 +1.353389761e+002 +5.3966e-001 +2.2749e-002
1020 0 +1.256174359e-003 +1.353312562e+002 +1.353312562e+002 +5.4237e-001 +2.3694e-002
1043 0 +9.805889601e-004 +1.353309806e+002 +1.353309806e+002 +5.4420e-001 +2.4684e-002
1083 0 +9.635899718e-004 +1.353309636e+002 +1.353309636e+002 +5.4429e-001 +2.4684e-002
1092 0 +2.522536844e-004 +1.353302523e+002 +1.353302523e+002 +5.4426e-001 +2.4307e-002
1143 0 +6.229113148e-005 +1.353300623e+002 +1.353300623e+002 +5.4437e-001 +2.3905e-002
1203 0 +3.892870276e-005 +1.353300389e+002 +1.353300389e+002 +5.4454e-001 +2.4128e-002
1247 0 +2.326142416e-005 +1.353300233e+002 +1.353300233e+002 +5.4452e-001 +2.4070e-002
1262 0 +1.998631558e-005 +1.353300200e+002 +1.353300200e+002 +5.4453e-001 +2.4065e-002
1312 0 +1.052314582e-005 +1.353300105e+002 +1.353300105e+002 +5.4455e-001 +2.3998e-002
1358 0 +5.356002390e-006 +1.353300054e+002 +1.353300054e+002 +5.4463e-001 +2.4002e-002
1380 0 +4.729926985e-006 +1.353300047e+002 +1.353300047e+002 +5.4469e-001 +2.4034e-002
1400 0 +1.308921384e-006 +1.353300013e+002 +1.353300013e+002 +5.4472e-001 +2.3990e-002
1441 0 +7.562774442e-007 +1.353300008e+002 +1.353300008e+002 +5.4475e-001 +2.4010e-002
1511 0 +2.680481259e-007 +1.353300003e+002 +1.353300003e+002 +5.4476e-001 +2.4003e-002
1561 0 +1.777714260e-007 +1.353300002e+002 +1.353300002e+002 +5.4480e-001 +2.4010e-002
1584 0 +4.084705552e-008 +1.353300000e+002 +1.353300000e+002 +5.4479e-001 +2.3997e-002
1621 0 +3.087981781e-008 +1.353300000e+002 +1.353300000e+002 +5.4479e-001 +2.4003e-002
1634 0 +7.114238088e-010 +1.353300000e+002 +1.353300000e+002 +5.4480e-001 +2.4000e-002
% f evaluations | g evaluations | best noise-free fitness - Fopt (4.066000000000e+001) + sum g_i+ | measured fitness | best measured fitness or single-digit g-values | x1 | x2...
1 0 +4.324321871e+002 +4.730921871e+002 +4.730921871e+002 -5.0000e+000 -5.0000e+000
3 0 +2.176760288e+002 +2.583360288e+002 +2.583360288e+002 -5.0000e+000 +5.0000e+000
5 0 +2.007000292e+002 +2.413600292e+002 +2.413600292e+002 -3.9794e+000 +4.8815e+000
6 0 +4.369296276e+001 +8.435296276e+001 +8.435296276e+001 -3.3725e+000 +1.3108e+000
10 0 +3.631099770e+001 +7.697099770e+001 +7.697099770e+001 -2.2371e+000 +1.1775e+000
21 0 +7.446716613e+000 +4.810671661e+001 +4.810671661e+001 +2.1749e+000 +9.2050e-001
84 0 +5.069155913e+000 +4.572915591e+001 +4.572915591e+001 +3.2546e+000 +1.2623e+000
238 0 +2.259477547e+000 +4.291947755e+001 +4.291947755e+001 +2.0596e+000 +9.2731e-001
278 0 +2.101564103e+000 +4.276156410e+001 +4.276156410e+001 +2.0561e+000 +9.4387e-001
298 0 +1.996337720e+000 +4.265633772e+001 +4.265633772e+001 +2.0536e+000 +9.3870e-001
467 0 +1.990723469e+000 +4.265072347e+001 +4.265072347e+001 +2.0562e+000 +9.3782e-001
719 0 +1.345764201e+000 +4.200576420e+001 +4.200576420e+001 +3.0475e+000 +9.4891e-001
791 0 +1.293459270e+000 +4.195345927e+001 +4.195345927e+001 +3.0268e+000 +9.4551e-001
811 0 +1.268302511e+000 +4.192830251e+001 +4.192830251e+001 +3.0292e+000 +9.4547e-001
831 0 +1.254598377e+000 +4.191459838e+001 +4.191459838e+001 +3.0307e+000 +9.4545e-001
834 0 +1.083396259e+000 +4.174339626e+001 +4.174339626e+001 +3.0425e+000 +9.4262e-001
862 0 +1.048944935e+000 +4.170894493e+001 +4.170894493e+001 +3.0413e+000 +9.4089e-001
894 0 +9.960932094e-001 +4.165609321e+001 +4.165609321e+001 +3.0496e+000 +9.3754e-001
2524 0 +3.134680402e-001 +4.097346804e+001 +4.097346804e+001 +3.0307e+000 +1.2579e+000
2558 0 +8.279810403e-002 +4.074279810e+001 +4.074279810e+001 +3.0430e+000 +1.2534e+000
2624 0 +1.549727689e-002 +4.067549728e+001 +4.067549728e+001 +3.0514e+000 +1.2503e+000
2771 0 +1.290471391e-002 +4.067290471e+001 +4.067290471e+001 +3.0499e+000 +1.2495e+000
2784 0 +2.370544266e-004 +4.066023705e+001 +4.066023705e+001 +3.0509e+000 +1.2473e+000
2895 0 +6.675742303e-005 +4.066006676e+001 +4.066006676e+001 +3.0520e+000 +1.2474e+000
2975 0 +2.848829720e-005 +4.066002849e+001 +4.066002849e+001 +3.0517e+000 +1.2471e+000
2980 0 +1.452295691e-005 +4.066001452e+001 +4.066001452e+001 +3.0519e+000 +1.2471e+000
3047 0 +3.552464811e-006 +4.066000355e+001 +4.066000355e+001 +3.0520e+000 +1.2472e+000
3141 0 +6.250154598e-007 +4.066000063e+001 +4.066000063e+001 +3.0520e+000 +1.2472e+000
3221 0 +2.905193597e-007 +4.066000029e+001 +4.066000029e+001 +3.0520e+000 +1.2472e+000
3230 0 +1.954985365e-007 +4.066000020e+001 +4.066000020e+001 +3.0520e+000 +1.2472e+000
3289 0 +7.311388828e-008 +4.066000007e+001 +4.066000007e+001 +3.0520e+000 +1.2472e+000
3343 0 +3.387086878e-008 +4.066000003e+001 +4.066000003e+001 +3.0520e+000 +1.2472e+000
3363 0 +1.328518806e-008 +4.066000001e+001 +4.066000001e+001 +3.0520e+000 +1.2472e+000
3365 0 +5.138865333e-009 +4.066000001e+001 +4.066000001e+001 +3.0520e+000 +1.2472e+000
