% f evaluations | g evaluations | best noise-free fitness - Fopt (3.590000000000e+001) + sum g_i+ | measured fitness | best measured fitness or single-digit g-values | x1 | x2...
1 0 +9.581208803e+005 +9.581567803e+005 +9.581567803e+005 -5.0000e+000 +5.0000e+000
2 0 +1.169056977e+004 +1.172646977e+004 +1.172646977e+004 +5.0000e+000 +5.0000e+000
10 0 +1.401461561e+001 +4.991461561e+001 +4.991461561e+001 +4.5038e+000 +3.5767e-001
28 0 +8.411752964e+000 +4.431175296e+001 +4.431175296e+001 +4.2474e+000 -1.2821e+000
38 0 +1.529702438e+000 +3.742970244e+001 +3.742970244e+001 +3.3330e+000 +6.5137e-001
86 0 +7.909471137e-001 +3.669094711e+001 +3.669094711e+001 +3.0283e+000 +1.2870e+000
100 0 +3.938982333e-001 +3.629389823e+001 +3.629389823e+001 +3.0445e+000 +8.1399e-001
101 0 +2.967071403e-001 +3.619670714e+001 +3.619670714e+001 +2.9908e+000 +9.5333e-001
156 0 +2.679446173e-001 +3.616794462e+001 +3.616794462e+001 +2.9310e+000 +1.1473e+000
163 0 +2.370006754e-001 +3.613700068e+001 +3.613700068e+001 +2.9082e+000 +1.1792e+000
175 0 +2.195627467e-001 +3.611956275e+001 +3.611956275e+001 +2.9181e+000 +1.1328e+000
176 0 +1.534784765e-001 +3.605347848e+001 +3.605347848e+001 +2.9261e+000 +1.0139e+000
196 0 +1.361476152e-001 +3.603614762e+001 +3.603614762e+001 +2.9230e+000 +9.2849e-001
227 0 +1.187885688e-001 +3.601878857e+001 +3.601878857e+001 +2.8710e+000 +1.1459e+000
237 0 +8.349874390e-002 +3.598349874e+001 +3.598349874e+001 +2.8754e+000 +1.0923e+000
238 0 +7.966188381e-002 +3.597966188e+001 +3.597966188e+001 +2.8817e+000 +1.0370e+000
262 0 +5.314649680e-002 +3.595314650e+001 +3.595314650e+001 +2.8620e+000 +1.0611e+000
267 0 +4.243554907e-002 +3.594243555e+001 +3.594243555e+001 +2.8580e+000 +1.0183e+000
270 0 +3.871410666e-002 +3.593871411e+001 +3.593871411e+001 +2.8418e+000 +9.6996e-001
298 0 +2.510662284e-002 +3.592510662e+001 +3.592510662e+001 +2.8386e+000 +1.0107e+000
317 0 +8.628251286e-003 +3.590862825e+001 +3.590862825e+001 +2.8026e+000 +1.1209e+000
325 0 +3.463840566e-003 +3.590346384e+001 +3.590346384e+001 +2.7960e+000 +1.1130e+000
405 0 +2.501216280e-003 +3.590250122e+001 +3.590250122e+001 +2.7918e+000 +1.1191e+000
414 0 +1.453005004e-003 +3.590145301e+001 +3.590145301e+001 +2.7892e+000 +1.1176e+000
447 0 +9.858774390e-004 +3.590098588e+001 +3.590098588e+001 +2.7902e+000 +1.1079e+000
459 0 +7.173953720e-004 +3.590071740e+001 +3.590071740e+001 +2.7887e+000 +1.1092e+000
465 0 +6.888619105e-004 +3.590068886e+001 +3.590068886e+001 +2.7870e+000 +1.1150e+000
466 0 +5.546349660e-004 +3.590055463e+001 +3.590055463e+001 +2.7858e+000 +1.1169e+000
478 0 +9.117565489e-005 +3.590009118e+001 +3.590009118e+001 +2.7841e+000 +1.1106e+000
532 0 +6.474528707e-005 +3.590006475e+001 +3.590006475e+001 +2.7829e+000 +1.1144e+000
602 0 +5.549249090e-005 +3.590005549e+001 +3.590005549e+001 +2.7834e+000 +1.1100e+000
612 0 +4.982818673e-005 +3.590004983e+001 +3.590004983e+001 +2.7834e+000 +1.1108e+000
615 0 +4.791943027e-005 +3.590004792e+001 +3.590004792e+001 +2.7833e+000 +1.1106e+000
632 0 +2.867622724e-005 +3.590002868e+001 +3.590002868e+001 +2.7828e+000 +1.1112e+000
636 0 +1.014606288e-005 +3.590001015e+001 +3.590001015e+001 +2.7823e+000 +1.1121e+000
652 0 +8.874099855e-006 +3.590000887e+001 +3.590000887e+001 +2.7822e+000 +1.1121e+000
686 0 +8.552357905e-006 +3.590000855e+001 +3.590000855e+001 +2.7822e+000 +1.1133e+000
698 0 +7.788141197e-006 +3.590000779e+001 +3.590000779e+001 +2.7822e+000 +1.1130e+000
706 0 +4.007132844e-006 +3.590000401e+001 +3.590000401e+001 +2.7820e+000 +1.1133e+000
707 0 +3.469616175e-006 +3.590000347e+001 +3.590000347e+001 +2.7819e+000 +1.1136e+000
735 0 +1.944605017e-006 +3.590000194e+001 +3.590000194e+001 +2.7818e+000 +1.1137e+000
739 0 +1.708422936e-006 +3.590000171e+001 +3.590000171e+001 +2.7818e+000 +1.1137e+000
772 0 +8.523280570e-007 +3.590000085e+001 +3.590000085e+001 +2.7818e+000 +1.1135e+000
791 0 +7.965500757e-007 +3.590000080e+001 +3.590000080e+001 +2.7818e+000 +1.1133e+000
796 0 +3.707213168e-007 +3.590000037e+001 +3.590000037e+001 +2.7817e+000 +1.1134e+000
800 0 +2.648286781e-007 +3.590000026e+001 +3.590000026e+001 +2.7817e+000 +1.1134e+000
808 0 +1.898487696e-007 +3.590000019e+001 +3.590000019e+001 +2.7817e+000 +1.1135e+000
820 0 +1.836151782e-007 +3.590000018e+001 +3.590000018e+001 +2.7817e+000 +1.1135e+000
827 0 +1.567333854e-007 +3.590000016e+001 +3.590000016e+001 +2.7817e+000 +1.1135e+000
840 0 +3.866762910e-008 +3.590000004e+001 +3.590000004e+001 +2.7816e+000 +1.1135e+000
864 0 +2.922030973e-008 +3.590000003e+001 +3.590000003e+001 +2.7816e+000 +1.1136e+000
875 0 +2.357443663e-008 +3.590000002e+001 +3.590000002e+001 +2.7816e+000 +1.1136e+000
882 0 +1.091604673e-008 +3.590000001e+001 +3.590000001e+001 +2.7816e+000 +1.1136e+000
896 0 +9.197492545e-009 +3.590000001e+001 +3.590000001e+001 +2.7816e+000 +1.1136e+000
% f evaluations | g evaluations | best noise-free fitness - Fopt (3.137000000000e+001) + sum g_i+ | measured fitness | best measured fitness or single-digit g-values | x1 | x2...
1 0 +1.923184441e+002 +2.236884441e+002 +2.236884441e+002 +5.0000e+000 +5.0000e+000
5 0 +1.276282383e+002 +1.589982383e+002 +1.589982383e+002 +4.2381e+000 +5.0000e+000
10 0 +1.147210858e+002 +1.460910858e+002 +1.460910858e+002 +3.7795e+000 +5.0000e+000
11 0 +1.102050705e+002 +1.415750705e+002 +1.415750705e+002 +3.5625e+000 +5.0000e+000
12 0 +9.337532806e+001 +1.247453281e+002 +1.247453281e+002 +3.1957e+000 +5.0000e+000
14 0 +4.312889264e+001 +7.449889264e+001 +7.449889264e+001 +1.8030e+000 +5.0000e+000
15 0 +1.685664941e+001 +4.822664941e+001 +4.822664941e+001 +1.1722e+000 +2.6607e+000
18 0 +1.422785197e+001 +4.559785197e+001 +4.559785197e+001 +8.3360e-001 +3.9569e+000
21 0 +1.368246933e+001 +4.505246933e+001 +4.505246933e+001 +7.5936e-001 +4.1332e+000
24 0 +6.298489860e+000 +3.766848986e+001 +3.766848986e+001 +4.1030e-001 +3.0366e+000
36 0 +4.949698120e+000 +3.631969812e+001 +3.631969812e+001 +3.0807e-001 +3.0206e+000
44 0 +3.420412039e+000 +3.479041204e+001 +3.479041204e+001 +2.5962e-001 +2.5687e+000
64 0 +2.248829007e+000 +3.361882901e+001 +3.361882901e+001 +1.6319e-001 +2.2692e+000
79 0 +2.201645850e+000 +3.357164585e+001 +3.357164585e+001 +1.5682e-001 +2.2767e+000
84 0 +2.132157710e+000 +3.350215771e+001 +3.350215771e+001 +1.5420e-001 +2.2522e+000
87 0 +2.041506251e+000 +3.341150625e+001 +3.341150625e+001 +1.5101e-001 +2.2225e+000
97 0 +1.989481041e+000 +3.335948104e+001 +3.335948104e+001 +1.4856e-001 +2.2103e+000
125 0 +7.451014734e-001 +3.211510147e+001 +3.211510147e+001 -1.3944e-002 +2.0714e+000
144 0 +2.267248732e-001 +3.159672487e+001 +3.159672487e+001 -1.4595e-001 +1.9941e+000
146 0 +5.697202728e-002 +3.142697203e+001 +3.142697203e+001 -2.1184e-001 +1.9366e+000
162 0 +2.426483972e-002 +3.139426484e+001 +3.139426484e+001 -2.3353e-001 +1.9177e+000
181 0 +1.716738118e-002 +3.138716738e+001 +3.138716738e+001 -2.4018e-001 +1.9095e+000
185 0 +1.659220536e-002 +3.138659221e+001 +3.138659221e+001 -2.4077e-001 +1.9092e+000
232 0 +5.045705476e-003 +3.137504571e+001 +3.137504571e+001 -2.5943e-001 +1.9252e+000
258 0 +2.234806778e-003 +3.137223481e+001 +3.137223481e+001 -2.7305e-001 +1.9288e+000
275 0 +8.725068307e-004 +3.137087251e+001 +3.137087251e+001 -2.6952e-001 +1.9121e+000
290 0 +3.074504313e-004 +3.137030745e+001 +3.137030745e+001 -2.7021e-001 +1.9052e+000
363 0 +1.814673637e-004 +3.137018147e+001 +3.137018147e+001 -2.6959e-001 +1.8990e+000
411 0 +7.151422589e-005 +3.137007151e+001 +3.137007151e+001 -2.7208e-001 +1.9016e+000
445 0 +6.941956887e-005 +3.137006942e+001 +3.137006942e+001 -2.7208e-001 +1.9016e+000
447 0 +6.376011605e-005 +3.137006376e+001 +3.137006376e+001 -2.7118e-001 +1.9000e+000
451 0 +5.541984115e-005 +3.137005542e+001 +3.137005542e+001 -2.7122e-001 +1.8996e+000
477 0 +4.981101038e-005 +3.137004981e+001 +3.137004981e+001 -2.7132e-001 +1.8995e+000
484 0 +3.061402464e-005 +3.137003061e+001 +3.137003061e+001 -2.7114e-001 +1.8979e+000
492 0 +2.947179835e-005 +3.137002947e+001 +3.137002947e+001 -2.7147e-001 +1.8988e+000
505 0 +1.584317239e-005 +3.137001584e+001 +3.137001584e+001 -2.7130e-001 +1.8968e+000
506 0 +9.609213212e-006 +3.137000961e+001 +3.137000961e+001 -2.7171e-001 +1.8979e+000
521 0 +9.007553849e-006 +3.137000901e+001 +3.137000901e+001 -2.7163e-001 +1.8976e+000
536 0 +8.419365617e-006 +3.137000842e+001 +3.137000842e+001 -2.7178e-001 +1.8979e+000
560 0 +3.183755108e-006 +3.137000318e+001 +3.137000318e+001 -2.7200e-001 +1.8976e+000
565 0 +1.699762553e-006 +3.137000170e+001 +3.137000170e+001 -2.7192e-001 +1.8973e+000
568 0 +1.052087164e-007 +3.137000011e+001 +3.137000011e+001 -2.7198e-001 +1.8969e+000
607 0 +3.605605770e-008 +3.137000004e+001 +3.137000004e+001 -2.7198e-001 +1.8968e+000
652 0 +1.802998639e-008 +3.137000002e+001 +3.137000002e+001 -2.7198e-001 +1.8968e+000
661 0 +1.059349231e-008 +3.137000001e+001 +3.137000001e+001 -2.7199e-001 +1.8968e+000
662 0 +9.960505309e-009 +3.137000001e+001 +3.137000001e+001 -2.7199e-001 +1.8968e+000
% f evaluations | g evaluations | best noise-free fitness - Fopt (-1.000000000000e+003) + sum g_i+ | measured fitness | best measured fitness or single-digit g-values | x1 | x2...
1 0 +1.235984519e+006 +1.234984519e+006 +1.234984519e+006 -5.0000e+000 +5.0000e+000
2 0 +7.005543782e+001 -9.299445622e+002 -9.299445622e+002 +5.0000e+000 +5.0000e+000
7 0 +6.271952212e+001 -9.372804779e+002 -9.372804779e+002 +4.4794e+000 +5.0000e+000
13 0 +3.661792430e+001 -9.633820757e+002 -9.633820757e+002 +3.3479e+000 +8.7876e-001
14 0 +2.432822156e+001 -9.756717784e+002 -9.756717784e+002 +2.7849e+000 +3.6374e-001
21 0 +2.394344682e+001 -9.760565532e+002 -9.760565532e+002 +2.7376e+000 +4.0961e-001
32 0 +1.042619767e+001 -9.895738023e+002 -9.895738023e+002 +1.5507e+000 -6.5547e-001
39 0 +4.061628190e+000 -9.959383718e+002 -9.959383718e+002 +8.7719e-001 -1.6844e+000
69 0 +3.912488061e+000 -9.960875119e+002 -9.960875119e+002 +8.4061e-001 -1.6508e+000
99 0 +3.732238533e+000 -9.962677615e+002 -9.962677615e+002 +8.3398e-001 -1.9983e+000
116 0 +3.021638031e+000 -9.969783620e+002 -9.969783620e+002 +7.3348e-001 -2.0701e+000
117 0 +1.492361814e+000 -9.985076382e+002 -9.985076382e+002 +4.5067e-001 -2.3823e+000
131 0 +1.464680904e+000 -9.985353191e+002 -9.985353191e+002 +4.4180e-001 -2.3701e+000
137 0 +8.339786273e-001 -9.991660214e+002 -9.991660214e+002 +2.5368e-001 -2.9246e+000
143 0 +6.092839943e-001 -9.993907160e+002 -9.993907160e+002 +1.7499e-001 -2.8800e+000
152 0 +4.182994948e-001 -9.995817005e+002 -9.995817005e+002 +1.2383e-001 -2.9401e+000
162 0 +1.388103839e-001 -9.998611896e+002 -9.998611896e+002 -4.0503e-002 -3.2137e+000
190 0 +1.163571779e-001 -9.998836428e+002 -9.998836428e+002 -1.0018e-001 -3.3689e+000
203 0 +4.574450942e-002 -9.999542555e+002 -9.999542555e+002 -9.9873e-002 -3.2568e+000
238 0 +3.299516923e-002 -9.999670048e+002 -9.999670048e+002 -1.5013e-001 -3.3640e+000
256 0 +2.768760485e-002 -9.999723124e+002 -9.999723124e+002 -1.3651e-001 -3.3237e+000
272 0 +2.249686485e-002 -9.999775031e+002 -9.999775031e+002 -1.4675e-001 -3.3350e+000
283 0 +4.121759481e-003 -9.999958782e+002 -9.999958782e+002 -1.7549e-001 -3.3410e+000
323 0 +3.891968832e-003 -9.999961080e+002 -9.999961080e+002 -1.7659e-001 -3.3426e+000
331 0 +3.425391838e-003 -9.999965746e+002 -9.999965746e+002 -1.7465e-001 -3.3371e+000
343 0 +2.524410846e-003 -9.999974756e+002 -9.999974756e+002 -1.7896e-001 -3.3419e+000
363 0 +2.152721059e-003 -9.999978473e+002 -9.999978473e+002 -1.8047e-001 -3.3415e+000
383 0 +1.686135688e-003 -9.999983139e+002 -9.999983139e+002 -1.8143e-001 -3.3412e+000
418 0 +1.617086696e-003 -9.999983829e+002 -9.999983829e+002 -1.7976e-001 -3.3375e+000
426 0 +4.510372601e-004 -9.999995490e+002 -9.999995490e+002 -1.8389e-001 -3.3349e+000
432 0 +4.455869670e-004 -9.999995544e+002 -9.999995544e+002 -1.8381e-001 -3.3347e+000
448 0 +2.011357329e-004 -9.999997989e+002 -9.999997989e+002 -1.8466e-001 -3.3332e+000
452 0 +1.906375384e-004 -9.999998094e+002 -9.999998094e+002 -1.8470e-001 -3.3332e+000
471 0 +9.125614736e-005 -9.999999087e+002 -9.999999087e+002 -1.8527e-001 -3.3322e+000
492 0 +5.747267039e-005 -9.999999425e+002 -9.999999425e+002 -1.8551e-001 -3.3318e+000
502 0 +5.139147879e-005 -9.999999486e+002 -9.999999486e+002 -1.8559e-001 -3.3317e+000
543 0 +1.247822968e-005 -9.999999875e+002 -9.999999875e+002 -1.8599e-001 -3.3309e+000
568 0 +7.922764894e-006 -9.999999921e+002 -9.999999921e+002 -1.8590e-001 -3.3304e+000
587 0 +5.257903808e-006 -9.999999947e+002 -9.999999947e+002 -1.8596e-001 -3.3303e+000
597 0 +1.528362645e-007 -9.999999998e+002 -9.999999998e+002 -1.8632e-001 -3.3303e+000
627 0 +3.561422091e-008 -1.000000000e+003 -1.000000000e+003 -1.8637e-001 -3.3303e+000
752 0 +3.302818641e-008 -1.000000000e+003 -1.000000000e+003 -1.8637e-001 -3.3303e+000
778 0 +2.051490355e-008 -1.000000000e+003 -1.000000000e+003 -1.8638e-001 -3.3304e+000
780 0 +2.401861821e-009 -1.000000000e+003 -1.000000000e+003 -1.8639e-001 -3.3304e+000
% f evaluations | g evaluations | best noise-free fitness - Fopt (1.319200000000e+002) + sum g_i+ | measured fitness | best measured fitness or single-digit g-values | x1 | x2...
1 0 +1.687352956e+002 +3.006552956e+002 +3.006552956e+002 +5.0000e+000 -5.0000e+000
6 0 +1.678464503e+002 +2.997664503e+002 +2.997664503e+002 -1.9147e-001 -4.4378e+000
7 0 +1.621754173e+002 +2.940954173e+002 +2.940954173e+002 +1.6940e-001 -4.4378e+000
9 0 +1.472078467e+002 +2.791278467e+002 +2.791278467e+002 +1.3235e+000 -4.4378e+000
10 0 +1.302906386e+002 +2.622106386e+002 +2.622106386e+002 +5.0000e+000 -4.4378e+000
12 0 +7.551572527e+001 +2.074357253e+002 +2.074357253e+002 +1.6940e-001 -2.5168e+000
14 0 +6.266251258e+001 +1.945825126e+002 +1.945825126e+002 +5.0000e+000 -1.5458e+000
15 0 +5.851009725e+001 +1.904300973e+002 +1.904300973e+002 +9.2769e-001 -1.9887e+000
16 0 +3.378520640e+001 +1.657052064e+002 +1.657052064e+002 -1.0532e+000 -8.9758e-001
22 0 +2.801256399e+001 +1.599325640e+002 +1.599325640e+002 -5.4085e-001 -7.5572e-001
27 0 +1.332702060e+001 +1.452470206e+002 +1.452470206e+002 -3.5281e+000 +3.5499e-001
30 0 +1.275856490e+001 +1.446785649e+002 +1.446785649e+002 -5.0000e+000 +8.1413e-001
31 0 +7.456613569e-001 +1.326656614e+002 +1.326656614e+002 -3.6884e+000 +1.5656e+000
77 0 +4.998171919e-001 +1.324198172e+002 +1.324198172e+002 -3.7146e+000 +1.6363e+000
87 0 +1.081552191e-001 +1.320281552e+002 +1.320281552e+002 -3.8487e+000 +1.7927e+000
126 0 +1.547926498e-002 +1.319354793e+002 +1.319354793e+002 -3.9458e+000 +1.8715e+000
146 0 +1.277979662e-002 +1.319327798e+002 +1.319327798e+002 -3.9346e+000 +1.8745e+000
165 0 +1.129446890e-002 +1.319312945e+002 +1.319312945e+002 -3.9274e+000 +1.8765e+000
290 0 +3.065641155e-003 +1.319230656e+002 +1.319230656e+002 -3.9490e+000 +1.8947e+000
294 0 +2.622497186e-003 +1.319226225e+002 +1.319226225e+002 -3.9546e+000 +1.8951e+000
305 0 +2.418068536e-003 +1.319224181e+002 +1.319224181e+002 -3.9570e+000 +1.8966e+000
336 0 +2.212202073e-003 +1.319222122e+002 +1.319222122e+002 -3.9531e+000 +1.8991e+000
355 0 +2.094069993e-003 +1.319220941e+002 +1.319220941e+002 -3.9554e+000 +1.8987e+000
371 0 +9.913642054e-004 +1.319209914e+002 +1.319209914e+002 -3.9860e+000 +1.9044e+000
381 0 +8.466784533e-004 +1.319208467e+002 +1.319208467e+002 -3.9850e+000 +1.9048e+000
384 0 +2.695715414e-004 +1.319202696e+002 +1.319202696e+002 -3.9837e+000 +1.9074e+000
391 0 +1.582938832e-004 +1.319201583e+002 +1.319201583e+002 -3.9829e+000 +1.9079e+000
395 0 +1.541208283e-004 +1.319201541e+002 +1.319201541e+002 -3.9831e+000 +1.9080e+000
398 0 +4.818775778e-006 +1.319200048e+002 +1.319200048e+002 -3.9819e+000 +1.9100e+000
505 0 +9.214141983e-007 +1.319200009e+002 +1.319200009e+002 -3.9824e+000 +1.9103e+000
529 0 +3.629109244e-007 +1.319200004e+002 +1.319200004e+002 -3.9822e+000 +1.9103e+000
551 0 +3.088109963e-007 +1.319200003e+002 +1.319200003e+002 -3.9822e+000 +1.9103e+000
558 0 +1.905987972e-007 +1.319200002e+002 +1.319200002e+002 -3.9822e+000 +1.9103e+000
573 0 +1.464686079e-007 +1.319200001e+002 +1.319200001e+002 -3.9823e+000 +1.9103e+000
612 0 +1.188452643e-007 +1.319200001e+002 +1.319200001e+002 -3.9823e+000 +1.9103e+000
621 0 +6.505973715e-008 +1.319200001e+002 +1.319200001e+002 -3.9824e+000 +1.9104e+000
623 0 +5.435205708e-008 +1.319200001e+002 +1.319200001e+002 -3.9823e+000 +1.9104e+000
633 0 +4.976587320e-008 +1.319200000e+002 +1.319200000e+002 -3.9823e+000 +1.9104e+000
640 0 +1.190062449e-008 +1.319200000e+002 +1.319200000e+002 -3.9824e+000 +1.9104e+000
646 0 +1.125977178e-008 +1.319200000e+002 +1.319200000e+002 -3.9824e+000 +1.9104e+000
668 0 +1.087366286e-008 +1.319200000e+002 +1.319200000e+002 -3.9824e+000 +1.9104e+000
681 0 +1.014024065e-008 +1.319200000e+002 +1.319200000e+002 -3.9824e+000 +1.9104e+000
682 0 +9.558078773e-009 +1.319200000e+002 +1.319200000e+002 -3.9824e+000 +1.9104e+000
% f evaluations | g evaluations | best noise-free fitness - Fopt (5.908400000000e+002) + sum g_i+ | measured fitness | best measured fitness or single-digit g-values | x1 | x2...
1 0 +2.191074233e+002 +8.099474233e+002 +8.099474233e+002 -5.0000e+000 -5.0000e+000
5 0 +1.155854846e+002 +7.064254846e+002 +7.064254846e+002 -5.0000e+000 +1.0586e+000
11 0 +5.419868367e+001 +6.450386837e+002 +6.450386837e+002 -2.2734e+000 -1.9619e+000
13 0 +2.275377326e+001 +6.135937733e+002 +6.135937733e+002 -9.1448e-001 -2.0613e+000
26 0 +1.272517359e+001 +6.035651736e+002 +6.035651736e+002 -6.3017e-001 -1.4390e+000
35 0 +6.533268292e+000 +5.973732683e+002 +5.973732683e+002 +1.4583e-001 -2.3875e+000
44 0 +5.889267980e+000 +5.967292680e+002 +5.967292680e+002 +4.2184e-001 -3.0405e+000
52 0 +1.648138316e-001 +5.910048138e+002 +5.910048138e+002 +1.4338e+000 -3.5507e+000
177 0 +1.605807096e-001 +5.910005807e+002 +5.910005807e+002 +1.4387e+000 -3.5538e+000
295 0 +1.427493807e-001 +5.909827494e+002 +5.909827494e+002 +1.3096e+000 -3.2782e+000
298 0 +6.426280895e-003 +5.908464263e+002 +5.908464263e+002 +1.4307e+000 -3.3491e+000
326 0 +1.453426341e-003 +5.908414534e+002 +5.908414534e+002 +1.4474e+000 -3.3547e+000
355 0 +3.569908915e-005 +5.908400357e+002 +5.908400357e+002 +1.4451e+000 -3.3374e+000
455 0 +3.089907477e-005 +5.908400309e+002 +5.908400309e+002 +1.4450e+000 -3.3371e+000
461 0 +2.581571982e-005 +5.908400258e+002 +5.908400258e+002 +1.4452e+000 -3.3370e+000
515 0 +6.929408073e-006 +5.908400069e+002 +5.908400069e+002 +1.4456e+000 -3.3368e+000
542 0 +1.706985131e-006 +5.908400017e+002 +5.908400017e+002 +1.4456e+000 -3.3364e+000
550 0 +7.705854159e-007 +5.908400008e+002 +5.908400008e+002 +1.4456e+000 -3.3362e+000
657 0 +4.597847010e-007 +5.908400005e+002 +5.908400005e+002 +1.4456e+000 -3.3361e+000
665 0 +4.451236464e-007 +5.908400004e+002 +5.908400004e+002 +1.4456e+000 -3.3361e+000
678 0 +4.150803079e-007 +5.908400004e+002 +5.908400004e+002 +1.4456e+000 -3.3361e+000
679 0 +2.981136049e-007 +5.908400003e+002 +5.908400003e+002 +1.4456e+000 -3.3361e+000
683 0 +5.265496839e-008 +5.908400001e+002 +5.908400001e+002 +1.4456e+000 -3.3360e+000
699 0 +4.322373570e-009 +5.908400000e+002 +5.908400000e+002 +1.4456e+000 -3.3360e+000
% f evaluations | g evaluations | best noise-free fitness - Fopt (6.749000000000e+001) + sum g_i+ | measured fitness | best measured fitness or single-digit g-values | x1 | x2...
1 0 +1.040436960e+006 +1.040504450e+006 +1.040504450e+006 -5.0000e+000 +5.0000e+000
2 0 +1.816081869e+005 +1.816756769e+005 +1.816756769e+005 +5.0000e+000 +5.0000e+000
3 0 +2.359830594e+001 +9.108830594e+001 +9.108830594e+001 -5.0000e+000 -5.0000e+000
14 0 +2.325177726e+001 +9.074177726e+001 +9.074177726e+001 -4.5918e+000 -5.0000e+000
20 0 +1.705053780e+001 +8.454053780e+001 +8.454053780e+001 -4.4744e+000 -4.0902e+000
26 0 +1.675690673e+001 +8.424690673e+001 +8.424690673e+001 -4.4496e+000 -4.0902e+000
33 0 +1.278651794e+001 +8.027651794e+001 +8.027651794e+001 -2.4119e+000 -3.7114e+000
38 0 +1.200161337e+001 +7.949161337e+001 +7.949161337e+001 -2.4513e+000 -3.4999e+000
40 0 +6.573289808e+000 +7.406328981e+001 +7.406328981e+001 -2.9892e+000 -2.7346e+000
75 0 +5.004388011e+000 +7.249438801e+001 +7.249438801e+001 -2.7077e+000 -2.4432e+000
85 0 +4.167264575e+000 +7.165726458e+001 +7.165726458e+001 -2.5506e+000 -2.2258e+000
114 0 +1.869845380e+000 +6.935984538e+001 +6.935984538e+001 -1.9059e+000 -1.8879e+000
122 0 +1.369481468e+000 +6.885948147e+001 +6.885948147e+001 -1.7703e+000 -1.5698e+000
140 0 +7.062684649e-001 +6.819626846e+001 +6.819626846e+001 -1.1816e+000 -1.4349e+000
144 0 +8.093019000e-002 +6.757093019e+001 +6.757093019e+001 -9.9083e-001 -1.0808e+000
164 0 +6.951971099e-002 +6.755951971e+001 +6.755951971e+001 -9.4980e-001 -1.0435e+000
165 0 +2.877877438e-002 +6.751877877e+001 +6.751877877e+001 -9.7301e-001 -1.0096e+000
213 0 +2.768065549e-002 +6.751768066e+001 +6.751768066e+001 -9.7110e-001 -1.0080e+000
220 0 +8.961550654e-003 +6.749896155e+001 +6.749896155e+001 -8.9254e-001 -9.4464e-001
278 0 +3.693600179e-003 +6.749369360e+001 +6.749369360e+001 -8.9906e-001 -9.3512e-001
285 0 +3.549374431e-003 +6.749354937e+001 +6.749354937e+001 -8.9160e-001 -9.3062e-001
300 0 +3.061461638e-003 +6.749306146e+001 +6.749306146e+001 -8.9130e-001 -9.2957e-001
308 0 +2.586581620e-003 +6.749258658e+001 +6.749258658e+001 -8.9079e-001 -9.2783e-001
309 0 +2.062075966e-003 +6.749206208e+001 +6.749206208e+001 -8.9272e-001 -9.2614e-001
328 0 +1.897479941e-003 +6.749189748e+001 +6.749189748e+001 -8.9197e-001 -9.2526e-001
342 0 +1.461246367e-003 +6.749146125e+001 +6.749146125e+001 -8.9720e-001 -9.2575e-001
349 0 +1.350953135e-003 +6.749135095e+001 +6.749135095e+001 -8.9511e-001 -9.2433e-001
367 0 +9.103005219e-004 +6.749091030e+001 +6.749091030e+001 -8.9251e-001 -9.2056e-001
371 0 +5.040533541e-004 +6.749050405e+001 +6.749050405e+001 -8.9357e-001 -9.1651e-001
389 0 +4.871602273e-004 +6.749048716e+001 +6.749048716e+001 -8.9227e-001 -9.1651e-001
400 0 +4.237732305e-004 +6.749042377e+001 +6.749042377e+001 -8.9220e-001 -9.1565e-001
404 0 +1.798222229e-004 +6.749017982e+001 +6.749017982e+001 -8.8956e-001 -9.1134e-001
407 0 +1.603652210e-004 +6.749016037e+001 +6.749016037e+001 -8.8875e-001 -9.1221e-001
409 0 +1.460797255e-004 +6.749014608e+001 +6.749014608e+001 -8.8790e-001 -9.1187e-001
413 0 +7.713104418e-005 +6.749007713e+001 +6.749007713e+001 -8.8682e-001 -9.1010e-001
416 0 +5.616208134e-005 +6.749005616e+001 +6.749005616e+001 -8.8565e-001 -9.0957e-001
431 0 +5.235109559e-005 +6.749005235e+001 +6.749005235e+001 -8.8543e-001 -9.0937e-001
451 0 +5.104729756e-005 +6.749005105e+001 +6.749005105e+001 -8.8495e-001 -9.0918e-001
460 0 +4.143823519e-005 +6.749004144e+001 +6.749004144e+001 -8.8500e-001 -9.0900e-001
465 0 +3.148166657e-005 +6.749003148e+001 +6.749003148e+001 -8.8438e-001 -9.0856e-001
466 0 +2.971755504e-005 +6.749002972e+001 +6.749002972e+001 -8.8457e-001 -9.0853e-001
470 0 +2.851347153e-005 +6.749002851e+001 +6.749002851e+001 -8.8442e-001 -9.0836e-001
478 0 +1.866593954e-005 +6.749001867e+001 +6.749001867e+001 -8.8410e-001 -9.0801e-001
480 0 +1.857247966e-005 +6.749001857e+001 +6.749001857e+001 -8.8408e-001 -9.0800e-001
485 0 +1.528981706e-005 +6.749001529e+001 +6.749001529e+001 -8.8365e-001 -9.0758e-001
502 0 +1.273514054e-005 +6.749001274e+001 +6.749001274e+001 -8.8342e-001 -9.0735e-001
505 0 +8.621023980e-006 +6.749000862e+001 +6.749000862e+001 -8.8359e-001 -9.0733e-001
510 0 +7.691629534e-006 +6.749000769e+001 +6.749000769e+001 -8.8341e-001 -9.0716e-001
518 0 +6.690899980e-006 +6.749000669e+001 +6.749000669e+001 -8.8338e-001 -9.0709e-001
529 0 +5.686252535e-006 +6.749000569e+001 +6.749000569e+001 -8.8328e-001 -9.0690e-001
534 0 +3.691159094e-006 +6.749000369e+001 +6.749000369e+001 -8.8334e-001 -9.0692e-001
554 0 +3.486411615e-006 +6.749000349e+001 +6.749000349e+001 -8.8336e-001 -9.0691e-001
588 0 +3.288699773e-006 +6.749000329e+001 +6.749000329e+001 -8.8333e-001 -9.0688e-001
593 0 +2.424908132e-007 +6.749000024e+001 +6.749000024e+001 -8.8336e-001 -9.0654e-001
630 0 +1.987847753e-007 +6.749000020e+001 +6.749000020e+001 -8.8331e-001 -9.0654e-001
665 0 +5.858764496e-008 +6.749000006e+001 +6.749000006e+001 -8.8325e-001 -9.0647e-001
721 0 +4.900991257e-008 +6.749000005e+001 +6.749000005e+001 -8.8325e-001 -9.0646e-001
750 0 +1.111959591e-008 +6.749000001e+001 +6.749000001e+001 -8.8323e-001 -9.0643e-001
776 0 +1.077152945e-008 +6.749000001e+001 +6.749000001e+001 -8.8322e-001 -9.0643e-001
779 0 +1.068428901e-008 +6.749000001e+001 +6.749000001e+001 -8.8322e-001 -9.0643e-001
784 0 +9.582393545e-009 +6.749000001e+001 +6.749000001e+001 -8.8322e-001 -9.0642e-001
% f evaluations | g evaluations | best noise-free fitness - Fopt (3.085000000000e+001) + sum g_i+ | measured fitness | best measured fitness or single-digit g-values | x1 | x2...
1 0 +3.492249175e+002 +3.800749175e+002 +3.800749175e+002 -5.0000e+000 -5.0000e+000
8 0 +3.184788495e+001 +6.269788495e+001 +6.269788495e+001 +7.4416e-001 -5.0000e+000
29 0 +3.099593432e+001 +6.184593432e+001 +6.184593432e+001 +7.6545e-001 -5.0000e+000
48 0 +2.381801697e+000 +3.323180170e+001 +3.323180170e+001 +2.4215e+000 -3.5164e+000
53 0 +7.730724835e-002 +3.092730725e+001 +3.092730725e+001 +2.8431e+000 -3.6476e+000
98 0 +4.469733459e-002 +3.089469733e+001 +3.089469733e+001 +2.8632e+000 -3.6225e+000
124 0 +2.254383162e-002 +3.087254383e+001 +3.087254383e+001 +2.8718e+000 -3.7263e+000
186 0 +1.676713483e-003 +3.085167671e+001 +3.085167671e+001 +2.9015e+000 -3.7306e+000
325 0 +1.175305737e-003 +3.085117531e+001 +3.085117531e+001 +2.9029e+000 -3.7221e+000
397 0 +1.157793280e-003 +3.085115779e+001 +3.085115779e+001 +2.9030e+000 -3.7218e+000
414 0 +8.480161317e-004 +3.085084802e+001 +3.085084802e+001 +2.9073e+000 -3.7052e+000
435 0 +7.570265648e-004 +3.085075703e+001 +3.085075703e+001 +2.9060e+000 -3.7101e+000
437 0 +2.725680037e-004 +3.085027257e+001 +3.085027257e+001 +2.9073e+000 -3.7173e+000
441 0 +1.986436820e-004 +3.085019864e+001 +3.085019864e+001 +2.9081e+000 -3.7164e+000
451 0 +1.355567474e-004 +3.085013556e+001 +3.085013556e+001 +2.9085e+000 -3.7181e+000
452 0 +9.736359965e-005 +3.085009736e+001 +3.085009736e+001 +2.9087e+000 -3.7235e+000
519 0 +7.521890337e-005 +3.085007522e+001 +3.085007522e+001 +2.9088e+000 -3.7199e+000
527 0 +7.190614840e-005 +3.085007191e+001 +3.085007191e+001 +2.9091e+000 -3.7184e+000
547 0 +3.935077304e-005 +3.085003935e+001 +3.085003935e+001 +2.9096e+000 -3.7184e+000
553 0 +3.886882873e-005 +3.085003887e+001 +3.085003887e+001 +2.9096e+000 -3.7184e+000
556 0 +8.670362899e-006 +3.085000867e+001 +3.085000867e+001 +2.9099e+000 -3.7204e+000
560 0 +2.182584399e-006 +3.085000218e+001 +3.085000218e+001 +2.9102e+000 -3.7205e+000
611 0 +1.328345871e-006 +3.085000133e+001 +3.085000133e+001 +2.9103e+000 -3.7204e+000
618 0 +1.316317547e-006 +3.085000132e+001 +3.085000132e+001 +2.9102e+000 -3.7207e+000
641 0 +1.010580576e-006 +3.085000101e+001 +3.085000101e+001 +2.9102e+000 -3.7207e+000
647 0 +8.419802668e-007 +3.085000084e+001 +3.085000084e+001 +2.9103e+000 -3.7208e+000
651 0 +5.579801865e-007 +3.085000056e+001 +3.085000056e+001 +2.9103e+000 -3.7206e+000
660 0 +4.935513047e-007 +3.085000049e+001 +3.085000049e+001 +2.9103e+000 -3.7207e+000
663 0 +4.494133208e-007 +3.085000045e+001 +3.085000045e+001 +2.9103e+000 -3.7206e+000
667 0 +3.401132460e-007 +3.085000034e+001 +3.085000034e+001 +2.9103e+000 -3.7207e+000
668 0 +3.149644847e-007 +3.085000031e+001 +3.085000031e+001 +2.9103e+000 -3.7207e+000
671 0 +2.771168859e-007 +3.085000028e+001 +3.085000028e+001 +2.9103e+000 -3.7207e+000
676 0 +1.907454319e-007 +3.085000019e+001 +3.085000019e+001 +2.9104e+000 -3.7207e+000
681 0 +1.898886346e-007 +3.085000019e+001 +3.085000019e+001 +2.9104e+000 -3.7207e+000
685 0 +9.973938120e-008 +3.085000010e+001 +3.085000010e+001 +2.9104e+000 -3.7207e+000
695 0 +7.920925782e-008 +3.085000008e+001 +3.085000008e+001 +2.9104e+000 -3.7207e+000
698 0 +3.281706284e-008 +3.085000003e+001 +3.085000003e+001 +2.9104e+000 -3.7207e+000
700 0 +2.779478692e-008 +3.085000003e+001 +3.085000003e+001 +2.9104e+000 -3.7207e+000
705 0 +2.495248452e-008 +3.085000002e+001 +3.085000002e+001 +2.9104e+000 -3.7208e+000
717 0 +1.090291946e-008 +3.085000001e+001 +3.085000001e+001 +2.9104e+000 -3.7208e+000
722 0 +8.994106793e-009 +3.085000001e+001 +3.085000001e+001 +2.9104e+000 -3.7208e+000
% f evaluations | g evaluations | best noise-free fitness - Fopt (-1.255000000000e+001) + sum g_i+ | measured fitness | best measured fitness or single-digit g-values | x1 | x2...
1 0 +1.102709423e+005 +1.102583923e+005 +1.102583923e+005 +5.0000e+000 -5.0000e+000
2 0 +4.308461673e+002 +4.182961673e+002 +4.182961673e+002 -5.0000e+000 -5.0000e+000
4 0 +3.695532113e+001 +2.440532113e+001 +2.440532113e+001 +9.6036e-001 +3.6753e+000
5 0 +2.807850747e+001 +1.552850747e+001 +1.552850747e+001 +1.1943e+000 +3.6753e+000
7 0 +2.685714367e+001 +1.430714367e+001 +1.430714367e+001 +1.2325e+000 +3.6753e+000
8 0 +1.460017255e+001 +2.050172547e+000 +2.050172547e+000 +1.8292e+000 +4.5057e+000
10 0 +1.270885542e+001 +1.588554250e-001 +1.588554250e-001 +1.9605e+000 +4.5057e+000
14 0 +1.203158547e+001 -5.184145332e-001 -5.184145332e-001 +2.6996e+000 +3.6753e+000
23 0 +6.651505851e+000 -5.898494149e+000 -5.898494149e+000 +2.4121e+000 +3.6753e+000
26 0 +4.500548318e+000 -8.049451682e+000 -8.049451682e+000 +2.8438e+000 +1.4639e+000
44 0 +8.330238412e-001 -1.171697616e+001 -1.171697616e+001 +3.1787e+000 +2.0392e+000
104 0 +7.501878164e-001 -1.179981218e+001 -1.179981218e+001 +3.2336e+000 +1.9474e+000
111 0 +6.361334093e-001 -1.191386659e+001 -1.191386659e+001 +3.1735e+000 +2.3157e+000
118 0 +4.305238460e-001 -1.211947615e+001 -1.211947615e+001 +3.2520e+000 +2.1640e+000
124 0 +9.616113487e-002 -1.245383887e+001 -1.245383887e+001 +3.2816e+000 +2.6522e+000
166 0 +5.995452056e-002 -1.249004548e+001 -1.249004548e+001 +3.3485e+000 +2.3876e+000
176 0 +2.468489939e-002 -1.252531510e+001 -1.252531510e+001 +3.3404e+000 +2.5030e+000
189 0 +2.452567953e-003 -1.254754743e+001 -1.254754743e+001 +3.3738e+000 +2.5439e+000
286 0 +2.106548442e-003 -1.254789345e+001 -1.254789345e+001 +3.3659e+000 +2.5394e+000
334 0 +1.450319493e-003 -1.254854968e+001 -1.254854968e+001 +3.3670e+000 +2.5500e+000
353 0 +1.438167495e-004 -1.254985618e+001 -1.254985618e+001 +3.3750e+000 +2.5347e+000
404 0 +3.965442701e-005 -1.254996035e+001 -1.254996035e+001 +3.3754e+000 +2.5377e+000
491 0 +3.704939020e-005 -1.254996295e+001 -1.254996295e+001 +3.3754e+000 +2.5377e+000
507 0 +3.030101830e-005 -1.254996970e+001 -1.254996970e+001 +3.3756e+000 +2.5376e+000
518 0 +2.992144930e-005 -1.254997008e+001 -1.254997008e+001 +3.3757e+000 +2.5376e+000
526 0 +2.850965124e-005 -1.254997149e+001 -1.254997149e+001 +3.3757e+000 +2.5378e+000
537 0 +2.711120269e-005 -1.254997289e+001 -1.254997289e+001 +3.3756e+000 +2.5381e+000
561 0 +2.618488891e-005 -1.254997382e+001 -1.254997382e+001 +3.3754e+000 +2.5386e+000
564 0 +2.252280261e-005 -1.254997748e+001 -1.254997748e+001 +3.3757e+000 +2.5380e+000
590 0 +1.965464076e-005 -1.254998035e+001 -1.254998035e+001 +3.3757e+000 +2.5382e+000
601 0 +1.587641040e-005 -1.254998412e+001 -1.254998412e+001 +3.3755e+000 +2.5389e+000
603 0 +3.569110330e-006 -1.254999643e+001 -1.254999643e+001 +3.3757e+000 +2.5398e+000
617 0 +2.747784240e-006 -1.254999725e+001 -1.254999725e+001 +3.3757e+000 +2.5401e+000
629 0 +1.713245371e-006 -1.254999829e+001 -1.254999829e+001 +3.3759e+000 +2.5396e+000
641 0 +4.515790355e-007 -1.254999955e+001 -1.254999955e+001 +3.3759e+000 +2.5400e+000
645 0 +3.373514019e-007 -1.254999966e+001 -1.254999966e+001 +3.3759e+000 +2.5400e+000
650 0 +3.644214175e-008 -1.254999996e+001 -1.254999996e+001 +3.3760e+000 +2.5400e+000
757 0 +3.434099760e-008 -1.254999997e+001 -1.254999997e+001 +3.3760e+000 +2.5400e+000
765 0 +3.090226919e-008 -1.254999997e+001 -1.254999997e+001 +3.3760e+000 +2.5400e+000
778 0 +2.957887979e-008 -1.254999997e+001 -1.254999997e+001 +3.3760e+000 +2.5400e+000
782 0 +2.928515386e-008 -1.254999997e+001 -1.254999997e+001 +3.3760e+000 +2.5400e+000
783 0 +2.428003221e-008 -1.254999998e+001 -1.254999998e+001 +3.3760e+000 +2.5400e+000
789 0 +2.098844654e-008 -1.254999998e+001 -1.254999998e+001 +3.3760e+000 +2.5400e+000
797 0 +2.037689661e-008 -1.254999998e+001 -1.254999998e+001 +3.3760e+000 +2.5400e+000
812 0 +8.311765498e-009 -1.254999999e+001 -1.254999999e+001 +3.3760e+000 +2.5400e+000
% f evaluations | g evaluations | best noise-free fitness - Fopt (5.383900000000e+002) + sum g_i+ | measured fitness | best measured fitness or single-digit g-values | x1 | x2...
1 0 +3.369724813e+002 +8.753624813e+002 +8.753624813e+002 -5.0000e+000 +5.0000e+000
4 0 +2.357694637e+001 +5.619669464e+002 +5.619669464e+002 +1.6921e-001 +1.5497e+000
7 0 +1.753481954e+001 +5.559248195e+002 +5.559248195e+002 +1.6921e-001 +8.0157e-001
12 0 +1.136565072e+001 +5.497556507e+002 +5.497556507e+002 +1.1863e+000 +1.6855e+000
32 0 +3.286437399e+000 +5.416764374e+002 +5.416764374e+002 +2.0635e+000 +1.7516e+000
35 0 +2.626404959e+000 +5.410164050e+002 +5.410164050e+002 +2.2315e+000 +1.8844e+000
87 0 +1.296110390e+000 +5.396861104e+002 +5.396861104e+002 +2.6751e+000 +2.2005e+000
126 0 +3.875404989e-001 +5.387775405e+002 +5.387775405e+002 +3.1827e+000 +2.6883e+000
137 0 +7.054537440e-002 +5.384605454e+002 +5.384605454e+002 +3.4296e+000 +2.7873e+000
170 0 +6.767254865e-002 +5.384576725e+002 +5.384576725e+002 +3.3190e+000 +2.6560e+000
171 0 +5.516976029e-002 +5.384451698e+002 +5.384451698e+002 +3.3008e+000 +2.6041e+000
182 0 +1.736754622e-002 +5.384073675e+002 +5.384073675e+002 +3.4349e+000 +2.7424e+000
256 0 +1.352127394e-003 +5.383913521e+002 +5.383913521e+002 +3.4463e+000 +2.7180e+000
318 0 +8.557674261e-004 +5.383908558e+002 +5.383908558e+002 +3.4339e+000 +2.7013e+000
391 0 +5.104110624e-004 +5.383905104e+002 +5.383905104e+002 +3.4400e+000 +2.7072e+000
394 0 +2.670096403e-004 +5.383902670e+002 +5.383902670e+002 +3.4464e+000 +2.7114e+000
430 0 +1.731778706e-004 +5.383901732e+002 +5.383901732e+002 +3.4403e+000 +2.7039e+000
458 0 +1.477332971e-004 +5.383901477e+002 +5.383901477e+002 +3.4409e+000 +2.7041e+000
470 0 +9.164997005e-005 +5.383900916e+002 +5.383900916e+002 +3.4416e+000 +2.7039e+000
499 0 +7.498083505e-005 +5.383900750e+002 +5.383900750e+002 +3.4423e+000 +2.7047e+000
507 0 +5.775196314e-005 +5.383900578e+002 +5.383900578e+002 +3.4429e+000 +2.7051e+000
522 0 +1.738044170e-005 +5.383900174e+002 +5.383900174e+002 +3.4453e+000 +2.7072e+000
528 0 +1.468967127e-005 +5.383900147e+002 +5.383900147e+002 +3.4457e+000 +2.7073e+000
530 0 +1.162425519e-005 +5.383900116e+002 +5.383900116e+002 +3.4457e+000 +2.7073e+000
543 0 +8.192733389e-006 +5.383900082e+002 +5.383900082e+002 +3.4453e+000 +2.7067e+000
546 0 +7.288988741e-006 +5.383900073e+002 +5.383900073e+002 +3.4452e+000 +2.7066e+000
551 0 +5.748269587e-006 +5.383900057e+002 +5.383900057e+002 +3.4449e+000 +2.7061e+000
575 0 +2.571389359e-007 +5.383900003e+002 +5.383900003e+002 +3.4455e+000 +2.7064e+000
617 0 +2.462835482e-007 +5.383900002e+002 +5.383900002e+002 +3.4456e+000 +2.7065e+000
674 0 +2.095464424e-007 +5.383900002e+002 +5.383900002e+002 +3.4455e+000 +2.7064e+000
701 0 +3.622085387e-008 +5.383900000e+002 +5.383900000e+002 +3.4456e+000 +2.7064e+000
729 0 +3.085006028e-008 +5.383900000e+002 +5.383900000e+002 +3.4456e+000 +2.7064e+000
731 0 +2.821730050e-008 +5.383900000e+002 +5.383900000e+002 +3.4456e+000 +2.7064e+000
738 0 +2.049978320e-008 +5.383900000e+002 +5.383900000e+002 +3.4456e+000 +2.7064e+000
783 0 +1.250066362e-008 +5.383900000e+002 +5.383900000e+002 +3.4456e+000 +2.7064e+000
792 0 +1.099306246e-008 +5.383900000e+002 +5.383900000e+002 +3.4456e+000 +2.7064e+000
802 0 +5.948777471e-009 +5.383900000e+002 +5.383900000e+002 +3.4456e+000 +2.7064e+000
% f evaluations | g evaluations | best noise-free fitness - Fopt (-1.055600000000e+002) + sum g_i+ | measured fitness | best measured fitness or single-digit g-values | x1 | x2...
1 0 +1.527207654e+004 +1.516651654e+004 +1.516651654e+004 -5.0000e+000 -5.0000e+000
4 0 +8.722332283e+003 +8.616772283e+003 +8.616772283e+003 -3.5141e-001 -2.9061e+000
5 0 +7.475786232e+003 +7.370226232e+003 +7.370226232e+003 +6.5156e-001 -2.4543e+000
6 0 +1.091154838e+003 +9.855948376e+002 +9.855948376e+002 -3.5141e-001 -4.1243e+000
7 0 +1.257924566e+001 -9.298075434e+001 -9.298075434e+001 +5.5063e-001 -4.1243e+000
12 0 +9.679737590e+000 -9.588026241e+001 -9.588026241e+001 +6.8820e-001 -5.0000e+000
28 0 +2.524063859e+000 -1.030359361e+002 -1.030359361e+002 +1.3181e+000 -4.8322e+000
31 0 +2.214273444e+000 -1.033457266e+002 -1.033457266e+002 +1.4716e+000 -4.9305e+000
40 0 +2.065780172e+000 -1.034942198e+002 -1.034942198e+002 +1.5009e+000 -4.9305e+000
45 0 +1.881729751e+000 -1.036782702e+002 -1.036782702e+002 +1.6040e+000 -4.9853e+000
51 0 +1.254565001e+000 -1.043054350e+002 -1.043054350e+002 +1.5881e+000 -4.7023e+000
64 0 +1.221101660e+000 -1.043388983e+002 -1.043388983e+002 +1.7110e+000 -4.7002e+000
71 0 +7.839511153e-001 -1.047760489e+002 -1.047760489e+002 +1.6627e+000 -4.5563e+000
77 0 +7.596682806e-001 -1.048003317e+002 -1.048003317e+002 +1.6306e+000 -4.5467e+000
102 0 +5.018553141e-001 -1.050581447e+002 -1.050581447e+002 +1.3816e+000 -4.2217e+000
103 0 +4.174471759e-001 -1.051425528e+002 -1.051425528e+002 +1.2344e+000 -3.9211e+000
105 0 +1.249187523e-001 -1.054350812e+002 -1.054350812e+002 +1.3379e+000 -3.8795e+000
124 0 +4.075663620e-002 -1.055192434e+002 -1.055192434e+002 +1.3155e+000 -3.7216e+000
163 0 +2.196617386e-002 -1.055380338e+002 -1.055380338e+002 +1.3427e+000 -3.7491e+000
181 0 +2.888763622e-003 -1.055571112e+002 -1.055571112e+002 +1.3658e+000 -3.7278e+000
252 0 +2.835900663e-003 -1.055571641e+002 -1.055571641e+002 +1.3656e+000 -3.7274e+000
258 0 +1.564293525e-003 -1.055584357e+002 -1.055584357e+002 +1.3605e+000 -3.7131e+000
286 0 +1.438133681e-003 -1.055585619e+002 -1.055585619e+002 +1.3596e+000 -3.7108e+000
294 0 +1.362093926e-003 -1.055586379e+002 -1.055586379e+002 +1.3589e+000 -3.7090e+000
310 0 +1.328636533e-003 -1.055586714e+002 -1.055586714e+002 +1.3586e+000 -3.7082e+000
324 0 +1.158220175e-003 -1.055588418e+002 -1.055588418e+002 +1.3579e+000 -3.7056e+000
327 0 +1.028463073e-003 -1.055589715e+002 -1.055589715e+002 +1.3561e+000 -3.7011e+000
338 0 +1.466393444e-004 -1.055598534e+002 -1.055598534e+002 +1.3605e+000 -3.6981e+000
351 0 +9.342296613e-005 -1.055599066e+002 -1.055599066e+002 +1.3600e+000 -3.6963e+000
359 0 +6.702665293e-005 -1.055599330e+002 -1.055599330e+002 +1.3597e+000 -3.6951e+000
368 0 +2.854272020e-005 -1.055599715e+002 -1.055599715e+002 +1.3594e+000 -3.6930e+000
395 0 +2.533126980e-005 -1.055599747e+002 -1.055599747e+002 +1.3594e+000 -3.6928e+000
412 0 +1.811351098e-005 -1.055599819e+002 -1.055599819e+002 +1.3594e+000 -3.6925e+000
448 0 +8.789310201e-006 -1.055599912e+002 -1.055599912e+002 +1.3597e+000 -3.6926e+000
453 0 +7.788000119e-006 -1.055599922e+002 -1.055599922e+002 +1.3597e+000 -3.6925e+000
454 0 +7.503332597e-006 -1.055599925e+002 -1.055599925e+002 +1.3597e+000 -3.6924e+000
461 0 +7.171769738e-006 -1.055599928e+002 -1.055599928e+002 +1.3597e+000 -3.6924e+000
464 0 +9.691120084e-007 -1.055599990e+002 -1.055599990e+002 +1.3599e+000 -3.6922e+000
483 0 +5.180686742e-007 -1.055599995e+002 -1.055599995e+002 +1.3600e+000 -3.6922e+000
493 0 +4.787478645e-007 -1.055599995e+002 -1.055599995e+002 +1.3600e+000 -3.6922e+000
508 0 +3.655175362e-007 -1.055599996e+002 -1.055599996e+002 +1.3600e+000 -3.6922e+000
513 0 +2.397230219e-007 -1.055599998e+002 -1.055599998e+002 +1.3600e+000 -3.6922e+000
515 0 +1.037376904e-007 -1.055599999e+002 -1.055599999e+002 +1.3600e+000 -3.6921e+000
536 0 +1.020670481e-007 -1.055599999e+002 -1.055599999e+002 +1.3600e+000 -3.6921e+000
551 0 +2.691875522e-008 -1.055600000e+002 -1.055600000e+002 +1.3600e+000 -3.6921e+000
579 0 +3.170399054e-009 -1.055600000e+002 -1.055600000e+002 +1.3600e+000 -3.6920e+000
% f evaluations | g evaluations | best noise-free fitness - Fopt (9.803000000000e+001) + sum g_i+ | measured fitness | best measured fitness or single-digit g-values | x1 | x2...
1 0 +1.926094067e+005 +1.927074367e+005 +1.927074367e+005 +5.0000e+000 +5.0000e+000
2 0 +6.840473447e+003 +6.938503447e+003 +6.938503447e+003 -5.0000e+000 +5.0000e+000
9 0 +8.523133161e+002 +9.503433161e+002 +9.503433161e+002 -3.9592e+000 +2.5200e+000
16 0 +7.056694689e+001 +1.685969469e+002 +1.685969469e+002 -3.4723e+000 +9.8334e-001
17 0 +1.107775571e+001 +1.091077557e+002 +1.091077557e+002 -3.5854e+000 -2.8742e+000
22 0 +4.178785306e+000 +1.022087853e+002 +1.022087853e+002 -2.0593e+000 -1.4854e+000
43 0 +2.411290324e+000 +1.004412903e+002 +1.004412903e+002 -1.7579e+000 -1.4592e+000
68 0 +1.666169373e+000 +9.969616937e+001 +9.969616937e+001 -1.8423e+000 -1.7281e+000
116 0 +9.467594480e-001 +9.897675945e+001 +9.897675945e+001 -1.4430e+000 -1.4013e+000
123 0 +5.979688945e-001 +9.862796889e+001 +9.862796889e+001 -1.3798e+000 -1.4671e+000
137 0 +1.768378676e-001 +9.820683787e+001 +9.820683787e+001 -1.2308e+000 -1.5842e+000
149 0 +7.887734609e-002 +9.810887735e+001 +9.810887735e+001 -1.1145e+000 -1.4202e+000
167 0 +1.585526434e-002 +9.804585526e+001 +9.804585526e+001 -1.0180e+000 -1.3687e+000
206 0 +1.411945740e-002 +9.804411946e+001 +9.804411946e+001 -1.0054e+000 -1.3500e+000
271 0 +1.293012379e-002 +9.804293012e+001 +9.804293012e+001 -1.0052e+000 -1.3532e+000
273 0 +1.235361142e-002 +9.804235361e+001 +9.804235361e+001 -1.0034e+000 -1.3516e+000
274 0 +9.707818942e-003 +9.803970782e+001 +9.803970782e+001 -1.0038e+000 -1.3658e+000
289 0 +7.336272321e-005 +9.803007336e+001 +9.803007336e+001 -9.4621e-001 -1.3216e+000
326 0 +5.670866797e-005 +9.803005671e+001 +9.803005671e+001 -9.4610e-001 -1.3218e+000
328 0 +2.981532813e-005 +9.803002982e+001 +9.803002982e+001 -9.4621e-001 -1.3229e+000
366 0 +1.423535551e-005 +9.803001424e+001 +9.803001424e+001 -9.4548e-001 -1.3228e+000
370 0 +1.271762066e-005 +9.803001272e+001 +9.803001272e+001 -9.4541e-001 -1.3228e+000
424 0 +3.994998210e-006 +9.803000399e+001 +9.803000399e+001 -9.4477e-001 -1.3222e+000
434 0 +9.808212695e-007 +9.803000098e+001 +9.803000098e+001 -9.4437e-001 -1.3219e+000
460 0 +8.942520964e-007 +9.803000089e+001 +9.803000089e+001 -9.4432e-001 -1.3219e+000
466 0 +5.332181416e-007 +9.803000053e+001 +9.803000053e+001 -9.4425e-001 -1.3218e+000
494 0 +4.825879500e-007 +9.803000048e+001 +9.803000048e+001 -9.4423e-001 -1.3218e+000
526 0 +3.927471965e-007 +9.803000039e+001 +9.803000039e+001 -9.4421e-001 -1.3218e+000
552 0 +3.317670405e-007 +9.803000033e+001 +9.803000033e+001 -9.4419e-001 -1.3218e+000
554 0 +3.285247061e-007 +9.803000033e+001 +9.803000033e+001 -9.4419e-001 -1.3218e+000
566 0 +2.999193782e-008 +9.803000003e+001 +9.803000003e+001 -9.4402e-001 -1.3216e+000
568 0 +2.355861284e-008 +9.803000002e+001 +9.803000002e+001 -9.4403e-001 -1.3216e+000
586 0 +1.917756265e-008 +9.803000002e+001 +9.803000002e+001 -9.4402e-001 -1.3216e+000
613 0 +1.904345481e-008 +9.803000002e+001 +9.803000002e+001 -9.4402e-001 -1.3216e+000
629 0 +5.558703720e-009 +9.803000001e+001 +9.803000001e+001 -9.4402e-001 -1.3216e+000
% f evaluations | g evaluations | best noise-free fitness - Fopt (1.000000000000e+003) + sum g_i+ | measured fitness | best measured fitness or single-digit g-values | x1 | x2...
1 0 +2.130802462e+005 +2.140802462e+005 +2.140802462e+005 -5.0000e+000 -5.0000e+000
4 0 +4.377252999e+004 +4.477252999e+004 +4.477252999e+004 +2.4153e+000 -2.2705e+000
5 0 +1.829878066e+004 +1.929878066e+004 +1.929878066e+004 -5.0000e+000 -2.2705e+000
6 0 +1.573020204e+003 +2.573020204e+003 +2.573020204e+003 -3.3268e+000 -1.6546e+000
34 0 +6.738102265e+000 +1.006738102e+003 +1.006738102e+003 -2.3868e-001 -9.7789e-001
46 0 +5.682981788e+000 +1.005682982e+003 +1.005682982e+003 -5.0148e-001 -5.4084e-001
70 0 +5.578233379e+000 +1.005578233e+003 +1.005578233e+003 -5.3004e-001 -5.3964e-001
72 0 +2.506180315e+000 +1.002506180e+003 +1.002506180e+003 -1.8387e+000 -7.1850e-001
91 0 +7.243204279e-001 +1.000724320e+003 +1.000724320e+003 -2.3263e+000 -1.0671e+000
120 0 +6.873468366e-001 +1.000687347e+003 +1.000687347e+003 -2.4299e+000 -1.0833e+000
143 0 +2.319069886e-002 +1.000023191e+003 +1.000023191e+003 -2.8165e+000 -1.3597e+000
235 0 +2.248363742e-002 +1.000022484e+003 +1.000022484e+003 -2.7999e+000 -1.3630e+000
245 0 +1.778668130e-002 +1.000017787e+003 +1.000017787e+003 -2.8201e+000 -1.3676e+000
258 0 +1.316956552e-002 +1.000013170e+003 +1.000013170e+003 -2.8476e+000 -1.3745e+000
329 0 +9.576680272e-003 +1.000009577e+003 +1.000009577e+003 -2.8220e+000 -1.3881e+000
357 0 +9.317370830e-003 +1.000009317e+003 +1.000009317e+003 -2.8232e+000 -1.3886e+000
362 0 +6.801149136e-003 +1.000006801e+003 +1.000006801e+003 -2.8405e+000 -1.4037e+000
363 0 +5.675519265e-003 +1.000005676e+003 +1.000005676e+003 -2.8426e+000 -1.4029e+000
379 0 +4.749573411e-003 +1.000004750e+003 +1.000004750e+003 -2.8502e+000 -1.4072e+000
387 0 +2.778923303e-003 +1.000002779e+003 +1.000002779e+003 -2.8615e+000 -1.4080e+000
403 0 +2.534858908e-003 +1.000002535e+003 +1.000002535e+003 -2.8626e+000 -1.4070e+000
419 0 +7.040883364e-004 +1.000000704e+003 +1.000000704e+003 -2.8791e+000 -1.4066e+000
421 0 +5.812656646e-004 +1.000000581e+003 +1.000000581e+003 -2.8823e+000 -1.4055e+000
427 0 +4.204381922e-004 +1.000000420e+003 +1.000000420e+003 -2.8874e+000 -1.4066e+000
456 0 +4.009007173e-004 +1.000000401e+003 +1.000000401e+003 -2.8864e+000 -1.4068e+000
457 0 +2.303394260e-004 +1.000000230e+003 +1.000000230e+003 -2.8880e+000 -1.4085e+000
462 0 +1.623572734e-004 +1.000000162e+003 +1.000000162e+003 -2.8893e+000 -1.4088e+000
492 0 +1.031866339e-004 +1.000000103e+003 +1.000000103e+003 -2.8904e+000 -1.4098e+000
500 0 +7.003205849e-005 +1.000000070e+003 +1.000000070e+003 -2.8913e+000 -1.4107e+000
510 0 +2.848476890e-005 +1.000000028e+003 +1.000000028e+003 -2.8935e+000 -1.4109e+000
512 0 +2.432722158e-005 +1.000000024e+003 +1.000000024e+003 -2.8936e+000 -1.4111e+000
548 0 +1.722050058e-005 +1.000000017e+003 +1.000000017e+003 -2.8942e+000 -1.4110e+000
557 0 +1.285388043e-005 +1.000000013e+003 +1.000000013e+003 -2.8947e+000 -1.4112e+000
560 0 +9.612821827e-006 +1.000000010e+003 +1.000000010e+003 -2.8949e+000 -1.4113e+000
562 0 +5.706672255e-006 +1.000000006e+003 +1.000000006e+003 -2.8951e+000 -1.4115e+000
586 0 +2.972115681e-006 +1.000000003e+003 +1.000000003e+003 -2.8955e+000 -1.4117e+000
591 0 +2.272263828e-006 +1.000000002e+003 +1.000000002e+003 -2.8955e+000 -1.4117e+000
623 0 +1.619557338e-006 +1.000000002e+003 +1.000000002e+003 -2.8957e+000 -1.4118e+000
663 0 +7.292092050e-007 +1.000000001e+003 +1.000000001e+003 -2.8958e+000 -1.4118e+000
716 0 +5.422904223e-007 +1.000000001e+003 +1.000000001e+003 -2.8958e+000 -1.4119e+000
726 0 +4.948385595e-007 +1.000000000e+003 +1.000000000e+003 -2.8957e+000 -1.4119e+000
755 0 +3.115521849e-007 +1.000000000e+003 +1.000000000e+003 -2.8958e+000 -1.4119e+000
756 0 +3.076972916e-007 +1.000000000e+003 +1.000000000e+003 -2.8958e+000 -1.4119e+000
760 0 +2.991948804e-007 +1.000000000e+003 +1.000000000e+003 -2.8958e+000 -1.4119e+000
763 0 +6.490893156e-008 +1.000000000e+003 +1.000000000e+003 -2.8959e+000 -1.4120e+000
766 0 +1.795399385e-008 +1.000000000e+003 +1.000000000e+003 -2.8960e+000 -1.4120e+000
778 0 +1.346904810e-008 +1.000000000e+003 +1.000000000e+003 -2.8960e+000 -1.4120e+000
782 0 +1.016326223e-008 +1.000000000e+003 +1.000000000e+003 -2.8960e+000 -1.4120e+000
785 0 +6.424102139e-009 +1.000000000e+003 +1.000000000e+003 -2.8960e+000 -1.4120e+000
% f evaluations | g evaluations | best noise-free fitness - Fopt (1.490000000000e+000) + sum g_i+ | measured fitness | best measured fitness or single-digit g-values | x1 | x2...
1 0 +1.127272904e+005 +1.127287804e+005 +1.127287804e+005 -5.0000e+000 -5.0000e+000
2 0 +8.709166368e+003 +8.710656368e+003 +8.710656368e+003 +5.0000e+000 -5.0000e+000
8 0 +9.040394688e+000 +1.053039469e+001 +1.053039469e+001 +3.7521e+000 -5.0000e+000
9 0 +7.143662784e+000 +8.633662784e+000 +8.633662784e+000 +3.7521e+000 -4.6773e+000
14 0 +8.002875017e-001 +2.290287502e+000 +2.290287502e+000 +3.7521e+000 -2.3798e+000
21 0 +8.011343870e-002 +1.570113439e+000 +1.570113439e+000 +3.9675e+000 -2.0695e+000
32 0 +2.597308951e-002 +1.515973090e+000 +1.515973090e+000 +3.9508e+000 -1.9514e+000
159 0 +2.442359729e-002 +1.514423597e+000 +1.514423597e+000 +3.9511e+000 -1.9466e+000
181 0 +1.997562917e-002 +1.509975629e+000 +1.509975629e+000 +3.9607e+000 -1.9344e+000
207 0 +9.745708665e-003 +1.499745709e+000 +1.499745709e+000 +3.9627e+000 -1.8990e+000
214 0 +7.774237981e-003 +1.497774238e+000 +1.497774238e+000 +3.9438e+000 -1.8706e+000
226 0 +2.275782178e-003 +1.492275782e+000 +1.492275782e+000 +3.9492e+000 -1.8470e+000
232 0 +1.313187210e-003 +1.491313187e+000 +1.491313187e+000 +3.9505e+000 -1.8411e+000
234 0 +2.746238978e-004 +1.490274624e+000 +1.490274624e+000 +3.9528e+000 -1.8301e+000
243 0 +1.838388511e-004 +1.490183839e+000 +1.490183839e+000 +3.9529e+000 -1.8279e+000
264 0 +7.176258498e-005 +1.490071763e+000 +1.490071763e+000 +3.9536e+000 -1.8253e+000
315 0 +5.082199003e-005 +1.490050822e+000 +1.490050822e+000 +3.9542e+000 -1.8253e+000
400 0 +2.959253756e-005 +1.490029593e+000 +1.490029593e+000 +3.9540e+000 -1.8242e+000
418 0 +2.901602083e-005 +1.490029016e+000 +1.490029016e+000 +3.9541e+000 -1.8241e+000
445 0 +2.859982391e-005 +1.490028600e+000 +1.490028600e+000 +3.9541e+000 -1.8240e+000
451 0 +1.998539400e-005 +1.490019985e+000 +1.490019985e+000 +3.9542e+000 -1.8239e+000
452 0 +1.400470062e-005 +1.490014005e+000 +1.490014005e+000 +3.9539e+000 -1.8224e+000
473 0 +1.099969954e-005 +1.490011000e+000 +1.490011000e+000 +3.9539e+000 -1.8224e+000
478 0 +7.876120690e-006 +1.490007876e+000 +1.490007876e+000 +3.9540e+000 -1.8223e+000
481 0 +7.549739595e-006 +1.490007550e+000 +1.490007550e+000 +3.9540e+000 -1.8221e+000
486 0 +3.298587568e-006 +1.490003299e+000 +1.490003299e+000 +3.9543e+000 -1.8224e+000
500 0 +5.208733365e-007 +1.490000521e+000 +1.490000521e+000 +3.9543e+000 -1.8218e+000
509 0 +1.631553250e-007 +1.490000163e+000 +1.490000163e+000 +3.9544e+000 -1.8217e+000
531 0 +1.322135714e-007 +1.490000132e+000 +1.490000132e+000 +3.9544e+000 -1.8218e+000
559 0 +9.958764680e-008 +1.490000100e+000 +1.490000100e+000 +3.9544e+000 -1.8217e+000
568 0 +8.986409283e-008 +1.490000090e+000 +1.490000090e+000 +3.9544e+000 -1.8217e+000
586 0 +4.289713695e-008 +1.490000043e+000 +1.490000043e+000 +3.9544e+000 -1.8217e+000
605 0 +4.133208664e-008 +1.490000041e+000 +1.490000041e+000 +3.9544e+000 -1.8217e+000
619 0 +4.605309467e-009 +1.490000005e+000 +1.490000005e+000 +3.9544e+000 -1.8216e+000
% f evaluations | g evaluations | best noise-free fitness - Fopt (5.963500000000e+002) + sum g_i+ | measured fitness | best measured fitness or single-digit g-values | x1 | x2...
1 0 +1.616050933e+002 +7.579550933e+002 +7.579550933e+002 +5.0000e+000 -5.0000e+000
2 0 +1.297289138e+002 +7.260789138e+002 +7.260789138e+002 -5.0000e+000 -5.0000e+000
7 0 +7.136838275e+001 +6.677183828e+002 +6.677183828e+002 +1.7992e+000 -2.5443e+000
18 0 +1.415048064e+001 +6.105004806e+002 +6.105004806e+002 -1.0109e+000 -1.4208e+000
39 0 +1.229027509e+001 +6.086402751e+002 +6.086402751e+002 -1.4742e+000 -1.2534e+000
45 0 +1.180091926e+001 +6.081509193e+002 +6.081509193e+002 -1.6797e+000 -1.2377e+000
82 0 +7.992513865e+000 +6.043425139e+002 +6.043425139e+002 -1.8869e+000 -1.0835e+000
114 0 +7.438574123e+000 +6.037885741e+002 +6.037885741e+002 -1.9089e+000 -1.0482e+000
120 0 +6.786582974e-001 +5.970286583e+002 +5.970286583e+002 -4.2221e+000 -3.0805e-001
134 0 +4.008939096e-001 +5.967508939e+002 +5.967508939e+002 -4.1526e+000 -2.5799e-001
137 0 +2.910602587e-001 +5.966410603e+002 +5.966410603e+002 -3.8548e+000 -2.9683e-001
155 0 +6.729247208e-002 +5.964172925e+002 +5.964172925e+002 -3.7789e+000 -2.1088e-001
198 0 +6.475415225e-002 +5.964147542e+002 +5.964147542e+002 -3.6555e+000 -2.2220e-001
230 0 +4.401187239e-002 +5.963940119e+002 +5.963940119e+002 -3.6641e+000 -2.1276e-001
243 0 +2.462783189e-002 +5.963746278e+002 +5.963746278e+002 -3.6260e+000 -1.9413e-001
247 0 +2.261389066e-002 +5.963726139e+002 +5.963726139e+002 -3.6069e+000 -1.8840e-001
254 0 +1.470674009e-002 +5.963647067e+002 +5.963647067e+002 -3.7027e+000 -1.8244e-001
257 0 +1.249999217e-002 +5.963625000e+002 +5.963625000e+002 -3.7148e+000 -1.7797e-001
258 0 +2.433956324e-003 +5.963524340e+002 +5.963524340e+002 -3.6718e+000 -1.6548e-001
291 0 +1.579533585e-003 +5.963515795e+002 +5.963515795e+002 -3.6705e+000 -1.6330e-001
293 0 +9.387153093e-004 +5.963509387e+002 +5.963509387e+002 -3.6690e+000 -1.6068e-001
355 0 +3.059779169e-005 +5.963500306e+002 +5.963500306e+002 -3.6784e+000 -1.5535e-001
428 0 +1.586457211e-005 +5.963500159e+002 +5.963500159e+002 -3.6785e+000 -1.5500e-001
491 0 +3.772780246e-006 +5.963500038e+002 +5.963500038e+002 -3.6770e+000 -1.5467e-001
494 0 +3.251008707e-006 +5.963500033e+002 +5.963500033e+002 -3.6771e+000 -1.5465e-001
505 0 +1.036679578e-007 +5.963500001e+002 +5.963500001e+002 -3.6777e+000 -1.5443e-001
606 0 +1.006249022e-007 +5.963500001e+002 +5.963500001e+002 -3.6777e+000 -1.5443e-001
643 0 +9.090115327e-008 +5.963500001e+002 +5.963500001e+002 -3.6777e+000 -1.5442e-001
647 0 +5.713991413e-008 +5.963500001e+002 +5.963500001e+002 -3.6777e+000 -1.5442e-001
649 0 +5.477363629e-008 +5.963500001e+002 +5.963500001e+002 -3.6777e+000 -1.5442e-001
652 0 +3.286572792e-008 +5.963500000e+002 +5.963500000e+002 -3.6777e+000 -1.5441e-001
669 0 +3.158845630e-008 +5.963500000e+002 +5.963500000e+002 -3.6777e+000 -1.5441e-001
677 0 +2.869865057e-008 +5.963500000e+002 +5.963500000e+002 -3.6776e+000 -1.5441e-001
681 0 +2.557317202e-008 +5.963500000e+002 +5.963500000e+002 -3.6776e+000 -1.5441e-001
704 0 +2.560227585e-009 +5.963500000e+002 +5.963500000e+002 -3.6776e+000 -1.5440e-001
% f evaluations | g evaluations | best noise-free fitness - Fopt (-1.189700000000e+002) + sum g_i+ | measured fitness | best measured fitness or single-digit g-values | x1 | x2...
1 0 +4.905841467e+002 +3.716141467e+002 +3.716141467e+002 +5.0000e+000 -5.0000e+000
2 0 +3.607536048e+002 +2.417836048e+002 +2.417836048e+002 -5.0000e+000 -5.0000e+000
4 0 +1.427400481e+002 +2.377004815e+001 +2.377004815e+001 +2.8148e+000 -3.6785e-001
13 0 +6.960969231e+001 -4.936030769e+001 -4.936030769e+001 +2.0626e+000 +1.2254e+000
14 0 +6.734604513e+001 -5.162395487e+001 -5.162395487e+001 +2.0893e+000 +1.3103e+000
15 0 +5.369382302e+001 -6.527617698e+001 -6.527617698e+001 +1.1963e+000 +1.4798e+000
16 0 +2.565426407e+001 -9.331573593e+001 -9.331573593e+001 -5.0000e+000 +1.4798e+000
21 0 +1.136714125e+001 -1.076028588e+002 -1.076028588e+002 -4.5385e+000 +2.7215e+000
30 0 +1.094311789e+001 -1.080268821e+002 -1.080268821e+002 -4.4150e+000 +2.7012e+000
42 0 +5.002345339e+000 -1.139676547e+002 -1.139676547e+002 -1.5308e+000 +3.0030e+000
61 0 +3.583335258e+000 -1.153866647e+002 -1.153866647e+002 -1.8543e+000 +3.0980e+000
64 0 +3.542131115e+000 -1.154278689e+002 -1.154278689e+002 -1.8587e+000 +3.1018e+000
82 0 +2.289283568e+000 -1.166807164e+002 -1.166807164e+002 -1.2706e+000 +3.3397e+000
83 0 +2.213956051e+000 -1.167560439e+002 -1.167560439e+002 -1.2751e+000 +3.3473e+000
88 0 +1.031306778e+000 -1.179386932e+002 -1.179386932e+002 -1.5287e+000 +3.4766e+000
89 0 +4.382293378e-001 -1.185317707e+002 -1.185317707e+002 -1.4669e+000 +3.6056e+000
162 0 +4.028133154e-001 -1.185671867e+002 -1.185671867e+002 -1.4637e+000 +3.6196e+000
172 0 +1.464177825e-001 -1.188235822e+002 -1.188235822e+002 -1.3061e+000 +3.7259e+000
173 0 +1.288576194e-001 -1.188411424e+002 -1.188411424e+002 -1.2772e+000 +3.7383e+000
193 0 +8.057830712e-002 -1.188894217e+002 -1.188894217e+002 -1.1844e+000 +3.7724e+000
208 0 +4.404000270e-002 -1.189259600e+002 -1.189259600e+002 -1.3034e+000 +3.7818e+000
213 0 +2.343773795e-002 -1.189465623e+002 -1.189465623e+002 -1.2500e+000 +3.8039e+000
235 0 +1.168222357e-002 -1.189583178e+002 -1.189583178e+002 -1.2277e+000 +3.8196e+000
261 0 +1.067922748e-002 -1.189593208e+002 -1.189593208e+002 -1.2221e+000 +3.8210e+000
270 0 +1.036858852e-002 -1.189596314e+002 -1.189596314e+002 -1.2171e+000 +3.8219e+000
282 0 +1.010990048e-002 -1.189598901e+002 -1.189598901e+002 -1.2409e+000 +3.8209e+000
285 0 +2.541688933e-003 -1.189674583e+002 -1.189674583e+002 -1.2069e+000 +3.8377e+000
295 0 +3.822060014e-004 -1.189696178e+002 -1.189696178e+002 -1.1978e+000 +3.8471e+000
361 0 +3.384531803e-004 -1.189696615e+002 -1.189696615e+002 -1.1969e+000 +3.8474e+000
376 0 +2.771947478e-004 -1.189697228e+002 -1.189697228e+002 -1.2049e+000 +3.8471e+000
377 0 +2.695384443e-004 -1.189697305e+002 -1.189697305e+002 -1.2005e+000 +3.8474e+000
390 0 +2.681667440e-004 -1.189697318e+002 -1.189697318e+002 -1.2008e+000 +3.8475e+000
392 0 +1.808402865e-004 -1.189698192e+002 -1.189698192e+002 -1.2000e+000 +3.8481e+000
396 0 +8.243420841e-005 -1.189699176e+002 -1.189699176e+002 -1.1990e+000 +3.8492e+000
397 0 +6.216881634e-005 -1.189699378e+002 -1.189699378e+002 -1.1994e+000 +3.8494e+000
405 0 +5.326046598e-005 -1.189699467e+002 -1.189699467e+002 -1.1992e+000 +3.8496e+000
407 0 +4.687768894e-005 -1.189699531e+002 -1.189699531e+002 -1.1991e+000 +3.8498e+000
413 0 +1.759545181e-005 -1.189699824e+002 -1.189699824e+002 -1.1984e+000 +3.8503e+000
419 0 +1.676048953e-005 -1.189699832e+002 -1.189699832e+002 -1.1986e+000 +3.8503e+000
430 0 +1.572983747e-005 -1.189699843e+002 -1.189699843e+002 -1.1983e+000 +3.8504e+000
431 0 +1.540553106e-005 -1.189699846e+002 -1.189699846e+002 -1.1983e+000 +3.8504e+000
437 0 +1.046835534e-005 -1.189699895e+002 -1.189699895e+002 -1.1979e+000 +3.8506e+000
439 0 +9.635828732e-006 -1.189699904e+002 -1.189699904e+002 -1.1978e+000 +3.8506e+000
440 0 +4.321939869e-006 -1.189699957e+002 -1.189699957e+002 -1.1979e+000 +3.8508e+000
460 0 +4.011765938e-006 -1.189699960e+002 -1.189699960e+002 -1.1980e+000 +3.8508e+000
479 0 +2.622002071e-006 -1.189699974e+002 -1.189699974e+002 -1.1978e+000 +3.8509e+000
489 0 +1.046809160e-006 -1.189699990e+002 -1.189699990e+002 -1.1980e+000 +3.8510e+000
509 0 +8.237177127e-007 -1.189699992e+002 -1.189699992e+002 -1.1980e+000 +3.8511e+000
556 0 +7.499463521e-007 -1.189699993e+002 -1.189699993e+002 -1.1976e+000 +3.8511e+000
584 0 +3.183836697e-007 -1.189699997e+002 -1.189699997e+002 -1.1976e+000 +3.8511e+000
596 0 +1.016073981e-007 -1.189699999e+002 -1.189699999e+002 -1.1976e+000 +3.8512e+000
597 0 +4.021994471e-008 -1.189700000e+002 -1.189700000e+002 -1.1976e+000 +3.8512e+000
598 0 +2.233514351e-008 -1.189700000e+002 -1.189700000e+002 -1.1976e+000 +3.8512e+000
640 0 +7.777103406e-009 -1.189700000e+002 -1.189700000e+002 -1.1976e+000 +3.8512e+000
