% f evaluations | g evaluations | best noise-free fitness - Fopt (1.026100000000e+002) + sum g_i+ | measured fitness | best measured fitness or single-digit g-values | x1 | x2...
1 0 +6.640036589e+001 +1.690103659e+002 +1.690103659e+002 -5.0000e+000 -5.0000e+000
2 0 +2.722851198e+001 +1.298385120e+002 +1.298385120e+002 +5.0000e+000 -5.0000e+000
6 0 +1.375037399e+001 +1.163603740e+002 +1.163603740e+002 +2.3588e+000 -3.7465e+000
10 0 +6.364595285e+000 +1.089745953e+002 +1.089745953e+002 +5.0000e+000 -3.6707e+000
56 0 +4.724941742e+000 +1.073349417e+002 +1.073349417e+002 +2.6203e+000 -4.7366e+000
94 0 +4.664693275e+000 +1.072746933e+002 +1.072746933e+002 +4.2971e+000 -4.1441e+000
107 0 +4.230047347e+000 +1.068400473e+002 +1.068400473e+002 +4.4612e+000 -2.5287e+000
149 0 +3.255537607e+000 +1.058655376e+002 +1.058655376e+002 +4.2097e+000 -3.4553e+000
309 0 +3.206350744e+000 +1.058163507e+002 +1.058163507e+002 +3.0461e+000 -3.1505e+000
532 0 +2.647238644e+000 +1.052572386e+002 +1.052572386e+002 +2.8954e+000 -3.4579e+000
593 0 +2.515869371e+000 +1.051258694e+002 +1.051258694e+002 +2.7312e+000 -3.4323e+000
643 0 +2.206699698e+000 +1.048166997e+002 +1.048166997e+002 +2.7308e+000 -3.4304e+000
1724 0 +2.137975139e+000 +1.047479751e+002 +1.047479751e+002 +3.1736e+000 -3.1997e+000
1743 0 +2.105787993e+000 +1.047157880e+002 +1.047157880e+002 +3.1702e+000 -3.2011e+000
2094 0 +2.081480935e+000 +1.046914809e+002 +1.046914809e+002 +3.1661e+000 -3.2034e+000
5769 0 +2.038392440e+000 +1.046483924e+002 +1.046483924e+002 +2.8717e+000 -3.1295e+000
34710 0 +1.956664343e+000 +1.045666643e+002 +1.045666643e+002 -1.5986e+000 +1.6917e+000
34738 0 +1.369769974e+000 +1.039797700e+002 +1.039797700e+002 -1.2085e+000 +1.5542e+000
34838 0 +6.089773053e-001 +1.032189773e+002 +1.032189773e+002 -1.1111e+000 +1.5510e+000
35114 0 +5.013213566e-001 +1.031113214e+002 +1.031113214e+002 -1.1099e+000 +1.5509e+000
35288 0 +4.844122287e-001 +1.030944122e+002 +1.030944122e+002 -1.0350e+000 +1.1938e+000
35408 0 +4.595039786e-001 +1.030695040e+002 +1.030695040e+002 -1.0317e+000 +1.1955e+000
35495 0 +2.170815299e-001 +1.028270815e+002 +1.028270815e+002 -1.0281e+000 +1.1957e+000
35865 0 +2.123911931e-001 +1.028223912e+002 +1.028223912e+002 -1.0282e+000 +1.1955e+000
42601 0 +1.996868880e-001 +1.028096869e+002 +1.028096869e+002 -1.1056e+000 +1.2106e+000
42680 0 +1.460178269e-001 +1.027560178e+002 +1.027560178e+002 -1.1051e+000 +1.2112e+000
42697 0 +1.032440740e-001 +1.027132441e+002 +1.027132441e+002 -1.1054e+000 +1.2118e+000
43068 0 +1.018156710e-001 +1.027118157e+002 +1.027118157e+002 -1.1037e+000 +1.2124e+000
43155 0 +9.747402543e-002 +1.027074740e+002 +1.027074740e+002 -1.1034e+000 +1.2127e+000
43158 0 +9.436836127e-002 +1.027043684e+002 +1.027043684e+002 -1.1035e+000 +1.2129e+000
43181 0 +4.343382215e-002 +1.026534338e+002 +1.026534338e+002 -1.1798e+000 +1.2296e+000
43361 0 +3.899241220e-002 +1.026489924e+002 +1.026489924e+002 -1.1770e+000 +1.2308e+000
43434 0 +3.440828092e-002 +1.026444083e+002 +1.026444083e+002 -1.1777e+000 +1.2306e+000
43453 0 +3.139958499e-002 +1.026413996e+002 +1.026413996e+002 -1.1779e+000 +1.2306e+000
43473 0 +3.000414426e-002 +1.026400041e+002 +1.026400041e+002 -1.1780e+000 +1.2306e+000
43500 0 +2.733971246e-002 +1.026373397e+002 +1.026373397e+002 -1.1742e+000 +1.2326e+000
43532 0 +2.559678143e-002 +1.026355968e+002 +1.026355968e+002 -1.1755e+000 +1.2319e+000
43710 0 +1.699053734e-002 +1.026269905e+002 +1.026269905e+002 -1.2517e+000 +1.2496e+000
43721 0 +1.467547072e-002 +1.026246755e+002 +1.026246755e+002 -1.2515e+000 +1.2497e+000
43747 0 +1.422548262e-002 +1.026242255e+002 +1.026242255e+002 -1.2515e+000 +1.2497e+000
43761 0 +1.270406339e-003 +1.026112704e+002 +1.026112704e+002 -1.2496e+000 +1.2503e+000
43774 0 +1.167889706e-003 +1.026111679e+002 +1.026111679e+002 -1.2505e+000 +1.2499e+000
43785 0 +9.417336636e-005 +1.026100942e+002 +1.026100942e+002 -1.2498e+000 +1.2501e+000
43940 0 +2.706917661e-005 +1.026100271e+002 +1.026100271e+002 -1.2501e+000 +1.2500e+000
44021 0 +1.093870600e-005 +1.026100109e+002 +1.026100109e+002 -1.2500e+000 +1.2500e+000
44286 0 +5.360100388e-006 +1.026100054e+002 +1.026100054e+002 -1.2500e+000 +1.2500e+000
44289 0 +1.124813892e-006 +1.026100011e+002 +1.026100011e+002 -1.2500e+000 +1.2500e+000
44351 0 +3.153657531e-007 +1.026100003e+002 +1.026100003e+002 -1.2500e+000 +1.2500e+000
44460 0 +1.477010017e-007 +1.026100001e+002 +1.026100001e+002 -1.2500e+000 +1.2500e+000
44554 0 +1.159786365e-007 +1.026100001e+002 +1.026100001e+002 -1.2500e+000 +1.2500e+000
44585 0 +8.362263770e-009 +1.026100000e+002 +1.026100000e+002 -1.2500e+000 +1.2500e+000
% f evaluations | g evaluations | best noise-free fitness - Fopt (9.330000000000e+001) + sum g_i+ | measured fitness | best measured fitness or single-digit g-values | x1 | x2...
1 0 +1.074508202e+002 +2.007508202e+002 +2.007508202e+002 +5.0000e+000 -5.0000e+000
2 0 +6.458560920e+001 +1.578856092e+002 +1.578856092e+002 -5.0000e+000 -5.0000e+000
4 0 +3.113369087e+001 +1.244336909e+002 +1.244336909e+002 -5.0000e+000 +5.0000e+000
7 0 +2.251590379e+001 +1.158159038e+002 +1.158159038e+002 -2.4864e+000 +2.8031e+000
8 0 +1.561078441e+001 +1.089107844e+002 +1.089107844e+002 -2.9267e+000 +1.4363e+000
11 0 +1.498847461e+001 +1.082884746e+002 +1.082884746e+002 -2.2459e+000 +3.0238e+000
13 0 +1.201617202e+001 +1.053161720e+002 +1.053161720e+002 -2.1725e+000 +3.7881e+000
16 0 +8.249126135e+000 +1.015491261e+002 +1.015491261e+002 -2.6802e+000 +2.0159e+000
19 0 +4.289249964e+000 +9.758924996e+001 +9.758924996e+001 -3.7191e+000 +1.6526e+000
288 0 +2.310827456e+000 +9.561082746e+001 +9.561082746e+001 -2.5072e+000 +3.1575e+000
1694 0 +2.154735389e+000 +9.545473539e+001 +9.545473539e+001 -2.5092e+000 +3.1583e+000
6269 0 +2.132719211e+000 +9.543271921e+001 +9.543271921e+001 -2.7275e+000 +3.1578e+000
6295 0 +2.057501505e+000 +9.535750150e+001 +9.535750150e+001 -2.7236e+000 +3.1474e+000
20176 0 +2.036997645e+000 +9.533699765e+001 +9.533699765e+001 -2.9414e+000 +3.1457e+000
% f evaluations | g evaluations | best noise-free fitness - Fopt (1.364000000000e+001) + sum g_i+ | measured fitness | best measured fitness or single-digit g-values | x1 | x2...
1 0 +2.495336956e+001 +3.859336956e+001 +3.859336956e+001 -5.0000e+000 -5.0000e+000
5 0 +1.909661595e+001 +3.273661595e+001 +3.273661595e+001 -5.0000e+000 -2.6087e+000
8 0 +1.635713277e+001 +2.999713277e+001 +2.999713277e+001 -5.0000e+000 -1.6184e+000
15 0 +1.529565167e+001 +2.893565167e+001 +2.893565167e+001 -5.0000e+000 -3.0404e+000
20 0 +1.387912371e+001 +2.751912371e+001 +2.751912371e+001 -5.0000e+000 -4.4692e+000
56 0 +9.229378108e+000 +2.286937811e+001 +2.286937811e+001 -4.4255e+000 -3.2061e+000
78 0 +7.810752041e+000 +2.145075204e+001 +2.145075204e+001 -3.9701e+000 -4.2378e+000
124 0 +4.439223044e+000 +1.807922304e+001 +1.807922304e+001 -4.7689e+000 -2.1717e+000
273 0 +4.164306329e+000 +1.780430633e+001 +1.780430633e+001 -4.3060e+000 -2.4088e+000
372 0 +3.890731168e+000 +1.753073117e+001 +1.753073117e+001 -4.2889e+000 -2.3662e+000
393 0 +3.512011492e+000 +1.715201149e+001 +1.715201149e+001 -3.9701e+000 -2.1799e+000
411 0 +3.352501066e+000 +1.699250107e+001 +1.699250107e+001 -4.2938e+000 -2.3752e+000
864 0 +2.713073618e+000 +1.635307362e+001 +1.635307362e+001 -3.6616e+000 -2.1760e+000
1678 0 +2.608037063e+000 +1.624803706e+001 +1.624803706e+001 -3.3961e+000 -2.4385e+000
1777 0 +2.276925819e+000 +1.591692582e+001 +1.591692582e+001 -3.4017e+000 -2.4585e+000
5149 0 +2.192743095e+000 +1.583274309e+001 +1.583274309e+001 -3.0013e+000 -3.1738e+000
5727 0 +2.141133946e+000 +1.578113395e+001 +1.578113395e+001 -3.0010e+000 -3.1721e+000
5839 0 +2.050136992e+000 +1.569013699e+001 +1.569013699e+001 -2.9992e+000 -3.1644e+000
6156 0 +2.038601086e+000 +1.567860109e+001 +1.567860109e+001 -2.9985e+000 -3.1627e+000
% f evaluations | g evaluations | best noise-free fitness - Fopt (1.948000000000e+002) + sum g_i+ | measured fitness | best measured fitness or single-digit g-values | x1 | x2...
1 0 +1.870261173e+001 +2.135026117e+002 +2.135026117e+002 +5.0000e+000 -5.0000e+000
7 0 +1.798182370e+001 +2.127818237e+002 +2.127818237e+002 +5.0000e+000 -1.7759e+000
8 0 +1.127301350e+001 +2.060730135e+002 +2.060730135e+002 +4.9846e+000 -5.0000e+000
15 0 +1.085078958e+001 +2.056507896e+002 +2.056507896e+002 +4.4311e+000 -2.7854e+000
17 0 +9.785032491e+000 +2.045850325e+002 +2.045850325e+002 +4.5305e+000 -2.5627e+000
34 0 +7.827137948e+000 +2.026271379e+002 +2.026271379e+002 +4.2569e+000 -3.0302e+000
55 0 +5.706677115e+000 +2.005066771e+002 +2.005066771e+002 +4.3172e+000 -1.5365e+000
92 0 +5.594644646e+000 +2.003946446e+002 +2.003946446e+002 +4.3069e+000 -2.5031e+000
213 0 +4.191726777e+000 +1.989917268e+002 +1.989917268e+002 +4.2584e+000 -1.7852e+000
743 0 +4.157876887e+000 +1.989578769e+002 +1.989578769e+002 +4.2594e+000 -1.7856e+000
909 0 +4.016490224e+000 +1.988164902e+002 +1.988164902e+002 +3.9654e+000 -1.7558e+000
912 0 +3.562363044e+000 +1.983623630e+002 +1.983623630e+002 +3.9674e+000 -1.7568e+000
935 0 +3.504779799e+000 +1.983047798e+002 +1.983047798e+002 +3.9683e+000 -1.7572e+000
2720 0 +3.207733189e+000 +1.980077332e+002 +1.980077332e+002 +1.5831e+000 -2.5738e+000
2818 0 +2.736740577e+000 +1.975367406e+002 +1.975367406e+002 +2.1467e+000 -2.8656e+000
3376 0 +2.321658792e+000 +1.971216588e+002 +1.971216588e+002 +2.4131e+000 -2.6241e+000
4040 0 +2.244803484e+000 +1.970448035e+002 +1.970448035e+002 +2.4071e+000 -2.6271e+000
4330 0 +2.234811358e+000 +1.970348114e+002 +1.970348114e+002 +2.4040e+000 -2.6287e+000
4476 0 +2.101594102e+000 +1.969015941e+002 +1.969015941e+002 +2.7102e+000 -2.6487e+000
5139 0 +2.088720063e+000 +1.968887201e+002 +1.968887201e+002 +2.7079e+000 -2.6503e+000
8422 0 +2.029859239e+000 +1.968298592e+002 +1.968298592e+002 +2.8865e+000 -2.9035e+000
57043 0 +5.594098530e-002 +1.948559410e+002 +1.948559410e+002 -1.1501e+000 +1.2423e+000
57928 0 +4.687765424e-002 +1.948468777e+002 +1.948468777e+002 -1.1496e+000 +1.2422e+000
58008 0 +4.419844944e-002 +1.948441984e+002 +1.948441984e+002 -1.1480e+000 +1.2428e+000
58346 0 +4.314765088e-002 +1.948431477e+002 +1.948431477e+002 -1.1480e+000 +1.2429e+000
58397 0 +4.239452740e-002 +1.948423945e+002 +1.948423945e+002 -1.1474e+000 +1.2432e+000
84207 0 +1.079805303e-002 +1.948107981e+002 +1.948107981e+002 -1.2530e+000 +1.2485e+000
84241 0 +7.082228356e-003 +1.948070822e+002 +1.948070822e+002 -1.2517e+000 +1.2490e+000
84244 0 +1.028212549e-003 +1.948010282e+002 +1.948010282e+002 -1.2500e+000 +1.2499e+000
84512 0 +1.016646453e-003 +1.948010166e+002 +1.948010166e+002 -1.2509e+000 +1.2495e+000
84578 0 +5.222319193e-004 +1.948005222e+002 +1.948005222e+002 -1.2507e+000 +1.2497e+000
84594 0 +2.828878833e-004 +1.948002829e+002 +1.948002829e+002 -1.2501e+000 +1.2499e+000
84637 0 +1.710159911e-004 +1.948001710e+002 +1.948001710e+002 -1.2499e+000 +1.2501e+000
84676 0 +5.085187098e-005 +1.948000509e+002 +1.948000509e+002 -1.2499e+000 +1.2501e+000
84820 0 +1.673792420e-005 +1.948000167e+002 +1.948000167e+002 -1.2500e+000 +1.2500e+000
84845 0 +1.488267748e-005 +1.948000149e+002 +1.948000149e+002 -1.2501e+000 +1.2500e+000
84854 0 +1.353848185e-005 +1.948000135e+002 +1.948000135e+002 -1.2501e+000 +1.2499e+000
84855 0 +4.876031028e-006 +1.948000049e+002 +1.948000049e+002 -1.2500e+000 +1.2500e+000
84925 0 +1.077960405e-007 +1.948000001e+002 +1.948000001e+002 -1.2500e+000 +1.2500e+000
85079 0 +3.187653874e-008 +1.948000000e+002 +1.948000000e+002 -1.2500e+000 +1.2500e+000
85163 0 +2.830955736e-008 +1.948000000e+002 +1.948000000e+002 -1.2500e+000 +1.2500e+000
85189 0 +1.414653639e-008 +1.948000000e+002 +1.948000000e+002 -1.2500e+000 +1.2500e+000
85301 0 +1.283970619e-008 +1.948000000e+002 +1.948000000e+002 -1.2500e+000 +1.2500e+000
85325 0 +5.563805416e-009 +1.948000000e+002 +1.948000000e+002 -1.2500e+000 +1.2500e+000
% f evaluations | g evaluations | best noise-free fitness - Fopt (-1.335900000000e+002) + sum g_i+ | measured fitness | best measured fitness or single-digit g-values | x1 | x2...
1 0 +6.371862839e+001 -6.987137161e+001 -6.987137161e+001 +5.0000e+000 +5.0000e+000
2 0 +3.801832758e+001 -9.557167242e+001 -9.557167242e+001 -5.0000e+000 +5.0000e+000
6 0 +1.926846596e+001 -1.143215340e+002 -1.143215340e+002 -2.6702e+000 +3.3364e+000
12 0 +1.823702284e+001 -1.153529772e+002 -1.153529772e+002 -4.9260e+000 +4.9472e+000
13 0 +1.608471014e+001 -1.175052899e+002 -1.175052899e+002 -2.6161e+000 +5.0000e+000
17 0 +5.075195291e+000 -1.285148047e+002 -1.285148047e+002 -2.9752e+000 +5.0000e+000
133 0 +3.410308928e+000 -1.301796911e+002 -1.301796911e+002 -2.2127e+000 +3.2705e+000
370 0 +3.014637659e+000 -1.305753623e+002 -1.305753623e+002 -3.0088e+000 +3.2353e+000
638 0 +2.760184876e+000 -1.308298151e+002 -1.308298151e+002 -2.4102e+000 +3.5182e+000
772 0 +2.749966481e+000 -1.308400335e+002 -1.308400335e+002 -2.0736e+000 +2.9680e+000
884 0 +2.447520496e+000 -1.311424795e+002 -1.311424795e+002 -3.0578e+000 +3.4054e+000
1625 0 +2.242727070e+000 -1.313472729e+002 -1.313472729e+002 -3.0195e+000 +2.7214e+000
1640 0 +2.147522189e+000 -1.314424778e+002 -1.314424778e+002 -3.0159e+000 +2.7214e+000
1678 0 +2.136259901e+000 -1.314537401e+002 -1.314537401e+002 -3.0158e+000 +2.7215e+000
1704 0 +2.072267008e+000 -1.315177330e+002 -1.315177330e+002 -3.0164e+000 +2.7219e+000
2119 0 +2.040973081e+000 -1.315490269e+002 -1.315490269e+002 -3.0147e+000 +2.7238e+000
% f evaluations | g evaluations | best noise-free fitness - Fopt (-3.085000000000e+001) + sum g_i+ | measured fitness | best measured fitness or single-digit g-values | x1 | x2...
1 0 +1.106247502e+001 -1.978752498e+001 -1.978752498e+001 +5.0000e+000 -5.0000e+000
17 0 +6.249712345e+000 -2.460028766e+001 -2.460028766e+001 +1.1336e+000 -4.7134e+000
52 0 +5.263501451e+000 -2.558649855e+001 -2.558649855e+001 +3.4882e+000 -3.8182e+000
122 0 +5.029252842e+000 -2.582074716e+001 -2.582074716e+001 +3.4894e+000 -3.8207e+000
149 0 +3.850713299e+000 -2.699928670e+001 -2.699928670e+001 +2.4140e+000 -2.9774e+000
204 0 +2.551890788e+000 -2.829810921e+001 -2.829810921e+001 +2.8450e+000 -3.7836e+000
570 0 +2.498410982e+000 -2.835158902e+001 -2.835158902e+001 +2.8428e+000 -3.7811e+000
937 0 +2.411876279e+000 -2.843812372e+001 -2.843812372e+001 +3.0560e+000 -3.3506e+000
979 0 +2.339982912e+000 -2.851001709e+001 -2.851001709e+001 +3.0564e+000 -3.3529e+000
1115 0 +2.290346686e+000 -2.855965331e+001 -2.855965331e+001 +3.0577e+000 -3.3557e+000
1319 0 +2.194272632e+000 -2.865572737e+001 -2.865572737e+001 +3.1916e+000 -3.0126e+000
1330 0 +2.179566967e+000 -2.867043303e+001 -2.867043303e+001 +3.1953e+000 -3.0180e+000
1436 0 +2.096545415e+000 -2.875345459e+001 -2.875345459e+001 +3.1932e+000 -3.0139e+000
1489 0 +2.059460717e+000 -2.879053928e+001 -2.879053928e+001 +3.1915e+000 -3.0105e+000
19951 0 +2.035763297e+000 -2.881423670e+001 -2.881423670e+001 +2.9498e+000 -2.9073e+000
33525 0 +1.722828071e+000 -2.912717193e+001 -2.912717193e+001 -1.5703e+000 +1.2709e+000
33565 0 +6.329474785e-001 -3.021705252e+001 -3.021705252e+001 -1.5780e+000 +1.2769e+000
33905 0 +6.150185765e-001 -3.023498142e+001 -3.023498142e+001 -1.5782e+000 +1.2775e+000
34015 0 +5.950362740e-001 -3.025496373e+001 -3.025496373e+001 -1.5787e+000 +1.2783e+000
34204 0 +5.531798965e-001 -3.029682010e+001 -3.029682010e+001 -1.4025e+000 +1.4158e+000
34230 0 +2.254938267e-001 -3.062450617e+001 -3.062450617e+001 -1.4010e+000 +1.4164e+000
34429 0 +2.025979464e-001 -3.064740205e+001 -3.064740205e+001 -1.4002e+000 +1.4160e+000
40687 0 +4.371143216e-004 -3.084956289e+001 -3.084956289e+001 -1.2504e+000 +1.2506e+000
40707 0 +1.168624768e-004 -3.084988314e+001 -3.084988314e+001 -1.2499e+000 +1.2499e+000
40958 0 +4.602183694e-005 -3.084995398e+001 -3.084995398e+001 -1.2499e+000 +1.2499e+000
41128 0 +9.466869319e-006 -3.084999053e+001 -3.084999053e+001 -1.2500e+000 +1.2499e+000
41231 0 +4.210159847e-006 -3.084999579e+001 -3.084999579e+001 -1.2500e+000 +1.2499e+000
41410 0 +3.341420335e-006 -3.084999666e+001 -3.084999666e+001 -1.2500e+000 +1.2500e+000
41444 0 +9.076924599e-007 -3.084999909e+001 -3.084999909e+001 -1.2500e+000 +1.2500e+000
41520 0 +3.323935189e-007 -3.084999967e+001 -3.084999967e+001 -1.2500e+000 +1.2500e+000
41543 0 +1.772673315e-007 -3.084999982e+001 -3.084999982e+001 -1.2500e+000 +1.2500e+000
41577 0 +1.386843742e-007 -3.084999986e+001 -3.084999986e+001 -1.2500e+000 +1.2500e+000
41598 0 +1.353268608e-007 -3.084999986e+001 -3.084999986e+001 -1.2500e+000 +1.2500e+000
41599 0 +3.251763658e-008 -3.084999997e+001 -3.084999997e+001 -1.2500e+000 +1.2500e+000
41657 0 +2.432044255e-008 -3.084999998e+001 -3.084999998e+001 -1.2500e+000 +1.2500e+000
41689 0 +2.357476347e-008 -3.084999998e+001 -3.084999998e+001 -1.2500e+000 +1.2500e+000
41750 0 +1.540501060e-008 -3.084999998e+001 -3.084999998e+001 -1.2500e+000 +1.2500e+000
41762 0 +2.923549403e-009 -3.085000000e+001 -3.085000000e+001 -1.2500e+000 +1.2500e+000
% f evaluations | g evaluations | best noise-free fitness - Fopt (-9.200000000000e+000) + sum g_i+ | measured fitness | best measured fitness or single-digit g-values | x1 | x2...
1 0 +8.489070321e+001 +7.569070321e+001 +7.569070321e+001 +5.0000e+000 -5.0000e+000
2 0 +5.916983486e+001 +4.996983486e+001 +4.996983486e+001 -5.0000e+000 -5.0000e+000
4 0 +3.848656790e+001 +2.928656790e+001 +2.928656790e+001 -5.0000e+000 +5.0000e+000
6 0 +1.364502438e+001 +4.445024382e+000 +4.445024382e+000 -5.0000e+000 +1.0365e-016
10 0 +1.196489810e+001 +2.764898098e+000 +2.764898098e+000 -5.0000e+000 +8.4515e-001
11 0 +9.727864698e+000 +5.278646980e-001 +5.278646980e-001 -5.0000e+000 +3.9585e-001
21 0 +5.693322502e+000 -3.506677498e+000 -3.506677498e+000 -4.3826e+000 +2.6332e+000
23 0 +4.987988249e+000 -4.212011751e+000 -4.212011751e+000 -1.5995e+000 +3.6618e+000
24 0 +3.088321482e+000 -6.111678518e+000 -6.111678518e+000 -2.9264e+000 +3.7054e+000
108 0 +2.876007235e+000 -6.323992765e+000 -6.323992765e+000 -2.9294e+000 +3.7076e+000
198 0 +2.252861196e+000 -6.947138804e+000 -6.947138804e+000 -2.5364e+000 +3.2612e+000
298 0 +2.210485441e+000 -6.989514559e+000 -6.989514559e+000 -2.5265e+000 +3.2548e+000
844 0 +2.133366589e+000 -7.066633411e+000 -7.066633411e+000 -2.5319e+000 +3.1439e+000
5136 0 +2.006194069e+000 -7.193805931e+000 -7.193805931e+000 -2.9981e+000 +2.9451e+000
% f evaluations | g evaluations | best noise-free fitness - Fopt (-2.037600000000e+002) + sum g_i+ | measured fitness | best measured fitness or single-digit g-values | x1 | x2...
1 0 +7.577416958e+001 -1.279858304e+002 -1.279858304e+002 +5.0000e+000 -5.0000e+000
3 0 +1.912644423e+001 -1.846335558e+002 -1.846335558e+002 +5.0000e+000 +5.0000e+000
12 0 +6.678683282e+000 -1.970813167e+002 -1.970813167e+002 +3.1770e+000 +4.5486e+000
88 0 +6.120536601e+000 -1.976394634e+002 -1.976394634e+002 +2.1099e+000 +4.9541e+000
128 0 +5.684741762e+000 -1.980752582e+002 -1.980752582e+002 +2.1165e+000 +4.9607e+000
179 0 +3.893235414e+000 -1.998667646e+002 -1.998667646e+002 +1.3308e+000 +3.1361e+000
479 0 +3.814106650e+000 -1.999458933e+002 -1.999458933e+002 +1.3308e+000 +3.1392e+000
585 0 +3.746632752e+000 -2.000133672e+002 -2.000133672e+002 +2.1461e+000 +3.3152e+000
639 0 +3.461768068e+000 -2.002982319e+002 -2.002982319e+002 +1.7882e+000 +3.6586e+000
779 0 +3.147446972e+000 -2.006125530e+002 -2.006125530e+002 +1.6725e+000 +3.4691e+000
1085 0 +2.617181732e+000 -2.011428183e+002 -2.011428183e+002 +2.0407e+000 +3.3712e+000
1185 0 +2.273393254e+000 -2.014866067e+002 -2.014866067e+002 +2.4104e+000 +3.2729e+000
2461 0 +2.238486448e+000 -2.015215136e+002 -2.015215136e+002 +2.4077e+000 +3.2708e+000
10745 0 +2.068181956e+000 -2.016918180e+002 -2.016918180e+002 +2.9119e+000 +2.9248e+000
11335 0 +2.006818621e+000 -2.017531814e+002 -2.017531814e+002 +2.9163e+000 +2.9294e+000
% f evaluations | g evaluations | best noise-free fitness - Fopt (3.399000000000e+001) + sum g_i+ | measured fitness | best measured fitness or single-digit g-values | x1 | x2...
1 0 +7.775795408e+001 +1.117479541e+002 +1.117479541e+002 +5.0000e+000 +5.0000e+000
2 0 +1.615277288e+001 +5.014277288e+001 +5.014277288e+001 -5.0000e+000 +5.0000e+000
8 0 +1.047811001e+001 +4.446811001e+001 +4.446811001e+001 -3.4117e+000 +3.1959e+000
28 0 +1.024964090e+001 +4.423964090e+001 +4.423964090e+001 -2.9346e+000 +3.7732e+000
32 0 +7.090135517e+000 +4.108013552e+001 +4.108013552e+001 -2.9991e+000 +3.2761e+000
34 0 +6.908067702e+000 +4.089806770e+001 +4.089806770e+001 -2.1705e+000 +2.9663e+000
38 0 +2.134334570e+000 +3.612433457e+001 +3.612433457e+001 -2.5692e+000 +2.9663e+000
457 0 +2.029209553e+000 +3.601920955e+001 +3.601920955e+001 -3.0971e+000 +2.7905e+000
134946 0 +1.183146882e+000 +3.517314688e+001 +3.517314688e+001 +1.0712e+000 -1.4673e+000
135346 0 +7.486009782e-001 +3.473860098e+001 +3.473860098e+001 +1.0732e+000 -1.4555e+000
135494 0 +5.086587381e-001 +3.449865874e+001 +3.449865874e+001 +1.0755e+000 -1.4637e+000
135731 0 +3.439035184e-001 +3.433390352e+001 +3.433390352e+001 +1.0753e+000 -1.4583e+000
135784 0 +2.049912677e-001 +3.419499127e+001 +3.419499127e+001 +1.1919e+000 -1.3080e+000
135797 0 +9.298257797e-002 +3.408298258e+001 +3.408298258e+001 +1.1921e+000 -1.3109e+000
135847 0 +6.196840750e-002 +3.405196841e+001 +3.405196841e+001 +1.1920e+000 -1.3207e+000
135886 0 +4.408752326e-002 +3.403408752e+001 +3.403408752e+001 +1.1918e+000 -1.3203e+000
135932 0 +4.340707476e-002 +3.403340707e+001 +3.403340707e+001 +1.1917e+000 -1.3203e+000
136228 0 +3.345539269e-002 +3.402345539e+001 +3.402345539e+001 +1.1922e+000 -1.3151e+000
136232 0 +3.289184614e-002 +3.402289185e+001 +3.402289185e+001 +1.1923e+000 -1.3154e+000
136352 0 +3.196643577e-002 +3.402196644e+001 +3.402196644e+001 +1.1921e+000 -1.3172e+000
136416 0 +3.140510736e-002 +3.402140511e+001 +3.402140511e+001 +1.1922e+000 -1.3163e+000
159598 0 +2.240021163e-002 +3.401240021e+001 +3.401240021e+001 +1.2501e+000 -1.2462e+000
159797 0 +1.892687211e-002 +3.400892687e+001 +3.400892687e+001 +1.2493e+000 -1.2530e+000
159955 0 +2.316173860e-003 +3.399231617e+001 +3.399231617e+001 +1.2499e+000 -1.2516e+000
159961 0 +1.775818627e-003 +3.399177582e+001 +3.399177582e+001 +1.2502e+000 -1.2487e+000
160005 0 +6.891664500e-004 +3.399068917e+001 +3.399068917e+001 +1.2501e+000 -1.2491e+000
160088 0 +5.813586997e-004 +3.399058136e+001 +3.399058136e+001 +1.2500e+000 -1.2506e+000
160117 0 +4.444748367e-004 +3.399044447e+001 +3.399044447e+001 +1.2500e+000 -1.2506e+000
160167 0 +3.607991322e-005 +3.399003608e+001 +3.399003608e+001 +1.2500e+000 -1.2500e+000
160234 0 +1.245376733e-005 +3.399001245e+001 +3.399001245e+001 +1.2500e+000 -1.2499e+000
160295 0 +7.755230598e-006 +3.399000776e+001 +3.399000776e+001 +1.2500e+000 -1.2500e+000
160314 0 +2.883014197e-006 +3.399000288e+001 +3.399000288e+001 +1.2500e+000 -1.2500e+000
160395 0 +7.927242436e-007 +3.399000079e+001 +3.399000079e+001 +1.2500e+000 -1.2500e+000
160509 0 +5.080468881e-007 +3.399000051e+001 +3.399000051e+001 +1.2500e+000 -1.2500e+000
160524 0 +3.224770353e-007 +3.399000032e+001 +3.399000032e+001 +1.2500e+000 -1.2500e+000
160548 0 +3.148650833e-007 +3.399000031e+001 +3.399000031e+001 +1.2500e+000 -1.2500e+000
160560 0 +2.838300617e-008 +3.399000003e+001 +3.399000003e+001 +1.2500e+000 -1.2500e+000
160665 0 +2.606595473e-008 +3.399000003e+001 +3.399000003e+001 +1.2500e+000 -1.2500e+000
160704 0 +1.485776835e-008 +3.399000001e+001 +3.399000001e+001 +1.2500e+000 -1.2500e+000
160728 0 +1.302244357e-008 +3.399000001e+001 +3.399000001e+001 +1.2500e+000 -1.2500e+000
160756 0 +1.046965536e-008 +3.399000001e+001 +3.399000001e+001 +1.2500e+000 -1.2500e+000
160827 0 +1.610537481e-009 +3.399000000e+001 +3.399000000e+001 +1.2500e+000 -1.2500e+000
% f evaluations | g evaluations | best noise-free fitness - Fopt (-1.000000000000e+003) + sum g_i+ | measured fitness | best measured fitness or single-digit g-values | x1 | x2...
1 0 +1.423066471e+001 -9.857693353e+002 -9.857693353e+002 -5.0000e+000 -5.0000e+000
8 0 +1.072906129e+001 -9.892709387e+002 -9.892709387e+002 -3.7710e+000 -4.5340e+000
13 0 +1.011004738e+001 -9.898899526e+002 -9.898899526e+002 -4.1921e+000 -3.7368e+000
37 0 +7.536028784e+000 -9.924639712e+002 -9.924639712e+002 -4.8621e+000 -4.7770e+000
48 0 +6.613660410e+000 -9.933863396e+002 -9.933863396e+002 -3.5376e+000 -4.2030e+000
62 0 +5.581755888e+000 -9.944182441e+002 -9.944182441e+002 -5.0000e+000 -3.7722e+000
69 0 +4.028677687e+000 -9.959713223e+002 -9.959713223e+002 -3.5260e+000 -4.2533e+000
156 0 +3.130330725e+000 -9.968696693e+002 -9.968696693e+002 -3.7551e+000 -3.3172e+000
192 0 +2.926477779e+000 -9.970735222e+002 -9.970735222e+002 -3.2624e+000 -4.0321e+000
392 0 +2.731557883e+000 -9.972684421e+002 -9.972684421e+002 -3.4240e+000 -3.6010e+000
413 0 +2.621126844e+000 -9.973788732e+002 -9.973788732e+002 -3.4095e+000 -3.6074e+000
976 0 +2.490943891e+000 -9.975090561e+002 -9.975090561e+002 -3.4507e+000 -3.6437e+000
1317 0 +2.453139212e+000 -9.975468608e+002 -9.975468608e+002 -3.6435e+000 -3.2544e+000
1404 0 +2.096727478e+000 -9.979032725e+002 -9.979032725e+002 -2.8093e+000 -3.1312e+000
1702 0 +2.069576022e+000 -9.979304240e+002 -9.979304240e+002 -2.8088e+000 -3.1324e+000
2322 0 +2.036812097e+000 -9.979631879e+002 -9.979631879e+002 -2.8136e+000 -3.1302e+000
% f evaluations | g evaluations | best noise-free fitness - Fopt (-1.000000000000e+003) + sum g_i+ | measured fitness | best measured fitness or single-digit g-values | x1 | x2...
1 0 +5.211611759e+001 -9.478838824e+002 -9.478838824e+002 -5.0000e+000 +5.0000e+000
3 0 +4.701394151e+001 -9.529860585e+002 -9.529860585e+002 -5.0000e+000 -5.0000e+000
4 0 +4.398520713e+001 -9.560147929e+002 -9.560147929e+002 -5.0000e+000 -4.4576e+000
5 0 +2.859841150e+001 -9.714015885e+002 -9.714015885e+002 -5.0000e+000 -3.2403e+000
8 0 +2.710809383e+001 -9.728919062e+002 -9.728919062e+002 -5.0000e+000 -4.8418e+000
9 0 +1.116423012e+001 -9.888357699e+002 -9.888357699e+002 -1.9697e+000 -1.0273e+000
30 0 +1.044487458e+001 -9.895551254e+002 -9.895551254e+002 -1.8709e+000 -7.4799e-001
43 0 +2.846979236e+000 -9.971530208e+002 -9.971530208e+002 -2.9193e+000 -1.9734e+000
282 0 +1.823034530e+000 -9.981769655e+002 -9.981769655e+002 +8.2599e-001 +1.1987e+000
1484 0 +1.299600772e+000 -9.987003992e+002 -9.987003992e+002 +7.7929e-001 +1.1621e+000
1551 0 +1.114784312e+000 -9.988852157e+002 -9.988852157e+002 +1.5287e+000 +1.3071e+000
1592 0 +6.668680901e-001 -9.993331319e+002 -9.993331319e+002 +1.4683e+000 +1.2751e+000
2325 0 +1.803052776e-001 -9.998196947e+002 -9.998196947e+002 +1.4471e+000 +1.2826e+000
2912 0 +1.769481612e-001 -9.998230518e+002 -9.998230518e+002 +1.4453e+000 +1.2832e+000
3056 0 +1.585754597e-001 -9.998414245e+002 -9.998414245e+002 +1.4451e+000 +1.2828e+000
3165 0 +1.584091681e-001 -9.998415908e+002 -9.998415908e+002 +1.4450e+000 +1.2828e+000
20204 0 +5.945962059e-002 -9.999405404e+002 -9.999405404e+002 +1.3500e+000 +1.2659e+000
20254 0 +5.391020357e-002 -9.999460898e+002 -9.999460898e+002 +1.3510e+000 +1.2654e+000
20310 0 +5.345518794e-002 -9.999465448e+002 -9.999465448e+002 +1.3507e+000 +1.2656e+000
20403 0 +4.196052931e-002 -9.999580395e+002 -9.999580395e+002 +1.3488e+000 +1.2661e+000
20577 0 +4.044993041e-002 -9.999595501e+002 -9.999595501e+002 +1.3474e+000 +1.2665e+000
20628 0 +3.977832787e-002 -9.999602217e+002 -9.999602217e+002 +1.3482e+000 +1.2662e+000
22243 0 +2.422195202e-002 -9.999757780e+002 -9.999757780e+002 +1.2455e+000 +1.2514e+000
22255 0 +1.463324517e-002 -9.999853668e+002 -9.999853668e+002 +1.2461e+000 +1.2513e+000
22261 0 +6.147843991e-003 -9.999938522e+002 -9.999938522e+002 +1.2476e+000 +1.2510e+000
22314 0 +2.846470065e-003 -9.999971535e+002 -9.999971535e+002 +1.2486e+000 +1.2506e+000
22348 0 +1.710822858e-003 -9.999982892e+002 -9.999982892e+002 +1.2489e+000 +1.2505e+000
22378 0 +1.458715305e-003 -9.999985413e+002 -9.999985413e+002 +1.2491e+000 +1.2504e+000
22448 0 +5.175169821e-004 -9.999994825e+002 -9.999994825e+002 +1.2493e+000 +1.2503e+000
22481 0 +4.551968997e-004 -9.999995448e+002 -9.999995448e+002 +1.2497e+000 +1.2502e+000
22501 0 +2.789986220e-004 -9.999997210e+002 -9.999997210e+002 +1.2499e+000 +1.2501e+000
22505 0 +1.616159689e-004 -9.999998384e+002 -9.999998384e+002 +1.2499e+000 +1.2501e+000
22557 0 +8.559229025e-005 -9.999999144e+002 -9.999999144e+002 +1.2499e+000 +1.2501e+000
22641 0 +8.152793839e-005 -9.999999185e+002 -9.999999185e+002 +1.2501e+000 +1.2500e+000
22656 0 +6.745561211e-005 -9.999999325e+002 -9.999999325e+002 +1.2502e+000 +1.2500e+000
22661 0 +5.317259513e-005 -9.999999468e+002 -9.999999468e+002 +1.2501e+000 +1.2500e+000
22695 0 +1.015753992e-005 -9.999999898e+002 -9.999999898e+002 +1.2499e+000 +1.2500e+000
22723 0 +7.986638138e-006 -9.999999920e+002 -9.999999920e+002 +1.2500e+000 +1.2500e+000
22747 0 +5.550323635e-006 -9.999999944e+002 -9.999999944e+002 +1.2500e+000 +1.2500e+000
22800 0 +6.754358992e-007 -9.999999993e+002 -9.999999993e+002 +1.2500e+000 +1.2500e+000
22885 0 +2.973936262e-007 -9.999999997e+002 -9.999999997e+002 +1.2500e+000 +1.2500e+000
22910 0 +2.475109113e-007 -9.999999998e+002 -9.999999998e+002 +1.2500e+000 +1.2500e+000
22965 0 +2.322453838e-007 -9.999999998e+002 -9.999999998e+002 +1.2500e+000 +1.2500e+000
22970 0 +1.717862688e-007 -9.999999998e+002 -9.999999998e+002 +1.2500e+000 +1.2500e+000
22989 0 +1.558082658e-007 -9.999999998e+002 -9.999999998e+002 +1.2500e+000 +1.2500e+000
23036 0 +1.122509730e-007 -9.999999999e+002 -9.999999999e+002 +1.2500e+000 +1.2500e+000
23067 0 +7.415883374e-008 -9.999999999e+002 -9.999999999e+002 +1.2500e+000 +1.2500e+000
23107 0 +7.088397069e-008 -9.999999999e+002 -9.999999999e+002 +1.2500e+000 +1.2500e+000
23116 0 +3.382808700e-008 -1.000000000e+003 -1.000000000e+003 +1.2500e+000 +1.2500e+000
23212 0 +9.142013369e-009 -1.000000000e+003 -1.000000000e+003 +1.2500e+000 +1.2500e+000
% f evaluations | g evaluations | best noise-free fitness - Fopt (-1.272000000000e+001) + sum g_i+ | measured fitness | best measured fitness or single-digit g-values | x1 | x2...
1 0 +9.433912582e+001 +8.161912582e+001 +8.161912582e+001 +5.0000e+000 +5.0000e+000
2 0 +6.701106530e+001 +5.429106530e+001 +5.429106530e+001 -5.0000e+000 +5.0000e+000
3 0 +4.569217447e+001 +3.297217447e+001 +3.297217447e+001 +5.0000e+000 -5.0000e+000
4 0 +3.168976888e+001 +1.896976888e+001 +1.896976888e+001 -5.0000e+000 -5.0000e+000
5 0 +2.949486240e+001 +1.677486240e+001 +1.677486240e+001 -5.0000e+000 -5.1820e-001
8 0 +1.262553849e+001 -9.446150929e-002 -9.446150929e-002 -4.1796e+000 -4.6079e+000
9 0 +9.523600648e+000 -3.196399352e+000 -3.196399352e+000 -2.2646e+000 -3.5300e+000
40 0 +5.128662726e+000 -7.591337274e+000 -7.591337274e+000 -2.6179e+000 -4.6847e+000
57 0 +4.131595448e+000 -8.588404552e+000 -8.588404552e+000 -1.2837e+000 -2.1312e+000
433 0 +2.671225063e+000 -1.004877494e+001 -1.004877494e+001 -2.2072e+000 -2.3586e+000
786 0 +2.588533741e+000 -1.013146626e+001 -1.013146626e+001 -2.2478e+000 -2.3149e+000
1218 0 +2.558954720e+000 -1.016104528e+001 -1.016104528e+001 -2.2521e+000 -2.3143e+000
1253 0 +2.363054517e+000 -1.035694548e+001 -1.035694548e+001 -2.4604e+000 -2.8992e+000
1690 0 +2.322813997e+000 -1.039718600e+001 -1.039718600e+001 -2.4632e+000 -2.8986e+000
1698 0 +2.215833274e+000 -1.050416673e+001 -1.050416673e+001 -2.4669e+000 -2.8997e+000
1827 0 +2.164459762e+000 -1.055554024e+001 -1.055554024e+001 -2.4819e+000 -2.9012e+000
1864 0 +2.129932067e+000 -1.059006793e+001 -1.059006793e+001 -2.4769e+000 -2.9014e+000
16633 0 +2.042613644e+000 -1.067738636e+001 -1.067738636e+001 -3.0232e+000 -2.8750e+000
17092 0 +2.022616518e+000 -1.069738348e+001 -1.069738348e+001 -3.0177e+000 -2.8744e+000
% f evaluations | g evaluations | best noise-free fitness - Fopt (-5.954000000000e+001) + sum g_i+ | measured fitness | best measured fitness or single-digit g-values | x1 | x2...
1 0 +1.937860364e+001 -4.016139636e+001 -4.016139636e+001 +5.0000e+000 +5.0000e+000
4 0 +7.789569842e+000 -5.175043016e+001 -5.175043016e+001 +4.3683e+000 +3.1136e+000
5 0 +5.852066586e+000 -5.368793341e+001 -5.368793341e+001 +4.5249e+000 +3.5812e+000
28 0 +4.820914211e+000 -5.471908579e+001 -5.471908579e+001 +3.5527e+000 +1.6686e+000
33 0 +3.661415497e+000 -5.587858450e+001 -5.587858450e+001 +3.2646e+000 +3.0447e+000
73 0 +3.127123456e+000 -5.641287654e+001 -5.641287654e+001 +3.2614e+000 +3.0447e+000
140 0 +2.501517342e+000 -5.703848266e+001 -5.703848266e+001 +2.5184e+000 +3.1195e+000
309 0 +2.226953130e+000 -5.731304687e+001 -5.731304687e+001 +2.9904e+000 +2.5612e+000
448 0 +2.119777362e+000 -5.742022264e+001 -5.742022264e+001 +3.1549e+000 +2.6876e+000
1505 0 +2.082058079e+000 -5.745794192e+001 -5.745794192e+001 +3.1554e+000 +2.6880e+000
15054 0 +2.032839767e+000 -5.750716023e+001 -5.750716023e+001 +3.1077e+000 +2.9508e+000
% f evaluations | g evaluations | best noise-free fitness - Fopt (-1.000000000000e+003) + sum g_i+ | measured fitness | best measured fitness or single-digit g-values | x1 | x2...
1 0 +6.355096084e+001 -9.364490392e+002 -9.364490392e+002 -5.0000e+000 -5.0000e+000
2 0 +9.083472509e+000 -9.909165275e+002 -9.909165275e+002 +5.0000e+000 -5.0000e+000
19 0 +6.886425474e+000 -9.931135745e+002 -9.931135745e+002 +2.7948e+000 -4.1708e+000
25 0 +5.073901329e+000 -9.949260987e+002 -9.949260987e+002 +4.6258e+000 -2.8082e+000
73 0 +4.221216579e+000 -9.957787834e+002 -9.957787834e+002 +3.1865e+000 -4.5892e+000
250 0 +4.123490818e+000 -9.958765092e+002 -9.958765092e+002 +2.9067e+000 -2.4404e+000
366 0 +2.724319830e+000 -9.972756802e+002 -9.972756802e+002 +4.0035e+000 -2.8067e+000
599 0 +2.231349767e+000 -9.977686502e+002 -9.977686502e+002 +2.8147e+000 -2.7807e+000
1715 0 +2.155422326e+000 -9.978445777e+002 -9.978445777e+002 +2.8797e+000 -2.7732e+000
2232 0 +2.112418725e+000 -9.978875813e+002 -9.978875813e+002 +2.8770e+000 -2.7719e+000
2505 0 +2.054495740e+000 -9.979455043e+002 -9.979455043e+002 +2.8845e+000 -2.7789e+000
2754 0 +2.018352304e+000 -9.979816477e+002 -9.979816477e+002 +2.8833e+000 -2.7788e+000
% f evaluations | g evaluations | best noise-free fitness - Fopt (4.303000000000e+001) + sum g_i+ | measured fitness | best measured fitness or single-digit g-values | x1 | x2...
1 0 +5.792835280e+001 +1.009583528e+002 +1.009583528e+002 +5.0000e+000 +5.0000e+000
2 0 +2.018938672e+001 +6.321938672e+001 +6.321938672e+001 -5.0000e+000 +5.0000e+000
7 0 +1.513907416e+001 +5.816907416e+001 +5.816907416e+001 -5.0000e+000 +6.2710e-001
8 0 +7.111513099e+000 +5.014151310e+001 +5.014151310e+001 -3.9844e+000 +1.7144e+000
17 0 +4.422369606e+000 +4.745236961e+001 +4.745236961e+001 -2.2631e+000 +2.5517e+000
100 0 +3.895714911e+000 +4.692571491e+001 +4.692571491e+001 -3.4706e+000 +2.0395e+000
127 0 +3.552912072e+000 +4.658291207e+001 +4.658291207e+001 -2.7079e+000 +2.7013e+000
134 0 +2.648353395e+000 +4.567835339e+001 +4.567835339e+001 -2.9012e+000 +3.5626e+000
327 0 +2.322897094e+000 +4.535289709e+001 +4.535289709e+001 -2.9319e+000 +2.3909e+000
657 0 +2.230100574e+000 +4.526010057e+001 +4.526010057e+001 -2.8148e+000 +2.8032e+000
1258 0 +2.176397739e+000 +4.520639774e+001 +4.520639774e+001 -2.8085e+000 +2.8135e+000
1669 0 +2.132977323e+000 +4.516297732e+001 +4.516297732e+001 -2.8078e+000 +2.8141e+000
1867 0 +2.070016394e+000 +4.510001639e+001 +4.510001639e+001 -2.8095e+000 +2.8108e+000
1943 0 +2.033497293e+000 +4.506349729e+001 +4.506349729e+001 -2.8095e+000 +2.8099e+000
63846 0 +1.511783054e+000 +4.454178305e+001 +4.454178305e+001 +1.7684e+000 -9.2876e-001
63978 0 +5.324978077e-001 +4.356249781e+001 +4.356249781e+001 +1.4910e+000 -1.0537e+000
64122 0 +3.298210320e-001 +4.335982103e+001 +4.335982103e+001 +1.3321e+000 -1.3863e+000
64484 0 +2.940747230e-001 +4.332407472e+001 +4.332407472e+001 +1.3251e+000 -1.4032e+000
64501 0 +2.658541506e-001 +4.329585415e+001 +4.329585415e+001 +1.2972e+000 -1.3075e+000
64556 0 +1.280312271e-001 +4.315803123e+001 +4.315803123e+001 +1.2905e+000 -1.3184e+000
64605 0 +1.139281623e-001 +4.314392816e+001 +4.314392816e+001 +1.2906e+000 -1.3185e+000
64632 0 +3.025718278e-002 +4.306025718e+001 +4.306025718e+001 +1.2914e+000 -1.3191e+000
65060 0 +3.016678648e-002 +4.306016679e+001 +4.306016679e+001 +1.2914e+000 -1.3191e+000
65104 0 +2.948949869e-002 +4.305948950e+001 +4.305948950e+001 +1.2911e+000 -1.3194e+000
65112 0 +2.853344035e-002 +4.305853344e+001 +4.305853344e+001 +1.2910e+000 -1.3197e+000
65169 0 +2.733186350e-002 +4.305733186e+001 +4.305733186e+001 +1.2906e+000 -1.3204e+000
65207 0 +2.671862885e-002 +4.305671863e+001 +4.305671863e+001 +1.2905e+000 -1.3208e+000
70280 0 +1.885069011e-002 +4.304885069e+001 +4.304885069e+001 +1.2498e+000 -1.2494e+000
70669 0 +1.280701515e-004 +4.303012807e+001 +4.303012807e+001 +1.2501e+000 -1.2500e+000
71060 0 +1.123595778e-004 +4.303011236e+001 +4.303011236e+001 +1.2500e+000 -1.2499e+000
71392 0 +1.084462012e-004 +4.303010845e+001 +4.303010845e+001 +1.2500e+000 -1.2501e+000
71401 0 +7.418330135e-006 +4.303000742e+001 +4.303000742e+001 +1.2500e+000 -1.2501e+000
71476 0 +5.343695456e-006 +4.303000534e+001 +4.303000534e+001 +1.2500e+000 -1.2501e+000
71613 0 +1.332033534e-006 +4.303000133e+001 +4.303000133e+001 +1.2500e+000 -1.2500e+000
71692 0 +8.323123453e-007 +4.303000083e+001 +4.303000083e+001 +1.2500e+000 -1.2500e+000
71707 0 +4.460110432e-007 +4.303000045e+001 +4.303000045e+001 +1.2500e+000 -1.2500e+000
71760 0 +2.202892304e-007 +4.303000022e+001 +4.303000022e+001 +1.2500e+000 -1.2500e+000
71843 0 +1.182530696e-007 +4.303000012e+001 +4.303000012e+001 +1.2500e+000 -1.2500e+000
71863 0 +1.160727763e-007 +4.303000012e+001 +4.303000012e+001 +1.2500e+000 -1.2500e+000
71866 0 +7.618901066e-008 +4.303000008e+001 +4.303000008e+001 +1.2500e+000 -1.2500e+000
71887 0 +6.717656476e-008 +4.303000007e+001 +4.303000007e+001 +1.2500e+000 -1.2500e+000
71944 0 +5.527748215e-008 +4.303000006e+001 +4.303000006e+001 +1.2500e+000 -1.2500e+000
71962 0 +1.860441756e-008 +4.303000002e+001 +4.303000002e+001 +1.2500e+000 -1.2500e+000
72025 0 +3.799307535e-009 +4.303000000e+001 +4.303000000e+001 +1.2500e+000 -1.2500e+000
