% f evaluations | g evaluations | best noise-free fitness - Fopt (7.948000000000e+001) + sum g_i+ | measured fitness | best measured fitness or single-digit g-values | x1 | x2...
1 0 +9.187448004e+001 +1.713544800e+002 +1.713544800e+002 -8.3026e-001 -3.5148e+000 -2.8398e-001 +2.2611e+000 -1.7972e+000 -3.0525e+000 +4.9111e+000 +4.2385e+000 -2.8740e+000 +2.2489e+000
2 0 +7.239414482e+001 +1.518741448e+002 +1.518741448e+002 -3.9820e+000 +4.7439e+000 -2.5114e+000 +4.6128e+000 -2.3331e+000 -9.9995e-001 -5.3600e-001 +2.2583e+000 -1.6951e-001 -2.6836e+000
9 0 +5.552652797e+001 +1.350065280e+002 +1.350065280e+002 +3.9345e+000 -3.3516e-001 +5.2667e-001 +4.7817e+000 -9.7415e-001 +1.1218e+000 -3.4521e+000 -3.6591e+000 -2.4929e+000 -4.4876e+000
22 0 +0.000000000e+000 +7.948000000e+001 +7.948000000e+001 +2.5280e-001 -1.1568e+000 -7.2400e-001 +1.9264e+000 -2.6808e+000 +4.3920e-001 -1.1680e-001 +1.2000e-001 -1.6376e+000 -3.0512e+000
% f evaluations | g evaluations | best noise-free fitness - Fopt (3.944800000000e+002) + sum g_i+ | measured fitness | best measured fitness or single-digit g-values | x1 | x2...
1 0 +2.481869428e+002 +6.426669428e+002 +6.426669428e+002 +4.4682e+000 -7.8865e-001 +3.9048e+000 -4.4282e+000 +4.8124e+000 +1.0004e+000 -1.7928e-001 -4.8824e-001 -1.7581e+000 -4.0867e+000
2 0 +2.075527448e+002 +6.020327448e+002 +6.020327448e+002 -8.2095e-001 -3.2113e+000 +2.6521e+000 -3.1341e+000 -6.8770e-001 -2.7290e+000 -2.4130e+000 -2.1913e+000 -2.8892e-001 +4.4586e+000
3 0 +2.022152193e+002 +5.966952193e+002 +5.966952193e+002 -1.3089e+000 +3.1991e+000 -3.7519e+000 -3.4255e+000 +4.8928e+000 +4.1381e+000 +3.9949e+000 -1.9071e+000 +1.7729e+000 +1.7187e+000
4 0 +1.753427725e+002 +5.698227725e+002 +5.698227725e+002 +1.2062e-001 -1.8618e+000 +2.9070e+000 -2.2070e+000 -2.5292e+000 +3.8746e+000 +3.3586e+000 -4.1514e-001 -2.3981e+000 +2.6136e-001
5 0 +7.620187619e+001 +4.706818762e+002 +4.706818762e+002 -4.0413e+000 -2.6403e+000 -7.2112e-001 +2.3603e+000 +1.5210e+000 +3.7067e+000 +4.7472e+000 +2.7623e+000 -1.2742e+000 -1.1024e+000
7 0 +5.682883609e+001 +4.513088361e+002 +4.513088361e+002 -8.4294e-001 -4.2767e+000 -4.5287e+000 +2.2580e+000 -4.1893e+000 -2.6367e+000 +3.1454e+000 -2.2630e+000 +2.8478e+000 -3.7176e+000
22 0 +0.000000000e+000 +3.944800000e+002 +3.944800000e+002 -3.8984e+000 -2.8904e+000 -3.8024e+000 +3.9056e+000 +8.5920e-001 -2.9048e+000 +3.4448e+000 -6.0000e-001 -8.8240e-001 -3.7352e+000
% f evaluations | g evaluations | best noise-free fitness - Fopt (-2.471100000000e+002) + sum g_i+ | measured fitness | best measured fitness or single-digit g-values | x1 | x2...
1 0 +1.444394226e+002 -1.026705774e+002 -1.026705774e+002 +2.0824e+000 +2.5790e+000 -1.8373e+000 -1.5254e+000 +1.4294e+000 +1.1462e+000 +3.7101e-001 +2.7938e+000 +4.4976e+000 +4.3445e+000
5 0 +4.932754090e+001 -1.977824591e+002 -1.977824591e+002 -1.5153e+000 -3.3278e-001 -1.0390e+000 -3.1496e+000 -1.5176e+000 -2.1113e+000 +2.8258e+000 -4.5222e+000 +3.0155e+000 -5.3224e-001
17 0 +4.358772130e+001 -2.035222787e+002 -2.035222787e+002 -4.4796e+000 +1.1927e+000 +4.5428e-001 -2.8279e+000 -4.1029e+000 +1.9438e+000 -1.8020e+000 -2.9625e-001 -4.8420e-001 +3.4907e+000
22 0 +0.000000000e+000 -2.471100000e+002 -2.471100000e+002 -3.7984e+000 +2.0320e-001 -6.9120e-001 -3.6912e+000 -3.0992e+000 +2.3168e+000 +3.2200e+000 -3.9160e+000 -7.1200e-002 +2.8224e+000
% f evaluations | g evaluations | best noise-free fitness - Fopt (-1.520400000000e+002) + sum g_i+ | measured fitness | best measured fitness or single-digit g-values | x1 | x2...
1 0 +1.192381701e+002 -3.280182994e+001 -3.280182994e+001 -1.4846e+000 +2.7732e+000 +1.3440e+000 -3.0984e+000 +2.1247e+000 +1.3091e+000 -2.0237e+000 -3.6371e+000 +3.4165e+000 -2.1972e+000
2 0 +1.161603564e+002 -3.587964356e+001 -3.587964356e+001 -5.1770e-001 -3.8597e+000 +1.0395e-001 -2.4213e-001 +1.0688e+000 +8.7631e-001 +8.7455e-001 -1.4976e+000 +4.0891e+000 -3.3502e+000
3 0 +1.045583517e+002 -4.748164829e+001 -4.748164829e+001 -1.7363e+000 +1.2208e-001 +2.5368e+000 +1.5975e+000 -4.3473e+000 -1.9179e-001 -1.8930e-001 -1.5382e+000 +4.4454e+000 +2.9227e+000
9 0 +8.785434003e+001 -6.418565997e+001 -6.418565997e+001 -1.1031e-002 -4.4990e+000 -3.8447e+000 -3.6957e-001 +4.2540e+000 +1.8048e+000 -1.4808e+000 +3.9719e+000 -1.4589e+000 +1.9967e+000
15 0 +4.101887391e+001 -1.110211261e+002 -1.110211261e+002 +3.7044e+000 +1.6525e+000 -3.3106e+000 +8.0458e-001 +3.6827e+000 -1.0701e+000 -4.1112e+000 -1.1014e+000 -4.7439e-001 +4.4851e+000
22 0 +0.000000000e+000 -1.520400000e+002 -1.520400000e+002 -2.6720e-001 +1.4240e+000 -3.9248e+000 +3.2968e+000 +2.4192e+000 +1.5040e-001 -8.7840e-001 -7.0080e-001 +1.5000e+000 +3.4808e+000
% f evaluations | g evaluations | best noise-free fitness - Fopt (-2.525000000000e+001) + sum g_i+ | measured fitness | best measured fitness or single-digit g-values | x1 | x2...
1 0 +2.116149163e+002 +1.863649163e+002 +1.863649163e+002 +5.0550e-002 -4.4040e+000 +9.2750e-003 +3.0335e+000 -4.3342e+000 +2.5135e+000 +4.0950e+000 -4.9182e+000 +4.1800e-001 +2.4172e+000
2 0 +7.803527061e+001 +5.278527061e+001 +5.278527061e+001 +2.8176e+000 +1.9068e+000 -1.7557e+000 +2.0536e+000 -1.4420e+000 +3.7390e+000 -3.5403e+000 +7.3460e-001 +3.7135e+000 +4.2536e-002
18 0 +7.121136140e+001 +4.596136140e+001 +4.596136140e+001 -1.3229e+000 +2.2081e+000 +7.6914e-001 +1.4329e+000 +2.0828e+000 +3.1648e+000 +8.0170e-001 -2.3849e+000 +3.0526e+000 -3.3594e+000
22 0 +0.000000000e+000 -2.525000000e+001 -2.525000000e+001 +3.6144e+000 +6.3520e-001 -1.4216e+000 -2.1528e+000 +3.2968e+000 -1.0160e-001 -2.4752e+000 -1.8152e+000 +1.3128e+000 -2.6728e+000
% f evaluations | g evaluations | best noise-free fitness - Fopt (1.830100000000e+002) + sum g_i+ | measured fitness | best measured fitness or single-digit g-values | x1 | x2...
1 0 +1.528124725e+002 +3.358224725e+002 +3.358224725e+002 -2.5692e+000 +2.3003e+000 +4.9881e+000 +1.5567e+000 -2.2576e+000 -2.4744e+000 -4.1367e-001 -4.3637e+000 -1.5308e+000 -1.1103e+000
4 0 +9.855319084e+001 +2.815631908e+002 +2.815631908e+002 +3.3696e+000 +4.8629e+000 -4.3233e+000 -2.8411e+000 -3.9480e-001 +1.9542e+000 +9.5662e-001 +9.8602e-002 +4.9488e+000 -2.9000e+000
13 0 +6.799860029e+001 +2.510086003e+002 +2.510086003e+002 -1.6340e+000 +2.7160e+000 +2.9520e+000 -4.1477e-001 -2.1122e+000 +1.8710e-001 -3.3552e+000 +4.3345e+000 -1.7150e+000 -4.5219e+000
14 0 +6.079551002e+001 +2.438055100e+002 +2.438055100e+002 -2.0886e+000 +3.9134e+000 +1.0421e+000 -2.1266e+000 -1.6398e+000 -1.2015e+000 -1.1830e+000 +1.0369e+000 +1.8679e-001 +1.2813e+000
22 0 +0.000000000e+000 +1.830100000e+002 +1.830100000e+002 -2.1360e+000 +3.1032e+000 -2.8520e+000 +1.0296e+000 -3.5568e+000 +2.7760e-001 -3.9568e+000 +2.5720e+000 +2.8464e+000 -2.1864e+000
% f evaluations | g evaluations | best noise-free fitness - Fopt (1.835200000000e+002) + sum g_i+ | measured fitness | best measured fitness or single-digit g-values | x1 | x2...
1 0 +1.212571862e+002 +3.047771862e+002 +3.047771862e+002 -3.0721e+000 +2.6624e+000 -4.0582e-001 -3.6296e+000 -4.0237e+000 -3.0748e+000 +4.6768e+000 +2.0808e+000 -3.1887e+000 +5.4230e-001
2 0 +4.214893522e+001 +2.256689352e+002 +2.256689352e+002 -1.0737e+000 -2.9874e+000 -1.1463e+000 +8.9325e-001 -2.9345e-001 -2.3547e+000 +4.9495e+000 +3.2879e+000 +4.9912e-001 -2.1236e+000
22 0 +0.000000000e+000 +1.835200000e+002 +1.835200000e+002 -2.1600e-002 -3.9416e+000 -2.3344e+000 -2.0432e+000 -6.5760e-001 +2.5064e+000 +3.6328e+000 +2.5576e+000 +1.0288e+000 -1.7760e-001
% f evaluations | g evaluations | best noise-free fitness - Fopt (-5.938400000000e+002) + sum g_i+ | measured fitness | best measured fitness or single-digit g-values | x1 | x2...
1 0 +2.221589756e+002 -3.716810244e+002 -3.716810244e+002 +4.7725e+000 +4.9828e+000 +7.4549e-001 -4.3153e-001 -4.4820e+000 -1.5460e+000 +2.4025e+000 +3.7034e+000 +1.4518e+000 +1.2725e+000
2 0 +9.622793557e+001 -4.976120644e+002 -4.976120644e+002 -1.3980e+000 -1.5632e+000 -5.0084e-001 -4.7882e+000 -1.2014e+000 +1.6704e+000 -1.5755e+000 -2.2745e+000 +1.8485e+000 +4.9732e+000
5 0 +8.967829080e+001 -5.041617092e+002 -5.041617092e+002 +4.7186e-001 -5.4208e-001 +2.3389e+000 -1.1103e+000 +1.8703e+000 +2.0767e+000 -4.6476e+000 +1.9112e+000 +3.7651e+000 +4.5092e+000
8 0 +8.631726011e+001 -5.075227399e+002 -5.075227399e+002 +2.2093e+000 -1.1324e+000 +1.9038e+000 -3.0658e+000 +8.1594e-001 +2.4941e+000 -2.4535e-001 -3.5700e+000 +6.3333e-002 -5.8362e-001
22 0 +0.000000000e+000 -5.938400000e+002 -5.938400000e+002 -2.5696e+000 +9.4400e-002 +5.7200e-001 +2.1336e+000 +1.3664e+000 +2.4672e+000 -3.6240e+000 -1.7408e+000 -3.0680e+000 +2.2968e+000
% f evaluations | g evaluations | best noise-free fitness - Fopt (-1.000000000000e+003) + sum g_i+ | measured fitness | best measured fitness or single-digit g-values | x1 | x2...
1 0 +2.252780373e+002 -7.747219627e+002 -7.747219627e+002 +3.6837e+000 +3.2997e+000 +1.7918e+000 +2.1450e+000 -1.1380e+000 -1.3534e+000 -4.9966e+000 +4.1313e-001 +1.2401e-002 -2.2925e+000
2 0 +8.430517750e+001 -9.156948225e+002 -9.156948225e+002 -3.5188e+000 +3.7933e+000 -1.1485e+000 +3.7293e-001 +5.3699e-001 -1.6142e+000 -2.1399e+000 +1.5441e+000 -4.2679e+000 -1.9435e+000
22 0 +0.000000000e+000 -1.000000000e+003 -1.000000000e+003 -3.8432e+000 +3.8528e+000 -3.8216e+000 -2.4456e+000 +2.3008e+000 +1.3064e+000 +3.7192e+000 +1.4208e+000 -1.4160e+000 +1.9280e+000
% f evaluations | g evaluations | best noise-free fitness - Fopt (-2.531000000000e+001) + sum g_i+ | measured fitness | best measured fitness or single-digit g-values | x1 | x2...
1 0 +1.474882166e+002 +1.221782166e+002 +1.221782166e+002 -3.9305e+000 -7.4284e-001 +2.4647e+000 -4.9371e+000 +3.4044e+000 -5.2895e-001 -1.5797e+000 +1.6012e+000 -2.5281e+000 +1.2829e-001
4 0 +1.374704917e+002 +1.121604917e+002 +1.121604917e+002 +3.3071e+000 +6.3046e-001 +3.2677e+000 -4.6671e+000 +3.4831e+000 -2.7246e+000 +4.8742e+000 -2.6019e+000 -2.0542e+000 +3.5184e+000
6 0 +1.018206155e+002 +7.651061547e+001 +7.651061547e+001 +7.0553e-001 +6.6623e-001 +3.3619e+000 +3.5432e+000 -2.9885e+000 -2.0623e+000 +8.6691e-001 +2.2149e-001 +5.9121e-001 -4.3218e+000
9 0 +7.306283633e+001 +4.775283633e+001 +4.775283633e+001 +3.9423e+000 +2.6671e-001 -1.6238e+000 -3.5816e+000 +2.6080e+000 -2.2984e-001 +4.3227e-001 -1.1002e+000 -3.8336e+000 -2.2154e-001
11 0 +4.969133551e+001 +2.438133551e+001 +2.438133551e+001 +2.8171e+000 +1.5990e+000 +3.0178e+000 +3.6759e+000 +1.6638e+000 -4.7683e+000 +3.3351e+000 -1.9085e-001 -2.4132e+000 +3.1569e+000
22 0 +0.000000000e+000 -2.531000000e+001 -2.531000000e+001 +3.4688e+000 +3.5328e+000 +8.5280e-001 +3.1864e+000 +2.3872e+000 -1.7624e+000 -1.6648e+000 +2.6480e-001 -3.4312e+000 +9.6640e-001
% f evaluations | g evaluations | best noise-free fitness - Fopt (2.228000000000e+001) + sum g_i+ | measured fitness | best measured fitness or single-digit g-values | x1 | x2...
1 0 +1.468259301e+002 +1.691059301e+002 +1.691059301e+002 -1.6423e+000 -2.0584e-001 -2.9620e+000 +7.7208e-002 +4.2240e+000 +2.9858e+000 +4.7814e+000 -3.2540e+000 -2.6339e+000 +3.5810e+000
3 0 +1.052760591e+002 +1.275560591e+002 +1.275560591e+002 -2.9480e+000 -4.4550e+000 -4.0381e+000 +3.0129e+000 +4.0973e+000 +2.5052e+000 +1.8688e+000 -1.2892e+000 +4.3302e+000 +1.3951e+000
7 0 +1.017941404e+002 +1.240741404e+002 +1.240741404e+002 +1.5998e+000 +1.7263e+000 +3.5340e-001 -7.4257e-001 -2.5548e+000 -3.3688e+000 -1.5925e+000 +2.1205e+000 +1.1547e+000 -2.1956e+000
22 0 +0.000000000e+000 +2.228000000e+001 +2.228000000e+001 +1.4128e+000 -1.7768e+000 -1.8216e+000 +1.0176e+000 -2.6616e+000 +3.7464e+000 +2.8480e-001 +2.7000e+000 +2.7080e+000 +2.7792e+000
% f evaluations | g evaluations | best noise-free fitness - Fopt (3.561400000000e+002) + sum g_i+ | measured fitness | best measured fitness or single-digit g-values | x1 | x2...
1 0 +7.389077897e+001 +4.300307790e+002 +4.300307790e+002 +4.8765e+000 +2.0981e+000 -3.4786e+000 +2.0180e+000 -2.4176e+000 +3.8713e+000 -3.4363e+000 -9.4091e-002 -4.9171e+000 +4.0017e+000
22 0 +0.000000000e+000 +3.561400000e+002 +3.561400000e+002 +1.4584e+000 -5.2480e-001 -3.5376e+000 +2.2224e+000 +1.4280e+000 +1.6232e+000 +8.8800e-001 +9.4240e-001 -1.0104e+000 +3.3656e+000
% f evaluations | g evaluations | best noise-free fitness - Fopt (-4.757000000000e+002) + sum g_i+ | measured fitness | best measured fitness or single-digit g-values | x1 | x2...
1 0 +1.367754228e+002 -3.389245772e+002 -3.389245772e+002 -2.2824e+000 +4.1176e+000 +4.5129e+000 -1.8845e+000 +2.7209e+000 +3.0965e+000 -1.0239e+000 -4.3146e+000 -3.9644e+000 +4.1509e+000
2 0 +1.021778390e+002 -3.735221610e+002 -3.735221610e+002 -2.9938e+000 -2.5808e+000 +3.3626e+000 -2.8232e+000 -4.2382e-001 +1.7042e+000 +3.9404e+000 +4.5618e+000 -2.4831e+000 -1.6683e+000
16 0 +9.159928003e+001 -3.841007200e+002 -3.841007200e+002 +8.9201e-001 +3.0230e-002 +3.3307e+000 -1.1403e+000 -2.3645e+000 +3.2822e+000 +3.3462e+000 -2.4782e+000 +9.2982e-001 +5.6579e-001
22 0 +0.000000000e+000 -4.757000000e+002 -4.757000000e+002 -8.2960e-001 -4.4400e-001 +3.7872e+000 +3.0064e+000 -1.6832e+000 -2.7352e+000 +8.4800e-001 -1.8000e-001 -3.8344e+000 +2.2800e-001
% f evaluations | g evaluations | best noise-free fitness - Fopt (-1.000000000000e+003) + sum g_i+ | measured fitness | best measured fitness or single-digit g-values | x1 | x2...
1 0 +8.834764347e+001 -9.116523565e+002 -9.116523565e+002 +1.0980e+000 +2.3350e+000 -8.0785e-001 -4.6091e+000 -4.3254e+000 -4.0432e+000 -9.6436e-001 +1.2599e+000 +1.7013e+000 +6.8734e-001
19 0 +5.718794648e+001 -9.428120535e+002 -9.428120535e+002 -2.4704e+000 +1.2685e+000 +2.1748e-001 -2.9520e+000 -3.9150e+000 +4.2774e-001 -3.2449e+000 -2.3334e+000 +1.1161e+000 -1.2508e-001
22 0 +0.000000000e+000 -1.000000000e+003 -1.000000000e+003 -3.8024e+000 +3.3216e+000 +3.7328e+000 -1.4208e+000 -1.8336e+000 -2.2920e+000 -3.8944e+000 +1.6688e+000 +5.9840e-001 -2.9640e+000
% f evaluations | g evaluations | best noise-free fitness - Fopt (-4.158000000000e+001) + sum g_i+ | measured fitness | best measured fitness or single-digit g-values | x1 | x2...
1 0 +9.914318375e+001 +5.756318375e+001 +5.756318375e+001 +4.8766e+000 -1.5312e+000 -4.1359e+000 +4.1339e+000 -9.7286e-001 +4.2488e+000 +7.9315e-001 -2.3892e+000 +7.7981e-001 -3.1937e+000
3 0 +7.775830052e+001 +3.617830052e+001 +3.617830052e+001 +9.2195e-001 +3.9613e+000 +3.7182e-001 +3.3243e+000 +8.6575e-001 +4.4805e+000 -4.4633e+000 -7.8002e-001 +2.5141e+000 -4.2015e-001
5 0 +5.343234358e+001 +1.185234358e+001 +1.185234358e+001 +1.9607e+000 -9.5285e-001 -2.6004e+000 -7.9166e-001 -2.0410e+000 -7.0989e-001 -2.3605e+000 -1.4825e+000 +2.3317e+000 +5.4060e-001
16 0 +4.166516673e+001 +8.516672818e-002 +8.516672818e-002 +3.0843e+000 +4.8773e+000 -3.6982e+000 +1.9157e-001 -2.5869e+000 +1.6023e+000 +1.4723e+000 +3.2460e-002 -2.7097e+000 +1.1977e+000
22 0 +0.000000000e+000 -4.158000000e+001 -4.158000000e+001 +5.9760e-001 +2.8528e+000 -3.1376e+000 -1.0480e-001 -1.1320e+000 +3.2112e+000 +9.3600e-001 -2.4240e+000 +1.2672e+000 +3.2320e+000
