% f evaluations | g evaluations | best noise-free fitness - Fopt (-9.210000000000e+000) + sum g_i+ | measured fitness | best measured fitness or single-digit g-values | x1 | x2...
1 0 +1.000000000e+001 +7.900000000e-001 +7.900000000e-001 -5.0000e+000 +5.0000e+000 +5.0000e+000
2 0 +0.000000000e+000 -9.210000000e+000 -9.210000000e+000 +5.0000e+000 +5.0000e+000 +5.0000e+000
% f evaluations | g evaluations | best noise-free fitness - Fopt (6.559900000000e+002) + sum g_i+ | measured fitness | best measured fitness or single-digit g-values | x1 | x2...
1 0 +0.000000000e+000 +6.559900000e+002 +6.559900000e+002 +5.0000e+000 -5.0000e+000 -5.0000e+000
% f evaluations | g evaluations | best noise-free fitness - Fopt (6.671000000000e+001) + sum g_i+ | measured fitness | best measured fitness or single-digit g-values | x1 | x2...
1 0 +1.416227766e+002 +2.083327766e+002 +2.083327766e+002 +5.0000e+000 +5.0000e+000 +5.0000e+000
2 0 +1.316227766e+002 +1.983327766e+002 +1.983327766e+002 -5.0000e+000 +5.0000e+000 +5.0000e+000
3 0 +1.100000000e+002 +1.767100000e+002 +1.767100000e+002 +5.0000e+000 -5.0000e+000 +5.0000e+000
4 0 +4.162277660e+001 +1.083327766e+002 +1.083327766e+002 +5.0000e+000 +5.0000e+000 -5.0000e+000
5 0 +0.000000000e+000 +6.671000000e+001 +6.671000000e+001 -5.0000e+000 -5.0000e+000 -5.0000e+000
% f evaluations | g evaluations | best noise-free fitness - Fopt (9.416700000000e+002) + sum g_i+ | measured fitness | best measured fitness or single-digit g-values | x1 | x2...
1 0 +0.000000000e+000 +9.416700000e+002 +9.416700000e+002 -5.0000e+000 -5.0000e+000 +5.0000e+000
% f evaluations | g evaluations | best noise-free fitness - Fopt (-3.745000000000e+001) + sum g_i+ | measured fitness | best measured fitness or single-digit g-values | x1 | x2...
1 0 +1.000000000e+002 +6.255000000e+001 +6.255000000e+001 +5.0000e+000 +5.0000e+000 -5.0000e+000
4 0 +0.000000000e+000 -3.745000000e+001 -3.745000000e+001 +5.0000e+000 +5.0000e+000 +5.0000e+000
% f evaluations | g evaluations | best noise-free fitness - Fopt (-6.639000000000e+001) + sum g_i+ | measured fitness | best measured fitness or single-digit g-values | x1 | x2...
1 0 +1.100000000e+002 +4.361000000e+001 +4.361000000e+001 +5.0000e+000 +5.0000e+000 +5.0000e+000
2 0 +1.000000000e+002 +3.361000000e+001 +3.361000000e+001 -5.0000e+000 +5.0000e+000 +5.0000e+000
4 0 +1.000000000e+001 -5.639000000e+001 -5.639000000e+001 +5.0000e+000 +5.0000e+000 -5.0000e+000
5 0 +0.000000000e+000 -6.639000000e+001 -6.639000000e+001 -5.0000e+000 +5.0000e+000 -5.0000e+000
% f evaluations | g evaluations | best noise-free fitness - Fopt (-2.260100000000e+002) + sum g_i+ | measured fitness | best measured fitness or single-digit g-values | x1 | x2...
1 0 +1.000000000e+001 -2.160100000e+002 -2.160100000e+002 +5.0000e+000 +5.0000e+000 +5.0000e+000
2 0 +0.000000000e+000 -2.260100000e+002 -2.260100000e+002 -5.0000e+000 +5.0000e+000 +5.0000e+000
% f evaluations | g evaluations | best noise-free fitness - Fopt (1.000000000000e+003) + sum g_i+ | measured fitness | best measured fitness or single-digit g-values | x1 | x2...
1 0 +1.000000000e+002 +1.100000000e+003 +1.100000000e+003 -5.0000e+000 +5.0000e+000 -5.0000e+000
4 0 +0.000000000e+000 +1.000000000e+003 +1.000000000e+003 -5.0000e+000 +5.0000e+000 +5.0000e+000
% f evaluations | g evaluations | best noise-free fitness - Fopt (-1.830200000000e+002) + sum g_i+ | measured fitness | best measured fitness or single-digit g-values | x1 | x2...
1 0 +1.316227766e+002 -5.139722340e+001 -5.139722340e+001 +5.0000e+000 +5.0000e+000 +5.0000e+000
3 0 +1.000000000e+002 -8.302000000e+001 -8.302000000e+001 +5.0000e+000 -5.0000e+000 +5.0000e+000
4 0 +3.162277660e+001 -1.513972234e+002 -1.513972234e+002 +5.0000e+000 +5.0000e+000 -5.0000e+000
5 0 +0.000000000e+000 -1.830200000e+002 -1.830200000e+002 +5.0000e+000 -5.0000e+000 -5.0000e+000
% f evaluations | g evaluations | best noise-free fitness - Fopt (-1.026200000000e+002) + sum g_i+ | measured fitness | best measured fitness or single-digit g-values | x1 | x2...
1 0 +1.416227766e+002 +3.900277660e+001 +3.900277660e+001 +5.0000e+000 +5.0000e+000 +5.0000e+000
2 0 +1.316227766e+002 +2.900277660e+001 +2.900277660e+001 -5.0000e+000 +5.0000e+000 +5.0000e+000
3 0 +1.100000000e+002 +7.380000000e+000 +7.380000000e+000 +5.0000e+000 -5.0000e+000 +5.0000e+000
4 0 +4.162277660e+001 -6.099722340e+001 -6.099722340e+001 +5.0000e+000 +5.0000e+000 -5.0000e+000
5 0 +0.000000000e+000 -1.026200000e+002 -1.026200000e+002 -5.0000e+000 -5.0000e+000 -5.0000e+000
% f evaluations | g evaluations | best noise-free fitness - Fopt (9.953000000000e+001) + sum g_i+ | measured fitness | best measured fitness or single-digit g-values | x1 | x2...
1 0 +3.162277660e+001 +1.311527766e+002 +1.311527766e+002 -5.0000e+000 +5.0000e+000 -5.0000e+000
3 0 +0.000000000e+000 +9.953000000e+001 +9.953000000e+001 -5.0000e+000 -5.0000e+000 -5.0000e+000
% f evaluations | g evaluations | best noise-free fitness - Fopt (1.495900000000e+002) + sum g_i+ | measured fitness | best measured fitness or single-digit g-values | x1 | x2...
1 0 +1.000000000e+002 +2.495900000e+002 +2.495900000e+002 -5.0000e+000 +5.0000e+000 +5.0000e+000
4 0 +0.000000000e+000 +1.495900000e+002 +1.495900000e+002 -5.0000e+000 +5.0000e+000 -5.0000e+000
% f evaluations | g evaluations | best noise-free fitness - Fopt (-1.000000000000e+003) + sum g_i+ | measured fitness | best measured fitness or single-digit g-values | x1 | x2...
1 0 +4.162277660e+001 -9.583772234e+002 -9.583772234e+002 -5.0000e+000 +5.0000e+000 -5.0000e+000
2 0 +3.162277660e+001 -9.683772234e+002 -9.683772234e+002 +5.0000e+000 +5.0000e+000 -5.0000e+000
3 0 +1.000000000e+001 -9.900000000e+002 -9.900000000e+002 -5.0000e+000 -5.0000e+000 -5.0000e+000
5 0 +0.000000000e+000 -1.000000000e+003 -1.000000000e+003 +5.0000e+000 -5.0000e+000 -5.0000e+000
% f evaluations | g evaluations | best noise-free fitness - Fopt (-2.922000000000e+001) + sum g_i+ | measured fitness | best measured fitness or single-digit g-values | x1 | x2...
1 0 +1.100000000e+002 +8.078000000e+001 +8.078000000e+001 +5.0000e+000 -5.0000e+000 +5.0000e+000
2 0 +1.000000000e+002 +7.078000000e+001 +7.078000000e+001 -5.0000e+000 -5.0000e+000 +5.0000e+000
4 0 +1.000000000e+001 -1.922000000e+001 -1.922000000e+001 +5.0000e+000 -5.0000e+000 -5.0000e+000
5 0 +0.000000000e+000 -2.922000000e+001 -2.922000000e+001 -5.0000e+000 -5.0000e+000 -5.0000e+000
% f evaluations | g evaluations | best noise-free fitness - Fopt (-4.096000000000e+001) + sum g_i+ | measured fitness | best measured fitness or single-digit g-values | x1 | x2...
1 0 +0.000000000e+000 -4.096000000e+001 -4.096000000e+001 +5.0000e+000 +5.0000e+000 +5.0000e+000
