% f evaluations | g evaluations | best noise-free fitness - Fopt (9.294000000000e+001) + sum g_i+ | measured fitness | best measured fitness or single-digit g-values | x1 | x2...
1 0 +9.400558589e+002 +1.032995859e+003 +1.032995859e+003 +5.0000e+000 -5.0000e+000 -5.0000e+000 +5.0000e+000 +5.0000e+000
4 0 +4.388333284e+002 +5.317733284e+002 +5.317733284e+002 +5.0000e+000 -5.0000e+000 +5.0000e+000 +5.0000e+000 +5.0000e+000
9 0 +3.503293672e+002 +4.432693672e+002 +4.432693672e+002 -1.3004e+000 -5.0000e+000 -1.3004e+000 +5.0000e+000 +5.0000e+000
13 0 +2.323558161e+002 +3.252958161e+002 +3.252958161e+002 +4.3706e+000 -4.8130e+000 +1.4427e+000 +4.9421e+000 +4.8583e+000
18 0 +5.818736834e+001 +1.511273683e+002 +1.511273683e+002 +1.3912e+000 -5.0000e+000 +2.4389e+000 +5.0000e+000 +5.0000e+000
27 0 +5.536448439e+001 +1.483044844e+002 +1.483044844e+002 +1.3585e+000 -4.1011e+000 +2.6372e+000 +5.0000e+000 +5.0000e+000
33 0 +4.372686046e+001 +1.366668605e+002 +1.366668605e+002 +1.4575e+000 -3.3669e+000 +2.3257e+000 +5.0000e+000 +4.4372e+000
39 0 +3.314070350e+001 +1.260807035e+002 +1.260807035e+002 +1.4074e+000 -3.0046e+000 +2.2470e+000 +5.0000e+000 +4.5522e+000
41 0 +3.179904002e+001 +1.247390400e+002 +1.247390400e+002 +1.7281e+000 -3.4420e+000 +1.2637e+000 +4.2172e+000 +3.5459e+000
93 0 +2.655594392e+001 +1.194959439e+002 +1.194959439e+002 +1.1509e+000 -3.1952e+000 +1.3008e+000 +4.9465e+000 +4.4708e+000
159 0 +2.144699217e+001 +1.143869922e+002 +1.143869922e+002 +4.3865e-001 -2.4736e+000 +2.1147e+000 +4.4998e+000 +4.2753e+000
168 0 +1.789987837e+001 +1.108398784e+002 +1.108398784e+002 +1.2503e+000 -2.1236e+000 +1.0202e+000 +4.9143e+000 +4.0122e+000
199 0 +1.676197932e+001 +1.097019793e+002 +1.097019793e+002 +1.2691e+000 -2.1062e+000 +1.0776e+000 +4.9108e+000 +4.0111e+000
208 0 +1.133487591e+001 +1.042748759e+002 +1.042748759e+002 +1.0340e+000 -1.2074e+000 +1.2467e+000 +4.6434e+000 +3.7418e+000
277 0 +9.097351450e+000 +1.020373515e+002 +1.020373515e+002 +2.5235e-001 +2.2118e+000 +1.0402e+000 +4.6188e+000 +2.7864e+000
314 0 +7.204355997e+000 +1.001443560e+002 +1.001443560e+002 +3.9695e-001 -7.7620e-001 +1.0323e+000 +4.8868e+000 +3.7729e+000
365 0 +2.502280362e+000 +9.544228036e+001 +9.544228036e+001 +5.4993e-002 -1.0654e-001 +1.3614e+000 +4.8836e+000 +3.6684e+000
518 0 +2.177340738e+000 +9.511734074e+001 +9.511734074e+001 -5.6358e-002 +9.6613e-001 +9.7661e-001 +4.7848e+000 +3.2035e+000
534 0 +2.096881582e+000 +9.503688158e+001 +9.503688158e+001 -6.7441e-002 +6.6754e-001 +1.0444e+000 +4.7826e+000 +3.3334e+000
1002 0 +1.833652432e+000 +9.477365243e+001 +9.477365243e+001 -1.3741e-001 +8.8191e-001 +9.1194e-001 +4.8904e+000 +3.8530e+000
1185 0 +7.299341378e-001 +9.366993414e+001 +9.366993414e+001 -1.5823e-001 +5.8631e-001 +8.4015e-001 +4.7283e+000 +3.4238e+000
2024 0 +6.255700905e-001 +9.356557009e+001 +9.356557009e+001 +1.7349e-001 +5.1464e-001 +1.0034e+000 +4.5637e+000 +3.3032e+000
7567 0 +4.424955090e-001 +9.338249551e+001 +9.338249551e+001 -5.1082e-001 +9.6471e-001 +6.2760e-002 +2.7696e+000 +2.2697e+000
7595 0 +3.912364514e-001 +9.333123645e+001 +9.333123645e+001 -4.9579e-001 +1.0931e+000 +5.5794e-002 +2.7543e+000 +2.1511e+000
7649 0 +3.377201570e-001 +9.327772016e+001 +9.327772016e+001 -3.0856e-001 +5.1861e-001 +5.3718e-002 +2.7864e+000 +2.3664e+000
7695 0 +1.553652895e-001 +9.309536529e+001 +9.309536529e+001 -3.0993e-001 +6.3673e-001 +3.2284e-001 +3.1887e+000 +2.6463e+000
7774 0 +8.137306225e-002 +9.302137306e+001 +9.302137306e+001 -3.1964e-001 +6.4232e-001 +3.0830e-001 +3.1098e+000 +2.5671e+000
7788 0 +4.983416303e-002 +9.298983416e+001 +9.298983416e+001 -3.2197e-001 +8.4672e-001 +2.4568e-001 +3.1087e+000 +2.4439e+000
7826 0 +4.365226621e-002 +9.298365227e+001 +9.298365227e+001 -1.8604e-001 +6.1605e-001 +3.4621e-001 +3.2085e+000 +2.5067e+000
7847 0 +2.978010561e-002 +9.296978011e+001 +9.296978011e+001 -1.6629e-001 +7.1049e-001 +3.1019e-001 +3.2340e+000 +2.4368e+000
8057 0 +2.342798979e-002 +9.296342799e+001 +9.296342799e+001 -1.7168e-001 +6.6498e-001 +2.4998e-001 +3.1441e+000 +2.4071e+000
8111 0 +2.058948798e-002 +9.296058949e+001 +9.296058949e+001 -2.1938e-001 +6.9518e-001 +2.4708e-001 +3.1785e+000 +2.4938e+000
8265 0 +1.358291568e-002 +9.295358292e+001 +9.295358292e+001 -2.3069e-001 +7.1422e-001 +2.3591e-001 +3.0506e+000 +2.3313e+000
8429 0 +7.299341378e-003 +9.294729934e+001 +9.294729934e+001 -2.1624e-001 +6.7242e-001 +2.9582e-001 +3.2165e+000 +2.4978e+000
8775 0 +3.587758926e-007 +9.294000036e+001 +9.294000036e+001 -2.3334e-001 +7.1046e-001 +2.5241e-001 +3.0926e+000 +2.3964e+000
8845 0 +3.320064934e-007 +9.294000033e+001 +9.294000033e+001 -2.2059e-001 +7.3898e-001 +2.6181e-001 +3.0799e+000 +2.3580e+000
8875 0 +2.123138501e-007 +9.294000021e+001 +9.294000021e+001 -2.2124e-001 +7.3394e-001 +2.4834e-001 +3.0926e+000 +2.3964e+000
8926 0 +1.006313113e-007 +9.294000010e+001 +9.294000010e+001 -2.1865e-001 +7.3129e-001 +2.6609e-001 +3.1029e+000 +2.3969e+000
9055 0 +7.591113160e-008 +9.294000008e+001 +9.294000008e+001 -2.2126e-001 +7.4191e-001 +2.6434e-001 +3.1022e+000 +2.3922e+000
9081 0 +6.913083439e-008 +9.294000007e+001 +9.294000007e+001 -2.2237e-001 +7.2759e-001 +2.7130e-001 +3.1233e+000 +2.4144e+000
9126 0 +6.598247637e-008 +9.294000007e+001 +9.294000007e+001 -2.1696e-001 +7.2661e-001 +2.6473e-001 +3.1154e+000 +2.3781e+000
9277 0 +7.406100622e-009 +9.294000001e+001 +9.294000001e+001 -1.9800e-001 +7.2274e-001 +2.7438e-001 +3.1158e+000 +2.3732e+000
% f evaluations | g evaluations | best noise-free fitness - Fopt (3.535000000000e+001) + sum g_i+ | measured fitness | best measured fitness or single-digit g-values | x1 | x2...
1 0 +1.074620378e+003 +1.109970378e+003 +1.109970378e+003 -5.0000e+000 +5.0000e+000 -5.0000e+000 -5.0000e+000 -5.0000e+000
2 0 +7.472037768e+002 +7.825537768e+002 +7.825537768e+002 +5.0000e+000 +5.0000e+000 -5.0000e+000 -5.0000e+000 -5.0000e+000
4 0 +4.550254999e+002 +4.903754999e+002 +4.903754999e+002 -5.0000e+000 +5.0000e+000 +5.0000e+000 -5.0000e+000 -5.0000e+000
8 0 +3.672574763e+002 +4.026074763e+002 +4.026074763e+002 +4.1153e+000 +4.9739e+000 +4.7735e+000 -4.5342e+000 -3.5903e+000
11 0 +2.312690383e+002 +2.666190383e+002 +2.666190383e+002 +1.7596e+000 +4.9807e+000 +2.2477e+000 -4.6545e+000 -3.9546e+000
18 0 +2.125089968e+002 +2.478589968e+002 +2.478589968e+002 +5.0000e+000 +5.0000e+000 +7.4542e-001 -1.8034e-001 -4.0944e+000
21 0 +9.840168542e+001 +1.337516854e+002 +1.337516854e+002 +5.0000e+000 +2.3180e+000 +3.4744e+000 -4.3527e-001 -2.9091e+000
24 0 +5.553584799e+001 +9.088584799e+001 +9.088584799e+001 +3.5287e+000 +2.8219e+000 +3.2952e+000 -3.7835e-001 -3.0062e+000
27 0 +4.802540915e+001 +8.337540915e+001 +8.337540915e+001 +3.2079e+000 +2.7134e+000 +3.3144e+000 -3.8259e-001 -2.9976e+000
30 0 +2.758248343e+001 +6.293248343e+001 +6.293248343e+001 +2.5217e+000 +2.7924e+000 +3.2201e+000 -3.8268e-001 -3.0027e+000
36 0 +2.327678425e+001 +5.862678425e+001 +5.862678425e+001 +2.2849e+000 +2.8065e+000 +3.2867e+000 -3.9886e-001 -3.0285e+000
45 0 +1.996044131e+001 +5.531044131e+001 +5.531044131e+001 +1.7897e+000 +2.8183e+000 +3.4485e+000 -4.6465e-001 -3.0719e+000
48 0 +1.732515992e+001 +5.267515992e+001 +5.267515992e+001 +1.5493e+000 +2.8768e+000 +3.5303e+000 -4.6013e-001 -3.0844e+000
87 0 +1.542594313e+001 +5.077594313e+001 +5.077594313e+001 +1.2616e+000 +2.8583e+000 +3.4979e+000 -4.7288e-001 -3.0884e+000
95 0 +1.312829601e+001 +4.847829601e+001 +4.847829601e+001 +1.4357e+000 +3.4462e+000 +2.3205e+000 +2.0987e+000 -2.5337e+000
129 0 +7.040054222e+000 +4.239005422e+001 +4.239005422e+001 +4.3134e-001 +3.2119e+000 +2.8177e+000 +1.3779e+000 -2.6342e+000
192 0 +5.920823880e+000 +4.127082388e+001 +4.127082388e+001 +1.7075e+000 +1.9094e+000 +3.7730e+000 +8.8282e-001 -2.5572e+000
243 0 +3.554965274e+000 +3.890496527e+001 +3.890496527e+001 +1.3112e+000 +2.0941e+000 +3.4949e+000 +8.7129e-001 -1.7612e+000
245 0 +2.812639390e+000 +3.816263939e+001 +3.816263939e+001 +9.7538e-001 +3.1109e+000 +3.2660e+000 +9.3574e-001 -2.5808e+000
248 0 +2.451373405e+000 +3.780137340e+001 +3.780137340e+001 +8.5110e-001 +3.1665e+000 +3.2093e+000 +1.0905e+000 -2.5925e+000
298 0 +2.257447228e+000 +3.760744723e+001 +3.760744723e+001 +8.2040e-001 +3.1763e+000 +3.2907e+000 +1.1901e+000 -2.6241e+000
322 0 +1.975469770e+000 +3.732546977e+001 +3.732546977e+001 +1.7793e+000 +3.3059e-001 +4.2840e+000 +8.9623e-001 -2.2549e+000
364 0 +1.781500423e+000 +3.713150042e+001 +3.713150042e+001 +1.7527e+000 +4.3014e-001 +4.2342e+000 +8.8229e-001 -2.2749e+000
372 0 +1.730810856e+000 +3.708081086e+001 +3.708081086e+001 +1.6854e+000 +4.9968e-001 +4.2777e+000 +9.5293e-001 -2.2872e+000
423 0 +1.643185041e+000 +3.699318504e+001 +3.699318504e+001 +1.7282e+000 +5.9252e-001 +4.2033e+000 +9.5300e-001 -2.2979e+000
552 0 +1.560523624e+000 +3.691052362e+001 +3.691052362e+001 +1.7544e+000 +6.2273e-001 +4.2354e+000 +9.2900e-001 -2.3096e+000
561 0 +1.349247893e+000 +3.669924789e+001 +3.669924789e+001 +2.1539e+000 +3.0457e-001 +4.4937e+000 +7.1198e-001 -2.3051e+000
571 0 +7.050774546e-001 +3.605507745e+001 +3.605507745e+001 +9.6840e-001 +2.5124e+000 +3.7066e+000 +1.6653e+000 -2.2465e+000
675 0 +3.866418350e-001 +3.573664183e+001 +3.573664183e+001 +1.0449e+000 +2.6736e+000 +3.5744e+000 +1.6013e+000 -2.3103e+000
714 0 +3.086488726e-001 +3.565864887e+001 +3.565864887e+001 +1.5743e+000 +1.7730e+000 +3.7746e+000 +1.3273e+000 -2.1099e+000
727 0 +2.840951901e-001 +3.563409519e+001 +3.563409519e+001 +1.7531e+000 +1.5176e+000 +3.8152e+000 +1.3458e+000 -2.0173e+000
812 0 +2.551295727e-001 +3.560512957e+001 +3.560512957e+001 +1.6426e+000 +1.7301e+000 +3.7796e+000 +1.4264e+000 -2.0314e+000
1043 0 +1.297756387e-001 +3.547977564e+001 +3.547977564e+001 +1.7210e+000 +1.4264e+000 +3.9385e+000 +1.5101e+000 -1.8868e+000
1056 0 +2.492519116e-002 +3.537492519e+001 +3.537492519e+001 +1.6892e+000 +1.6959e+000 +3.9350e+000 +1.5313e+000 -1.8892e+000
1071 0 +1.757048332e-002 +3.536757048e+001 +3.536757048e+001 +1.6363e+000 +1.7176e+000 +3.9248e+000 +1.5279e+000 -1.8984e+000
1559 0 +1.374097948e-002 +3.536374098e+001 +3.536374098e+001 +1.6584e+000 +1.6484e+000 +3.9193e+000 +1.5014e+000 -1.9093e+000
1673 0 +9.570523254e-003 +3.535957052e+001 +3.535957052e+001 +1.7022e+000 +1.5301e+000 +3.9617e+000 +1.4645e+000 -1.9040e+000
1855 0 +4.946781230e-003 +3.535494678e+001 +3.535494678e+001 +1.7250e+000 +1.4968e+000 +3.9652e+000 +1.4636e+000 -1.9189e+000
2121 0 +7.692771931e-008 +3.535000008e+001 +3.535000008e+001 +1.7624e+000 +1.4826e+000 +3.9876e+000 +1.4632e+000 -1.9068e+000
2125 0 +3.195865617e-008 +3.535000003e+001 +3.535000003e+001 +1.7662e+000 +1.4760e+000 +3.9930e+000 +1.4632e+000 -1.9001e+000
2143 0 +2.450429548e-008 +3.535000002e+001 +3.535000002e+001 +1.7660e+000 +1.4767e+000 +3.9920e+000 +1.4628e+000 -1.8997e+000
2158 0 +2.374960673e-008 +3.535000002e+001 +3.535000002e+001 +1.7658e+000 +1.4768e+000 +3.9921e+000 +1.4629e+000 -1.8996e+000
2275 0 +2.155364598e-008 +3.535000002e+001 +3.535000002e+001 +1.7589e+000 +1.4744e+000 +3.9839e+000 +1.4628e+000 -1.8994e+000
2378 0 +1.197374644e-008 +3.535000001e+001 +3.535000001e+001 +1.7609e+000 +1.4715e+000 +3.9845e+000 +1.4622e+000 -1.8992e+000
2407 0 +1.299781616e-009 +3.535000000e+001 +3.535000000e+001 +1.7599e+000 +1.4728e+000 +3.9841e+000 +1.4599e+000 -1.8989e+000
% f evaluations | g evaluations | best noise-free fitness - Fopt (3.820000000000e+000) + sum g_i+ | measured fitness | best measured fitness or single-digit g-values | x1 | x2...
1 0 +8.109115132e+002 +8.147315132e+002 +8.147315132e+002 +5.0000e+000 +5.0000e+000 +5.0000e+000 -5.0000e+000 +5.0000e+000
3 0 +1.518732446e+002 +1.556932446e+002 +1.556932446e+002 +5.0000e+000 -5.0000e+000 +5.0000e+000 -5.0000e+000 +5.0000e+000
13 0 +7.014897449e+001 +7.396897449e+001 +7.396897449e+001 +5.0000e+000 -3.4961e-001 +5.0000e+000 -5.0000e+000 +5.0000e+000
14 0 +3.105935400e+001 +3.487935400e+001 +3.487935400e+001 +4.7976e+000 +2.8934e-001 +4.0162e+000 -4.5940e+000 +4.1270e+000
65 0 +7.944464775e+000 +1.176446478e+001 +1.176446478e+001 +3.3473e+000 +5.8541e-001 +3.0517e+000 -3.1230e+000 +1.8355e+000
74 0 +5.912996555e+000 +9.732996555e+000 +9.732996555e+000 +4.0871e+000 +3.0932e-001 +3.0682e+000 -2.8169e+000 +2.1610e+000
142 0 +3.018361246e+000 +6.838361246e+000 +6.838361246e+000 +4.1163e+000 +2.9149e-001 +3.0328e+000 -2.7996e+000 +2.1636e+000
182 0 +2.423852909e+000 +6.243852909e+000 +6.243852909e+000 +4.3206e+000 +1.3452e-002 +2.8509e+000 -2.7974e+000 +1.9866e+000
336 0 +2.271969966e+000 +6.091969966e+000 +6.091969966e+000 +4.0169e+000 +1.0353e+000 +2.0222e+000 -3.4066e+000 +8.0594e-001
347 0 +1.664739021e+000 +5.484739021e+000 +5.484739021e+000 +4.2202e+000 +4.4787e-003 +2.5528e+000 -2.3105e+000 +1.6481e+000
556 0 +5.665623775e-001 +4.386562378e+000 +4.386562378e+000 +4.0537e+000 +1.7627e-001 +3.0439e+000 -1.7311e+000 +1.5489e+000
746 0 +5.343798439e-001 +4.354379844e+000 +4.354379844e+000 +4.0414e+000 +5.1882e-001 +2.5076e+000 -1.7033e+000 +1.1536e+000
938 0 +5.005658846e-001 +4.320565885e+000 +4.320565885e+000 +3.9036e+000 +6.7994e-001 +2.4655e+000 -2.5496e+000 +1.1990e+000
996 0 +4.004900291e-001 +4.220490029e+000 +4.220490029e+000 +3.9172e+000 +6.4463e-001 +2.4607e+000 -1.5389e+000 +9.2729e-001
1111 0 +3.748551349e-001 +4.194855135e+000 +4.194855135e+000 +3.9547e+000 +1.0968e+000 +1.8551e+000 -2.2777e+000 +5.6778e-001
1134 0 +1.173841483e-001 +3.937384148e+000 +3.937384148e+000 +4.0277e+000 +1.0238e+000 +1.9124e+000 -2.5736e+000 +8.2414e-001
1323 0 +6.366953818e-002 +3.883669538e+000 +3.883669538e+000 +3.9832e+000 +1.1294e+000 +1.9131e+000 -2.6737e+000 +8.4438e-001
1340 0 +3.767057353e-002 +3.857670574e+000 +3.857670574e+000 +3.9937e+000 +1.1615e+000 +1.8854e+000 -2.7371e+000 +8.6732e-001
1346 0 +3.135353737e-002 +3.851353537e+000 +3.851353537e+000 +3.9723e+000 +9.5189e-001 +2.1208e+000 -2.3337e+000 +9.1937e-001
1711 0 +1.226091691e-002 +3.832260917e+000 +3.832260917e+000 +3.9911e+000 +1.2192e+000 +1.8080e+000 -2.6148e+000 +8.2925e-001
1793 0 +1.074013380e-002 +3.830740134e+000 +3.830740134e+000 +3.9915e+000 +1.1656e+000 +1.9270e+000 -2.6279e+000 +9.1601e-001
2119 0 +5.898380549e-003 +3.825898381e+000 +3.825898381e+000 +3.9805e+000 +1.0931e+000 +1.9465e+000 -2.4547e+000 +8.7269e-001
2127 0 +2.003860646e-007 +3.820000200e+000 +3.820000200e+000 +3.9869e+000 +1.1868e+000 +1.8910e+000 -2.5961e+000 +8.6554e-001
2177 0 +1.782629777e-007 +3.820000178e+000 +3.820000178e+000 +3.9876e+000 +1.1790e+000 +1.9009e+000 -2.5971e+000 +8.7831e-001
2450 0 +1.774795964e-007 +3.820000177e+000 +3.820000177e+000 +3.9873e+000 +1.1806e+000 +1.9011e+000 -2.5954e+000 +8.7838e-001
2464 0 +1.797230809e-008 +3.820000018e+000 +3.820000018e+000 +3.9881e+000 +1.1730e+000 +1.9021e+000 -2.5765e+000 +8.7130e-001
2513 0 +1.682696826e-008 +3.820000017e+000 +3.820000017e+000 +3.9812e+000 +1.1886e+000 +1.8841e+000 -2.5630e+000 +8.6426e-001
2668 0 +1.112623593e-008 +3.820000011e+000 +3.820000011e+000 +3.9866e+000 +1.1668e+000 +1.9073e+000 -2.5815e+000 +8.8472e-001
2715 0 +1.440656927e-009 +3.820000001e+000 +3.820000001e+000 +3.9865e+000 +1.1660e+000 +1.9083e+000 -2.5806e+000 +8.8497e-001
% f evaluations | g evaluations | best noise-free fitness - Fopt (2.175000000000e+001) + sum g_i+ | measured fitness | best measured fitness or single-digit g-values | x1 | x2...
1 0 +4.736320440e+002 +4.953820440e+002 +4.953820440e+002 -5.0000e+000 +5.0000e+000 +5.0000e+000 -5.0000e+000 -5.0000e+000
5 0 +1.409783453e+002 +1.627283453e+002 +1.627283453e+002 -5.0000e+000 +5.0000e+000 +5.0000e+000 +5.0000e+000 -5.0000e+000
8 0 +1.312690634e+002 +1.530190634e+002 +1.530190634e+002 -4.5831e+000 +5.0000e+000 +5.0000e+000 +4.5831e+000 -5.0000e+000
9 0 +1.279978596e+002 +1.497478596e+002 +1.497478596e+002 -1.8479e+000 +4.2783e+000 +3.9769e+000 +1.5878e+000 -3.6882e+000
15 0 +6.954535379e+001 +9.129535379e+001 +9.129535379e+001 -4.5666e-001 +2.8818e+000 +3.8511e+000 +5.0000e+000 -5.0000e+000
18 0 +6.682920046e+001 +8.857920046e+001 +8.857920046e+001 -6.9732e-001 +4.0740e+000 +3.8111e+000 +5.0000e+000 -5.0000e+000
21 0 +6.512160383e+001 +8.687160383e+001 +8.687160383e+001 -7.8125e-001 +3.8760e+000 +3.9214e+000 +5.0000e+000 -5.0000e+000
47 0 +6.117024447e+001 +8.292024447e+001 +8.292024447e+001 -8.2643e-001 +2.4077e+000 +3.4565e+000 +4.7108e+000 -3.8618e+000
53 0 +4.418040911e+001 +6.593040911e+001 +6.593040911e+001 -1.1882e+000 +3.9844e+000 +3.0609e+000 +4.0355e+000 -5.0000e+000
59 0 +3.695775122e+001 +5.870775122e+001 +5.870775122e+001 -1.8479e+000 +3.6576e+000 +2.8567e+000 +4.5411e+000 -4.5987e+000
76 0 +3.220333510e+001 +5.395333510e+001 +5.395333510e+001 -1.7526e+000 +3.2162e+000 +2.9270e+000 +4.9202e+000 -4.6256e+000
106 0 +2.325429863e+001 +4.500429863e+001 +4.500429863e+001 -1.2587e+000 +3.2010e+000 +2.2268e+000 +4.7614e+000 -4.9536e+000
133 0 +2.047743158e+001 +4.222743158e+001 +4.222743158e+001 -7.9750e-001 +3.0579e+000 +2.2150e+000 +4.7552e+000 -4.9840e+000
217 0 +1.790488404e+001 +3.965488404e+001 +3.965488404e+001 -6.0010e-001 +2.0092e+000 +2.2138e+000 +4.6696e+000 -4.7499e+000
230 0 +1.744373833e+001 +3.919373833e+001 +3.919373833e+001 -5.0287e-001 +1.9867e+000 +2.0093e+000 +4.8655e+000 -4.7283e+000
243 0 +1.344286556e+001 +3.519286556e+001 +3.519286556e+001 -3.9712e-001 +2.2420e+000 +1.7615e+000 +4.9687e+000 -4.9047e+000
333 0 +1.292581014e+001 +3.467581014e+001 +3.467581014e+001 +1.4799e-002 +2.3104e+000 +1.8764e+000 +4.5569e+000 -4.2851e+000
424 0 +1.169743495e+001 +3.344743495e+001 +3.344743495e+001 +2.3197e-001 +2.6910e+000 +9.7190e-001 +4.6250e+000 -4.7276e+000
457 0 +1.094190905e+001 +3.269190905e+001 +3.269190905e+001 +1.1691e+000 +2.0560e+000 +7.3214e-001 +4.4415e+000 -4.1743e+000
460 0 +8.703241268e+000 +3.045324127e+001 +3.045324127e+001 +1.2217e+000 +2.0789e+000 +7.0485e-001 +4.5091e+000 -4.1818e+000
499 0 +7.646133242e+000 +2.939613324e+001 +2.939613324e+001 +1.4481e+000 +1.7856e+000 +6.6202e-001 +4.5776e+000 -4.0012e+000
506 0 +6.872423816e+000 +2.862242382e+001 +2.862242382e+001 +1.3797e+000 +1.2236e+000 +3.5115e-001 +4.8374e+000 -3.4572e+000
521 0 +4.736790777e+000 +2.648679078e+001 +2.648679078e+001 +1.3231e+000 +1.2926e+000 +3.4385e-001 +4.9707e+000 -3.2823e+000
530 0 +3.870468225e+000 +2.562046822e+001 +2.562046822e+001 +1.4204e+000 +1.2894e+000 +2.6561e-001 +4.9969e+000 -3.2039e+000
688 0 +3.260977837e+000 +2.501097784e+001 +2.501097784e+001 +2.3023e+000 +8.5112e-001 -4.2745e-001 +4.6468e+000 -2.6019e+000
703 0 +3.229792831e+000 +2.497979283e+001 +2.497979283e+001 +1.7130e+000 +9.4792e-001 +2.6505e-002 +3.9751e+000 -2.1029e+000
808 0 +3.060784581e+000 +2.481078458e+001 +2.481078458e+001 +1.9633e+000 +8.4608e-001 -1.9426e-001 +4.6600e+000 -2.7048e+000
812 0 +2.688320734e+000 +2.443832073e+001 +2.443832073e+001 +1.6261e+000 +1.0517e+000 +1.2981e-001 +4.7941e+000 -2.9588e+000
836 0 +2.612232405e+000 +2.436223240e+001 +2.436223240e+001 +1.7149e+000 +9.0069e-001 +1.8020e-001 +4.7158e+000 -2.7264e+000
881 0 +9.496803028e-001 +2.269968030e+001 +2.269968030e+001 +2.4000e+000 +8.6600e-001 -5.2085e-001 +4.4986e+000 -2.1268e+000
966 0 +8.750119513e-001 +2.262501195e+001 +2.262501195e+001 +2.3460e+000 +8.5819e-001 -5.1853e-001 +4.4909e+000 -2.1508e+000
1229 0 +8.163181276e-001 +2.256631813e+001 +2.256631813e+001 +2.3925e+000 +8.7647e-001 -6.0890e-001 +4.4192e+000 -2.2927e+000
4193 0 +4.515109121e-001 +2.220151091e+001 +2.220151091e+001 +2.9102e+000 +8.4319e-001 -5.8060e-001 +3.5427e+000 -2.0877e+000
4250 0 +3.776747052e-001 +2.212767471e+001 +2.212767471e+001 +2.9626e+000 +7.8526e-001 -6.2551e-001 +3.5582e+000 -2.0333e+000
4252 0 +3.498279503e-001 +2.209982795e+001 +2.209982795e+001 +3.0112e+000 +8.1309e-001 -5.9263e-001 +3.5590e+000 -2.0369e+000
4303 0 +2.662157450e-001 +2.201621575e+001 +2.201621575e+001 +3.0157e+000 +9.5328e-001 -5.3501e-001 +3.5320e+000 -2.0176e+000
4412 0 +2.151000003e-001 +2.196510000e+001 +2.196510000e+001 +2.9566e+000 +8.3582e-001 -5.9190e-001 +3.7146e+000 -1.9702e+000
5545 0 +2.106464740e-001 +2.196064647e+001 +2.196064647e+001 +2.9228e+000 +8.4171e-001 -5.7726e-001 +3.7086e+000 -1.9393e+000
8612 0 +1.755093540e-001 +2.192550935e+001 +2.192550935e+001 +3.6397e+000 +1.0225e+000 -1.0787e+000 +2.9809e+000 -1.8812e+000
8735 0 +1.618339603e-001 +2.191183396e+001 +2.191183396e+001 +3.6126e+000 +1.0862e+000 -1.0130e+000 +2.9737e+000 -1.9403e+000
8762 0 +1.546858412e-001 +2.190468584e+001 +2.190468584e+001 +3.5714e+000 +1.0817e+000 -9.8191e-001 +2.9862e+000 -1.9359e+000
8840 0 +8.448459241e-002 +2.183448459e+001 +2.183448459e+001 +3.7337e+000 +8.8896e-001 -1.1270e+000 +3.0181e+000 -1.6989e+000
8907 0 +8.244059809e-002 +2.183244060e+001 +2.183244060e+001 +3.6935e+000 +9.8873e-001 -1.0062e+000 +2.9052e+000 -1.8279e+000
8982 0 +6.045003427e-002 +2.181045003e+001 +2.181045003e+001 +3.8820e+000 +7.9523e-001 -1.1644e+000 +2.9459e+000 -1.5638e+000
9033 0 +5.921074212e-002 +2.180921074e+001 +2.180921074e+001 +3.8452e+000 +9.3927e-001 -1.0992e+000 +2.9552e+000 -1.6063e+000
9139 0 +5.738702561e-002 +2.180738703e+001 +2.180738703e+001 +3.7871e+000 +8.4641e-001 -1.1443e+000 +3.0318e+000 -1.5882e+000
9189 0 +2.800659507e-002 +2.177800660e+001 +2.177800660e+001 +3.8025e+000 +8.2365e-001 -1.1555e+000 +3.1112e+000 -1.5718e+000
9199 0 +2.314554190e-002 +2.177314554e+001 +2.177314554e+001 +3.8762e+000 +9.7087e-001 -1.1393e+000 +3.0305e+000 -1.6315e+000
9478 0 +1.614764265e-002 +2.176614764e+001 +2.176614764e+001 +3.8074e+000 +9.5671e-001 -1.0891e+000 +2.9895e+000 -1.7069e+000
9876 0 +1.314865161e-002 +2.176314865e+001 +2.176314865e+001 +3.8814e+000 +8.9822e-001 -1.1725e+000 +2.9924e+000 -1.6170e+000
9944 0 +3.287162904e-003 +2.175328716e+001 +2.175328716e+001 +3.8589e+000 +9.4788e-001 -1.1562e+000 +3.0103e+000 -1.6722e+000
14595 0 +4.085761240e-007 +2.175000041e+001 +2.175000041e+001 +3.7765e+000 +9.2867e-001 -1.1169e+000 +3.0532e+000 -1.6859e+000
14704 0 +2.727812181e-007 +2.175000027e+001 +2.175000027e+001 +3.7697e+000 +8.6972e-001 -1.1199e+000 +3.1181e+000 -1.6586e+000
14761 0 +3.083010469e-008 +2.175000003e+001 +2.175000003e+001 +3.7783e+000 +8.9073e-001 -1.1203e+000 +3.1070e+000 -1.6749e+000
14930 0 +2.988913295e-008 +2.175000003e+001 +2.175000003e+001 +3.7663e+000 +8.8610e-001 -1.1122e+000 +3.0902e+000 -1.6771e+000
14960 0 +1.701645402e-008 +2.175000002e+001 +2.175000002e+001 +3.7716e+000 +8.9167e-001 -1.1174e+000 +3.1104e+000 -1.6847e+000
14983 0 +1.105913938e-008 +2.175000001e+001 +2.175000001e+001 +3.7488e+000 +8.8732e-001 -1.1169e+000 +3.0960e+000 -1.6727e+000
15050 0 +1.029449237e-008 +2.175000001e+001 +2.175000001e+001 +3.7487e+000 +8.8733e-001 -1.1167e+000 +3.0960e+000 -1.6729e+000
15246 0 +8.288481013e-009 +2.175000001e+001 +2.175000001e+001 +3.7663e+000 +8.8884e-001 -1.1157e+000 +3.1079e+000 -1.6813e+000
% f evaluations | g evaluations | best noise-free fitness - Fopt (6.479000000000e+001) + sum g_i+ | measured fitness | best measured fitness or single-digit g-values | x1 | x2...
1 0 +2.456014609e+003 +2.520804609e+003 +2.520804609e+003 +5.0000e+000 -5.0000e+000 +5.0000e+000 +5.0000e+000 +5.0000e+000
2 0 +1.138206587e+003 +1.202996587e+003 +1.202996587e+003 -5.0000e+000 -5.0000e+000 +5.0000e+000 +5.0000e+000 +5.0000e+000
3 0 +7.768699506e+002 +8.416599506e+002 +8.416599506e+002 +5.0000e+000 +5.0000e+000 +5.0000e+000 +5.0000e+000 +5.0000e+000
4 0 +6.542612914e+002 +7.190512914e+002 +7.190512914e+002 +5.0000e+000 -5.0000e+000 -5.0000e+000 +5.0000e+000 +5.0000e+000
8 0 +3.989889368e+002 +4.637789368e+002 +4.637789368e+002 +3.0183e+000 +4.6956e+000 +4.3685e+000 +3.0603e+000 +3.8173e+000
9 0 +3.603824686e+002 +4.251724686e+002 +4.251724686e+002 +2.1250e+000 +3.3576e+000 +4.1556e+000 +3.1105e+000 +3.4225e+000
11 0 +2.452299939e+002 +3.100199939e+002 +3.100199939e+002 +3.8295e+000 +8.5160e-001 +7.9906e-001 +3.5321e+000 +4.0590e+000
15 0 +4.515358968e+001 +1.099435897e+002 +1.099435897e+002 +5.0000e+000 +1.8885e+000 -2.7218e+000 +1.3858e+000 +1.1934e+000
50 0 +3.062109027e+001 +9.541109027e+001 +9.541109027e+001 +2.9283e+000 +8.6079e-001 -1.0440e+000 +6.9220e-001 +3.1706e+000
65 0 +1.364858236e+001 +7.843858236e+001 +7.843858236e+001 +4.5508e+000 +9.9241e-001 -1.6114e+000 +6.1568e-001 +2.0044e+000
214 0 +1.264265953e+001 +7.743265953e+001 +7.743265953e+001 +4.7768e+000 +1.3858e+000 -2.0157e+000 +2.0549e+000 +1.7395e+000
293 0 +1.254073616e+001 +7.733073616e+001 +7.733073616e+001 +4.8177e+000 +9.3876e-001 -1.6156e+000 +1.6892e+000 +2.4155e+000
294 0 +1.037116524e+001 +7.516116524e+001 +7.516116524e+001 +4.7259e+000 +1.2698e+000 -1.8335e+000 +1.3348e+000 +1.7918e+000
322 0 +8.443527990e+000 +7.323352799e+001 +7.323352799e+001 +4.0956e+000 +1.0037e+000 -1.5199e+000 +1.1516e+000 +1.9949e+000
419 0 +4.405486471e+000 +6.919548647e+001 +6.919548647e+001 +1.4926e+000 -5.1410e-001 -1.2767e+000 +1.1814e+000 +1.2287e+000
469 0 +3.989418177e+000 +6.877941818e+001 +6.877941818e+001 -7.1155e-001 -2.0071e+000 -1.6762e+000 +1.0120e+000 +5.9693e-001
695 0 +3.440357741e+000 +6.823035774e+001 +6.823035774e+001 +8.9510e-001 -8.9234e-001 -1.3889e+000 +8.1374e-001 +1.4090e+000
701 0 +3.334690721e+000 +6.812469072e+001 +6.812469072e+001 +7.3703e-001 -9.9705e-001 -1.4117e+000 +8.2577e-001 +1.3357e+000
802 0 +3.251498894e+000 +6.804149889e+001 +6.804149889e+001 +1.0023e+000 -1.0235e+000 -1.3149e+000 +8.5083e-001 +1.4766e+000
843 0 +3.176950495e+000 +6.796695049e+001 +6.796695049e+001 +1.0259e+000 -1.0926e+000 -1.3511e+000 +8.4691e-001 +1.4805e+000
927 0 +2.890204592e+000 +6.768020459e+001 +6.768020459e+001 +7.7746e-001 -1.1030e+000 -1.3638e+000 +1.3053e+000 +9.0144e-001
1011 0 +2.881469377e+000 +6.767146938e+001 +6.767146938e+001 -1.0799e+000 -2.1819e+000 -1.2657e+000 +1.0093e+000 +8.6458e-001
1012 0 +1.971358847e+000 +6.676135885e+001 +6.676135885e+001 -6.7954e-002 -1.6684e+000 -1.2542e+000 +1.1298e+000 +8.8231e-001
1130 0 +1.744707244e+000 +6.653470724e+001 +6.653470724e+001 +2.8074e-001 -1.4512e+000 -1.3191e+000 +1.1025e+000 +9.7486e-001
1136 0 +1.575595505e+000 +6.636559550e+001 +6.636559550e+001 +3.6962e-001 -1.3628e+000 -1.3133e+000 +1.0850e+000 +1.0123e+000
1258 0 +1.476794760e+000 +6.626679476e+001 +6.626679476e+001 +3.0750e-001 -1.3307e+000 -1.2541e+000 +1.0683e+000 +1.0056e+000
1359 0 +1.429456331e+000 +6.621945633e+001 +6.621945633e+001 +3.3398e-001 -1.3179e+000 -1.2575e+000 +1.1844e+000 +1.0272e+000
1442 0 +1.391754690e+000 +6.618175469e+001 +6.618175469e+001 +3.5731e-001 -1.3130e+000 -1.2605e+000 +1.1751e+000 +1.0289e+000
4145 0 +1.273739026e+000 +6.606373903e+001 +6.606373903e+001 -1.8000e+000 -2.9477e+000 -5.9499e-001 +9.3937e-001 +5.0101e-001
4250 0 +1.073710671e+000 +6.586371067e+001 +6.586371067e+001 -1.6148e+000 -2.8371e+000 -6.6060e-001 +1.0629e+000 +5.7981e-001
4350 0 +1.054342650e+000 +6.584434265e+001 +6.584434265e+001 -1.6506e+000 -2.8552e+000 -6.5628e-001 +1.0745e+000 +6.4301e-001
4407 0 +9.761847074e-001 +6.576618471e+001 +6.576618471e+001 -1.8714e+000 -2.8501e+000 -5.4591e-001 +1.1061e+000 +5.5173e-001
4559 0 +8.146574644e-001 +6.560465746e+001 +6.560465746e+001 -1.9221e+000 -2.4882e+000 -3.5074e-001 +1.2199e+000 +1.2891e-001
4661 0 +7.291911591e-001 +6.551919116e+001 +6.551919116e+001 -2.3125e+000 -2.6027e+000 -4.4581e-001 +1.2218e+000 -1.0450e-001
4709 0 +3.368103116e-001 +6.512681031e+001 +6.512681031e+001 -1.8908e+000 -2.4037e+000 -2.0682e-001 +1.2831e+000 +1.0286e-002
4748 0 +1.534570387e-001 +6.494345704e+001 +6.494345704e+001 -1.9888e+000 -2.3549e+000 -2.0562e-001 +1.2240e+000 -4.0762e-002
4824 0 +7.335425537e-002 +6.486335426e+001 +6.486335426e+001 -2.1048e+000 -2.3213e+000 -1.1984e-001 +1.3259e+000 -2.2011e-001
4936 0 +4.141527827e-002 +6.483141528e+001 +6.483141528e+001 -2.0046e+000 -2.2423e+000 -1.5831e-001 +1.3848e+000 -2.9374e-001
4989 0 +3.260189128e-002 +6.482260189e+001 +6.482260189e+001 -1.9985e+000 -2.2797e+000 -1.4795e-001 +1.3673e+000 -2.4311e-001
5183 0 +2.058093625e-002 +6.481058094e+001 +6.481058094e+001 -2.0204e+000 -2.2725e+000 -1.2215e-001 +1.3785e+000 -2.6312e-001
5594 0 +1.943597386e-002 +6.480943597e+001 +6.480943597e+001 -2.0709e+000 -2.2314e+000 -8.4663e-002 +1.4210e+000 -3.2466e-001
5757 0 +3.529944994e-003 +6.479352994e+001 +6.479352994e+001 -1.9715e+000 -2.1507e+000 -8.6440e-002 +1.4145e+000 -3.1462e-001
6412 0 +2.914575248e-009 +6.479000000e+001 +6.479000000e+001 -1.8524e+000 -2.0886e+000 -7.3556e-002 +1.3966e+000 -2.8388e-001
% f evaluations | g evaluations | best noise-free fitness - Fopt (-1.000000000000e+003) + sum g_i+ | measured fitness | best measured fitness or single-digit g-values | x1 | x2...
1 0 +1.201878554e+003 +2.018785543e+002 +2.018785543e+002 -5.0000e+000 +5.0000e+000 -5.0000e+000 +5.0000e+000 -5.0000e+000
3 0 +7.911060702e+002 -2.088939298e+002 -2.088939298e+002 -5.0000e+000 -5.0000e+000 -5.0000e+000 +5.0000e+000 -5.0000e+000
5 0 +3.350606025e+002 -6.649393975e+002 -6.649393975e+002 -5.0000e+000 +5.0000e+000 -5.0000e+000 -5.0000e+000 -5.0000e+000
9 0 +2.546234279e+002 -7.453765721e+002 -7.453765721e+002 -4.6778e+000 +4.1735e+000 -4.4301e+000 -4.2915e+000 -4.5659e+000
18 0 +1.235533484e+002 -8.764466516e+002 -8.764466516e+002 -5.0000e+000 +5.0000e+000 -5.0000e+000 -3.5670e-001 -1.6411e-001
29 0 +1.228375925e+002 -8.771624075e+002 -8.771624075e+002 -2.1335e+000 +4.6230e+000 +6.9901e-001 -1.9573e+000 -2.0825e+000
32 0 +1.017772276e+002 -8.982227724e+002 -8.982227724e+002 -4.8709e+000 +4.9043e+000 -3.4193e+000 -2.4932e+000 -3.8522e+000
36 0 +9.342332035e+001 -9.065766796e+002 -9.065766796e+002 -2.8367e+000 +5.0000e+000 -3.3918e+000 -1.0912e+000 +2.2294e-001
40 0 +5.739466191e+001 -9.426053381e+002 -9.426053381e+002 -2.0971e+000 +4.9322e+000 -2.1854e+000 -1.4060e-001 -5.7897e-001
44 0 +2.731260459e+001 -9.726873954e+002 -9.726873954e+002 -3.6644e+000 +4.0930e+000 -1.6489e+000 -5.7016e-001 -2.8675e-001
141 0 +2.286493551e+001 -9.771350645e+002 -9.771350645e+002 -4.2370e+000 +3.3040e+000 -2.4460e+000 -7.1720e-001 +9.8699e-002
158 0 +1.862041406e+001 -9.813795859e+002 -9.813795859e+002 -4.1606e+000 +3.2869e+000 -1.9440e+000 -5.8646e-001 -9.8822e-001
233 0 +1.483811583e+001 -9.851618842e+002 -9.851618842e+002 -4.7275e+000 +3.0432e+000 -3.0497e+000 -1.1729e+000 -2.3034e+000
281 0 +1.364776085e+001 -9.863522392e+002 -9.863522392e+002 -4.4986e+000 +3.3719e+000 -2.6189e+000 -4.6832e-001 -1.1458e+000
313 0 +1.134134927e+001 -9.886586507e+002 -9.886586507e+002 -4.5919e+000 +3.3766e+000 -2.6950e+000 -6.3650e-001 -1.3215e+000
352 0 +8.534100190e+000 -9.914658998e+002 -9.914658998e+002 -4.3455e+000 +1.7743e+000 -2.4449e+000 -3.4024e-001 -1.3305e+000
374 0 +7.887718238e+000 -9.921122818e+002 -9.921122818e+002 -4.1175e+000 -7.0173e-001 -2.2170e+000 -1.7613e-001 -1.5650e+000
399 0 +3.703354148e+000 -9.962966459e+002 -9.962966459e+002 -4.8180e+000 -1.2989e-001 -2.7115e+000 -4.9520e-001 -1.8015e+000
443 0 +2.895072800e+000 -9.971049272e+002 -9.971049272e+002 -4.9318e+000 -2.0911e-001 -2.7244e+000 -5.1582e-001 -1.9273e+000
497 0 +2.210116799e+000 -9.977898832e+002 -9.977898832e+002 -4.3814e+000 +3.5788e-002 -2.7520e+000 -4.6843e-001 -1.8434e+000
547 0 +2.100094297e+000 -9.978999057e+002 -9.978999057e+002 -4.4801e+000 -4.1907e-002 -2.7896e+000 -3.9831e-001 -1.8796e+000
597 0 +1.932998257e+000 -9.980670017e+002 -9.980670017e+002 -4.5433e+000 -9.1633e-002 -2.8137e+000 -3.5344e-001 -1.9028e+000
724 0 +1.448105422e+000 -9.985518946e+002 -9.985518946e+002 -3.9967e+000 -2.0503e+000 -2.4012e+000 -8.8871e-002 -2.2938e+000
793 0 +1.324437251e+000 -9.986755627e+002 -9.986755627e+002 -4.2009e+000 -1.6483e+000 -2.4717e+000 -1.8209e-001 -2.2138e+000
802 0 +9.671468037e-001 -9.990328532e+002 -9.990328532e+002 -4.8127e+000 -1.6205e+000 -2.7857e+000 -1.2225e-001 -2.3617e+000
1039 0 +9.388014465e-001 -9.990611986e+002 -9.990611986e+002 -4.9897e+000 -2.1412e+000 -2.9327e+000 -7.0975e-002 -2.4813e+000
1055 0 +9.272696766e-001 -9.990727303e+002 -9.990727303e+002 -4.3386e+000 -1.5325e+000 -2.5842e+000 -7.2659e-002 -2.2746e+000
1115 0 +8.960948241e-001 -9.991039052e+002 -9.991039052e+002 -4.3358e+000 -1.4032e+000 -2.5566e+000 -9.9368e-002 -2.2773e+000
1150 0 +8.892292140e-001 -9.991107708e+002 -9.991107708e+002 -4.6812e+000 -1.5580e+000 -2.7349e+000 -1.4971e-001 -2.2920e+000
1200 0 +8.676159505e-001 -9.991323840e+002 -9.991323840e+002 -4.6520e+000 -1.5763e+000 -2.7626e+000 -1.5373e-001 -2.2792e+000
1253 0 +5.597433912e-001 -9.994402566e+002 -9.994402566e+002 -4.3015e+000 -1.1064e+000 -2.5232e+000 -2.9622e-001 -2.6772e+000
1278 0 +4.846125675e-001 -9.995153874e+002 -9.995153874e+002 -4.1424e+000 -7.6648e-001 -2.3456e+000 -2.6503e-001 -2.7472e+000
1337 0 +3.208158751e-001 -9.996791841e+002 -9.996791841e+002 -4.2057e+000 -1.1787e+000 -2.3525e+000 -1.7923e-001 -2.8209e+000
1345 0 +1.402134638e-001 -9.998597865e+002 -9.998597865e+002 -4.2819e+000 -1.3701e+000 -2.3451e+000 -2.2369e-001 -2.7444e+000
1355 0 +7.966532641e-002 -9.999203347e+002 -9.999203347e+002 -4.1152e+000 -1.3840e+000 -2.2705e+000 -2.2092e-001 -2.8257e+000
1396 0 +5.378302007e-002 -9.999462170e+002 -9.999462170e+002 -4.1195e+000 -1.5160e+000 -2.2670e+000 -2.0290e-001 -2.9041e+000
1434 0 +4.562652565e-002 -9.999543735e+002 -9.999543735e+002 -4.1385e+000 -1.5238e+000 -2.2863e+000 -1.9525e-001 -2.8734e+000
1846 0 +3.769530565e-002 -9.999623047e+002 -9.999623047e+002 -4.1075e+000 -1.5246e+000 -2.2753e+000 -2.0606e-001 -2.9548e+000
1972 0 +3.046572042e-002 -9.999695343e+002 -9.999695343e+002 -3.9600e+000 -1.4857e+000 -2.2065e+000 -2.7211e-001 -3.0668e+000
1986 0 +2.194205352e-002 -9.999780579e+002 -9.999780579e+002 -3.9376e+000 -1.4869e+000 -2.1887e+000 -2.7418e-001 -3.0771e+000
2050 0 +1.784178755e-002 -9.999821582e+002 -9.999821582e+002 -3.9320e+000 -1.4793e+000 -2.1720e+000 -2.7643e-001 -3.0395e+000
2120 0 +1.189449653e-002 -9.999881055e+002 -9.999881055e+002 -3.9879e+000 -1.3282e+000 -2.2151e+000 -2.7270e-001 -2.9444e+000
2978 0 +7.616430105e-003 -9.999923836e+002 -9.999923836e+002 -3.9305e+000 -1.4121e+000 -2.1882e+000 -2.7854e-001 -3.0729e+000
12470 0 +8.446477295e-009 -1.000000000e+003 -1.000000000e+003 -3.8795e+000 -1.3057e+000 -2.1717e+000 -2.9582e-001 -3.0545e+000
% f evaluations | g evaluations | best noise-free fitness - Fopt (1.640700000000e+002) + sum g_i+ | measured fitness | best measured fitness or single-digit g-values | x1 | x2...
1 0 +6.005188870e+002 +7.645888870e+002 +7.645888870e+002 +5.0000e+000 +5.0000e+000 -5.0000e+000 +5.0000e+000 +5.0000e+000
6 0 +1.916533871e+002 +3.557233871e+002 +3.557233871e+002 +5.0000e+000 +5.0000e+000 -5.0000e+000 +5.0000e+000 -5.0000e+000
10 0 +1.503909359e+002 +3.144609359e+002 +3.144609359e+002 +3.9753e+000 +5.0000e+000 -4.6260e+000 +5.0000e+000 -3.6014e+000
12 0 +7.353720143e+001 +2.376072014e+002 +2.376072014e+002 +1.2715e+000 +5.0000e+000 -5.0000e+000 +5.3852e-014 -1.4023e+000
15 0 +6.394611270e+001 +2.280161127e+002 +2.280161127e+002 +1.6550e+000 +5.0000e+000 -5.0000e+000 +2.6689e+000 -2.3219e+000
24 0 +4.440823775e+001 +2.084782378e+002 +2.084782378e+002 +2.0621e+000 +5.0000e+000 -5.0000e+000 +3.2194e+000 -7.0684e-001
36 0 +4.246423429e+001 +2.065342343e+002 +2.065342343e+002 +2.5328e+000 +5.0000e+000 -5.0000e+000 +3.1667e+000 -1.5775e+000
88 0 +2.864481546e+001 +1.927148155e+002 +1.927148155e+002 +2.0258e+000 +4.5396e+000 -4.7860e+000 +1.4909e+000 -2.7217e+000
155 0 +2.782307879e+001 +1.918930788e+002 +1.918930788e+002 +2.0185e+000 +4.5948e+000 -4.7822e+000 +1.4659e+000 -2.7384e+000
157 0 +2.333988691e+001 +1.874098869e+002 +1.874098869e+002 +2.4530e+000 +5.0000e+000 -4.0860e+000 +2.1761e+000 -2.2026e+000
170 0 +1.788238843e+001 +1.819523884e+002 +1.819523884e+002 -1.7887e+000 +4.5197e+000 -4.4872e+000 -1.5679e+000 -2.2276e+000
206 0 +1.731506075e+001 +1.813850608e+002 +1.813850608e+002 +6.4656e-001 +4.5221e+000 -4.1341e+000 +3.8898e-001 -1.5344e+000
242 0 +1.695579385e+001 +1.810257938e+002 +1.810257938e+002 +7.0514e-001 +4.4845e+000 -4.1402e+000 +4.7734e-001 -1.5017e+000
265 0 +1.622013546e+001 +1.802901355e+002 +1.802901355e+002 +8.6863e-001 +4.9045e+000 -4.0998e+000 +7.8360e-001 -1.9338e+000
288 0 +1.118577621e+001 +1.752557762e+002 +1.752557762e+002 -4.1655e-001 +4.7375e+000 -4.5747e+000 -6.3859e-001 -2.0437e+000
291 0 +9.880565640e+000 +1.739505656e+002 +1.739505656e+002 -5.8327e-001 +4.3464e+000 -4.1448e+000 -8.2450e-001 -1.8088e+000
313 0 +4.287983433e+000 +1.683579834e+002 +1.683579834e+002 -5.1277e-001 +4.9724e+000 -3.4288e+000 -1.3836e+000 -2.9341e+000
332 0 +4.146813032e+000 +1.682168130e+002 +1.682168130e+002 -1.8417e-001 +4.9791e+000 -3.4628e+000 -1.2033e+000 -2.8789e+000
375 0 +1.347419492e+000 +1.654174195e+002 +1.654174195e+002 -1.0938e+000 +4.8482e+000 -3.2731e+000 -2.0198e+000 -2.8491e+000
460 0 +1.003417903e+000 +1.650734179e+002 +1.650734179e+002 -1.7467e+000 +4.9296e+000 -3.1763e+000 -2.5804e+000 -2.5200e+000
703 0 +8.833874657e-001 +1.649533875e+002 +1.649533875e+002 -2.2000e+000 +4.8335e+000 -3.3936e+000 -3.0249e+000 -2.4326e+000
710 0 +7.296220473e-001 +1.647996220e+002 +1.647996220e+002 -2.0074e+000 +4.8622e+000 -3.3648e+000 -2.7710e+000 -2.3465e+000
782 0 +5.059329556e-001 +1.645759330e+002 +1.645759330e+002 -1.8581e+000 +4.7786e+000 -3.4795e+000 -2.5454e+000 -2.5553e+000
833 0 +3.661806524e-001 +1.644361807e+002 +1.644361807e+002 -1.8643e+000 +4.8582e+000 -3.3000e+000 -2.6191e+000 -2.5534e+000
860 0 +3.500296171e-001 +1.644200296e+002 +1.644200296e+002 -1.7467e+000 +4.8622e+000 -3.3962e+000 -2.5260e+000 -2.5852e+000
922 0 +3.139571049e-001 +1.643839571e+002 +1.643839571e+002 -1.9819e+000 +4.8604e+000 -3.3336e+000 -2.7147e+000 -2.5258e+000
941 0 +2.605314441e-001 +1.643305314e+002 +1.643305314e+002 -1.8904e+000 +4.8697e+000 -3.3881e+000 -2.6838e+000 -2.5668e+000
974 0 +2.461572213e-001 +1.643161572e+002 +1.643161572e+002 -1.8518e+000 +4.8689e+000 -3.3345e+000 -2.6863e+000 -2.5698e+000
3710 0 +1.241764213e-001 +1.641941764e+002 +1.641941764e+002 -1.9395e+000 +3.9351e+000 -2.6755e+000 -2.8839e+000 -2.4592e+000
3954 0 +8.796472207e-002 +1.641579647e+002 +1.641579647e+002 -2.2211e+000 +3.6936e+000 -2.4059e+000 -3.2412e+000 -2.3979e+000
4158 0 +6.826128344e-002 +1.641382613e+002 +1.641382613e+002 -2.0287e+000 +4.0698e+000 -2.7830e+000 -3.0007e+000 -2.4851e+000
4229 0 +5.944789830e-002 +1.641294479e+002 +1.641294479e+002 -2.2202e+000 +3.7255e+000 -2.4362e+000 -3.2427e+000 -2.4095e+000
4249 0 +1.652031990e-002 +1.640865203e+002 +1.640865203e+002 -2.0516e+000 +4.0589e+000 -2.7596e+000 -3.0224e+000 -2.4645e+000
4445 0 +1.347419492e-002 +1.640834742e+002 +1.640834742e+002 -2.0499e+000 +4.0361e+000 -2.7530e+000 -3.0239e+000 -2.4612e+000
4615 0 +2.641270953e-007 +1.640700003e+002 +1.640700003e+002 -2.1699e+000 +3.9438e+000 -2.6603e+000 -3.1450e+000 -2.4029e+000
4621 0 +1.007281867e-007 +1.640700001e+002 +1.640700001e+002 -2.1411e+000 +3.9492e+000 -2.6687e+000 -3.1421e+000 -2.4376e+000
4656 0 +1.802973770e-008 +1.640700000e+002 +1.640700000e+002 -2.1523e+000 +3.9530e+000 -2.6729e+000 -3.1538e+000 -2.4410e+000
4752 0 +1.269120276e-008 +1.640700000e+002 +1.640700000e+002 -2.1556e+000 +3.9362e+000 -2.6662e+000 -3.1510e+000 -2.4362e+000
5168 0 +1.078927880e-008 +1.640700000e+002 +1.640700000e+002 -2.1630e+000 +3.9302e+000 -2.6353e+000 -3.1243e+000 -2.4359e+000
5354 0 +7.508873523e-009 +1.640700000e+002 +1.640700000e+002 -2.1498e+000 +3.9691e+000 -2.6658e+000 -3.1408e+000 -2.4404e+000
% f evaluations | g evaluations | best noise-free fitness - Fopt (-1.656800000000e+002) + sum g_i+ | measured fitness | best measured fitness or single-digit g-values | x1 | x2...
1 0 +2.342561552e+003 +2.176881552e+003 +2.176881552e+003 +5.0000e+000 +5.0000e+000 +5.0000e+000 +5.0000e+000 +5.0000e+000
2 0 +1.477685424e+003 +1.312005424e+003 +1.312005424e+003 -5.0000e+000 +5.0000e+000 +5.0000e+000 +5.0000e+000 +5.0000e+000
4 0 +3.044450089e+002 +1.387650089e+002 +1.387650089e+002 +5.0000e+000 +5.0000e+000 -5.0000e+000 +5.0000e+000 +5.0000e+000
12 0 +2.674386180e+002 +1.017586180e+002 +1.017586180e+002 +1.0745e+000 +5.0000e+000 -5.2147e-001 -5.0000e+000 -6.5522e-017
13 0 +1.087827828e+002 -5.689721722e+001 -5.689721722e+001 +2.0798e-001 +5.0000e+000 +2.6613e-001 -3.5736e+000 +7.1322e-001
21 0 +8.970433843e+001 -7.597566157e+001 -7.597566157e+001 +1.0562e+000 +5.0000e+000 +8.2306e-001 +5.0000e+000 +2.7400e+000
24 0 +3.721249422e+001 -1.284675058e+002 -1.284675058e+002 +1.7933e+000 +5.0000e+000 +1.2980e+000 +5.0000e+000 +1.1752e+000
27 0 +3.346002410e+001 -1.322199759e+002 -1.322199759e+002 +1.8276e+000 +5.0000e+000 +1.4398e+000 +5.0000e+000 +1.2943e+000
30 0 +3.014283905e+001 -1.355371609e+002 -1.355371609e+002 +2.1412e+000 +3.8343e+000 +1.4565e+000 +4.5766e+000 +1.1836e+000
39 0 +2.038061126e+001 -1.452993887e+002 -1.452993887e+002 +1.7938e+000 +3.8603e+000 +1.4962e+000 +4.0254e+000 +1.2263e+000
42 0 +1.896728171e+001 -1.467127183e+002 -1.467127183e+002 +1.7804e+000 +4.4892e+000 +1.5290e+000 +4.3782e+000 +1.2466e+000
48 0 +1.849743352e+001 -1.471825665e+002 -1.471825665e+002 +1.8362e+000 +4.3312e+000 +1.4238e+000 +4.1775e+000 +1.2943e+000
91 0 +8.879451236e+000 -1.568005488e+002 -1.568005488e+002 +3.5180e-001 +4.5416e+000 +2.3798e+000 +2.4903e+000 +8.7943e-001
131 0 +7.015565367e+000 -1.586644346e+002 -1.586644346e+002 +1.0317e+000 +4.1980e+000 +1.7848e+000 +2.3297e+000 +1.1067e+000
427 0 +5.139303618e+000 -1.605406964e+002 -1.605406964e+002 +1.5671e-001 +3.8971e+000 +1.7812e+000 +2.0692e+000 +1.2825e+000
548 0 +3.655283939e+000 -1.620247161e+002 -1.620247161e+002 +4.3918e-001 +2.2990e+000 +2.1648e+000 +1.4515e+000 +1.0160e+000
623 0 +2.367788441e+000 -1.633122116e+002 -1.633122116e+002 -1.1834e-001 +1.5504e+000 +2.1274e+000 +2.0784e+000 +1.2977e+000
702 0 +2.042060526e+000 -1.636379395e+002 -1.636379395e+002 -2.0007e-001 +1.7049e+000 +2.1293e+000 +1.9768e+000 +1.2996e+000
705 0 +1.954063136e+000 -1.637259369e+002 -1.637259369e+002 +8.7792e-002 +2.0169e+000 +1.9416e+000 +1.8205e+000 +1.3876e+000
766 0 +1.877958512e+000 -1.638020415e+002 -1.638020415e+002 -4.5986e-001 +4.9519e-001 +2.1146e+000 +1.6628e+000 +1.6286e+000
769 0 +1.710160493e+000 -1.639698395e+002 -1.639698395e+002 -2.9120e-002 +9.5099e-001 +1.8314e+000 +1.5405e+000 +1.4136e+000
800 0 +1.054822508e+000 -1.646251775e+002 -1.646251775e+002 -4.8672e-001 -1.5970e-001 +1.9384e+000 +1.7666e+000 +1.6377e+000
801 0 +9.658265855e-001 -1.647141734e+002 -1.647141734e+002 -9.7474e-001 -7.6414e-002 +1.9024e+000 +1.9287e+000 +1.7222e+000
807 0 +4.561438147e-001 -1.652238562e+002 -1.652238562e+002 -6.1209e-001 +7.6734e-001 +1.9896e+000 +1.8932e+000 +1.5895e+000
866 0 +4.288528894e-001 -1.652511471e+002 -1.652511471e+002 -1.1217e+000 -1.1899e+000 +1.7352e+000 +1.8735e+000 +2.0014e+000
882 0 +3.611617526e-001 -1.653188382e+002 -1.653188382e+002 -1.1107e+000 -1.2043e+000 +1.6705e+000 +1.8467e+000 +1.9893e+000
941 0 +2.800868276e-001 -1.653999132e+002 -1.653999132e+002 -8.9690e-001 -7.3457e-001 +1.6977e+000 +1.7891e+000 +1.8793e+000
1416 0 +7.895636853e-002 -1.656010436e+002 -1.656010436e+002 -1.0770e+000 -8.1874e-001 +1.6986e+000 +1.8168e+000 +1.9636e+000
1632 0 +7.087029387e-002 -1.656091297e+002 -1.656091297e+002 -9.9900e-001 -5.0442e-001 +1.4986e+000 +1.8994e+000 +2.0228e+000
1686 0 +6.930704724e-002 -1.656106930e+002 -1.656106930e+002 -8.9742e-001 -4.3715e-001 +1.5757e+000 +1.8673e+000 +1.9583e+000
1697 0 +7.874477096e-003 -1.656721255e+002 -1.656721255e+002 -1.0375e+000 -4.5687e-001 +1.6180e+000 +1.7939e+000 +1.9780e+000
1896 0 +5.054401325e-003 -1.656749456e+002 -1.656749456e+002 -1.1106e+000 -5.0022e-001 +1.5586e+000 +1.7960e+000 +1.9958e+000
1961 0 +4.377689573e-003 -1.656756223e+002 -1.656756223e+002 -1.0380e+000 -4.2340e-001 +1.5910e+000 +1.7982e+000 +1.9689e+000
2011 0 +4.418810136e-007 -1.656799996e+002 -1.656799996e+002 -1.0311e+000 -4.8945e-001 +1.5836e+000 +1.8089e+000 +1.9777e+000
2017 0 +4.236859183e-007 -1.656799996e+002 -1.656799996e+002 -1.0299e+000 -4.8529e-001 +1.5833e+000 +1.8106e+000 +1.9780e+000
2033 0 +2.597207072e-007 -1.656799997e+002 -1.656799997e+002 -1.0319e+000 -4.6199e-001 +1.5805e+000 +1.8264e+000 +1.9781e+000
2119 0 +6.996165780e-008 -1.656799999e+002 -1.656799999e+002 -1.0223e+000 -4.4001e-001 +1.5580e+000 +1.8473e+000 +1.9884e+000
2250 0 +6.545590736e-008 -1.656799999e+002 -1.656799999e+002 -1.0620e+000 -4.6584e-001 +1.5567e+000 +1.8259e+000 +1.9959e+000
2326 0 +2.485316486e-008 -1.656800000e+002 -1.656800000e+002 -1.0525e+000 -4.5743e-001 +1.5592e+000 +1.8243e+000 +1.9916e+000
2345 0 +2.628638640e-009 -1.656800000e+002 -1.656800000e+002 -1.0497e+000 -4.5857e-001 +1.5591e+000 +1.8178e+000 +1.9923e+000
% f evaluations | g evaluations | best noise-free fitness - Fopt (9.284000000000e+001) + sum g_i+ | measured fitness | best measured fitness or single-digit g-values | x1 | x2...
1 0 +8.082099578e+003 +8.174939578e+003 +8.174939578e+003 -5.0000e+000 +5.0000e+000 +5.0000e+000 +5.0000e+000 -5.0000e+000
2 0 +1.548709732e+003 +1.641549732e+003 +1.641549732e+003 +5.0000e+000 +5.0000e+000 +5.0000e+000 +5.0000e+000 -5.0000e+000
9 0 +4.920152340e+002 +5.848552340e+002 +5.848552340e+002 +5.0000e+000 +1.2096e+000 +5.0000e+000 +1.2096e+000 -1.2096e+000
11 0 +2.903106552e+002 +3.831506552e+002 +3.831506552e+002 +3.3249e+000 +4.2936e-001 +4.7772e+000 +1.2540e+000 -1.6657e+000
35 0 +2.534719219e+002 +3.463119219e+002 +3.463119219e+002 +3.3322e+000 +2.9863e-002 +4.8438e+000 +1.1763e+000 -1.3891e+000
47 0 +2.187200207e+002 +3.115600207e+002 +3.115600207e+002 +2.8596e+000 -7.7362e-002 +1.8679e-001 +3.7104e+000 +3.5737e+000
63 0 +1.849876086e+002 +2.778276086e+002 +2.778276086e+002 +1.9740e+000 -9.7930e-001 -3.3694e-001 +4.8898e+000 +1.8000e+000
78 0 +3.777372973e+001 +1.306137297e+002 +1.306137297e+002 +2.3224e+000 -5.6722e-001 -5.0000e+000 +1.4378e+000 +2.4763e-001
128 0 +3.627250133e+001 +1.291125013e+002 +1.291125013e+002 +2.7841e+000 -6.0442e-001 -2.4723e+000 +2.0878e+000 +4.7939e-001
163 0 +1.230415208e+001 +1.051441521e+002 +1.051441521e+002 +1.6635e+000 -8.8316e-001 -3.0319e+000 +9.5163e-001 +1.0073e+000
218 0 +1.105887185e+001 +1.038988719e+002 +1.038988719e+002 +2.5507e+000 -1.2826e+000 -3.0991e+000 +1.6563e-001 -3.2335e-001
291 0 +5.179623276e+000 +9.801962328e+001 +9.801962328e+001 +2.8100e+000 -2.0534e+000 -2.3231e+000 +1.1543e+000 -3.4291e-001
317 0 +3.404835295e+000 +9.624483530e+001 +9.624483530e+001 +1.9649e+000 -1.4810e+000 -3.4504e+000 -2.9538e-002 -1.4343e-002
327 0 +2.048756901e+000 +9.488875690e+001 +9.488875690e+001 +2.1486e+000 -1.4127e+000 -4.2928e+000 -6.1537e-002 -2.6246e-001
372 0 +1.260153325e+000 +9.410015332e+001 +9.410015332e+001 +2.3875e+000 -1.5660e+000 -4.5448e+000 +7.6450e-002 -3.3250e-001
544 0 +9.194231884e-001 +9.375942319e+001 +9.375942319e+001 +2.1566e+000 -1.3206e+000 -4.8548e+000 +5.5042e-001 +3.0259e-001
959 0 +7.304794291e-001 +9.357047943e+001 +9.357047943e+001 +2.0207e+000 -1.2276e+000 -4.7720e+000 +5.7533e-001 +3.5747e-001
989 0 +6.283432948e-001 +9.346834329e+001 +9.346834329e+001 +1.9439e+000 -1.2291e+000 -4.7789e+000 +5.6469e-001 +4.1520e-001
1157 0 +9.740306478e-002 +9.293740306e+001 +9.293740306e+001 +1.8973e+000 -1.9518e+000 -3.8587e+000 +9.3993e-001 +6.3609e-001
1408 0 +7.659936996e-002 +9.291659937e+001 +9.291659937e+001 +1.9210e+000 -1.9266e+000 -3.6606e+000 +8.4117e-001 +4.6377e-001
1430 0 +4.199530855e-002 +9.288199531e+001 +9.288199531e+001 +1.9150e+000 -2.0505e+000 -3.4831e+000 +8.8024e-001 +4.7818e-001
1442 0 +3.561426581e-002 +9.287561427e+001 +9.287561427e+001 +1.9357e+000 -1.9571e+000 -3.6203e+000 +8.3443e-001 +4.4424e-001
1564 0 +1.596941956e-002 +9.285596942e+001 +9.285596942e+001 +1.9311e+000 -2.0044e+000 -3.5361e+000 +8.4918e-001 +4.2693e-001
2118 0 +7.959411135e-003 +9.284795941e+001 +9.284795941e+001 +1.9565e+000 -2.0460e+000 -3.6064e+000 +8.3508e-001 +4.1275e-001
2604 0 +3.607254797e-007 +9.284000036e+001 +9.284000036e+001 +1.9885e+000 -2.0655e+000 -3.5381e+000 +8.1838e-001 +3.3923e-001
2613 0 +5.979298123e-008 +9.284000006e+001 +9.284000006e+001 +1.9852e+000 -2.0430e+000 -3.5574e+000 +8.1761e-001 +3.4643e-001
2656 0 +3.178006125e-008 +9.284000003e+001 +9.284000003e+001 +1.9764e+000 -2.0582e+000 -3.5762e+000 +8.2218e-001 +3.6657e-001
2771 0 +2.050926184e-008 +9.284000002e+001 +9.284000002e+001 +1.9787e+000 -2.0597e+000 -3.5765e+000 +8.2289e-001 +3.6482e-001
2950 0 +2.449482395e-009 +9.284000000e+001 +9.284000000e+001 +1.9608e+000 -2.0613e+000 -3.5759e+000 +8.2433e-001 +3.6286e-001
% f evaluations | g evaluations | best noise-free fitness - Fopt (-3.679200000000e+002) + sum g_i+ | measured fitness | best measured fitness or single-digit g-values | x1 | x2...
1 0 +1.313777172e+003 +9.458571718e+002 +9.458571718e+002 +5.0000e+000 -5.0000e+000 -5.0000e+000 -5.0000e+000 -5.0000e+000
3 0 +1.080277373e+003 +7.123573731e+002 +7.123573731e+002 +5.0000e+000 +5.0000e+000 -5.0000e+000 -5.0000e+000 -5.0000e+000
5 0 +7.778346152e+002 +4.099146152e+002 +4.099146152e+002 +5.0000e+000 -5.0000e+000 -5.0000e+000 +5.0000e+000 -5.0000e+000
8 0 +7.758120327e+002 +4.078920327e+002 +4.078920327e+002 +5.0000e+000 -5.0000e+000 -4.6101e+000 +4.6101e+000 -5.0000e+000
9 0 +4.916621916e+002 +1.237421916e+002 +1.237421916e+002 +5.0000e+000 -5.0000e+000 -4.7287e+000 +1.6869e+000 -1.9582e+000
12 0 +3.403640358e+002 -2.755596423e+001 -2.755596423e+001 +5.0000e+000 +2.5547e-016 -8.1475e-017 -5.0000e+000 -1.7813e-016
14 0 +1.000073040e+002 -2.679126960e+002 -2.679126960e+002 +4.4913e+000 +6.7770e-001 +8.0956e-001 -3.3248e+000 -1.3185e-001
31 0 +5.504403214e+001 -3.128759679e+002 -3.128759679e+002 +4.2519e+000 -1.2220e-001 +1.3224e+000 -2.4059e+000 +5.1831e-001
73 0 +2.480962722e+001 -3.431103728e+002 -3.431103728e+002 +3.8629e+000 -2.2450e-001 +6.7981e-001 -1.2850e+000 +9.6722e-001
80 0 +1.868841938e+001 -3.492315806e+002 -3.492315806e+002 +3.8738e+000 -3.6786e-001 +6.7042e-001 -1.1178e+000 +9.4026e-001
114 0 +1.722584507e+001 -3.506941549e+002 -3.506941549e+002 +3.0863e+000 +6.7770e-001 +1.9403e+000 -5.8861e-001 +2.7872e+000
123 0 +1.338275803e+001 -3.545372420e+002 -3.545372420e+002 +4.7764e+000 +2.9631e-001 +1.3448e+000 -7.0264e-001 +1.6732e+000
231 0 +1.069626642e+001 -3.572237336e+002 -3.572237336e+002 +3.5787e+000 +2.9052e-001 +1.5093e+000 -9.0317e-001 +1.3603e+000
246 0 +8.737146039e+000 -3.591828540e+002 -3.591828540e+002 +3.2212e+000 -3.8168e-001 +4.8418e-001 -6.9301e-001 +2.5145e+000
251 0 +8.515346709e+000 -3.594046533e+002 -3.594046533e+002 +3.2798e+000 -4.7401e-001 +2.6141e-001 -6.2331e-001 +2.7194e+000
273 0 +6.565806821e+000 -3.613541932e+002 -3.613541932e+002 +2.8770e+000 -4.7105e-001 +7.2196e-001 -2.3997e-001 +2.0484e+000
293 0 +5.094900703e+000 -3.628250993e+002 -3.628250993e+002 +2.7144e+000 -4.7976e-001 +3.4799e-001 -3.5495e-001 +2.3297e+000
382 0 +3.889045115e+000 -3.640309549e+002 -3.640309549e+002 +1.7803e+000 -6.4093e-001 +7.3897e-001 +4.9384e-001 +3.0238e+000
395 0 +2.866771624e+000 -3.650532284e+002 -3.650532284e+002 +2.0611e+000 -4.9303e-001 +7.7644e-001 +1.8436e-001 +2.9689e+000
450 0 +2.038355803e+000 -3.658816442e+002 -3.658816442e+002 +2.4399e+000 -4.8513e-001 +6.3906e-001 +3.1454e-001 +2.4393e+000
575 0 +1.911328639e+000 -3.660086714e+002 -3.660086714e+002 +2.1566e+000 -5.5315e-001 +1.5645e+000 +4.9294e-001 +1.5201e+000
686 0 +9.037935812e-001 -3.670162064e+002 -3.670162064e+002 +8.3604e-001 -7.8870e-001 +2.5949e+000 +9.5240e-001 +3.3788e-001
742 0 +8.004012057e-001 -3.671195988e+002 -3.671195988e+002 +1.6348e+000 -5.4809e-001 +1.3428e+000 +3.5777e-001 +1.9996e+000
763 0 +7.430024803e-001 -3.671769975e+002 -3.671769975e+002 +1.8753e+000 -4.8360e-001 +1.4706e+000 +3.5948e-001 +1.9465e+000
836 0 +5.406409316e-001 -3.673793591e+002 -3.673793591e+002 +9.1947e-001 -6.7681e-001 +2.8593e+000 +8.1652e-001 +7.5361e-001
892 0 +3.423947726e-001 -3.675776052e+002 -3.675776052e+002 +1.0741e+000 -6.2288e-001 +2.1333e+000 +6.5293e-001 +1.1406e+000
1041 0 +1.279816500e-001 -3.677920184e+002 -3.677920184e+002 +7.0883e-001 -8.1395e-001 +2.4478e+000 +8.3075e-001 +7.4155e-001
1170 0 +9.347954991e-002 -3.678265205e+002 -3.678265205e+002 +5.7396e-001 -8.2564e-001 +2.5947e+000 +8.6337e-001 +6.0945e-001
1181 0 +9.111977237e-002 -3.678288802e+002 -3.678288802e+002 +1.0261e+000 -7.6303e-001 +2.2754e+000 +7.7565e-001 +9.5123e-001
1241 0 +6.917899349e-002 -3.678508210e+002 -3.678508210e+002 +9.0744e-001 -7.9161e-001 +2.3780e+000 +8.1049e-001 +8.6502e-001
1274 0 +3.231337992e-002 -3.678876866e+002 -3.678876866e+002 +9.2913e-001 -7.4123e-001 +2.3363e+000 +7.6179e-001 +9.1922e-001
1455 0 +2.402329031e-002 -3.678959767e+002 -3.678959767e+002 +8.8613e-001 -7.6960e-001 +2.3237e+000 +7.5495e-001 +7.9098e-001
1543 0 +9.192882909e-003 -3.679108071e+002 -3.679108071e+002 +8.6918e-001 -7.6955e-001 +2.3504e+000 +7.6927e-001 +7.6278e-001
1843 0 +2.921028113e-007 -3.679199997e+002 -3.679199997e+002 +8.5982e-001 -7.6920e-001 +2.3734e+000 +7.7254e-001 +7.6278e-001
1893 0 +1.753736569e-007 -3.679199998e+002 -3.679199998e+002 +8.5235e-001 -7.6876e-001 +2.3950e+000 +7.7395e-001 +7.6628e-001
1969 0 +1.718889280e-007 -3.679199998e+002 -3.679199998e+002 +8.4816e-001 -7.7216e-001 +2.3886e+000 +7.7660e-001 +7.5687e-001
2117 0 +1.338133870e-007 -3.679199999e+002 -3.679199999e+002 +8.4385e-001 -7.7246e-001 +2.3845e+000 +7.7014e-001 +7.4204e-001
2171 0 +1.027330541e-007 -3.679199999e+002 -3.679199999e+002 +8.3093e-001 -7.8177e-001 +2.3949e+000 +7.8682e-001 +7.4722e-001
2214 0 +2.103888619e-009 -3.679200000e+002 -3.679200000e+002 +8.4252e-001 -7.7324e-001 +2.4001e+000 +7.7696e-001 +7.4003e-001
% f evaluations | g evaluations | best noise-free fitness - Fopt (4.950000000000e+001) + sum g_i+ | measured fitness | best measured fitness or single-digit g-values | x1 | x2...
1 0 +8.512394343e+002 +9.007394343e+002 +9.007394343e+002 +5.0000e+000 -5.0000e+000 +5.0000e+000 +5.0000e+000 +5.0000e+000
6 0 +3.770918396e+002 +4.265918396e+002 +4.265918396e+002 +5.0000e+000 -5.0000e+000 +5.0000e+000 +5.0000e+000 -5.0000e+000
12 0 +1.040256544e+002 +1.535256544e+002 +1.535256544e+002 +2.8651e-015 -5.0000e+000 +6.0717e-015 +5.0000e+000 -1.5239e+000
18 0 +6.340964091e+001 +1.129096409e+002 +1.129096409e+002 +2.5548e+000 -4.1442e+000 +1.7631e+000 -5.0000e+000 -5.0000e+000
74 0 +6.199031721e+001 +1.114903172e+002 +1.114903172e+002 +1.3299e+000 -4.1442e+000 -4.5770e-002 -3.5809e+000 -3.9610e+000
92 0 +4.896631974e+001 +9.846631974e+001 +9.846631974e+001 +6.2478e-001 -5.0000e+000 +1.8233e+000 +1.4388e+000 -2.1237e+000
120 0 +3.828539746e+001 +8.778539746e+001 +8.778539746e+001 +1.9405e-001 -4.8785e+000 +1.0261e+000 -8.4612e-001 -3.4065e+000
169 0 +2.427297010e+001 +7.377297010e+001 +7.377297010e+001 +8.7561e-001 -4.6596e+000 +8.5208e-001 -2.0180e+000 -3.1213e+000
230 0 +2.078228724e+001 +7.028228724e+001 +7.028228724e+001 -1.4884e+000 -3.8726e+000 -5.7607e-001 -2.0591e+000 -6.1808e-001
293 0 +1.674121031e+001 +6.624121031e+001 +6.624121031e+001 +1.0810e+000 -4.9990e+000 +8.2098e-001 -3.1611e+000 -2.7969e+000
330 0 +1.295019111e+001 +6.245019111e+001 +6.245019111e+001 -1.2945e+000 -4.6079e+000 -1.0932e+000 -1.8985e+000 -3.9133e-001
357 0 +9.054906000e+000 +5.855490600e+001 +5.855490600e+001 -5.8078e-001 -4.6714e+000 -3.1309e-001 -1.2950e+000 -8.6918e-001
430 0 +7.775475020e+000 +5.727547502e+001 +5.727547502e+001 -1.0490e+000 -4.7232e+000 -8.2406e-001 -1.4121e+000 -3.3721e-001
431 0 +5.483356760e+000 +5.498335676e+001 +5.498335676e+001 -1.6613e+000 -4.0273e+000 -1.6030e+000 -1.5770e+000 -7.0034e-001
434 0 +5.187255026e+000 +5.468725503e+001 +5.468725503e+001 -1.1657e+000 -3.9459e+000 -1.2779e+000 -1.7748e+000 -9.9180e-001
498 0 +3.619389225e+000 +5.311938922e+001 +5.311938922e+001 -5.8394e-001 -3.7142e+000 -1.0276e+000 -3.6508e+000 -1.6927e+000
800 0 +3.328751450e+000 +5.282875145e+001 +5.282875145e+001 -1.6760e+000 -3.2937e+000 -1.8399e+000 -3.2928e+000 -1.0886e+000
887 0 +2.734334262e+000 +5.223433426e+001 +5.223433426e+001 -1.8337e+000 -2.8496e+000 -1.7940e+000 -2.4698e+000 -1.1286e+000
899 0 +2.015886788e+000 +5.151588679e+001 +5.151588679e+001 -2.2189e+000 -2.8544e+000 -1.9856e+000 -2.3983e+000 -8.1805e-001
1069 0 +1.877623549e+000 +5.137762355e+001 +5.137762355e+001 -1.7117e+000 -2.7106e+000 -1.7642e+000 -3.3666e+000 -1.1999e+000
1160 0 +1.741924081e+000 +5.124192408e+001 +5.124192408e+001 -1.9944e+000 -2.7158e+000 -1.8122e+000 -2.0390e+000 -7.0206e-001
1164 0 +1.225636772e+000 +5.072563677e+001 +5.072563677e+001 -2.0100e+000 -2.8264e+000 -1.8127e+000 -1.8303e+000 -5.8820e-001
1389 0 +9.099991226e-001 +5.040999912e+001 +5.040999912e+001 -1.9877e+000 -2.4056e+000 -2.0018e+000 -2.2474e+000 -1.0131e+000
1444 0 +6.751703824e-001 +5.017517038e+001 +5.017517038e+001 -2.1926e+000 -2.2102e+000 -2.1717e+000 -2.1383e+000 -8.0644e-001
1449 0 +5.290765448e-001 +5.002907654e+001 +5.002907654e+001 -2.1447e+000 -2.3096e+000 -2.1280e+000 -2.1913e+000 -8.4733e-001
1565 0 +4.702012957e-001 +4.997020130e+001 +4.997020130e+001 -2.1228e+000 -2.3351e+000 -2.0941e+000 -2.1690e+000 -8.3672e-001
1588 0 +2.849186236e-001 +4.978491862e+001 +4.978491862e+001 -2.8031e+000 -1.7226e+000 -2.3921e+000 -1.4788e+000 -6.0821e-001
1667 0 +7.305587887e-002 +4.957305588e+001 +4.957305588e+001 -2.7167e+000 -1.6357e+000 -2.3679e+000 -1.4392e+000 -6.6399e-001
2137 0 +3.254710735e-002 +4.953254711e+001 +4.953254711e+001 -2.8630e+000 -1.4269e+000 -2.3601e+000 -1.1137e+000 -6.0549e-001
2189 0 +3.183744723e-002 +4.953183745e+001 +4.953183745e+001 -2.8542e+000 -1.4877e+000 -2.3599e+000 -1.1295e+000 -5.7960e-001
2279 0 +2.200981979e-002 +4.952200982e+001 +4.952200982e+001 -2.7609e+000 -1.5565e+000 -2.3129e+000 -1.2581e+000 -6.5495e-001
2507 0 +1.519144337e-002 +4.951519144e+001 +4.951519144e+001 -2.8134e+000 -1.5110e+000 -2.3242e+000 -1.1942e+000 -6.3928e-001
2829 0 +1.042214284e-002 +4.951042214e+001 +4.951042214e+001 -2.9115e+000 -1.4494e+000 -2.4154e+000 -1.1186e+000 -6.0217e-001
3528 0 +4.276679348e-007 +4.950000043e+001 +4.950000043e+001 -2.8750e+000 -1.5174e+000 -2.3827e+000 -1.1344e+000 -6.4621e-001
3530 0 +3.588630122e-007 +4.950000036e+001 +4.950000036e+001 -2.8756e+000 -1.5187e+000 -2.3850e+000 -1.1225e+000 -6.5183e-001
3755 0 +2.926094211e-007 +4.950000029e+001 +4.950000029e+001 -2.8655e+000 -1.5159e+000 -2.3773e+000 -1.1160e+000 -6.4936e-001
3823 0 +2.736687037e-007 +4.950000027e+001 +4.950000027e+001 -2.8604e+000 -1.5198e+000 -2.3727e+000 -1.1131e+000 -6.4902e-001
3835 0 +3.253195757e-008 +4.950000003e+001 +4.950000003e+001 -2.8724e+000 -1.5123e+000 -2.3822e+000 -1.0945e+000 -6.3541e-001
4184 0 +1.980570374e-008 +4.950000002e+001 +4.950000002e+001 -2.8702e+000 -1.5104e+000 -2.3837e+000 -1.0964e+000 -6.2163e-001
4185 0 +3.474717403e-009 +4.950000000e+001 +4.950000000e+001 -2.8712e+000 -1.5149e+000 -2.3820e+000 -1.0936e+000 -6.2880e-001
% f evaluations | g evaluations | best noise-free fitness - Fopt (-1.277000000000e+001) + sum g_i+ | measured fitness | best measured fitness or single-digit g-values | x1 | x2...
1 0 +5.761470127e+002 +5.633770127e+002 +5.633770127e+002 -5.0000e+000 -5.0000e+000 -5.0000e+000 -5.0000e+000 +5.0000e+000
4 0 +1.814847841e+002 +1.687147841e+002 +1.687147841e+002 -5.0000e+000 -5.0000e+000 +5.0000e+000 -5.0000e+000 +5.0000e+000
12 0 +5.297398974e+001 +4.020398974e+001 +4.020398974e+001 -2.3048e+000 -8.1934e-001 +5.0000e+000 -5.0000e+000 +3.3520e+000
18 0 +2.922302855e+001 +1.645302855e+001 +1.645302855e+001 -2.3490e+000 -1.0597e+000 +5.0000e+000 -5.0000e+000 +5.0000e+000
34 0 +2.811504511e+001 +1.534504511e+001 +1.534504511e+001 -1.2020e+000 -1.0539e+000 +2.8582e+000 -3.2339e+000 +4.2916e+000
46 0 +2.052271467e+001 +7.752714666e+000 +7.752714666e+000 -2.0743e+000 +3.6135e-001 +2.3098e+000 -4.2771e+000 +4.3593e+000
126 0 +2.016680038e+001 +7.396800376e+000 +7.396800376e+000 -1.6773e+000 +3.0474e-001 +3.5412e+000 -4.8951e+000 +4.7330e+000
135 0 +1.801689342e+001 +5.246893423e+000 +5.246893423e+000 -2.2708e+000 -4.6316e-001 +3.3900e+000 -4.1546e+000 +4.2550e+000
138 0 +1.597348445e+001 +3.203484449e+000 +3.203484449e+000 -2.4589e+000 -6.5700e-001 +4.9570e+000 -3.8189e+000 +4.4697e+000
142 0 +1.483390219e+001 +2.063902191e+000 +2.063902191e+000 -2.4581e+000 -6.8278e-001 +4.9889e+000 -3.5743e+000 +4.8655e+000
143 0 +1.170905252e+001 -1.060947480e+000 -1.060947480e+000 -1.3765e+000 -1.1045e+000 +4.5658e+000 -1.7124e+000 +4.7131e+000
183 0 +9.624538391e+000 -3.145461609e+000 -3.145461609e+000 -1.3689e+000 -2.1904e-001 +2.9781e+000 -3.3458e+000 +3.8832e+000
253 0 +9.399127959e+000 -3.370872041e+000 -3.370872041e+000 -1.2819e+000 -5.0526e-002 +4.5922e+000 -2.9208e+000 +4.2055e+000
267 0 +7.976563416e+000 -4.793436584e+000 -4.793436584e+000 -1.4156e+000 -3.6669e-001 +4.2270e+000 -2.1203e+000 +4.0768e+000
317 0 +7.031417698e+000 -5.738582302e+000 -5.738582302e+000 -1.1472e+000 -1.9736e-001 +3.8989e+000 -1.6447e+000 +3.8213e+000
329 0 +5.084828361e+000 -7.685171639e+000 -7.685171639e+000 -8.4816e-001 +4.1736e-001 +2.3306e+000 -1.3090e+000 +3.9761e+000
389 0 +4.810535798e+000 -7.959464202e+000 -7.959464202e+000 -5.6772e-001 +5.6787e-001 +2.0979e+000 -1.2056e+000 +3.8004e+000
420 0 +3.672555975e+000 -9.097444025e+000 -9.097444025e+000 -4.0816e-001 +5.1537e-001 +2.5789e+000 -1.2478e+000 +3.9423e+000
500 0 +3.505228427e+000 -9.264771573e+000 -9.264771573e+000 -3.8962e-001 +4.9208e-001 +2.6642e+000 -1.2046e+000 +3.9169e+000
510 0 +3.196653115e+000 -9.573346885e+000 -9.573346885e+000 -4.5886e-001 +2.8354e-001 +2.9129e+000 -1.2239e+000 +3.9855e+000
520 0 +3.027297006e+000 -9.742702994e+000 -9.742702994e+000 -5.9729e-001 +3.1335e-001 +3.2117e+000 -5.1494e-001 +3.8045e+000
521 0 +2.938066634e+000 -9.831933366e+000 -9.831933366e+000 -6.2041e-001 +4.1570e-001 +2.9365e+000 -1.3660e+000 +4.0256e+000
610 0 +2.698026660e+000 -1.007197334e+001 -1.007197334e+001 -4.9627e-001 +3.8669e-001 +2.8648e+000 -1.2348e+000 +3.9809e+000
648 0 +2.678077502e+000 -1.009192250e+001 -1.009192250e+001 -4.7377e-001 +3.8648e-001 +2.9273e+000 -1.2590e+000 +3.9605e+000
698 0 +2.467586219e+000 -1.030241378e+001 -1.030241378e+001 +3.0301e-002 +8.5900e-001 +1.9097e+000 -7.7700e-001 +3.6073e+000
883 0 +1.985976336e+000 -1.078402366e+001 -1.078402366e+001 -6.3785e-002 +7.6705e-001 +2.3948e+000 -7.0868e-001 +3.7124e+000
911 0 +1.746406859e+000 -1.102359314e+001 -1.102359314e+001 -1.5361e-001 +8.3153e-001 +2.4714e+000 -8.2961e-001 +3.6220e+000
941 0 +1.663361087e+000 -1.110663891e+001 -1.110663891e+001 -1.6626e-001 +8.2424e-001 +2.4995e+000 -8.4586e-001 +3.6299e+000
1008 0 +1.542813558e+000 -1.122718644e+001 -1.122718644e+001 +7.7816e-001 +1.5769e+000 +1.3534e+000 -6.0676e-001 +2.5492e+000
1020 0 +1.138835055e+000 -1.163116494e+001 -1.163116494e+001 +4.4063e-001 +1.2433e+000 +2.0337e+000 -4.7979e-001 +3.0481e+000
1022 0 +7.816515573e-001 -1.198834844e+001 -1.198834844e+001 +9.4302e-001 +1.4976e+000 +2.1779e+000 -3.0838e-002 +2.6527e+000
1064 0 +5.962501976e-001 -1.217374980e+001 -1.217374980e+001 +9.5630e-001 +1.5377e+000 +2.0371e+000 +8.8207e-002 +2.5831e+000
1132 0 +4.949777420e-001 -1.227502226e+001 -1.227502226e+001 +1.8555e+000 +2.2956e+000 +1.2207e+000 +1.1601e+000 +1.8716e+000
1256 0 +3.886561468e-001 -1.238134385e+001 -1.238134385e+001 +1.8825e+000 +2.2978e+000 +1.2442e+000 +1.1316e+000 +1.8255e+000
1330 0 +2.697269706e-001 -1.250027303e+001 -1.250027303e+001 +1.2564e+000 +1.8484e+000 +2.2001e+000 +5.7171e-001 +2.3915e+000
1357 0 +2.167469424e-001 -1.255325306e+001 -1.255325306e+001 +1.2172e+000 +1.8193e+000 +2.1933e+000 +5.3947e-001 +2.4457e+000
1416 0 +1.365746318e-001 -1.263342537e+001 -1.263342537e+001 +1.4827e+000 +1.9246e+000 +1.7889e+000 +9.1582e-001 +2.2628e+000
1418 0 +9.274131736e-002 -1.267725868e+001 -1.267725868e+001 +1.3610e+000 +1.8302e+000 +1.9532e+000 +7.4709e-001 +2.3710e+000
1476 0 +5.473992325e-002 -1.271526008e+001 -1.271526008e+001 +1.5363e+000 +2.0275e+000 +1.7026e+000 +7.8790e-001 +2.1822e+000
1576 0 +3.911578304e-002 -1.273088422e+001 -1.273088422e+001 +1.4665e+000 +1.9860e+000 +1.7189e+000 +7.1800e-001 +2.2440e+000
1711 0 +2.952141935e-002 -1.274047858e+001 -1.274047858e+001 +1.4952e+000 +2.0045e+000 +1.6728e+000 +7.1020e-001 +2.2479e+000
2013 0 +2.690614044e-002 -1.274309386e+001 -1.274309386e+001 +1.3417e+000 +1.9330e+000 +1.7249e+000 +4.6526e-001 +2.3347e+000
2065 0 +1.723713191e-002 -1.275276287e+001 -1.275276287e+001 +1.4501e+000 +1.9613e+000 +1.7224e+000 +6.8954e-001 +2.2844e+000
2109 0 +2.557885797e-007 -1.276999974e+001 -1.276999974e+001 +1.3154e+000 +1.8749e+000 +1.8059e+000 +5.0846e-001 +2.3650e+000
2410 0 +2.337266913e-008 -1.276999998e+001 -1.276999998e+001 +1.3260e+000 +1.8913e+000 +1.7792e+000 +5.0774e-001 +2.3511e+000
2610 0 +1.937500826e-009 -1.277000000e+001 -1.277000000e+001 +1.3276e+000 +1.8934e+000 +1.7779e+000 +5.0825e-001 +2.3496e+000
% f evaluations | g evaluations | best noise-free fitness - Fopt (6.365000000000e+001) + sum g_i+ | measured fitness | best measured fitness or single-digit g-values | x1 | x2...
1 0 +7.297470736e+001 +1.366247074e+002 +1.366247074e+002 -5.0000e+000 +5.0000e+000 -5.0000e+000 -5.0000e+000 +5.0000e+000
7 0 +3.080923507e+001 +9.445923507e+001 +9.445923507e+001 -5.0000e+000 +5.0000e+000 +2.3829e+000 -5.0000e+000 +5.0000e+000
14 0 +2.671210597e+001 +9.036210597e+001 +9.036210597e+001 -3.8251e+000 +4.2895e+000 +1.2231e+000 -3.8655e+000 +3.9264e+000
30 0 +2.608882614e+001 +8.973882614e+001 +8.973882614e+001 -3.8414e+000 +5.0000e+000 +1.4073e+000 -3.5216e+000 +4.0962e+000
38 0 +2.559009518e+001 +8.924009518e+001 +8.924009518e+001 -4.1603e+000 +4.8708e+000 +7.6975e-001 -3.9050e+000 +4.0182e+000
42 0 +1.416105870e+001 +7.781105870e+001 +7.781105870e+001 -3.7606e+000 +3.9637e+000 -1.1278e+000 -3.6738e+000 +4.0478e+000
57 0 +1.290871762e+001 +7.655871762e+001 +7.655871762e+001 -4.6386e+000 +4.5810e+000 +1.5220e+000 -3.9199e+000 +4.6342e+000
59 0 +9.764146310e+000 +7.341414631e+001 +7.341414631e+001 -3.8997e+000 +3.8875e+000 +1.5034e+000 -3.1506e+000 +4.1041e+000
102 0 +8.713526308e+000 +7.236352631e+001 +7.236352631e+001 -4.1267e+000 +3.1714e+000 -2.2812e-001 -3.1920e+000 +4.8061e+000
132 0 +8.273548811e+000 +7.192354881e+001 +7.192354881e+001 -3.9458e+000 +3.8961e+000 +9.4901e-001 -2.5081e+000 +4.1005e+000
147 0 +4.462473926e+000 +6.811247393e+001 +6.811247393e+001 -3.9873e+000 +2.4606e+000 -1.0381e+000 -3.5150e+000 +3.8427e+000
220 0 +3.078950735e+000 +6.672895073e+001 +6.672895073e+001 -4.0412e+000 +3.0301e+000 -6.1985e-001 -3.6898e+000 +4.0493e+000
630 0 +2.699044984e+000 +6.634904498e+001 +6.634904498e+001 -3.9567e+000 +3.2304e+000 +7.5101e-001 -2.9693e+000 +4.2717e+000
682 0 +2.585882785e+000 +6.623588279e+001 +6.623588279e+001 -3.6588e+000 +3.1739e+000 +1.1123e+000 -2.7090e+000 +4.2537e+000
724 0 +2.502993437e+000 +6.615299344e+001 +6.615299344e+001 -3.6571e+000 +3.1623e+000 +1.1171e+000 -2.7122e+000 +4.2329e+000
784 0 +1.428516373e+000 +6.507851637e+001 +6.507851637e+001 -3.4980e+000 +2.8708e+000 +3.8826e-001 -2.4211e+000 +4.0741e+000
1061 0 +1.366862434e+000 +6.501686243e+001 +6.501686243e+001 -3.2959e+000 +2.3692e+000 +3.5885e-001 -2.5793e+000 +3.8049e+000
1118 0 +1.280080241e+000 +6.493008024e+001 +6.493008024e+001 -3.2193e+000 +2.2970e+000 +2.5341e-001 -2.4733e+000 +3.6432e+000
1127 0 +1.138132179e+000 +6.478813218e+001 +6.478813218e+001 -3.0260e+000 +2.0718e+000 +4.8147e-001 -2.2722e+000 +3.5157e+000
1238 0 +7.915210666e-001 +6.444152107e+001 +6.444152107e+001 -2.8828e+000 +1.7467e+000 +1.7035e-001 -2.2515e+000 +3.3302e+000
1251 0 +7.251522519e-001 +6.437515225e+001 +6.437515225e+001 -2.9744e+000 +1.6798e+000 -8.4348e-002 -2.4749e+000 +3.3260e+000
1288 0 +5.955268964e-001 +6.424552690e+001 +6.424552690e+001 -2.9664e+000 +1.9791e+000 +2.4735e-003 -2.0859e+000 +3.4531e+000
1482 0 +5.018175847e-001 +6.415181758e+001 +6.415181758e+001 -3.0848e+000 +1.9074e+000 +1.2885e-001 -2.4461e+000 +3.4789e+000
1685 0 +3.780085201e-001 +6.402800852e+001 +6.402800852e+001 -2.9640e+000 +2.2670e+000 +2.8903e-002 -2.4337e+000 +3.3120e+000
1954 0 +3.688509627e-001 +6.401885096e+001 +6.401885096e+001 -2.8729e+000 +2.0130e+000 +1.0765e-001 -2.1513e+000 +3.3962e+000
2054 0 +3.379689593e-001 +6.398796896e+001 +6.398796896e+001 -2.8847e+000 +1.9599e+000 +3.9255e-002 -2.1513e+000 +3.3687e+000
2063 0 +3.270579209e-001 +6.397705792e+001 +6.397705792e+001 -2.9258e+000 +2.0418e+000 +7.9078e-002 -2.1493e+000 +3.4130e+000
2105 0 +3.022044827e-001 +6.395220448e+001 +6.395220448e+001 -2.8940e+000 +2.0118e+000 +3.5355e-002 -2.1053e+000 +3.3460e+000
2543 0 +2.694899272e-001 +6.391948993e+001 +6.391948993e+001 -2.6271e+000 +1.7289e+000 -1.1101e-001 -1.9744e+000 +2.9906e+000
2909 0 +7.736161053e-002 +6.372736161e+001 +6.372736161e+001 -2.4968e+000 +1.4818e+000 -6.0406e-001 -2.1101e+000 +2.6440e+000
3036 0 +6.396169278e-002 +6.371396169e+001 +6.371396169e+001 -2.5154e+000 +1.5042e+000 -5.3230e-001 -2.0839e+000 +2.6824e+000
3148 0 +5.919679001e-002 +6.370919679e+001 +6.370919679e+001 -2.4910e+000 +1.4768e+000 -6.0379e-001 -2.0984e+000 +2.6558e+000
3149 0 +4.622305896e-002 +6.369622306e+001 +6.369622306e+001 -2.4164e+000 +1.3767e+000 -7.0106e-001 -2.0632e+000 +2.5453e+000
3338 0 +3.824734867e-002 +6.368824735e+001 +6.368824735e+001 -2.4098e+000 +1.3650e+000 -6.5653e-001 -1.9961e+000 +2.5792e+000
3405 0 +3.369324403e-002 +6.368369324e+001 +6.368369324e+001 -2.3968e+000 +1.3472e+000 -7.2888e-001 -2.0594e+000 +2.5132e+000
3409 0 +3.078950735e-002 +6.368078951e+001 +6.368078951e+001 -2.4405e+000 +1.4215e+000 -6.6624e-001 -2.0720e+000 +2.5860e+000
3426 0 +2.263795523e-002 +6.367263796e+001 +6.367263796e+001 -2.3337e+000 +1.3144e+000 -7.3981e-001 -1.9974e+000 +2.4869e+000
3754 0 +1.782034917e-002 +6.366782035e+001 +6.366782035e+001 -2.3352e+000 +1.3214e+000 -7.0502e-001 -1.9716e+000 +2.5503e+000
3825 0 +1.415160619e-002 +6.366415161e+001 +6.366415161e+001 -2.2703e+000 +1.2320e+000 -8.2252e-001 -1.9743e+000 +2.4307e+000
3855 0 +1.182696637e-002 +6.366182697e+001 +6.366182697e+001 -2.2449e+000 +1.1971e+000 -7.2888e-001 -1.9424e+000 +2.4068e+000
3902 0 +4.672255827e-007 +6.365000047e+001 +6.365000047e+001 -2.2602e+000 +1.2079e+000 -7.2490e-001 -1.9520e+000 +2.4212e+000
3924 0 +1.102956659e-007 +6.365000011e+001 +6.365000011e+001 -2.2813e+000 +1.2330e+000 -7.0313e-001 -1.9642e+000 +2.4403e+000
3956 0 +6.841551681e-008 +6.365000007e+001 +6.365000007e+001 -2.2794e+000 +1.2330e+000 -6.8279e-001 -1.9522e+000 +2.4456e+000
4196 0 +6.082853332e-008 +6.365000006e+001 +6.365000006e+001 -2.2710e+000 +1.2231e+000 -6.8941e-001 -1.9471e+000 +2.4380e+000
4296 0 +4.718040714e-008 +6.365000005e+001 +6.365000005e+001 -2.2714e+000 +1.2210e+000 -6.8866e-001 -1.9469e+000 +2.4410e+000
4346 0 +1.765269531e-008 +6.365000002e+001 +6.365000002e+001 -2.2730e+000 +1.2271e+000 -6.8659e-001 -1.9472e+000 +2.4449e+000
4385 0 +1.208029943e-008 +6.365000001e+001 +6.365000001e+001 -2.2537e+000 +1.2277e+000 -6.8644e-001 -1.9424e+000 +2.4431e+000
4436 0 +3.088366896e-009 +6.365000000e+001 +6.365000000e+001 -2.2527e+000 +1.2226e+000 -6.7374e-001 -1.9458e+000 +2.4382e+000
% f evaluations | g evaluations | best noise-free fitness - Fopt (6.991900000000e+002) + sum g_i+ | measured fitness | best measured fitness or single-digit g-values | x1 | x2...
1 0 +2.626591412e+003 +3.325781412e+003 +3.325781412e+003 -5.0000e+000 +5.0000e+000 -5.0000e+000 -5.0000e+000 -5.0000e+000
2 0 +9.268966774e+002 +1.626086677e+003 +1.626086677e+003 +5.0000e+000 +5.0000e+000 -5.0000e+000 -5.0000e+000 -5.0000e+000
9 0 +7.283271355e+002 +1.427517135e+003 +1.427517135e+003 +3.6295e+000 +5.0000e+000 -3.6295e+000 -5.0000e+000 -5.0000e+000
12 0 +3.511825589e+002 +1.050372559e+003 +1.050372559e+003 +3.8999e-017 -1.3483e-016 +5.0000e+000 +5.0000e+000 +9.9982e-017
14 0 +1.048562170e+002 +8.040462170e+002 +8.040462170e+002 +8.0060e-001 +1.1029e+000 +3.0965e+000 +2.7942e+000 -1.1029e+000
66 0 +1.012909550e+002 +8.004809550e+002 +8.004809550e+002 +8.3803e-001 +1.5160e+000 +9.4491e-001 +3.3492e+000 +1.2117e+000
67 0 +4.815940521e+001 +7.473494052e+002 +7.473494052e+002 +1.3309e+000 +1.7911e+000 +2.5991e-001 +1.8737e+000 -6.4637e-001
140 0 +4.663271542e+001 +7.458227154e+002 +7.458227154e+002 +1.5692e+000 +1.5218e+000 +1.4674e-001 +1.2817e+000 -9.5520e-001
145 0 +3.458172798e+001 +7.337717280e+002 +7.337717280e+002 +1.8027e+000 +2.2788e+000 -1.2178e-001 +1.7235e+000 -1.4302e+000
149 0 +2.175656239e+001 +7.209465624e+002 +7.209465624e+002 +3.0643e+000 +2.7358e+000 -2.6230e+000 +4.4708e+000 -2.1288e+000
193 0 +6.654982578e+000 +7.058449826e+002 +7.058449826e+002 +2.8298e+000 +2.1853e+000 -1.5048e+000 +3.7885e+000 -2.5611e+000
194 0 +2.840047580e+000 +7.020300476e+002 +7.020300476e+002 +2.8279e+000 +1.6327e+000 -1.0312e+000 +4.1959e+000 -2.6194e+000
247 0 +2.801146146e+000 +7.019911461e+002 +7.019911461e+002 +2.7168e+000 +1.8758e+000 -1.2996e+000 +4.6578e+000 -2.2906e+000
248 0 +2.643727572e+000 +7.018337276e+002 +7.018337276e+002 +2.8181e+000 +2.0040e+000 -1.4713e+000 +4.8346e+000 -2.0260e+000
262 0 +2.529169114e+000 +7.017191691e+002 +7.017191691e+002 +2.8315e+000 +2.0120e+000 -1.4681e+000 +4.9323e+000 -1.9880e+000
304 0 +2.437254558e+000 +7.016272546e+002 +7.016272546e+002 +2.8224e+000 +1.6023e+000 -1.6479e+000 +3.9294e+000 -2.7950e+000
327 0 +1.524332305e+000 +7.007143323e+002 +7.007143323e+002 +2.8447e+000 +1.3619e+000 -1.5474e+000 +2.8768e+000 -2.9815e+000
404 0 +1.072074874e+000 +7.002620749e+002 +7.002620749e+002 +2.7497e+000 +1.5082e+000 -1.3073e+000 +3.5822e+000 -2.8041e+000
483 0 +9.797839014e-001 +7.001697839e+002 +7.001697839e+002 +2.7231e+000 +1.5565e+000 -1.3081e+000 +4.2370e+000 -2.7665e+000
492 0 +7.287555621e-001 +6.999187556e+002 +6.999187556e+002 +2.9066e+000 +8.0665e-001 -1.4789e+000 +2.8711e+000 -3.0848e+000
699 0 +5.686540209e-001 +6.997586540e+002 +6.997586540e+002 +3.2521e+000 +4.0334e-001 -1.8668e+000 +1.9207e+000 -3.7690e+000
703 0 +4.988570345e-001 +6.996888570e+002 +6.996888570e+002 +2.7318e+000 +1.2073e+000 -1.4354e+000 +3.2812e+000 -2.9364e+000
953 0 +4.744558532e-001 +6.996644559e+002 +6.996644559e+002 +2.9410e+000 +1.0696e+000 -1.4711e+000 +3.0177e+000 -3.0647e+000
1019 0 +4.188102533e-001 +6.996088103e+002 +6.996088103e+002 +3.0869e+000 +8.9709e-001 -1.8951e+000 +2.7342e+000 -3.0931e+000
1072 0 +3.784531994e-001 +6.995684532e+002 +6.995684532e+002 +3.1445e+000 +7.2637e-001 -2.0185e+000 +2.4571e+000 -3.1195e+000
1079 0 +1.395479381e-001 +6.993295479e+002 +6.993295479e+002 +3.1546e+000 +5.9455e-001 -1.9356e+000 +2.5562e+000 -3.3551e+000
1098 0 +5.023362805e-002 +6.992402336e+002 +6.992402336e+002 +3.1786e+000 +4.4792e-001 -1.9714e+000 +2.1445e+000 -3.5705e+000
1112 0 +3.530562564e-002 +6.992253056e+002 +6.992253056e+002 +3.1869e+000 +4.2981e-001 -2.0077e+000 +2.0878e+000 -3.6298e+000
1348 0 +3.203374741e-002 +6.992220337e+002 +6.992220337e+002 +3.1544e+000 +5.6594e-001 -1.9756e+000 +2.1637e+000 -3.4810e+000
1512 0 +2.759518424e-002 +6.992175952e+002 +6.992175952e+002 +3.1314e+000 +6.8200e-001 -1.8643e+000 +2.4999e+000 -3.4543e+000
1669 0 +2.408136499e-002 +6.992140814e+002 +6.992140814e+002 +3.1530e+000 +6.5055e-001 -1.9420e+000 +2.4611e+000 -3.4095e+000
1717 0 +2.143005798e-002 +6.992114301e+002 +6.992114301e+002 +3.1835e+000 +5.0868e-001 -2.0301e+000 +2.3030e+000 -3.4444e+000
1764 0 +2.080851949e-002 +6.992108085e+002 +6.992108085e+002 +3.1575e+000 +5.7805e-001 -1.9586e+000 +2.3488e+000 -3.4359e+000
1848 0 +1.082313706e-002 +6.992008231e+002 +6.992008231e+002 +3.1640e+000 +5.4120e-001 -1.9955e+000 +2.2117e+000 -3.4531e+000
2440 0 +3.171559573e-003 +6.991931716e+002 +6.991931716e+002 +3.1458e+000 +6.2872e-001 -1.9871e+000 +2.3600e+000 -3.4445e+000
2456 0 +1.465775767e-008 +6.991900000e+002 +6.991900000e+002 +3.1769e+000 +5.5610e-001 -1.9569e+000 +2.2845e+000 -3.4749e+000
2557 0 +9.697828318e-009 +6.991900000e+002 +6.991900000e+002 +3.1766e+000 +5.5720e-001 -1.9577e+000 +2.2832e+000 -3.4742e+000
% f evaluations | g evaluations | best noise-free fitness - Fopt (1.000000000000e+003) + sum g_i+ | measured fitness | best measured fitness or single-digit g-values | x1 | x2...
1 0 +2.086662638e+003 +3.086662638e+003 +3.086662638e+003 +5.0000e+000 -5.0000e+000 +5.0000e+000 +5.0000e+000 -5.0000e+000
3 0 +1.838041154e+003 +2.838041154e+003 +2.838041154e+003 +5.0000e+000 +5.0000e+000 +5.0000e+000 +5.0000e+000 -5.0000e+000
4 0 +9.628941143e+002 +1.962894114e+003 +1.962894114e+003 +5.0000e+000 -5.0000e+000 -5.0000e+000 +5.0000e+000 -5.0000e+000
5 0 +3.435067610e+002 +1.343506761e+003 +1.343506761e+003 +5.0000e+000 -5.0000e+000 +5.0000e+000 -5.0000e+000 -5.0000e+000
15 0 +2.048297205e+002 +1.204829720e+003 +1.204829720e+003 +4.2452e+000 -5.0000e+000 -7.9127e-002 -5.0000e+000 -3.8109e+000
24 0 +1.966100917e+002 +1.196610092e+003 +1.196610092e+003 +4.0641e+000 -5.0000e+000 +3.9268e-002 -2.9369e+000 -4.2061e+000
27 0 +1.176526424e+002 +1.117652642e+003 +1.117652642e+003 +2.1656e+000 -5.0000e+000 +1.1602e-001 -2.3100e+000 -4.6961e+000
32 0 +1.101716898e+002 +1.110171690e+003 +1.110171690e+003 +2.6223e+000 -3.8192e+000 -4.5023e-001 -2.8267e+000 -4.5749e+000
36 0 +1.046688432e+002 +1.104668843e+003 +1.104668843e+003 +2.3838e+000 -4.3018e+000 +4.8112e-001 -2.8914e+000 -4.4846e+000
42 0 +9.443791171e+001 +1.094437912e+003 +1.094437912e+003 +2.3657e+000 -3.8464e+000 +4.6254e-001 -2.8963e+000 -4.6273e+000
58 0 +2.469969193e+001 +1.024699692e+003 +1.024699692e+003 +4.1972e-001 -1.9063e+000 -2.8820e-001 -2.7781e+000 -3.9668e+000
78 0 +1.926768335e+001 +1.019267683e+003 +1.019267683e+003 -2.8654e-001 -1.4572e+000 -2.0021e+000 -3.3101e+000 +7.7922e-001
113 0 +5.586750889e+000 +1.005586751e+003 +1.005586751e+003 -7.0016e-002 -1.7827e+000 -1.5948e+000 -3.7068e+000 -7.0600e-001
273 0 +5.106022289e+000 +1.005106022e+003 +1.005106022e+003 -5.2520e-001 +1.7484e-001 -1.1290e+000 -3.2088e+000 -1.8115e+000
313 0 +4.794367383e+000 +1.004794367e+003 +1.004794367e+003 -4.8578e-001 +1.1398e-001 -1.0679e+000 -3.2269e+000 -1.7755e+000
333 0 +3.411860672e+000 +1.003411861e+003 +1.003411861e+003 +8.8589e-001 -1.4502e+000 -9.3548e-001 -3.8819e+000 -7.6382e-001
337 0 +2.700206166e+000 +1.002700206e+003 +1.002700206e+003 +4.3435e-001 -1.0060e+000 -8.4995e-001 -3.7844e+000 -1.1377e+000
385 0 +1.750099515e+000 +1.001750100e+003 +1.001750100e+003 -5.0533e-001 +5.4868e-002 -6.9305e-001 -3.1580e+000 -1.8767e+000
414 0 +8.083190873e-001 +1.000808319e+003 +1.000808319e+003 -8.6657e-001 +1.4208e+000 -5.1470e-001 -2.9904e+000 -1.7735e+000
558 0 +1.149771479e-001 +1.000114977e+003 +1.000114977e+003 -6.5022e-001 +6.7342e-001 -4.5170e-001 -3.1096e+000 -1.9262e+000
752 0 +8.385804663e-002 +1.000083858e+003 +1.000083858e+003 -6.1251e-001 +6.1930e-001 -4.8075e-001 -3.1446e+000 -1.8359e+000
985 0 +6.262759507e-002 +1.000062628e+003 +1.000062628e+003 -4.8402e-001 +4.2659e-001 -4.1906e-001 -3.1426e+000 -1.9183e+000
1063 0 +3.017135246e-002 +1.000030171e+003 +1.000030171e+003 -5.3310e-001 +5.0857e-001 -4.0197e-001 -3.1303e+000 -1.8923e+000
1250 0 +2.156176979e-002 +1.000021562e+003 +1.000021562e+003 -5.0740e-001 +4.9101e-001 -5.2989e-001 -3.1842e+000 -1.6659e+000
1314 0 +1.247340555e-002 +1.000012473e+003 +1.000012473e+003 -5.2040e-001 +4.9895e-001 -5.5188e-001 -3.1538e+000 -1.6722e+000
1337 0 +9.434963185e-003 +1.000009435e+003 +1.000009435e+003 -5.5889e-001 +5.4392e-001 -5.0003e-001 -3.1396e+000 -1.7378e+000
1481 0 +7.329752270e-003 +1.000007330e+003 +1.000007330e+003 -5.2920e-001 +5.2086e-001 -4.4876e-001 -3.1362e+000 -1.8274e+000
1601 0 +4.469846999e-007 +1.000000000e+003 +1.000000000e+003 -4.7332e-001 +4.3672e-001 -5.0645e-001 -3.1749e+000 -1.7389e+000
1710 0 +3.304181746e-007 +1.000000000e+003 +1.000000000e+003 -5.0405e-001 +4.4907e-001 -4.9113e-001 -3.1768e+000 -1.7200e+000
1879 0 +1.427373491e-007 +1.000000000e+003 +1.000000000e+003 -5.2644e-001 +4.5953e-001 -4.9758e-001 -3.1569e+000 -1.7655e+000
1913 0 +4.272999377e-008 +1.000000000e+003 +1.000000000e+003 -5.1656e-001 +4.3632e-001 -5.0408e-001 -3.1560e+000 -1.7567e+000
1930 0 +3.214711342e-008 +1.000000000e+003 +1.000000000e+003 -5.1822e-001 +4.3676e-001 -5.0115e-001 -3.1564e+000 -1.7583e+000
2054 0 +3.145976279e-008 +1.000000000e+003 +1.000000000e+003 -5.1729e-001 +4.3392e-001 -5.0832e-001 -3.1579e+000 -1.7622e+000
2156 0 +2.363208296e-008 +1.000000000e+003 +1.000000000e+003 -5.1383e-001 +4.2634e-001 -5.1284e-001 -3.1542e+000 -1.7712e+000
2220 0 +2.263243459e-008 +1.000000000e+003 +1.000000000e+003 -5.2108e-001 +4.3252e-001 -5.0728e-001 -3.1489e+000 -1.7496e+000
2223 0 +2.681076694e-009 +1.000000000e+003 +1.000000000e+003 -5.1812e-001 +4.4860e-001 -4.8664e-001 -3.1588e+000 -1.7621e+000
