% f evaluations | g evaluations | best noise-free fitness - Fopt (-1.025500000000e+002) + sum g_i+ | measured fitness | best measured fitness or single-digit g-values | x1 | x2...
1 0 +4.670661560e+000 -9.787933844e+001 -9.787933844e+001 -5.6516e-001 +2.9722e+000
6 0 +2.967323645e+000 -9.958267635e+001 -9.958267635e+001 +1.8528e+000 +5.0000e+000
15 0 +2.921184565e+000 -9.962881543e+001 -9.962881543e+001 +3.9910e+000 +2.6325e+000
67 0 +2.109245023e+000 -1.004407550e+002 -1.004407550e+002 +4.9828e+000 +1.8977e+000
73 0 +1.411334531e+000 -1.011386655e+002 -1.011386655e+002 +2.2535e+000 +7.3520e-002
78 0 +9.832718690e-001 -1.015667281e+002 -1.015667281e+002 +2.1608e+000 +3.8437e-002
95 0 +5.278520941e-002 -1.024972148e+002 -1.024972148e+002 +3.7331e+000 +1.3549e+000
229 0 +2.082381259e-002 -1.025291762e+002 -1.025291762e+002 +2.3006e+000 +1.2021e-001
239 0 +2.021311417e-002 -1.025297869e+002 -1.025297869e+002 +2.3020e+000 +1.2117e-001
299 0 +1.976899088e-002 -1.025302310e+002 -1.025302310e+002 +2.3030e+000 +1.2191e-001
326 0 +1.805472237e-002 -1.025319453e+002 -1.025319453e+002 +2.3030e+000 +1.2208e-001
369 0 +1.730359119e-002 -1.025326964e+002 -1.025326964e+002 +2.3030e+000 +1.2217e-001
378 0 +1.636053866e-002 -1.025336395e+002 -1.025336395e+002 +2.3341e+000 +1.4304e-001
393 0 +1.621642178e-002 -1.025337836e+002 -1.025337836e+002 +2.3532e+000 +1.5584e-001
399 0 +1.570885641e-002 -1.025342911e+002 -1.025342911e+002 +2.3542e+000 +1.5678e-001
1040 0 +1.306487661e-002 -1.025369351e+002 -1.025369351e+002 -1.4764e-001 +4.9270e-001
1064 0 +1.185650687e-003 -1.025488143e+002 -1.025488143e+002 -1.6210e-001 +4.8194e-001
1168 0 +1.020470923e-003 -1.025489795e+002 -1.025489795e+002 -1.6255e-001 +4.4663e-001
1255 0 +1.868533261e-004 -1.025498131e+002 -1.025498131e+002 -1.4977e-001 +5.5372e-001
1315 0 +1.338012664e-004 -1.025498662e+002 -1.025498662e+002 -1.5183e-001 +5.4566e-001
1400 0 +8.378449505e-005 -1.025499162e+002 -1.025499162e+002 -1.5123e-001 +5.6819e-001
1412 0 +4.791984885e-005 -1.025499521e+002 -1.025499521e+002 -1.4917e-001 +5.8638e-001
1424 0 +1.857724780e-005 -1.025499814e+002 -1.025499814e+002 -1.4615e-001 +6.1155e-001
1474 0 +1.583152051e-005 -1.025499842e+002 -1.025499842e+002 -1.4588e-001 +6.0819e-001
1492 0 +9.943836417e-006 -1.025499901e+002 -1.025499901e+002 -1.4441e-001 +6.1896e-001
1503 0 +3.116776256e-006 -1.025499969e+002 -1.025499969e+002 -1.4151e-001 +6.4238e-001
1521 0 +2.629442832e-007 -1.025499997e+002 -1.025499997e+002 -1.3670e-001 +6.8580e-001
1534 0 +1.973420325e-007 -1.025499998e+002 -1.025499998e+002 -1.3653e-001 +6.8680e-001
1540 0 +1.507366960e-007 -1.025499998e+002 -1.025499998e+002 -1.3669e-001 +6.8501e-001
1549 0 +1.408393899e-007 -1.025499999e+002 -1.025499999e+002 -1.3601e-001 +6.9057e-001
1553 0 +1.338298716e-007 -1.025499999e+002 -1.025499999e+002 -1.3675e-001 +6.8432e-001
1565 0 +1.244762302e-007 -1.025499999e+002 -1.025499999e+002 -1.3657e-001 +6.8579e-001
1578 0 +6.626477500e-008 -1.025499999e+002 -1.025499999e+002 -1.3629e-001 +6.8734e-001
1587 0 +5.545146564e-008 -1.025499999e+002 -1.025499999e+002 -1.3567e-001 +6.9233e-001
1591 0 +1.547114437e-008 -1.025500000e+002 -1.025500000e+002 -1.3596e-001 +6.8869e-001
1608 0 +6.230379768e-009 -1.025500000e+002 -1.025500000e+002 -1.3569e-001 +6.9057e-001
% f evaluations | g evaluations | best noise-free fitness - Fopt (7.169000000000e+001) + sum g_i+ | measured fitness | best measured fitness or single-digit g-values | x1 | x2...
1 0 +1.197040461e+001 +8.366040461e+001 +8.366040461e+001 +2.8739e+000 -4.6217e+000
12 0 +4.042483518e+000 +7.573248352e+001 +7.573248352e+001 +2.1700e+000 +2.7910e+000
15 0 +1.445698078e+000 +7.313569808e+001 +7.313569808e+001 -1.4966e+000 +2.3122e-001
30 0 +1.250580782e+000 +7.294058078e+001 +7.294058078e+001 +1.3023e+000 +1.6739e+000
86 0 +4.116664321e-001 +7.210166643e+001 +7.210166643e+001 +1.0572e+000 +1.7524e+000
91 0 +1.710597606e-001 +7.186105976e+001 +7.186105976e+001 +1.2431e+000 +1.7515e+000
111 0 +1.292639572e-001 +7.181926396e+001 +7.181926396e+001 +1.2330e+000 +1.6819e+000
343 0 +5.746529361e-002 +7.174746529e+001 +7.174746529e+001 +1.2561e+000 +2.2634e+000
594 0 +1.571473359e-002 +7.170571473e+001 +7.170571473e+001 +1.2588e+000 +2.2476e+000
2083 0 +2.781504359e-003 +7.169278150e+001 +7.169278150e+001 -8.5187e-001 +5.0868e-001
2460 0 +1.005048606e-003 +7.169100505e+001 +7.169100505e+001 -6.8503e-001 +3.3045e-001
2502 0 +4.953937936e-004 +7.169049539e+001 +7.169049539e+001 -6.9167e-001 +3.3815e-001
2548 0 +3.372429569e-005 +7.169003372e+001 +7.169003372e+001 -6.9342e-001 +3.4326e-001
2568 0 +8.193781369e-006 +7.169000819e+001 +7.169000819e+001 -6.9517e-001 +3.4729e-001
2570 0 +8.126895295e-006 +7.169000813e+001 +7.169000813e+001 -6.9506e-001 +3.4716e-001
2573 0 +6.261637125e-006 +7.169000626e+001 +7.169000626e+001 -6.9057e-001 +3.4251e-001
2631 0 +5.388336788e-006 +7.169000539e+001 +7.169000539e+001 -6.8879e-001 +3.4097e-001
2638 0 +2.727580565e-006 +7.169000273e+001 +7.169000273e+001 -6.6936e-001 +3.2149e-001
2639 0 +1.602839859e-006 +7.169000160e+001 +7.169000160e+001 -6.7291e-001 +3.2563e-001
2641 0 +1.530729563e-006 +7.169000153e+001 +7.169000153e+001 -6.7249e-001 +3.2525e-001
2650 0 +6.546310374e-007 +7.169000065e+001 +7.169000065e+001 -6.4331e-001 +2.9693e-001
2651 0 +4.974603058e-007 +7.169000050e+001 +7.169000050e+001 -6.5977e-001 +3.1368e-001
2652 0 +1.234889737e-007 +7.169000012e+001 +7.169000012e+001 -6.4999e-001 +3.0435e-001
2655 0 +6.089092608e-008 +7.169000006e+001 +7.169000006e+001 -6.4841e-001 +3.0274e-001
2670 0 +3.282698913e-008 +7.169000003e+001 +7.169000003e+001 -6.4300e-001 +2.9769e-001
2695 0 +1.896218293e-008 +7.169000002e+001 +7.169000002e+001 -6.4426e-001 +2.9880e-001
2710 0 +6.697561616e-009 +7.169000001e+001 +7.169000001e+001 -6.3929e-001 +2.9399e-001
% f evaluations | g evaluations | best noise-free fitness - Fopt (2.140100000000e+002) + sum g_i+ | measured fitness | best measured fitness or single-digit g-values | x1 | x2...
1 0 +2.102618919e+001 +2.350361892e+002 +2.350361892e+002 +4.5034e+000 -2.2984e-001
2 0 +4.127993048e+000 +2.181379930e+002 +2.181379930e+002 +1.3706e+000 +7.4679e-001
7 0 +5.759269019e-001 +2.145859269e+002 +2.145859269e+002 -3.3554e-001 -2.4976e-001
15 0 +2.887992853e-001 +2.142987993e+002 +2.142987993e+002 +1.1935e+000 -4.2677e-001
107 0 +2.168256682e-001 +2.142268257e+002 +2.142268257e+002 -1.7466e-002 -7.4506e-001
136 0 +1.164978249e-001 +2.141264978e+002 +2.141264978e+002 -1.2161e+000 +7.9852e-001
151 0 +1.252049636e-002 +2.140225205e+002 +2.140225205e+002 -8.4902e-001 +8.7179e-001
378 0 +1.225406418e-002 +2.140222541e+002 +2.140222541e+002 -8.4504e-001 +8.7361e-001
445 0 +1.094418409e-002 +2.140209442e+002 +2.140209442e+002 -8.4353e-001 +8.7056e-001
548 0 +8.314280883e-003 +2.140183143e+002 +2.140183143e+002 -8.0652e-001 +8.4576e-001
554 0 +8.085958542e-003 +2.140180860e+002 +2.140180860e+002 -7.9258e-001 +8.3586e-001
556 0 +7.554623858e-003 +2.140175546e+002 +2.140175546e+002 -7.8591e-001 +8.3645e-001
559 0 +6.727706711e-003 +2.140167277e+002 +2.140167277e+002 -7.8706e-001 +8.3559e-001
569 0 +4.760660766e-003 +2.140147607e+002 +2.140147607e+002 -7.5374e-001 +8.1304e-001
583 0 +3.595090038e-003 +2.140135951e+002 +2.140135951e+002 -7.2498e-001 +7.9377e-001
593 0 +2.312423114e-003 +2.140123124e+002 +2.140123124e+002 -6.8597e-001 +7.7086e-001
612 0 +1.349974346e-003 +2.140113500e+002 +2.140113500e+002 -6.3951e-001 +7.3659e-001
616 0 +2.056269216e-004 +2.140102056e+002 +2.140102056e+002 -4.9050e-001 +6.3974e-001
625 0 +1.412503405e-004 +2.140101413e+002 +2.140101413e+002 -5.2635e-001 +6.6318e-001
643 0 +1.041209407e-004 +2.140101041e+002 +2.140101041e+002 -4.8821e-001 +6.3732e-001
657 0 +9.025163814e-005 +2.140100903e+002 +2.140100903e+002 -5.2021e-001 +6.5824e-001
680 0 +8.072877813e-005 +2.140100807e+002 +2.140100807e+002 -4.4500e-001 +6.0700e-001
681 0 +2.491431380e-005 +2.140100249e+002 +2.140100249e+002 -4.8909e-001 +6.3583e-001
689 0 +2.430778980e-005 +2.140100243e+002 +2.140100243e+002 -4.3628e-001 +5.9982e-001
690 0 +2.079796585e-005 +2.140100208e+002 +2.140100208e+002 -4.3651e-001 +5.9988e-001
695 0 +1.156566884e-005 +2.140100116e+002 +2.140100116e+002 -4.6120e-001 +6.1664e-001
704 0 +6.713618262e-006 +2.140100067e+002 +2.140100067e+002 -4.5329e-001 +6.1080e-001
715 0 +5.976123902e-006 +2.140100060e+002 +2.140100060e+002 -4.6154e-001 +6.1603e-001
717 0 +4.760194088e-006 +2.140100048e+002 +2.140100048e+002 -4.5471e-001 +6.1142e-001
732 0 +2.608509845e-006 +2.140100026e+002 +2.140100026e+002 -4.4894e-001 +6.0694e-001
740 0 +1.377577348e-006 +2.140100014e+002 +2.140100014e+002 -4.4066e-001 +6.0096e-001
743 0 +1.071547672e-006 +2.140100011e+002 +2.140100011e+002 -4.3818e-001 +5.9909e-001
746 0 +5.196207269e-007 +2.140100005e+002 +2.140100005e+002 -4.3110e-001 +5.9388e-001
752 0 +1.757590553e-007 +2.140100002e+002 +2.140100002e+002 -3.9671e-001 +5.6893e-001
753 0 +2.521716169e-009 +2.140100000e+002 +2.140100000e+002 -4.0898e-001 +5.7764e-001
% f evaluations | g evaluations | best noise-free fitness - Fopt (-5.848000000000e+001) + sum g_i+ | measured fitness | best measured fitness or single-digit g-values | x1 | x2...
1 0 +1.820839649e+002 +1.236039649e+002 +1.236039649e+002 +9.1272e-001 -4.8043e+000
2 0 +1.266453821e+002 +6.816538210e+001 +6.816538210e+001 -1.0461e+000 +4.9913e+000
3 0 +1.140999907e+000 -5.733900009e+001 -5.733900009e+001 +1.5717e+000 +1.4031e+000
32 0 +5.755607647e-001 -5.790443924e+001 -5.790443924e+001 +1.0488e+000 -9.9966e-001
66 0 +2.969593371e-001 -5.818304066e+001 -5.818304066e+001 +1.1449e+000 -1.0928e+000
96 0 +2.889473936e-001 -5.819105261e+001 -5.819105261e+001 +1.1567e+000 -1.0848e+000
119 0 +2.172091250e-001 -5.826279088e+001 -5.826279088e+001 +1.3473e+000 -7.5893e-001
133 0 +1.061376937e-001 -5.837386231e+001 -5.837386231e+001 +1.4113e+000 -8.7825e-001
274 0 +1.784194061e-003 -5.847821581e+001 -5.847821581e+001 +3.9832e-001 -4.3989e-001
314 0 +2.537258735e-004 -5.847974627e+001 -5.847974627e+001 +3.5952e-001 -4.2810e-001
514 0 +1.531460773e-004 -5.847984685e+001 -5.847984685e+001 +3.6060e-001 -4.2651e-001
817 0 +6.222342888e-005 -5.847993778e+001 -5.847993778e+001 +3.8979e-001 -4.4231e-001
828 0 +6.011070709e-005 -5.847993989e+001 -5.847993989e+001 +3.9486e-001 -4.4389e-001
837 0 +5.234256390e-005 -5.847994766e+001 -5.847994766e+001 +3.9465e-001 -4.4483e-001
880 0 +5.032941318e-005 -5.847994967e+001 -5.847994967e+001 +3.9575e-001 -4.4541e-001
889 0 +3.601441185e-005 -5.847996399e+001 -5.847996399e+001 +4.6007e-001 -4.8062e-001
902 0 +6.010015312e-007 -5.847999940e+001 -5.847999940e+001 +5.0224e-001 -4.9880e-001
907 0 +2.276881972e-007 -5.847999977e+001 -5.847999977e+001 +5.0770e-001 -5.0175e-001
933 0 +5.047154872e-008 -5.847999995e+001 -5.847999995e+001 +5.0759e-001 -5.0226e-001
985 0 +3.018853789e-008 -5.847999997e+001 -5.847999997e+001 +5.0557e-001 -5.0124e-001
1001 0 +2.070456162e-008 -5.847999998e+001 -5.847999998e+001 +5.0581e-001 -5.0131e-001
1031 0 +1.821455697e-008 -5.847999998e+001 -5.847999998e+001 +5.0587e-001 -5.0132e-001
1034 0 +5.906102274e-009 -5.847999999e+001 -5.847999999e+001 +5.0334e-001 -4.9996e-001
% f evaluations | g evaluations | best noise-free fitness - Fopt (-6.130800000000e+002) + sum g_i+ | measured fitness | best measured fitness or single-digit g-values | x1 | x2...
1 0 +6.130908380e+000 -6.069490916e+002 -6.069490916e+002 -3.6757e-001 +3.6342e+000
8 0 +3.766117173e+000 -6.093138828e+002 -6.093138828e+002 +8.8453e-001 +2.3342e+000
17 0 +9.806016825e-001 -6.120993983e+002 -6.120993983e+002 +1.8051e+000 +1.8168e+000
32 0 +2.410528940e-001 -6.128389471e+002 -6.128389471e+002 +1.9710e+000 +1.9442e+000
312 0 +2.079280200e-001 -6.128720720e+002 -6.128720720e+002 +1.9394e+000 +1.9001e+000
410 0 +1.258447593e-001 -6.129541552e+002 -6.129541552e+002 +1.3721e+000 +1.5220e+000
605 0 +8.831119901e-002 -6.129916888e+002 -6.129916888e+002 +5.2843e-001 +6.0183e-001
617 0 +1.442403877e-002 -6.130655760e+002 -6.130655760e+002 +5.3140e-001 +2.1284e-001
665 0 +1.189478158e-002 -6.130681052e+002 -6.130681052e+002 +4.3140e-001 +1.2089e-001
666 0 +8.693508283e-003 -6.130713065e+002 -6.130713065e+002 +4.2534e-001 +1.1699e-001
735 0 +5.226293158e-003 -6.130747737e+002 -6.130747737e+002 +4.3935e-001 +1.3152e-001
740 0 +2.114574140e-003 -6.130778854e+002 -6.130778854e+002 +4.7642e-001 +1.8156e-001
743 0 +2.355539550e-006 -6.130799976e+002 -6.130799976e+002 +6.1627e-001 +3.1081e-001
746 0 +5.742792837e-007 -6.130799994e+002 -6.130799994e+002 +6.1272e-001 +3.0797e-001
797 0 +4.472074124e-007 -6.130799996e+002 -6.130799996e+002 +6.1177e-001 +3.0720e-001
798 0 +3.367346153e-007 -6.130799997e+002 -6.130799997e+002 +6.1414e-001 +3.0961e-001
811 0 +3.250784175e-007 -6.130799997e+002 -6.130799997e+002 +6.1786e-001 +3.1324e-001
813 0 +1.900389179e-007 -6.130799998e+002 -6.130799998e+002 +6.1553e-001 +3.1137e-001
816 0 +1.346708132e-007 -6.130799999e+002 -6.130799999e+002 +6.1764e-001 +3.1343e-001
819 0 +1.236553544e-007 -6.130799999e+002 -6.130799999e+002 +6.1826e-001 +3.1403e-001
843 0 +5.041397344e-008 -6.130799999e+002 -6.130799999e+002 +6.2271e-001 +3.1854e-001
844 0 +4.496234851e-008 -6.130800000e+002 -6.130800000e+002 +6.2182e-001 +3.1783e-001
851 0 +5.010178938e-009 -6.130800000e+002 -6.130800000e+002 +6.2750e-001 +3.2371e-001
% f evaluations | g evaluations | best noise-free fitness - Fopt (6.189000000000e+001) + sum g_i+ | measured fitness | best measured fitness or single-digit g-values | x1 | x2...
1 0 +2.481272449e+001 +8.670272449e+001 +8.670272449e+001 +4.8702e+000 +7.1838e-001
5 0 +7.333571083e+000 +6.922357108e+001 +6.922357108e+001 -1.8134e+000 -4.5709e+000
7 0 +6.515887480e+000 +6.840588748e+001 +6.840588748e+001 +1.9564e+000 +5.7898e-001
9 0 +5.654246256e+000 +6.754424626e+001 +6.754424626e+001 -2.4568e+000 -4.6022e-001
10 0 +2.414214480e+000 +6.430421448e+001 +6.430421448e+001 -3.8181e-001 +2.6853e-001
28 0 +3.070523114e-001 +6.219705231e+001 +6.219705231e+001 -5.8606e-001 +6.0041e-002
52 0 +2.008018706e-001 +6.209080187e+001 +6.209080187e+001 -5.8523e-001 +5.7835e-002
75 0 +1.330827204e-002 +6.190330827e+001 +6.190330827e+001 -6.5316e-001 +2.5158e-002
113 0 +1.179979052e-002 +6.190179979e+001 +6.190179979e+001 -3.6762e-001 +9.0729e-002
128 0 +6.850701654e-004 +6.189068507e+001 +6.189068507e+001 -7.4578e-001 -2.1867e-002
144 0 +4.173232264e-005 +6.189004173e+001 +6.189004173e+001 -7.4544e-001 -1.4574e-002
163 0 +2.537657502e-005 +6.189002538e+001 +6.189002538e+001 -7.5839e-001 -2.3104e-002
175 0 +4.751472460e-007 +6.189000048e+001 +6.189000048e+001 -7.3287e-001 -1.2452e-002
343 0 +4.617784555e-007 +6.189000046e+001 +6.189000046e+001 -7.3168e-001 -1.2205e-002
355 0 +1.787613257e-007 +6.189000018e+001 +6.189000018e+001 -7.1356e-001 -5.4948e-003
359 0 +3.990365371e-008 +6.189000004e+001 +6.189000004e+001 -7.1401e-001 -6.0986e-003
364 0 +1.803716998e-008 +6.189000002e+001 +6.189000002e+001 -7.1042e-001 -4.6704e-003
369 0 +3.733191534e-010 +6.189000000e+001 +6.189000000e+001 -7.0630e-001 -3.3664e-003
% f evaluations | g evaluations | best noise-free fitness - Fopt (-8.456000000000e+001) + sum g_i+ | measured fitness | best measured fitness or single-digit g-values | x1 | x2...
1 0 +6.805082734e+000 -7.775491727e+001 -7.775491727e+001 +3.4386e+000 -2.6251e+000
4 0 +4.595486954e+000 -7.996451305e+001 -7.996451305e+001 +5.0000e+000 -5.0000e+000
15 0 +3.298753432e+000 -8.126124657e+001 -8.126124657e+001 +3.3977e+000 -3.5839e+000
18 0 +1.994045028e-001 -8.436059550e+001 -8.436059550e+001 +1.0991e+000 -1.1252e+000
37 0 +1.926727392e-002 -8.454073273e+001 -8.454073273e+001 +6.8800e-001 -1.0750e+000
242 0 +8.758758632e-003 -8.455124124e+001 -8.455124124e+001 +5.6573e-001 -9.6373e-001
258 0 +5.305373898e-003 -8.455469463e+001 -8.455469463e+001 +5.7153e-001 -9.6317e-001
283 0 +3.578846086e-003 -8.455642115e+001 -8.455642115e+001 +5.4141e-001 -9.3317e-001
286 0 +3.400435688e-003 -8.455659956e+001 -8.455659956e+001 +5.3793e-001 -9.3031e-001
296 0 +2.226610165e-003 -8.455777339e+001 -8.455777339e+001 +5.0278e-001 -8.9249e-001
315 0 +2.168676375e-003 -8.455783132e+001 -8.455783132e+001 +5.0194e-001 -8.9176e-001
319 0 +1.802010403e-003 -8.455819799e+001 -8.455819799e+001 +4.7112e-001 -8.5817e-001
328 0 +1.452239321e-003 -8.455854776e+001 -8.455854776e+001 +4.4686e-001 -8.3226e-001
332 0 +4.499085655e-004 -8.455955009e+001 -8.455955009e+001 +3.7606e-001 -7.5698e-001
333 0 +1.589676089e-004 -8.455984103e+001 -8.455984103e+001 +3.4028e-001 -7.1871e-001
348 0 +2.722302361e-005 -8.455997278e+001 -8.455997278e+001 +3.3807e-001 -7.1882e-001
353 0 +1.127109192e-005 -8.455998873e+001 -8.455998873e+001 +3.1346e-001 -6.9134e-001
365 0 +2.124400851e-006 -8.455999788e+001 -8.455999788e+001 +2.7818e-001 -6.5494e-001
368 0 +9.201351503e-007 -8.455999908e+001 -8.455999908e+001 +2.9304e-001 -6.6952e-001
370 0 +4.052657232e-008 -8.455999996e+001 -8.455999996e+001 +2.8182e-001 -6.5766e-001
398 0 +2.827744083e-008 -8.455999997e+001 -8.455999997e+001 +2.8086e-001 -6.5658e-001
413 0 +2.515612607e-008 -8.455999997e+001 -8.455999997e+001 +2.7601e-001 -6.5127e-001
431 0 +7.710141858e-009 -8.455999999e+001 -8.455999999e+001 +2.7792e-001 -6.5329e-001
% f evaluations | g evaluations | best noise-free fitness - Fopt (-2.602000000000e+001) + sum g_i+ | measured fitness | best measured fitness or single-digit g-values | x1 | x2...
1 0 +2.097782809e+001 -5.042171912e+000 -5.042171912e+000 +2.9552e+000 -5.8101e-001
3 0 +2.014010795e+001 -5.879892050e+000 -5.879892050e+000 +1.1740e+000 +1.5506e+000
5 0 +1.712801028e+001 -8.891989722e+000 -8.891989722e+000 -1.6589e+000 +1.4581e-001
6 0 +4.920229095e+000 -2.109977091e+001 -2.109977091e+001 +5.1883e-001 -7.3660e-001
11 0 +3.958495640e+000 -2.206150436e+001 -2.206150436e+001 -1.5699e+000 +4.1878e+000
12 0 +5.830190591e-001 -2.543698094e+001 -2.543698094e+001 -2.5535e-001 +5.3581e-001
58 0 +2.964100097e-001 -2.572358999e+001 -2.572358999e+001 -9.4750e-001 +3.6507e-001
81 0 +2.516605039e-002 -2.599483395e+001 -2.599483395e+001 -1.2887e+000 +2.0844e-001
129 0 +5.878581355e-004 -2.601941214e+001 -2.601941214e+001 -9.1739e-001 +6.7753e-002
141 0 +3.970080477e-004 -2.601960299e+001 -2.601960299e+001 -8.9380e-001 +5.5895e-002
291 0 +3.016801195e-004 -2.601969832e+001 -2.601969832e+001 -8.9398e-001 +5.6935e-002
341 0 +2.870318284e-004 -2.601971297e+001 -2.601971297e+001 -8.9415e-001 +5.7929e-002
357 0 +2.773579244e-004 -2.601972264e+001 -2.601972264e+001 -8.5063e-001 +4.4596e-002
367 0 +8.193421154e-005 -2.601991807e+001 -2.601991807e+001 -8.1906e-001 +3.2705e-002
374 0 +5.962891396e-005 -2.601994037e+001 -2.601994037e+001 -7.7728e-001 +1.9015e-002
401 0 +3.242208031e-007 -2.601999968e+001 -2.601999968e+001 -7.1466e-001 -3.4503e-003
410 0 +1.348594729e-007 -2.601999987e+001 -2.601999987e+001 -7.0038e-001 -8.8280e-003
429 0 +2.301647228e-008 -2.601999998e+001 -2.601999998e+001 -7.1259e-001 -4.6500e-003
445 0 +2.413298006e-009 -2.602000000e+001 -2.602000000e+001 -7.0657e-001 -6.5760e-003
% f evaluations | g evaluations | best noise-free fitness - Fopt (-3.015000000000e+001) + sum g_i+ | measured fitness | best measured fitness or single-digit g-values | x1 | x2...
1 0 +1.812572890e+001 -1.202427110e+001 -1.202427110e+001 +3.1983e+000 -1.2287e+000
6 0 +7.179888385e+000 -2.297011161e+001 -2.297011161e+001 +1.8891e+000 +1.2934e+000
12 0 +6.242022550e+000 -2.390797745e+001 -2.390797745e+001 +3.3314e+000 -8.1258e-002
29 0 +4.367644562e+000 -2.578235544e+001 -2.578235544e+001 +2.3128e+000 +1.0383e+000
30 0 +2.227663365e-001 -2.992723366e+001 -2.992723366e+001 +7.6598e-001 +4.2912e-001
31 0 +1.193759172e-002 -3.013806241e+001 -3.013806241e+001 -8.9695e-001 +4.8301e-002
133 0 +4.883925063e-003 -3.014511607e+001 -3.014511607e+001 -1.0677e+000 -5.2936e-004
138 0 +3.627865432e-003 -3.014637213e+001 -3.014637213e+001 -9.7653e-001 +2.4589e-002
144 0 +1.446239436e-003 -3.014855376e+001 -3.014855376e+001 -9.9870e-001 +1.4529e-002
150 0 +7.515783764e-004 -3.014924842e+001 -3.014924842e+001 -9.5067e-001 +2.6003e-002
154 0 +6.671198651e-004 -3.014933288e+001 -3.014933288e+001 -9.3354e-001 +2.9383e-002
159 0 +4.136323851e-004 -3.014958637e+001 -3.014958637e+001 -9.1449e-001 +3.5014e-002
164 0 +1.490503356e-004 -3.014985095e+001 -3.014985095e+001 -8.5748e-001 +4.9887e-002
229 0 +5.326555445e-005 -3.014994673e+001 -3.014994673e+001 -8.2489e-001 +5.6656e-002
232 0 +4.855766817e-005 -3.014995144e+001 -3.014995144e+001 -8.2148e-001 +5.7528e-002
241 0 +4.033211095e-006 -3.014999597e+001 -3.014999597e+001 -7.5993e-001 +7.1092e-002
244 0 +3.665265528e-006 -3.014999633e+001 -3.014999633e+001 -7.5796e-001 +7.1597e-002
252 0 +2.478627664e-006 -3.014999752e+001 -3.014999752e+001 -7.5141e-001 +7.2883e-002
255 0 +3.408684890e-007 -3.014999966e+001 -3.014999966e+001 -7.2525e-001 +7.8561e-002
259 0 +1.255211650e-007 -3.014999987e+001 -3.014999987e+001 -6.9670e-001 +8.4760e-002
292 0 +2.674165245e-008 -3.014999997e+001 -3.014999997e+001 -7.0773e-001 +8.2277e-002
295 0 +2.313150560e-009 -3.015000000e+001 -3.015000000e+001 -7.0115e-001 +8.3590e-002
% f evaluations | g evaluations | best noise-free fitness - Fopt (-1.000000000000e+003) + sum g_i+ | measured fitness | best measured fitness or single-digit g-values | x1 | x2...
1 0 +1.678572546e+001 -9.832142745e+002 -9.832142745e+002 +1.4569e+000 +4.1555e-002
6 0 +3.125393960e+000 -9.968746060e+002 -9.968746060e+002 -2.9131e+000 +2.0486e+000
12 0 +2.894396780e+000 -9.971056032e+002 -9.971056032e+002 +3.5360e-001 +1.0258e+000
13 0 +1.292459816e+000 -9.987075402e+002 -9.987075402e+002 -9.2813e-001 -3.5887e+000
50 0 +1.210419534e+000 -9.987895805e+002 -9.987895805e+002 -9.2022e-001 -3.5673e+000
70 0 +4.181842910e-001 -9.995818157e+002 -9.995818157e+002 -6.8374e-001 -2.5950e+000
76 0 +1.593001471e-002 -9.999840700e+002 -9.999840700e+002 -6.7471e-001 -2.5799e+000
505 0 +1.573582200e-002 -9.999842642e+002 -9.999842642e+002 -6.6729e-001 -2.5943e+000
2432 0 +4.918841923e-003 -9.999950812e+002 -9.999950812e+002 +1.0143e+000 -3.3046e-001
2456 0 +3.379081134e-003 -9.999966209e+002 -9.999966209e+002 +9.8837e-001 -3.0689e-001
2476 0 +9.465002810e-004 -9.999990535e+002 -9.999990535e+002 +9.2694e-001 -2.7232e-001
2693 0 +4.645063237e-004 -9.999995355e+002 -9.999995355e+002 +8.7229e-001 -2.3626e-001
2726 0 +2.144934949e-004 -9.999997855e+002 -9.999997855e+002 +7.5237e-001 -1.6329e-001
2731 0 +1.523012899e-004 -9.999998477e+002 -9.999998477e+002 +7.5782e-001 -1.6689e-001
2741 0 +1.440221274e-004 -9.999998560e+002 -9.999998560e+002 +7.4415e-001 -1.5888e-001
2745 0 +3.969880481e-005 -9.999999603e+002 -9.999999603e+002 +6.8522e-001 -1.2617e-001
2754 0 +5.031404953e-006 -9.999999950e+002 -9.999999950e+002 +6.5073e-001 -1.1046e-001
2771 0 +3.992944585e-006 -9.999999960e+002 -9.999999960e+002 +6.4403e-001 -1.0582e-001
2779 0 +5.463421076e-007 -9.999999995e+002 -9.999999995e+002 +7.0981e-001 -1.4212e-001
2785 0 +1.331069370e-007 -9.999999999e+002 -9.999999999e+002 +7.0588e-001 -1.4059e-001
2802 0 +9.052428140e-009 -1.000000000e+003 -1.000000000e+003 +6.9077e-001 -1.3191e-001
% f evaluations | g evaluations | best noise-free fitness - Fopt (-9.243000000000e+002) + sum g_i+ | measured fitness | best measured fitness or single-digit g-values | x1 | x2...
1 0 +6.158302170e+001 -8.627169783e+002 -8.627169783e+002 -1.7804e+000 +3.8722e+000
2 0 +4.463713805e+001 -8.796628619e+002 -8.796628619e+002 -2.1571e+000 +2.6731e+000
3 0 +2.451194231e+001 -8.997880577e+002 -8.997880577e+002 +4.7269e+000 +4.1848e+000
5 0 +5.865044863e+000 -9.184349551e+002 -9.184349551e+002 -4.7461e-001 -6.9488e-001
6 0 +2.320941199e+000 -9.219790588e+002 -9.219790588e+002 +1.9731e+000 +1.6910e+000
11 0 +1.522265210e+000 -9.227777348e+002 -9.227777348e+002 +3.5038e-001 +1.7677e+000
16 0 +1.485835598e-001 -9.241514164e+002 -9.241514164e+002 +3.0575e-001 +1.3925e+000
33 0 +4.006424554e-003 -9.242959936e+002 -9.242959936e+002 -6.6472e-002 +9.6340e-001
172 0 +1.372887484e-003 -9.242986271e+002 -9.242986271e+002 -7.6871e-002 +8.6445e-001
271 0 +1.205829459e-003 -9.242987942e+002 -9.242987942e+002 -8.8939e-002 +8.4856e-001
301 0 +3.572711780e-004 -9.242996427e+002 -9.242996427e+002 -8.1152e-002 +8.7566e-001
304 0 +4.589295872e-005 -9.242999541e+002 -9.242999541e+002 -9.5008e-002 +7.9880e-001
337 0 +1.075552552e-005 -9.242999892e+002 -9.242999892e+002 -1.0823e-001 +7.0754e-001
338 0 +7.154643981e-006 -9.242999928e+002 -9.242999928e+002 -1.1039e-001 +6.9558e-001
343 0 +2.234609724e-006 -9.242999978e+002 -9.242999978e+002 -1.1902e-001 +6.5204e-001
380 0 +2.988258530e-008 -9.243000000e+002 -9.243000000e+002 -1.1148e-001 +6.9845e-001
418 0 +1.165051344e-008 -9.243000000e+002 -9.243000000e+002 -1.1214e-001 +6.9365e-001
429 0 +6.383743312e-009 -9.243000000e+002 -9.243000000e+002 -1.1190e-001 +6.9488e-001
% f evaluations | g evaluations | best noise-free fitness - Fopt (-1.035000000000e+001) + sum g_i+ | measured fitness | best measured fitness or single-digit g-values | x1 | x2...
1 0 +1.836013442e+001 +8.010134418e+000 +8.010134418e+000 -1.0655e+000 -2.5823e+000
2 0 +1.632875924e+001 +5.978759235e+000 +5.978759235e+000 +1.8679e+000 -1.6186e+000
3 0 +8.190500750e+000 -2.159499250e+000 -2.159499250e+000 -3.1487e+000 -1.6693e+000
9 0 +5.494097111e+000 -4.855902889e+000 -4.855902889e+000 -2.3773e+000 -8.7120e-001
14 0 +2.263400489e-001 -1.012365995e+001 -1.012365995e+001 +4.1374e-001 +6.6018e-002
15 0 +4.714491094e-002 -1.030285509e+001 -1.030285509e+001 -9.0318e-002 +1.1266e+000
146 0 +1.850592619e-002 -1.033149407e+001 -1.033149407e+001 -9.2846e-002 +3.1492e-001
372 0 +1.684321486e-002 -1.033315679e+001 -1.033315679e+001 -9.2531e-002 +3.1589e-001
390 0 +6.720356378e-003 -1.034327964e+001 -1.034327964e+001 +1.2291e-001 -5.9467e-001
439 0 +2.463596539e-004 -1.034975364e+001 -1.034975364e+001 +1.4131e-001 -5.3120e-001
505 0 +1.085963778e-004 -1.034989140e+001 -1.034989140e+001 +1.3704e-001 -5.5417e-001
512 0 +9.262996974e-005 -1.034990737e+001 -1.034990737e+001 +1.3569e-001 -5.6123e-001
531 0 +6.474974099e-005 -1.034993525e+001 -1.034993525e+001 +1.3483e-001 -5.7250e-001
534 0 +2.834861798e-006 -1.034999717e+001 -1.034999717e+001 +1.2409e-001 -6.4918e-001
539 0 +1.358818002e-006 -1.034999864e+001 -1.034999864e+001 +1.2006e-001 -6.7813e-001
545 0 +3.095974392e-007 -1.034999969e+001 -1.034999969e+001 +1.1460e-001 -7.1049e-001
554 0 +1.407845680e-007 -1.034999986e+001 -1.034999986e+001 +1.1382e-001 -7.1320e-001
564 0 +1.825206475e-008 -1.034999998e+001 -1.034999998e+001 +1.1669e-001 -6.9439e-001
584 0 +1.097645175e-008 -1.034999999e+001 -1.034999999e+001 +1.1669e-001 -6.9454e-001
614 0 +9.226393871e-009 -1.034999999e+001 -1.034999999e+001 +1.1584e-001 -6.9997e-001
% f evaluations | g evaluations | best noise-free fitness - Fopt (-1.000000000000e+003) + sum g_i+ | measured fitness | best measured fitness or single-digit g-values | x1 | x2...
1 0 +2.000740202e+001 -9.799925980e+002 -9.799925980e+002 +1.8338e-001 -4.9401e+000
4 0 +3.126663893e+000 -9.968733361e+002 -9.968733361e+002 +5.0000e+000 -5.0000e+000
20 0 +2.244953426e+000 -9.977550466e+002 -9.977550466e+002 +1.1225e+000 -2.3881e+000
28 0 +4.703834137e-001 -9.995296166e+002 -9.995296166e+002 +2.7156e+000 -1.4581e+000
72 0 +7.396937912e-002 -9.999260306e+002 -9.999260306e+002 +1.2595e-001 -3.8832e+000
213 0 +5.055365965e-003 -9.999949446e+002 -9.999949446e+002 -2.7566e-001 -8.6822e-001
262 0 +3.697554622e-003 -9.999963024e+002 -9.999963024e+002 -2.6275e-001 -8.4432e-001
278 0 +9.389201742e-004 -9.999990611e+002 -9.999990611e+002 -2.6601e-001 -8.6099e-001
308 0 +5.118138209e-004 -9.999994882e+002 -9.999994882e+002 -2.6551e-001 -8.2770e-001
326 0 +2.803823372e-004 -9.999997196e+002 -9.999997196e+002 -2.6866e-001 -7.4211e-001
338 0 +1.187080728e-004 -9.999998813e+002 -9.999998813e+002 -2.6779e-001 -7.4142e-001
362 0 +5.881568086e-007 -9.999999994e+002 -9.999999994e+002 -2.6156e-001 -6.7248e-001
365 0 +1.580488060e-007 -9.999999998e+002 -9.999999998e+002 -2.6190e-001 -6.7226e-001
487 0 +1.106619720e-007 -9.999999999e+002 -9.999999999e+002 -2.6198e-001 -6.7138e-001
488 0 +7.106280009e-008 -9.999999999e+002 -9.999999999e+002 -2.6185e-001 -6.6871e-001
512 0 +3.200398169e-008 -1.000000000e+003 -1.000000000e+003 -2.6163e-001 -6.6491e-001
517 0 +1.569276264e-008 -1.000000000e+003 -1.000000000e+003 -2.6140e-001 -6.6152e-001
531 0 +1.516082193e-008 -1.000000000e+003 -1.000000000e+003 -2.6098e-001 -6.5201e-001
538 0 +1.318721843e-008 -1.000000000e+003 -1.000000000e+003 -2.6150e-001 -6.6092e-001
542 0 +4.367848305e-010 -1.000000000e+003 -1.000000000e+003 -2.6123e-001 -6.5699e-001
% f evaluations | g evaluations | best noise-free fitness - Fopt (2.880000000000e+001) + sum g_i+ | measured fitness | best measured fitness or single-digit g-values | x1 | x2...
1 0 +5.995883043e+000 +3.479588304e+001 +3.479588304e+001 +5.0941e-001 -1.8264e+000
8 0 +1.317010227e-001 +2.893170102e+001 +2.893170102e+001 +2.7281e+000 +4.1361e-001
271 0 +9.487397267e-002 +2.889487397e+001 +2.889487397e+001 +2.6200e+000 +4.6685e-001
343 0 +9.072400566e-002 +2.889072401e+001 +2.889072401e+001 +2.7358e+000 +2.2457e-001
384 0 +1.571037589e-002 +2.881571038e+001 +2.881571038e+001 +2.6563e+000 +2.6527e-001
1687 0 +1.202930097e-002 +2.881202930e+001 +2.881202930e+001 +2.0323e-001 -1.1471e+000
1716 0 +9.272429798e-003 +2.880927243e+001 +2.880927243e+001 +1.9289e-001 -1.1232e+000
1717 0 +4.246496501e-003 +2.880424650e+001 +2.880424650e+001 +1.5557e-001 -1.0380e+000
1725 0 +2.547776075e-003 +2.880254778e+001 +2.880254778e+001 +7.5845e-002 -8.2314e-001
1744 0 +2.273933987e-003 +2.880227393e+001 +2.880227393e+001 +1.4970e-001 -1.0125e+000
1781 0 +2.183073510e-003 +2.880218307e+001 +2.880218307e+001 +1.4479e-001 -9.9991e-001
1793 0 +2.127715281e-003 +2.880212772e+001 +2.880212772e+001 +1.5119e-001 -1.0190e+000
1796 0 +1.525016391e-003 +2.880152502e+001 +2.880152502e+001 +1.3694e-001 -9.8917e-001
1798 0 +5.344182178e-004 +2.880053442e+001 +2.880053442e+001 +1.0678e-001 -9.1158e-001
1801 0 +1.705855131e-004 +2.880017059e+001 +2.880017059e+001 +7.6069e-002 -8.3464e-001
1804 0 +1.083028540e-004 +2.880010830e+001 +2.880010830e+001 +7.1416e-002 -8.2380e-001
1808 0 +4.423804339e-005 +2.880004424e+001 +2.880004424e+001 +5.3014e-002 -7.7647e-001
1809 0 +4.403801665e-006 +2.880000440e+001 +2.880000440e+001 +4.2171e-002 -7.5122e-001
1811 0 +3.718729641e-006 +2.880000372e+001 +2.880000372e+001 +3.8869e-002 -7.4672e-001
1833 0 +1.852738585e-006 +2.880000185e+001 +2.880000185e+001 +2.9915e-002 -7.2332e-001
1836 0 +1.361956439e-006 +2.880000136e+001 +2.880000136e+001 +2.1761e-002 -7.0148e-001
1838 0 +1.318568490e-006 +2.880000132e+001 +2.880000132e+001 +2.4024e-002 -7.0754e-001
1846 0 +1.033732552e-006 +2.880000103e+001 +2.880000103e+001 +2.4890e-002 -7.0965e-001
1852 0 +9.358537802e-007 +2.880000094e+001 +2.880000094e+001 +1.9848e-002 -6.9594e-001
1855 0 +2.896923874e-007 +2.880000029e+001 +2.880000029e+001 +2.9154e-002 -7.1791e-001
1863 0 +2.076868135e-007 +2.880000021e+001 +2.880000021e+001 +2.2759e-002 -7.0082e-001
1870 0 +4.397561426e-008 +2.880000004e+001 +2.880000004e+001 +2.1375e-002 -6.9824e-001
1908 0 +9.783310162e-009 +2.880000001e+001 +2.880000001e+001 +2.3094e-002 -7.0285e-001
% f evaluations | g evaluations | best noise-free fitness - Fopt (3.534000000000e+001) + sum g_i+ | measured fitness | best measured fitness or single-digit g-values | x1 | x2...
1 0 +7.052685619e+000 +4.239268562e+001 +4.239268562e+001 -1.2641e+000 +2.1390e+000
2 0 +3.162414302e+000 +3.850241430e+001 +3.850241430e+001 +4.0531e+000 +2.0576e-002
8 0 +5.340982253e-001 +3.587409823e+001 +3.587409823e+001 -9.3065e-001 +8.2997e-001
62 0 +4.097933182e-001 +3.574979332e+001 +3.574979332e+001 -3.4573e-001 +9.9311e-001
87 0 +4.000068343e-001 +3.574000683e+001 +3.574000683e+001 -2.7636e-001 +1.2401e+000
192 0 +1.332494721e-001 +3.547324947e+001 +3.547324947e+001 -2.8056e-001 +1.3117e+000
248 0 +1.225062610e-001 +3.546250626e+001 +3.546250626e+001 -1.0610e-001 +6.4429e-001
252 0 +5.424441278e-002 +3.539424441e+001 +3.539424441e+001 +9.6575e-001 +5.1086e-001
429 0 +3.885339301e-002 +3.537885339e+001 +3.537885339e+001 +2.0451e-001 +4.4642e-001
586 0 +3.674045941e-002 +3.537674046e+001 +3.537674046e+001 +2.0442e-001 +4.4641e-001
600 0 +3.415426110e-002 +3.537415426e+001 +3.537415426e+001 +2.0428e-001 +4.4640e-001
605 0 +3.171489529e-002 +3.537171490e+001 +3.537171490e+001 +2.0404e-001 +4.4638e-001
621 0 +3.154116659e-002 +3.537154117e+001 +3.537154117e+001 +2.0396e-001 +4.4618e-001
3378 0 +3.344733482e-003 +3.534334473e+001 +3.534334473e+001 -8.0199e-001 -5.4121e-001
3416 0 +2.053920955e-004 +3.534020539e+001 +3.534020539e+001 -5.3916e-001 -4.3963e-001
3620 0 +1.196167769e-004 +3.534011962e+001 +3.534011962e+001 -5.1982e-001 -4.3277e-001
3688 0 +1.156152932e-004 +3.534011562e+001 +3.534011562e+001 -6.7628e-001 -4.9208e-001
3705 0 +3.578460560e-005 +3.534003578e+001 +3.534003578e+001 -4.7323e-001 -4.1621e-001
3718 0 +3.425337241e-005 +3.534003425e+001 +3.534003425e+001 -4.6752e-001 -4.1417e-001
3731 0 +1.550061690e-005 +3.534001550e+001 +3.534001550e+001 -4.8401e-001 -4.2094e-001
3741 0 +1.029885254e-005 +3.534001030e+001 +3.534001030e+001 -4.9380e-001 -4.2482e-001
3747 0 +9.657799922e-006 +3.534000966e+001 +3.534000966e+001 -4.9148e-001 -4.2404e-001
3756 0 +7.993461239e-006 +3.534000799e+001 +3.534000799e+001 -5.0148e-001 -4.2780e-001
3757 0 +6.564454544e-006 +3.534000656e+001 +3.534000656e+001 -4.9448e-001 -4.2543e-001
3763 0 +4.919355021e-006 +3.534000492e+001 +3.534000492e+001 -4.9861e-001 -4.2712e-001
3764 0 +3.421896444e-006 +3.534000342e+001 +3.534000342e+001 -5.1945e-001 -4.3487e-001
3766 0 +1.177506931e-006 +3.534000118e+001 +3.534000118e+001 -5.1378e-001 -4.3392e-001
3769 0 +1.027649979e-006 +3.534000103e+001 +3.534000103e+001 -5.1587e-001 -4.3474e-001
3789 0 +9.824636038e-007 +3.534000098e+001 +3.534000098e+001 -5.1587e-001 -4.3428e-001
3795 0 +3.954711048e-007 +3.534000040e+001 +3.534000040e+001 -5.3091e-001 -4.3988e-001
3802 0 +3.849922834e-007 +3.534000038e+001 +3.534000038e+001 -5.3114e-001 -4.3997e-001
3806 0 +2.232803666e-007 +3.534000022e+001 +3.534000022e+001 -5.3422e-001 -4.4124e-001
3813 0 +7.258046253e-008 +3.534000007e+001 +3.534000007e+001 -5.4367e-001 -4.4533e-001
3814 0 +4.199925741e-008 +3.534000004e+001 +3.534000004e+001 -5.3998e-001 -4.4376e-001
3826 0 +9.204846663e-009 +3.534000001e+001 +3.534000001e+001 -5.4416e-001 -4.4531e-001
