% f evaluations | g evaluations | best noise-free fitness - Fopt (7.135000000000e+001) + sum g_i+ | measured fitness | best measured fitness or single-digit g-values | x1 | x2...
1 0 +8.911057377e+001 +1.604605738e+002 +1.604605738e+002 +4.4148e+000 +1.1737e+000
3 0 +2.901569673e+000 +7.425156967e+001 +7.425156967e+001 +8.9435e-001 -2.0284e-001
208 0 +2.019823497e+000 +7.336982350e+001 +7.336982350e+001 +1.0148e+000 -1.9667e-001
212 0 +1.018237870e+000 +7.236823787e+001 +7.236823787e+001 +1.1446e+000 -1.9080e-001
214 0 +1.077114243e-001 +7.145771142e+001 +7.145771142e+001 +1.7415e+000 -2.1419e+000
255 0 +6.242072656e-002 +7.141242073e+001 +7.141242073e+001 +1.8478e+000 -2.1371e+000
260 0 +2.506583618e-002 +7.137506584e+001 +7.137506584e+001 +1.8494e+000 -2.1400e+000
354 0 +1.173484077e-003 +7.135117348e+001 +7.135117348e+001 +1.8384e+000 -2.1419e+000
458 0 +1.050678752e-003 +7.135105068e+001 +7.135105068e+001 +1.8377e+000 -2.1419e+000
492 0 +7.983622473e-004 +7.135079836e+001 +7.135079836e+001 +1.8375e+000 -2.1419e+000
499 0 +3.741757984e-004 +7.135037418e+001 +7.135037418e+001 +1.8327e+000 -2.1430e+000
501 0 +5.764714626e-005 +7.135005765e+001 +7.135005765e+001 +1.8341e+000 -2.1423e+000
515 0 +2.190972670e-005 +7.135002191e+001 +7.135002191e+001 +1.8313e+000 -2.1424e+000
536 0 +7.843933730e-006 +7.135000784e+001 +7.135000784e+001 +1.8324e+000 -2.1424e+000
546 0 +6.103862646e-006 +7.135000610e+001 +7.135000610e+001 +1.8323e+000 -2.1424e+000
581 0 +9.958831981e-008 +7.135000010e+001 +7.135000010e+001 +1.8329e+000 -2.1424e+000
584 0 +6.422801846e-008 +7.135000006e+001 +7.135000006e+001 +1.8327e+000 -2.1424e+000
603 0 +1.238780101e-008 +7.135000001e+001 +7.135000001e+001 +1.8328e+000 -2.1424e+000
629 0 +9.997535244e-009 +7.135000001e+001 +7.135000001e+001 +1.8328e+000 -2.1424e+000
% f evaluations | g evaluations | best noise-free fitness - Fopt (-3.552200000000e+002) + sum g_i+ | measured fitness | best measured fitness or single-digit g-values | x1 | x2...
1 0 +6.082251568e+001 -2.943974843e+002 -2.943974843e+002 +4.0890e+000 -1.7899e+000
3 0 +2.234408652e+001 -3.328759135e+002 -3.328759135e+002 +4.2039e-001 -2.5700e+000
8 0 +1.619823596e+001 -3.390217640e+002 -3.390217640e+002 -4.5620e+000 +3.2313e+000
16 0 +2.078362852e+000 -3.531416371e+002 -3.531416371e+002 +1.4223e+000 -2.9093e+000
128 0 +8.986748270e-001 -3.543213252e+002 -3.543213252e+002 +1.5099e+000 -2.8832e+000
168 0 +5.047531905e-001 -3.547152468e+002 -3.547152468e+002 +1.5003e+000 -2.8832e+000
248 0 +4.598769300e-001 -3.547601231e+002 -3.547601231e+002 +1.5005e+000 -2.8816e+000
309 0 +1.084623533e-001 -3.551115376e+002 -3.551115376e+002 +1.4085e+000 -2.8845e+000
319 0 +4.925776779e-002 -3.551707422e+002 -3.551707422e+002 -3.9537e-001 -2.6142e+000
353 0 +4.790998187e-002 -3.551720900e+002 -3.551720900e+002 -3.9519e-001 -2.6141e+000
403 0 +5.232627650e-003 -3.552147674e+002 -3.552147674e+002 -3.9341e-001 -2.6227e+000
420 0 +3.513366725e-003 -3.552164866e+002 -3.552164866e+002 -3.5210e-001 -2.6077e+000
434 0 +1.838057865e-004 -3.552198162e+002 -3.552198162e+002 -3.6029e-001 -2.6110e+000
436 0 +1.563660681e-004 -3.552198436e+002 -3.552198436e+002 -3.5613e-001 -2.6099e+000
510 0 +1.118925715e-004 -3.552198881e+002 -3.552198881e+002 -3.6240e-001 -2.6120e+000
518 0 +1.043340162e-004 -3.552198957e+002 -3.552198957e+002 -3.6238e-001 -2.6120e+000
526 0 +1.989743572e-005 -3.552199801e+002 -3.552199801e+002 -3.6192e-001 -2.6119e+000
537 0 +1.779500468e-005 -3.552199822e+002 -3.552199822e+002 -3.6174e-001 -2.6119e+000
538 0 +1.605704500e-005 -3.552199839e+002 -3.552199839e+002 -3.6173e-001 -2.6119e+000
544 0 +1.014156595e-005 -3.552199899e+002 -3.552199899e+002 -3.6159e-001 -2.6118e+000
568 0 +7.972304275e-006 -3.552199920e+002 -3.552199920e+002 -3.5874e-001 -2.6109e+000
572 0 +5.606017169e-006 -3.552199944e+002 -3.552199944e+002 -3.6073e-001 -2.6116e+000
578 0 +4.391963330e-006 -3.552199956e+002 -3.552199956e+002 -3.6081e-001 -2.6116e+000
586 0 +3.129453660e-006 -3.552199969e+002 -3.552199969e+002 -3.6043e-001 -2.6115e+000
590 0 +1.567539016e-006 -3.552199984e+002 -3.552199984e+002 -3.6038e-001 -2.6114e+000
591 0 +1.046396392e-008 -3.552200000e+002 -3.552200000e+002 -3.6000e-001 -2.6113e+000
640 0 +1.022669949e-009 -3.552200000e+002 -3.552200000e+002 -3.6000e-001 -2.6113e+000
% f evaluations | g evaluations | best noise-free fitness - Fopt (9.917000000000e+001) + sum g_i+ | measured fitness | best measured fitness or single-digit g-values | x1 | x2...
1 0 +1.266616519e+002 +2.258316519e+002 +2.258316519e+002 +1.0461e+000 +1.6808e+000
2 0 +1.127640963e+002 +2.119340963e+002 +2.119340963e+002 -5.0000e+000 -6.4730e-001
5 0 +9.954062940e+001 +1.987106294e+002 +1.987106294e+002 -8.2134e-001 +8.5628e-001
6 0 +1.137802890e+001 +1.105480289e+002 +1.105480289e+002 +2.0026e+000 -4.4871e+000
54 0 +6.386491068e+000 +1.055564911e+002 +1.055564911e+002 -2.3921e+000 +2.0397e+000
57 0 +1.410633508e+000 +1.005806335e+002 +1.005806335e+002 +5.5513e-001 +1.2885e+000
197 0 +2.878844215e-001 +9.945788442e+001 +9.945788442e+001 +6.1792e-001 +1.2864e+000
316 0 +6.085362674e-002 +9.923085363e+001 +9.923085363e+001 +5.5491e-001 +1.3460e+000
476 0 +5.719142878e-002 +9.922719143e+001 +9.922719143e+001 +5.3958e-001 +1.3521e+000
516 0 +2.849441232e-002 +9.919849441e+001 +9.919849441e+001 +5.4665e-001 +1.3588e+000
696 0 +2.096513694e-002 +9.919096514e+001 +9.919096514e+001 +5.5121e-001 +1.3490e+000
756 0 +1.290724822e-002 +9.918290725e+001 +9.918290725e+001 +5.5037e-001 +1.3480e+000
760 0 +5.174080888e-003 +9.917517408e+001 +9.917517408e+001 +5.4373e-001 +1.3551e+000
1068 0 +4.727814875e-003 +9.917472781e+001 +9.917472781e+001 +5.4367e-001 +1.3553e+000
1114 0 +4.477315992e-003 +9.917447732e+001 +9.917447732e+001 +5.4360e-001 +1.3554e+000
1133 0 +3.427524143e-003 +9.917342752e+001 +9.917342752e+001 +5.2938e-001 +1.3740e+000
1136 0 +2.708010221e-003 +9.917270801e+001 +9.917270801e+001 +5.2236e-001 +1.3791e+000
1142 0 +2.448004285e-003 +9.917244800e+001 +9.917244800e+001 +5.2231e-001 +1.3792e+000
1147 0 +2.237840376e-003 +9.917223784e+001 +9.917223784e+001 +5.2220e-001 +1.3792e+000
1150 0 +2.071365086e-003 +9.917207137e+001 +9.917207137e+001 +5.2216e-001 +1.3793e+000
1151 0 +9.749773069e-004 +9.917097498e+001 +9.917097498e+001 +5.1606e-001 +1.3875e+000
1153 0 +5.203759520e-004 +9.917052038e+001 +9.917052038e+001 +5.1539e-001 +1.3889e+000
1156 0 +1.934919023e-004 +9.917019349e+001 +9.917019349e+001 +5.1824e-001 +1.3853e+000
1164 0 +7.111293517e-005 +9.917007111e+001 +9.917007111e+001 +5.1989e-001 +1.3832e+000
1166 0 +6.657491406e-005 +9.917006657e+001 +9.917006657e+001 +5.1987e-001 +1.3832e+000
1176 0 +6.445431794e-005 +9.917006445e+001 +9.917006445e+001 +5.1996e-001 +1.3829e+000
1186 0 +6.232687296e-005 +9.917006233e+001 +9.917006233e+001 +5.1990e-001 +1.3830e+000
1209 0 +4.971265056e-005 +9.917004971e+001 +9.917004971e+001 +5.1993e-001 +1.3829e+000
1226 0 +4.813069039e-005 +9.917004813e+001 +9.917004813e+001 +5.2000e-001 +1.3829e+000
1229 0 +4.756475367e-005 +9.917004756e+001 +9.917004756e+001 +5.1993e-001 +1.3829e+000
1243 0 +8.002994264e-006 +9.917000800e+001 +9.917000800e+001 +5.2026e-001 +1.3830e+000
1244 0 +1.883746990e-007 +9.917000019e+001 +9.917000019e+001 +5.2049e-001 +1.3828e+000
1316 0 +7.975154404e-008 +9.917000008e+001 +9.917000008e+001 +5.2056e-001 +1.3828e+000
1321 0 +6.436526689e-008 +9.917000006e+001 +9.917000006e+001 +5.2054e-001 +1.3828e+000
1327 0 +2.506875774e-008 +9.917000003e+001 +9.917000003e+001 +5.2056e-001 +1.3828e+000
1333 0 +1.089796342e-008 +9.917000001e+001 +9.917000001e+001 +5.2055e-001 +1.3828e+000
1338 0 +7.502009680e-009 +9.917000001e+001 +9.917000001e+001 +5.2060e-001 +1.3827e+000
% f evaluations | g evaluations | best noise-free fitness - Fopt (-5.179100000000e+002) + sum g_i+ | measured fitness | best measured fitness or single-digit g-values | x1 | x2...
1 0 +1.217031739e+002 -3.962068261e+002 -3.962068261e+002 -3.5435e+000 -5.1081e-001
2 0 +1.093637104e+002 -4.085462896e+002 -4.085462896e+002 +1.1150e+000 +3.4941e+000
4 0 +3.014240211e+001 -4.877675979e+002 -4.877675979e+002 -4.2148e-001 +3.8169e+000
6 0 +1.907736740e+001 -4.988326326e+002 -4.988326326e+002 -1.5703e+000 +2.7321e+000
9 0 +1.255542665e+001 -5.053545734e+002 -5.053545734e+002 +7.7460e-001 -4.4140e+000
48 0 +6.323869163e+000 -5.115861308e+002 -5.115861308e+002 +6.3597e-001 -4.2163e-001
58 0 +5.036503397e+000 -5.128734966e+002 -5.128734966e+002 +6.2542e-001 -4.1634e-001
72 0 +9.718100522e-001 -5.169381899e+002 -5.169381899e+002 +4.8416e+000 +5.4965e-001
121 0 +4.524543755e-001 -5.174575456e+002 -5.174575456e+002 +4.8240e+000 +5.5017e-001
136 0 +3.318454417e-001 -5.175781546e+002 -5.175781546e+002 +4.9283e+000 +6.6800e-001
240 0 +2.414979439e-001 -5.176685021e+002 -5.176685021e+002 +4.7571e+000 +5.1569e-001
254 0 +2.374542135e-001 -5.176725458e+002 -5.176725458e+002 +4.7814e+000 +5.2084e-001
257 0 +1.882103383e-001 -5.177217897e+002 -5.177217897e+002 +4.8807e+000 +6.3483e-001
265 0 +8.508449554e-002 -5.178249155e+002 -5.178249155e+002 +4.8886e+000 +6.3467e-001
283 0 +2.458881318e-002 -5.178854112e+002 -5.178854112e+002 +4.8547e+000 +5.9894e-001
302 0 +9.654648034e-003 -5.179003454e+002 -5.179003454e+002 +4.8505e+000 +5.9470e-001
338 0 +6.904559559e-003 -5.179030954e+002 -5.179030954e+002 +4.8499e+000 +5.9435e-001
370 0 +6.536732051e-003 -5.179034633e+002 -5.179034633e+002 +4.8495e+000 +5.9411e-001
382 0 +4.932437236e-003 -5.179050676e+002 -5.179050676e+002 +4.8469e+000 +5.9173e-001
386 0 +1.737040989e-003 -5.179082630e+002 -5.179082630e+002 +4.8309e+000 +5.7641e-001
388 0 +2.396027014e-005 -5.179099760e+002 -5.179099760e+002 +4.8256e+000 +5.7084e-001
421 0 +4.800280522e-006 -5.179099952e+002 -5.179099952e+002 +4.8252e+000 +5.7048e-001
459 0 +3.989044785e-006 -5.179099960e+002 -5.179099960e+002 +4.8251e+000 +5.7041e-001
473 0 +3.884547027e-006 -5.179099961e+002 -5.179099961e+002 +4.8251e+000 +5.7042e-001
489 0 +2.823361342e-006 -5.179099972e+002 -5.179099972e+002 +4.8247e+000 +5.7004e-001
491 0 +1.947376632e-006 -5.179099981e+002 -5.179099981e+002 +4.8248e+000 +5.7008e-001
506 0 +5.837890740e-007 -5.179099994e+002 -5.179099994e+002 +4.8250e+000 +5.7035e-001
513 0 +2.669858077e-007 -5.179099997e+002 -5.179099997e+002 +4.8250e+000 +5.7031e-001
527 0 +2.599778099e-007 -5.179099997e+002 -5.179099997e+002 +4.8249e+000 +5.7024e-001
537 0 +2.499781431e-007 -5.179099998e+002 -5.179099998e+002 +4.8250e+000 +5.7031e-001
540 0 +1.790631359e-007 -5.179099998e+002 -5.179099998e+002 +4.8250e+000 +5.7029e-001
545 0 +3.375066626e-008 -5.179100000e+002 -5.179100000e+002 +4.8250e+000 +5.7029e-001
553 0 +1.641672043e-008 -5.179100000e+002 -5.179100000e+002 +4.8249e+000 +5.7024e-001
571 0 +1.167722985e-008 -5.179100000e+002 -5.179100000e+002 +4.8249e+000 +5.7024e-001
581 0 +6.732761904e-009 -5.179100000e+002 -5.179100000e+002 +4.8250e+000 +5.7027e-001
% f evaluations | g evaluations | best noise-free fitness - Fopt (-5.721000000000e+001) + sum g_i+ | measured fitness | best measured fitness or single-digit g-values | x1 | x2...
1 0 +4.363765596e+001 -1.357234404e+001 -1.357234404e+001 -3.4029e+000 -3.8036e+000
7 0 +4.159334607e+001 -1.561665393e+001 -1.561665393e+001 +1.5211e+000 -4.1437e+000
9 0 +1.695392018e+001 -4.025607982e+001 -4.025607982e+001 +1.3997e+000 -3.0444e+000
12 0 +9.852399290e-001 -5.622476007e+001 -5.622476007e+001 -4.1681e+000 +1.5577e+000
62 0 +5.171115714e-001 -5.669288843e+001 -5.669288843e+001 -4.5707e+000 +1.9954e+000
63 0 +4.393922660e-001 -5.677060773e+001 -5.677060773e+001 -4.8621e+000 +3.9225e+000
113 0 +4.130201889e-001 -5.679697981e+001 -5.679697981e+001 -4.8509e+000 +3.9176e+000
181 0 +1.177217388e-001 -5.709227826e+001 -5.709227826e+001 -4.8382e+000 +3.8352e+000
221 0 +4.842718979e-002 -5.716157281e+001 -5.716157281e+001 -4.8123e+000 +3.8352e+000
272 0 +1.403408067e-002 -5.719596592e+001 -5.719596592e+001 -4.8042e+000 +3.7990e+000
290 0 +1.840361885e-003 -5.720815964e+001 -5.720815964e+001 -4.8201e+000 +3.8283e+000
383 0 +8.375926224e-004 -5.720916241e+001 -5.720916241e+001 -4.8210e+000 +3.8302e+000
439 0 +5.939780941e-004 -5.720940602e+001 -5.720940602e+001 -4.8195e+000 +3.8286e+000
440 0 +5.039111710e-004 -5.720949609e+001 -5.720949609e+001 -4.8164e+000 +3.8230e+000
442 0 +1.337436665e-004 -5.720986626e+001 -5.720986626e+001 -4.8162e+000 +3.8242e+000
459 0 +5.205932356e-005 -5.720994794e+001 -5.720994794e+001 -4.8164e+000 +3.8242e+000
463 0 +3.447251455e-005 -5.720996553e+001 -5.720996553e+001 -4.8164e+000 +3.8241e+000
470 0 +2.692738878e-005 -5.720997307e+001 -5.720997307e+001 -4.8160e+000 +3.8236e+000
478 0 +1.883808384e-005 -5.720998116e+001 -5.720998116e+001 -4.8150e+000 +3.8221e+000
491 0 +6.567984698e-006 -5.720999343e+001 -5.720999343e+001 -4.8154e+000 +3.8227e+000
506 0 +1.143400773e-006 -5.720999886e+001 -5.720999886e+001 -4.8156e+000 +3.8230e+000
517 0 +1.005273518e-007 -5.720999990e+001 -5.720999990e+001 -4.8156e+000 +3.8229e+000
612 0 +8.513487160e-008 -5.720999991e+001 -5.720999991e+001 -4.8156e+000 +3.8229e+000
613 0 +1.583714493e-009 -5.721000000e+001 -5.721000000e+001 -4.8156e+000 +3.8229e+000
% f evaluations | g evaluations | best noise-free fitness - Fopt (6.626000000000e+001) + sum g_i+ | measured fitness | best measured fitness or single-digit g-values | x1 | x2...
1 0 +3.547393610e+001 +1.017339361e+002 +1.017339361e+002 -2.3332e+000 -3.2048e-001
2 0 +3.202811070e+001 +9.828811070e+001 +9.828811070e+001 -4.6207e+000 -1.2499e+000
6 0 +2.784616501e+001 +9.410616501e+001 +9.410616501e+001 +1.8672e+000 -3.3490e+000
11 0 +6.812402523e+000 +7.307240252e+001 +7.307240252e+001 -4.2237e+000 -2.9171e+000
179 0 +1.197982606e+000 +6.745798261e+001 +6.745798261e+001 -4.3744e+000 -3.9177e+000
256 0 +3.113024912e-001 +6.657130249e+001 +6.657130249e+001 -4.3479e+000 -3.8700e+000
296 0 +1.585904706e-001 +6.641859047e+001 +6.641859047e+001 -4.3479e+000 -3.8540e+000
331 0 +5.462192116e-002 +6.631462192e+001 +6.631462192e+001 -4.3319e+000 -3.7446e+000
344 0 +3.783912728e-002 +6.629783913e+001 +6.629783913e+001 -4.3315e+000 -3.7429e+000
362 0 +6.784655958e-003 +6.626678466e+001 +6.626678466e+001 -4.3360e+000 -3.7820e+000
374 0 +4.897449951e-004 +6.626048974e+001 +6.626048974e+001 -4.3386e+000 -3.7807e+000
403 0 +2.555320960e-004 +6.626025553e+001 +6.626025553e+001 -4.3385e+000 -3.7821e+000
410 0 +2.050974991e-004 +6.626020510e+001 +6.626020510e+001 -4.3384e+000 -3.7827e+000
441 0 +9.789075108e-005 +6.626009789e+001 +6.626009789e+001 -4.3384e+000 -3.7839e+000
444 0 +8.062134921e-005 +6.626008062e+001 +6.626008062e+001 -4.3382e+000 -3.7789e+000
458 0 +7.166873674e-005 +6.626007167e+001 +6.626007167e+001 -4.3382e+000 -3.7799e+000
462 0 +4.015233537e-005 +6.626004015e+001 +6.626004015e+001 -4.3382e+000 -3.7801e+000
467 0 +3.589251629e-005 +6.626003589e+001 +6.626003589e+001 -4.3381e+000 -3.7803e+000
469 0 +1.283767448e-005 +6.626001284e+001 +6.626001284e+001 -4.3381e+000 -3.7805e+000
483 0 +1.244476614e-005 +6.626001244e+001 +6.626001244e+001 -4.3381e+000 -3.7808e+000
503 0 +1.098295014e-005 +6.626001098e+001 +6.626001098e+001 -4.3381e+000 -3.7813e+000
506 0 +9.739833303e-006 +6.626000974e+001 +6.626000974e+001 -4.3381e+000 -3.7810e+000
515 0 +8.039873649e-006 +6.626000804e+001 +6.626000804e+001 -4.3381e+000 -3.7815e+000
517 0 +7.595214413e-006 +6.626000760e+001 +6.626000760e+001 -4.3380e+000 -3.7815e+000
520 0 +2.380288322e-007 +6.626000024e+001 +6.626000024e+001 -4.3380e+000 -3.7822e+000
534 0 +1.420184503e-007 +6.626000014e+001 +6.626000014e+001 -4.3380e+000 -3.7822e+000
547 0 +1.265318019e-007 +6.626000013e+001 +6.626000013e+001 -4.3380e+000 -3.7822e+000
565 0 +1.250332105e-007 +6.626000013e+001 +6.626000013e+001 -4.3380e+000 -3.7822e+000
596 0 +9.906376874e-008 +6.626000010e+001 +6.626000010e+001 -4.3380e+000 -3.7822e+000
598 0 +4.443236890e-008 +6.626000004e+001 +6.626000004e+001 -4.3380e+000 -3.7823e+000
601 0 +1.841446817e-008 +6.626000002e+001 +6.626000002e+001 -4.3380e+000 -3.7823e+000
602 0 +1.287266116e-008 +6.626000001e+001 +6.626000001e+001 -4.3380e+000 -3.7823e+000
617 0 +7.303810889e-009 +6.626000001e+001 +6.626000001e+001 -4.3380e+000 -3.7823e+000
% f evaluations | g evaluations | best noise-free fitness - Fopt (-1.386200000000e+002) + sum g_i+ | measured fitness | best measured fitness or single-digit g-values | x1 | x2...
1 0 +7.117128928e+001 -6.744871072e+001 -6.744871072e+001 +4.8213e+000 -4.4815e+000
2 0 +2.266602113e+001 -1.159539789e+002 -1.159539789e+002 +4.0608e+000 -2.0541e+000
3 0 +1.914413694e+001 -1.194758631e+002 -1.194758631e+002 -3.6056e+000 -1.7868e-001
42 0 +1.500633707e+000 -1.371193663e+002 -1.371193663e+002 -3.3456e+000 -2.0754e+000
229 0 +7.869485742e-001 -1.378330514e+002 -1.378330514e+002 -3.4204e+000 -1.7573e+000
236 0 +2.708861589e-001 -1.383491138e+002 -1.383491138e+002 -3.4097e+000 -1.5485e+000
257 0 +9.835976879e-002 -1.385216402e+002 -1.385216402e+002 -3.4124e+000 -1.5261e+000
261 0 +4.046257500e-002 -1.385795374e+002 -1.385795374e+002 -3.4166e+000 -1.6080e+000
322 0 +2.642399403e-002 -1.385935760e+002 -1.385935760e+002 -3.4256e+000 -1.6225e+000
328 0 +4.146856526e-003 -1.386158531e+002 -1.386158531e+002 -3.4241e+000 -1.6065e+000
348 0 +3.838806920e-003 -1.386161612e+002 -1.386161612e+002 -3.4241e+000 -1.6065e+000
351 0 +5.265230677e-004 -1.386194735e+002 -1.386194735e+002 -3.4232e+000 -1.5984e+000
481 0 +5.176653623e-004 -1.386194823e+002 -1.386194823e+002 -3.4232e+000 -1.5984e+000
482 0 +2.616957359e-004 -1.386197383e+002 -1.386197383e+002 -3.4223e+000 -1.5912e+000
487 0 +2.072359010e-004 -1.386197928e+002 -1.386197928e+002 -3.4222e+000 -1.5910e+000
495 0 +1.020454782e-004 -1.386198980e+002 -1.386198980e+002 -3.4222e+000 -1.5907e+000
503 0 +9.908446384e-005 -1.386199009e+002 -1.386199009e+002 -3.4221e+000 -1.5902e+000
514 0 +6.472726730e-005 -1.386199353e+002 -1.386199353e+002 -3.4222e+000 -1.5905e+000
543 0 +5.594031552e-005 -1.386199441e+002 -1.386199441e+002 -3.4226e+000 -1.5912e+000
557 0 +1.758932089e-005 -1.386199824e+002 -1.386199824e+002 -3.4224e+000 -1.5903e+000
575 0 +9.657015937e-006 -1.386199903e+002 -1.386199903e+002 -3.4225e+000 -1.5903e+000
604 0 +9.015423558e-006 -1.386199910e+002 -1.386199910e+002 -3.4223e+000 -1.5899e+000
609 0 +2.494729756e-006 -1.386199975e+002 -1.386199975e+002 -3.4224e+000 -1.5896e+000
613 0 +1.425443344e-006 -1.386199986e+002 -1.386199986e+002 -3.4224e+000 -1.5897e+000
640 0 +1.009610003e-006 -1.386199990e+002 -1.386199990e+002 -3.4224e+000 -1.5897e+000
645 0 +6.412616642e-007 -1.386199994e+002 -1.386199994e+002 -3.4224e+000 -1.5897e+000
712 0 +5.320603975e-007 -1.386199995e+002 -1.386199995e+002 -3.4224e+000 -1.5897e+000
713 0 +7.615565778e-008 -1.386199999e+002 -1.386199999e+002 -3.4224e+000 -1.5896e+000
716 0 +6.200687608e-008 -1.386199999e+002 -1.386199999e+002 -3.4224e+000 -1.5896e+000
732 0 +9.050751260e-009 -1.386200000e+002 -1.386200000e+002 -3.4224e+000 -1.5896e+000
832 0 +0.000000000e+000 -1.386200000e+002 -1.386200000e+002 -3.4224e+000 -1.5896e+000
% f evaluations | g evaluations | best noise-free fitness - Fopt (7.313900000000e+002) + sum g_i+ | measured fitness | best measured fitness or single-digit g-values | x1 | x2...
1 0 +7.783618270e+001 +8.092261827e+002 +8.092261827e+002 +2.4598e-001 +3.5223e-001
2 0 +5.130507275e+001 +7.826950727e+002 +7.826950727e+002 +9.2557e-001 -2.7049e+000
4 0 +2.841374260e+001 +7.598037426e+002 +7.598037426e+002 +3.0472e+000 -2.2770e+000
5 0 +2.071076353e+001 +7.521007635e+002 +7.521007635e+002 +3.6739e+000 +9.7445e-001
6 0 +3.470060835e+000 +7.348600608e+002 +7.348600608e+002 -3.0793e+000 +5.6232e-001
13 0 +8.002890209e-001 +7.321902890e+002 +7.321902890e+002 -4.8164e+000 -2.7922e+000
106 0 +6.128505003e-001 +7.320028505e+002 +7.320028505e+002 -4.7607e+000 -2.9146e+000
131 0 +5.604910837e-001 +7.319504911e+002 +7.319504911e+002 -4.8316e+000 +2.4353e+000
162 0 +5.401971923e-001 +7.319301972e+002 +7.319301972e+002 -4.8510e+000 +2.5045e+000
189 0 +3.082988732e-001 +7.316982989e+002 +7.316982989e+002 -4.8844e+000 +2.6003e+000
190 0 +2.045088841e-001 +7.315945089e+002 +7.315945089e+002 -4.8619e+000 +2.6041e+000
254 0 +1.961221947e-001 +7.315861222e+002 +7.315861222e+002 -4.8632e+000 +2.6222e+000
256 0 +1.305800956e-002 +7.314030580e+002 +7.314030580e+002 -4.8864e+000 +2.7098e+000
258 0 +7.138265183e-003 +7.313971383e+002 +7.313971383e+002 -4.8854e+000 +2.7150e+000
288 0 +6.593241040e-003 +7.313965932e+002 +7.313965932e+002 -4.8804e+000 +2.7055e+000
293 0 +6.151935315e-003 +7.313961519e+002 +7.313961519e+002 -4.8867e+000 +2.7310e+000
325 0 +1.605148922e-003 +7.313916051e+002 +7.313916051e+002 -4.8841e+000 +2.7173e+000
370 0 +1.382413339e-003 +7.313913824e+002 +7.313913824e+002 -4.8840e+000 +2.7165e+000
384 0 +1.236500028e-003 +7.313912365e+002 +7.313912365e+002 -4.8840e+000 +2.7160e+000
385 0 +1.134619460e-003 +7.313911346e+002 +7.313911346e+002 -4.8840e+000 +2.7187e+000
390 0 +1.917413507e-004 +7.313901917e+002 +7.313901917e+002 -4.8843e+000 +2.7219e+000
404 0 +1.448720608e-004 +7.313901449e+002 +7.313901449e+002 -4.8843e+000 +2.7225e+000
420 0 +7.629157869e-005 +7.313900763e+002 +7.313900763e+002 -4.8843e+000 +2.7226e+000
428 0 +2.467071067e-005 +7.313900247e+002 +7.313900247e+002 -4.8844e+000 +2.7233e+000
432 0 +1.726435744e-005 +7.313900173e+002 +7.313900173e+002 -4.8845e+000 +2.7238e+000
470 0 +1.244289854e-005 +7.313900124e+002 +7.313900124e+002 -4.8845e+000 +2.7242e+000
495 0 +4.787057946e-006 +7.313900048e+002 +7.313900048e+002 -4.8845e+000 +2.7240e+000
499 0 +2.320505473e-006 +7.313900023e+002 +7.313900023e+002 -4.8844e+000 +2.7241e+000
500 0 +1.501136353e-006 +7.313900015e+002 +7.313900015e+002 -4.8844e+000 +2.7241e+000
510 0 +9.991008483e-007 +7.313900010e+002 +7.313900010e+002 -4.8844e+000 +2.7242e+000
539 0 +1.126857114e-007 +7.313900001e+002 +7.313900001e+002 -4.8845e+000 +2.7244e+000
540 0 +4.905552942e-008 +7.313900000e+002 +7.313900000e+002 -4.8845e+000 +2.7244e+000
544 0 +5.468336894e-011 +7.313900000e+002 +7.313900000e+002 -4.8845e+000 +2.7244e+000
640 0 +0.000000000e+000 +7.313900000e+002 +7.313900000e+002 -4.8845e+000 +2.7244e+000
% f evaluations | g evaluations | best noise-free fitness - Fopt (7.526000000000e+001) + sum g_i+ | measured fitness | best measured fitness or single-digit g-values | x1 | x2...
1 0 +1.252972881e+002 +2.005572881e+002 +2.005572881e+002 -4.2329e+000 -7.6957e-001
2 0 +9.564091442e+000 +8.482409144e+001 +8.482409144e+001 -1.5019e+000 +8.9618e-001
62 0 +5.623190915e+000 +8.088319091e+001 +8.088319091e+001 -1.7800e+000 +4.7512e-001
65 0 +5.141197144e+000 +8.040119714e+001 +8.040119714e+001 -2.4669e+000 -4.0397e-001
105 0 +3.195158063e+000 +7.845515806e+001 +7.845515806e+001 -2.4669e+000 -1.9078e+000
141 0 +3.584766994e-001 +7.561847670e+001 +7.561847670e+001 -2.6671e+000 -2.1056e+000
278 0 +3.473832356e-001 +7.560738324e+001 +7.560738324e+001 -2.6675e+000 -2.1065e+000
290 0 +2.624295257e-001 +7.552242953e+001 +7.552242953e+001 -2.4944e+000 -1.8809e+000
317 0 +1.800870561e-001 +7.544008706e+001 +7.544008706e+001 -2.4933e+000 -1.8776e+000
318 0 +8.901860625e-002 +7.534901861e+001 +7.534901861e+001 -2.4703e+000 -1.8458e+000
364 0 +4.017669752e-002 +7.530017670e+001 +7.530017670e+001 -2.4384e+000 -1.8356e+000
383 0 +2.686163193e-002 +7.528686163e+001 +7.528686163e+001 -2.4378e+000 -1.8348e+000
435 0 +1.895790868e-002 +7.527895791e+001 +7.527895791e+001 -2.4232e+000 -1.8213e+000
437 0 +1.654069726e-002 +7.527654070e+001 +7.527654070e+001 -2.4331e+000 -1.8291e+000
439 0 +1.375269693e-002 +7.527375270e+001 +7.527375270e+001 -2.4329e+000 -1.8290e+000
444 0 +1.096880571e-002 +7.527096881e+001 +7.527096881e+001 -2.4324e+000 -1.8278e+000
447 0 +8.154272013e-003 +7.526815427e+001 +7.526815427e+001 -2.4322e+000 -1.8276e+000
459 0 +7.710332706e-003 +7.526771033e+001 +7.526771033e+001 -2.4316e+000 -1.8265e+000
481 0 +5.216634698e-003 +7.526521663e+001 +7.526521663e+001 -2.4311e+000 -1.8264e+000
486 0 +4.731460016e-003 +7.526473146e+001 +7.526473146e+001 -2.4312e+000 -1.8265e+000
497 0 +4.451147699e-003 +7.526445115e+001 +7.526445115e+001 -2.4313e+000 -1.8266e+000
532 0 +4.073620101e-003 +7.526407362e+001 +7.526407362e+001 -2.4313e+000 -1.8266e+000
588 0 +3.979569442e-003 +7.526397957e+001 +7.526397957e+001 -2.4313e+000 -1.8266e+000
3658 0 +1.930577791e-004 +7.526019306e+001 +7.526019306e+001 +1.1032e+000 -3.9658e+000
3672 0 +6.690684828e-006 +7.526000669e+001 +7.526000669e+001 +1.1028e+000 -3.9655e+000
3744 0 +6.339441086e-006 +7.526000634e+001 +7.526000634e+001 +1.1027e+000 -3.9656e+000
3751 0 +6.250295627e-006 +7.526000625e+001 +7.526000625e+001 +1.1027e+000 -3.9656e+000
3806 0 +4.409835029e-006 +7.526000441e+001 +7.526000441e+001 +1.1027e+000 -3.9656e+000
3826 0 +2.798800978e-006 +7.526000280e+001 +7.526000280e+001 +1.1028e+000 -3.9656e+000
3828 0 +1.481337634e-006 +7.526000148e+001 +7.526000148e+001 +1.1028e+000 -3.9655e+000
3830 0 +1.389412461e-007 +7.526000014e+001 +7.526000014e+001 +1.1028e+000 -3.9655e+000
3861 0 +1.169285042e-007 +7.526000012e+001 +7.526000012e+001 +1.1028e+000 -3.9655e+000
3866 0 +8.489834613e-009 +7.526000001e+001 +7.526000001e+001 +1.1028e+000 -3.9655e+000
% f evaluations | g evaluations | best noise-free fitness - Fopt (-4.913000000000e+001) + sum g_i+ | measured fitness | best measured fitness or single-digit g-values | x1 | x2...
1 0 +1.983283216e+000 -4.714671678e+001 -4.714671678e+001 -2.0532e+000 +5.5023e-001
201 0 +2.161965895e-001 -4.891380341e+001 -4.891380341e+001 -2.0532e+000 +5.8494e-001
248 0 +3.146115952e-002 -4.909853884e+001 -4.909853884e+001 -2.1026e+000 +5.5752e-001
290 0 +1.002261319e-002 -4.911997739e+001 -4.911997739e+001 -2.0694e+000 +5.9000e-001
336 0 +6.095636330e-003 -4.912390436e+001 -4.912390436e+001 -2.0716e+000 +5.8920e-001
340 0 +4.319015729e-003 -4.912568098e+001 -4.912568098e+001 -2.0743e+000 +5.8798e-001
394 0 +4.067898912e-003 -4.912593210e+001 -4.912593210e+001 -2.0738e+000 +5.8828e-001
410 0 +3.880096849e-003 -4.912611990e+001 -4.912611990e+001 -2.0742e+000 +5.8799e-001
420 0 +2.789715003e-003 -4.912721028e+001 -4.912721028e+001 -2.0772e+000 +5.8558e-001
438 0 +2.244527513e-003 -4.912775547e+001 -4.912775547e+001 -2.0765e+000 +5.8608e-001
470 0 +2.193859128e-003 -4.912780614e+001 -4.912780614e+001 -2.0767e+000 +5.8596e-001
483 0 +2.151697399e-003 -4.912784830e+001 -4.912784830e+001 -2.0766e+000 +5.8596e-001
494 0 +2.123285977e-003 -4.912787671e+001 -4.912787671e+001 -2.0766e+000 +5.8598e-001
495 0 +2.029651665e-003 -4.912797035e+001 -4.912797035e+001 -2.0765e+000 +5.8604e-001
504 0 +1.961770113e-003 -4.912803823e+001 -4.912803823e+001 -2.0766e+000 +5.8603e-001
543 0 +1.941169128e-003 -4.912805883e+001 -4.912805883e+001 -2.0766e+000 +5.8603e-001
2028 0 +2.231306915e-004 -4.912977687e+001 -4.912977687e+001 -2.1862e+000 +2.1423e+000
2058 0 +1.224725698e-004 -4.912987753e+001 -4.912987753e+001 -2.1898e+000 +2.1406e+000
2075 0 +9.846406228e-005 -4.912990154e+001 -4.912990154e+001 -2.1878e+000 +2.1413e+000
2124 0 +8.478680695e-005 -4.912991521e+001 -4.912991521e+001 -2.1878e+000 +2.1414e+000
2127 0 +4.890307843e-005 -4.912995110e+001 -4.912995110e+001 -2.1879e+000 +2.1415e+000
2131 0 +1.846973007e-005 -4.912998153e+001 -4.912998153e+001 -2.1885e+000 +2.1412e+000
2136 0 +1.448315994e-005 -4.912998552e+001 -4.912998552e+001 -2.1885e+000 +2.1412e+000
2156 0 +1.277891414e-005 -4.912998722e+001 -4.912998722e+001 -2.1885e+000 +2.1412e+000
2173 0 +1.041639956e-005 -4.912998958e+001 -4.912998958e+001 -2.1886e+000 +2.1412e+000
2185 0 +6.578090705e-006 -4.912999342e+001 -4.912999342e+001 -2.1888e+000 +2.1409e+000
2189 0 +2.206344931e-006 -4.912999779e+001 -4.912999779e+001 -2.1890e+000 +2.1409e+000
2193 0 +6.659294627e-008 -4.912999993e+001 -4.912999993e+001 -2.1892e+000 +2.1407e+000
2238 0 +6.550175158e-008 -4.912999993e+001 -4.912999993e+001 -2.1892e+000 +2.1407e+000
2252 0 +5.875946130e-008 -4.912999994e+001 -4.912999994e+001 -2.1892e+000 +2.1407e+000
2267 0 +2.670829957e-008 -4.912999997e+001 -4.912999997e+001 -2.1893e+000 +2.1407e+000
2274 0 +1.018802465e-008 -4.912999999e+001 -4.912999999e+001 -2.1892e+000 +2.1407e+000
2290 0 +7.907537736e-009 -4.912999999e+001 -4.912999999e+001 -2.1892e+000 +2.1407e+000
2387 0 +0.000000000e+000 -4.913000000e+001 -4.913000000e+001 -2.1892e+000 +2.1407e+000
% f evaluations | g evaluations | best noise-free fitness - Fopt (-1.418900000000e+002) + sum g_i+ | measured fitness | best measured fitness or single-digit g-values | x1 | x2...
1 0 +8.396239553e+001 -5.792760447e+001 -5.792760447e+001 +4.6064e+000 +3.9938e+000
10 0 +1.397758402e+001 -1.279124160e+002 -1.279124160e+002 -4.1392e+000 -3.2098e+000
16 0 +3.272379115e+000 -1.386176209e+002 -1.386176209e+002 +9.2976e-001 -2.8121e+000
76 0 +2.288786952e+000 -1.396012130e+002 -1.396012130e+002 +9.2976e-001 -2.8085e+000
149 0 +1.103694824e+000 -1.407863052e+002 -1.407863052e+002 -9.3767e-002 -2.5287e+000
173 0 +9.760647545e-001 -1.409139352e+002 -1.409139352e+002 -1.0893e-001 -2.5390e+000
230 0 +7.667678167e-001 -1.411232322e+002 -1.411232322e+002 -6.5735e-002 -2.5351e+000
240 0 +5.866733571e-001 -1.413033266e+002 -1.413033266e+002 +1.0475e-001 -2.5703e+000
247 0 +1.077263692e-002 -1.418792274e+002 -1.418792274e+002 +1.2818e-001 -2.5934e+000
317 0 +5.220898193e-004 -1.418894779e+002 -1.418894779e+002 +1.4112e-001 -2.5971e+000
376 0 +4.213014727e-004 -1.418895787e+002 -1.418895787e+002 +1.4095e-001 -2.5969e+000
393 0 +2.139244324e-004 -1.418897861e+002 -1.418897861e+002 +1.4244e-001 -2.5963e+000
399 0 +2.094978334e-004 -1.418897905e+002 -1.418897905e+002 +1.4244e-001 -2.5963e+000
408 0 +7.762148431e-005 -1.418899224e+002 -1.418899224e+002 +1.4544e-001 -2.5963e+000
427 0 +6.549384494e-006 -1.418899935e+002 -1.418899935e+002 +1.4685e-001 -2.5964e+000
474 0 +6.163308655e-006 -1.418899938e+002 -1.418899938e+002 +1.4705e-001 -2.5963e+000
484 0 +4.447026555e-006 -1.418899956e+002 -1.418899956e+002 +1.4723e-001 -2.5963e+000
486 0 +3.530508451e-006 -1.418899965e+002 -1.418899965e+002 +1.4727e-001 -2.5963e+000
488 0 +2.228601318e-006 -1.418899978e+002 -1.418899978e+002 +1.4738e-001 -2.5963e+000
489 0 +2.105576812e-006 -1.418899979e+002 -1.418899979e+002 +1.4772e-001 -2.5962e+000
491 0 +5.445947977e-007 -1.418899995e+002 -1.418899995e+002 +1.4756e-001 -2.5962e+000
545 0 +8.732001788e-008 -1.418899999e+002 -1.418899999e+002 +1.4763e-001 -2.5962e+000
549 0 +4.250469487e-008 -1.418900000e+002 -1.418900000e+002 +1.4772e-001 -2.5962e+000
559 0 +2.123948661e-008 -1.418900000e+002 -1.418900000e+002 +1.4773e-001 -2.5962e+000
574 0 +7.414655556e-009 -1.418900000e+002 -1.418900000e+002 +1.4784e-001 -2.5962e+000
% f evaluations | g evaluations | best noise-free fitness - Fopt (1.095700000000e+002) + sum g_i+ | measured fitness | best measured fitness or single-digit g-values | x1 | x2...
1 0 +8.659251360e+000 +1.182292514e+002 +1.182292514e+002 -2.1563e+000 +4.4726e+000
46 0 +7.737492315e+000 +1.173074923e+002 +1.173074923e+002 -1.6931e+000 +4.0821e+000
110 0 +3.523072386e+000 +1.130930724e+002 +1.130930724e+002 -1.6585e+000 +4.0869e+000
155 0 +3.045678499e+000 +1.126156785e+002 +1.126156785e+002 -4.2890e+000 -1.3858e+000
172 0 +2.308739852e+000 +1.118787399e+002 +1.118787399e+002 -4.3560e+000 -1.1715e+000
286 0 +2.333852842e-001 +1.098033853e+002 +1.098033853e+002 -4.0918e+000 -1.8967e+000
324 0 +7.469463814e-002 +1.096446946e+002 +1.096446946e+002 -4.1194e+000 -1.8573e+000
402 0 +5.698146316e-002 +1.096269815e+002 +1.096269815e+002 -4.1287e+000 -1.8412e+000
468 0 +1.312268335e-002 +1.095831227e+002 +1.095831227e+002 -4.1345e+000 -1.8261e+000
504 0 +9.077817701e-003 +1.095790778e+002 +1.095790778e+002 -4.1450e+000 -1.8027e+000
519 0 +5.764975490e-003 +1.095757650e+002 +1.095757650e+002 -4.1368e+000 -1.8340e+000
554 0 +5.380510546e-003 +1.095753805e+002 +1.095753805e+002 -4.1379e+000 -1.8317e+000
564 0 +5.190235891e-003 +1.095751902e+002 +1.095751902e+002 -4.1364e+000 -1.8356e+000
568 0 +5.094110079e-003 +1.095750941e+002 +1.095750941e+002 -4.1388e+000 -1.8282e+000
572 0 +4.964311084e-003 +1.095749643e+002 +1.095749643e+002 -4.1371e+000 -1.8341e+000
575 0 +4.290948977e-003 +1.095742909e+002 +1.095742909e+002 -4.1367e+000 -1.8350e+000
582 0 +3.020542313e-003 +1.095730205e+002 +1.095730205e+002 -4.1372e+000 -1.8333e+000
592 0 +2.803618469e-003 +1.095728036e+002 +1.095728036e+002 -4.1375e+000 -1.8323e+000
603 0 +1.183893378e-003 +1.095711839e+002 +1.095711839e+002 -4.1450e+000 -1.8064e+000
609 0 +6.644485849e-004 +1.095706644e+002 +1.095706644e+002 -4.1461e+000 -1.8033e+000
616 0 +3.883966652e-005 +1.095700388e+002 +1.095700388e+002 -4.1442e+000 -1.8099e+000
617 0 +1.213048569e-005 +1.095700121e+002 +1.095700121e+002 -4.1440e+000 -1.8102e+000
655 0 +8.607050916e-006 +1.095700086e+002 +1.095700086e+002 -4.1436e+000 -1.8114e+000
692 0 +6.988911082e-006 +1.095700070e+002 +1.095700070e+002 -4.1436e+000 -1.8114e+000
708 0 +3.967226732e-006 +1.095700040e+002 +1.095700040e+002 -4.1436e+000 -1.8115e+000
740 0 +1.949340060e-006 +1.095700019e+002 +1.095700019e+002 -4.1437e+000 -1.8113e+000
743 0 +1.282693802e-006 +1.095700013e+002 +1.095700013e+002 -4.1437e+000 -1.8114e+000
756 0 +8.217377427e-007 +1.095700008e+002 +1.095700008e+002 -4.1437e+000 -1.8114e+000
762 0 +4.066137222e-007 +1.095700004e+002 +1.095700004e+002 -4.1437e+000 -1.8113e+000
763 0 +6.040319533e-008 +1.095700001e+002 +1.095700001e+002 -4.1437e+000 -1.8113e+000
767 0 +7.323905038e-009 +1.095700000e+002 +1.095700000e+002 -4.1437e+000 -1.8113e+000
% f evaluations | g evaluations | best noise-free fitness - Fopt (7.836000000000e+001) + sum g_i+ | measured fitness | best measured fitness or single-digit g-values | x1 | x2...
1 0 +1.530446897e+002 +2.314046897e+002 +2.314046897e+002 -8.6200e-001 -3.2874e+000
2 0 +1.074423587e+001 +8.910423587e+001 +8.910423587e+001 -4.5657e+000 -2.7134e+000
4 0 +6.340547184e+000 +8.470054718e+001 +8.470054718e+001 -2.0839e+000 +1.6033e+000
9 0 +1.965291209e+000 +8.032529121e+001 +8.032529121e+001 -2.8973e+000 +3.8689e-001
105 0 +1.870558925e+000 +8.023055892e+001 +8.023055892e+001 -3.6353e+000 -7.2062e-001
113 0 +1.014800197e+000 +7.937480020e+001 +7.937480020e+001 -3.5562e+000 -6.9870e-001
165 0 +6.498228640e-001 +7.900982286e+001 +7.900982286e+001 -3.5521e+000 -6.9423e-001
221 0 +6.232969070e-001 +7.898329691e+001 +7.898329691e+001 -3.5468e+000 -6.9392e-001
249 0 +4.715287045e-001 +7.883152870e+001 +7.883152870e+001 -3.5451e+000 -6.9305e-001
256 0 +3.560609353e-001 +7.871606094e+001 +7.871606094e+001 -3.5333e+000 -6.9192e-001
279 0 +2.782263491e-001 +7.863822635e+001 +7.863822635e+001 -3.5306e+000 -6.9134e-001
282 0 +2.635453140e-001 +7.862354531e+001 +7.862354531e+001 -3.5220e+000 -6.9032e-001
285 0 +2.567116573e-001 +7.861671166e+001 +7.861671166e+001 -3.5241e+000 -6.9048e-001
337 0 +2.409648852e-001 +7.860096489e+001 +7.860096489e+001 -3.5229e+000 -6.9034e-001
361 0 +2.391950860e-001 +7.859919509e+001 +7.859919509e+001 -3.5246e+000 -6.9049e-001
375 0 +2.322792707e-001 +7.859227927e+001 +7.859227927e+001 -3.5245e+000 -6.9047e-001
447 0 +2.267522263e-001 +7.858675223e+001 +7.858675223e+001 -3.5266e+000 -6.9065e-001
464 0 +2.181411707e-001 +7.857814117e+001 +7.857814117e+001 -3.5287e+000 -6.9083e-001
499 0 +2.097061748e-001 +7.856970617e+001 +7.856970617e+001 -3.5286e+000 -6.9084e-001
571 0 +2.087912914e-001 +7.856879129e+001 +7.856879129e+001 -3.5287e+000 -6.9084e-001
1854 0 +1.593594694e-002 +7.837593595e+001 +7.837593595e+001 -3.1576e+000 -6.5700e-001
1925 0 +1.194249728e-002 +7.837194250e+001 +7.837194250e+001 -3.1612e+000 -6.5771e-001
2119 0 +1.117962739e-002 +7.837117963e+001 +7.837117963e+001 -3.1614e+000 -6.5752e-001
2142 0 +1.044882726e-002 +7.837044883e+001 +7.837044883e+001 -3.1662e+000 -6.5817e-001
2147 0 +6.189709146e-003 +7.836618971e+001 +7.836618971e+001 -3.1660e+000 -6.5826e-001
2158 0 +4.837355443e-003 +7.836483736e+001 +7.836483736e+001 -3.1629e+000 -6.5825e-001
2162 0 +4.221126959e-003 +7.836422113e+001 +7.836422113e+001 -3.1896e+000 -6.5950e-001
2170 0 +4.115730644e-003 +7.836411573e+001 +7.836411573e+001 -3.1845e+000 -6.5914e-001
2172 0 +3.373635443e-004 +7.836033736e+001 +7.836033736e+001 -3.1905e+000 -6.6061e-001
2205 0 +1.055387612e-004 +7.836010554e+001 +7.836010554e+001 -3.1886e+000 -6.6084e-001
2207 0 +1.739219826e-005 +7.836001739e+001 +7.836001739e+001 -3.1882e+000 -6.6077e-001
2255 0 +1.687628152e-005 +7.836001688e+001 +7.836001688e+001 -3.1885e+000 -6.6073e-001
2258 0 +1.377358102e-005 +7.836001377e+001 +7.836001377e+001 -3.1881e+000 -6.6073e-001
2262 0 +1.024224105e-005 +7.836001024e+001 +7.836001024e+001 -3.1882e+000 -6.6074e-001
2271 0 +8.369013116e-006 +7.836000837e+001 +7.836000837e+001 -3.1882e+000 -6.6076e-001
2272 0 +2.965836259e-006 +7.836000297e+001 +7.836000297e+001 -3.1880e+000 -6.6061e-001
2279 0 +2.402397229e-006 +7.836000240e+001 +7.836000240e+001 -3.1879e+000 -6.6061e-001
2283 0 +5.923943434e-007 +7.836000059e+001 +7.836000059e+001 -3.1880e+000 -6.6065e-001
2291 0 +3.369204649e-008 +7.836000003e+001 +7.836000003e+001 -3.1881e+000 -6.6064e-001
2304 0 +3.282139005e-009 +7.836000000e+001 +7.836000000e+001 -3.1881e+000 -6.6065e-001
2415 0 +0.000000000e+000 +7.836000000e+001 +7.836000000e+001 -3.1881e+000 -6.6065e-001
% f evaluations | g evaluations | best noise-free fitness - Fopt (1.140900000000e+002) + sum g_i+ | measured fitness | best measured fitness or single-digit g-values | x1 | x2...
1 0 +1.165676372e+002 +2.306576372e+002 +2.306576372e+002 +2.0554e+000 -2.3497e+000
2 0 +7.123760629e+001 +1.853276063e+002 +1.853276063e+002 -1.6950e-001 +6.2043e-001
4 0 +3.131828355e+001 +1.454082836e+002 +1.454082836e+002 +4.5727e+000 +1.2007e+000
12 0 +3.011415331e+001 +1.442041533e+002 +1.442041533e+002 +4.8727e+000 -1.0945e+000
15 0 +2.298201872e+001 +1.370720187e+002 +1.370720187e+002 -5.0350e-001 -1.9064e+000
49 0 +5.759441730e+000 +1.198494417e+002 +1.198494417e+002 -2.2260e+000 +1.0320e+000
62 0 +2.052744190e+000 +1.161427442e+002 +1.161427442e+002 -2.2126e+000 +9.2521e-001
64 0 +1.805635366e+000 +1.158956354e+002 +1.158956354e+002 -2.1484e+000 +1.3606e+000
152 0 +8.328633557e-002 +1.141732863e+002 +1.141732863e+002 +4.5548e+000 -2.8322e+000
245 0 +1.008453124e-002 +1.141000845e+002 +1.141000845e+002 +4.5552e+000 -2.8599e+000
412 0 +1.702419225e-003 +1.140917024e+002 +1.140917024e+002 +4.5606e+000 -2.8410e+000
502 0 +9.020392317e-004 +1.140909020e+002 +1.140909020e+002 +4.5673e+000 -2.8149e+000
519 0 +8.504005244e-004 +1.140908504e+002 +1.140908504e+002 +4.5674e+000 -2.8149e+000
520 0 +7.401548672e-004 +1.140907402e+002 +1.140907402e+002 +4.5676e+000 -2.8132e+000
525 0 +3.770780625e-004 +1.140903771e+002 +1.140903771e+002 +4.5657e+000 -2.8238e+000
534 0 +1.253128562e-004 +1.140901253e+002 +1.140901253e+002 +4.5662e+000 -2.8217e+000
564 0 +7.513894006e-005 +1.140900751e+002 +1.140900751e+002 +4.5660e+000 -2.8220e+000
568 0 +7.152809710e-005 +1.140900715e+002 +1.140900715e+002 +4.5651e+000 -2.8250e+000
571 0 +5.027637607e-005 +1.140900503e+002 +1.140900503e+002 +4.5645e+000 -2.8269e+000
582 0 +2.491616850e-005 +1.140900249e+002 +1.140900249e+002 +4.5650e+000 -2.8247e+000
585 0 +6.808375971e-006 +1.140900068e+002 +1.140900068e+002 +4.5649e+000 -2.8250e+000
590 0 +6.256253798e-006 +1.140900063e+002 +1.140900063e+002 +4.5651e+000 -2.8248e+000
593 0 +7.399703890e-007 +1.140900007e+002 +1.140900007e+002 +4.5650e+000 -2.8249e+000
616 0 +5.773698888e-007 +1.140900006e+002 +1.140900006e+002 +4.5650e+000 -2.8249e+000
621 0 +5.203287401e-008 +1.140900001e+002 +1.140900001e+002 +4.5650e+000 -2.8249e+000
640 0 +3.968017381e-008 +1.140900000e+002 +1.140900000e+002 +4.5650e+000 -2.8249e+000
651 0 +7.913627087e-009 +1.140900000e+002 +1.140900000e+002 +4.5650e+000 -2.8249e+000
% f evaluations | g evaluations | best noise-free fitness - Fopt (-5.445900000000e+002) + sum g_i+ | measured fitness | best measured fitness or single-digit g-values | x1 | x2...
1 0 +1.776688751e+002 -3.669211249e+002 -3.669211249e+002 +3.8727e+000 -4.4516e+000
2 0 +1.413220325e+002 -4.032679675e+002 -4.032679675e+002 +4.3969e+000 +1.8326e+000
3 0 +1.459196144e+001 -5.299980386e+002 -5.299980386e+002 +3.2619e+000 +2.1471e+000
83 0 +1.311301002e+001 -5.314769900e+002 -5.314769900e+002 +3.2283e+000 +2.1727e+000
110 0 +6.397870022e+000 -5.381921300e+002 -5.381921300e+002 +1.7979e+000 +2.5196e+000
122 0 +3.663653871e+000 -5.409263461e+002 -5.409263461e+002 +3.2232e+000 +2.3285e+000
144 0 +1.790693421e+000 -5.427993066e+002 -5.427993066e+002 +3.2292e+000 +2.3047e+000
231 0 +1.295256825e+000 -5.432947432e+002 -5.432947432e+002 +4.9859e+000 +2.3433e+000
248 0 +8.434027805e-001 -5.437465972e+002 -5.437465972e+002 +4.8297e+000 +2.4188e+000
250 0 +8.178306094e-001 -5.437721694e+002 -5.437721694e+002 +4.8194e+000 +2.4202e+000
269 0 +8.123499992e-001 -5.437776500e+002 -5.437776500e+002 +4.8203e+000 +2.4202e+000
271 0 +3.781532649e-001 -5.442118467e+002 -5.442118467e+002 +4.7241e+000 +2.4182e+000
280 0 +2.414983108e-002 -5.445658502e+002 -5.445658502e+002 +4.5628e+000 +2.5032e+000
303 0 +1.491160573e-002 -5.445750884e+002 -5.445750884e+002 +4.6141e+000 +2.4819e+000
314 0 +5.443073574e-003 -5.445845569e+002 -5.445845569e+002 +4.5952e+000 +2.4837e+000
350 0 +4.490161093e-003 -5.445855098e+002 -5.445855098e+002 +4.5966e+000 +2.4832e+000
405 0 +1.489617980e-003 -5.445885104e+002 -5.445885104e+002 +4.6000e+000 +2.4828e+000
417 0 +1.341496902e-003 -5.445886585e+002 -5.445886585e+002 +4.6001e+000 +2.4828e+000
428 0 +1.150086859e-003 -5.445888499e+002 -5.445888499e+002 +4.6027e+000 +2.4818e+000
443 0 +1.436393587e-004 -5.445898564e+002 -5.445898564e+002 +4.5847e+000 +2.4906e+000
456 0 +1.124898123e-004 -5.445898875e+002 -5.445898875e+002 +4.5853e+000 +2.4896e+000
465 0 +7.029784001e-006 -5.445899930e+002 -5.445899930e+002 +4.5862e+000 +2.4895e+000
521 0 +1.533646127e-006 -5.445899985e+002 -5.445899985e+002 +4.5862e+000 +2.4896e+000
536 0 +6.870516245e-007 -5.445899993e+002 -5.445899993e+002 +4.5862e+000 +2.4896e+000
569 0 +3.720263066e-007 -5.445899996e+002 -5.445899996e+002 +4.5860e+000 +2.4897e+000
577 0 +5.329331998e-008 -5.445899999e+002 -5.445899999e+002 +4.5859e+000 +2.4897e+000
578 0 +5.101128409e-009 -5.445900000e+002 -5.445900000e+002 +4.5859e+000 +2.4897e+000
