% f evaluations | g evaluations | best noise-free fitness - Fopt (-5.465000000000e+002) + sum g_i+ | measured fitness | best measured fitness or single-digit g-values | x1 | x2...
1 0 +7.225086160e+003 +6.678586160e+003 +6.678586160e+003 +4.6324e+000 +1.1701e+000
3 0 +7.200477022e+002 +1.735477022e+002 +1.735477022e+002 +3.8366e+000 +3.2744e+000
5 0 +1.565397093e+002 -3.899602907e+002 -3.899602907e+002 +3.1201e+000 +3.0593e+000
8 0 +8.190843786e+001 -4.645915621e+002 -4.645915621e+002 +1.5846e+000 +3.2907e+000
9 0 +1.841464857e+000 -5.446585351e+002 -5.446585351e+002 -1.8635e+000 +2.2134e+000
68 0 +1.129994081e+000 -5.453700059e+002 -5.453700059e+002 -2.3244e+000 +2.0541e+000
81 0 +3.927382503e-001 -5.461072617e+002 -5.461072617e+002 -2.2230e+000 +2.0616e+000
92 0 +2.746364588e-001 -5.462253635e+002 -5.462253635e+002 -2.1908e+000 +2.0644e+000
164 0 +2.201825574e-001 -5.462798174e+002 -5.462798174e+002 -2.1966e+000 +2.0880e+000
177 0 +4.269235348e-002 -5.464573076e+002 -5.464573076e+002 -2.0915e+000 +2.0958e+000
203 0 +3.203223398e-002 -5.464679678e+002 -5.464679678e+002 -2.0947e+000 +2.0965e+000
237 0 +2.474824260e-002 -5.464752518e+002 -5.464752518e+002 -2.0915e+000 +2.1171e+000
292 0 +6.616861353e-003 -5.464933831e+002 -5.464933831e+002 -2.1049e+000 +2.0997e+000
293 0 +5.491261872e-003 -5.464945087e+002 -5.464945087e+002 -2.0967e+000 +2.1030e+000
308 0 +1.764454077e-003 -5.464982355e+002 -5.464982355e+002 -2.0984e+000 +2.1048e+000
320 0 +6.685690655e-004 -5.464993314e+002 -5.464993314e+002 -2.1000e+000 +2.1066e+000
329 0 +4.003760690e-004 -5.464995996e+002 -5.464995996e+002 -2.1016e+000 +2.1064e+000
360 0 +3.791157453e-004 -5.464996209e+002 -5.464996209e+002 -2.1015e+000 +2.1063e+000
363 0 +3.492603588e-004 -5.464996507e+002 -5.464996507e+002 -2.1019e+000 +2.1063e+000
372 0 +1.774876102e-004 -5.464998225e+002 -5.464998225e+002 -2.1022e+000 +2.1055e+000
374 0 +1.598130556e-004 -5.464998402e+002 -5.464998402e+002 -2.1024e+000 +2.1057e+000
389 0 +7.121786484e-005 -5.464999288e+002 -5.464999288e+002 -2.1032e+000 +2.1051e+000
396 0 +5.999995881e-005 -5.464999400e+002 -5.464999400e+002 -2.1033e+000 +2.1051e+000
404 0 +4.515822002e-005 -5.464999548e+002 -5.464999548e+002 -2.1036e+000 +2.1051e+000
408 0 +4.170663090e-005 -5.464999583e+002 -5.464999583e+002 -2.1037e+000 +2.1049e+000
413 0 +2.813153139e-005 -5.464999719e+002 -5.464999719e+002 -2.1039e+000 +2.1049e+000
420 0 +1.839147012e-005 -5.464999816e+002 -5.464999816e+002 -2.1042e+000 +2.1049e+000
425 0 +1.297418555e-005 -5.464999870e+002 -5.464999870e+002 -2.1042e+000 +2.1051e+000
429 0 +6.200596204e-006 -5.464999938e+002 -5.464999938e+002 -2.1044e+000 +2.1050e+000
451 0 +4.886994020e-006 -5.464999951e+002 -5.464999951e+002 -2.1050e+000 +2.1049e+000
455 0 +9.588819694e-007 -5.464999990e+002 -5.464999990e+002 -2.1047e+000 +2.1049e+000
462 0 +6.962397947e-008 -5.464999999e+002 -5.464999999e+002 -2.1048e+000 +2.1049e+000
488 0 +6.162917998e-008 -5.464999999e+002 -5.464999999e+002 -2.1048e+000 +2.1049e+000
493 0 +4.011576493e-008 -5.465000000e+002 -5.465000000e+002 -2.1048e+000 +2.1049e+000
499 0 +1.919067927e-008 -5.465000000e+002 -5.465000000e+002 -2.1048e+000 +2.1049e+000
513 0 +1.629086910e-008 -5.465000000e+002 -5.465000000e+002 -2.1048e+000 +2.1049e+000
515 0 +1.254500148e-008 -5.465000000e+002 -5.465000000e+002 -2.1048e+000 +2.1048e+000
534 0 +1.190892363e-008 -5.465000000e+002 -5.465000000e+002 -2.1048e+000 +2.1049e+000
550 0 +8.571760191e-009 -5.465000000e+002 -5.465000000e+002 -2.1048e+000 +2.1049e+000
% f evaluations | g evaluations | best noise-free fitness - Fopt (1.000000000000e+003) + sum g_i+ | measured fitness | best measured fitness or single-digit g-values | x1 | x2...
1 0 +1.024229143e+005 +1.034229143e+005 +1.034229143e+005 +2.9463e+000 -3.1471e+000
2 0 +3.901260892e+004 +4.001260892e+004 +4.001260892e+004 -4.4380e+000 +4.7081e+000
3 0 +2.509607549e+004 +2.609607549e+004 +2.609607549e+004 +4.0167e+000 -2.7869e-001
4 0 +6.452619295e+003 +7.452619295e+003 +7.452619295e+003 +5.0000e+000 +5.0000e+000
6 0 +1.432716919e+002 +1.143271692e+003 +1.143271692e+003 +1.3872e+000 +3.2895e+000
10 0 +5.969429258e+000 +1.005969429e+003 +1.005969429e+003 +3.4514e-001 +2.5415e+000
14 0 +5.658393250e+000 +1.005658393e+003 +1.005658393e+003 +4.3620e-001 +2.5360e+000
16 0 +3.105936856e+000 +1.003105937e+003 +1.003105937e+003 +1.6596e-001 +2.3348e+000
35 0 +2.838432998e+000 +1.002838433e+003 +1.002838433e+003 -3.7129e-001 +1.3529e+000
106 0 +1.162284746e+000 +1.001162285e+003 +1.001162285e+003 -1.0516e+000 +2.3822e+000
218 0 +9.451583065e-001 +1.000945158e+003 +1.000945158e+003 -2.2742e+000 +2.0943e+000
219 0 +6.600952831e-001 +1.000660095e+003 +1.000660095e+003 -2.0312e+000 +2.0763e+000
238 0 +5.034734864e-001 +1.000503473e+003 +1.000503473e+003 -2.1565e+000 +2.1340e+000
278 0 +2.785623114e-001 +1.000278562e+003 +1.000278562e+003 -2.0875e+000 +2.1422e+000
282 0 +1.321602089e-001 +1.000132160e+003 +1.000132160e+003 -2.1430e+000 +2.1148e+000
298 0 +1.159094026e-001 +1.000115909e+003 +1.000115909e+003 -2.0894e+000 +2.1296e+000
318 0 +4.887768422e-002 +1.000048878e+003 +1.000048878e+003 -2.0906e+000 +2.1216e+000
338 0 +2.164039257e-002 +1.000021640e+003 +1.000021640e+003 -2.0914e+000 +2.1164e+000
358 0 +1.069550478e-002 +1.000010696e+003 +1.000010696e+003 -2.0918e+000 +2.1131e+000
521 0 +8.693962258e-003 +1.000008694e+003 +1.000008694e+003 -2.0949e+000 +2.1024e+000
537 0 +5.623626741e-003 +1.000005624e+003 +1.000005624e+003 -2.0979e+000 +2.1024e+000
560 0 +1.389311525e-003 +1.000001389e+003 +1.000001389e+003 -2.0981e+000 +2.1055e+000
579 0 +2.564879536e-004 +1.000000256e+003 +1.000000256e+003 -2.1023e+000 +2.1061e+000
619 0 +2.036107618e-004 +1.000000204e+003 +1.000000204e+003 -2.1035e+000 +2.1060e+000
639 0 +1.540634970e-004 +1.000000154e+003 +1.000000154e+003 -2.1025e+000 +2.1057e+000
719 0 +1.304667101e-004 +1.000000130e+003 +1.000000130e+003 -2.1028e+000 +2.1057e+000
755 0 +4.902792762e-005 +1.000000049e+003 +1.000000049e+003 -2.1062e+000 +2.1045e+000
795 0 +8.845860293e-007 +1.000000001e+003 +1.000000001e+003 -2.1049e+000 +2.1048e+000
919 0 +1.890449539e-007 +1.000000000e+003 +1.000000000e+003 -2.1048e+000 +2.1049e+000
928 0 +1.113128292e-007 +1.000000000e+003 +1.000000000e+003 -2.1049e+000 +2.1049e+000
972 0 +1.080812808e-007 +1.000000000e+003 +1.000000000e+003 -2.1048e+000 +2.1049e+000
1010 0 +9.129053069e-010 +1.000000000e+003 +1.000000000e+003 -2.1048e+000 +2.1048e+000
% f evaluations | g evaluations | best noise-free fitness - Fopt (2.083800000000e+002) + sum g_i+ | measured fitness | best measured fitness or single-digit g-values | x1 | x2...
1 0 +2.353624390e+004 +2.374462390e+004 +2.374462390e+004 -4.8585e+000 +3.8495e+000
2 0 +2.364664037e+003 +2.573044037e+003 +2.573044037e+003 -6.0114e-001 +3.3738e+000
5 0 +6.939657423e+002 +9.023457423e+002 +9.023457423e+002 +1.1715e+000 +1.0533e+000
6 0 +2.034722962e+002 +4.118522962e+002 +4.118522962e+002 +3.2053e+000 +2.5339e+000
8 0 +6.010970498e+001 +2.684897050e+002 +2.684897050e+002 +1.9109e+000 +3.3478e+000
10 0 +4.878790830e+000 +2.132587908e+002 +2.132587908e+002 +2.1094e+000 +3.2118e+000
20 0 +3.541065544e+000 +2.119210655e+002 +2.119210655e+002 -6.5020e-001 +2.5281e+000
23 0 +3.277145514e+000 +2.116571455e+002 +2.116571455e+002 -2.3034e+000 +1.3028e+000
28 0 +2.744331962e+000 +2.111243320e+002 +2.111243320e+002 +2.5619e+000 +3.2186e+000
35 0 +2.454322859e+000 +2.108343229e+002 +2.108343229e+002 +1.5298e+000 +2.1919e+000
62 0 +2.380451315e+000 +2.107604513e+002 +2.107604513e+002 -1.1814e+000 +1.1736e+000
85 0 +1.894138558e+000 +2.102741386e+002 +2.102741386e+002 -1.9371e+000 +9.5110e-001
197 0 +9.355620336e-001 +2.093155620e+002 +2.093155620e+002 -2.1652e+000 +9.1402e-001
210 0 +7.594717367e-001 +2.091394717e+002 +2.091394717e+002 -2.0236e+000 +9.7722e-001
223 0 +6.460797524e-001 +2.090260798e+002 +2.090260798e+002 -2.0982e+000 +9.7707e-001
241 0 +6.093302753e-001 +2.089893303e+002 +2.089893303e+002 -2.0797e+000 +9.6936e-001
317 0 +5.987369159e-001 +2.089787369e+002 +2.089787369e+002 -2.1111e+000 +9.6401e-001
1157 0 +2.077092653e-001 +2.085877093e+002 +2.085877093e+002 -2.1621e+000 +2.0681e+000
1234 0 +1.884097996e-001 +2.085684098e+002 +2.085684098e+002 -2.1579e+000 +2.1132e+000
1240 0 +1.206297933e-001 +2.085006298e+002 +2.085006298e+002 -2.1557e+000 +2.1069e+000
1253 0 +6.017721661e-002 +2.084401772e+002 +2.084401772e+002 -2.1535e+000 +2.0913e+000
1270 0 +2.437298883e-002 +2.084043730e+002 +2.084043730e+002 -2.1338e+000 +2.0941e+000
1285 0 +1.952369394e-002 +2.083995237e+002 +2.083995237e+002 -2.1314e+000 +2.0956e+000
1288 0 +1.253969344e-002 +2.083925397e+002 +2.083925397e+002 -2.1041e+000 +2.0980e+000
1294 0 +1.170109496e-002 +2.083917011e+002 +2.083917011e+002 -2.1094e+000 +2.0970e+000
1299 0 +1.483695490e-003 +2.083814837e+002 +2.083814837e+002 -2.0983e+000 +2.1077e+000
1313 0 +1.296559495e-003 +2.083812966e+002 +2.083812966e+002 -2.1038e+000 +2.1073e+000
1320 0 +2.681377463e-004 +2.083802681e+002 +2.083802681e+002 -2.1025e+000 +2.1061e+000
1331 0 +2.496207442e-004 +2.083802496e+002 +2.083802496e+002 -2.1017e+000 +2.1055e+000
1341 0 +1.455750380e-004 +2.083801456e+002 +2.083801456e+002 -2.1028e+000 +2.1049e+000
1383 0 +1.179676007e-004 +2.083801180e+002 +2.083801180e+002 -2.1027e+000 +2.1054e+000
1399 0 +5.755143263e-005 +2.083800576e+002 +2.083800576e+002 -2.1036e+000 +2.1054e+000
1402 0 +4.815598302e-005 +2.083800482e+002 +2.083800482e+002 -2.1041e+000 +2.1054e+000
1408 0 +2.895938320e-005 +2.083800290e+002 +2.083800290e+002 -2.1038e+000 +2.1052e+000
1420 0 +3.680924209e-006 +2.083800037e+002 +2.083800037e+002 -2.1045e+000 +2.1050e+000
1429 0 +1.996926073e-006 +2.083800020e+002 +2.083800020e+002 -2.1049e+000 +2.1049e+000
1434 0 +1.575298541e-006 +2.083800016e+002 +2.083800016e+002 -2.1048e+000 +2.1049e+000
1475 0 +1.103127914e-006 +2.083800011e+002 +2.083800011e+002 -2.1048e+000 +2.1049e+000
1478 0 +9.767036886e-007 +2.083800010e+002 +2.083800010e+002 -2.1046e+000 +2.1049e+000
1485 0 +7.647520306e-008 +2.083800001e+002 +2.083800001e+002 -2.1048e+000 +2.1048e+000
1522 0 +6.208023251e-008 +2.083800001e+002 +2.083800001e+002 -2.1048e+000 +2.1049e+000
1524 0 +5.476121601e-008 +2.083800001e+002 +2.083800001e+002 -2.1048e+000 +2.1049e+000
1542 0 +1.997361210e-008 +2.083800000e+002 +2.083800000e+002 -2.1048e+000 +2.1049e+000
1549 0 +2.628553375e-009 +2.083800000e+002 +2.083800000e+002 -2.1048e+000 +2.1048e+000
% f evaluations | g evaluations | best noise-free fitness - Fopt (-1.449600000000e+002) + sum g_i+ | measured fitness | best measured fitness or single-digit g-values | x1 | x2...
1 0 +2.496449855e+003 +2.351489855e+003 +2.351489855e+003 +4.9668e+000 -4.1150e+000
2 0 +1.673686618e+003 +1.528726618e+003 +1.528726618e+003 +4.5455e+000 -3.3424e+000
10 0 +3.472531678e+000 -1.414874683e+002 -1.414874683e+002 -1.9164e+000 -1.6687e+000
11 0 +3.275152711e+000 -1.416848473e+002 -1.416848473e+002 +2.4202e+000 -2.8709e+000
42 0 +3.229934024e+000 -1.417300660e+002 -1.417300660e+002 +1.5462e+000 -1.9843e+000
54 0 +1.816635479e+000 -1.431433645e+002 -1.431433645e+002 +1.5181e+000 -1.8153e+000
102 0 +1.647991673e+000 -1.433120083e+002 -1.433120083e+002 +1.3971e+000 -1.8126e+000
135 0 +1.368497107e+000 -1.435915029e+002 -1.435915029e+002 +1.5875e+000 -1.8971e+000
242 0 +1.203979677e+000 -1.437560203e+002 -1.437560203e+002 +1.5403e+000 -1.8731e+000
429 0 +1.197772829e+000 -1.437622272e+002 -1.437622272e+002 +1.5347e+000 -1.8728e+000
2007 0 +1.153663125e+000 -1.438063369e+002 -1.438063369e+002 +1.5095e+000 -3.0564e+000
2013 0 +1.124584445e+000 -1.438354156e+002 -1.438354156e+002 +1.5039e+000 -3.0536e+000
2054 0 +1.097789122e+000 -1.438622109e+002 -1.438622109e+002 +1.5139e+000 -3.0549e+000
2055 0 +7.146401902e-001 -1.442453598e+002 -1.442453598e+002 +1.5138e+000 -2.9873e+000
2058 0 +6.617030761e-001 -1.442982969e+002 -1.442982969e+002 +1.5039e+000 -2.9906e+000
2060 0 +6.580509314e-001 -1.443019491e+002 -1.443019491e+002 +1.5031e+000 -2.9909e+000
2063 0 +6.335910927e-001 -1.443264089e+002 -1.443264089e+002 +1.5156e+000 -2.9971e+000
2073 0 +5.938835873e-001 -1.443661164e+002 -1.443661164e+002 +1.5169e+000 -3.0125e+000
3762 0 +2.089633987e-001 -1.447510366e+002 -1.447510366e+002 -2.0140e+000 -2.1322e+000
3787 0 +1.721262426e-001 -1.447878738e+002 -1.447878738e+002 -2.0228e+000 -2.1300e+000
3790 0 +1.603396969e-001 -1.447996603e+002 -1.447996603e+002 -2.0258e+000 -2.1293e+000
3791 0 +1.154144027e-001 -1.448445856e+002 -1.448445856e+002 -2.0384e+000 -2.1261e+000
3814 0 +1.009662896e-001 -1.448590337e+002 -1.448590337e+002 -2.0450e+000 -2.1266e+000
3820 0 +8.715444222e-002 -1.448728456e+002 -1.448728456e+002 -2.0467e+000 -2.1228e+000
3828 0 +3.075158442e-002 -1.449292484e+002 -1.449292484e+002 -2.0844e+000 -2.1189e+000
3851 0 +2.931986867e-002 -1.449306801e+002 -1.449306801e+002 -2.0898e+000 -2.1183e+000
3854 0 +1.867362793e-002 -1.449413264e+002 -1.449413264e+002 -2.0879e+000 -2.1024e+000
3855 0 +1.586697717e-002 -1.449441330e+002 -1.449441330e+002 -2.0826e+000 -2.1067e+000
3858 0 +3.597697751e-003 -1.449564023e+002 -1.449564023e+002 -2.1080e+000 -2.1077e+000
3859 0 +2.841521211e-003 -1.449571585e+002 -1.449571585e+002 -2.1063e+000 -2.1078e+000
3860 0 +1.627013018e-003 -1.449583730e+002 -1.449583730e+002 -2.0986e+000 -2.1080e+000
3874 0 +1.242329882e-004 -1.449598758e+002 -1.449598758e+002 -2.1066e+000 -2.1048e+000
3893 0 +3.322741384e-005 -1.449599668e+002 -1.449599668e+002 -2.1057e+000 -2.1049e+000
3907 0 +2.586528325e-006 -1.449599974e+002 -1.449599974e+002 -2.1046e+000 -2.1048e+000
3909 0 +1.260546100e-006 -1.449599987e+002 -1.449599987e+002 -2.1047e+000 -2.1048e+000
3926 0 +1.094855435e-006 -1.449599989e+002 -1.449599989e+002 -2.1048e+000 -2.1048e+000
3928 0 +5.728867620e-007 -1.449599994e+002 -1.449599994e+002 -2.1049e+000 -2.1048e+000
3939 0 +4.277500807e-007 -1.449599996e+002 -1.449599996e+002 -2.1049e+000 -2.1048e+000
3946 0 +1.921832791e-007 -1.449599998e+002 -1.449599998e+002 -2.1049e+000 -2.1048e+000
3960 0 +3.866821885e-008 -1.449600000e+002 -1.449600000e+002 -2.1049e+000 -2.1048e+000
3974 0 +2.518530096e-008 -1.449600000e+002 -1.449600000e+002 -2.1049e+000 -2.1048e+000
3990 0 +1.243478209e-009 -1.449600000e+002 -1.449600000e+002 -2.1048e+000 -2.1048e+000
% f evaluations | g evaluations | best noise-free fitness - Fopt (-6.300000000000e+000) + sum g_i+ | measured fitness | best measured fitness or single-digit g-values | x1 | x2...
1 0 +8.915905386e+003 +8.909605386e+003 +8.909605386e+003 +2.2915e+000 +8.9054e-001
2 0 +3.957101518e+000 -2.342898482e+000 -2.342898482e+000 +1.1661e+000 -1.5855e+000
14 0 +2.072126780e+000 -4.227873220e+000 -4.227873220e+000 +2.0181e+000 -1.3070e+000
22 0 +1.998641549e+000 -4.301358451e+000 -4.301358451e+000 +2.0264e+000 -1.5458e+000
65 0 +1.584809110e+000 -4.715190890e+000 -4.715190890e+000 +2.0359e+000 -1.8183e+000
78 0 +1.528762904e+000 -4.771237096e+000 -4.771237096e+000 +2.0779e+000 -1.7252e+000
80 0 +1.397412148e+000 -4.902587852e+000 -4.902587852e+000 +2.0542e+000 -1.0309e+000
85 0 +4.174935480e-001 -5.882506452e+000 -5.882506452e+000 +1.9758e+000 -2.1449e+000
106 0 +1.889308328e-001 -6.111069167e+000 -6.111069167e+000 +2.1063e+000 -2.0768e+000
157 0 +1.020772675e-001 -6.197922732e+000 -6.197922732e+000 +2.0860e+000 -2.1288e+000
202 0 +7.321347994e-002 -6.226786520e+000 -6.226786520e+000 +2.1527e+000 -2.0850e+000
292 0 +2.869256472e-002 -6.271307435e+000 -6.271307435e+000 +2.1337e+000 -2.1031e+000
296 0 +2.348436596e-002 -6.276515634e+000 -6.276515634e+000 +2.1271e+000 -2.0927e+000
312 0 +1.825994978e-002 -6.281740050e+000 -6.281740050e+000 +2.1267e+000 -2.1044e+000
316 0 +5.233688995e-003 -6.294766311e+000 -6.294766311e+000 +2.1046e+000 -2.1004e+000
403 0 +2.553143753e-003 -6.297446856e+000 -6.297446856e+000 +2.1138e+000 -2.1011e+000
424 0 +1.110201219e-003 -6.298889799e+000 -6.298889799e+000 +2.1063e+000 -2.1024e+000
433 0 +1.944994447e-004 -6.299805501e+000 -6.299805501e+000 +2.1076e+000 -2.1040e+000
462 0 +1.143740888e-005 -6.299988563e+000 -6.299988563e+000 +2.1045e+000 -2.1048e+000
481 0 +3.257165070e-006 -6.299996743e+000 -6.299996743e+000 +2.1049e+000 -2.1049e+000
521 0 +3.539384501e-007 -6.299999646e+000 -6.299999646e+000 +2.1050e+000 -2.1048e+000
565 0 +8.628210146e-008 -6.299999914e+000 -6.299999914e+000 +2.1049e+000 -2.1048e+000
572 0 +6.946508435e-008 -6.299999931e+000 -6.299999931e+000 +2.1049e+000 -2.1048e+000
586 0 +3.890480293e-008 -6.299999961e+000 -6.299999961e+000 +2.1048e+000 -2.1049e+000
602 0 +1.753424517e-008 -6.299999982e+000 -6.299999982e+000 +2.1049e+000 -2.1048e+000
629 0 +1.465509936e-008 -6.299999985e+000 -6.299999985e+000 +2.1049e+000 -2.1048e+000
630 0 +8.870798318e-009 -6.299999991e+000 -6.299999991e+000 +2.1049e+000 -2.1048e+000
% f evaluations | g evaluations | best noise-free fitness - Fopt (-1.367600000000e+002) + sum g_i+ | measured fitness | best measured fitness or single-digit g-values | x1 | x2...
1 0 +7.565567745e+003 +7.428807745e+003 +7.428807745e+003 -4.6487e+000 -1.1409e+000
2 0 +2.673801120e+003 +2.537041120e+003 +2.537041120e+003 +1.3322e+000 -2.5352e-002
8 0 +4.125904521e+000 -1.326340955e+002 -1.326340955e+002 -2.7643e-001 -2.1357e+000
14 0 +3.870480243e+000 -1.328895198e+002 -1.328895198e+002 +2.0579e-001 -2.0275e+000
16 0 +3.681963133e+000 -1.330780369e+002 -1.330780369e+002 +3.9069e-001 -1.9813e+000
29 0 +3.618216155e+000 -1.331417838e+002 -1.331417838e+002 +3.9456e-001 -2.1347e+000
32 0 +2.809454513e+000 -1.339505455e+002 -1.339505455e+002 +1.1072e+000 -1.9668e+000
53 0 +1.539882534e+000 -1.352201175e+002 -1.352201175e+002 +2.0743e+000 -1.2377e+000
102 0 +4.970251128e-002 -1.367102975e+002 -1.367102975e+002 +2.1208e+000 -2.0877e+000
244 0 +3.439660305e-002 -1.367256034e+002 -1.367256034e+002 +2.1076e+000 -2.1158e+000
319 0 +7.227184059e-004 -1.367592773e+002 -1.367592773e+002 +2.1057e+000 -2.1030e+000
352 0 +1.419096163e-004 -1.367598581e+002 -1.367598581e+002 +2.1043e+000 -2.1057e+000
369 0 +1.394804084e-004 -1.367598605e+002 -1.367598605e+002 +2.1072e+000 -2.1042e+000
377 0 +1.046087518e-004 -1.367598954e+002 -1.367598954e+002 +2.1069e+000 -2.1043e+000
423 0 +3.416490267e-005 -1.367599658e+002 -1.367599658e+002 +2.1059e+000 -2.1044e+000
447 0 +3.249183763e-005 -1.367599675e+002 -1.367599675e+002 +2.1056e+000 -2.1044e+000
469 0 +2.907440114e-005 -1.367599709e+002 -1.367599709e+002 +2.1055e+000 -2.1044e+000
504 0 +1.635889561e-005 -1.367599836e+002 -1.367599836e+002 +2.1055e+000 -2.1048e+000
519 0 +4.888656605e-006 -1.367599951e+002 -1.367599951e+002 +2.1052e+000 -2.1048e+000
574 0 +1.543037257e-006 -1.367599985e+002 -1.367599985e+002 +2.1048e+000 -2.1049e+000
575 0 +6.152558285e-007 -1.367599994e+002 -1.367599994e+002 +2.1048e+000 -2.1048e+000
611 0 +4.557097952e-007 -1.367599995e+002 -1.367599995e+002 +2.1049e+000 -2.1048e+000
639 0 +1.523185347e-007 -1.367599998e+002 -1.367599998e+002 +2.1048e+000 -2.1048e+000
662 0 +6.297727850e-008 -1.367599999e+002 -1.367599999e+002 +2.1049e+000 -2.1048e+000
682 0 +2.854608283e-008 -1.367600000e+002 -1.367600000e+002 +2.1049e+000 -2.1048e+000
706 0 +2.489323947e-008 -1.367600000e+002 -1.367600000e+002 +2.1048e+000 -2.1048e+000
723 0 +1.882108336e-008 -1.367600000e+002 -1.367600000e+002 +2.1049e+000 -2.1048e+000
735 0 +1.294492336e-008 -1.367600000e+002 -1.367600000e+002 +2.1048e+000 -2.1048e+000
737 0 +8.318181699e-009 -1.367600000e+002 -1.367600000e+002 +2.1049e+000 -2.1048e+000
% f evaluations | g evaluations | best noise-free fitness - Fopt (3.667500000000e+002) + sum g_i+ | measured fitness | best measured fitness or single-digit g-values | x1 | x2...
1 0 +1.880573475e+003 +2.247323475e+003 +2.247323475e+003 -4.6640e+000 -5.7547e-001
5 0 +3.085652171e+000 +3.698356522e+002 +3.698356522e+002 +6.8320e-001 -1.9271e+000
15 0 +1.307298613e+000 +3.680572986e+002 +3.680572986e+002 -2.0328e+000 -1.7602e+000
36 0 +1.159940059e+000 +3.679099401e+002 +3.679099401e+002 -2.0628e+000 -1.7611e+000
67 0 +8.094790034e-001 +3.675594790e+002 +3.675594790e+002 -2.1105e+000 -9.8925e-001
75 0 +6.768959389e-001 +3.674268959e+002 +3.674268959e+002 -2.1622e+000 -9.4388e-001
153 0 +6.597869335e-001 +3.674097869e+002 +3.674097869e+002 -2.0845e+000 -9.5097e-001
155 0 +6.159049563e-001 +3.673659050e+002 +3.673659050e+002 -2.0873e+000 -9.7324e-001
282 0 +5.992904179e-001 +3.673492904e+002 +3.673492904e+002 -2.1214e+000 -9.5595e-001
1294 0 +3.400511411e-001 +3.670900511e+002 +3.670900511e+002 -2.0755e+000 -2.0760e+000
1297 0 +1.197582225e-001 +3.668697582e+002 +3.668697582e+002 -2.1354e+000 -2.0776e+000
1410 0 +7.632088666e-002 +3.668263209e+002 +3.668263209e+002 -2.0704e+000 -2.0998e+000
1430 0 +3.950171102e-002 +3.667895017e+002 +3.667895017e+002 -2.0846e+000 -2.0991e+000
1501 0 +3.209060513e-002 +3.667820906e+002 +3.667820906e+002 -2.1002e+000 -2.0948e+000
1504 0 +8.113892271e-003 +3.667581139e+002 +3.667581139e+002 -2.1157e+000 -2.1066e+000
1508 0 +7.939015288e-003 +3.667579390e+002 +3.667579390e+002 -2.1185e+000 -2.1050e+000
1510 0 +1.184208657e-004 +3.667501184e+002 +3.667501184e+002 -2.1028e+000 -2.1055e+000
1521 0 +8.616987503e-005 +3.667500862e+002 +3.667500862e+002 -2.1066e+000 -2.1046e+000
1549 0 +2.479681041e-005 +3.667500248e+002 +3.667500248e+002 -2.1039e+000 -2.1051e+000
1552 0 +2.205522247e-005 +3.667500221e+002 +3.667500221e+002 -2.1039e+000 -2.1051e+000
1579 0 +1.525540370e-006 +3.667500015e+002 +3.667500015e+002 -2.1051e+000 -2.1048e+000
1649 0 +9.689140370e-007 +3.667500010e+002 +3.667500010e+002 -2.1049e+000 -2.1048e+000
1653 0 +3.430416200e-007 +3.667500003e+002 +3.667500003e+002 -2.1048e+000 -2.1049e+000
1670 0 +1.623705543e-007 +3.667500002e+002 +3.667500002e+002 -2.1048e+000 -2.1049e+000
1683 0 +1.281539994e-007 +3.667500001e+002 +3.667500001e+002 -2.1049e+000 -2.1048e+000
1691 0 +5.239940037e-008 +3.667500001e+002 +3.667500001e+002 -2.1048e+000 -2.1048e+000
1696 0 +4.990727120e-008 +3.667500000e+002 +3.667500000e+002 -2.1048e+000 -2.1048e+000
1703 0 +2.604775773e-008 +3.667500000e+002 +3.667500000e+002 -2.1049e+000 -2.1048e+000
1705 0 +2.410445177e-009 +3.667500000e+002 +3.667500000e+002 -2.1049e+000 -2.1048e+000
% f evaluations | g evaluations | best noise-free fitness - Fopt (-2.486900000000e+002) + sum g_i+ | measured fitness | best measured fitness or single-digit g-values | x1 | x2...
1 0 +1.625242429e+001 -2.324375757e+002 -2.324375757e+002 +2.6532e+000 -1.4674e+000
3 0 +4.476847107e+000 -2.442131529e+002 -2.442131529e+002 +5.9545e-001 -2.0814e+000
8 0 +4.466643622e+000 -2.442233564e+002 -2.442233564e+002 -8.7308e-001 -2.2708e+000
12 0 +3.884762217e+000 -2.448052378e+002 -2.448052378e+002 -4.4989e-001 -2.1689e+000
43 0 +3.603340259e+000 -2.450866597e+002 -2.450866597e+002 +5.1554e-001 -2.1765e+000
60 0 +2.842622032e+000 -2.458473780e+002 -2.458473780e+002 -1.9954e-001 -1.5127e+000
81 0 +2.720682032e+000 -2.459693180e+002 -2.459693180e+002 -4.4481e-001 -1.6104e+000
83 0 +2.576161437e+000 -2.461138386e+002 -2.461138386e+002 -1.1908e+000 -2.9538e+000
89 0 +2.493320386e+000 -2.461966796e+002 -2.461966796e+002 -1.2008e+000 -2.9555e+000
97 0 +2.036053117e+000 -2.466539469e+002 -2.466539469e+002 +1.0580e+000 -2.4285e+000
153 0 +1.466143240e+000 -2.472238568e+002 -2.472238568e+002 -1.5335e+000 -1.9039e+000
195 0 +8.803033906e-001 -2.478096966e+002 -2.478096966e+002 +2.0119e+000 -2.0748e+000
305 0 +4.199376515e-001 -2.482700623e+002 -2.482700623e+002 +2.0363e+000 -2.0867e+000
391 0 +1.275157526e-001 -2.485624842e+002 -2.485624842e+002 +2.0365e+000 -2.1286e+000
414 0 +1.182011197e-001 -2.485717989e+002 -2.485717989e+002 +2.0393e+000 -2.1279e+000
417 0 +6.709796648e-002 -2.486229020e+002 -2.486229020e+002 +2.0543e+000 -2.1211e+000
435 0 +2.792646068e-002 -2.486620735e+002 -2.486620735e+002 +2.0740e+000 -2.1085e+000
474 0 +1.262309611e-002 -2.486773769e+002 -2.486773769e+002 +2.0829e+000 -2.1118e+000
475 0 +1.169415559e-002 -2.486783058e+002 -2.486783058e+002 +2.0842e+000 -2.1120e+000
487 0 +1.240555401e-004 -2.486898759e+002 -2.486898759e+002 +2.1027e+000 -2.1055e+000
504 0 +9.847734867e-005 -2.486899015e+002 -2.486899015e+002 +2.1029e+000 -2.1051e+000
511 0 +9.521911306e-005 -2.486899048e+002 -2.486899048e+002 +2.1039e+000 -2.1045e+000
534 0 +4.980450473e-005 -2.486899502e+002 -2.486899502e+002 +2.1047e+000 -2.1044e+000
608 0 +8.700249055e-006 -2.486899913e+002 -2.486899913e+002 +2.1045e+000 -2.1048e+000
614 0 +7.954076835e-006 -2.486899920e+002 -2.486899920e+002 +2.1046e+000 -2.1047e+000
624 0 +4.058637984e-006 -2.486899959e+002 -2.486899959e+002 +2.1049e+000 -2.1047e+000
626 0 +6.361105136e-007 -2.486899994e+002 -2.486899994e+002 +2.1048e+000 -2.1048e+000
654 0 +4.492571293e-008 -2.486900000e+002 -2.486900000e+002 +2.1048e+000 -2.1048e+000
686 0 +1.330300847e-008 -2.486900000e+002 -2.486900000e+002 +2.1048e+000 -2.1048e+000
706 0 +1.400167093e-009 -2.486900000e+002 -2.486900000e+002 +2.1049e+000 -2.1048e+000
% f evaluations | g evaluations | best noise-free fitness - Fopt (-6.786000000000e+001) + sum g_i+ | measured fitness | best measured fitness or single-digit g-values | x1 | x2...
1 0 +5.352773541e+000 -6.250722646e+001 -6.250722646e+001 -7.5934e-001 +1.4641e+000
17 0 +4.112302129e+000 -6.374769787e+001 -6.374769787e+001 +1.8738e+000 +2.7477e+000
21 0 +2.109201824e+000 -6.575079818e+001 -6.575079818e+001 -1.9248e+000 +1.8395e+000
23 0 +1.944781141e+000 -6.591521886e+001 -6.591521886e+001 -1.9248e+000 +1.7858e+000
91 0 +8.507730808e-001 -6.700922692e+001 -6.700922692e+001 -2.0112e+000 +9.9736e-001
250 0 +7.196715815e-001 -6.714032842e+001 -6.714032842e+001 -2.0484e+000 +9.8883e-001
271 0 +6.972735977e-001 -6.716272640e+001 -6.716272640e+001 -2.0468e+000 +9.8453e-001
281 0 +1.983171863e-001 -6.766168281e+001 -6.766168281e+001 -2.0205e+000 +2.1354e+000
282 0 +5.184797732e-002 -6.780815202e+001 -6.780815202e+001 -2.0779e+000 +2.1231e+000
318 0 +2.989210217e-002 -6.783010790e+001 -6.783010790e+001 -2.1305e+000 +2.0912e+000
319 0 +2.416906626e-002 -6.783583093e+001 -6.783583093e+001 -2.1296e+000 +2.0928e+000
373 0 +1.982633077e-002 -6.784017367e+001 -6.784017367e+001 -2.1246e+000 +2.0936e+000
418 0 +1.159679095e-002 -6.784840321e+001 -6.784840321e+001 -2.1226e+000 +2.0966e+000
428 0 +1.001839719e-002 -6.784998160e+001 -6.784998160e+001 -2.1214e+000 +2.0972e+000
461 0 +7.451821784e-003 -6.785254818e+001 -6.785254818e+001 -2.1199e+000 +2.0985e+000
462 0 +4.006320638e-003 -6.785599368e+001 -6.785599368e+001 -2.1089e+000 +2.1001e+000
476 0 +3.117679123e-003 -6.785688232e+001 -6.785688232e+001 -2.1159e+000 +2.1022e+000
480 0 +1.817360930e-003 -6.785818264e+001 -6.785818264e+001 -2.1131e+000 +2.1035e+000
493 0 +5.188359136e-004 -6.785948116e+001 -6.785948116e+001 -2.1091e+000 +2.1043e+000
513 0 +3.710579937e-004 -6.785962894e+001 -6.785962894e+001 -2.1085e+000 +2.1036e+000
520 0 +2.540768470e-004 -6.785974592e+001 -6.785974592e+001 -2.1079e+000 +2.1038e+000
532 0 +2.046563486e-004 -6.785979534e+001 -6.785979534e+001 -2.1070e+000 +2.1049e+000
540 0 +6.372704718e-005 -6.785993627e+001 -6.785993627e+001 -2.1061e+000 +2.1042e+000
542 0 +1.112733092e-005 -6.785998887e+001 -6.785998887e+001 -2.1055e+000 +2.1046e+000
547 0 +8.009056074e-006 -6.785999199e+001 -6.785999199e+001 -2.1052e+000 +2.1046e+000
615 0 +4.050646723e-006 -6.785999595e+001 -6.785999595e+001 -2.1049e+000 +2.1049e+000
619 0 +1.081220347e-006 -6.785999892e+001 -6.785999892e+001 -2.1048e+000 +2.1048e+000
635 0 +4.078195417e-007 -6.785999959e+001 -6.785999959e+001 -2.1050e+000 +2.1048e+000
638 0 +2.858414092e-007 -6.785999971e+001 -6.785999971e+001 -2.1049e+000 +2.1048e+000
668 0 +1.616934497e-007 -6.785999984e+001 -6.785999984e+001 -2.1049e+000 +2.1048e+000
689 0 +1.539989256e-007 -6.785999985e+001 -6.785999985e+001 -2.1049e+000 +2.1048e+000
690 0 +1.093522712e-007 -6.785999989e+001 -6.785999989e+001 -2.1049e+000 +2.1048e+000
699 0 +1.035638206e-007 -6.785999990e+001 -6.785999990e+001 -2.1049e+000 +2.1048e+000
707 0 +2.969487412e-008 -6.785999997e+001 -6.785999997e+001 -2.1049e+000 +2.1049e+000
789 0 +5.958654015e-009 -6.785999999e+001 -6.785999999e+001 -2.1049e+000 +2.1048e+000
% f evaluations | g evaluations | best noise-free fitness - Fopt (-2.329000000000e+001) + sum g_i+ | measured fitness | best measured fitness or single-digit g-values | x1 | x2...
1 0 +3.800011698e+004 +3.797682698e+004 +3.797682698e+004 +2.9150e+000 -2.6334e+000
3 0 +1.183118669e+002 +9.502186686e+001 +9.502186686e+001 +3.0294e+000 +8.4048e-001
10 0 +3.780259624e+000 -1.950974038e+001 -1.950974038e+001 +7.2397e-001 +2.3723e+000
16 0 +2.265658493e+000 -2.102434151e+001 -2.102434151e+001 +7.7803e-001 +2.4564e+000
30 0 +1.994714338e+000 -2.129528566e+001 -2.129528566e+001 +1.8712e+000 +2.1048e+000
68 0 +1.381227148e+000 -2.190877285e+001 -2.190877285e+001 +2.1448e+000 +1.7836e+000
130 0 +4.979283995e-001 -2.279207160e+001 -2.279207160e+001 +2.2365e+000 +2.0888e+000
175 0 +6.243943716e-002 -2.322756056e+001 -2.322756056e+001 +2.1500e+000 +2.1001e+000
313 0 +2.202233837e-002 -2.326797766e+001 -2.326797766e+001 +2.1116e+000 +2.0940e+000
314 0 +1.098158128e-002 -2.327901842e+001 -2.327901842e+001 +2.1257e+000 +2.0995e+000
409 0 +5.451964500e-003 -2.328454804e+001 -2.328454804e+001 +2.1095e+000 +2.1081e+000
452 0 +3.370117933e-003 -2.328662988e+001 -2.328662988e+001 +2.1111e+000 +2.1064e+000
465 0 +2.411630437e-004 -2.328975884e+001 -2.328975884e+001 +2.1022e+000 +2.1060e+000
468 0 +2.143007574e-004 -2.328978570e+001 -2.328978570e+001 +2.1022e+000 +2.1059e+000
479 0 +8.972008881e-005 -2.328991028e+001 -2.328991028e+001 +2.1033e+000 +2.1056e+000
505 0 +8.303321099e-006 -2.328999170e+001 -2.328999170e+001 +2.1049e+000 +2.1050e+000
547 0 +1.311071273e-006 -2.328999869e+001 -2.328999869e+001 +2.1047e+000 +2.1048e+000
567 0 +2.279784859e-007 -2.328999977e+001 -2.328999977e+001 +2.1048e+000 +2.1049e+000
637 0 +1.661783955e-008 -2.328999998e+001 -2.328999998e+001 +2.1048e+000 +2.1048e+000
650 0 +2.829914081e-009 -2.329000000e+001 -2.329000000e+001 +2.1049e+000 +2.1048e+000
% f evaluations | g evaluations | best noise-free fitness - Fopt (-1.028000000000e+001) + sum g_i+ | measured fitness | best measured fitness or single-digit g-values | x1 | x2...
1 0 +5.997720968e+000 -4.282279032e+000 -4.282279032e+000 -3.3716e-002 +1.3436e+000
6 0 +3.723452158e+000 -6.556547842e+000 -6.556547842e+000 -1.2045e+000 +3.0107e+000
23 0 +2.223283511e+000 -8.056716489e+000 -8.056716489e+000 +1.0800e-001 +2.6131e+000
45 0 +1.644804912e+000 -8.635195088e+000 -8.635195088e+000 +9.4475e-001 +2.3530e+000
85 0 +1.573546409e+000 -8.706453591e+000 -8.706453591e+000 +9.4149e-001 +2.3583e+000
104 0 +1.336742063e+000 -8.943257937e+000 -8.943257937e+000 +9.4122e-001 +2.4159e+000
143 0 +1.298398952e+000 -8.981601048e+000 -8.981601048e+000 +9.4390e-001 +2.4122e+000
163 0 +1.138554783e+000 -9.141445217e+000 -9.141445217e+000 +1.0236e+000 +2.3896e+000
184 0 +1.096433128e+000 -9.183566872e+000 -9.183566872e+000 +1.0203e+000 +2.3695e+000
1127 0 +5.971208693e-001 -9.682879131e+000 -9.682879131e+000 +2.1083e+000 +9.6431e-001
2170 0 +3.018886295e-001 -9.978111371e+000 -9.978111371e+000 +2.0842e+000 +2.0755e+000
2285 0 +2.718927646e-001 -1.000810724e+001 -1.000810724e+001 +2.1152e+000 +2.0691e+000
2296 0 +4.396351365e-002 -1.023603649e+001 -1.023603649e+001 +2.1329e+000 +2.0880e+000
2307 0 +3.998711829e-002 -1.024001288e+001 -1.024001288e+001 +2.1254e+000 +2.0889e+000
2339 0 +6.225051644e-003 -1.027377495e+001 -1.027377495e+001 +2.1204e+000 +2.1004e+000
2407 0 +4.373418879e-003 -1.027562658e+001 -1.027562658e+001 +2.1022e+000 +2.1014e+000
2409 0 +3.376279197e-003 -1.027662372e+001 -1.027662372e+001 +2.1072e+000 +2.1007e+000
2417 0 +2.788540139e-003 -1.027721146e+001 -1.027721146e+001 +2.1090e+000 +2.1008e+000
2436 0 +3.333251196e-005 -1.027996667e+001 -1.027996667e+001 +2.1057e+000 +2.1049e+000
2470 0 +5.823659512e-006 -1.027999418e+001 -1.027999418e+001 +2.1053e+000 +2.1048e+000
2478 0 +3.659036739e-006 -1.027999634e+001 -1.027999634e+001 +2.1052e+000 +2.1048e+000
2501 0 +2.488365750e-006 -1.027999751e+001 -1.027999751e+001 +2.1051e+000 +2.1049e+000
2508 0 +3.758303517e-007 -1.027999962e+001 -1.027999962e+001 +2.1048e+000 +2.1049e+000
2513 0 +2.039445448e-007 -1.027999980e+001 -1.027999980e+001 +2.1048e+000 +2.1049e+000
2541 0 +6.410857090e-008 -1.027999994e+001 -1.027999994e+001 +2.1049e+000 +2.1048e+000
2561 0 +5.015187554e-008 -1.027999995e+001 -1.027999995e+001 +2.1049e+000 +2.1048e+000
2590 0 +2.873905913e-008 -1.027999997e+001 -1.027999997e+001 +2.1049e+000 +2.1048e+000
2622 0 +2.532831544e-008 -1.027999997e+001 -1.027999997e+001 +2.1049e+000 +2.1048e+000
2631 0 +1.414788642e-008 -1.027999999e+001 -1.027999999e+001 +2.1048e+000 +2.1048e+000
2632 0 +1.208440814e-008 -1.027999999e+001 -1.027999999e+001 +2.1048e+000 +2.1048e+000
2644 0 +3.892070666e-009 -1.028000000e+001 -1.028000000e+001 +2.1048e+000 +2.1048e+000
% f evaluations | g evaluations | best noise-free fitness - Fopt (1.799700000000e+002) + sum g_i+ | measured fitness | best measured fitness or single-digit g-values | x1 | x2...
1 0 +3.863771101e+003 +4.043741101e+003 +4.043741101e+003 +1.0984e+000 +4.0134e+000
2 0 +2.313600065e+000 +1.822836001e+002 +1.822836001e+002 -2.0974e+000 +6.2926e-001
49 0 +1.500209393e+000 +1.814702094e+002 +1.814702094e+002 +1.3130e+000 +2.9481e+000
53 0 +1.165081707e+000 +1.811350817e+002 +1.811350817e+002 +1.5881e+000 +3.0698e+000
64 0 +9.577049018e-001 +1.809277049e+002 +1.809277049e+002 +1.3909e+000 +2.9723e+000
108 0 +7.531326525e-001 +1.807231327e+002 +1.807231327e+002 +1.4912e+000 +2.9793e+000
126 0 +6.464298593e-001 +1.806164299e+002 +1.806164299e+002 +1.5033e+000 +2.9925e+000
181 0 +5.966832555e-001 +1.805666833e+002 +1.805666833e+002 +1.5017e+000 +3.0089e+000
2008 0 +5.272041721e-001 +1.804972042e+002 +1.804972042e+002 -2.1040e+000 +2.0580e+000
2023 0 +3.458103397e-001 +1.803158103e+002 +1.803158103e+002 -2.1583e+000 +2.0580e+000
2050 0 +3.226297397e-001 +1.802926297e+002 +1.802926297e+002 -2.1600e+000 +2.0594e+000
2067 0 +2.068123643e-001 +1.801768124e+002 +1.801768124e+002 -2.1693e+000 +2.1089e+000
2071 0 +1.278147093e-001 +1.800978147e+002 +1.800978147e+002 -2.1568e+000 +2.1073e+000
2072 0 +1.142874663e-001 +1.800842875e+002 +1.800842875e+002 -2.1534e+000 +2.1075e+000
2075 0 +8.038148999e-002 +1.800503815e+002 +1.800503815e+002 -2.1448e+000 +2.1075e+000
2077 0 +6.976014110e-002 +1.800397601e+002 +1.800397601e+002 -2.1417e+000 +2.1075e+000
2078 0 +5.563649801e-002 +1.800256365e+002 +1.800256365e+002 -2.1450e+000 +2.0871e+000
2091 0 +1.640481954e-002 +1.799864048e+002 +1.799864048e+002 -2.1132e+000 +2.0951e+000
2107 0 +3.469543932e-003 +1.799734695e+002 +1.799734695e+002 -2.0935e+000 +2.1068e+000
2138 0 +2.499113565e-003 +1.799724991e+002 +1.799724991e+002 -2.1088e+000 +2.1068e+000
2147 0 +7.213489419e-004 +1.799707213e+002 +1.799707213e+002 -2.1053e+000 +2.1064e+000
2149 0 +3.041975518e-004 +1.799703042e+002 +1.799703042e+002 -2.1016e+000 +2.1060e+000
2178 0 +2.918701563e-004 +1.799702919e+002 +1.799702919e+002 -2.1028e+000 +2.1045e+000
2211 0 +1.943825097e-004 +1.799701944e+002 +1.799701944e+002 -2.1056e+000 +2.1055e+000
2214 0 +1.354248365e-004 +1.799701354e+002 +1.799701354e+002 -2.1071e+000 +2.1045e+000
2219 0 +6.143010842e-005 +1.799700614e+002 +1.799700614e+002 -2.1062e+000 +2.1048e+000
2220 0 +2.227097588e-005 +1.799700223e+002 +1.799700223e+002 -2.1047e+000 +2.1052e+000
2243 0 +1.992854018e-005 +1.799700199e+002 +1.799700199e+002 -2.1055e+000 +2.1045e+000
2250 0 +5.722498599e-006 +1.799700057e+002 +1.799700057e+002 -2.1049e+000 +2.1047e+000
2289 0 +5.477269383e-006 +1.799700055e+002 +1.799700055e+002 -2.1049e+000 +2.1047e+000
2291 0 +5.066469470e-006 +1.799700051e+002 +1.799700051e+002 -2.1049e+000 +2.1047e+000
2298 0 +5.252246638e-009 +1.799700000e+002 +1.799700000e+002 -2.1049e+000 +2.1048e+000
% f evaluations | g evaluations | best noise-free fitness - Fopt (8.376000000000e+001) + sum g_i+ | measured fitness | best measured fitness or single-digit g-values | x1 | x2...
1 0 +4.149962152e+000 +8.790996215e+001 +8.790996215e+001 +1.2574e+000 +1.8957e+000
10 0 +3.452306470e+000 +8.721230647e+001 +8.721230647e+001 -1.1340e+000 +1.7495e+000
12 0 +3.095824210e+000 +8.685582421e+001 +8.685582421e+001 -1.1047e+000 +1.8067e+000
21 0 +2.361166048e+000 +8.612116605e+001 +8.612116605e+001 -2.0042e+000 +1.7132e+000
30 0 +2.136124651e+000 +8.589612465e+001 +8.589612465e+001 -1.8890e+000 +1.8122e+000
49 0 +1.291241988e+000 +8.505124199e+001 +8.505124199e+001 -2.0359e+000 +1.7600e+000
71 0 +1.191996845e+000 +8.495199685e+001 +8.495199685e+001 -2.0524e+000 +1.7624e+000
139 0 +1.148726947e+000 +8.490872695e+001 +8.490872695e+001 -2.1538e+000 +1.7525e+000
144 0 +6.567423457e-001 +8.441674235e+001 +8.441674235e+001 -2.1355e+000 +2.1483e+000
161 0 +1.528534424e-001 +8.391285344e+001 +8.391285344e+001 -2.1611e+000 +2.0737e+000
192 0 +1.086224836e-001 +8.386862248e+001 +8.386862248e+001 -2.0388e+000 +2.1222e+000
307 0 +3.015629142e-002 +8.379015629e+001 +8.379015629e+001 -2.1329e+000 +2.0914e+000
311 0 +2.222362596e-002 +8.378222363e+001 +8.378222363e+001 -2.0800e+000 +2.1059e+000
352 0 +1.840547304e-003 +8.376184055e+001 +8.376184055e+001 -2.1114e+000 +2.1050e+000
392 0 +4.758304763e-004 +8.376047583e+001 +8.376047583e+001 -2.1030e+000 +2.1040e+000
451 0 +2.743280836e-004 +8.376027433e+001 +8.376027433e+001 -2.1023e+000 +2.1048e+000
479 0 +1.804690293e-004 +8.376018047e+001 +8.376018047e+001 -2.1072e+000 +2.1039e+000
488 0 +2.782629306e-005 +8.376002783e+001 +8.376002783e+001 -2.1038e+000 +2.1052e+000
499 0 +1.017540541e-005 +8.376001018e+001 +8.376001018e+001 -2.1054e+000 +2.1046e+000
510 0 +2.080820764e-006 +8.376000208e+001 +8.376000208e+001 -2.1046e+000 +2.1048e+000
530 0 +3.655337508e-007 +8.376000037e+001 +8.376000037e+001 -2.1047e+000 +2.1049e+000
590 0 +1.585775067e-007 +8.376000016e+001 +8.376000016e+001 -2.1049e+000 +2.1048e+000
658 0 +8.929607986e-008 +8.376000009e+001 +8.376000009e+001 -2.1049e+000 +2.1049e+000
678 0 +4.290077982e-008 +8.376000004e+001 +8.376000004e+001 -2.1049e+000 +2.1048e+000
685 0 +3.059074061e-008 +8.376000003e+001 +8.376000003e+001 -2.1049e+000 +2.1048e+000
691 0 +1.428001895e-008 +8.376000001e+001 +8.376000001e+001 -2.1049e+000 +2.1048e+000
719 0 +3.948017024e-009 +8.376000000e+001 +8.376000000e+001 -2.1049e+000 +2.1048e+000
% f evaluations | g evaluations | best noise-free fitness - Fopt (-3.890100000000e+002) + sum g_i+ | measured fitness | best measured fitness or single-digit g-values | x1 | x2...
1 0 +2.444096304e+002 -1.446003696e+002 -1.446003696e+002 +3.0338e+000 -1.7539e+000
8 0 +6.063081751e+000 -3.829469182e+002 -3.829469182e+002 -1.4291e+000 -1.8223e+000
10 0 +2.393145649e+000 -3.866168544e+002 -3.866168544e+002 -1.9981e+000 -2.0270e+000
12 0 +9.551367705e-001 -3.880548632e+002 -3.880548632e+002 -2.0640e+000 -2.0518e+000
25 0 +3.709395241e-001 -3.886390605e+002 -3.886390605e+002 -1.9941e+000 -2.1156e+000
101 0 +2.461193589e-001 -3.887638806e+002 -3.887638806e+002 -2.1638e+000 -2.0648e+000
103 0 +1.195512196e-001 -3.888904488e+002 -3.888904488e+002 -2.1624e+000 -2.0784e+000
125 0 +1.080674428e-001 -3.889019326e+002 -3.889019326e+002 -2.0976e+000 -2.1273e+000
145 0 +7.218127124e-002 -3.889378187e+002 -3.889378187e+002 -2.0513e+000 -2.1168e+000
186 0 +4.097431454e-002 -3.889690257e+002 -3.889690257e+002 -2.1047e+000 -2.0921e+000
225 0 +1.706425841e-002 -3.889929357e+002 -3.889929357e+002 -2.0788e+000 -2.1112e+000
259 0 +6.305371171e-003 -3.890036946e+002 -3.890036946e+002 -2.0925e+000 -2.1110e+000
273 0 +4.669624770e-003 -3.890053304e+002 -3.890053304e+002 -2.1075e+000 -2.1000e+000
277 0 +5.210026517e-004 -3.890094790e+002 -3.890094790e+002 -2.1090e+000 -2.1032e+000
302 0 +1.301002548e-004 -3.890098699e+002 -3.890098699e+002 -2.1069e+000 -2.1040e+000
323 0 +1.147065701e-004 -3.890098853e+002 -3.890098853e+002 -2.1063e+000 -2.1040e+000
324 0 +6.075894896e-005 -3.890099392e+002 -3.890099392e+002 -2.1063e+000 -2.1043e+000
334 0 +3.676973762e-005 -3.890099632e+002 -3.890099632e+002 -2.1053e+000 -2.1044e+000
347 0 +3.615593744e-005 -3.890099638e+002 -3.890099638e+002 -2.1042e+000 -2.1047e+000
375 0 +3.278851631e-005 -3.890099672e+002 -3.890099672e+002 -2.1042e+000 -2.1047e+000
377 0 +9.358165016e-006 -3.890099906e+002 -3.890099906e+002 -2.1055e+000 -2.1047e+000
381 0 +4.021078041e-006 -3.890099960e+002 -3.890099960e+002 -2.1052e+000 -2.1048e+000
386 0 +3.729562707e-006 -3.890099963e+002 -3.890099963e+002 -2.1046e+000 -2.1050e+000
409 0 +1.783976757e-006 -3.890099982e+002 -3.890099982e+002 -2.1050e+000 -2.1049e+000
420 0 +9.571124338e-009 -3.890100000e+002 -3.890100000e+002 -2.1048e+000 -2.1049e+000
% f evaluations | g evaluations | best noise-free fitness - Fopt (-1.455800000000e+002) + sum g_i+ | measured fitness | best measured fitness or single-digit g-values | x1 | x2...
1 0 +1.835638870e+000 -1.437443611e+002 -1.437443611e+002 +1.0205e+000 -2.3191e+000
30 0 +1.310238378e+000 -1.442697616e+002 -1.442697616e+002 -1.6343e+000 -3.0015e+000
151 0 +1.007322282e+000 -1.445726777e+002 -1.445726777e+002 -1.3986e+000 -2.9605e+000
178 0 +6.240402323e-001 -1.449559598e+002 -1.449559598e+002 -1.5326e+000 -3.0235e+000
281 0 +5.936998004e-001 -1.449863002e+002 -1.449863002e+002 -1.5076e+000 -3.0098e+000
2331 0 +6.805453673e-002 -1.455119455e+002 -1.455119455e+002 +2.1352e+000 -2.0839e+000
2404 0 +4.574383736e-002 -1.455342562e+002 -1.455342562e+002 +2.0768e+000 -2.1017e+000
2431 0 +1.503696628e-002 -1.455649630e+002 -1.455649630e+002 +2.1010e+000 -2.1134e+000
2435 0 +1.381008615e-002 -1.455661899e+002 -1.455661899e+002 +2.1125e+000 -2.1099e+000
2488 0 +2.800377097e-003 -1.455771996e+002 -1.455771996e+002 +2.1058e+000 -2.1079e+000
2546 0 +2.594215126e-003 -1.455774058e+002 -1.455774058e+002 +2.0960e+000 -2.1055e+000
2548 0 +6.563104526e-004 -1.455793437e+002 -1.455793437e+002 +2.1015e+000 -2.1069e+000
2566 0 +5.463337211e-004 -1.455794537e+002 -1.455794537e+002 +2.1026e+000 -2.1067e+000
2599 0 +1.244572983e-004 -1.455798755e+002 -1.455798755e+002 +2.1028e+000 -2.1051e+000
2608 0 +1.112453623e-004 -1.455798888e+002 -1.455798888e+002 +2.1028e+000 -2.1052e+000
2631 0 +9.072170687e-005 -1.455799093e+002 -1.455799093e+002 +2.1029e+000 -2.1053e+000
2652 0 +7.993103503e-005 -1.455799201e+002 -1.455799201e+002 +2.1033e+000 -2.1050e+000
2661 0 +6.219129924e-005 -1.455799378e+002 -1.455799378e+002 +2.1058e+000 -2.1042e+000
2664 0 +3.010993188e-005 -1.455799699e+002 -1.455799699e+002 +2.1053e+000 -2.1044e+000
2669 0 +8.420390913e-006 -1.455799916e+002 -1.455799916e+002 +2.1044e+000 -2.1049e+000
2676 0 +4.334715157e-006 -1.455799957e+002 -1.455799957e+002 +2.1052e+000 -2.1048e+000
2687 0 +1.201687809e-006 -1.455799988e+002 -1.455799988e+002 +2.1050e+000 -2.1049e+000
2699 0 +9.763790274e-007 -1.455799990e+002 -1.455799990e+002 +2.1050e+000 -2.1048e+000
2707 0 +5.422794231e-007 -1.455799995e+002 -1.455799995e+002 +2.1050e+000 -2.1048e+000
2717 0 +4.726931024e-007 -1.455799995e+002 -1.455799995e+002 +2.1050e+000 -2.1048e+000
2730 0 +9.134893730e-008 -1.455799999e+002 -1.455799999e+002 +2.1049e+000 -2.1048e+000
2747 0 +7.712742445e-009 -1.455800000e+002 -1.455800000e+002 +2.1049e+000 -2.1048e+000
