% f evaluations | g evaluations | best noise-free fitness - Fopt (1.026100000000e+002) + sum g_i+ | measured fitness | best measured fitness or single-digit g-values | x1 | x2...
1 0 +1.153849480e+002 +2.179949480e+002 +2.179949480e+002 +3.0894e+000 -4.8751e+000 -3.0899e+000
2 0 +3.153282196e+001 +1.341428220e+002 +1.341428220e+002 -1.4787e+000 +5.8621e-001 -3.4786e+000
6 0 +2.706993530e+001 +1.296799353e+002 +1.296799353e+002 -3.3967e+000 +1.7576e+000 -2.4044e+000
22 0 +1.549234109e+001 +1.181023411e+002 +1.181023411e+002 -4.3237e-001 +2.7109e+000 -1.2654e+000
85 0 +1.285847496e+001 +1.154684750e+002 +1.154684750e+002 -4.0681e-001 +3.3330e+000 -1.0281e+000
187 0 +8.828697532e+000 +1.114386975e+002 +1.114386975e+002 -2.1386e+000 +1.0869e+000 -2.1408e+000
294 0 +7.585871487e+000 +1.101958715e+002 +1.101958715e+002 -5.4751e-001 +2.4751e+000 -1.7614e+000
463 0 +7.571661026e+000 +1.101816610e+002 +1.101816610e+002 -5.5329e-001 +2.4777e+000 -1.7610e+000
546 0 +4.909078498e+000 +1.075190785e+002 +1.075190785e+002 -1.9879e+000 +2.9433e+000 -3.0169e+000
3320 0 +4.647640595e+000 +1.072576406e+002 +1.072576406e+002 -2.2943e+000 +2.9710e+000 -2.6630e+000
6036 0 +4.510908939e+000 +1.071209089e+002 +1.071209089e+002 -2.6088e+000 +3.0831e+000 -2.6371e+000
6056 0 +4.463738223e+000 +1.070737382e+002 +1.070737382e+002 -2.6038e+000 +3.0845e+000 -2.6343e+000
25788 0 +4.357003168e+000 +1.069670032e+002 +1.069670032e+002 -2.6347e+000 +3.0222e+000 -2.6373e+000
45379 0 +4.179828741e+000 +1.067898287e+002 +1.067898287e+002 -2.4496e+000 +1.8759e+000 -2.3981e+000
45503 0 +3.937711594e+000 +1.065477116e+002 +1.065477116e+002 -2.4616e+000 +1.8718e+000 -2.4022e+000
45739 0 +3.508519021e+000 +1.061185190e+002 +1.061185190e+002 -2.4516e+000 +1.8720e+000 -2.3843e+000
45888 0 +3.346218903e+000 +1.059562189e+002 +1.059562189e+002 -2.4699e+000 +1.8678e+000 -2.3961e+000
45906 0 +3.274762971e+000 +1.058847630e+002 +1.058847630e+002 -2.4615e+000 +1.8705e+000 -2.3936e+000
56804 0 +2.378196031e+000 +1.049881960e+002 +1.049881960e+002 +1.3257e+000 -1.2879e+000 +1.7617e+000
56919 0 +2.047260303e+000 +1.046572603e+002 +1.046572603e+002 +1.3282e+000 -1.2897e+000 +1.7612e+000
57148 0 +2.022893446e+000 +1.046328934e+002 +1.046328934e+002 +1.3256e+000 -1.2898e+000 +1.7591e+000
57704 0 +1.187057427e+000 +1.037970574e+002 +1.037970574e+002 +1.2252e+000 -1.4259e+000 +1.7477e+000
58164 0 +1.151458401e+000 +1.037614584e+002 +1.037614584e+002 +1.2276e+000 -1.4258e+000 +1.7496e+000
58487 0 +1.008019465e+000 +1.036180195e+002 +1.036180195e+002 +1.6756e+000 -1.1934e+000 +1.4056e+000
58503 0 +9.052609348e-001 +1.035152609e+002 +1.035152609e+002 +1.6770e+000 -1.1931e+000 +1.4038e+000
61633 0 +7.054121949e-001 +1.033154122e+002 +1.033154122e+002 +1.3023e+000 -1.1840e+000 +1.2593e+000
62448 0 +6.708420915e-001 +1.032808421e+002 +1.032808421e+002 +1.3024e+000 -1.1839e+000 +1.2597e+000
62564 0 +5.353067394e-001 +1.031453067e+002 +1.031453067e+002 +1.3005e+000 -1.1843e+000 +1.2610e+000
62608 0 +3.978915162e-001 +1.030078915e+002 +1.030078915e+002 +1.3011e+000 -1.1827e+000 +1.2570e+000
62764 0 +1.728748046e-001 +1.027828748e+002 +1.027828748e+002 +1.3216e+000 -1.1215e+000 +1.2569e+000
62790 0 +1.320084290e-001 +1.027420084e+002 +1.027420084e+002 +1.3226e+000 -1.1219e+000 +1.2582e+000
62811 0 +1.313261607e-001 +1.027413262e+002 +1.027413262e+002 +1.3227e+000 -1.1225e+000 +1.2588e+000
62897 0 +1.177158475e-001 +1.027277158e+002 +1.027277158e+002 +1.3223e+000 -1.1221e+000 +1.2577e+000
62933 0 +1.102942271e-001 +1.027202942e+002 +1.027202942e+002 +1.3215e+000 -1.1224e+000 +1.2575e+000
63112 0 +1.041972306e-001 +1.027141972e+002 +1.027141972e+002 +1.3213e+000 -1.1226e+000 +1.2570e+000
63346 0 +1.019391689e-001 +1.027119392e+002 +1.027119392e+002 +1.3203e+000 -1.1230e+000 +1.2563e+000
63376 0 +9.537538311e-002 +1.027053754e+002 +1.027053754e+002 +1.3199e+000 -1.1230e+000 +1.2571e+000
63392 0 +9.205278070e-002 +1.027020528e+002 +1.027020528e+002 +1.3196e+000 -1.1230e+000 +1.2568e+000
63408 0 +8.878622587e-002 +1.026987862e+002 +1.026987862e+002 +1.3191e+000 -1.1231e+000 +1.2563e+000
63496 0 +8.687195273e-002 +1.026968720e+002 +1.026968720e+002 +1.3184e+000 -1.1232e+000 +1.2563e+000
63515 0 +8.380595089e-002 +1.026938060e+002 +1.026938060e+002 +1.3171e+000 -1.1238e+000 +1.2554e+000
63563 0 +8.303497626e-002 +1.026930350e+002 +1.026930350e+002 +1.3173e+000 -1.1238e+000 +1.2559e+000
182071 0 +3.048097234e-002 +1.026404810e+002 +1.026404810e+002 +1.2855e+000 -1.1866e+000 +1.2540e+000
182094 0 +2.604407289e-002 +1.026360441e+002 +1.026360441e+002 +1.2839e+000 -1.1870e+000 +1.2537e+000
182140 0 +2.565752826e-002 +1.026356575e+002 +1.026356575e+002 +1.2839e+000 -1.1869e+000 +1.2537e+000
182160 0 +2.132470411e-002 +1.026313247e+002 +1.026313247e+002 +1.2834e+000 -1.1869e+000 +1.2531e+000
182267 0 +2.068097687e-002 +1.026306810e+002 +1.026306810e+002 +1.2831e+000 -1.1870e+000 +1.2528e+000
182800 0 +2.040535372e-002 +1.026304054e+002 +1.026304054e+002 +1.2831e+000 -1.1870e+000 +1.2527e+000
% f evaluations | g evaluations | best noise-free fitness - Fopt (9.330000000000e+001) + sum g_i+ | measured fitness | best measured fitness or single-digit g-values | x1 | x2...
1 0 +9.978005424e+001 +1.930800542e+002 +1.930800542e+002 -1.5636e+000 -3.7384e+000 -3.2670e+000
2 0 +6.036140888e+001 +1.536614089e+002 +1.536614089e+002 -3.7857e+000 +3.4596e+000 +9.5240e-001
4 0 +4.838075351e+001 +1.416807535e+002 +1.416807535e+002 -3.1652e+000 -9.2302e-001 +2.3511e-001
18 0 +2.957353901e+001 +1.228735390e+002 +1.228735390e+002 +1.1776e+000 +3.6135e+000 -3.5901e+000
29 0 +2.930929339e+001 +1.226092934e+002 +1.226092934e+002 +2.0419e+000 +3.1177e+000 -3.6422e+000
67 0 +2.021851714e+001 +1.135185171e+002 +1.135185171e+002 +2.1030e+000 +3.7703e+000 -4.3510e+000
95 0 +1.830169697e+001 +1.116016970e+002 +1.116016970e+002 +2.5021e+000 +3.1541e+000 -2.6412e+000
122 0 +1.252425992e+001 +1.058242599e+002 +1.058242599e+002 +2.8138e+000 +2.1802e+000 -4.9094e+000
194 0 +6.883674051e+000 +1.001836741e+002 +1.001836741e+002 +2.6061e+000 +3.3276e+000 -2.2147e+000
210 0 +6.408317846e+000 +9.970831785e+001 +9.970831785e+001 +2.6088e+000 +3.3098e+000 -2.2194e+000
1625 0 +5.779821291e+000 +9.907982129e+001 +9.907982129e+001 +1.8062e+000 +3.1708e+000 -2.0431e+000
1704 0 +4.926286987e+000 +9.822628699e+001 +9.822628699e+001 +1.5084e+000 +2.4386e+000 -2.8508e+000
2243 0 +4.008869934e+000 +9.730886993e+001 +9.730886993e+001 +2.0874e+000 +2.4070e+000 -2.5252e+000
2927 0 +3.429834980e+000 +9.672983498e+001 +9.672983498e+001 +2.0870e+000 +2.4129e+000 -2.5229e+000
3109 0 +3.247371203e+000 +9.654737120e+001 +9.654737120e+001 +2.0866e+000 +2.4180e+000 -2.5209e+000
40935 0 +3.233598745e+000 +9.653359875e+001 +9.653359875e+001 +2.0864e+000 +2.4183e+000 -2.5215e+000
157561 0 +2.270234801e+000 +9.557023480e+001 +9.557023480e+001 -8.8067e-001 -1.5801e+000 +1.0462e+000
157742 0 +1.329597256e+000 +9.462959726e+001 +9.462959726e+001 -1.2502e+000 -1.4026e+000 +1.2836e+000
160603 0 +1.096407386e+000 +9.439640739e+001 +9.439640739e+001 -1.4586e+000 -1.4501e+000 +8.9334e-001
160653 0 +9.875215989e-001 +9.428752160e+001 +9.428752160e+001 -1.4584e+000 -1.4512e+000 +8.9399e-001
160827 0 +9.706726261e-001 +9.427067263e+001 +9.427067263e+001 -1.4586e+000 -1.4492e+000 +8.9506e-001
160888 0 +8.936227710e-001 +9.419362277e+001 +9.419362277e+001 -1.4576e+000 -1.4510e+000 +8.9568e-001
160953 0 +8.672256478e-001 +9.416722565e+001 +9.416722565e+001 -1.4569e+000 -1.4512e+000 +8.9662e-001
161036 0 +8.373540520e-001 +9.413735405e+001 +9.413735405e+001 -1.4578e+000 -1.4481e+000 +8.9861e-001
161159 0 +8.239609748e-001 +9.412396097e+001 +9.412396097e+001 -1.4579e+000 -1.4484e+000 +8.9886e-001
255842 0 +7.747589174e-001 +9.407475892e+001 +9.407475892e+001 -1.3482e+000 -1.5673e+000 +1.1478e+000
256405 0 +7.399027639e-001 +9.403990276e+001 +9.403990276e+001 -1.3504e+000 -1.5620e+000 +1.1495e+000
256424 0 +6.302696515e-001 +9.393026965e+001 +9.393026965e+001 -1.3507e+000 -1.5672e+000 +1.1417e+000
256662 0 +6.056262052e-001 +9.390562621e+001 +9.390562621e+001 -1.3506e+000 -1.5669e+000 +1.1421e+000
256856 0 +5.815279019e-001 +9.388152790e+001 +9.388152790e+001 -1.3499e+000 -1.5626e+000 +1.1481e+000
256914 0 +5.138788500e-001 +9.381387885e+001 +9.381387885e+001 -1.3505e+000 -1.5634e+000 +1.1456e+000
256921 0 +5.070750623e-001 +9.380707506e+001 +9.380707506e+001 -1.3510e+000 -1.5603e+000 +1.1471e+000
257216 0 +4.999721319e-001 +9.379997213e+001 +9.379997213e+001 -1.3513e+000 -1.5607e+000 +1.1456e+000
257321 0 +4.890813608e-001 +9.378908136e+001 +9.378908136e+001 -1.3487e+000 -1.5670e+000 +1.1433e+000
263854 0 +4.606081361e-001 +9.376060814e+001 +9.376060814e+001 -1.3542e+000 -1.2729e+000 +1.0576e+000
264244 0 +3.539026950e-001 +9.365390269e+001 +9.365390269e+001 -1.3550e+000 -1.2730e+000 +1.0566e+000
264274 0 +3.135695090e-001 +9.361356951e+001 +9.361356951e+001 -1.3538e+000 -1.2797e+000 +1.0533e+000
264334 0 +2.944412729e-001 +9.359444127e+001 +9.359444127e+001 -1.3532e+000 -1.2812e+000 +1.0522e+000
264394 0 +2.643034259e-001 +9.356430343e+001 +9.356430343e+001 -1.3532e+000 -1.2799e+000 +1.0522e+000
264483 0 +2.600282755e-001 +9.356002828e+001 +9.356002828e+001 -1.3569e+000 -1.2772e+000 +1.0502e+000
264553 0 +2.168016733e-001 +9.351680167e+001 +9.351680167e+001 -1.3557e+000 -1.2780e+000 +1.0505e+000
264611 0 +2.131128630e-001 +9.351311286e+001 +9.351311286e+001 -1.3558e+000 -1.2776e+000 +1.0508e+000
264619 0 +2.081611764e-001 +9.350816118e+001 +9.350816118e+001 -1.3561e+000 -1.2761e+000 +1.0517e+000
% f evaluations | g evaluations | best noise-free fitness - Fopt (1.364000000000e+001) + sum g_i+ | measured fitness | best measured fitness or single-digit g-values | x1 | x2...
1 0 +9.463132867e+001 +1.082713287e+002 +1.082713287e+002 +5.8430e-001 +4.3086e+000 -3.5003e+000
2 0 +7.013753725e+001 +8.377753725e+001 +8.377753725e+001 -4.0260e+000 +4.5584e+000 -4.2776e+000
5 0 +4.505569978e+001 +5.869569978e+001 +5.869569978e+001 -2.5553e+000 -1.9400e+000 -2.8631e+000
8 0 +4.030879857e+001 +5.394879857e+001 +5.394879857e+001 +1.0597e+000 +1.3580e+000 -1.3421e+000
21 0 +2.426376004e+001 +3.790376004e+001 +3.790376004e+001 -2.9435e-001 -1.5088e+000 -3.6851e-001
130 0 +1.772049213e+001 +3.136049213e+001 +3.136049213e+001 -1.7043e+000 -4.6972e+000 -4.9398e-001
180 0 +1.171792295e+001 +2.535792295e+001 +2.535792295e+001 -1.2506e+000 -3.0996e+000 -1.0438e+000
221 0 +1.044917537e+001 +2.408917537e+001 +2.408917537e+001 -1.7589e+000 -3.5530e+000 -2.1866e+000
542 0 +6.504248930e+000 +2.014424893e+001 +2.014424893e+001 -1.4018e+000 -3.4748e+000 -2.1676e+000
1544 0 +5.707623765e+000 +1.934762376e+001 +1.934762376e+001 -2.4023e+000 -3.1233e+000 -2.6045e+000
2375 0 +4.984024585e+000 +1.862402459e+001 +1.862402459e+001 -1.3717e+000 -2.8093e+000 -1.5181e+000
2864 0 +4.747737934e+000 +1.838773793e+001 +1.838773793e+001 -1.3742e+000 -2.8067e+000 -1.5243e+000
3944 0 +4.654037596e+000 +1.829403760e+001 +1.829403760e+001 -1.3726e+000 -2.8039e+000 -1.5245e+000
11278 0 +4.297067686e+000 +1.793706769e+001 +1.793706769e+001 -2.4813e+000 -2.3809e+000 -1.3562e+000
12157 0 +4.217636002e+000 +1.785763600e+001 +1.785763600e+001 -2.4792e+000 -2.3789e+000 -1.3586e+000
21742 0 +3.887175279e+000 +1.752717528e+001 +1.752717528e+001 -2.1649e+000 -1.4590e+000 -1.7504e+000
24575 0 +3.801028185e+000 +1.744102818e+001 +1.744102818e+001 -2.9407e+000 -2.0417e+000 -1.9245e+000
32717 0 +3.240326947e+000 +1.688032695e+001 +1.688032695e+001 -2.2983e+000 -2.4292e+000 -2.2719e+000
32838 0 +3.193308844e+000 +1.683330884e+001 +1.683330884e+001 -2.2414e+000 -2.2745e+000 -2.3361e+000
33648 0 +3.127187806e+000 +1.676718781e+001 +1.676718781e+001 -2.2416e+000 -2.2760e+000 -2.3347e+000
34366 0 +3.087434802e+000 +1.672743480e+001 +1.672743480e+001 -2.2424e+000 -2.2784e+000 -2.3340e+000
292551 0 +2.557273018e+000 +1.619727302e+001 +1.619727302e+001 +1.3748e+000 +8.7573e-001 +1.0443e+000
293006 0 +9.839424606e-001 +1.462394246e+001 +1.462394246e+001 +1.3658e+000 +8.7618e-001 +1.0465e+000
297190 0 +4.523702898e-001 +1.409237029e+001 +1.409237029e+001 +1.3971e+000 +1.1524e+000 +1.2408e+000
297287 0 +3.105177210e-001 +1.395051772e+001 +1.395051772e+001 +1.3837e+000 +1.1382e+000 +1.2481e+000
% f evaluations | g evaluations | best noise-free fitness - Fopt (1.948000000000e+002) + sum g_i+ | measured fitness | best measured fitness or single-digit g-values | x1 | x2...
1 0 +5.915262390e+001 +2.539526239e+002 +2.539526239e+002 +2.8686e+000 -3.6621e+000 +7.6013e-001
4 0 +5.223647057e+001 +2.470364706e+002 +2.470364706e+002 +3.5291e-001 -3.4738e+000 -2.6007e+000
5 0 +2.830989793e+001 +2.231098979e+002 +2.231098979e+002 -5.2132e-001 +2.5250e+000 +1.1938e+000
25 0 +2.182786584e+001 +2.166278658e+002 +2.166278658e+002 -4.8593e+000 +4.1202e+000 +2.1445e+000
114 0 +1.341598423e+001 +2.082159842e+002 +2.082159842e+002 -3.0952e+000 +2.6934e+000 +3.1025e+000
194 0 +1.094065756e+001 +2.057406576e+002 +2.057406576e+002 -2.8020e+000 +1.9890e+000 +2.0347e+000
340 0 +7.765621069e+000 +2.025656211e+002 +2.025656211e+002 -1.5338e+000 +1.2369e+000 +1.5945e+000
541 0 +6.931813939e+000 +2.017318139e+002 +2.017318139e+002 -1.2172e+000 +1.1491e+000 +1.7196e+000
2151 0 +6.331633827e+000 +2.011316338e+002 +2.011316338e+002 -1.3640e+000 +2.7506e+000 +2.0828e+000
2184 0 +6.018567824e+000 +2.008185678e+002 +2.008185678e+002 -1.5962e+000 +2.5667e+000 +2.0958e+000
2429 0 +5.275915627e+000 +2.000759156e+002 +2.000759156e+002 -1.5989e+000 +2.5862e+000 +2.0949e+000
3132 0 +3.874322579e+000 +1.986743226e+002 +1.986743226e+002 -1.5757e+000 +2.5859e+000 +2.0948e+000
7929 0 +3.495222798e+000 +1.982952228e+002 +1.982952228e+002 -1.8397e+000 +2.1941e+000 +1.9302e+000
7931 0 +3.304602173e+000 +1.981046022e+002 +1.981046022e+002 -1.8330e+000 +2.1959e+000 +1.9306e+000
8298 0 +3.216622334e+000 +1.980166223e+002 +1.980166223e+002 -1.8235e+000 +2.1955e+000 +1.9307e+000
15450 0 +3.085892051e+000 +1.978858921e+002 +1.978858921e+002 -2.2425e+000 +2.3055e+000 +2.2444e+000
179568 0 +2.382250580e+000 +1.971822506e+002 +1.971822506e+002 +1.3405e+000 -8.9620e-001 -1.2730e+000
179958 0 +1.652103600e+000 +1.964521036e+002 +1.964521036e+002 +1.0062e+000 -8.9856e-001 -1.2673e+000
180249 0 +6.992533904e-001 +1.954992534e+002 +1.954992534e+002 +1.3426e+000 -1.1444e+000 -1.3787e+000
180645 0 +6.343941272e-001 +1.954343941e+002 +1.954343941e+002 +1.3251e+000 -1.1487e+000 -1.3829e+000
180893 0 +6.042923187e-001 +1.954042923e+002 +1.954042923e+002 +1.3254e+000 -1.1590e+000 -1.3808e+000
181021 0 +5.679732764e-001 +1.953679733e+002 +1.953679733e+002 +1.3274e+000 -1.1571e+000 -1.3801e+000
181166 0 +2.192944290e-001 +1.950192944e+002 +1.950192944e+002 +1.3299e+000 -1.1522e+000 -1.3812e+000
181284 0 +1.469640959e-001 +1.949469641e+002 +1.949469641e+002 +1.3251e+000 -1.1522e+000 -1.3812e+000
181611 0 +1.443610791e-001 +1.949443611e+002 +1.949443611e+002 +1.3249e+000 -1.1527e+000 -1.3810e+000
181648 0 +1.369238152e-001 +1.949369238e+002 +1.949369238e+002 +1.3237e+000 -1.1527e+000 -1.3811e+000
181939 0 +1.347315047e-001 +1.949347315e+002 +1.949347315e+002 +1.3231e+000 -1.1521e+000 -1.3811e+000
181976 0 +1.317542632e-001 +1.949317543e+002 +1.949317543e+002 +1.3228e+000 -1.1515e+000 -1.3807e+000
182147 0 +1.285836280e-001 +1.949285836e+002 +1.949285836e+002 +1.3219e+000 -1.1527e+000 -1.3809e+000
% f evaluations | g evaluations | best noise-free fitness - Fopt (-1.335900000000e+002) + sum g_i+ | measured fitness | best measured fitness or single-digit g-values | x1 | x2...
1 0 +2.783459550e+001 -1.057554045e+002 -1.057554045e+002 +3.7296e+000 -1.1980e+000 -7.0145e-002
74 0 +2.628980133e+001 -1.073001987e+002 -1.073001987e+002 +3.4198e+000 +7.4333e-001 -1.7860e+000
79 0 +1.958348294e+001 -1.140065171e+002 -1.140065171e+002 +1.3668e+000 -2.4695e+000 -3.2258e+000
115 0 +1.426514516e+001 -1.193248548e+002 -1.193248548e+002 +5.0239e-001 -4.1288e+000 -2.0900e+000
224 0 +7.125183120e+000 -1.264648169e+002 -1.264648169e+002 +2.5871e+000 -5.0995e-001 -1.8237e+000
447 0 +6.972615958e+000 -1.266173840e+002 -1.266173840e+002 +2.5931e+000 -5.1350e-001 -1.8169e+000
1051 0 +5.337932685e+000 -1.282520673e+002 -1.282520673e+002 +3.2194e+000 -1.4665e+000 -1.7016e+000
1075 0 +5.237917606e+000 -1.283520824e+002 -1.283520824e+002 +3.2180e+000 -1.4656e+000 -1.7032e+000
2011 0 +3.993360363e+000 -1.295966396e+002 -1.295966396e+002 +2.3046e+000 -2.1742e+000 -2.8614e+000
2105 0 +3.859284906e+000 -1.297307151e+002 -1.297307151e+002 +2.3165e+000 -2.1776e+000 -2.8762e+000
2574 0 +3.746659741e+000 -1.298433403e+002 -1.298433403e+002 +2.3103e+000 -2.1785e+000 -2.8648e+000
2575 0 +3.662102057e+000 -1.299278979e+002 -1.299278979e+002 +2.3207e+000 -2.1821e+000 -2.8775e+000
2842 0 +3.622068140e+000 -1.299679319e+002 -1.299679319e+002 +2.3163e+000 -2.1807e+000 -2.8728e+000
9519 0 +3.539578790e+000 -1.300504212e+002 -1.300504212e+002 +2.4859e+000 -2.0440e+000 -2.5257e+000
9985 0 +3.371009526e+000 -1.302189905e+002 -1.302189905e+002 +2.4763e+000 -2.0349e+000 -2.5234e+000
10532 0 +3.303783398e+000 -1.302862166e+002 -1.302862166e+002 +2.4765e+000 -2.0361e+000 -2.5215e+000
30222 0 +3.233053678e+000 -1.303569463e+002 -1.303569463e+002 +2.0356e+000 -1.7683e+000 -2.2306e+000
96556 0 +3.071492679e+000 -1.305185073e+002 -1.305185073e+002 +2.1053e+000 -2.0758e+000 -2.3699e+000
% f evaluations | g evaluations | best noise-free fitness - Fopt (-3.085000000000e+001) + sum g_i+ | measured fitness | best measured fitness or single-digit g-values | x1 | x2...
1 0 +6.801159832e+001 +3.716159832e+001 +3.716159832e+001 -1.5594e+000 +1.9045e+000 +7.4605e-001
2 0 +6.488914107e+001 +3.403914107e+001 +3.403914107e+001 -4.6196e+000 +5.9992e-001 -9.9458e-002
3 0 +3.469123777e+001 +3.841237772e+000 +3.841237772e+000 +9.0867e-001 +5.5807e-001 +1.6683e+000
13 0 +2.991294937e+001 -9.370506332e-001 -9.370506332e-001 -1.0742e+000 -5.8294e-002 -1.6822e+000
16 0 +2.755068076e+001 -3.299319238e+000 -3.299319238e+000 +2.2539e+000 +1.7407e+000 +4.7103e-001
28 0 +2.336401008e+001 -7.485989920e+000 -7.485989920e+000 -4.1452e+000 -1.2774e+000 -2.3666e+000
78 0 +2.126769669e+001 -9.582303314e+000 -9.582303314e+000 -2.3734e+000 -1.3921e+000 -1.4677e+000
87 0 +1.427001297e+001 -1.657998703e+001 -1.657998703e+001 -4.3436e+000 -5.2504e-001 -1.5335e+000
165 0 +5.479825847e+000 -2.537017415e+001 -2.537017415e+001 +8.4864e-001 +7.6964e-001 +6.5162e-001
174 0 +4.323862944e+000 -2.652613706e+001 -2.652613706e+001 +1.4950e+000 +9.1301e-001 +4.6226e-001
1229 0 +4.233888490e+000 -2.661611151e+001 -2.661611151e+001 +1.4956e+000 +9.1323e-001 +4.6174e-001
1912 0 +4.088300642e+000 -2.676169936e+001 -2.676169936e+001 +1.4969e+000 +9.1178e-001 +4.5372e-001
1934 0 +4.054729868e+000 -2.679527013e+001 -2.679527013e+001 +1.4960e+000 +9.1147e-001 +4.5647e-001
2202 0 +3.933455742e+000 -2.691654426e+001 -2.691654426e+001 +1.4960e+000 +9.1632e-001 +4.5648e-001
2204 0 +3.754515852e+000 -2.709548415e+001 -2.709548415e+001 +1.4983e+000 +9.2441e-001 +4.5173e-001
2233 0 +3.529534906e+000 -2.732046509e+001 -2.732046509e+001 +1.4979e+000 +9.2277e-001 +4.4798e-001
2337 0 +3.340009761e+000 -2.750999024e+001 -2.750999024e+001 +1.4997e+000 +9.2910e-001 +4.3698e-001
2445 0 +3.301881853e+000 -2.754811815e+001 -2.754811815e+001 +8.5559e-001 +7.7250e-001 +6.4041e-001
2500 0 +3.169921480e+000 -2.768007852e+001 -2.768007852e+001 +8.5574e-001 +7.7213e-001 +6.4647e-001
2537 0 +3.102801201e+000 -2.774719880e+001 -2.774719880e+001 +8.5734e-001 +7.7891e-001 +6.4050e-001
2565 0 +3.054971355e+000 -2.779502865e+001 -2.779502865e+001 +8.5664e-001 +7.7771e-001 +6.4041e-001
2672 0 +3.019186962e+000 -2.783081304e+001 -2.783081304e+001 +8.5693e-001 +7.8017e-001 +6.3881e-001
7814 0 +2.708612478e+000 -2.814138752e+001 -2.814138752e+001 +1.4008e+000 +1.3709e+000 +1.0214e+000
8014 0 +2.424018697e+000 -2.842598130e+001 -2.842598130e+001 +1.7874e+000 +1.3089e+000 +7.8846e-001
9074 0 +2.222209829e+000 -2.862779017e+001 -2.862779017e+001 +1.3462e+000 +1.7455e+000 +1.0322e+000
9189 0 +1.171348438e+000 -2.967865156e+001 -2.967865156e+001 +1.1485e+000 +1.3663e+000 +1.7335e+000
9662 0 +1.140664038e+000 -2.970933596e+001 -2.970933596e+001 +1.1487e+000 +1.3660e+000 +1.7348e+000
10464 0 +1.113840114e+000 -2.973615989e+001 -2.973615989e+001 +1.1489e+000 +1.3657e+000 +1.7344e+000
10586 0 +1.088315728e+000 -2.976168427e+001 -2.976168427e+001 +1.1492e+000 +1.3648e+000 +1.7339e+000
10676 0 +1.051794287e+000 -2.979820571e+001 -2.979820571e+001 +1.1480e+000 +1.3595e+000 +1.7400e+000
10684 0 +1.002282314e+000 -2.984771769e+001 -2.984771769e+001 +1.1670e+000 +1.3671e+000 +1.5062e+000
10688 0 +8.777236880e-001 -2.997227631e+001 -2.997227631e+001 +1.1666e+000 +1.3641e+000 +1.5083e+000
10708 0 +8.268863007e-001 -3.002311370e+001 -3.002311370e+001 +1.1665e+000 +1.3646e+000 +1.5106e+000
10718 0 +7.609055837e-001 -3.008909442e+001 -3.008909442e+001 +1.1660e+000 +1.3622e+000 +1.5133e+000
10743 0 +7.330915467e-001 -3.011690845e+001 -3.011690845e+001 +1.1663e+000 +1.3620e+000 +1.5117e+000
10766 0 +6.162190202e-001 -3.023378098e+001 -3.023378098e+001 +1.1660e+000 +1.3595e+000 +1.5149e+000
10813 0 +5.711051104e-001 -3.027889489e+001 -3.027889489e+001 +1.1658e+000 +1.3588e+000 +1.5167e+000
10867 0 +5.527501814e-001 -3.029724982e+001 -3.029724982e+001 +1.1650e+000 +1.3552e+000 +1.5214e+000
10886 0 +5.077743933e-001 -3.034222561e+001 -3.034222561e+001 +1.1651e+000 +1.3548e+000 +1.5217e+000
10892 0 +4.810014773e-001 -3.036899852e+001 -3.036899852e+001 +1.1659e+000 +1.3572e+000 +1.5182e+000
10912 0 +4.604520162e-001 -3.038954798e+001 -3.038954798e+001 +1.1658e+000 +1.3564e+000 +1.5240e+000
10921 0 +4.020956749e-001 -3.044790433e+001 -3.044790433e+001 +1.1661e+000 +1.3558e+000 +1.5235e+000
10935 0 +3.942501562e-001 -3.045574984e+001 -3.045574984e+001 +1.1661e+000 +1.3557e+000 +1.5233e+000
11004 0 +3.750927799e-001 -3.047490722e+001 -3.047490722e+001 +1.1663e+000 +1.3558e+000 +1.5215e+000
11115 0 +3.705948388e-001 -3.047940516e+001 -3.047940516e+001 +1.1666e+000 +1.3564e+000 +1.5211e+000
11173 0 +3.162398184e-001 -3.053376018e+001 -3.053376018e+001 +1.1849e+000 +1.3480e+000 +1.3008e+000
11226 0 +2.010056279e-001 -3.064899437e+001 -3.064899437e+001 +1.1841e+000 +1.3446e+000 +1.3083e+000
11254 0 +1.259279232e-001 -3.072407208e+001 -3.072407208e+001 +1.1849e+000 +1.3476e+000 +1.3095e+000
11258 0 +9.538368624e-002 -3.075461631e+001 -3.075461631e+001 +1.1852e+000 +1.3494e+000 +1.3066e+000
11297 0 +9.018448836e-002 -3.075981551e+001 -3.075981551e+001 +1.1853e+000 +1.3502e+000 +1.3054e+000
11378 0 +8.160246325e-002 -3.076839754e+001 -3.076839754e+001 +1.1848e+000 +1.3494e+000 +1.3066e+000
11417 0 +7.849199244e-002 -3.077150801e+001 -3.077150801e+001 +1.1853e+000 +1.3520e+000 +1.3061e+000
11507 0 +7.590552246e-002 -3.077409448e+001 -3.077409448e+001 +1.1852e+000 +1.3519e+000 +1.3060e+000
11510 0 +7.575082765e-002 -3.077424917e+001 -3.077424917e+001 +1.1850e+000 +1.3516e+000 +1.3061e+000
11511 0 +7.354009764e-002 -3.077645990e+001 -3.077645990e+001 +1.1850e+000 +1.3509e+000 +1.3063e+000
11653 0 +7.225250928e-002 -3.077774749e+001 -3.077774749e+001 +1.1850e+000 +1.3510e+000 +1.3060e+000
11665 0 +7.065011339e-002 -3.077934989e+001 -3.077934989e+001 +1.1853e+000 +1.3520e+000 +1.3045e+000
187936 0 +1.382920719e-002 -3.083617079e+001 -3.083617079e+001 +1.2501e+000 +1.2510e+000 +1.2474e+000
188123 0 +6.117230709e-003 -3.084388277e+001 -3.084388277e+001 +1.2498e+000 +1.2485e+000 +1.2520e+000
188186 0 +2.073504540e-003 -3.084792650e+001 -3.084792650e+001 +1.2498e+000 +1.2490e+000 +1.2512e+000
188374 0 +1.439177348e-003 -3.084856082e+001 -3.084856082e+001 +1.2500e+000 +1.2495e+000 +1.2501e+000
188530 0 +6.915290634e-004 -3.084930847e+001 -3.084930847e+001 +1.2501e+000 +1.2501e+000 +1.2500e+000
188573 0 +6.189724749e-004 -3.084938103e+001 -3.084938103e+001 +1.2501e+000 +1.2500e+000 +1.2500e+000
188609 0 +5.310774705e-004 -3.084946892e+001 -3.084946892e+001 +1.2501e+000 +1.2501e+000 +1.2499e+000
188616 0 +4.180118606e-004 -3.084958199e+001 -3.084958199e+001 +1.2500e+000 +1.2497e+000 +1.2504e+000
188650 0 +4.009892521e-004 -3.084959901e+001 -3.084959901e+001 +1.2500e+000 +1.2497e+000 +1.2504e+000
188807 0 +1.150236270e-004 -3.084988498e+001 -3.084988498e+001 +1.2500e+000 +1.2499e+000 +1.2503e+000
188855 0 +7.702114782e-005 -3.084992298e+001 -3.084992298e+001 +1.2500e+000 +1.2499e+000 +1.2502e+000
188960 0 +4.666868172e-005 -3.084995333e+001 -3.084995333e+001 +1.2500e+000 +1.2500e+000 +1.2500e+000
189001 0 +3.163200203e-005 -3.084996837e+001 -3.084996837e+001 +1.2500e+000 +1.2501e+000 +1.2499e+000
189006 0 +2.089809015e-005 -3.084997910e+001 -3.084997910e+001 +1.2500e+000 +1.2501e+000 +1.2499e+000
189084 0 +1.149150876e-006 -3.084999885e+001 -3.084999885e+001 +1.2500e+000 +1.2500e+000 +1.2500e+000
189092 0 +6.728748509e-007 -3.084999933e+001 -3.084999933e+001 +1.2500e+000 +1.2500e+000 +1.2500e+000
189178 0 +5.475565281e-007 -3.084999945e+001 -3.084999945e+001 +1.2500e+000 +1.2500e+000 +1.2500e+000
189183 0 +4.728391616e-007 -3.084999953e+001 -3.084999953e+001 +1.2500e+000 +1.2500e+000 +1.2500e+000
189271 0 +4.267812308e-007 -3.084999957e+001 -3.084999957e+001 +1.2500e+000 +1.2500e+000 +1.2500e+000
189373 0 +1.462208168e-007 -3.084999985e+001 -3.084999985e+001 +1.2500e+000 +1.2500e+000 +1.2500e+000
189430 0 +1.377480388e-007 -3.084999986e+001 -3.084999986e+001 +1.2500e+000 +1.2500e+000 +1.2500e+000
189459 0 +1.641603120e-008 -3.084999998e+001 -3.084999998e+001 +1.2500e+000 +1.2500e+000 +1.2500e+000
189482 0 +1.038922193e-008 -3.084999999e+001 -3.084999999e+001 +1.2500e+000 +1.2500e+000 +1.2500e+000
189554 0 +7.639641808e-009 -3.084999999e+001 -3.084999999e+001 +1.2500e+000 +1.2500e+000 +1.2500e+000
% f evaluations | g evaluations | best noise-free fitness - Fopt (-9.200000000000e+000) + sum g_i+ | measured fitness | best measured fitness or single-digit g-values | x1 | x2...
1 0 +2.303976690e+001 +1.383976690e+001 +1.383976690e+001 +2.2685e+000 -3.9702e-001 +2.4500e+000
22 0 +1.945945692e+001 +1.025945692e+001 +1.025945692e+001 +1.4641e+000 +1.0042e+000 +3.8130e+000
204 0 +7.117276449e+000 -2.082723551e+000 -2.082723551e+000 -3.6603e-001 +1.6682e+000 -5.9639e-001
854 0 +6.695797541e+000 -2.504202459e+000 -2.504202459e+000 -1.1040e+000 +1.3757e+000 -6.9041e-001
982 0 +5.495217597e+000 -3.704782403e+000 -3.704782403e+000 -1.1034e+000 +1.3813e+000 -6.9561e-001
1767 0 +1.415480240e+000 -7.784519760e+000 -7.784519760e+000 -1.1028e+000 +1.3868e+000 -1.5511e+000
1906 0 +1.309774053e+000 -7.890225947e+000 -7.890225947e+000 -1.1032e+000 +1.3828e+000 -1.5474e+000
4745 0 +1.144041084e+000 -8.055958916e+000 -8.055958916e+000 -1.2199e+000 +1.6642e+000 -1.1695e+000
6863 0 +1.113018405e+000 -8.086981595e+000 -8.086981595e+000 -1.0979e+000 +1.6805e+000 -9.9985e-001
7660 0 +1.095915708e+000 -8.104084292e+000 -8.104084292e+000 -1.0984e+000 +1.6790e+000 -1.0027e+000
8022 0 +1.071173555e+000 -8.128826445e+000 -8.128826445e+000 -1.1002e+000 +1.6767e+000 -1.0005e+000
14830 0 +9.595377386e-001 -8.240462261e+000 -8.240462261e+000 -1.6598e+000 +1.1713e+000 -1.3045e+000
14873 0 +9.330916653e-001 -8.266908335e+000 -8.266908335e+000 -1.6609e+000 +1.1701e+000 -1.3036e+000
14901 0 +9.094435127e-001 -8.290556487e+000 -8.290556487e+000 -1.6605e+000 +1.1701e+000 -1.3050e+000
14915 0 +8.905848777e-001 -8.309415122e+000 -8.309415122e+000 -1.6588e+000 +1.1713e+000 -1.3059e+000
14919 0 +8.151822049e-001 -8.384817795e+000 -8.384817795e+000 -1.6696e+000 +1.1556e+000 -1.3023e+000
14975 0 +8.122475585e-001 -8.387752441e+000 -8.387752441e+000 -1.6701e+000 +1.1551e+000 -1.3021e+000
15009 0 +7.746058423e-001 -8.425394158e+000 -8.425394158e+000 -1.6690e+000 +1.1584e+000 -1.3023e+000
15048 0 +7.532927946e-001 -8.446707205e+000 -8.446707205e+000 -1.6656e+000 +1.1613e+000 -1.3043e+000
15136 0 +7.404918813e-001 -8.459508119e+000 -8.459508119e+000 -1.6648e+000 +1.1629e+000 -1.3026e+000
24944 0 +5.767711738e-001 -8.623228826e+000 -8.623228826e+000 -1.3927e+000 +1.0264e+000 -1.1365e+000
25214 0 +5.218329817e-001 -8.678167018e+000 -8.678167018e+000 -1.4366e+000 +1.0868e+000 -1.1359e+000
26101 0 +3.773405769e-001 -8.822659423e+000 -8.822659423e+000 -1.4347e+000 +1.0872e+000 -1.1350e+000
27019 0 +3.416501106e-001 -8.858349889e+000 -8.858349889e+000 -1.4372e+000 +1.0836e+000 -1.1337e+000
27318 0 +3.354217807e-001 -8.864578219e+000 -8.864578219e+000 -1.4376e+000 +1.0832e+000 -1.1337e+000
27354 0 +3.289194958e-001 -8.871080504e+000 -8.871080504e+000 -1.4377e+000 +1.0833e+000 -1.1341e+000
27505 0 +3.232343814e-001 -8.876765619e+000 -8.876765619e+000 -1.4380e+000 +1.0827e+000 -1.1344e+000
27820 0 +3.154685423e-001 -8.884531458e+000 -8.884531458e+000 -1.4402e+000 +1.0798e+000 -1.1341e+000
87299 0 +2.553229838e-001 -8.944677016e+000 -8.944677016e+000 -1.4195e+000 +1.2873e+000 -1.4216e+000
87377 0 +2.472605697e-001 -8.952739430e+000 -8.952739430e+000 -1.4207e+000 +1.2858e+000 -1.4223e+000
87502 0 +2.437595175e-001 -8.956240482e+000 -8.956240482e+000 -1.4200e+000 +1.2863e+000 -1.4224e+000
169843 0 +2.010008006e-001 -8.998999199e+000 -8.998999199e+000 -1.3694e+000 +1.2341e+000 -1.4245e+000
169845 0 +1.781096114e-001 -9.021890389e+000 -9.021890389e+000 -1.3670e+000 +1.2374e+000 -1.4247e+000
170258 0 +1.778057944e-001 -9.022194206e+000 -9.022194206e+000 -1.3669e+000 +1.2376e+000 -1.4249e+000
234041 0 +1.725091188e-001 -9.027490881e+000 -9.027490881e+000 -1.1385e+000 +1.1578e+000 -1.2581e+000
234133 0 +1.345254675e-001 -9.065474532e+000 -9.065474532e+000 -1.1381e+000 +1.1590e+000 -1.2561e+000
234153 0 +8.833413643e-002 -9.111665864e+000 -9.111665864e+000 -1.1397e+000 +1.1580e+000 -1.2570e+000
234360 0 +8.642787137e-002 -9.113572129e+000 -9.113572129e+000 -1.1401e+000 +1.1572e+000 -1.2567e+000
234634 0 +8.426565603e-002 -9.115734344e+000 -9.115734344e+000 -1.1401e+000 +1.1576e+000 -1.2561e+000
234651 0 +8.313863908e-002 -9.116861361e+000 -9.116861361e+000 -1.1406e+000 +1.1568e+000 -1.2560e+000
284560 0 +6.049986185e-002 -9.139500138e+000 -9.139500138e+000 -1.1950e+000 +1.2030e+000 -1.2518e+000
284610 0 +3.327153075e-002 -9.166728469e+000 -9.166728469e+000 -1.1957e+000 +1.2032e+000 -1.2517e+000
284833 0 +3.250666006e-002 -9.167493340e+000 -9.167493340e+000 -1.1957e+000 +1.2031e+000 -1.2518e+000
284903 0 +2.653575470e-002 -9.173464245e+000 -9.173464245e+000 -1.1952e+000 +1.2037e+000 -1.2523e+000
285018 0 +2.450907630e-002 -9.175490924e+000 -9.175490924e+000 -1.1959e+000 +1.2030e+000 -1.2525e+000
285111 0 +2.391919518e-002 -9.176080805e+000 -9.176080805e+000 -1.1958e+000 +1.2031e+000 -1.2524e+000
285137 0 +2.270235561e-002 -9.177297644e+000 -9.177297644e+000 -1.1950e+000 +1.2038e+000 -1.2528e+000
285154 0 +2.217212890e-002 -9.177827871e+000 -9.177827871e+000 -1.1948e+000 +1.2042e+000 -1.2534e+000
285201 0 +2.155404964e-002 -9.178445950e+000 -9.178445950e+000 -1.1948e+000 +1.2040e+000 -1.2533e+000
285228 0 +2.099090156e-002 -9.179009098e+000 -9.179009098e+000 -1.1952e+000 +1.2035e+000 -1.2533e+000
285455 0 +2.081051017e-002 -9.179189490e+000 -9.179189490e+000 -1.1953e+000 +1.2035e+000 -1.2531e+000
% f evaluations | g evaluations | best noise-free fitness - Fopt (-2.037600000000e+002) + sum g_i+ | measured fitness | best measured fitness or single-digit g-values | x1 | x2...
1 0 +9.226080126e+001 -1.114991987e+002 -1.114991987e+002 -1.2190e+000 -4.1623e+000 -3.9998e+000
2 0 +3.329441558e+001 -1.704655844e+002 -1.704655844e+002 +5.3840e-001 +4.3063e+000 +3.6567e+000
12 0 +3.237860802e+001 -1.713813920e+002 -1.713813920e+002 +5.6099e-001 +8.8713e-001 +4.9084e+000
15 0 +2.897514902e+001 -1.747848510e+002 -1.747848510e+002 +1.7486e+000 +1.7178e+000 +3.0877e+000
66 0 +1.749278733e+001 -1.862672127e+002 -1.862672127e+002 -1.4797e+000 -2.6310e-001 -3.7139e-001
71 0 +1.428620455e+001 -1.894737955e+002 -1.894737955e+002 +1.2891e+000 +4.9264e-002 +2.5898e+000
83 0 +9.541471316e+000 -1.942185287e+002 -1.942185287e+002 -1.5938e+000 -1.1979e+000 -1.7446e+000
264 0 +8.902314123e+000 -1.948576859e+002 -1.948576859e+002 -2.5992e+000 -1.1385e+000 -9.6528e-001
596 0 +5.054786701e+000 -1.987052133e+002 -1.987052133e+002 -2.1935e+000 -1.5725e+000 -1.5476e+000
1418 0 +3.590803304e+000 -2.001691967e+002 -2.001691967e+002 -1.9275e+000 -1.5320e+000 -1.1910e+000
2302 0 +3.033548312e+000 -2.007264517e+002 -2.007264517e+002 -1.9282e+000 -1.5243e+000 -1.1826e+000
2435 0 +2.504978670e+000 -2.012550213e+002 -2.012550213e+002 -1.9289e+000 -1.5214e+000 -1.1860e+000
3284 0 +7.793046502e-001 -2.029806953e+002 -2.029806953e+002 -1.4197e+000 -1.4076e+000 -1.1357e+000
4077 0 +5.183087988e-001 -2.032416912e+002 -2.032416912e+002 -1.4129e+000 -1.4050e+000 -1.1364e+000
4708 0 +4.871152123e-001 -2.032728848e+002 -2.032728848e+002 -1.4152e+000 -1.4051e+000 -1.1356e+000
4858 0 +4.743801517e-001 -2.032856198e+002 -2.032856198e+002 -1.4135e+000 -1.4050e+000 -1.1351e+000
4859 0 +3.752400268e-001 -2.033847600e+002 -2.033847600e+002 -1.4039e+000 -1.4209e+000 -1.1384e+000
4917 0 +3.635564226e-001 -2.033964436e+002 -2.033964436e+002 -1.4055e+000 -1.4180e+000 -1.1386e+000
4978 0 +2.945014347e-001 -2.034654986e+002 -2.034654986e+002 -1.4101e+000 -1.4168e+000 -1.1372e+000
5504 0 +2.760101496e-001 -2.034839899e+002 -2.034839899e+002 -1.4094e+000 -1.4164e+000 -1.1375e+000
5810 0 +2.725228289e-001 -2.034874772e+002 -2.034874772e+002 -1.4096e+000 -1.4174e+000 -1.1377e+000
6025 0 +2.691405523e-001 -2.034908594e+002 -2.034908594e+002 -1.4091e+000 -1.4186e+000 -1.1381e+000
24363 0 +2.584862167e-001 -2.035015138e+002 -2.035015138e+002 -1.2565e+000 -1.2359e+000 -1.3597e+000
24388 0 +2.016518492e-001 -2.035583482e+002 -2.035583482e+002 -1.2564e+000 -1.2347e+000 -1.3601e+000
24407 0 +1.744003887e-001 -2.035855996e+002 -2.035855996e+002 -1.2553e+000 -1.2410e+000 -1.3607e+000
24412 0 +1.252027154e-001 -2.036347973e+002 -2.036347973e+002 -1.2554e+000 -1.2397e+000 -1.3609e+000
24437 0 +1.009465153e-001 -2.036590535e+002 -2.036590535e+002 -1.2532e+000 -1.2401e+000 -1.3617e+000
24485 0 +9.862742752e-002 -2.036613726e+002 -2.036613726e+002 -1.2534e+000 -1.2401e+000 -1.3617e+000
24605 0 +6.993373391e-002 -2.036900663e+002 -2.036900663e+002 -1.2545e+000 -1.2421e+000 -1.3619e+000
24644 0 +5.985370215e-002 -2.037001463e+002 -2.037001463e+002 -1.2534e+000 -1.2453e+000 -1.3623e+000
24647 0 +5.825605765e-002 -2.037017439e+002 -2.037017439e+002 -1.2532e+000 -1.2457e+000 -1.3624e+000
24756 0 +5.495300457e-002 -2.037050470e+002 -2.037050470e+002 -1.2531e+000 -1.2450e+000 -1.3628e+000
24761 0 +5.339723890e-002 -2.037066028e+002 -2.037066028e+002 -1.2531e+000 -1.2453e+000 -1.3628e+000
24813 0 +5.237926635e-002 -2.037076207e+002 -2.037076207e+002 -1.2528e+000 -1.2465e+000 -1.3629e+000
25201 0 +5.106266974e-002 -2.037089373e+002 -2.037089373e+002 -1.2527e+000 -1.2460e+000 -1.3628e+000
29828 0 +4.365645152e-002 -2.037163435e+002 -2.037163435e+002 -1.2480e+000 -1.2565e+000 -1.2510e+000
29936 0 +2.101201166e-002 -2.037389880e+002 -2.037389880e+002 -1.2496e+000 -1.2540e+000 -1.2507e+000
29993 0 +1.846398391e-002 -2.037415360e+002 -2.037415360e+002 -1.2494e+000 -1.2539e+000 -1.2506e+000
30028 0 +4.040994868e-003 -2.037559590e+002 -2.037559590e+002 -1.2494e+000 -1.2519e+000 -1.2502e+000
30180 0 +7.700933820e-004 -2.037592299e+002 -2.037592299e+002 -1.2502e+000 -1.2492e+000 -1.2498e+000
30225 0 +6.201481968e-004 -2.037593799e+002 -2.037593799e+002 -1.2499e+000 -1.2496e+000 -1.2499e+000
30291 0 +1.653433231e-004 -2.037598347e+002 -2.037598347e+002 -1.2502e+000 -1.2497e+000 -1.2499e+000
30459 0 +1.254897535e-004 -2.037598745e+002 -2.037598745e+002 -1.2502e+000 -1.2497e+000 -1.2499e+000
30512 0 +1.165168160e-004 -2.037598835e+002 -2.037598835e+002 -1.2501e+000 -1.2497e+000 -1.2500e+000
30519 0 +9.292242549e-005 -2.037599071e+002 -2.037599071e+002 -1.2501e+000 -1.2497e+000 -1.2500e+000
30589 0 +1.867981373e-005 -2.037599813e+002 -2.037599813e+002 -1.2499e+000 -1.2500e+000 -1.2500e+000
30648 0 +1.077669481e-005 -2.037599892e+002 -2.037599892e+002 -1.2500e+000 -1.2500e+000 -1.2500e+000
30816 0 +2.111627140e-006 -2.037599979e+002 -2.037599979e+002 -1.2500e+000 -1.2500e+000 -1.2500e+000
30858 0 +1.088782966e-006 -2.037599989e+002 -2.037599989e+002 -1.2500e+000 -1.2500e+000 -1.2500e+000
31162 0 +2.249712736e-007 -2.037599998e+002 -2.037599998e+002 -1.2500e+000 -1.2500e+000 -1.2500e+000
31178 0 +4.470552994e-008 -2.037600000e+002 -2.037600000e+002 -1.2500e+000 -1.2500e+000 -1.2500e+000
31248 0 +3.052898023e-008 -2.037600000e+002 -2.037600000e+002 -1.2500e+000 -1.2500e+000 -1.2500e+000
31439 0 +2.969699153e-008 -2.037600000e+002 -2.037600000e+002 -1.2500e+000 -1.2500e+000 -1.2500e+000
31454 0 +2.562532586e-008 -2.037600000e+002 -2.037600000e+002 -1.2500e+000 -1.2500e+000 -1.2500e+000
31455 0 +2.188372150e-008 -2.037600000e+002 -2.037600000e+002 -1.2500e+000 -1.2500e+000 -1.2500e+000
31462 0 +1.753465995e-008 -2.037600000e+002 -2.037600000e+002 -1.2500e+000 -1.2500e+000 -1.2500e+000
31481 0 +7.105057875e-009 -2.037600000e+002 -2.037600000e+002 -1.2500e+000 -1.2500e+000 -1.2500e+000
% f evaluations | g evaluations | best noise-free fitness - Fopt (3.399000000000e+001) + sum g_i+ | measured fitness | best measured fitness or single-digit g-values | x1 | x2...
1 0 +5.735492350e+001 +9.134492350e+001 +9.134492350e+001 -8.4439e-001 -2.8659e+000 +3.6869e+000
5 0 +4.520329979e+001 +7.919329979e+001 +7.919329979e+001 -8.4910e-001 +4.8220e+000 -1.2998e-001
23 0 +3.704445967e+001 +7.103445967e+001 +7.103445967e+001 +2.8814e+000 -3.0431e-001 +1.1201e+000
68 0 +2.966779423e+001 +6.365779423e+001 +6.365779423e+001 +1.8265e+000 +4.2939e+000 -5.6741e-001
69 0 +2.130162024e+001 +5.529162024e+001 +5.529162024e+001 +1.5888e+000 +9.2872e-001 -1.2464e+000
100 0 +1.198265331e+001 +4.597265331e+001 +4.597265331e+001 +1.8639e+000 +4.4884e-001 -1.5108e+000
392 0 +9.003598518e+000 +4.299359852e+001 +4.299359852e+001 +2.4238e+000 +3.8337e+000 -1.8920e+000
680 0 +8.520523526e+000 +4.251052353e+001 +4.251052353e+001 +3.2894e+000 +7.7513e-001 -2.6337e+000
694 0 +8.165264056e+000 +4.215526406e+001 +4.215526406e+001 +1.7771e+000 +1.9348e+000 -8.6733e-001
1082 0 +7.133072180e+000 +4.112307218e+001 +4.112307218e+001 +1.8698e+000 +2.1313e+000 -2.6361e+000
1186 0 +6.920840646e+000 +4.091084065e+001 +4.091084065e+001 +2.3228e+000 +2.2762e+000 -2.5119e+000
1313 0 +6.197626195e+000 +4.018762620e+001 +4.018762620e+001 +1.6204e+000 +2.1067e+000 -1.1399e+000
1503 0 +5.979688757e+000 +3.996968876e+001 +3.996968876e+001 +1.6206e+000 +2.1048e+000 -1.1283e+000
2053 0 +5.345451772e+000 +3.933545177e+001 +3.933545177e+001 +2.8382e+000 +2.3711e+000 -1.4872e+000
2586 0 +3.590160367e+000 +3.758016037e+001 +3.758016037e+001 +2.1690e+000 +2.4663e+000 -2.7923e+000
19404 0 +3.512941603e+000 +3.750294160e+001 +3.750294160e+001 +2.0598e+000 +2.3614e+000 -2.7493e+000
19520 0 +3.462254421e+000 +3.745225442e+001 +3.745225442e+001 +2.0621e+000 +2.3600e+000 -2.7473e+000
43802 0 +3.368839673e+000 +3.735883967e+001 +3.735883967e+001 +2.5303e+000 +2.4323e+000 -2.0264e+000
44272 0 +3.286565134e+000 +3.727656513e+001 +3.727656513e+001 +2.5331e+000 +2.4290e+000 -2.0233e+000
140852 0 +3.209573512e+000 +3.719957351e+001 +3.719957351e+001 +1.9415e+000 +1.8487e+000 -1.9887e+000
162211 0 +3.156960891e+000 +3.714696089e+001 +3.714696089e+001 +2.2616e+000 +2.1824e+000 -2.1452e+000
162297 0 +3.038756369e+000 +3.702875637e+001 +3.702875637e+001 +2.2638e+000 +2.1750e+000 -2.1358e+000
162664 0 +3.016515825e+000 +3.700651582e+001 +3.700651582e+001 +2.2630e+000 +2.1761e+000 -2.1363e+000
207682 0 +2.290211360e+000 +3.628021136e+001 +3.628021136e+001 -1.1112e+000 -1.7657e+000 +1.3054e+000
207959 0 +2.008269186e+000 +3.599826919e+001 +3.599826919e+001 -1.1069e+000 -1.7647e+000 +1.3028e+000
208059 0 +1.706408697e+000 +3.569640870e+001 +3.569640870e+001 -1.4359e+000 -1.0980e+000 +1.1003e+000
208093 0 +5.933362684e-001 +3.458333627e+001 +3.458333627e+001 -1.4471e+000 -1.0995e+000 +1.1032e+000
208164 0 +5.815020799e-001 +3.457150208e+001 +3.457150208e+001 -1.4461e+000 -1.0992e+000 +1.1026e+000
208665 0 +5.749662280e-001 +3.456496623e+001 +3.456496623e+001 -1.4464e+000 -1.0996e+000 +1.1016e+000
209164 0 +5.599645631e-001 +3.454996456e+001 +3.454996456e+001 -1.4456e+000 -1.0999e+000 +1.1017e+000
209418 0 +5.167542477e-001 +3.450675425e+001 +3.450675425e+001 -1.4468e+000 -1.1013e+000 +1.1048e+000
209525 0 +5.006156040e-001 +3.449061560e+001 +3.449061560e+001 -1.4461e+000 -1.1012e+000 +1.1047e+000
209581 0 +4.747925310e-001 +3.446479253e+001 +3.446479253e+001 -1.4424e+000 -1.1023e+000 +1.1044e+000
209584 0 +4.541784557e-001 +3.444417846e+001 +3.444417846e+001 -1.4432e+000 -1.1023e+000 +1.1051e+000
209643 0 +4.453537211e-001 +3.443535372e+001 +3.443535372e+001 -1.4428e+000 -1.1039e+000 +1.1080e+000
209705 0 +4.040656993e-001 +3.439406570e+001 +3.439406570e+001 -1.4447e+000 -1.1049e+000 +1.1091e+000
209736 0 +3.934942904e-001 +3.438349429e+001 +3.438349429e+001 -1.4440e+000 -1.1053e+000 +1.1096e+000
209737 0 +3.164847073e-001 +3.430648471e+001 +3.430648471e+001 -1.4424e+000 -1.1087e+000 +1.1120e+000
209740 0 +3.068250656e-001 +3.429682507e+001 +3.429682507e+001 -1.4416e+000 -1.1110e+000 +1.1148e+000
209827 0 +3.019085990e-001 +3.429190860e+001 +3.429190860e+001 -1.4413e+000 -1.1096e+000 +1.1130e+000
224253 0 +1.347742339e-001 +3.412477423e+001 +3.412477423e+001 -1.2249e+000 -1.2134e+000 +1.1222e+000
224288 0 +1.302087365e-001 +3.412020874e+001 +3.412020874e+001 -1.2249e+000 -1.2132e+000 +1.1220e+000
224295 0 +1.129782436e-001 +3.410297824e+001 +3.410297824e+001 -1.2236e+000 -1.2151e+000 +1.1235e+000
224318 0 +1.117395270e-001 +3.410173953e+001 +3.410173953e+001 -1.2237e+000 -1.2149e+000 +1.1233e+000
224327 0 +1.085362327e-001 +3.409853623e+001 +3.409853623e+001 -1.2240e+000 -1.2142e+000 +1.1225e+000
224525 0 +8.311605418e-002 +3.407311605e+001 +3.407311605e+001 -1.2251e+000 -1.2144e+000 +1.1224e+000
224557 0 +7.720744014e-002 +3.406720744e+001 +3.406720744e+001 -1.2248e+000 -1.2140e+000 +1.1217e+000
224737 0 +7.570276138e-002 +3.406570276e+001 +3.406570276e+001 -1.2251e+000 -1.2135e+000 +1.1210e+000
% f evaluations | g evaluations | best noise-free fitness - Fopt (-1.000000000000e+003) + sum g_i+ | measured fitness | best measured fitness or single-digit g-values | x1 | x2...
1 0 +8.380766813e+001 -9.161923319e+002 -9.161923319e+002 -8.6648e-001 -6.6805e-001 -3.8828e+000
2 0 +3.682478541e+001 -9.631752146e+002 -9.631752146e+002 -3.1212e-001 +2.4745e+000 -2.6693e+000
5 0 +3.099094657e+001 -9.690090534e+002 -9.690090534e+002 -4.5142e+000 -3.6226e+000 +1.2772e-001
8 0 +2.703705065e+001 -9.729629494e+002 -9.729629494e+002 -2.7917e+000 -2.5123e+000 +3.2356e+000
27 0 +2.561974752e+001 -9.743802525e+002 -9.743802525e+002 -9.8146e-001 -3.9075e+000 +2.1188e+000
28 0 +2.482510330e+001 -9.751748967e+002 -9.751748967e+002 +6.1544e-001 -3.7703e+000 +1.9850e+000
81 0 +2.266663514e+001 -9.773333649e+002 -9.773333649e+002 -2.4927e+000 -2.7481e-001 +1.3265e+000
87 0 +2.172549669e+001 -9.782745033e+002 -9.782745033e+002 +3.1548e-001 -1.7883e+000 +2.7640e+000
98 0 +6.760893206e+000 -9.932391068e+002 -9.932391068e+002 -1.7587e+000 -2.0646e+000 +3.5346e+000
334 0 +6.247970248e+000 -9.937520298e+002 -9.937520298e+002 -1.7941e+000 -2.0497e+000 +3.4630e+000
859 0 +5.311663867e+000 -9.946883361e+002 -9.946883361e+002 -1.1241e+000 -2.3449e+000 +1.5544e+000
1457 0 +5.232360313e+000 -9.947676397e+002 -9.947676397e+002 -1.1246e+000 -2.3442e+000 +1.5603e+000
1851 0 +5.094812363e+000 -9.949051876e+002 -9.949051876e+002 -1.3264e+000 -1.3615e+000 +2.7945e+000
2580 0 +4.982670313e+000 -9.950173297e+002 -9.950173297e+002 -1.3261e+000 -1.3631e+000 +2.7960e+000
8574 0 +4.867900034e+000 -9.951321000e+002 -9.951321000e+002 -1.6380e+000 -1.0222e+000 +2.2898e+000
10859 0 +4.778509176e+000 -9.952214908e+002 -9.952214908e+002 -2.1828e+000 -1.4000e+000 +2.4152e+000
11168 0 +4.657251079e+000 -9.953427489e+002 -9.953427489e+002 -2.1817e+000 -1.3982e+000 +2.4156e+000
11228 0 +4.324555882e+000 -9.956754441e+002 -9.956754441e+002 -2.3715e+000 -2.2272e+000 +2.4805e+000
11831 0 +4.252988295e+000 -9.957470117e+002 -9.957470117e+002 -2.3709e+000 -2.2309e+000 +2.4756e+000
12324 0 +3.930894898e+000 -9.960691051e+002 -9.960691051e+002 -2.3720e+000 -2.2339e+000 +2.4804e+000
12354 0 +3.765337574e+000 -9.962346624e+002 -9.962346624e+002 -2.3708e+000 -2.2293e+000 +2.4814e+000
12424 0 +3.571065931e+000 -9.964289341e+002 -9.964289341e+002 -2.3703e+000 -2.2292e+000 +2.4840e+000
12454 0 +3.465617421e+000 -9.965343826e+002 -9.965343826e+002 -2.3695e+000 -2.2276e+000 +2.4827e+000
12463 0 +3.380244781e+000 -9.966197552e+002 -9.966197552e+002 -2.3686e+000 -2.2300e+000 +2.4821e+000
12744 0 +3.303981446e+000 -9.966960186e+002 -9.966960186e+002 -2.3679e+000 -2.2271e+000 +2.4823e+000
12810 0 +3.227717326e+000 -9.967722827e+002 -9.967722827e+002 -2.3650e+000 -2.2188e+000 +2.4832e+000
44080 0 +3.141067792e+000 -9.968589322e+002 -9.968589322e+002 -1.8580e+000 -2.2604e+000 +2.0319e+000
49466 0 +3.064626912e+000 -9.969353731e+002 -9.969353731e+002 -2.0155e+000 -2.2550e+000 +2.2069e+000
121120 0 +2.259350385e+000 -9.977406496e+002 -9.977406496e+002 +1.7099e+000 +1.1582e+000 -1.3031e+000
121209 0 +2.227894032e+000 -9.977721060e+002 -9.977721060e+002 +1.5184e+000 +1.1854e+000 -1.2042e+000
121509 0 +1.742455784e+000 -9.982575442e+002 -9.982575442e+002 +1.5173e+000 +1.1858e+000 -1.1953e+000
121538 0 +3.898442926e-001 -9.996101557e+002 -9.996101557e+002 +1.5151e+000 +1.1884e+000 -1.1988e+000
122491 0 +3.578506168e-001 -9.996421494e+002 -9.996421494e+002 +1.5151e+000 +1.1895e+000 -1.1985e+000
122619 0 +3.147685791e-001 -9.996852314e+002 -9.996852314e+002 +1.5148e+000 +1.1912e+000 -1.1989e+000
123490 0 +3.071575319e-001 -9.996928425e+002 -9.996928425e+002 +1.5148e+000 +1.1907e+000 -1.2002e+000
287540 0 +2.875492095e-001 -9.997124508e+002 -9.997124508e+002 +1.0771e+000 +1.0596e+000 -1.2377e+000
287541 0 +2.788103387e-001 -9.997211897e+002 -9.997211897e+002 +1.0773e+000 +1.0603e+000 -1.2378e+000
287571 0 +2.586996319e-001 -9.997413004e+002 -9.997413004e+002 +1.0786e+000 +1.0635e+000 -1.2390e+000
287725 0 +2.564748324e-001 -9.997435252e+002 -9.997435252e+002 +1.0791e+000 +1.0654e+000 -1.2390e+000
% f evaluations | g evaluations | best noise-free fitness - Fopt (-1.000000000000e+003) + sum g_i+ | measured fitness | best measured fitness or single-digit g-values | x1 | x2...
1 0 +7.593379493e+001 -9.240662051e+002 -9.240662051e+002 +4.6947e+000 +1.0469e+000 +1.4562e+000
2 0 +6.171098050e+001 -9.382890195e+002 -9.382890195e+002 +3.6692e+000 -1.8730e-001 +2.6113e+000
3 0 +4.846915772e+001 -9.515308423e+002 -9.515308423e+002 -2.8328e+000 +2.5003e+000 -2.1462e+000
6 0 +3.678380641e+001 -9.632161936e+002 -9.632161936e+002 -3.6513e+000 -2.8041e+000 +1.6908e+000
18 0 +3.187383531e+001 -9.681261647e+002 -9.681261647e+002 -3.3601e+000 -4.3773e+000 +9.8014e-001
20 0 +2.990116489e+001 -9.700988351e+002 -9.700988351e+002 -1.8624e+000 -3.4982e+000 -4.0540e+000
25 0 +2.257406479e+001 -9.774259352e+002 -9.774259352e+002 -8.9728e-001 -8.5787e-001 -4.7295e+000
73 0 +1.519627037e+001 -9.848037296e+002 -9.848037296e+002 -2.9271e+000 -9.3123e-001 -4.5290e-001
80 0 +9.821994090e+000 -9.901780059e+002 -9.901780059e+002 -2.1704e+000 -2.6568e+000 -9.1950e-001
657 0 +9.100202553e+000 -9.908997974e+002 -9.908997974e+002 -2.9793e+000 -8.6953e-001 -1.4019e+000
837 0 +7.640562744e+000 -9.923594373e+002 -9.923594373e+002 -2.9722e+000 -8.7225e-001 -1.4011e+000
1097 0 +7.567654290e+000 -9.924323457e+002 -9.924323457e+002 -2.9720e+000 -8.7249e-001 -1.4010e+000
1690 0 +5.931831292e+000 -9.940681687e+002 -9.940681687e+002 -9.1709e-001 -2.9120e+000 -2.1566e+000
2417 0 +4.666707786e+000 -9.953332922e+002 -9.953332922e+002 -3.0040e+000 -1.8992e+000 -1.8012e+000
7013 0 +3.663576785e+000 -9.963364232e+002 -9.963364232e+002 -1.8064e+000 -1.9690e+000 -1.7581e+000
10420 0 +3.620268557e+000 -9.963797314e+002 -9.963797314e+002 -1.7785e+000 -2.0869e+000 -1.9372e+000
10959 0 +3.517525861e+000 -9.964824741e+002 -9.964824741e+002 -1.7822e+000 -2.0868e+000 -1.9371e+000
10970 0 +3.466370881e+000 -9.965336291e+002 -9.965336291e+002 -1.7842e+000 -2.0870e+000 -1.9374e+000
11055 0 +3.355098632e+000 -9.966449014e+002 -9.966449014e+002 -1.7895e+000 -2.0855e+000 -1.9392e+000
11107 0 +3.271175302e+000 -9.967288247e+002 -9.967288247e+002 -1.7956e+000 -2.0840e+000 -1.9423e+000
11202 0 +3.230896049e+000 -9.967691040e+002 -9.967691040e+002 -1.7996e+000 -2.0817e+000 -1.9444e+000
81141 0 +1.999860787e+000 -9.980001392e+002 -9.980001392e+002 +1.6984e+000 +1.0033e+000 +1.2613e+000
81768 0 +8.435969081e-001 -9.991564031e+002 -9.991564031e+002 +1.5422e+000 +9.6135e-001 +1.3805e+000
122749 0 +7.349988725e-001 -9.992650011e+002 -9.992650011e+002 +1.0736e+000 +1.1027e+000 +1.4844e+000
123124 0 +6.212620760e-001 -9.993787379e+002 -9.993787379e+002 +1.0715e+000 +1.1021e+000 +1.4844e+000
123352 0 +5.836497862e-001 -9.994163502e+002 -9.994163502e+002 +1.0702e+000 +1.0976e+000 +1.4886e+000
123421 0 +4.544740749e-001 -9.995455259e+002 -9.995455259e+002 +1.4310e+000 +1.0234e+000 +1.3751e+000
123445 0 +4.332639449e-001 -9.995667361e+002 -9.995667361e+002 +1.4315e+000 +1.0227e+000 +1.3761e+000
124026 0 +4.249000029e-001 -9.995751000e+002 -9.995751000e+002 +1.4318e+000 +1.0224e+000 +1.3763e+000
124209 0 +4.124896468e-001 -9.995875104e+002 -9.995875104e+002 +1.4320e+000 +1.0212e+000 +1.3775e+000
151613 0 +3.916338852e-001 -9.996083661e+002 -9.996083661e+002 +1.2464e+000 +1.2517e+000 +1.2447e+000
151690 0 +5.984902878e-002 -9.999401510e+002 -9.999401510e+002 +1.2452e+000 +1.2508e+000 +1.2477e+000
152020 0 +3.102890248e-002 -9.999689711e+002 -9.999689711e+002 +1.2457e+000 +1.2512e+000 +1.2489e+000
152197 0 +2.375114045e-002 -9.999762489e+002 -9.999762489e+002 +1.2458e+000 +1.2509e+000 +1.2490e+000
152390 0 +1.461411264e-002 -9.999853859e+002 -9.999853859e+002 +1.2497e+000 +1.2502e+000 +1.2504e+000
152391 0 +1.100988756e-002 -9.999889901e+002 -9.999889901e+002 +1.2497e+000 +1.2503e+000 +1.2503e+000
152419 0 +4.214761097e-003 -9.999957852e+002 -9.999957852e+002 +1.2485e+000 +1.2507e+000 +1.2490e+000
152584 0 +3.921069605e-003 -9.999960789e+002 -9.999960789e+002 +1.2488e+000 +1.2506e+000 +1.2494e+000
152638 0 +2.876498129e-003 -9.999971235e+002 -9.999971235e+002 +1.2488e+000 +1.2506e+000 +1.2491e+000
152668 0 +2.708277885e-003 -9.999972917e+002 -9.999972917e+002 +1.2486e+000 +1.2506e+000 +1.2493e+000
152687 0 +2.505436351e-003 -9.999974946e+002 -9.999974946e+002 +1.2489e+000 +1.2505e+000 +1.2496e+000
152698 0 +1.962464219e-003 -9.999980375e+002 -9.999980375e+002 +1.2505e+000 +1.2502e+000 +1.2498e+000
152700 0 +1.799156464e-003 -9.999982008e+002 -9.999982008e+002 +1.2504e+000 +1.2502e+000 +1.2498e+000
152729 0 +6.103060434e-004 -9.999993897e+002 -9.999993897e+002 +1.2496e+000 +1.2503e+000 +1.2498e+000
152789 0 +2.590373284e-004 -9.999997410e+002 -9.999997410e+002 +1.2498e+000 +1.2502e+000 +1.2498e+000
152816 0 +2.331062643e-004 -9.999997669e+002 -9.999997669e+002 +1.2499e+000 +1.2502e+000 +1.2498e+000
152868 0 +1.462893773e-004 -9.999998537e+002 -9.999998537e+002 +1.2499e+000 +1.2501e+000 +1.2499e+000
152914 0 +1.231623128e-004 -9.999998768e+002 -9.999998768e+002 +1.2499e+000 +1.2501e+000 +1.2499e+000
153038 0 +8.522981921e-005 -9.999999148e+002 -9.999999148e+002 +1.2497e+000 +1.2501e+000 +1.2499e+000
153050 0 +5.579048434e-005 -9.999999442e+002 -9.999999442e+002 +1.2498e+000 +1.2501e+000 +1.2499e+000
153150 0 +2.989308223e-005 -9.999999701e+002 -9.999999701e+002 +1.2500e+000 +1.2500e+000 +1.2499e+000
153177 0 +2.421881038e-005 -9.999999758e+002 -9.999999758e+002 +1.2500e+000 +1.2500e+000 +1.2500e+000
153207 0 +1.953748597e-005 -9.999999805e+002 -9.999999805e+002 +1.2500e+000 +1.2500e+000 +1.2500e+000
153229 0 +1.416687223e-005 -9.999999858e+002 -9.999999858e+002 +1.2500e+000 +1.2500e+000 +1.2500e+000
153260 0 +1.341062693e-005 -9.999999866e+002 -9.999999866e+002 +1.2500e+000 +1.2500e+000 +1.2500e+000
153282 0 +3.942251965e-006 -9.999999961e+002 -9.999999961e+002 +1.2500e+000 +1.2500e+000 +1.2500e+000
153430 0 +3.102784262e-006 -9.999999969e+002 -9.999999969e+002 +1.2500e+000 +1.2500e+000 +1.2500e+000
153439 0 +1.457921599e-006 -9.999999985e+002 -9.999999985e+002 +1.2500e+000 +1.2500e+000 +1.2500e+000
153442 0 +9.843814723e-007 -9.999999990e+002 -9.999999990e+002 +1.2500e+000 +1.2500e+000 +1.2500e+000
153528 0 +9.592000652e-007 -9.999999990e+002 -9.999999990e+002 +1.2500e+000 +1.2500e+000 +1.2500e+000
153580 0 +6.247660167e-007 -9.999999994e+002 -9.999999994e+002 +1.2500e+000 +1.2500e+000 +1.2500e+000
153588 0 +3.407544682e-007 -9.999999997e+002 -9.999999997e+002 +1.2500e+000 +1.2500e+000 +1.2500e+000
153598 0 +1.412458914e-007 -9.999999999e+002 -9.999999999e+002 +1.2500e+000 +1.2500e+000 +1.2500e+000
153616 0 +8.879771940e-008 -9.999999999e+002 -9.999999999e+002 +1.2500e+000 +1.2500e+000 +1.2500e+000
153789 0 +5.479819265e-008 -9.999999999e+002 -9.999999999e+002 +1.2500e+000 +1.2500e+000 +1.2500e+000
153905 0 +5.277297532e-008 -9.999999999e+002 -9.999999999e+002 +1.2500e+000 +1.2500e+000 +1.2500e+000
153955 0 +3.722595920e-008 -1.000000000e+003 -1.000000000e+003 +1.2500e+000 +1.2500e+000 +1.2500e+000
153970 0 +3.670186288e-008 -1.000000000e+003 -1.000000000e+003 +1.2500e+000 +1.2500e+000 +1.2500e+000
154020 0 +2.544231847e-008 -1.000000000e+003 -1.000000000e+003 +1.2500e+000 +1.2500e+000 +1.2500e+000
154043 0 +2.200840754e-008 -1.000000000e+003 -1.000000000e+003 +1.2500e+000 +1.2500e+000 +1.2500e+000
154083 0 +7.171593097e-009 -1.000000000e+003 -1.000000000e+003 +1.2500e+000 +1.2500e+000 +1.2500e+000
% f evaluations | g evaluations | best noise-free fitness - Fopt (-1.272000000000e+001) + sum g_i+ | measured fitness | best measured fitness or single-digit g-values | x1 | x2...
1 0 +5.725175623e+001 +4.453175623e+001 +4.453175623e+001 -4.0772e+000 +8.1157e-001 -4.1795e+000
4 0 +4.883840401e+001 +3.611840401e+001 +3.611840401e+001 -6.6547e-001 -6.0504e-002 +1.0734e+000
12 0 +4.780358850e+001 +3.508358850e+001 +3.508358850e+001 -2.5188e+000 -1.2892e+000 -9.0516e-001
18 0 +2.907803700e+001 +1.635803700e+001 +1.635803700e+001 +6.5506e-001 +2.0238e-001 +2.3757e+000
87 0 +1.936292281e+001 +6.642922812e+000 +6.642922812e+000 -2.1166e+000 -6.5782e-001 +7.0002e-001
125 0 +1.838790716e+001 +5.667907161e+000 +5.667907161e+000 -1.4624e+000 -3.6347e+000 -2.1489e+000
152 0 +5.496411786e+000 -7.223588214e+000 -7.223588214e+000 -1.5198e+000 -3.0978e+000 -1.9807e+000
2782 0 +4.393946858e+000 -8.326053142e+000 -8.326053142e+000 -1.8926e+000 -1.6004e+000 -1.3931e+000
7176 0 +3.891914448e+000 -8.828085552e+000 -8.828085552e+000 -1.9515e+000 -1.8227e+000 -1.3910e+000
7668 0 +3.890192066e+000 -8.829807934e+000 -8.829807934e+000 -1.9518e+000 -1.8227e+000 -1.3913e+000
29947 0 +3.444594357e+000 -9.275405643e+000 -9.275405643e+000 -2.4684e+000 -1.7327e+000 -2.2834e+000
30460 0 +3.347469160e+000 -9.372530840e+000 -9.372530840e+000 -2.4671e+000 -1.7341e+000 -2.2796e+000
31030 0 +3.264130816e+000 -9.455869184e+000 -9.455869184e+000 -2.3876e+000 -2.3365e+000 -2.3633e+000
31085 0 +3.202676486e+000 -9.517323514e+000 -9.517323514e+000 -2.3836e+000 -2.3350e+000 -2.3579e+000
31381 0 +3.158493503e+000 -9.561506497e+000 -9.561506497e+000 -2.3838e+000 -2.3358e+000 -2.3572e+000
208833 0 +3.089251299e+000 -9.630748701e+000 -9.630748701e+000 -2.3922e+000 -2.0929e+000 -2.2641e+000
230358 0 +2.546560148e+000 -1.017343985e+001 -1.017343985e+001 +9.3484e-001 +1.2840e+000 +1.3225e+000
230499 0 +2.364046115e+000 -1.035595389e+001 -1.035595389e+001 +9.9567e-001 +1.0332e+000 +1.0342e+000
230798 0 +1.058091507e+000 -1.166190849e+001 -1.166190849e+001 +9.9372e-001 +1.0284e+000 +1.0581e+000
231339 0 +8.810582223e-001 -1.183894178e+001 -1.183894178e+001 +9.9687e-001 +1.0301e+000 +1.0645e+000
231976 0 +6.318273049e-001 -1.208817270e+001 -1.208817270e+001 +9.9697e-001 +1.0250e+000 +1.0837e+000
232241 0 +6.186050163e-001 -1.210139498e+001 -1.210139498e+001 +9.9692e-001 +1.0255e+000 +1.0766e+000
232269 0 +5.968903390e-001 -1.212310966e+001 -1.212310966e+001 +9.9879e-001 +1.0250e+000 +1.0839e+000
232603 0 +5.749735153e-001 -1.214502648e+001 -1.214502648e+001 +9.9789e-001 +1.0258e+000 +1.0799e+000
247450 0 +3.461446953e-001 -1.237385530e+001 -1.237385530e+001 +1.4444e+000 +1.3453e+000 +1.2248e+000
248331 0 +2.894825935e-001 -1.243051741e+001 -1.243051741e+001 +1.4421e+000 +1.3420e+000 +1.2381e+000
248542 0 +2.473667170e-001 -1.247263328e+001 -1.247263328e+001 +1.4437e+000 +1.3449e+000 +1.2277e+000
248581 0 +2.230394531e-001 -1.249696055e+001 -1.249696055e+001 +1.4400e+000 +1.3441e+000 +1.2223e+000
248582 0 +2.065283737e-001 -1.251347163e+001 -1.251347163e+001 +1.4402e+000 +1.3445e+000 +1.2225e+000
248614 0 +1.990332042e-001 -1.252096680e+001 -1.252096680e+001 +1.4404e+000 +1.3445e+000 +1.2248e+000
248634 0 +1.848306994e-001 -1.253516930e+001 -1.253516930e+001 +1.4415e+000 +1.3442e+000 +1.2271e+000
266700 0 +1.519229607e-001 -1.256807704e+001 -1.256807704e+001 +1.3841e+000 +1.1178e+000 +1.2478e+000
266772 0 +1.508470336e-001 -1.256915297e+001 -1.256915297e+001 +1.3837e+000 +1.1175e+000 +1.2491e+000
266891 0 +1.473316375e-001 -1.257266836e+001 -1.257266836e+001 +1.3824e+000 +1.1171e+000 +1.2470e+000
266947 0 +1.418894847e-001 -1.257811052e+001 -1.257811052e+001 +1.3832e+000 +1.1173e+000 +1.2473e+000
273307 0 +1.245593459e-001 -1.259544065e+001 -1.259544065e+001 +1.3167e+000 +1.1348e+000 +1.3537e+000
273443 0 +1.229964112e-001 -1.259700359e+001 -1.259700359e+001 +1.3168e+000 +1.1352e+000 +1.3538e+000
273540 0 +1.178404277e-001 -1.260215957e+001 -1.260215957e+001 +1.3175e+000 +1.1354e+000 +1.3543e+000
273838 0 +1.168100479e-001 -1.260318995e+001 -1.260318995e+001 +1.3175e+000 +1.1351e+000 +1.3546e+000
% f evaluations | g evaluations | best noise-free fitness - Fopt (-5.954000000000e+001) + sum g_i+ | measured fitness | best measured fitness or single-digit g-values | x1 | x2...
1 0 +1.119844679e+002 +5.244446788e+001 +5.244446788e+001 +1.9424e+000 -3.7992e+000 +3.2810e+000
2 0 +9.339163846e+001 +3.385163846e+001 +3.385163846e+001 -4.9719e+000 -1.1062e-001 -2.4215e+000
3 0 +4.032950332e+001 -1.921049668e+001 -1.921049668e+001 +5.0611e-001 +3.2161e+000 -2.5558e+000
4 0 +2.289267713e+001 -3.664732287e+001 -3.664732287e+001 +1.7061e+000 +4.5979e+000 -2.7603e+000
26 0 +1.300679334e+001 -4.653320666e+001 -4.653320666e+001 +1.0993e+000 +9.8529e-002 -2.4359e+000
94 0 +9.187890936e+000 -5.035210906e+001 -5.035210906e+001 +1.7415e+000 +7.3476e-001 -2.8678e+000
252 0 +6.020499215e+000 -5.351950078e+001 -5.351950078e+001 +3.1654e+000 +2.0196e+000 -2.0277e+000
1528 0 +4.952652048e+000 -5.458734795e+001 -5.458734795e+001 +3.1788e+000 +2.0169e+000 -2.0140e+000
1934 0 +4.646037489e+000 -5.489396251e+001 -5.489396251e+001 +3.1695e+000 +2.0171e+000 -2.0216e+000
2057 0 +4.509379053e+000 -5.503062095e+001 -5.503062095e+001 +3.1723e+000 +2.0178e+000 -2.0177e+000
2075 0 +4.412938195e+000 -5.512706180e+001 -5.512706180e+001 +3.1649e+000 +2.0113e+000 -2.0235e+000
2357 0 +4.340760635e+000 -5.519923937e+001 -5.519923937e+001 +3.1633e+000 +2.0178e+000 -2.0251e+000
2472 0 +4.246236512e+000 -5.529376349e+001 -5.529376349e+001 +3.1665e+000 +2.0173e+000 -2.0212e+000
8477 0 +3.707489839e+000 -5.583251016e+001 -5.583251016e+001 +2.1222e+000 +2.0102e+000 -2.0073e+000
8959 0 +3.601836639e+000 -5.593816336e+001 -5.593816336e+001 +2.1339e+000 +2.0125e+000 -1.9970e+000
9051 0 +3.346505505e+000 -5.619349449e+001 -5.619349449e+001 +2.1316e+000 +2.0082e+000 -1.9978e+000
10818 0 +3.233661680e+000 -5.630633832e+001 -5.630633832e+001 +2.1379e+000 +2.0074e+000 -1.9955e+000
11047 0 +3.144132211e+000 -5.639586779e+001 -5.639586779e+001 +2.1387e+000 +2.0056e+000 -1.9935e+000
11317 0 +3.082693468e+000 -5.645730653e+001 -5.645730653e+001 +2.1384e+000 +2.0034e+000 -1.9941e+000
49591 0 +2.847108445e+000 -5.669289155e+001 -5.669289155e+001 -1.9962e+000 -1.0344e+000 +1.1927e+000
51106 0 +2.245528587e+000 -5.729447141e+001 -5.729447141e+001 -1.7352e+000 -8.0681e-001 +1.2044e+000
51844 0 +2.051257697e+000 -5.748874230e+001 -5.748874230e+001 -1.7097e+000 -1.1490e+000 +1.3587e+000
52606 0 +1.285519804e+000 -5.825448020e+001 -5.825448020e+001 -1.0179e+000 -1.2291e+000 +1.5558e+000
53117 0 +7.707513070e-001 -5.876924869e+001 -5.876924869e+001 -1.0217e+000 -1.2186e+000 +1.4478e+000
53782 0 +6.551996039e-001 -5.888480040e+001 -5.888480040e+001 -1.0101e+000 -1.2208e+000 +1.5603e+000
54481 0 +6.335582618e-001 -5.890644174e+001 -5.890644174e+001 -1.0101e+000 -1.2219e+000 +1.5603e+000
54678 0 +6.266035144e-001 -5.891339649e+001 -5.891339649e+001 -1.0109e+000 -1.2217e+000 +1.5598e+000
55282 0 +6.161138413e-001 -5.892388616e+001 -5.892388616e+001 -1.0116e+000 -1.2222e+000 +1.5597e+000
68147 0 +4.778863246e-001 -5.906211368e+001 -5.906211368e+001 -1.3037e+000 -1.1006e+000 +1.3937e+000
68332 0 +3.813147075e-001 -5.915868529e+001 -5.915868529e+001 -1.3157e+000 -1.1010e+000 +1.3852e+000
68740 0 +3.655111805e-001 -5.917448882e+001 -5.917448882e+001 -1.3192e+000 -1.0998e+000 +1.3824e+000
68746 0 +2.481757256e-001 -5.929182427e+001 -5.929182427e+001 -1.3153e+000 -1.0987e+000 +1.3854e+000
68808 0 +2.168740953e-001 -5.932312590e+001 -5.932312590e+001 -1.3147e+000 -1.0963e+000 +1.3863e+000
68920 0 +2.080648706e-001 -5.933193513e+001 -5.933193513e+001 -1.3168e+000 -1.0961e+000 +1.3839e+000
68984 0 +1.896717366e-001 -5.935032826e+001 -5.935032826e+001 -1.3190e+000 -1.0952e+000 +1.3832e+000
69564 0 +1.859409840e-001 -5.935405902e+001 -5.935405902e+001 -1.3185e+000 -1.0953e+000 +1.3832e+000
69751 0 +1.667621883e-001 -5.937323781e+001 -5.937323781e+001 -1.3394e+000 -1.0910e+000 +1.2615e+000
69798 0 +1.596526311e-001 -5.938034737e+001 -5.938034737e+001 -1.3384e+000 -1.0911e+000 +1.2624e+000
69811 0 +1.498118367e-001 -5.939018816e+001 -5.939018816e+001 -1.3408e+000 -1.0910e+000 +1.2615e+000
69822 0 +1.366914139e-001 -5.940330859e+001 -5.940330859e+001 -1.3407e+000 -1.0918e+000 +1.2613e+000
69873 0 +1.333704218e-001 -5.940662958e+001 -5.940662958e+001 -1.3396e+000 -1.0922e+000 +1.2618e+000
% f evaluations | g evaluations | best noise-free fitness - Fopt (-1.000000000000e+003) + sum g_i+ | measured fitness | best measured fitness or single-digit g-values | x1 | x2...
1 0 +8.441732019e+001 -9.155826798e+002 -9.155826798e+002 +4.2183e+000 -1.3057e+000 -2.0723e+000
2 0 +5.176588636e+001 -9.482341136e+002 -9.482341136e+002 +2.1760e+000 -1.8553e+000 -3.3242e-001
3 0 +5.041303435e+001 -9.495869656e+002 -9.495869656e+002 +1.4177e+000 -1.9322e-001 -1.0755e-001
11 0 +3.504608506e+001 -9.649539149e+002 -9.649539149e+002 -4.2308e+000 -4.1425e+000 +6.2056e-002
14 0 +2.336651243e+001 -9.766334876e+002 -9.766334876e+002 -2.6922e+000 -3.8473e+000 +4.2072e+000
85 0 +1.668901347e+001 -9.833109865e+002 -9.833109865e+002 -5.6016e-001 +1.9562e-002 +2.0259e+000
242 0 +9.308038117e+000 -9.906919619e+002 -9.906919619e+002 -1.5898e+000 -2.4490e+000 +4.5370e-001
402 0 +8.683239714e+000 -9.913167603e+002 -9.913167603e+002 -1.5882e+000 -2.4428e+000 +4.4457e-001
480 0 +7.285377095e+000 -9.927146229e+002 -9.927146229e+002 -2.2300e+000 -8.9151e-001 +2.3110e+000
2160 0 +6.958986363e+000 -9.930410136e+002 -9.930410136e+002 -3.0722e+000 -2.0035e+000 +1.8736e+000
2190 0 +6.543534931e+000 -9.934564651e+002 -9.934564651e+002 -3.0727e+000 -2.0049e+000 +1.8709e+000
2700 0 +6.436344838e+000 -9.935636552e+002 -9.935636552e+002 -3.2731e+000 -2.0453e+000 +2.4311e+000
3502 0 +6.109073902e+000 -9.938909261e+002 -9.938909261e+002 -1.0928e+000 -1.4525e+000 +2.0406e+000
3850 0 +5.714553297e+000 -9.942854467e+002 -9.942854467e+002 -1.0703e+000 -1.9214e+000 +2.1764e+000
4640 0 +5.517497394e+000 -9.944825026e+002 -9.944825026e+002 -1.0689e+000 -1.9214e+000 +2.1772e+000
4675 0 +4.462000072e+000 -9.955379999e+002 -9.955379999e+002 -1.9108e+000 -1.6675e+000 +1.9721e+000
4837 0 +4.357250938e+000 -9.956427491e+002 -9.956427491e+002 -1.9113e+000 -1.6675e+000 +1.9718e+000
4846 0 +3.708588113e+000 -9.962914119e+002 -9.962914119e+002 -2.2230e+000 -1.7760e+000 +1.9515e+000
4977 0 +3.455712097e+000 -9.965442879e+002 -9.965442879e+002 -2.2169e+000 -1.7742e+000 +1.9520e+000
5321 0 +3.358130079e+000 -9.966418699e+002 -9.966418699e+002 -2.2163e+000 -1.7746e+000 +1.9520e+000
5569 0 +3.271610654e+000 -9.967283893e+002 -9.967283893e+002 -2.2169e+000 -1.7757e+000 +1.9518e+000
6549 0 +3.233587777e+000 -9.967664122e+002 -9.967664122e+002 -2.2195e+000 -1.7768e+000 +1.9509e+000
20579 0 +1.914526632e+000 -9.980854734e+002 -9.980854734e+002 +1.2442e+000 +9.9723e-001 -8.7112e-001
20757 0 +1.708491030e+000 -9.982915090e+002 -9.982915090e+002 +1.4509e+000 +9.8139e-001 -8.3371e-001
21169 0 +1.511508456e+000 -9.984884915e+002 -9.984884915e+002 +1.4508e+000 +9.8330e-001 -8.3183e-001
22036 0 +1.276657657e+000 -9.987233423e+002 -9.987233423e+002 +1.4446e+000 +9.8092e-001 -8.3989e-001
22146 0 +1.243991582e+000 -9.987560084e+002 -9.987560084e+002 +1.4405e+000 +9.8012e-001 -8.4228e-001
22242 0 +9.494688711e-001 -9.990505311e+002 -9.990505311e+002 +1.3325e+000 +9.8627e-001 -8.6272e-001
22647 0 +9.236258383e-001 -9.990763742e+002 -9.990763742e+002 +1.3336e+000 +9.8627e-001 -8.6240e-001
22693 0 +9.103037515e-001 -9.990896962e+002 -9.990896962e+002 +1.3309e+000 +9.8543e-001 -8.6430e-001
33224 0 +7.620911400e-001 -9.992379089e+002 -9.992379089e+002 +1.5062e+000 +1.1253e+000 -1.1802e+000
33405 0 +5.967737287e-001 -9.994032263e+002 -9.994032263e+002 +1.5024e+000 +1.1235e+000 -1.1791e+000
33486 0 +5.832744592e-001 -9.994167255e+002 -9.994167255e+002 +1.5025e+000 +1.1236e+000 -1.1791e+000
33632 0 +5.716717950e-001 -9.994283282e+002 -9.994283282e+002 +1.5020e+000 +1.1234e+000 -1.1789e+000
33967 0 +5.565195381e-001 -9.994434805e+002 -9.994434805e+002 +1.5012e+000 +1.1226e+000 -1.1761e+000
33979 0 +5.469393410e-001 -9.994530607e+002 -9.994530607e+002 +1.5008e+000 +1.1227e+000 -1.1760e+000
34151 0 +5.366358082e-001 -9.994633642e+002 -9.994633642e+002 +1.5028e+000 +1.1232e+000 -1.1767e+000
34210 0 +4.401731839e-001 -9.995598268e+002 -9.995598268e+002 +1.5096e+000 +1.1276e+000 -1.1738e+000
34254 0 +4.081011920e-001 -9.995918988e+002 -9.995918988e+002 +1.5099e+000 +1.1271e+000 -1.1737e+000
34303 0 +3.969245073e-001 -9.996030755e+002 -9.996030755e+002 +1.5075e+000 +1.1259e+000 -1.1742e+000
34320 0 +3.725600590e-001 -9.996274399e+002 -9.996274399e+002 +1.5093e+000 +1.1266e+000 -1.1717e+000
34377 0 +3.639984768e-001 -9.996360015e+002 -9.996360015e+002 +1.5119e+000 +1.1269e+000 -1.1697e+000
34437 0 +3.610708494e-001 -9.996389292e+002 -9.996389292e+002 +1.5119e+000 +1.1271e+000 -1.1697e+000
102476 0 +9.839916375e-002 -9.999016008e+002 -9.999016008e+002 +1.3270e+000 +1.3648e+000 -1.2692e+000
164704 0 +9.749925383e-002 -9.999025007e+002 -9.999025007e+002 +1.2115e+000 +1.3676e+000 -1.2930e+000
164743 0 +9.343975625e-002 -9.999065602e+002 -9.999065602e+002 +1.2101e+000 +1.3667e+000 -1.2924e+000
164857 0 +8.325253181e-002 -9.999167475e+002 -9.999167475e+002 +1.2119e+000 +1.3673e+000 -1.2921e+000
164978 0 +7.920305189e-002 -9.999207969e+002 -9.999207969e+002 +1.2123e+000 +1.3670e+000 -1.2904e+000
165299 0 +7.742562331e-002 -9.999225744e+002 -9.999225744e+002 +1.2123e+000 +1.3670e+000 -1.2905e+000
165321 0 +7.391598529e-002 -9.999260840e+002 -9.999260840e+002 +1.2127e+000 +1.3672e+000 -1.2900e+000
165362 0 +7.201880925e-002 -9.999279812e+002 -9.999279812e+002 +1.2129e+000 +1.3674e+000 -1.2904e+000
165389 0 +6.916182108e-002 -9.999308382e+002 -9.999308382e+002 +1.2134e+000 +1.3677e+000 -1.2902e+000
165595 0 +6.759711980e-002 -9.999324029e+002 -9.999324029e+002 +1.2141e+000 +1.3679e+000 -1.2893e+000
% f evaluations | g evaluations | best noise-free fitness - Fopt (4.303000000000e+001) + sum g_i+ | measured fitness | best measured fitness or single-digit g-values | x1 | x2...
1 0 +8.990951211e+001 +1.329395121e+002 +1.329395121e+002 +8.7283e-001 -3.3276e+000 -4.2418e+000
3 0 +4.496684033e+001 +8.799684033e+001 +8.799684033e+001 +4.1033e+000 +6.8473e-002 +7.7713e-001
14 0 +3.179008650e+001 +7.482008650e+001 +7.482008650e+001 +2.6887e+000 +3.3019e+000 +4.6091e+000
23 0 +2.007738692e+001 +6.310738692e+001 +6.310738692e+001 +4.2303e+000 +1.2370e+000 +2.7606e+000
84 0 +1.711630663e+001 +6.014630663e+001 +6.014630663e+001 +1.3411e+000 +3.1184e+000 +5.5909e-001
114 0 +1.372584602e+001 +5.675584602e+001 +5.675584602e+001 +3.2983e+000 +2.5500e+000 +1.9832e+000
318 0 +1.211500946e+001 +5.514500946e+001 +5.514500946e+001 +3.9048e+000 +2.6272e+000 +3.7769e-001
359 0 +4.714058590e+000 +4.774405859e+001 +4.774405859e+001 +2.1126e+000 +2.5382e+000 +1.5060e+000
532 0 +4.203314833e+000 +4.723331483e+001 +4.723331483e+001 +2.1226e+000 +2.5387e+000 +1.4997e+000
4569 0 +4.125015357e+000 +4.715501536e+001 +4.715501536e+001 +1.7273e+000 +2.0613e+000 +2.9870e+000
10602 0 +3.695285369e+000 +4.672528537e+001 +4.672528537e+001 +1.6059e+000 +2.1599e+000 +1.8647e+000
18380 0 +3.123796712e+000 +4.615379671e+001 +4.615379671e+001 -1.4786e+000 -1.4483e+000 -1.1288e+000
19921 0 +2.635478097e+000 +4.566547810e+001 +4.566547810e+001 -1.0543e+000 -1.3320e+000 -1.0557e+000
20131 0 +1.933379221e+000 +4.496337922e+001 +4.496337922e+001 -1.0608e+000 -1.3343e+000 -1.0472e+000
20357 0 +3.373833350e-001 +4.336738334e+001 +4.336738334e+001 -1.2523e+000 -1.2470e+000 -1.2493e+000
31461 0 +3.266570301e-001 +4.335665703e+001 +4.335665703e+001 -1.3489e+000 -1.3305e+000 -1.3017e+000
31562 0 +2.613689782e-001 +4.329136898e+001 +4.329136898e+001 -1.3502e+000 -1.3328e+000 -1.3015e+000
31964 0 +1.596606601e-001 +4.318966066e+001 +4.318966066e+001 -1.3618e+000 -1.3329e+000 -1.2919e+000
32150 0 +1.388545277e-001 +4.316885453e+001 +4.316885453e+001 -1.3555e+000 -1.3322e+000 -1.2971e+000
32226 0 +1.226092088e-001 +4.315260921e+001 +4.315260921e+001 -1.3595e+000 -1.3325e+000 -1.2947e+000
32467 0 +1.111944966e-001 +4.314119450e+001 +4.314119450e+001 -1.3616e+000 -1.3323e+000 -1.2928e+000
32498 0 +1.088999135e-001 +4.313889991e+001 +4.313889991e+001 -1.3620e+000 -1.3322e+000 -1.2924e+000
32646 0 +9.845671993e-002 +4.312845672e+001 +4.312845672e+001 -1.3645e+000 -1.3304e+000 -1.2898e+000
32726 0 +9.755586820e-002 +4.312755587e+001 +4.312755587e+001 -1.3622e+000 -1.3315e+000 -1.2921e+000
32736 0 +9.520600191e-002 +4.312520600e+001 +4.312520600e+001 -1.3637e+000 -1.3306e+000 -1.2906e+000
32755 0 +9.182166769e-002 +4.312182167e+001 +4.312182167e+001 -1.3633e+000 -1.3309e+000 -1.2909e+000
32782 0 +8.885497374e-002 +4.311885497e+001 +4.311885497e+001 -1.3608e+000 -1.3308e+000 -1.2928e+000
32793 0 +8.689433329e-002 +4.311689433e+001 +4.311689433e+001 -1.3623e+000 -1.3305e+000 -1.2915e+000
32867 0 +8.379298711e-002 +4.311379299e+001 +4.311379299e+001 -1.3616e+000 -1.3309e+000 -1.2918e+000
32888 0 +8.300981308e-002 +4.311300981e+001 +4.311300981e+001 -1.3617e+000 -1.3304e+000 -1.2916e+000
