% f evaluations | g evaluations | best noise-free fitness - Fopt (4.078000000000e+001) + sum g_i+ | measured fitness | best measured fitness or single-digit g-values | x1 | x2...
1 0 +8.306901939e+000 +4.908690194e+001 +4.908690194e+001 +2.2964e-001 -3.7545e+000
3 0 +5.166195758e+000 +4.594619576e+001 +4.594619576e+001 -1.6488e+000 +3.2678e+000
11 0 +1.970079053e+000 +4.275007905e+001 +4.275007905e+001 +1.6268e+000 +1.5661e+000
38 0 +1.818500467e+000 +4.259850047e+001 +4.259850047e+001 +1.4748e+000 +1.5983e+000
104 0 +1.363561723e+000 +4.214356172e+001 +4.214356172e+001 +4.4357e+000 +1.1498e-002
222 0 +1.148739759e+000 +4.192873976e+001 +4.192873976e+001 +4.2964e+000 +4.4632e-001
245 0 +9.861618537e-002 +4.087861619e+001 +4.087861619e+001 -2.7661e+000 -2.1526e+000
370 0 +1.298220502e-002 +4.079298221e+001 +4.079298221e+001 -2.8736e+000 -2.1024e+000
401 0 +1.438596609e-003 +4.078143860e+001 +4.078143860e+001 -2.7207e+000 -1.9773e+000
450 0 +1.759066567e-004 +4.078017591e+001 +4.078017591e+001 -2.3814e+000 -1.6798e+000
616 0 +9.513269777e-005 +4.078009513e+001 +4.078009513e+001 -2.5604e+000 -1.7915e+000
638 0 +1.672006391e-007 +4.078000017e+001 +4.078000017e+001 -2.5274e+000 -1.8027e+000
774 0 +1.175082787e-008 +4.078000001e+001 +4.078000001e+001 -2.5041e+000 -1.7777e+000
928 0 +7.294431725e-011 +4.078000000e+001 +4.078000000e+001 -2.5182e+000 -1.7901e+000
% f evaluations | g evaluations | best noise-free fitness - Fopt (-1.600000000000e+000) + sum g_i+ | measured fitness | best measured fitness or single-digit g-values | x1 | x2...
1 0 +2.641232550e+001 +2.481232550e+001 +2.481232550e+001 -4.1445e+000 -3.6992e+000
3 0 +6.184474840e+000 +4.584474840e+000 +4.584474840e+000 +2.9556e-001 -4.4295e+000
8 0 +6.159235121e+000 +4.559235121e+000 +4.559235121e+000 +1.2507e-001 -1.5463e+000
10 0 +4.963016091e-001 -1.103698391e+000 -1.103698391e+000 -1.5096e-001 -1.9367e+000
110 0 +4.862917915e-001 -1.113708209e+000 -1.113708209e+000 -1.2027e-001 -1.9367e+000
133 0 +1.612409791e-001 -1.438759021e+000 -1.438759021e+000 +3.4667e-001 -2.0670e+000
139 0 +1.377761424e-003 -1.598622239e+000 -1.598622239e+000 +1.4138e+000 -2.0468e+000
221 0 +8.890734110e-004 -1.599110927e+000 -1.599110927e+000 +1.2791e+000 -1.9854e+000
237 0 +4.725434781e-007 -1.599999527e+000 -1.599999527e+000 +1.1181e+000 -2.0186e+000
363 0 +4.378879808e-007 -1.599999562e+000 -1.599999562e+000 +1.1629e+000 -2.0180e+000
369 0 +6.595901603e-011 -1.600000000e+000 -1.600000000e+000 +1.1281e+000 -2.0117e+000
% f evaluations | g evaluations | best noise-free fitness - Fopt (-3.708400000000e+002) + sum g_i+ | measured fitness | best measured fitness or single-digit g-values | x1 | x2...
1 0 +2.840838457e+001 -3.424316154e+002 -3.424316154e+002 -3.2463e+000 +1.0942e-001
2 0 +1.193070993e+001 -3.589092901e+002 -3.589092901e+002 -4.5824e+000 -1.8489e+000
3 0 +1.148506513e+001 -3.593549349e+002 -3.593549349e+002 -4.2670e-001 -7.5198e-002
4 0 +6.997162312e+000 -3.638428377e+002 -3.638428377e+002 +5.0000e+000 -5.0000e+000
9 0 +2.174356901e+000 -3.686656431e+002 -3.686656431e+002 +2.1169e+000 -3.7962e+000
17 0 +2.028822329e+000 -3.688111777e+002 -3.688111777e+002 +8.5573e-001 +1.2901e+000
21 0 +1.959756455e+000 -3.688802435e+002 -3.688802435e+002 +4.7561e+000 -1.3822e+000
31 0 +1.931631124e+000 -3.689083689e+002 -3.689083689e+002 +2.8310e-001 -4.8411e+000
37 0 +1.885704162e+000 -3.689542958e+002 -3.689542958e+002 +2.1819e+000 -7.2272e-001
40 0 +2.425014805e-001 -3.705974985e+002 -3.705974985e+002 +3.3757e+000 -1.1058e+000
76 0 +3.608612517e-003 -3.708363914e+002 -3.708363914e+002 +3.4442e+000 -9.1958e-001
145 0 +6.827081142e-004 -3.708393173e+002 -3.708393173e+002 +3.2008e+000 -8.8302e-001
175 0 +1.991130085e-005 -3.708399801e+002 -3.708399801e+002 +3.1701e+000 -8.4456e-001
302 0 +7.271396385e-006 -3.708399927e+002 -3.708399927e+002 +3.1691e+000 -8.4057e-001
340 0 +6.716687892e-006 -3.708399933e+002 -3.708399933e+002 +3.0735e+000 -8.0531e-001
345 0 +3.307815746e-006 -3.708399967e+002 -3.708399967e+002 +3.1621e+000 -8.1969e-001
377 0 +4.871789656e-007 -3.708399995e+002 -3.708399995e+002 +3.1512e+000 -8.2126e-001
415 0 +5.694204219e-008 -3.708399999e+002 -3.708399999e+002 +3.0940e+000 -7.9906e-001
440 0 +1.192552190e-008 -3.708400000e+002 -3.708400000e+002 +3.1001e+000 -8.0370e-001
500 0 +4.469541182e-009 -3.708400000e+002 -3.708400000e+002 +3.1108e+000 -8.0501e-001
% f evaluations | g evaluations | best noise-free fitness - Fopt (-3.256000000000e+001) + sum g_i+ | measured fitness | best measured fitness or single-digit g-values | x1 | x2...
1 0 +1.727398575e+000 -3.083260143e+001 -3.083260143e+001 +1.0670e+000 +1.5404e+000
17 0 +1.041373104e-001 -3.245586269e+001 -3.245586269e+001 +4.5960e-001 -3.7547e+000
213 0 +3.147018267e-002 -3.252852982e+001 -3.252852982e+001 +7.5238e-001 -3.6513e+000
294 0 +4.937380824e-003 -3.255506262e+001 -3.255506262e+001 +7.7039e-001 -3.4806e+000
299 0 +4.334207465e-003 -3.255566579e+001 -3.255566579e+001 +7.7014e-001 -3.4898e+000
302 0 +1.341750556e-003 -3.255865825e+001 -3.255865825e+001 +8.3685e-001 -3.4500e+000
351 0 +9.536835485e-004 -3.255904632e+001 -3.255904632e+001 +8.5600e-001 -3.4250e+000
410 0 +7.234599764e-007 -3.255999928e+001 -3.255999928e+001 +1.0814e+000 -3.2236e+000
458 0 +4.626142669e-008 -3.255999995e+001 -3.255999995e+001 +1.0591e+000 -3.2418e+000
573 0 +1.319591547e-009 -3.256000000e+001 -3.256000000e+001 +1.0546e+000 -3.2487e+000
% f evaluations | g evaluations | best noise-free fitness - Fopt (5.154000000000e+002) + sum g_i+ | measured fitness | best measured fitness or single-digit g-values | x1 | x2...
1 0 +5.028994754e+001 +5.656899475e+002 +5.656899475e+002 +2.1389e+000 +4.0998e+000
2 0 +8.690732665e+000 +5.240907327e+002 +5.240907327e+002 -1.8586e-001 -2.4333e+000
7 0 +1.488409964e+000 +5.168884100e+002 +5.168884100e+002 +3.8039e+000 +2.7002e+000
29 0 +1.063961749e+000 +5.164639617e+002 +5.164639617e+002 +4.1577e+000 +2.5268e+000
134 0 +8.622609776e-001 +5.162622610e+002 +5.162622610e+002 +4.0429e+000 +2.5767e+000
160 0 +7.178901376e-001 +5.161178901e+002 +5.161178901e+002 +4.0705e+000 +2.7781e+000
162 0 +7.057948397e-001 +5.161057948e+002 +5.161057948e+002 +4.0444e+000 +2.8189e+000
248 0 +1.350931566e-001 +5.155350932e+002 +5.155350932e+002 -2.5865e+000 -4.3274e-001
257 0 +1.263024329e-001 +5.155263024e+002 +5.155263024e+002 -2.6074e+000 -4.5404e-001
294 0 +7.790073171e-003 +5.154077901e+002 +5.154077901e+002 -3.7783e+000 -8.8142e-001
339 0 +4.640412966e-004 +5.154004640e+002 +5.154004640e+002 -3.4179e+000 -7.5109e-001
347 0 +6.400314192e-006 +5.154000064e+002 +5.154000064e+002 -3.4439e+000 -7.0722e-001
411 0 +4.816161550e-006 +5.154000048e+002 +5.154000048e+002 -3.4169e+000 -7.1755e-001
416 0 +5.524814242e-007 +5.154000006e+002 +5.154000006e+002 -3.4950e+000 -7.2928e-001
480 0 +8.169661214e-008 +5.154000001e+002 +5.154000001e+002 -3.4601e+000 -7.2063e-001
570 0 +1.440412234e-010 +5.154000000e+002 +5.154000000e+002 -3.4684e+000 -7.2680e-001
% f evaluations | g evaluations | best noise-free fitness - Fopt (-8.628000000000e+001) + sum g_i+ | measured fitness | best measured fitness or single-digit g-values | x1 | x2...
1 0 +1.413849917e+001 -7.214150083e+001 -7.214150083e+001 +4.2925e-001 -4.7040e+000
3 0 +1.267567785e+001 -7.360432215e+001 -7.360432215e+001 -9.3968e-001 +1.5543e+000
5 0 +2.223534338e+000 -8.405646566e+001 -8.405646566e+001 +1.2565e+000 -3.2807e+000
37 0 +1.983391303e+000 -8.429660870e+001 -8.429660870e+001 +4.0309e+000 +3.9279e+000
95 0 +1.925508128e+000 -8.435449187e+001 -8.435449187e+001 +4.4160e+000 +3.3854e+000
252 0 +1.774459943e+000 -8.450554006e+001 -8.450554006e+001 -2.3831e+000 -4.7286e+000
284 0 +1.529768516e+000 -8.475023148e+001 -8.475023148e+001 -2.3718e+000 -4.6058e+000
314 0 +1.266847451e+000 -8.501315255e+001 -8.501315255e+001 -2.4798e+000 -4.4237e+000
422 0 +7.125272432e-001 -8.556747276e+001 -8.556747276e+001 +1.4523e+000 -6.2621e-001
519 0 +7.072597502e-001 -8.557274025e+001 -8.557274025e+001 +1.4473e+000 -6.1631e-001
3030 0 +6.320456309e-001 -8.564795437e+001 -8.564795437e+001 -1.8646e+000 +1.2758e+000
3070 0 +5.191166023e-001 -8.576088340e+001 -8.576088340e+001 -1.8536e+000 +1.3109e+000
3073 0 +1.331957971e-001 -8.614680420e+001 -8.614680420e+001 -2.2744e+000 +1.8836e+000
3090 0 +1.252900185e-001 -8.615470998e+001 -8.615470998e+001 -2.2934e+000 +1.9150e+000
3148 0 +4.891364420e-002 -8.623108636e+001 -8.623108636e+001 -2.0722e+000 +1.9409e+000
3235 0 +2.334141592e-002 -8.625665858e+001 -8.625665858e+001 -2.1886e+000 +2.1572e+000
3268 0 +1.197656116e-002 -8.626802344e+001 -8.626802344e+001 -2.1847e+000 +2.0258e+000
3279 0 +4.955537795e-003 -8.627504446e+001 -8.627504446e+001 -2.2218e+000 +2.0745e+000
3310 0 +3.612789209e-003 -8.627638721e+001 -8.627638721e+001 -2.2804e+000 +2.1079e+000
3327 0 +3.474378426e-004 -8.627965256e+001 -8.627965256e+001 -2.5207e+000 +2.5620e+000
3351 0 +2.539167929e-004 -8.627974608e+001 -8.627974608e+001 -2.4991e+000 +2.5330e+000
3373 0 +1.648874327e-004 -8.627983511e+001 -8.627983511e+001 -2.3586e+000 +2.2731e+000
3385 0 +9.720296958e-006 -8.627999028e+001 -8.627999028e+001 -2.4106e+000 +2.3393e+000
3395 0 +1.118536701e-006 -8.627999888e+001 -8.627999888e+001 -2.4280e+000 +2.3842e+000
3490 0 +9.277868429e-007 -8.627999907e+001 -8.627999907e+001 -2.4279e+000 +2.3824e+000
3494 0 +7.538252760e-007 -8.627999925e+001 -8.627999925e+001 -2.4292e+000 +2.3847e+000
3533 0 +2.346984616e-007 -8.627999977e+001 -8.627999977e+001 -2.4352e+000 +2.3921e+000
3544 0 +2.514184416e-010 -8.628000000e+001 -8.628000000e+001 -2.4507e+000 +2.4081e+000
% f evaluations | g evaluations | best noise-free fitness - Fopt (2.224000000000e+001) + sum g_i+ | measured fitness | best measured fitness or single-digit g-values | x1 | x2...
1 0 +1.524131060e+001 +3.748131060e+001 +3.748131060e+001 -2.6251e+000 -7.8246e-001
3 0 +6.537536643e+000 +2.877753664e+001 +2.877753664e+001 +3.1095e+000 -3.1768e+000
7 0 +3.540965963e+000 +2.578096596e+001 +2.578096596e+001 +3.8473e+000 -2.8267e+000
17 0 +1.702195114e+000 +2.394219511e+001 +2.394219511e+001 +2.2383e+000 +6.2804e-001
48 0 +1.531204374e+000 +2.377120437e+001 +2.377120437e+001 +2.4699e+000 -4.3089e+000
57 0 +2.522019095e-001 +2.249220191e+001 +2.249220191e+001 +1.6406e+000 +6.2991e-001
140 0 +5.790176304e-002 +2.229790176e+001 +2.229790176e+001 +1.9094e+000 +7.5009e-001
163 0 +3.508158003e-002 +2.227508158e+001 +2.227508158e+001 +2.2842e+000 +8.8569e-001
188 0 +4.129466809e-004 +2.224041295e+001 +2.224041295e+001 +2.4791e+000 +1.1809e+000
227 0 +2.882557961e-004 +2.224028826e+001 +2.224028826e+001 +2.4808e+000 +1.1787e+000
281 0 +1.027534730e-004 +2.224010275e+001 +2.224010275e+001 +2.3991e+000 +1.0790e+000
288 0 +3.994821432e-005 +2.224003995e+001 +2.224003995e+001 +2.4608e+000 +1.1039e+000
300 0 +2.677988913e-005 +2.224002678e+001 +2.224002678e+001 +2.5956e+000 +1.2255e+000
320 0 +6.703666156e-006 +2.224000670e+001 +2.224000670e+001 +2.5820e+000 +1.2102e+000
337 0 +1.787850891e-006 +2.224000179e+001 +2.224000179e+001 +2.5664e+000 +1.1978e+000
389 0 +1.712720493e-006 +2.224000171e+001 +2.224000171e+001 +2.5652e+000 +1.1872e+000
395 0 +6.980203828e-007 +2.224000070e+001 +2.224000070e+001 +2.5520e+000 +1.1892e+000
399 0 +4.095750405e-007 +2.224000041e+001 +2.224000041e+001 +2.5211e+000 +1.1555e+000
415 0 +1.894508905e-007 +2.224000019e+001 +2.224000019e+001 +2.5272e+000 +1.1609e+000
491 0 +1.358285004e-007 +2.224000014e+001 +2.224000014e+001 +2.5028e+000 +1.1486e+000
572 0 +4.047251778e-008 +2.224000004e+001 +2.224000004e+001 +2.5061e+000 +1.1544e+000
602 0 +9.448527294e-009 +2.224000001e+001 +2.224000001e+001 +2.5118e+000 +1.1565e+000
% f evaluations | g evaluations | best noise-free fitness - Fopt (-2.301000000000e+001) + sum g_i+ | measured fitness | best measured fitness or single-digit g-values | x1 | x2...
1 0 +1.547176592e+001 -7.538234079e+000 -7.538234079e+000 -4.4232e+000 +1.5763e+000
6 0 +7.166590852e+000 -1.584340915e+001 -1.584340915e+001 +5.0000e+000 -1.3250e+000
7 0 +6.964042598e+000 -1.604595740e+001 -1.604595740e+001 +3.8528e+000 -3.3917e+000
23 0 +6.911905983e+000 -1.609809402e+001 -1.609809402e+001 -1.6936e+000 -3.4794e+000
26 0 +6.760122960e+000 -1.624987704e+001 -1.624987704e+001 +2.4062e-001 -2.9568e+000
28 0 +6.605759270e+000 -1.640424073e+001 -1.640424073e+001 +3.8203e-001 -3.2889e+000
35 0 +5.892908039e+000 -1.711709196e+001 -1.711709196e+001 +3.1558e+000 -6.6135e-002
37 0 +4.886504787e+000 -1.812349521e+001 -1.812349521e+001 -3.7931e+000 -8.5907e-001
41 0 +3.382982251e+000 -1.962701775e+001 -1.962701775e+001 -1.3597e-001 -3.3802e+000
44 0 +3.231293664e+000 -1.977870634e+001 -1.977870634e+001 -2.2402e-001 -3.2383e+000
57 0 +2.512107108e+000 -2.049789289e+001 -2.049789289e+001 -3.0925e+000 -3.6159e+000
83 0 +6.728009189e-002 -2.294271991e+001 -2.294271991e+001 +2.2540e+000 -3.1328e+000
141 0 +1.131342475e-005 -2.300998869e+001 -2.300998869e+001 +2.9471e+000 -2.7262e+000
273 0 +6.743427711e-006 -2.300999326e+001 -2.300999326e+001 +2.9402e+000 -2.7326e+000
373 0 +1.686727508e-006 -2.300999831e+001 -2.300999831e+001 +2.8932e+000 -2.7540e+000
413 0 +1.163926889e-006 -2.300999884e+001 -2.300999884e+001 +2.8991e+000 -2.7691e+000
433 0 +9.399776602e-008 -2.300999991e+001 -2.300999991e+001 +2.8755e+000 -2.7705e+000
513 0 +3.182788078e-008 -2.300999997e+001 -2.300999997e+001 +2.8807e+000 -2.7689e+000
559 0 +7.403855307e-012 -2.301000000e+001 -2.301000000e+001 +2.8734e+000 -2.7770e+000
% f evaluations | g evaluations | best noise-free fitness - Fopt (-3.323700000000e+002) + sum g_i+ | measured fitness | best measured fitness or single-digit g-values | x1 | x2...
1 0 +2.803028908e+001 -3.043397109e+002 -3.043397109e+002 -2.2307e+000 -2.5260e+000
3 0 +1.701720945e+001 -3.153527906e+002 -3.153527906e+002 +3.0501e+000 +2.7428e+000
5 0 +5.694978911e+000 -3.266750211e+002 -3.266750211e+002 -4.8990e+000 +3.5495e+000
10 0 +5.470627302e+000 -3.268993727e+002 -3.268993727e+002 -1.8657e+000 +1.3867e+000
13 0 +4.496390676e+000 -3.278736093e+002 -3.278736093e+002 +3.1180e+000 -1.2973e+000
27 0 +4.184607570e+000 -3.281853924e+002 -3.281853924e+002 -1.3413e+000 +8.7874e-001
30 0 +2.263222952e+000 -3.301067770e+002 -3.301067770e+002 -1.2049e+000 +8.1791e-001
42 0 +1.937031437e-001 -3.321762969e+002 -3.321762969e+002 +6.4762e-001 -2.9411e+000
118 0 +2.087716445e-002 -3.323491228e+002 -3.323491228e+002 +7.2073e-001 -3.0402e+000
189 0 +1.612672268e-003 -3.323683873e+002 -3.323683873e+002 +3.5223e-001 -3.2185e+000
207 0 +6.211276079e-004 -3.323693789e+002 -3.323693789e+002 +3.9052e-001 -3.2221e+000
288 0 +5.562753540e-005 -3.323699444e+002 -3.323699444e+002 +3.5503e-001 -3.2628e+000
395 0 +3.291846059e-005 -3.323699671e+002 -3.323699671e+002 +3.5429e-001 -3.2753e+000
403 0 +1.601821504e-005 -3.323699840e+002 -3.323699840e+002 +3.3100e-001 -3.2815e+000
418 0 +1.291270024e-005 -3.323699871e+002 -3.323699871e+002 +1.7332e-001 -3.3600e+000
421 0 +6.325107051e-007 -3.323699994e+002 -3.323699994e+002 +2.8615e-001 -3.3052e+000
441 0 +5.705966259e-007 -3.323699994e+002 -3.323699994e+002 +2.8533e-001 -3.3057e+000
461 0 +5.375491696e-007 -3.323699995e+002 -3.323699995e+002 +2.8481e-001 -3.3060e+000
516 0 +3.070621233e-007 -3.323699997e+002 -3.323699997e+002 +2.8182e-001 -3.3104e+000
569 0 +8.105274674e-008 -3.323699999e+002 -3.323699999e+002 +2.7326e-001 -3.3146e+000
604 0 +7.010714853e-008 -3.323699999e+002 -3.323699999e+002 +2.7160e-001 -3.3140e+000
641 0 +9.328005035e-011 -3.323700000e+002 -3.323700000e+002 +2.4617e-001 -3.3282e+000
% f evaluations | g evaluations | best noise-free fitness - Fopt (-1.231300000000e+002) + sum g_i+ | measured fitness | best measured fitness or single-digit g-values | x1 | x2...
1 0 +1.139441088e+001 -1.117355891e+002 -1.117355891e+002 +4.4158e+000 -2.8242e+000
2 0 +3.609713806e+000 -1.195202862e+002 -1.195202862e+002 -4.2274e+000 +3.5350e-001
22 0 +2.906478510e+000 -1.202235215e+002 -1.202235215e+002 -2.8870e+000 -1.1841e-001
60 0 +2.016267565e+000 -1.211137324e+002 -1.211137324e+002 -2.7584e+000 -6.5534e-001
69 0 +5.485641239e-001 -1.225814359e+002 -1.225814359e+002 +3.5540e+000 -7.7013e-001
116 0 +9.706209212e-003 -1.231202938e+002 -1.231202938e+002 +2.5779e+000 -1.2044e+000
196 0 +1.527129632e-003 -1.231284729e+002 -1.231284729e+002 +2.5834e+000 -1.1111e+000
237 0 +9.483123312e-004 -1.231290517e+002 -1.231290517e+002 +2.5611e+000 -1.1214e+000
256 0 +9.188025261e-004 -1.231290812e+002 -1.231290812e+002 +2.5631e+000 -1.1251e+000
289 0 +2.524808129e-004 -1.231297475e+002 -1.231297475e+002 +2.5018e+000 -1.1529e+000
349 0 +9.966076907e-005 -1.231299003e+002 -1.231299003e+002 +2.4616e+000 -1.1659e+000
420 0 +8.032775084e-005 -1.231299197e+002 -1.231299197e+002 +2.1836e+000 -1.2449e+000
460 0 +9.049888959e-006 -1.231299910e+002 -1.231299910e+002 +2.2649e+000 -1.2111e+000
521 0 +7.401624927e-006 -1.231299926e+002 -1.231299926e+002 +2.3370e+000 -1.1882e+000
539 0 +5.709317193e-006 -1.231299943e+002 -1.231299943e+002 +2.2544e+000 -1.2221e+000
559 0 +7.637481758e-010 -1.231300000e+002 -1.231300000e+002 +2.3150e+000 -1.2078e+000
% f evaluations | g evaluations | best noise-free fitness - Fopt (-1.537900000000e+002) + sum g_i+ | measured fitness | best measured fitness or single-digit g-values | x1 | x2...
1 0 +5.856494649e+001 -9.522505351e+001 -9.522505351e+001 -3.1930e+000 -1.4276e+000
2 0 +1.216581231e+001 -1.416241877e+002 -1.416241877e+002 +1.2499e-001 +2.1174e+000
3 0 +6.102307077e+000 -1.476876929e+002 -1.476876929e+002 +3.4942e+000 +3.7098e+000
8 0 +5.591150284e+000 -1.481988497e+002 -1.481988497e+002 +5.0000e+000 +2.0154e+000
9 0 +4.721474081e+000 -1.490685259e+002 -1.490685259e+002 +1.8463e+000 -3.0469e+000
24 0 +4.156610402e+000 -1.496333896e+002 -1.496333896e+002 +4.3880e+000 -3.2412e+000
27 0 +2.658666751e+000 -1.511313332e+002 -1.511313332e+002 +1.1364e+000 +1.1822e+000
31 0 +2.325286615e+000 -1.514647134e+002 -1.514647134e+002 +3.4742e+000 -2.0414e+000
43 0 +1.368117344e+000 -1.524218827e+002 -1.524218827e+002 +3.9275e+000 -1.7654e+000
70 0 +8.366268486e-001 -1.529533732e+002 -1.529533732e+002 +3.6112e+000 -2.3283e+000
99 0 +7.778784990e-001 -1.530121215e+002 -1.530121215e+002 +3.6407e+000 -2.3000e+000
117 0 +7.575196030e-001 -1.530324804e+002 -1.530324804e+002 +3.6666e+000 -2.2540e+000
213 0 +7.217543773e-001 -1.530682456e+002 -1.530682456e+002 +3.7356e+000 -2.3188e+000
232 0 +6.951856517e-001 -1.530948143e+002 -1.530948143e+002 +3.7239e+000 -2.2377e+000
16238 0 +4.959171411e-001 -1.532940829e+002 -1.532940829e+002 -1.1286e+000 +1.6764e+000
16272 0 +3.640615713e-002 -1.537535938e+002 -1.537535938e+002 -1.8589e+000 +2.2306e+000
16277 0 +2.679589424e-004 -1.537897320e+002 -1.537897320e+002 -2.1012e+000 +2.2123e+000
16389 0 +1.616424669e-006 -1.537899984e+002 -1.537899984e+002 -2.2442e+000 +2.3096e+000
16552 0 +8.316006586e-007 -1.537899992e+002 -1.537899992e+002 -2.2198e+000 +2.3105e+000
16571 0 +1.916835686e-007 -1.537899998e+002 -1.537899998e+002 -2.2084e+000 +2.3029e+000
16590 0 +1.102762326e-011 -1.537900000e+002 -1.537900000e+002 -2.2017e+000 +2.2931e+000
% f evaluations | g evaluations | best noise-free fitness - Fopt (-4.860000000000e+001) + sum g_i+ | measured fitness | best measured fitness or single-digit g-values | x1 | x2...
1 0 +1.636413756e+001 -3.223586244e+001 -3.223586244e+001 +1.6129e+000 -1.1774e-002
2 0 +8.112469085e+000 -4.048753092e+001 -4.048753092e+001 +2.9820e+000 -2.6536e+000
8 0 +5.553873119e+000 -4.304612688e+001 -4.304612688e+001 -5.0000e+000 -1.4054e+000
9 0 +1.872336201e+000 -4.672766380e+001 -4.672766380e+001 +1.1790e+000 +3.5184e+000
12 0 +4.906086830e-001 -4.810939132e+001 -4.810939132e+001 -3.2377e+000 -1.0072e+000
33 0 +3.366186634e-001 -4.826338134e+001 -4.826338134e+001 -3.0424e+000 -1.0616e+000
52 0 +3.984474776e-002 -4.856015525e+001 -4.856015525e+001 -2.8409e+000 -1.2585e+000
59 0 +3.965578070e-003 -4.859603442e+001 -4.859603442e+001 -1.8400e+000 -1.5729e+000
60 0 +7.183278611e-004 -4.859928167e+001 -4.859928167e+001 -2.3517e+000 -1.4529e+000
145 0 +9.864023293e-005 -4.859990136e+001 -4.859990136e+001 -2.1089e+000 -1.5191e+000
161 0 +2.599899507e-005 -4.859997400e+001 -4.859997400e+001 -2.1263e+000 -1.5051e+000
175 0 +2.304703171e-005 -4.859997695e+001 -4.859997695e+001 -2.1698e+000 -1.4961e+000
202 0 +1.598674721e-006 -4.859999840e+001 -4.859999840e+001 -2.1602e+000 -1.4779e+000
249 0 +1.416082256e-006 -4.859999858e+001 -4.859999858e+001 -2.2142e+000 -1.4550e+000
287 0 +1.280224510e-006 -4.859999872e+001 -4.859999872e+001 -2.2137e+000 -1.4554e+000
296 0 +8.067379440e-007 -4.859999919e+001 -4.859999919e+001 -2.1825e+000 -1.4676e+000
303 0 +4.228563668e-007 -4.859999958e+001 -4.859999958e+001 -2.2381e+000 -1.4530e+000
314 0 +6.242273543e-008 -4.859999994e+001 -4.859999994e+001 -2.2250e+000 -1.4580e+000
319 0 +3.715359753e-008 -4.859999996e+001 -4.859999996e+001 -2.2166e+000 -1.4603e+000
327 0 +8.727383261e-010 -4.860000000e+001 -4.860000000e+001 -2.2003e+000 -1.4698e+000
% f evaluations | g evaluations | best noise-free fitness - Fopt (2.770000000000e+001) + sum g_i+ | measured fitness | best measured fitness or single-digit g-values | x1 | x2...
1 0 +1.520772715e+001 +4.290772715e+001 +4.290772715e+001 +1.6438e+000 +4.6946e+000
2 0 +1.239999876e+001 +4.009999876e+001 +4.009999876e+001 +3.8021e-001 -4.5576e+000
3 0 +2.028467924e+000 +2.972846792e+001 +2.972846792e+001 -2.3398e+000 +1.8535e+000
36 0 +1.901616026e+000 +2.960161603e+001 +2.960161603e+001 -3.0995e+000 +1.7566e+000
64 0 +1.664109950e+000 +2.936410995e+001 +2.936410995e+001 -9.0847e-001 +4.3212e+000
87 0 +1.654458288e+000 +2.935445829e+001 +2.935445829e+001 -9.0279e-001 +4.0480e+000
104 0 +1.578704542e+000 +2.927870454e+001 +2.927870454e+001 -9.6894e-001 +4.3395e+000
112 0 +1.485256679e+000 +2.918525668e+001 +2.918525668e+001 -9.5914e-001 +4.2889e+000
124 0 +1.438327140e+000 +2.913832714e+001 +2.913832714e+001 -9.5612e-001 +4.1010e+000
171 0 +1.382241357e+000 +2.908224136e+001 +2.908224136e+001 -9.6628e-001 +4.1330e+000
191 0 +1.296853033e+000 +2.899685303e+001 +2.899685303e+001 -1.0108e+000 +4.1501e+000
209 0 +1.248128143e+000 +2.894812814e+001 +2.894812814e+001 -1.0653e+000 +4.1879e+000
2240 0 +5.296474982e-001 +2.822964750e+001 +2.822964750e+001 +2.9013e+000 -2.0392e-001
2300 0 +7.173887051e-003 +2.770717389e+001 +2.770717389e+001 +3.3487e+000 -3.6084e-001
2324 0 +7.041298454e-003 +2.770704130e+001 +2.770704130e+001 +3.3490e+000 -3.6000e-001
2361 0 +1.291268233e-004 +2.770012913e+001 +2.770012913e+001 +3.6778e+000 -2.9307e-001
2427 0 +1.256438789e-004 +2.770012564e+001 +2.770012564e+001 +3.6778e+000 -2.9329e-001
2446 0 +1.171095458e-004 +2.770011711e+001 +2.770011711e+001 +3.6779e+000 -2.9390e-001
2480 0 +8.387306973e-005 +2.770008387e+001 +2.770008387e+001 +3.7014e+000 -2.9170e-001
2485 0 +2.635759589e-005 +2.770002636e+001 +2.770002636e+001 +3.8537e+000 -2.8520e-001
2507 0 +6.619543832e-006 +2.770000662e+001 +2.770000662e+001 +3.7337e+000 -2.9869e-001
2521 0 +5.815272790e-006 +2.770000582e+001 +2.770000582e+001 +3.7583e+000 -2.9559e-001
2525 0 +1.015119921e-006 +2.770000102e+001 +2.770000102e+001 +3.8224e+000 -2.9916e-001
2541 0 +1.199438415e-008 +2.770000001e+001 +2.770000001e+001 +3.7633e+000 -3.0596e-001
2640 0 +3.131930271e-010 +2.770000000e+001 +2.770000000e+001 +3.7819e+000 -3.0457e-001
% f evaluations | g evaluations | best noise-free fitness - Fopt (2.993000000000e+001) + sum g_i+ | measured fitness | best measured fitness or single-digit g-values | x1 | x2...
1 0 +2.150521592e+001 +5.143521592e+001 +5.143521592e+001 +1.2368e-001 +1.8650e+000
2 0 +9.961117393e+000 +3.989111739e+001 +3.989111739e+001 -1.9273e-001 -2.9959e+000
7 0 +7.352532701e+000 +3.728253270e+001 +3.728253270e+001 -2.4929e+000 -1.2579e+000
9 0 +2.013772150e+000 +3.194377215e+001 +3.194377215e+001 -3.1878e+000 +1.5533e+000
14 0 +3.931654506e-003 +2.993393165e+001 +2.993393165e+001 -9.3015e-001 +1.3537e+000
80 0 +3.525818931e-005 +2.993003526e+001 +2.993003526e+001 -9.6151e-001 +1.5857e+000
260 0 +2.476205047e-006 +2.993000248e+001 +2.993000248e+001 -9.8533e-001 +1.6582e+000
294 0 +4.258663466e-008 +2.993000004e+001 +2.993000004e+001 -9.8661e-001 +1.7085e+000
371 0 +4.235346296e-009 +2.993000000e+001 +2.993000000e+001 -9.8748e-001 +1.6917e+000
% f evaluations | g evaluations | best noise-free fitness - Fopt (-1.983000000000e+001) + sum g_i+ | measured fitness | best measured fitness or single-digit g-values | x1 | x2...
1 0 +9.702610813e+000 -1.012738919e+001 -1.012738919e+001 +9.8191e-001 -2.5528e+000
6 0 +6.960700499e+000 -1.286929950e+001 -1.286929950e+001 -5.0000e+000 +7.8296e-001
7 0 +5.413262314e+000 -1.441673769e+001 -1.441673769e+001 +6.2185e-001 -3.2209e-001
10 0 +3.917730831e+000 -1.591226917e+001 -1.591226917e+001 -1.1328e+000 +1.1261e+000
16 0 +3.795198675e+000 -1.603480132e+001 -1.603480132e+001 -9.1875e-001 +1.1635e+000
19 0 +3.416943662e+000 -1.641305634e+001 -1.641305634e+001 +2.3905e+000 +4.6846e+000
24 0 +1.369518977e+000 -1.846048102e+001 -1.846048102e+001 +5.1188e-002 -1.2426e+000
49 0 +4.976685109e-002 -1.978023315e+001 -1.978023315e+001 +9.5977e-001 +1.4435e+000
53 0 +3.934619636e-002 -1.979065380e+001 -1.979065380e+001 +9.5263e-001 +1.4311e+000
96 0 +3.079613880e-002 -1.979920386e+001 -1.979920386e+001 +7.3699e-001 +1.3144e+000
116 0 +8.278708095e-003 -1.982172129e+001 -1.982172129e+001 +7.9894e-001 +1.4196e+000
139 0 +5.995414470e-003 -1.982400459e+001 -1.982400459e+001 +7.5039e-001 +1.4394e+000
148 0 +3.794399476e-003 -1.982620560e+001 -1.982620560e+001 +7.4826e-001 +1.4178e+000
161 0 +3.544572226e-003 -1.982645543e+001 -1.982645543e+001 +7.2259e-001 +1.4178e+000
163 0 +9.207216901e-004 -1.982907928e+001 -1.982907928e+001 +5.6808e-001 +1.3999e+000
190 0 +1.655313399e-005 -1.982998345e+001 -1.982998345e+001 +3.1117e-001 +1.4598e+000
223 0 +1.709090476e-006 -1.982999829e+001 -1.982999829e+001 +3.5965e-001 +1.4743e+000
323 0 +4.104038140e-007 -1.982999959e+001 -1.982999959e+001 +4.0873e-001 +1.4544e+000
325 0 +8.000348828e-009 -1.982999999e+001 -1.982999999e+001 +3.8636e-001 +1.4594e+000
