% f evaluations | g evaluations | best noise-free fitness - Fopt (-5.235000000000e+001) + sum g_i+ | measured fitness | best measured fitness or single-digit g-values | x1 | x2...
1 0 +1.788667922e+001 -3.446332078e+001 -3.446332078e+001 -2.7656e+000 -4.4567e+000
2 0 +3.838091076e+000 -4.851190892e+001 -4.851190892e+001 -4.4863e+000 -2.5808e+000
6 0 +5.981365065e-002 -5.229018635e+001 -5.229018635e+001 -7.6829e-001 -1.6218e+000
80 0 +2.061906023e-002 -5.232938094e+001 -5.232938094e+001 -8.0234e-001 -1.4286e+000
87 0 +1.040677383e-002 -5.233959323e+001 -5.233959323e+001 -8.4415e-001 -1.3858e+000
142 0 +8.967751051e-003 -5.234103225e+001 -5.234103225e+001 -8.4379e-001 -1.3817e+000
144 0 +2.906043463e-003 -5.234709396e+001 -5.234709396e+001 -8.3749e-001 -1.3638e+000
214 0 +2.408516410e-003 -5.234759148e+001 -5.234759148e+001 -8.4199e-001 -1.3477e+000
245 0 +2.215916516e-003 -5.234778408e+001 -5.234778408e+001 -8.4783e-001 -1.3259e+000
266 0 +1.195337377e-003 -5.234880466e+001 -5.234880466e+001 -8.5149e-001 -1.3163e+000
295 0 +1.146331796e-003 -5.234885367e+001 -5.234885367e+001 -8.4461e-001 -1.3458e+000
296 0 +5.639853832e-004 -5.234943601e+001 -5.234943601e+001 -8.6779e-001 -1.2625e+000
298 0 +1.469942125e-004 -5.234985301e+001 -5.234985301e+001 -8.6816e-001 -1.2596e+000
302 0 +1.090291867e-005 -5.234998910e+001 -5.234998910e+001 -8.7370e-001 -1.2385e+000
402 0 +3.683894363e-007 -5.234999963e+001 -5.234999963e+001 -8.7358e-001 -1.2389e+000
408 0 +2.559295922e-007 -5.234999974e+001 -5.234999974e+001 -8.7360e-001 -1.2389e+000
412 0 +2.309325424e-007 -5.234999977e+001 -5.234999977e+001 -8.7360e-001 -1.2389e+000
667 0 +2.290862398e-007 -5.234999977e+001 -5.234999977e+001 -8.7360e-001 -1.2389e+000
698 0 +2.233892005e-007 -5.234999978e+001 -5.234999978e+001 -8.7358e-001 -1.2390e+000
720 0 +2.181541348e-007 -5.234999978e+001 -5.234999978e+001 -8.7357e-001 -1.2390e+000
724 0 +2.105360224e-007 -5.234999979e+001 -5.234999979e+001 -8.7355e-001 -1.2391e+000
727 0 +2.042125473e-007 -5.234999980e+001 -5.234999980e+001 -8.7353e-001 -1.2391e+000
740 0 +2.038027560e-007 -5.234999980e+001 -5.234999980e+001 -8.7353e-001 -1.2391e+000
743 0 +1.989909251e-007 -5.234999980e+001 -5.234999980e+001 -8.7351e-001 -1.2392e+000
749 0 +1.933405613e-007 -5.234999981e+001 -5.234999981e+001 -8.7347e-001 -1.2394e+000
771 0 +1.899856770e-007 -5.234999981e+001 -5.234999981e+001 -8.7341e-001 -1.2396e+000
778 0 +1.800336662e-007 -5.234999982e+001 -5.234999982e+001 -8.7342e-001 -1.2396e+000
798 0 +1.741832492e-007 -5.234999983e+001 -5.234999983e+001 -8.7338e-001 -1.2397e+000
804 0 +1.656914890e-007 -5.234999983e+001 -5.234999983e+001 -8.7334e-001 -1.2399e+000
805 0 +1.605330056e-007 -5.234999984e+001 -5.234999984e+001 -8.7334e-001 -1.2398e+000
811 0 +1.565274133e-007 -5.234999984e+001 -5.234999984e+001 -8.7335e-001 -1.2398e+000
812 0 +1.359466850e-007 -5.234999986e+001 -5.234999986e+001 -8.7326e-001 -1.2402e+000
816 0 +1.348649974e-007 -5.234999987e+001 -5.234999987e+001 -8.7325e-001 -1.2402e+000
824 0 +1.317570408e-007 -5.234999987e+001 -5.234999987e+001 -8.7325e-001 -1.2402e+000
828 0 +1.063278390e-007 -5.234999989e+001 -5.234999989e+001 -8.7322e-001 -1.2403e+000
835 0 +9.273759360e-008 -5.234999991e+001 -5.234999991e+001 -8.7318e-001 -1.2404e+000
836 0 +8.567589305e-008 -5.234999991e+001 -5.234999991e+001 -8.7315e-001 -1.2406e+000
838 0 +7.886049502e-008 -5.234999992e+001 -5.234999992e+001 -8.7311e-001 -1.2407e+000
841 0 +7.681085634e-008 -5.234999992e+001 -5.234999992e+001 -8.7309e-001 -1.2408e+000
845 0 +7.370000787e-008 -5.234999993e+001 -5.234999993e+001 -8.7305e-001 -1.2409e+000
859 0 +7.188372564e-008 -5.234999993e+001 -5.234999993e+001 -8.7303e-001 -1.2410e+000
881 0 +6.863827196e-008 -5.234999993e+001 -5.234999993e+001 -8.7302e-001 -1.2410e+000
885 0 +6.378516559e-008 -5.234999994e+001 -5.234999994e+001 -8.7302e-001 -1.2410e+000
891 0 +6.234413519e-008 -5.234999994e+001 -5.234999994e+001 -8.7300e-001 -1.2411e+000
893 0 +6.085486604e-008 -5.234999994e+001 -5.234999994e+001 -8.7303e-001 -1.2410e+000
899 0 +5.628469779e-008 -5.234999994e+001 -5.234999994e+001 -8.7290e-001 -1.2415e+000
900 0 +5.586193197e-008 -5.234999994e+001 -5.234999994e+001 -8.7291e-001 -1.2415e+000
904 0 +5.221807697e-008 -5.234999995e+001 -5.234999995e+001 -8.7290e-001 -1.2415e+000
906 0 +4.595293746e-008 -5.234999995e+001 -5.234999995e+001 -8.7292e-001 -1.2414e+000
912 0 +4.353238836e-008 -5.234999996e+001 -5.234999996e+001 -8.7292e-001 -1.2414e+000
915 0 +4.093122641e-008 -5.234999996e+001 -5.234999996e+001 -8.7290e-001 -1.2415e+000
921 0 +3.452911557e-008 -5.234999997e+001 -5.234999997e+001 -8.7281e-001 -1.2418e+000
926 0 +2.993200354e-008 -5.234999997e+001 -5.234999997e+001 -8.7280e-001 -1.2418e+000
929 0 +2.459301385e-008 -5.234999998e+001 -5.234999998e+001 -8.7255e-001 -1.2428e+000
940 0 +1.677367578e-008 -5.234999998e+001 -5.234999998e+001 -8.7266e-001 -1.2424e+000
942 0 +1.297113528e-008 -5.234999999e+001 -5.234999999e+001 -8.7231e-001 -1.2437e+000
947 0 +1.101682301e-008 -5.234999999e+001 -5.234999999e+001 -8.7231e-001 -1.2437e+000
955 0 +5.680924176e-009 -5.234999999e+001 -5.234999999e+001 -8.7230e-001 -1.2437e+000
% f evaluations | g evaluations | best noise-free fitness - Fopt (-1.795400000000e+002) + sum g_i+ | measured fitness | best measured fitness or single-digit g-values | x1 | x2...
1 0 +2.614219669e+000 -1.769257803e+002 -1.769257803e+002 -9.5570e-001 +2.4947e+000
2 0 +2.111545518e+000 -1.774284545e+002 -1.774284545e+002 -1.3168e+000 +4.7846e-001
5 0 +1.073068972e+000 -1.784669310e+002 -1.784669310e+002 +1.1951e+000 -6.4444e-001
22 0 +1.928196921e-001 -1.793471803e+002 -1.793471803e+002 +7.0455e-001 +7.6093e-001
76 0 +5.594620441e-002 -1.794840538e+002 -1.794840538e+002 +8.1561e-001 +4.3439e-001
127 0 +3.135149799e-002 -1.795086485e+002 -1.795086485e+002 +7.7907e-001 +4.1730e-001
136 0 +1.711121918e-002 -1.795228888e+002 -1.795228888e+002 +7.9771e-001 +4.8431e-001
176 0 +1.445271834e-002 -1.795255473e+002 -1.795255473e+002 +7.9202e-001 +5.4199e-001
212 0 +5.885977658e-003 -1.795341140e+002 -1.795341140e+002 +8.6736e-001 +6.4583e-001
272 0 +4.312805117e-003 -1.795356872e+002 -1.795356872e+002 +8.6159e-001 +6.5034e-001
301 0 +3.477512402e-003 -1.795365225e+002 -1.795365225e+002 +8.6220e-001 +6.4297e-001
310 0 +1.290177151e-003 -1.795387098e+002 -1.795387098e+002 +8.2607e-001 +5.7905e-001
329 0 +8.481098202e-004 -1.795391519e+002 -1.795391519e+002 +8.3408e-001 +5.9070e-001
332 0 +1.760395227e-004 -1.795398240e+002 -1.795398240e+002 +8.1589e-001 +5.5698e-001
364 0 +9.755990610e-005 -1.795399024e+002 -1.795399024e+002 +7.9930e-001 +5.2440e-001
394 0 +8.722439634e-005 -1.795399128e+002 -1.795399128e+002 +7.9998e-001 +5.2574e-001
428 0 +1.875068565e-005 -1.795399812e+002 -1.795399812e+002 +7.9340e-001 +5.1317e-001
494 0 +3.290488166e-007 -1.795399997e+002 -1.795399997e+002 +7.9546e-001 +5.1720e-001
640 0 +2.171459528e-007 -1.795399998e+002 -1.795399998e+002 +7.9265e-001 +5.1177e-001
658 0 +2.095814011e-008 -1.795400000e+002 -1.795400000e+002 +7.9266e-001 +5.1178e-001
693 0 +1.968930974e-008 -1.795400000e+002 -1.795400000e+002 +7.9266e-001 +5.1178e-001
721 0 +1.392098170e-008 -1.795400000e+002 -1.795400000e+002 +7.9259e-001 +5.1164e-001
724 0 +1.294404228e-008 -1.795400000e+002 -1.795400000e+002 +7.9259e-001 +5.1164e-001
754 0 +6.476938097e-009 -1.795400000e+002 -1.795400000e+002 +7.9277e-001 +5.1200e-001
% f evaluations | g evaluations | best noise-free fitness - Fopt (7.731000000000e+001) + sum g_i+ | measured fitness | best measured fitness or single-digit g-values | x1 | x2...
1 0 +1.698874641e+000 +7.900887464e+001 +7.900887464e+001 +1.8887e+000 -1.7645e+000
3 0 +9.004760638e-001 +7.821047606e+001 +7.821047606e+001 +1.7632e+000 -1.1209e+000
8 0 +3.390766839e-001 +7.764907668e+001 +7.764907668e+001 +5.5270e-001 -6.6072e-001
10 0 +1.696222028e-001 +7.747962220e+001 +7.747962220e+001 +7.1328e-001 -9.6959e-001
42 0 +3.296060724e-002 +7.734296061e+001 +7.734296061e+001 +9.2189e-001 -7.2214e-001
47 0 +1.647942522e-002 +7.732647943e+001 +7.732647943e+001 +8.9492e-001 -8.3225e-001
97 0 +3.307112671e-003 +7.731330711e+001 +7.731330711e+001 +9.0000e-001 -5.8095e-001
150 0 +2.198541436e-003 +7.731219854e+001 +7.731219854e+001 +8.8950e-001 -7.3166e-001
177 0 +2.184491505e-003 +7.731218449e+001 +7.731218449e+001 +9.0000e-001 -5.6050e-001
216 0 +5.058757694e-004 +7.731050588e+001 +7.731050588e+001 +8.9891e-001 -5.3491e-001
300 0 +4.771298262e-004 +7.731047713e+001 +7.731047713e+001 +8.9798e-001 -5.6605e-001
331 0 +3.017579703e-004 +7.731030176e+001 +7.731030176e+001 +8.9774e-001 -5.5697e-001
358 0 +2.853151644e-004 +7.731028532e+001 +7.731028532e+001 +8.9642e-001 -5.8066e-001
369 0 +5.777127767e-005 +7.731005777e+001 +7.731005777e+001 +8.9432e-001 -6.2300e-001
380 0 +2.157080098e-005 +7.731002157e+001 +7.731002157e+001 +8.9368e-001 -6.3545e-001
381 0 +1.586070105e-005 +7.731001586e+001 +7.731001586e+001 +8.9487e-001 -6.1435e-001
464 0 +1.437919983e-005 +7.731001438e+001 +7.731001438e+001 +8.9487e-001 -6.1430e-001
492 0 +1.357548011e-005 +7.731001358e+001 +7.731001358e+001 +8.9487e-001 -6.1427e-001
521 0 +5.145305508e-006 +7.731000515e+001 +7.731000515e+001 +8.9489e-001 -6.1350e-001
541 0 +5.014447893e-006 +7.731000501e+001 +7.731000501e+001 +8.9489e-001 -6.1351e-001
546 0 +2.981846777e-006 +7.731000298e+001 +7.731000298e+001 +8.9488e-001 -6.1377e-001
551 0 +1.202207272e-006 +7.731000120e+001 +7.731000120e+001 +8.9491e-001 -6.1329e-001
559 0 +9.558194876e-007 +7.731000096e+001 +7.731000096e+001 +8.9491e-001 -6.1321e-001
575 0 +8.345449487e-007 +7.731000083e+001 +7.731000083e+001 +8.9483e-001 -6.1476e-001
578 0 +6.424151309e-007 +7.731000064e+001 +7.731000064e+001 +8.9481e-001 -6.1506e-001
579 0 +4.809182883e-007 +7.731000048e+001 +7.731000048e+001 +8.9479e-001 -6.1541e-001
612 0 +3.776911655e-007 +7.731000038e+001 +7.731000038e+001 +8.9484e-001 -6.1445e-001
629 0 +3.146284229e-007 +7.731000031e+001 +7.731000031e+001 +8.9483e-001 -6.1472e-001
636 0 +2.847437202e-007 +7.731000028e+001 +7.731000028e+001 +8.9484e-001 -6.1456e-001
652 0 +2.712054510e-007 +7.731000027e+001 +7.731000027e+001 +8.9485e-001 -6.1443e-001
692 0 +2.683704707e-007 +7.731000027e+001 +7.731000027e+001 +8.9485e-001 -6.1443e-001
698 0 +1.966417216e-007 +7.731000020e+001 +7.731000020e+001 +8.9492e-001 -6.1314e-001
700 0 +1.765750142e-007 +7.731000018e+001 +7.731000018e+001 +8.9492e-001 -6.1313e-001
703 0 +1.381849017e-007 +7.731000014e+001 +7.731000014e+001 +8.9492e-001 -6.1315e-001
710 0 +1.197523005e-007 +7.731000012e+001 +7.731000012e+001 +8.9493e-001 -6.1290e-001
716 0 +1.095502427e-007 +7.731000011e+001 +7.731000011e+001 +8.9494e-001 -6.1268e-001
717 0 +1.038280146e-007 +7.731000010e+001 +7.731000010e+001 +8.9494e-001 -6.1269e-001
726 0 +7.777347832e-008 +7.731000008e+001 +7.731000008e+001 +8.9505e-001 -6.1076e-001
730 0 +2.946248401e-008 +7.731000003e+001 +7.731000003e+001 +8.9520e-001 -6.0801e-001
731 0 +2.516547681e-008 +7.731000003e+001 +7.731000003e+001 +8.9504e-001 -6.1083e-001
737 0 +1.900883717e-008 +7.731000002e+001 +7.731000002e+001 +8.9505e-001 -6.1066e-001
739 0 +1.097259883e-008 +7.731000001e+001 +7.731000001e+001 +8.9508e-001 -6.1022e-001
744 0 +7.807940960e-009 +7.731000001e+001 +7.731000001e+001 +8.9530e-001 -6.0613e-001
% f evaluations | g evaluations | best noise-free fitness - Fopt (3.992000000000e+001) + sum g_i+ | measured fitness | best measured fitness or single-digit g-values | x1 | x2...
1 0 +8.460680670e+000 +4.838068067e+001 +4.838068067e+001 -4.2140e+000 -3.2898e+000
3 0 +5.034065938e+000 +4.495406594e+001 +4.495406594e+001 -1.4222e-001 -3.5269e+000
10 0 +2.996191224e+000 +4.291619122e+001 +4.291619122e+001 +1.8320e+000 -2.8771e+000
12 0 +2.852194057e+000 +4.277219406e+001 +4.277219406e+001 +1.5236e+000 -2.6656e+000
14 0 +2.806112031e+000 +4.272611203e+001 +4.272611203e+001 +1.5810e+000 -2.6634e+000
22 0 +5.016980538e-001 +4.042169805e+001 +4.042169805e+001 +3.8354e+000 -1.8566e+000
39 0 +1.782115862e-001 +4.009821159e+001 +4.009821159e+001 +3.6824e+000 -7.2425e-001
53 0 +1.064167822e-001 +4.002641678e+001 +4.002641678e+001 +3.7612e+000 -7.4243e-001
63 0 +8.410316759e-002 +4.000410317e+001 +4.000410317e+001 +3.7866e+000 -7.4830e-001
79 0 +2.082783697e-002 +3.994082784e+001 +3.994082784e+001 +3.8814e+000 -8.0541e-001
168 0 +1.971398376e-002 +3.993971398e+001 +3.993971398e+001 +3.8719e+000 -8.2257e-001
239 0 +1.781257910e-002 +3.993781258e+001 +3.993781258e+001 +3.8781e+000 -8.1951e-001
251 0 +1.526070142e-002 +3.993526070e+001 +3.993526070e+001 +3.8856e+000 -8.3071e-001
259 0 +1.288791346e-002 +3.993288791e+001 +3.993288791e+001 +3.8951e+000 -8.5013e-001
265 0 +1.232339618e-002 +3.993232340e+001 +3.993232340e+001 +3.9126e+000 -8.9336e-001
285 0 +6.216774499e-003 +3.992621677e+001 +3.992621677e+001 +3.9068e+000 -9.3372e-001
305 0 +4.173896394e-003 +3.992417390e+001 +3.992417390e+001 +3.9071e+000 -9.1456e-001
326 0 +4.167331990e-003 +3.992416733e+001 +3.992416733e+001 +3.9071e+000 -9.1463e-001
349 0 +3.828627472e-003 +3.992382863e+001 +3.992382863e+001 +3.9079e+000 -9.2021e-001
355 0 +3.726410861e-003 +3.992372641e+001 +3.992372641e+001 +3.9084e+000 -9.2123e-001
384 0 +3.664449130e-003 +3.992366445e+001 +3.992366445e+001 +3.9088e+000 -9.2124e-001
401 0 +3.626576879e-003 +3.992362658e+001 +3.992362658e+001 +3.9092e+000 -9.2160e-001
443 0 +3.523590396e-003 +3.992352359e+001 +3.992352359e+001 +3.9111e+000 -9.3756e-001
449 0 +3.249825396e-003 +3.992324983e+001 +3.992324983e+001 +3.9114e+000 -9.3668e-001
472 0 +3.208696155e-003 +3.992320870e+001 +3.992320870e+001 +3.9105e+000 -9.2792e-001
478 0 +3.082405732e-003 +3.992308241e+001 +3.992308241e+001 +3.9112e+000 -9.2952e-001
480 0 +3.014332284e-003 +3.992301433e+001 +3.992301433e+001 +3.9114e+000 -9.3304e-001
488 0 +2.821789694e-003 +3.992282179e+001 +3.992282179e+001 +3.9122e+000 -9.3480e-001
489 0 +2.807140431e-003 +3.992280714e+001 +3.992280714e+001 +3.9122e+000 -9.3488e-001
490 0 +2.733088958e-003 +3.992273309e+001 +3.992273309e+001 +3.9127e+000 -9.3801e-001
498 0 +2.633084685e-003 +3.992263308e+001 +3.992263308e+001 +3.9131e+000 -9.3787e-001
512 0 +2.543326488e-003 +3.992254333e+001 +3.992254333e+001 +3.9135e+000 -9.3947e-001
517 0 +2.509917051e-003 +3.992250992e+001 +3.992250992e+001 +3.9138e+000 -9.4126e-001
518 0 +2.285252572e-003 +3.992228525e+001 +3.992228525e+001 +3.9149e+000 -9.4470e-001
524 0 +1.792204295e-003 +3.992179220e+001 +3.992179220e+001 +3.9193e+000 -9.6215e-001
525 0 +1.692761865e-003 +3.992169276e+001 +3.992169276e+001 +3.9196e+000 -9.6282e-001
531 0 +1.608159006e-003 +3.992160816e+001 +3.992160816e+001 +3.9201e+000 -9.6424e-001
538 0 +1.485002656e-003 +3.992148500e+001 +3.992148500e+001 +3.9209e+000 -9.6686e-001
541 0 +1.208169600e-003 +3.992120817e+001 +3.992120817e+001 +3.9225e+000 -9.7147e-001
555 0 +1.138167118e-003 +3.992113817e+001 +3.992113817e+001 +3.9312e+000 -1.0049e+000
556 0 +9.817442284e-004 +3.992098174e+001 +3.992098174e+001 +3.9317e+000 -1.0060e+000
559 0 +4.595635918e-004 +3.992045956e+001 +3.992045956e+001 +3.9298e+000 -9.9542e-001
560 0 +1.915631397e-004 +3.992019156e+001 +3.992019156e+001 +3.9350e+000 -1.0142e+000
570 0 +1.573071074e-004 +3.992015731e+001 +3.992015731e+001 +3.9367e+000 -1.0201e+000
589 0 +9.674583089e-005 +3.992009675e+001 +3.992009675e+001 +3.9497e+000 -1.0674e+000
608 0 +6.153328746e-005 +3.992006153e+001 +3.992006153e+001 +3.9419e+000 -1.0395e+000
613 0 +3.332624760e-005 +3.992003333e+001 +3.992003333e+001 +3.9590e+000 -1.1003e+000
626 0 +3.091765104e-005 +3.992003092e+001 +3.992003092e+001 +3.9580e+000 -1.0969e+000
637 0 +1.863187030e-005 +3.992001863e+001 +3.992001863e+001 +3.9555e+000 -1.0879e+000
648 0 +8.477596580e-007 +3.992000085e+001 +3.992000085e+001 +3.9483e+000 -1.0622e+000
682 0 +4.061586623e-007 +3.992000041e+001 +3.992000041e+001 +3.9484e+000 -1.0625e+000
692 0 +3.863298872e-007 +3.992000039e+001 +3.992000039e+001 +3.9486e+000 -1.0632e+000
790 0 +3.595578235e-007 +3.992000036e+001 +3.992000036e+001 +3.9486e+000 -1.0632e+000
793 0 +2.290598360e-007 +3.992000023e+001 +3.992000023e+001 +3.9488e+000 -1.0637e+000
836 0 +2.150816911e-007 +3.992000022e+001 +3.992000022e+001 +3.9488e+000 -1.0639e+000
846 0 +2.074463978e-007 +3.992000021e+001 +3.992000021e+001 +3.9488e+000 -1.0640e+000
850 0 +1.731619150e-007 +3.992000017e+001 +3.992000017e+001 +3.9492e+000 -1.0652e+000
851 0 +1.515041390e-007 +3.992000015e+001 +3.992000015e+001 +3.9491e+000 -1.0650e+000
859 0 +1.503094609e-007 +3.992000015e+001 +3.992000015e+001 +3.9492e+000 -1.0652e+000
861 0 +1.434432306e-007 +3.992000014e+001 +3.992000014e+001 +3.9491e+000 -1.0649e+000
867 0 +1.275812522e-007 +3.992000013e+001 +3.992000013e+001 +3.9492e+000 -1.0653e+000
873 0 +1.105215972e-007 +3.992000011e+001 +3.992000011e+001 +3.9493e+000 -1.0656e+000
876 0 +1.037210069e-007 +3.992000010e+001 +3.992000010e+001 +3.9493e+000 -1.0655e+000
888 0 +9.676887913e-008 +3.992000010e+001 +3.992000010e+001 +3.9493e+000 -1.0655e+000
894 0 +5.470851505e-008 +3.992000005e+001 +3.992000005e+001 +3.9498e+000 -1.0675e+000
895 0 +3.746751531e-008 +3.992000004e+001 +3.992000004e+001 +3.9495e+000 -1.0664e+000
903 0 +3.287748029e-008 +3.992000003e+001 +3.992000003e+001 +3.9496e+000 -1.0669e+000
905 0 +2.298869362e-008 +3.992000002e+001 +3.992000002e+001 +3.9496e+000 -1.0669e+000
908 0 +1.331566324e-008 +3.992000001e+001 +3.992000001e+001 +3.9498e+000 -1.0673e+000
962 0 +1.315471110e-008 +3.992000001e+001 +3.992000001e+001 +3.9498e+000 -1.0673e+000
974 0 +1.287028084e-008 +3.992000001e+001 +3.992000001e+001 +3.9498e+000 -1.0674e+000
976 0 +1.229506807e-008 +3.992000001e+001 +3.992000001e+001 +3.9498e+000 -1.0674e+000
978 0 +1.189638255e-008 +3.992000001e+001 +3.992000001e+001 +3.9498e+000 -1.0675e+000
979 0 +1.156731599e-008 +3.992000001e+001 +3.992000001e+001 +3.9498e+000 -1.0675e+000
987 0 +1.111947512e-008 +3.992000001e+001 +3.992000001e+001 +3.9498e+000 -1.0675e+000
1008 0 +1.075897416e-008 +3.992000001e+001 +3.992000001e+001 +3.9498e+000 -1.0675e+000
1009 0 +9.948472268e-009 +3.992000001e+001 +3.992000001e+001 +3.9498e+000 -1.0675e+000
% f evaluations | g evaluations | best noise-free fitness - Fopt (-5.661000000000e+001) + sum g_i+ | measured fitness | best measured fitness or single-digit g-values | x1 | x2...
1 0 +8.887494680e+001 +3.226494680e+001 +3.226494680e+001 -1.2737e+000 -1.5985e+000
2 0 +2.022710518e+001 -3.638289482e+001 -3.638289482e+001 +1.5174e+000 -4.3966e+000
6 0 +5.703265485e+000 -5.090673452e+001 -5.090673452e+001 -5.2188e-001 +5.0000e+000
7 0 +3.826839829e+000 -5.278316017e+001 -5.278316017e+001 +1.4780e+000 -1.1634e-001
8 0 +2.031220401e+000 -5.457877960e+001 -5.457877960e+001 +1.7848e+000 +5.0000e+000
12 0 +1.986969239e+000 -5.462303076e+001 -5.462303076e+001 +2.0283e+000 +5.0000e+000
22 0 +3.071688965e-001 -5.630283110e+001 -5.630283110e+001 +2.1748e+000 +3.3149e+000
27 0 +2.528519670e-001 -5.635714803e+001 -5.635714803e+001 +1.6375e+000 +2.5640e+000
47 0 +7.849124592e-002 -5.653150875e+001 -5.653150875e+001 +1.9151e+000 +2.9927e+000
64 0 +6.670514588e-002 -5.654329485e+001 -5.654329485e+001 +2.1942e+000 +2.9319e+000
68 0 +4.916903351e-002 -5.656083097e+001 -5.656083097e+001 +2.0975e+000 +2.9177e+000
134 0 +2.596837680e-002 -5.658403162e+001 -5.658403162e+001 +1.6743e+000 +2.8248e+000
146 0 +2.099218080e-002 -5.658900782e+001 -5.658900782e+001 +1.7270e+000 +2.8325e+000
158 0 +1.787694770e-002 -5.659212305e+001 -5.659212305e+001 +1.7914e+000 +2.8520e+000
174 0 +8.672346558e-003 -5.660132765e+001 -5.660132765e+001 +1.7862e+000 +2.8758e+000
213 0 +2.348896464e-003 -5.660765110e+001 -5.660765110e+001 +1.8438e+000 +2.8850e+000
318 0 +1.792258930e-003 -5.660820774e+001 -5.660820774e+001 +1.8387e+000 +2.8862e+000
319 0 +1.667208363e-003 -5.660833279e+001 -5.660833279e+001 +1.8469e+000 +2.8892e+000
331 0 +1.458999248e-003 -5.660854100e+001 -5.660854100e+001 +1.8427e+000 +2.8865e+000
339 0 +1.413145248e-003 -5.660858685e+001 -5.660858685e+001 +1.8452e+000 +2.8879e+000
350 0 +1.399117395e-003 -5.660860088e+001 -5.660860088e+001 +1.8450e+000 +2.8877e+000
370 0 +1.268709789e-003 -5.660873129e+001 -5.660873129e+001 +1.8475e+000 +2.8883e+000
371 0 +8.478439731e-004 -5.660915216e+001 -5.660915216e+001 +1.8676e+000 +2.8942e+000
381 0 +8.179463383e-004 -5.660918205e+001 -5.660918205e+001 +1.8681e+000 +2.8944e+000
401 0 +7.413034906e-004 -5.660925870e+001 -5.660925870e+001 +1.8661e+000 +2.8945e+000
420 0 +4.057031315e-004 -5.660959430e+001 -5.660959430e+001 +1.9063e+000 +2.9077e+000
426 0 +3.628539635e-004 -5.660963715e+001 -5.660963715e+001 +1.9077e+000 +2.9074e+000
436 0 +8.826509992e-005 -5.660991173e+001 -5.660991173e+001 +1.9253e+000 +2.9134e+000
446 0 +2.766675756e-005 -5.660997233e+001 -5.660997233e+001 +1.9217e+000 +2.9123e+000
465 0 +1.909517495e-005 -5.660998090e+001 -5.660998090e+001 +1.9265e+000 +2.9139e+000
502 0 +1.731143165e-005 -5.660998269e+001 -5.660998269e+001 +1.9266e+000 +2.9139e+000
556 0 +1.663039779e-005 -5.660998337e+001 -5.660998337e+001 +1.9265e+000 +2.9138e+000
560 0 +1.384970830e-005 -5.660998615e+001 -5.660998615e+001 +1.9357e+000 +2.9168e+000
565 0 +8.464380016e-006 -5.660999154e+001 -5.660999154e+001 +1.9454e+000 +2.9200e+000
569 0 +7.247414004e-006 -5.660999275e+001 -5.660999275e+001 +1.9460e+000 +2.9202e+000
574 0 +5.779920862e-006 -5.660999422e+001 -5.660999422e+001 +1.9468e+000 +2.9204e+000
583 0 +5.224215279e-006 -5.660999478e+001 -5.660999478e+001 +1.9467e+000 +2.9204e+000
590 0 +5.980794668e-007 -5.660999940e+001 -5.660999940e+001 +1.9526e+000 +2.9223e+000
610 0 +5.858288503e-007 -5.660999941e+001 -5.660999941e+001 +1.9519e+000 +2.9221e+000
613 0 +2.938269503e-007 -5.660999971e+001 -5.660999971e+001 +1.9518e+000 +2.9221e+000
679 0 +1.266977279e-008 -5.660999999e+001 -5.660999999e+001 +1.9520e+000 +2.9221e+000
710 0 +8.260329309e-009 -5.660999999e+001 -5.660999999e+001 +1.9519e+000 +2.9221e+000
% f evaluations | g evaluations | best noise-free fitness - Fopt (3.270000000000e+001) + sum g_i+ | measured fitness | best measured fitness or single-digit g-values | x1 | x2...
1 0 +1.641380085e+001 +4.911380085e+001 +4.911380085e+001 -1.8747e+000 +4.5910e+000
3 0 +1.256975363e+001 +4.526975363e+001 +4.526975363e+001 -1.1128e+000 -4.9399e+000
4 0 +4.618527566e+000 +3.731852757e+001 +3.731852757e+001 -5.0000e+000 -5.0000e+000
9 0 +1.047035519e+000 +3.374703552e+001 +3.374703552e+001 -2.1070e+000 -4.3812e-001
19 0 +5.230431184e-001 +3.322304312e+001 +3.322304312e+001 -1.9027e+000 -1.1047e+000
21 0 +4.185215927e-001 +3.311852159e+001 +3.311852159e+001 -1.7671e+000 -1.2854e+000
25 0 +1.598299139e-001 +3.285982991e+001 +3.285982991e+001 -2.0227e+000 -1.8042e+000
36 0 +1.442643623e-001 +3.284426436e+001 +3.284426436e+001 -2.0425e+000 -1.7775e+000
44 0 +8.346633081e-002 +3.278346633e+001 +3.278346633e+001 -2.4721e+000 -1.4535e+000
52 0 +6.050225931e-002 +3.276050226e+001 +3.276050226e+001 -2.4269e+000 -1.4672e+000
115 0 +3.882983964e-002 +3.273882984e+001 +3.273882984e+001 -2.3756e+000 -1.4493e+000
135 0 +2.875818148e-002 +3.272875818e+001 +3.272875818e+001 -2.3508e+000 -1.4672e+000
155 0 +2.170005514e-002 +3.272170006e+001 +3.272170006e+001 -2.3199e+000 -1.4772e+000
175 0 +1.897464290e-002 +3.271897464e+001 +3.271897464e+001 -2.3002e+000 -1.4836e+000
195 0 +1.804633331e-002 +3.271804633e+001 +3.271804633e+001 -2.2875e+000 -1.4877e+000
197 0 +1.019335247e-002 +3.271019335e+001 +3.271019335e+001 -2.2718e+000 -1.5087e+000
252 0 +6.846352306e-003 +3.270684635e+001 +3.270684635e+001 -2.1719e+000 -1.5633e+000
295 0 +4.425780949e-003 +3.270442578e+001 +3.270442578e+001 -2.1354e+000 -1.5683e+000
320 0 +5.470821762e-004 +3.270054708e+001 +3.270054708e+001 -2.0648e+000 -1.6063e+000
377 0 +5.277554833e-004 +3.270052776e+001 +3.270052776e+001 -2.1488e+000 -1.5668e+000
504 0 +9.594042138e-005 +3.270009594e+001 +3.270009594e+001 -2.0635e+000 -1.6075e+000
506 0 +1.305710413e-005 +3.270001306e+001 +3.270001306e+001 -2.0735e+000 -1.6028e+000
547 0 +1.269266081e-005 +3.270001269e+001 +3.270001269e+001 -2.0750e+000 -1.6021e+000
561 0 +1.146714774e-005 +3.270001147e+001 +3.270001147e+001 -2.0747e+000 -1.6022e+000
573 0 +1.836540889e-006 +3.270000184e+001 +3.270000184e+001 -2.0650e+000 -1.6068e+000
631 0 +5.914107533e-007 +3.270000059e+001 +3.270000059e+001 -2.0739e+000 -1.6026e+000
632 0 +5.423532343e-007 +3.270000054e+001 +3.270000054e+001 -2.0739e+000 -1.6026e+000
639 0 +3.478874433e-007 +3.270000035e+001 +3.270000035e+001 -2.0733e+000 -1.6029e+000
646 0 +1.022323275e-007 +3.270000010e+001 +3.270000010e+001 -2.0722e+000 -1.6034e+000
658 0 +3.788626657e-008 +3.270000004e+001 +3.270000004e+001 -2.0730e+000 -1.6030e+000
677 0 +2.521875331e-008 +3.270000003e+001 +3.270000003e+001 -2.0786e+000 -1.6004e+000
709 0 +2.137083044e-008 +3.270000002e+001 +3.270000002e+001 -2.0783e+000 -1.6005e+000
728 0 +8.580208544e-009 +3.270000001e+001 +3.270000001e+001 -2.0766e+000 -1.6013e+000
% f evaluations | g evaluations | best noise-free fitness - Fopt (-3.943000000000e+001) + sum g_i+ | measured fitness | best measured fitness or single-digit g-values | x1 | x2...
1 0 +6.020269822e+000 -3.340973018e+001 -3.340973018e+001 +3.1758e+000 -2.6446e+000
4 0 +2.656753532e+000 -3.677324647e+001 -3.677324647e+001 +5.0000e+000 +5.0000e+000
6 0 +1.736107571e+000 -3.769389243e+001 -3.769389243e+001 +2.8962e+000 +5.0000e+000
13 0 +1.160950020e+000 -3.826904998e+001 -3.826904998e+001 +3.3254e+000 +4.5235e+000
24 0 +5.036287698e-003 -3.942496371e+001 -3.942496371e+001 +3.6140e+000 +3.3770e+000
194 0 +3.700047552e-003 -3.942629995e+001 -3.942629995e+001 +3.6149e+000 +3.3720e+000
223 0 +3.623839952e-003 -3.942637616e+001 -3.942637616e+001 +3.6183e+000 +3.3752e+000
232 0 +3.531420646e-003 -3.942646858e+001 -3.942646858e+001 +3.6156e+000 +3.3724e+000
241 0 +3.079627905e-003 -3.942692037e+001 -3.942692037e+001 +3.6205e+000 +3.3732e+000
262 0 +2.226064181e-003 -3.942777394e+001 -3.942777394e+001 +3.6365e+000 +3.3735e+000
277 0 +1.594102602e-003 -3.942840590e+001 -3.942840590e+001 +3.6612e+000 +3.3738e+000
299 0 +1.097570053e-003 -3.942890243e+001 -3.942890243e+001 +3.6722e+000 +3.3745e+000
309 0 +8.103359776e-004 -3.942918966e+001 -3.942918966e+001 +3.6792e+000 +3.3750e+000
323 0 +3.031729188e-004 -3.942969683e+001 -3.942969683e+001 +3.8309e+000 +3.3805e+000
348 0 +2.674300302e-004 -3.942973257e+001 -3.942973257e+001 +3.8290e+000 +3.3806e+000
359 0 +8.720393518e-005 -3.942991280e+001 -3.942991280e+001 +3.8083e+000 +3.3798e+000
432 0 +4.701794044e-005 -3.942995298e+001 -3.942995298e+001 +3.7542e+000 +3.3780e+000
433 0 +4.144762257e-005 -3.942995855e+001 -3.942995855e+001 +3.7872e+000 +3.3791e+000
434 0 +3.693563394e-005 -3.942996306e+001 -3.942996306e+001 +3.7333e+000 +3.3773e+000
459 0 +2.354365429e-005 -3.942997646e+001 -3.942997646e+001 +3.7395e+000 +3.3775e+000
471 0 +2.013110411e-005 -3.942997987e+001 -3.942997987e+001 +3.7384e+000 +3.3775e+000
487 0 +1.764282747e-005 -3.942998236e+001 -3.942998236e+001 +3.7396e+000 +3.3775e+000
492 0 +4.850712003e-006 -3.942999515e+001 -3.942999515e+001 +3.7583e+000 +3.3782e+000
504 0 +4.213459427e-006 -3.942999579e+001 -3.942999579e+001 +3.7530e+000 +3.3780e+000
516 0 +7.129599027e-007 -3.942999929e+001 -3.942999929e+001 +3.7745e+000 +3.3787e+000
604 0 +5.597843256e-008 -3.942999994e+001 -3.942999994e+001 +3.7687e+000 +3.3785e+000
686 0 +1.143968120e-008 -3.942999999e+001 -3.942999999e+001 +3.7673e+000 +3.3785e+000
709 0 +3.207517807e-009 -3.943000000e+001 -3.943000000e+001 +3.7667e+000 +3.3784e+000
% f evaluations | g evaluations | best noise-free fitness - Fopt (4.197200000000e+002) + sum g_i+ | measured fitness | best measured fitness or single-digit g-values | x1 | x2...
1 0 +2.006838554e-003 +4.197220068e+002 +4.197220068e+002 -1.1727e+000 +2.6699e+000
164 0 +1.721333707e-003 +4.197217213e+002 +4.197217213e+002 -1.1714e+000 +2.7154e+000
209 0 +1.515309788e-003 +4.197215153e+002 +4.197215153e+002 -1.1618e+000 +2.7732e+000
233 0 +9.633194913e-004 +4.197209633e+002 +4.197209633e+002 -1.1623e+000 +2.7743e+000
251 0 +6.189093957e-004 +4.197206189e+002 +4.197206189e+002 -1.1624e+000 +2.7761e+000
253 0 +2.073531907e-004 +4.197202074e+002 +4.197202074e+002 -1.1639e+000 +2.7706e+000
267 0 +5.235851762e-005 +4.197200524e+002 +4.197200524e+002 -1.1667e+000 +2.7433e+000
346 0 +2.118397043e-005 +4.197200212e+002 +4.197200212e+002 -1.1675e+000 +2.7357e+000
364 0 +1.975209778e-005 +4.197200198e+002 +4.197200198e+002 -1.1676e+000 +2.7342e+000
416 0 +1.462011443e-005 +4.197200146e+002 +4.197200146e+002 -1.1635e+000 +2.7720e+000
435 0 +9.197178770e-006 +4.197200092e+002 +4.197200092e+002 -1.1635e+000 +2.7720e+000
457 0 +8.971081911e-006 +4.197200090e+002 +4.197200090e+002 -1.1639e+000 +2.7677e+000
473 0 +6.721271120e-006 +4.197200067e+002 +4.197200067e+002 -1.1668e+000 +2.7412e+000
480 0 +3.113252035e-006 +4.197200031e+002 +4.197200031e+002 -1.1642e+000 +2.7660e+000
489 0 +2.535728811e-006 +4.197200025e+002 +4.197200025e+002 -1.1636e+000 +2.7711e+000
492 0 +2.182866751e-006 +4.197200022e+002 +4.197200022e+002 -1.1635e+000 +2.7722e+000
495 0 +2.064697526e-006 +4.197200021e+002 +4.197200021e+002 -1.1639e+000 +2.7681e+000
514 0 +1.114561087e-006 +4.197200011e+002 +4.197200011e+002 -1.1639e+000 +2.7681e+000
562 0 +3.923282748e-007 +4.197200004e+002 +4.197200004e+002 -1.1647e+000 +2.7608e+000
606 0 +4.658221542e-008 +4.197200000e+002 +4.197200000e+002 -1.1646e+000 +2.7619e+000
655 0 +2.876248573e-008 +4.197200000e+002 +4.197200000e+002 -1.1646e+000 +2.7618e+000
656 0 +1.780011871e-008 +4.197200000e+002 +4.197200000e+002 -1.1646e+000 +2.7616e+000
672 0 +1.121441073e-008 +4.197200000e+002 +4.197200000e+002 -1.1646e+000 +2.7617e+000
713 0 +5.300478279e-009 +4.197200000e+002 +4.197200000e+002 -1.1646e+000 +2.7617e+000
% f evaluations | g evaluations | best noise-free fitness - Fopt (7.640000000000e+000) + sum g_i+ | measured fitness | best measured fitness or single-digit g-values | x1 | x2...
1 0 +3.378400303e+002 +3.454800303e+002 +3.454800303e+002 -4.4592e+000 +5.9461e-001
2 0 +2.905221492e+001 +3.669221492e+001 +3.669221492e+001 -2.0852e+000 -4.8555e+000
6 0 +4.358918790e+000 +1.199891879e+001 +1.199891879e+001 +1.5206e+000 -1.2908e+000
13 0 +3.539940366e+000 +1.117994037e+001 +1.117994037e+001 +3.6269e+000 -7.6959e-001
15 0 +1.732919911e+000 +9.372919911e+000 +9.372919911e+000 +4.8979e+000 +3.2260e+000
27 0 +1.204136804e+000 +8.844136804e+000 +8.844136804e+000 +3.0157e+000 +1.5273e+000
40 0 +7.138013909e-001 +8.353801391e+000 +8.353801391e+000 +3.8419e+000 +1.7979e+000
66 0 +6.940889016e-001 +8.334088902e+000 +8.334088902e+000 +2.7170e+000 +3.0037e+000
67 0 +3.167232582e-001 +7.956723258e+000 +7.956723258e+000 +3.4439e+000 +2.3213e+000
68 0 +2.076249272e-001 +7.847624927e+000 +7.847624927e+000 +3.3870e+000 +2.8908e+000
76 0 +6.306999645e-002 +7.703069996e+000 +7.703069996e+000 +3.4949e+000 +2.5714e+000
100 0 +7.592824498e-004 +7.640759282e+000 +7.640759282e+000 +3.5254e+000 +2.6286e+000
146 0 +1.572192023e-004 +7.640157219e+000 +7.640157219e+000 +3.5274e+000 +2.6273e+000
321 0 +1.429766271e-004 +7.640142977e+000 +7.640142977e+000 +3.5274e+000 +2.6273e+000
356 0 +8.751432673e-005 +7.640087514e+000 +7.640087514e+000 +3.5291e+000 +2.6267e+000
364 0 +5.075657628e-005 +7.640050757e+000 +7.640050757e+000 +3.5114e+000 +2.6323e+000
373 0 +4.738932156e-005 +7.640047389e+000 +7.640047389e+000 +3.5120e+000 +2.6321e+000
375 0 +4.297402783e-005 +7.640042974e+000 +7.640042974e+000 +3.5078e+000 +2.6335e+000
389 0 +4.238228581e-005 +7.640042382e+000 +7.640042382e+000 +3.5163e+000 +2.6308e+000
423 0 +5.754400466e-006 +7.640005754e+000 +7.640005754e+000 +3.5054e+000 +2.6343e+000
472 0 +4.247910085e-006 +7.640004248e+000 +7.640004248e+000 +3.5150e+000 +2.6312e+000
487 0 +1.891748704e-007 +7.640000189e+000 +7.640000189e+000 +3.5264e+000 +2.6275e+000
500 0 +5.501471012e-008 +7.640000055e+000 +7.640000055e+000 +3.5260e+000 +2.6276e+000
567 0 +4.031812217e-008 +7.640000040e+000 +7.640000040e+000 +3.5256e+000 +2.6278e+000
628 0 +3.963298667e-008 +7.640000040e+000 +7.640000040e+000 +3.5255e+000 +2.6278e+000
640 0 +3.140908067e-008 +7.640000031e+000 +7.640000031e+000 +3.5253e+000 +2.6278e+000
652 0 +2.856436421e-008 +7.640000029e+000 +7.640000029e+000 +3.5253e+000 +2.6279e+000
668 0 +1.758183554e-008 +7.640000018e+000 +7.640000018e+000 +3.5244e+000 +2.6281e+000
672 0 +1.136343197e-008 +7.640000011e+000 +7.640000011e+000 +3.5245e+000 +2.6281e+000
675 0 +9.263334988e-009 +7.640000009e+000 +7.640000009e+000 +3.5244e+000 +2.6282e+000
% f evaluations | g evaluations | best noise-free fitness - Fopt (-1.276800000000e+002) + sum g_i+ | measured fitness | best measured fitness or single-digit g-values | x1 | x2...
1 0 +3.745707041e+000 -1.239342930e+002 -1.239342930e+002 +1.3033e+000 +1.4322e-001
6 0 +2.579418916e+000 -1.251005811e+002 -1.251005811e+002 +2.1918e+000 +1.1800e+000
9 0 +1.816364391e+000 -1.258636356e+002 -1.258636356e+002 +8.5468e-001 +3.4575e+000
32 0 +1.538807501e+000 -1.261411925e+002 -1.261411925e+002 +9.2708e-001 +3.3974e+000
39 0 +1.171443314e+000 -1.265085567e+002 -1.265085567e+002 +1.4012e+000 +4.4479e+000
40 0 +6.532726751e-001 -1.270267273e+002 -1.270267273e+002 +2.2580e+000 +3.0927e+000
58 0 +5.170010448e-001 -1.271629990e+002 -1.271629990e+002 +2.5966e+000 +3.1339e+000
62 0 +2.740041446e-001 -1.274059959e+002 -1.274059959e+002 +1.6657e+000 +4.0540e+000
72 0 +9.320123550e-002 -1.275867988e+002 -1.275867988e+002 +2.3161e+000 +3.8762e+000
112 0 +5.236857415e-002 -1.276276314e+002 -1.276276314e+002 +2.2148e+000 +3.7606e+000
124 0 +2.532840840e-002 -1.276546716e+002 -1.276546716e+002 +2.3453e+000 +3.7907e+000
125 0 +1.378282834e-002 -1.276662172e+002 -1.276662172e+002 +2.4315e+000 +3.7412e+000
159 0 +8.894411870e-003 -1.276711056e+002 -1.276711056e+002 +2.2914e+000 +3.7952e+000
194 0 +5.311382493e-003 -1.276746886e+002 -1.276746886e+002 +2.3073e+000 +3.7732e+000
197 0 +3.150784598e-003 -1.276768492e+002 -1.276768492e+002 +2.1522e+000 +3.8403e+000
236 0 +8.227854428e-004 -1.276791772e+002 -1.276791772e+002 +2.1893e+000 +3.8272e+000
261 0 +7.597518254e-004 -1.276792402e+002 -1.276792402e+002 +2.2911e+000 +3.7849e+000
283 0 +5.457246677e-004 -1.276794543e+002 -1.276794543e+002 +2.3366e+000 +3.7671e+000
286 0 +8.438199303e-005 -1.276799156e+002 -1.276799156e+002 +2.3027e+000 +3.7809e+000
369 0 +8.246505313e-005 -1.276799175e+002 -1.276799175e+002 +2.3025e+000 +3.7810e+000
410 0 +5.396306904e-005 -1.276799460e+002 -1.276799460e+002 +2.2737e+000 +3.7930e+000
422 0 +1.611423076e-005 -1.276799839e+002 -1.276799839e+002 +2.2721e+000 +3.7936e+000
497 0 +4.885105710e-006 -1.276799951e+002 -1.276799951e+002 +2.2759e+000 +3.7920e+000
527 0 +3.599104588e-006 -1.276799964e+002 -1.276799964e+002 +2.2765e+000 +3.7917e+000
542 0 +2.918652996e-006 -1.276799971e+002 -1.276799971e+002 +2.2726e+000 +3.7934e+000
544 0 +1.257729707e-006 -1.276799987e+002 -1.276799987e+002 +2.2712e+000 +3.7939e+000
557 0 +5.215352701e-007 -1.276799995e+002 -1.276799995e+002 +2.2671e+000 +3.7956e+000
640 0 +4.265002786e-007 -1.276799996e+002 -1.276799996e+002 +2.2668e+000 +3.7958e+000
643 0 +2.436431572e-007 -1.276799998e+002 -1.276799998e+002 +2.2666e+000 +3.7959e+000
650 0 +1.823448770e-007 -1.276799998e+002 -1.276799998e+002 +2.2653e+000 +3.7964e+000
652 0 +1.655017030e-007 -1.276799998e+002 -1.276799998e+002 +2.2652e+000 +3.7964e+000
657 0 +1.513921291e-007 -1.276799998e+002 -1.276799998e+002 +2.2652e+000 +3.7964e+000
664 0 +3.625474676e-008 -1.276800000e+002 -1.276800000e+002 +2.2642e+000 +3.7968e+000
703 0 +2.165567992e-008 -1.276800000e+002 -1.276800000e+002 +2.2641e+000 +3.7969e+000
710 0 +2.114727238e-008 -1.276800000e+002 -1.276800000e+002 +2.2638e+000 +3.7970e+000
711 0 +1.836916397e-008 -1.276800000e+002 -1.276800000e+002 +2.2638e+000 +3.7970e+000
727 0 +3.558412232e-009 -1.276800000e+002 -1.276800000e+002 +2.2638e+000 +3.7970e+000
% f evaluations | g evaluations | best noise-free fitness - Fopt (-3.650000000000e+001) + sum g_i+ | measured fitness | best measured fitness or single-digit g-values | x1 | x2...
1 0 +3.455069863e+000 -3.304493014e+001 -3.304493014e+001 +2.5448e+000 -2.7214e+000
15 0 +3.358508038e+000 -3.314149196e+001 -3.314149196e+001 +6.8507e-001 +3.5602e+000
21 0 +6.948325811e-001 -3.580516742e+001 -3.580516742e+001 +2.1747e+000 -2.5052e-001
43 0 +3.027103933e-001 -3.619728961e+001 -3.619728961e+001 +1.9293e+000 +6.4999e-002
47 0 +2.172227326e-001 -3.628277727e+001 -3.628277727e+001 +1.8256e+000 +1.1677e-001
76 0 +1.759785873e-001 -3.632402141e+001 -3.632402141e+001 +2.2236e+000 +7.7361e-001
90 0 +1.649262899e-001 -3.633507371e+001 -3.633507371e+001 +2.3591e+000 +8.2541e-001
104 0 +7.651066734e-002 -3.642348933e+001 -3.642348933e+001 +1.8841e+000 +4.6971e-001
105 0 +6.510471773e-002 -3.643489528e+001 -3.643489528e+001 +1.8900e+000 +4.5984e-001
131 0 +5.335510911e-002 -3.644664489e+001 -3.644664489e+001 +1.9479e+000 +4.7931e-001
139 0 +1.296588814e-002 -3.648703411e+001 -3.648703411e+001 +2.0897e+000 +5.1251e-001
219 0 +3.054428920e-004 -3.649969456e+001 -3.649969456e+001 +2.0866e+000 +4.9556e-001
323 0 +2.171102363e-005 -3.649997829e+001 -3.649997829e+001 +2.0840e+000 +4.9442e-001
396 0 +1.171609956e-005 -3.649998828e+001 -3.649998828e+001 +2.0828e+000 +4.9377e-001
423 0 +1.057615390e-005 -3.649998942e+001 -3.649998942e+001 +2.0829e+000 +4.9378e-001
473 0 +8.780993156e-006 -3.649999122e+001 -3.649999122e+001 +2.0826e+000 +4.9363e-001
504 0 +3.997072071e-006 -3.649999600e+001 -3.649999600e+001 +2.0830e+000 +4.9385e-001
556 0 +3.867050417e-006 -3.649999613e+001 -3.649999613e+001 +2.0832e+000 +4.9397e-001
632 0 +3.775280931e-006 -3.649999622e+001 -3.649999622e+001 +2.0832e+000 +4.9400e-001
647 0 +3.700056460e-006 -3.649999630e+001 -3.649999630e+001 +2.0833e+000 +4.9405e-001
683 0 +3.618853540e-006 -3.649999638e+001 -3.649999638e+001 +2.0835e+000 +4.9413e-001
707 0 +3.534234807e-006 -3.649999647e+001 -3.649999647e+001 +2.0835e+000 +4.9417e-001
717 0 +3.452899762e-006 -3.649999655e+001 -3.649999655e+001 +2.0838e+000 +4.9433e-001
725 0 +3.385959964e-006 -3.649999661e+001 -3.649999661e+001 +2.0837e+000 +4.9428e-001
729 0 +3.248431369e-006 -3.649999675e+001 -3.649999675e+001 +2.0839e+000 +4.9436e-001
734 0 +3.224064315e-006 -3.649999678e+001 -3.649999678e+001 +2.0839e+000 +4.9440e-001
740 0 +2.901381116e-006 -3.649999710e+001 -3.649999710e+001 +2.0844e+000 +4.9464e-001
746 0 +2.829080799e-006 -3.649999717e+001 -3.649999717e+001 +2.0845e+000 +4.9469e-001
751 0 +2.815811307e-006 -3.649999718e+001 -3.649999718e+001 +2.0845e+000 +4.9470e-001
754 0 +2.713970133e-006 -3.649999729e+001 -3.649999729e+001 +2.0851e+000 +4.9506e-001
757 0 +2.423797341e-006 -3.649999758e+001 -3.649999758e+001 +2.0858e+000 +4.9543e-001
763 0 +2.387374572e-006 -3.649999761e+001 -3.649999761e+001 +2.0851e+000 +4.9507e-001
764 0 +1.712065817e-006 -3.649999829e+001 -3.649999829e+001 +2.0881e+000 +4.9672e-001
770 0 +1.375909044e-006 -3.649999862e+001 -3.649999862e+001 +2.0898e+000 +4.9766e-001
781 0 +1.307783187e-006 -3.649999869e+001 -3.649999869e+001 +2.0886e+000 +4.9703e-001
789 0 +1.266989258e-006 -3.649999873e+001 -3.649999873e+001 +2.0881e+000 +4.9671e-001
797 0 +1.217923128e-006 -3.649999878e+001 -3.649999878e+001 +2.0898e+000 +4.9770e-001
803 0 +1.078955400e-006 -3.649999892e+001 -3.649999892e+001 +2.0910e+000 +4.9835e-001
811 0 +7.915168965e-007 -3.649999921e+001 -3.649999921e+001 +2.0888e+000 +4.9711e-001
812 0 +4.371087314e-007 -3.649999956e+001 -3.649999956e+001 +2.0903e+000 +4.9797e-001
813 0 +3.488175508e-007 -3.649999965e+001 -3.649999965e+001 +2.0907e+000 +4.9816e-001
816 0 +2.659900247e-007 -3.649999973e+001 -3.649999973e+001 +2.0913e+000 +4.9853e-001
817 0 +2.490167006e-007 -3.649999975e+001 -3.649999975e+001 +2.0915e+000 +4.9863e-001
819 0 +2.406423434e-007 -3.649999976e+001 -3.649999976e+001 +2.0915e+000 +4.9861e-001
825 0 +1.459098513e-007 -3.649999985e+001 -3.649999985e+001 +2.0931e+000 +4.9951e-001
844 0 +1.383426280e-007 -3.649999986e+001 -3.649999986e+001 +2.0957e+000 +5.0096e-001
845 0 +5.363227018e-008 -3.649999995e+001 -3.649999995e+001 +2.0958e+000 +5.0104e-001
848 0 +4.083311467e-008 -3.649999996e+001 -3.649999996e+001 +2.0953e+000 +5.0076e-001
859 0 +1.242894143e-008 -3.649999999e+001 -3.649999999e+001 +2.0951e+000 +5.0063e-001
888 0 +1.192544374e-008 -3.649999999e+001 -3.649999999e+001 +2.0951e+000 +5.0063e-001
889 0 +1.132933392e-008 -3.649999999e+001 -3.649999999e+001 +2.0949e+000 +5.0055e-001
905 0 +8.117311268e-009 -3.649999999e+001 -3.649999999e+001 +2.0951e+000 +5.0062e-001
% f evaluations | g evaluations | best noise-free fitness - Fopt (1.728700000000e+002) + sum g_i+ | measured fitness | best measured fitness or single-digit g-values | x1 | x2...
1 0 +3.885891468e+000 +1.767558915e+002 +1.767558915e+002 +4.6133e+000 -4.0112e+000
2 0 +2.752530605e+000 +1.756225306e+002 +1.756225306e+002 +1.9458e+000 +1.8076e+000
9 0 +2.504399512e+000 +1.753743995e+002 +1.753743995e+002 +4.1489e+000 +7.4036e-001
10 0 +7.557142556e-001 +1.736257143e+002 +1.736257143e+002 +2.6036e+000 -8.1744e-002
23 0 +6.509322840e-001 +1.735209323e+002 +1.735209323e+002 +2.7161e+000 -1.7451e-001
43 0 +6.402906910e-001 +1.735102907e+002 +1.735102907e+002 +2.8186e+000 -1.7451e-001
45 0 +1.546094531e-001 +1.730246095e+002 +1.730246095e+002 +2.5271e+000 -7.4882e-001
50 0 +7.062737895e-002 +1.729406274e+002 +1.729406274e+002 +3.3540e+000 -7.0311e-001
140 0 +5.636690961e-002 +1.729263669e+002 +1.729263669e+002 +3.3828e+000 -7.2921e-001
143 0 +1.851659079e-002 +1.728885166e+002 +1.728885166e+002 +2.7960e+000 -8.0649e-001
183 0 +1.104551817e-002 +1.728810455e+002 +1.728810455e+002 +3.0533e+000 -8.0514e-001
232 0 +1.084896609e-002 +1.728808490e+002 +1.728808490e+002 +3.0495e+000 -8.0533e-001
241 0 +4.578721835e-003 +1.728745787e+002 +1.728745787e+002 +2.8625e+000 -8.1461e-001
253 0 +3.560294964e-003 +1.728735603e+002 +1.728735603e+002 +2.9181e+000 -8.0459e-001
263 0 +1.374433450e-003 +1.728713744e+002 +1.728713744e+002 +3.0457e+000 -7.9343e-001
270 0 +1.249422793e-003 +1.728712494e+002 +1.728712494e+002 +3.1333e+000 -7.8594e-001
286 0 +7.766663255e-004 +1.728707767e+002 +1.728707767e+002 +3.1173e+000 -7.8731e-001
287 0 +3.279682558e-004 +1.728703280e+002 +1.728703280e+002 +3.0702e+000 -7.9198e-001
299 0 +3.008475356e-004 +1.728703008e+002 +1.728703008e+002 +3.0694e+000 -7.9209e-001
319 0 +2.784906430e-004 +1.728702785e+002 +1.728702785e+002 +3.0744e+000 -7.9161e-001
324 0 +2.433586779e-004 +1.728702434e+002 +1.728702434e+002 +3.0820e+000 -7.9125e-001
363 0 +2.083579164e-004 +1.728702084e+002 +1.728702084e+002 +3.0724e+000 -7.9188e-001
368 0 +1.380720999e-004 +1.728701381e+002 +1.728701381e+002 +3.0688e+000 -7.9232e-001
384 0 +1.132878430e-004 +1.728701133e+002 +1.728701133e+002 +3.0675e+000 -7.9248e-001
385 0 +9.253825954e-005 +1.728700925e+002 +1.728700925e+002 +3.0559e+000 -7.9385e-001
407 0 +7.806339502e-005 +1.728700781e+002 +1.728700781e+002 +3.0689e+000 -7.9243e-001
418 0 +6.402291837e-005 +1.728700640e+002 +1.728700640e+002 +3.0644e+000 -7.9292e-001
439 0 +5.414053001e-005 +1.728700541e+002 +1.728700541e+002 +3.0449e+000 -7.9484e-001
472 0 +3.184162844e-005 +1.728700318e+002 +1.728700318e+002 +3.0380e+000 -7.9564e-001
481 0 +2.163978678e-005 +1.728700216e+002 +1.728700216e+002 +3.0415e+000 -7.9523e-001
501 0 +1.388662992e-005 +1.728700139e+002 +1.728700139e+002 +3.0421e+000 -7.9517e-001
518 0 +4.785754356e-006 +1.728700048e+002 +1.728700048e+002 +3.0425e+000 -7.9514e-001
558 0 +2.377417729e-006 +1.728700024e+002 +1.728700024e+002 +3.0319e+000 -7.9624e-001
602 0 +1.073668045e-006 +1.728700011e+002 +1.728700011e+002 +3.0326e+000 -7.9616e-001
603 0 +2.642036634e-007 +1.728700003e+002 +1.728700003e+002 +3.0321e+000 -7.9622e-001
643 0 +1.795447417e-007 +1.728700002e+002 +1.728700002e+002 +3.0320e+000 -7.9623e-001
656 0 +7.255084711e-008 +1.728700001e+002 +1.728700001e+002 +3.0301e+000 -7.9642e-001
698 0 +5.935223157e-008 +1.728700001e+002 +1.728700001e+002 +3.0301e+000 -7.9642e-001
717 0 +5.460734087e-008 +1.728700001e+002 +1.728700001e+002 +3.0301e+000 -7.9642e-001
741 0 +2.976406677e-009 +1.728700000e+002 +1.728700000e+002 +3.0277e+000 -7.9666e-001
% f evaluations | g evaluations | best noise-free fitness - Fopt (1.577200000000e+002) + sum g_i+ | measured fitness | best measured fitness or single-digit g-values | x1 | x2...
1 0 +3.959904964e+000 +1.616799050e+002 +1.616799050e+002 -3.1374e+000 +1.6686e+000
5 0 +2.115904800e+000 +1.598359048e+002 +1.598359048e+002 -1.5472e+000 +9.0998e-002
24 0 +1.954515343e+000 +1.596745153e+002 +1.596745153e+002 -3.3167e+000 +1.8731e-001
25 0 +4.547619565e-001 +1.581747620e+002 +1.581747620e+002 -2.5656e+000 -1.2908e+000
65 0 +3.888675190e-001 +1.581088675e+002 +1.581088675e+002 -2.9200e+000 -2.0605e+000
85 0 +2.569326346e-001 +1.579769326e+002 +1.579769326e+002 -2.7297e+000 -1.9871e+000
91 0 +1.667900130e-001 +1.578867900e+002 +1.578867900e+002 -2.6975e+000 -1.5497e+000
111 0 +2.106654435e-002 +1.577410665e+002 +1.577410665e+002 -2.9472e+000 -1.6612e+000
176 0 +1.123891370e-002 +1.577312389e+002 +1.577312389e+002 -2.8317e+000 -1.6913e+000
181 0 +1.248077195e-003 +1.577212481e+002 +1.577212481e+002 -2.8162e+000 -1.6861e+000
298 0 +1.132396339e-003 +1.577211324e+002 +1.577211324e+002 -2.8253e+000 -1.6804e+000
320 0 +1.091400109e-004 +1.577201091e+002 +1.577201091e+002 -2.8603e+000 -1.6692e+000
390 0 +8.531235508e-005 +1.577200853e+002 +1.577200853e+002 -2.8584e+000 -1.6701e+000
428 0 +3.631815599e-005 +1.577200363e+002 +1.577200363e+002 -2.8589e+000 -1.6699e+000
469 0 +1.439366056e-005 +1.577200144e+002 +1.577200144e+002 -2.8598e+000 -1.6695e+000
493 0 +9.105796295e-006 +1.577200091e+002 +1.577200091e+002 -2.8638e+000 -1.6681e+000
518 0 +8.615454504e-006 +1.577200086e+002 +1.577200086e+002 -2.8633e+000 -1.6683e+000
543 0 +3.972955511e-006 +1.577200040e+002 +1.577200040e+002 -2.8645e+000 -1.6679e+000
556 0 +2.121835564e-006 +1.577200021e+002 +1.577200021e+002 -2.8657e+000 -1.6675e+000
564 0 +1.671367443e-006 +1.577200017e+002 +1.577200017e+002 -2.8712e+000 -1.6655e+000
565 0 +7.357117227e-007 +1.577200007e+002 +1.577200007e+002 -2.8708e+000 -1.6657e+000
589 0 +3.632971470e-007 +1.577200004e+002 +1.577200004e+002 -2.8703e+000 -1.6658e+000
597 0 +1.269590086e-007 +1.577200001e+002 +1.577200001e+002 -2.8689e+000 -1.6663e+000
599 0 +7.158851645e-008 +1.577200001e+002 +1.577200001e+002 -2.8689e+000 -1.6663e+000
630 0 +3.006081783e-008 +1.577200000e+002 +1.577200000e+002 -2.8693e+000 -1.6662e+000
648 0 +2.814695677e-008 +1.577200000e+002 +1.577200000e+002 -2.8692e+000 -1.6662e+000
739 0 +2.515130859e-008 +1.577200000e+002 +1.577200000e+002 -2.8691e+000 -1.6662e+000
741 0 +2.403936605e-008 +1.577200000e+002 +1.577200000e+002 -2.8691e+000 -1.6663e+000
745 0 +2.333129601e-008 +1.577200000e+002 +1.577200000e+002 -2.8691e+000 -1.6663e+000
764 0 +2.232044949e-008 +1.577200000e+002 +1.577200000e+002 -2.8690e+000 -1.6663e+000
768 0 +1.456109544e-008 +1.577200000e+002 +1.577200000e+002 -2.8683e+000 -1.6665e+000
772 0 +8.123691941e-009 +1.577200000e+002 +1.577200000e+002 -2.8683e+000 -1.6665e+000
% f evaluations | g evaluations | best noise-free fitness - Fopt (2.819000000000e+001) + sum g_i+ | measured fitness | best measured fitness or single-digit g-values | x1 | x2...
1 0 +4.400662927e-001 +2.863006629e+001 +2.863006629e+001 +2.3370e+000 -2.6676e-001
21 0 +7.558847217e-002 +2.826558847e+001 +2.826558847e+001 +2.2767e+000 -6.9686e-001
40 0 +4.974879875e-002 +2.823974880e+001 +2.823974880e+001 +2.2196e+000 -7.0652e-001
60 0 +4.241317294e-002 +2.823241317e+001 +2.823241317e+001 +2.1539e+000 -6.6817e-001
88 0 +1.874266386e-002 +2.820874266e+001 +2.820874266e+001 +2.1125e+000 -7.1148e-001
133 0 +1.606621172e-002 +2.820606621e+001 +2.820606621e+001 +1.8626e+000 -7.0730e-001
152 0 +2.828006087e-003 +2.819282801e+001 +2.819282801e+001 +1.7329e+000 -7.3577e-001
253 0 +2.237515410e-003 +2.819223752e+001 +2.819223752e+001 +1.7947e+000 -7.2653e-001
280 0 +2.182446602e-003 +2.819218245e+001 +2.819218245e+001 +1.8642e+000 -7.2548e-001
281 0 +1.311417633e-003 +2.819131142e+001 +2.819131142e+001 +1.9137e+000 -7.2069e-001
289 0 +7.727741479e-004 +2.819077277e+001 +2.819077277e+001 +1.9365e+000 -7.1815e-001
306 0 +5.756024042e-004 +2.819057560e+001 +2.819057560e+001 +1.9370e+000 -7.1773e-001
318 0 +5.183132961e-004 +2.819051831e+001 +2.819051831e+001 +1.9315e+000 -7.1773e-001
368 0 +4.327412170e-004 +2.819043274e+001 +2.819043274e+001 +1.7800e+000 -7.2998e-001
381 0 +3.717181650e-004 +2.819037172e+001 +2.819037172e+001 +1.8867e+000 -7.2189e-001
401 0 +2.261459499e-004 +2.819022615e+001 +2.819022615e+001 +1.8496e+000 -7.2422e-001
429 0 +3.654514417e-005 +2.819003655e+001 +2.819003655e+001 +1.8266e+000 -7.2628e-001
452 0 +1.687962849e-005 +2.819001688e+001 +2.819001688e+001 +1.8444e+000 -7.2483e-001
522 0 +7.884486422e-006 +2.819000788e+001 +2.819000788e+001 +1.8747e+000 -7.2246e-001
590 0 +7.562658840e-006 +2.819000756e+001 +2.819000756e+001 +1.8745e+000 -7.2248e-001
617 0 +5.859743212e-006 +2.819000586e+001 +2.819000586e+001 +1.8727e+000 -7.2263e-001
621 0 +4.403311607e-006 +2.819000440e+001 +2.819000440e+001 +1.8703e+000 -7.2281e-001
640 0 +3.865486022e-006 +2.819000387e+001 +2.819000387e+001 +1.8680e+000 -7.2299e-001
642 0 +3.372852259e-006 +2.819000337e+001 +2.819000337e+001 +1.8698e+000 -7.2285e-001
665 0 +1.167982305e-006 +2.819000117e+001 +2.819000117e+001 +1.8657e+000 -7.2318e-001
680 0 +8.816780195e-007 +2.819000088e+001 +2.819000088e+001 +1.8599e+000 -7.2363e-001
685 0 +3.678955451e-007 +2.819000037e+001 +2.819000037e+001 +1.8490e+000 -7.2449e-001
686 0 +3.036850700e-007 +2.819000030e+001 +2.819000030e+001 +1.8491e+000 -7.2448e-001
687 0 +2.245180504e-007 +2.819000022e+001 +2.819000022e+001 +1.8508e+000 -7.2434e-001
697 0 +1.836321672e-007 +2.819000018e+001 +2.819000018e+001 +1.8506e+000 -7.2436e-001
719 0 +7.928551682e-008 +2.819000008e+001 +2.819000008e+001 +1.8539e+000 -7.2411e-001
727 0 +1.744111700e-008 +2.819000002e+001 +2.819000002e+001 +1.8527e+000 -7.2420e-001
777 0 +9.463683170e-009 +2.819000001e+001 +2.819000001e+001 +1.8531e+000 -7.2416e-001
% f evaluations | g evaluations | best noise-free fitness - Fopt (-9.925000000000e+001) + sum g_i+ | measured fitness | best measured fitness or single-digit g-values | x1 | x2...
1 0 +1.287040753e+002 +2.945407527e+001 +2.945407527e+001 +2.4029e+000 +2.9670e+000
3 0 +1.723675459e+000 -9.752632454e+001 -9.752632454e+001 +3.5069e+000 -2.3410e+000
6 0 +1.410704516e+000 -9.783929548e+001 -9.783929548e+001 +1.8854e+000 -5.0000e+000
7 0 +1.211855150e+000 -9.803814485e+001 -9.803814485e+001 +1.9972e+000 -2.4403e+000
8 0 +1.031789450e+000 -9.821821055e+001 -9.821821055e+001 +2.4184e+000 -4.6405e+000
10 0 +8.396499584e-001 -9.841035004e+001 -9.841035004e+001 +2.5361e+000 -4.4916e+000
22 0 +2.551055632e-001 -9.899489444e+001 -9.899489444e+001 +2.3121e+000 -4.0132e+000
26 0 +1.948700706e-001 -9.905512993e+001 -9.905512993e+001 +2.1663e+000 -3.1244e+000
62 0 +5.482377397e-002 -9.919517623e+001 -9.919517623e+001 +2.1179e+000 -3.4516e+000
119 0 +5.296519109e-002 -9.919703481e+001 -9.919703481e+001 +2.0806e+000 -3.3988e+000
130 0 +4.698368422e-002 -9.920301632e+001 -9.920301632e+001 +2.0874e+000 -3.3978e+000
139 0 +4.603127463e-002 -9.920396873e+001 -9.920396873e+001 +2.1464e+000 -3.3286e+000
147 0 +4.247900202e-002 -9.920752100e+001 -9.920752100e+001 +2.0614e+000 -3.2703e+000
148 0 +2.567624815e-002 -9.922432375e+001 -9.922432375e+001 +2.4413e+000 -3.7827e+000
169 0 +2.480266681e-002 -9.922519733e+001 -9.922519733e+001 +2.4351e+000 -3.7798e+000
177 0 +8.861338892e-003 -9.924113866e+001 -9.924113866e+001 +2.1412e+000 -3.3875e+000
185 0 +8.601361584e-003 -9.924139864e+001 -9.924139864e+001 +2.1401e+000 -3.3878e+000
255 0 +4.215279161e-003 -9.924578472e+001 -9.924578472e+001 +2.2271e+000 -3.4957e+000
266 0 +2.917278274e-003 -9.924708272e+001 -9.924708272e+001 +2.2723e+000 -3.5652e+000
302 0 +2.546662893e-003 -9.924745334e+001 -9.924745334e+001 +2.3033e+000 -3.5960e+000
349 0 +9.958862229e-005 -9.924990041e+001 -9.924990041e+001 +2.2854e+000 -3.5774e+000
400 0 +5.915650149e-005 -9.924994084e+001 -9.924994084e+001 +2.2824e+000 -3.5734e+000
451 0 +2.765669363e-005 -9.924997234e+001 -9.924997234e+001 +2.2568e+000 -3.5406e+000
490 0 +2.582208430e-005 -9.924997418e+001 -9.924997418e+001 +2.2493e+000 -3.5309e+000
498 0 +2.197878901e-005 -9.924997802e+001 -9.924997802e+001 +2.2465e+000 -3.5275e+000
505 0 +1.033057465e-005 -9.924998967e+001 -9.924998967e+001 +2.2500e+000 -3.5319e+000
520 0 +9.078216095e-006 -9.924999092e+001 -9.924999092e+001 +2.2504e+000 -3.5324e+000
567 0 +8.389899691e-006 -9.924999161e+001 -9.924999161e+001 +2.2507e+000 -3.5328e+000
579 0 +7.230139786e-006 -9.924999277e+001 -9.924999277e+001 +2.2534e+000 -3.5362e+000
606 0 +5.379479390e-006 -9.924999462e+001 -9.924999462e+001 +2.2537e+000 -3.5367e+000
661 0 +2.330268288e-006 -9.924999767e+001 -9.924999767e+001 +2.2558e+000 -3.5393e+000
678 0 +2.163394896e-006 -9.924999784e+001 -9.924999784e+001 +2.2559e+000 -3.5395e+000
688 0 +2.120919802e-006 -9.924999788e+001 -9.924999788e+001 +2.2555e+000 -3.5389e+000
709 0 +1.477479429e-006 -9.924999852e+001 -9.924999852e+001 +2.2562e+000 -3.5399e+000
718 0 +1.443987216e-006 -9.924999856e+001 -9.924999856e+001 +2.2563e+000 -3.5399e+000
721 0 +9.666981811e-007 -9.924999903e+001 -9.924999903e+001 +2.2572e+000 -3.5411e+000
726 0 +8.456791534e-007 -9.924999915e+001 -9.924999915e+001 +2.2582e+000 -3.5423e+000
742 0 +6.286537371e-007 -9.924999937e+001 -9.924999937e+001 +2.2585e+000 -3.5427e+000
767 0 +5.394541489e-007 -9.924999946e+001 -9.924999946e+001 +2.2582e+000 -3.5424e+000
774 0 +2.957503540e-007 -9.924999970e+001 -9.924999970e+001 +2.2595e+000 -3.5441e+000
791 0 +1.544592720e-007 -9.924999985e+001 -9.924999985e+001 +2.2599e+000 -3.5446e+000
834 0 +1.112865675e-007 -9.924999989e+001 -9.924999989e+001 +2.2605e+000 -3.5453e+000
838 0 +7.265323632e-008 -9.924999993e+001 -9.924999993e+001 +2.2607e+000 -3.5456e+000
844 0 +7.238696753e-008 -9.924999993e+001 -9.924999993e+001 +2.2607e+000 -3.5456e+000
846 0 +6.488436100e-008 -9.924999994e+001 -9.924999994e+001 +2.2611e+000 -3.5461e+000
849 0 +6.069082303e-008 -9.924999994e+001 -9.924999994e+001 +2.2615e+000 -3.5466e+000
850 0 +3.915155844e-008 -9.924999996e+001 -9.924999996e+001 +2.2615e+000 -3.5466e+000
861 0 +2.858966752e-008 -9.924999997e+001 -9.924999997e+001 +2.2614e+000 -3.5465e+000
869 0 +2.254343201e-008 -9.924999998e+001 -9.924999998e+001 +2.2621e+000 -3.5474e+000
880 0 +1.143719430e-008 -9.924999999e+001 -9.924999999e+001 +2.2626e+000 -3.5481e+000
883 0 +8.241016758e-009 -9.924999999e+001 -9.924999999e+001 +2.2625e+000 -3.5479e+000
