% f evaluations | g evaluations | best noise-free fitness - Fopt (1.000000000000e+003) + sum g_i+ | measured fitness | best measured fitness or single-digit g-values | x1 | x2...
1 0 +1.107057022e+003 +2.107057022e+003 +2.107057022e+003 +5.0000e+000 -5.0000e+000
3 0 +4.271397164e+002 +1.427139716e+003 +1.427139716e+003 +5.0000e+000 +5.0000e+000
4 0 +4.121895808e+002 +1.412189581e+003 +1.412189581e+003 +5.0000e+000 +4.7559e+000
7 0 +1.179071461e+002 +1.117907146e+003 +1.117907146e+003 +4.8622e+000 +5.6239e-001
11 0 +1.143440267e+002 +1.114344027e+003 +1.114344027e+003 +4.0251e+000 +1.1035e+000
16 0 +9.080079436e+001 +1.090800794e+003 +1.090800794e+003 +2.0329e+000 +2.3308e+000
18 0 +6.229562116e+001 +1.062295621e+003 +1.062295621e+003 +4.3409e-001 +2.8260e+000
21 0 +5.906995616e+001 +1.059069956e+003 +1.059069956e+003 +4.8235e-001 +2.8883e+000
23 0 +1.968023247e+001 +1.019680232e+003 +1.019680232e+003 -8.3802e-002 +1.5656e+000
25 0 +1.836896791e+001 +1.018368968e+003 +1.018368968e+003 -7.1227e-002 +1.5048e+000
40 0 +1.748045913e+001 +1.017480459e+003 +1.017480459e+003 -2.5208e-001 +5.6146e-001
48 0 +1.089008212e+001 +1.010890082e+003 +1.010890082e+003 -4.9594e+000 +3.9786e+000
66 0 +1.040354151e+001 +1.010403542e+003 +1.010403542e+003 -4.9813e+000 +3.9941e+000
69 0 +1.011090216e+001 +1.010110902e+003 +1.010110902e+003 -4.9919e+000 +4.0026e+000
74 0 +5.486864322e+000 +1.005486864e+003 +1.005486864e+003 -4.9145e+000 +4.0445e+000
80 0 +5.366271711e+000 +1.005366272e+003 +1.005366272e+003 -4.9915e+000 +4.1153e+000
99 0 +4.996533803e+000 +1.004996534e+003 +1.004996534e+003 -4.9840e+000 +4.0855e+000
531 0 +1.467259064e+000 +1.001467259e+003 +1.001467259e+003 -3.0345e+000 +3.0203e+000
550 0 +2.346613730e-001 +1.000234661e+003 +1.000234661e+003 -3.0280e+000 +2.9795e+000
557 0 +2.086914841e-001 +1.000208691e+003 +1.000208691e+003 -3.0309e+000 +2.9818e+000
560 0 +1.843071474e-001 +1.000184307e+003 +1.000184307e+003 -3.0763e+000 +3.0199e+000
566 0 +1.089521351e-001 +1.000108952e+003 +1.000108952e+003 -3.0630e+000 +3.0137e+000
601 0 +5.391871914e-002 +1.000053919e+003 +1.000053919e+003 -3.0424e+000 +2.9928e+000
618 0 +2.294986178e-002 +1.000022950e+003 +1.000022950e+003 -3.0480e+000 +2.9954e+000
634 0 +1.105287573e-002 +1.000011053e+003 +1.000011053e+003 -3.0637e+000 +3.0054e+000
646 0 +1.060730110e-002 +1.000010607e+003 +1.000010607e+003 -3.0636e+000 +3.0050e+000
649 0 +7.715914485e-004 +1.000000772e+003 +1.000000772e+003 -3.0575e+000 +3.0013e+000
651 0 +7.351561075e-004 +1.000000735e+003 +1.000000735e+003 -3.0575e+000 +3.0013e+000
662 0 +6.463108477e-004 +1.000000646e+003 +1.000000646e+003 -3.0564e+000 +3.0007e+000
670 0 +4.285102258e-004 +1.000000429e+003 +1.000000429e+003 -3.0565e+000 +3.0009e+000
684 0 +2.506317240e-004 +1.000000251e+003 +1.000000251e+003 -3.0569e+000 +3.0012e+000
686 0 +2.353566423e-004 +1.000000235e+003 +1.000000235e+003 -3.0575e+000 +3.0017e+000
688 0 +2.297405218e-004 +1.000000230e+003 +1.000000230e+003 -3.0575e+000 +3.0017e+000
711 0 +1.483786434e-005 +1.000000015e+003 +1.000000015e+003 -3.0566e+000 +3.0015e+000
752 0 +1.218427428e-005 +1.000000012e+003 +1.000000012e+003 -3.0566e+000 +3.0015e+000
765 0 +9.652524341e-006 +1.000000010e+003 +1.000000010e+003 -3.0566e+000 +3.0016e+000
777 0 +5.777460387e-006 +1.000000006e+003 +1.000000006e+003 -3.0568e+000 +3.0017e+000
782 0 +2.334091732e-006 +1.000000002e+003 +1.000000002e+003 -3.0567e+000 +3.0016e+000
783 0 +2.012630603e-006 +1.000000002e+003 +1.000000002e+003 -3.0567e+000 +3.0016e+000
784 0 +1.092062234e-006 +1.000000001e+003 +1.000000001e+003 -3.0568e+000 +3.0016e+000
789 0 +5.773465546e-007 +1.000000001e+003 +1.000000001e+003 -3.0568e+000 +3.0016e+000
798 0 +1.634277851e-007 +1.000000000e+003 +1.000000000e+003 -3.0568e+000 +3.0016e+000
819 0 +1.540408903e-007 +1.000000000e+003 +1.000000000e+003 -3.0568e+000 +3.0016e+000
823 0 +8.880385849e-008 +1.000000000e+003 +1.000000000e+003 -3.0568e+000 +3.0016e+000
828 0 +7.253856893e-008 +1.000000000e+003 +1.000000000e+003 -3.0568e+000 +3.0016e+000
842 0 +5.561651051e-008 +1.000000000e+003 +1.000000000e+003 -3.0568e+000 +3.0016e+000
856 0 +9.996028894e-009 +1.000000000e+003 +1.000000000e+003 -3.0568e+000 +3.0016e+000
% f evaluations | g evaluations | best noise-free fitness - Fopt (7.003000000000e+001) + sum g_i+ | measured fitness | best measured fitness or single-digit g-values | x1 | x2...
1 0 +3.271413909e+002 +3.971713909e+002 +3.971713909e+002 -5.0000e+000 +5.0000e+000
3 0 +1.908602477e+002 +2.608902477e+002 +2.608902477e+002 -5.0000e+000 -5.0000e+000
4 0 +1.606021605e+002 +2.306321605e+002 +2.306321605e+002 -5.0000e+000 +3.3953e+000
6 0 +4.377438968e+001 +1.138043897e+002 +1.138043897e+002 +2.9560e+000 -3.9528e+000
11 0 +2.219737772e+001 +9.222737772e+001 +9.222737772e+001 -2.8146e+000 -1.2674e+000
13 0 +9.941018595e+000 +7.997101860e+001 +7.997101860e+001 -2.6391e+000 -2.1085e+000
17 0 +6.408115030e+000 +7.643811503e+001 +7.643811503e+001 -2.5359e+000 -2.1470e+000
32 0 +4.191727627e+000 +7.422172763e+001 +7.422172763e+001 -2.5780e+000 -1.8403e+000
46 0 +4.162065727e+000 +7.419206573e+001 +7.419206573e+001 -2.5769e+000 -1.8412e+000
131 0 +4.070524358e+000 +7.410052436e+001 +7.410052436e+001 -2.5671e+000 -1.8491e+000
217 0 +3.980120060e+000 +7.401012006e+001 +7.401012006e+001 -2.5505e+000 -1.8488e+000
616 0 +3.007283892e+000 +7.303728389e+001 +7.303728389e+001 -1.8933e+000 -1.8178e+000
645 0 +2.453801472e+000 +7.248380147e+001 +7.248380147e+001 -1.8849e+000 -1.7965e+000
647 0 +2.115371037e+000 +7.214537104e+001 +7.214537104e+001 -1.9165e+000 -1.7867e+000
673 0 +2.041365464e+000 +7.207136546e+001 +7.207136546e+001 -1.9164e+000 -1.7890e+000
731 0 +1.995191960e+000 +7.202519196e+001 +7.202519196e+001 -1.9118e+000 -1.7938e+000
1172 0 +1.127451798e+000 +7.115745180e+001 +7.115745180e+001 -7.6665e-001 -2.8733e+000
1197 0 +1.118524483e+000 +7.114852448e+001 +7.114852448e+001 -7.6589e-001 -2.8740e+000
1233 0 +1.078398141e+000 +7.110839814e+001 +7.110839814e+001 -7.6171e-001 -2.8776e+000
1234 0 +1.070406600e+000 +7.110040660e+001 +7.110040660e+001 -7.5936e-001 -2.8791e+000
1248 0 +1.026640666e+000 +7.105664067e+001 +7.105664067e+001 -7.5208e-001 -2.8852e+000
1252 0 +1.017062486e+000 +7.104706249e+001 +7.104706249e+001 -7.3967e-001 -2.8940e+000
1254 0 +9.992585019e-001 +7.102925850e+001 +7.102925850e+001 -7.4478e-001 -2.8953e+000
3207 0 +4.516869948e-001 +7.048168699e+001 +7.048168699e+001 -8.0689e-001 -2.5200e+000
3287 0 +4.356579147e-001 +7.046565791e+001 +7.046565791e+001 -8.0554e-001 -2.5187e+000
3297 0 +3.809626189e-001 +7.041096262e+001 +7.041096262e+001 -8.2333e-001 -2.4935e+000
3300 0 +1.368882658e-001 +7.016688827e+001 +7.016688827e+001 -8.2453e-001 -2.5063e+000
3318 0 +9.996421301e-002 +7.012996421e+001 +7.012996421e+001 -8.3477e-001 -2.4955e+000
3320 0 +8.115499402e-002 +7.011115499e+001 +7.011115499e+001 -8.3541e-001 -2.4961e+000
3331 0 +7.571951349e-002 +7.010571951e+001 +7.010571951e+001 -8.3046e-001 -2.5036e+000
3340 0 +7.037662883e-002 +7.010037663e+001 +7.010037663e+001 -8.3091e-001 -2.5031e+000
3343 0 +4.856261938e-002 +7.007856262e+001 +7.007856262e+001 -8.3538e-001 -2.5024e+000
3345 0 +3.145474976e-003 +7.003314547e+001 +7.003314547e+001 -8.4654e-001 -2.4977e+000
3346 0 +1.931490718e-003 +7.003193149e+001 +7.003193149e+001 -8.4709e-001 -2.4970e+000
3352 0 +3.277851788e-004 +7.003032779e+001 +7.003032779e+001 -8.4980e-001 -2.4958e+000
3423 0 +2.641905258e-004 +7.003026419e+001 +7.003026419e+001 -8.5008e-001 -2.4957e+000
3424 0 +2.473380514e-004 +7.003024734e+001 +7.003024734e+001 -8.4971e-001 -2.4960e+000
3437 0 +2.435956275e-004 +7.003024360e+001 +7.003024360e+001 -8.4973e-001 -2.4959e+000
3440 0 +2.179721236e-004 +7.003021797e+001 +7.003021797e+001 -8.4989e-001 -2.4959e+000
3451 0 +1.379732907e-004 +7.003013797e+001 +7.003013797e+001 -8.4980e-001 -2.4964e+000
3453 0 +2.955690690e-005 +7.003002956e+001 +7.003002956e+001 -8.5020e-001 -2.4962e+000
3476 0 +1.988589462e-005 +7.003001989e+001 +7.003001989e+001 -8.5015e-001 -2.4961e+000
3478 0 +1.857422393e-005 +7.003001857e+001 +7.003001857e+001 -8.5016e-001 -2.4961e+000
3483 0 +6.515532831e-006 +7.003000652e+001 +7.003000652e+001 -8.5023e-001 -2.4961e+000
3500 0 +6.399314842e-006 +7.003000640e+001 +7.003000640e+001 -8.5023e-001 -2.4961e+000
3505 0 +2.661009177e-006 +7.003000266e+001 +7.003000266e+001 -8.5032e-001 -2.4960e+000
3517 0 +1.586552770e-006 +7.003000159e+001 +7.003000159e+001 -8.5040e-001 -2.4960e+000
3520 0 +1.079846768e-006 +7.003000108e+001 +7.003000108e+001 -8.5039e-001 -2.4960e+000
3539 0 +1.818692681e-007 +7.003000018e+001 +7.003000018e+001 -8.5038e-001 -2.4960e+000
3541 0 +3.425927275e-008 +7.003000003e+001 +7.003000003e+001 -8.5039e-001 -2.4960e+000
3549 0 +8.965670872e-009 +7.003000001e+001 +7.003000001e+001 -8.5039e-001 -2.4960e+000
% f evaluations | g evaluations | best noise-free fitness - Fopt (-4.822000000000e+001) + sum g_i+ | measured fitness | best measured fitness or single-digit g-values | x1 | x2...
1 0 +9.194835380e+001 +4.372835380e+001 +4.372835380e+001 -5.0000e+000 +5.0000e+000
4 0 +8.377105495e+001 +3.555105495e+001 +3.555105495e+001 -5.0000e+000 +4.6555e+000
7 0 +2.522079052e+001 -2.299920948e+001 -2.299920948e+001 -2.2177e+000 +1.4471e+000
26 0 +9.922401129e+000 -3.829759887e+001 -3.829759887e+001 -1.0606e+000 -1.1306e+000
43 0 +9.674563151e+000 -3.854543685e+001 -3.854543685e+001 -1.0592e+000 -1.1348e+000
44 0 +6.996107067e+000 -4.122389293e+001 -4.122389293e+001 -1.0336e+000 -1.1784e+000
63 0 +6.502721895e+000 -4.171727810e+001 -4.171727810e+001 -1.0062e+000 -1.2366e+000
79 0 +5.989041285e+000 -4.223095872e+001 -4.223095872e+001 -1.0351e+000 -1.2160e+000
80 0 +5.817440395e+000 -4.240255961e+001 -4.240255961e+001 -1.0056e+000 -1.2828e+000
81 0 +5.025441847e+000 -4.319455815e+001 -4.319455815e+001 -1.0205e+000 -1.2776e+000
155 0 +5.010398949e+000 -4.320960105e+001 -4.320960105e+001 -1.0211e+000 -1.2784e+000
653 0 +4.307595462e+000 -4.391240454e+001 -4.391240454e+001 -2.2411e+000 -2.9583e-001
687 0 +2.799649741e+000 -4.542035026e+001 -4.542035026e+001 -2.2559e+000 -1.2566e+000
692 0 +2.130179453e+000 -4.608982055e+001 -4.608982055e+001 -2.2411e+000 -1.3022e+000
708 0 +1.530069841e+000 -4.668993016e+001 -4.668993016e+001 -1.8252e+000 -2.1090e-001
738 0 +1.061550943e+000 -4.715844906e+001 -4.715844906e+001 -1.7886e+000 -1.6480e-001
800 0 +1.033715180e+000 -4.718628482e+001 -4.718628482e+001 -1.7881e+000 -1.5780e-001
882 0 +1.014565752e+000 -4.720543425e+001 -4.720543425e+001 -1.7807e+000 -1.4396e-001
901 0 +9.961105670e-001 -4.722388943e+001 -4.722388943e+001 -1.7661e+000 -1.1691e-001
5367 0 +3.892290207e-001 -4.783077098e+001 -4.783077098e+001 -1.8393e+000 -9.6126e-001
5395 0 +2.934505147e-001 -4.792654949e+001 -4.792654949e+001 -1.8518e+000 -9.7360e-001
5396 0 +9.886765986e-002 -4.812113234e+001 -4.812113234e+001 -1.8503e+000 -1.0010e+000
5399 0 +1.189092043e-002 -4.820810908e+001 -4.820810908e+001 -1.8450e+000 -1.0019e+000
5418 0 +2.667257750e-003 -4.821733274e+001 -4.821733274e+001 -1.8436e+000 -1.0037e+000
5430 0 +1.166348818e-003 -4.821883365e+001 -4.821883365e+001 -1.8428e+000 -1.0047e+000
5437 0 +3.478269579e-004 -4.821965217e+001 -4.821965217e+001 -1.8419e+000 -1.0081e+000
5484 0 +3.132254056e-004 -4.821968677e+001 -4.821968677e+001 -1.8419e+000 -1.0080e+000
5488 0 +1.492402918e-004 -4.821985076e+001 -4.821985076e+001 -1.8427e+000 -1.0064e+000
5489 0 +1.016174168e-004 -4.821989838e+001 -4.821989838e+001 -1.8425e+000 -1.0065e+000
5503 0 +5.997333952e-005 -4.821994003e+001 -4.821994003e+001 -1.8422e+000 -1.0076e+000
5522 0 +5.708138652e-005 -4.821994292e+001 -4.821994292e+001 -1.8423e+000 -1.0077e+000
5524 0 +5.954695531e-006 -4.821999405e+001 -4.821999405e+001 -1.8424e+000 -1.0070e+000
5544 0 +1.807656432e-006 -4.821999819e+001 -4.821999819e+001 -1.8424e+000 -1.0071e+000
5568 0 +2.423519661e-007 -4.821999976e+001 -4.821999976e+001 -1.8424e+000 -1.0072e+000
5596 0 +2.245780308e-007 -4.821999978e+001 -4.821999978e+001 -1.8424e+000 -1.0072e+000
5602 0 +2.166844482e-007 -4.821999978e+001 -4.821999978e+001 -1.8424e+000 -1.0072e+000
5603 0 +3.455979680e-008 -4.821999997e+001 -4.821999997e+001 -1.8424e+000 -1.0072e+000
5628 0 +1.854336062e-008 -4.821999998e+001 -4.821999998e+001 -1.8424e+000 -1.0072e+000
5632 0 +1.818917639e-008 -4.821999998e+001 -4.821999998e+001 -1.8424e+000 -1.0072e+000
5642 0 +1.283061124e-008 -4.821999999e+001 -4.821999999e+001 -1.8424e+000 -1.0072e+000
5651 0 +4.303970513e-010 -4.822000000e+001 -4.822000000e+001 -1.8424e+000 -1.0072e+000
% f evaluations | g evaluations | best noise-free fitness - Fopt (2.547000000000e+001) + sum g_i+ | measured fitness | best measured fitness or single-digit g-values | x1 | x2...
1 0 +1.550832560e+002 +1.805532560e+002 +1.805532560e+002 -5.0000e+000 +5.0000e+000
3 0 +1.070419510e+002 +1.325119510e+002 +1.325119510e+002 -5.0000e+000 -5.0000e+000
4 0 +1.674496649e+001 +4.221496649e+001 +4.221496649e+001 -5.0000e+000 -2.2562e+000
11 0 +4.373577103e+000 +2.984357710e+001 +2.984357710e+001 -4.4797e+000 -8.9147e-001
37 0 +3.712424659e+000 +2.918242466e+001 +2.918242466e+001 -4.4814e+000 -8.7245e-001
49 0 +2.940167880e+000 +2.841016788e+001 +2.841016788e+001 -4.4907e+000 -1.3492e+000
62 0 +2.607366057e+000 +2.807736606e+001 +2.807736606e+001 -4.5197e+000 -1.3264e+000
73 0 +2.056394649e+000 +2.752639465e+001 +2.752639465e+001 -4.5204e+000 -1.3176e+000
76 0 +1.376244914e+000 +2.684624491e+001 +2.684624491e+001 -4.5202e+000 -1.2579e+000
93 0 +1.101336810e+000 +2.657133681e+001 +2.657133681e+001 -4.5183e+000 -1.2718e+000
105 0 +1.077097371e+000 +2.654709737e+001 +2.654709737e+001 -4.5185e+000 -1.2751e+000
118 0 +1.058308586e+000 +2.652830859e+001 +2.652830859e+001 -4.5183e+000 -1.2781e+000
122 0 +1.026652207e+000 +2.649665221e+001 +2.649665221e+001 -4.5169e+000 -1.2822e+000
132 0 +1.015567218e+000 +2.648556722e+001 +2.648556722e+001 -4.5160e+000 -1.2848e+000
143 0 +9.953031701e-001 +2.646530317e+001 +2.646530317e+001 -4.5134e+000 -1.2852e+000
577 0 +2.649100094e-001 +2.573491001e+001 +2.573491001e+001 -3.8136e+000 -1.8807e+000
628 0 +1.927140723e-001 +2.566271407e+001 +2.566271407e+001 -3.8010e+000 -1.8866e+000
685 0 +1.281794004e-001 +2.559817940e+001 +2.559817940e+001 -3.7696e+000 -1.9215e+000
687 0 +1.139191256e-001 +2.558391913e+001 +2.558391913e+001 -3.7687e+000 -1.9250e+000
693 0 +7.873473575e-002 +2.554873474e+001 +2.554873474e+001 -3.7724e+000 -1.9212e+000
698 0 +1.876225899e-002 +2.548876226e+001 +2.548876226e+001 -3.7820e+000 -1.9104e+000
700 0 +1.643525444e-002 +2.548643525e+001 +2.548643525e+001 -3.7812e+000 -1.9120e+000
705 0 +1.031281043e-002 +2.548031281e+001 +2.548031281e+001 -3.7896e+000 -1.9093e+000
742 0 +1.036696681e-003 +2.547103670e+001 +2.547103670e+001 -3.7859e+000 -1.9103e+000
744 0 +6.745100418e-004 +2.547067451e+001 +2.547067451e+001 -3.7853e+000 -1.9107e+000
758 0 +5.970108149e-004 +2.547059701e+001 +2.547059701e+001 -3.7855e+000 -1.9106e+000
764 0 +5.465787478e-004 +2.547054658e+001 +2.547054658e+001 -3.7857e+000 -1.9106e+000
766 0 +4.327475039e-004 +2.547043275e+001 +2.547043275e+001 -3.7838e+000 -1.9127e+000
796 0 +2.417817322e-004 +2.547024178e+001 +2.547024178e+001 -3.7842e+000 -1.9123e+000
804 0 +2.103988786e-004 +2.547021040e+001 +2.547021040e+001 -3.7843e+000 -1.9122e+000
805 0 +1.962894643e-004 +2.547019629e+001 +2.547019629e+001 -3.7843e+000 -1.9123e+000
807 0 +1.870989922e-004 +2.547018710e+001 +2.547018710e+001 -3.7843e+000 -1.9122e+000
808 0 +1.621940354e-004 +2.547016219e+001 +2.547016219e+001 -3.7844e+000 -1.9121e+000
809 0 +3.088349678e-005 +2.547003088e+001 +2.547003088e+001 -3.7849e+000 -1.9118e+000
826 0 +1.987540564e-005 +2.547001988e+001 +2.547001988e+001 -3.7847e+000 -1.9120e+000
830 0 +1.360678887e-005 +2.547001361e+001 +2.547001361e+001 -3.7849e+000 -1.9118e+000
832 0 +1.306560620e-005 +2.547001307e+001 +2.547001307e+001 -3.7849e+000 -1.9118e+000
833 0 +4.299157705e-006 +2.547000430e+001 +2.547000430e+001 -3.7849e+000 -1.9119e+000
841 0 +3.794160424e-006 +2.547000379e+001 +2.547000379e+001 -3.7848e+000 -1.9119e+000
848 0 +2.669783740e-006 +2.547000267e+001 +2.547000267e+001 -3.7848e+000 -1.9120e+000
858 0 +1.114282529e-006 +2.547000111e+001 +2.547000111e+001 -3.7848e+000 -1.9120e+000
866 0 +1.056764074e-006 +2.547000106e+001 +2.547000106e+001 -3.7848e+000 -1.9120e+000
871 0 +5.128402591e-009 +2.547000001e+001 +2.547000001e+001 -3.7848e+000 -1.9120e+000
% f evaluations | g evaluations | best noise-free fitness - Fopt (-1.008100000000e+002) + sum g_i+ | measured fitness | best measured fitness or single-digit g-values | x1 | x2...
1 0 +1.370316288e+002 +3.622162880e+001 +3.622162880e+001 -5.0000e+000 -5.0000e+000
6 0 +1.209677334e+002 +2.015773343e+001 +2.015773343e+001 -3.9617e+000 -4.6217e+000
8 0 +8.679002134e+001 -1.401997866e+001 -1.401997866e+001 -4.0060e+000 -4.2950e+000
10 0 +7.168792975e+001 -2.912207025e+001 -2.912207025e+001 -4.0569e+000 -3.6107e+000
12 0 +6.876742855e+001 -3.204257145e+001 -3.204257145e+001 -4.1454e+000 -3.5284e+000
16 0 +6.667264146e+001 -3.413735854e+001 -3.413735854e+001 -4.1140e+000 -3.4741e+000
21 0 +6.211163703e+001 -3.869836297e+001 -3.869836297e+001 -4.2083e+000 -3.3198e+000
26 0 +5.245208124e+001 -4.835791876e+001 -4.835791876e+001 -3.8499e+000 -1.9351e+000
30 0 +5.111512431e+001 -4.969487569e+001 -4.969487569e+001 -3.9565e+000 -1.3872e+000
31 0 +4.627906152e+001 -5.453093848e+001 -5.453093848e+001 -3.6995e+000 -1.1611e-002
44 0 +3.968551212e+001 -6.112448788e+001 -6.112448788e+001 -3.8002e+000 -1.0216e+000
50 0 +3.539259168e+001 -6.541740832e+001 -6.541740832e+001 -3.8056e+000 -9.9863e-001
56 0 +3.354767856e+001 -6.726232144e+001 -6.726232144e+001 -3.8079e+000 -9.8706e-001
107 0 +3.214140585e+001 -6.866859415e+001 -6.866859415e+001 -3.8150e+000 -9.7524e-001
114 0 +2.567823897e+001 -7.513176103e+001 -7.513176103e+001 -3.4860e+000 -1.1194e+000
148 0 +2.323518144e+001 -7.757481856e+001 -7.757481856e+001 -2.9214e+000 -1.2064e+000
150 0 +2.262035676e+001 -7.818964324e+001 -7.818964324e+001 -2.9030e+000 -1.2251e+000
159 0 +2.012002085e+001 -8.068997915e+001 -8.068997915e+001 -3.0021e+000 -1.2796e+000
170 0 +1.940510422e+001 -8.140489578e+001 -8.140489578e+001 -2.4266e+000 -1.5805e+000
226 0 +1.760217389e+001 -8.320782611e+001 -8.320782611e+001 -2.3401e+000 -1.5678e+000
228 0 +1.719224124e+001 -8.361775876e+001 -8.361775876e+001 -2.3425e+000 -1.5655e+000
231 0 +1.684629552e+001 -8.396370448e+001 -8.396370448e+001 -2.3595e+000 -1.5661e+000
258 0 +1.619288039e+001 -8.461711961e+001 -8.461711961e+001 -2.3500e+000 -1.5529e+000
776 0 +1.139829770e+001 -8.941170230e+001 -8.941170230e+001 -1.2618e+000 -1.5138e-001
799 0 +7.102513713e+000 -9.370748629e+001 -9.370748629e+001 -1.4754e-001 -6.8459e-001
802 0 +5.164722611e+000 -9.564527739e+001 -9.564527739e+001 +1.0021e+000 +4.3344e-001
839 0 +4.188790307e+000 -9.662120969e+001 -9.662120969e+001 +8.5258e-001 +4.3131e-001
852 0 +3.222807570e+000 -9.758719243e+001 -9.758719243e+001 +8.8463e-001 +4.2268e-001
854 0 +2.855369730e+000 -9.795463027e+001 -9.795463027e+001 +8.8523e-001 +4.3184e-001
860 0 +1.700577641e+000 -9.910942236e+001 -9.910942236e+001 +9.0983e-001 +4.5200e-001
866 0 +6.942133075e-001 -1.001157867e+002 -1.001157867e+002 +9.6103e-001 +4.5683e-001
890 0 +5.509213319e-001 -1.002590787e+002 -1.002590787e+002 +1.0162e+000 +4.8253e-001
892 0 +2.041376428e-001 -1.006058624e+002 -1.006058624e+002 +9.6320e-001 +4.7753e-001
911 0 +1.052148584e-001 -1.007047851e+002 -1.007047851e+002 +9.7328e-001 +4.8381e-001
915 0 +9.350417953e-002 -1.007164958e+002 -1.007164958e+002 +9.7333e-001 +4.8280e-001
916 0 +6.867988193e-002 -1.007413201e+002 -1.007413201e+002 +1.0072e+000 +4.9773e-001
918 0 +5.630388310e-002 -1.007536961e+002 -1.007536961e+002 +9.7847e-001 +4.8454e-001
925 0 +5.094699938e-002 -1.007590530e+002 -1.007590530e+002 +9.7954e-001 +4.8523e-001
938 0 +3.128103969e-002 -1.007787190e+002 -1.007787190e+002 +9.8118e-001 +4.8454e-001
946 0 +1.024531265e-002 -1.007997547e+002 -1.007997547e+002 +9.9846e-001 +4.9008e-001
949 0 +9.374258403e-003 -1.008006257e+002 -1.008006257e+002 +9.8988e-001 +4.8472e-001
951 0 +7.469517742e-003 -1.008025305e+002 -1.008025305e+002 +9.8898e-001 +4.8476e-001
958 0 +2.133615086e-003 -1.008078664e+002 -1.008078664e+002 +9.9052e-001 +4.8841e-001
963 0 +8.496719702e-004 -1.008091503e+002 -1.008091503e+002 +9.9273e-001 +4.8905e-001
984 0 +2.216717390e-005 -1.008099778e+002 -1.008099778e+002 +9.9174e-001 +4.8782e-001
1031 0 +2.155237843e-005 -1.008099784e+002 -1.008099784e+002 +9.9201e-001 +4.8813e-001
1035 0 +1.174707084e-005 -1.008099883e+002 -1.008099883e+002 +9.9217e-001 +4.8802e-001
1038 0 +9.716133945e-006 -1.008099903e+002 -1.008099903e+002 +9.9221e-001 +4.8807e-001
1042 0 +1.014375201e-006 -1.008099990e+002 -1.008099990e+002 +9.9206e-001 +4.8803e-001
1069 0 +3.788318708e-007 -1.008099996e+002 -1.008099996e+002 +9.9203e-001 +4.8802e-001
1083 0 +7.147835390e-008 -1.008099999e+002 -1.008099999e+002 +9.9201e-001 +4.8800e-001
1085 0 +2.292979673e-008 -1.008100000e+002 -1.008100000e+002 +9.9201e-001 +4.8800e-001
1086 0 +1.997861432e-009 -1.008100000e+002 -1.008100000e+002 +9.9200e-001 +4.8800e-001
% f evaluations | g evaluations | best noise-free fitness - Fopt (-3.531300000000e+002) + sum g_i+ | measured fitness | best measured fitness or single-digit g-values | x1 | x2...
1 0 +2.763174852e+002 -7.681251476e+001 -7.681251476e+001 +5.0000e+000 -5.0000e+000
4 0 +2.444812966e+002 -1.086487034e+002 -1.086487034e+002 +5.0000e+000 -4.5005e+000
5 0 +1.306591265e+002 -2.224708735e+002 -2.224708735e+002 +5.0000e+000 +2.6667e+000
6 0 +7.547140998e+001 -2.776585900e+002 -2.776585900e+002 +4.6878e+000 -1.4055e+000
7 0 +5.386610246e+001 -2.992638975e+002 -2.992638975e+002 +5.0000e+000 -1.9955e-001
8 0 +5.320386900e+001 -2.999261310e+002 -2.999261310e+002 +5.0000e+000 -1.1461e+000
13 0 +4.476600099e+001 -3.083639990e+002 -3.083639990e+002 +4.1434e+000 -2.0871e-001
15 0 +4.386669246e+001 -3.092633075e+002 -3.092633075e+002 +4.1447e+000 -2.1818e-001
38 0 +4.292954161e+001 -3.102004584e+002 -3.102004584e+002 +3.1859e+000 -2.3390e-001
40 0 +3.952361839e+001 -3.136063816e+002 -3.136063816e+002 +3.4005e+000 +1.2853e-001
54 0 +3.582175585e+001 -3.173082441e+002 -3.173082441e+002 +3.6204e+000 +1.3587e-001
65 0 +3.475963081e+001 -3.183703692e+002 -3.183703692e+002 +3.5903e+000 +1.3767e-001
67 0 +3.405193095e+001 -3.190780691e+002 -3.190780691e+002 +3.5319e+000 +1.3486e-001
121 0 +3.386218582e+001 -3.192678142e+002 -3.192678142e+002 +3.5328e+000 +1.4698e-001
172 0 +2.851541500e+001 -3.246145850e+002 -3.246145850e+002 +2.7267e+000 +1.3385e-001
173 0 +2.722197215e+001 -3.259080278e+002 -3.259080278e+002 +2.7388e+000 +1.2421e-001
192 0 +2.669959093e+001 -3.264304091e+002 -3.264304091e+002 +2.7250e+000 +1.1809e-001
193 0 +2.535977294e+001 -3.277702271e+002 -3.277702271e+002 +2.7418e+000 +9.4632e-002
240 0 +2.500039248e+001 -3.281296075e+002 -3.281296075e+002 +2.7653e+000 +9.2020e-002
657 0 +2.247896964e+001 -3.306510304e+002 -3.306510304e+002 +2.8903e-001 -7.4139e-001
670 0 +1.974388720e+001 -3.333861128e+002 -3.333861128e+002 +3.5744e-001 -3.2585e-001
671 0 +1.770618487e+001 -3.354238151e+002 -3.354238151e+002 +3.5744e-001 -3.3899e-001
686 0 +1.605195751e+001 -3.370780425e+002 -3.370780425e+002 +6.6828e-001 -4.7657e-001
703 0 +1.336096569e+001 -3.397690343e+002 -3.397690343e+002 +4.5180e-001 -5.5723e-002
715 0 +1.301869224e+001 -3.401113078e+002 -3.401113078e+002 +5.4601e-001 +4.9844e-001
719 0 +9.822290901e+000 -3.433077091e+002 -3.433077091e+002 -3.3360e-001 +4.3989e-001
734 0 +8.324783971e+000 -3.448052160e+002 -3.448052160e+002 -8.5130e-001 -4.3997e-002
743 0 +5.012116494e+000 -3.481178835e+002 -3.481178835e+002 -9.5793e-001 -5.1095e-002
803 0 +4.085217917e+000 -3.490447821e+002 -3.490447821e+002 -9.7142e-001 -7.1642e-002
817 0 +3.811408086e+000 -3.493185919e+002 -3.493185919e+002 -1.3906e+000 +1.4780e-001
818 0 +1.516054098e+000 -3.516139459e+002 -3.516139459e+002 -1.4469e+000 +1.3606e-001
823 0 +1.286398489e+000 -3.518436015e+002 -3.518436015e+002 -1.4599e+000 +1.3634e-001
842 0 +1.164433255e+000 -3.519655667e+002 -3.519655667e+002 -1.4762e+000 +1.3035e-001
862 0 +9.962393231e-001 -3.521337607e+002 -3.521337607e+002 -1.4981e+000 +1.3641e-001
4052 0 +4.180082702e-001 -3.527119917e+002 -3.527119917e+002 -2.2039e+000 +4.8667e-001
4083 0 +3.391126004e-001 -3.527908874e+002 -3.527908874e+002 -2.1667e+000 +4.8352e-001
4089 0 +2.029151137e-001 -3.529270849e+002 -3.529270849e+002 -2.1529e+000 +4.9996e-001
4091 0 +1.004377759e-002 -3.531199562e+002 -3.531199562e+002 -2.1732e+000 +4.9645e-001
4094 0 +3.426682935e-004 -3.531296573e+002 -3.531296573e+002 -2.1787e+000 +4.9764e-001
4154 0 +2.009296054e-006 -3.531299980e+002 -3.531299980e+002 -2.1801e+000 +4.9764e-001
4218 0 +6.385768643e-007 -3.531299994e+002 -3.531299994e+002 -2.1800e+000 +4.9761e-001
4252 0 +4.622983738e-007 -3.531299995e+002 -3.531299995e+002 -2.1800e+000 +4.9761e-001
4255 0 +4.215282843e-007 -3.531299996e+002 -3.531299996e+002 -2.1800e+000 +4.9761e-001
4261 0 +1.430655061e-007 -3.531299999e+002 -3.531299999e+002 -2.1800e+000 +4.9760e-001
4263 0 +7.348626241e-008 -3.531299999e+002 -3.531299999e+002 -2.1800e+000 +4.9760e-001
4284 0 +4.120619224e-008 -3.531300000e+002 -3.531300000e+002 -2.1800e+000 +4.9760e-001
4286 0 +3.840779073e-008 -3.531300000e+002 -3.531300000e+002 -2.1800e+000 +4.9760e-001
4287 0 +3.783407010e-008 -3.531300000e+002 -3.531300000e+002 -2.1800e+000 +4.9760e-001
4294 0 +2.857717618e-008 -3.531300000e+002 -3.531300000e+002 -2.1800e+000 +4.9760e-001
4304 0 +7.231449217e-009 -3.531300000e+002 -3.531300000e+002 -2.1800e+000 +4.9760e-001
% f evaluations | g evaluations | best noise-free fitness - Fopt (8.716000000000e+001) + sum g_i+ | measured fitness | best measured fitness or single-digit g-values | x1 | x2...
1 0 +1.187662999e+003 +1.274822999e+003 +1.274822999e+003 +5.0000e+000 -5.0000e+000
3 0 +2.674447404e+002 +3.546047404e+002 +3.546047404e+002 +5.0000e+000 +5.0000e+000
4 0 +5.077099511e+001 +1.379309951e+002 +1.379309951e+002 +5.0000e+000 +7.1786e-001
14 0 +4.141752935e+001 +1.285775294e+002 +1.285775294e+002 +3.6794e+000 +1.6673e+000
25 0 +2.637547832e+001 +1.135354783e+002 +1.135354783e+002 +3.6794e+000 +5.5647e-001
30 0 +2.585264411e+001 +1.130126441e+002 +1.130126441e+002 +4.6620e+000 +9.7035e-002
35 0 +1.687682418e+001 +1.040368242e+002 +1.040368242e+002 +2.3894e+000 +3.4866e-001
36 0 +7.829977246e+000 +9.498997725e+001 +9.498997725e+001 +2.6448e+000 +7.8651e-002
61 0 +5.640817922e+000 +9.280081792e+001 +9.280081792e+001 +2.7751e+000 +4.4530e-002
91 0 +4.164782438e+000 +9.132478244e+001 +9.132478244e+001 +2.7013e+000 +4.7834e-002
101 0 +4.068695915e+000 +9.122869591e+001 +9.122869591e+001 +2.7038e+000 +4.3587e-002
103 0 +3.798573545e+000 +9.095857354e+001 +9.095857354e+001 +2.5987e+000 +6.9727e-002
104 0 +3.523019154e+000 +9.068301915e+001 +9.068301915e+001 +2.6427e+000 +4.3209e-002
118 0 +3.236257450e+000 +9.039625745e+001 +9.039625745e+001 +2.6283e+000 +4.7647e-002
122 0 +3.027527175e+000 +9.018752717e+001 +9.018752717e+001 +2.6171e+000 +5.0679e-002
124 0 +2.124770116e+000 +8.928477012e+001 +8.928477012e+001 +2.5690e+000 +6.5913e-002
128 0 +2.066213391e+000 +8.922621339e+001 +8.922621339e+001 +2.5658e+000 +6.2648e-002
215 0 +2.036758554e+000 +8.919675855e+001 +8.919675855e+001 +2.5552e+000 +7.2096e-002
226 0 +1.990438476e+000 +8.915043848e+001 +8.915043848e+001 +2.5543e+000 +6.9581e-002
1365 0 +1.040559445e+000 +8.820055944e+001 +8.820055944e+001 +2.1465e+000 +1.2436e+000
1378 0 +1.016731494e+000 +8.817673149e+001 +8.817673149e+001 +2.1463e+000 +1.2469e+000
1415 0 +9.986848926e-001 +8.815868489e+001 +8.815868489e+001 +2.1421e+000 +1.2507e+000
1802 0 +5.942564863e-001 +8.775425649e+001 +8.775425649e+001 +1.9240e+000 +1.0193e+000
1808 0 +5.840187843e-001 +8.774401878e+001 +8.774401878e+001 +1.9241e+000 +1.0180e+000
1847 0 +4.780668824e-001 +8.763806688e+001 +8.763806688e+001 +1.9320e+000 +1.0198e+000
1869 0 +4.442842165e-001 +8.760428422e+001 +8.760428422e+001 +1.9308e+000 +1.0177e+000
1877 0 +3.698866037e-001 +8.752988660e+001 +8.752988660e+001 +1.9338e+000 +1.0160e+000
1889 0 +1.447892281e-001 +8.730478923e+001 +8.730478923e+001 +1.9449e+000 +1.0057e+000
1890 0 +1.260135407e-001 +8.728601354e+001 +8.728601354e+001 +1.9465e+000 +1.0046e+000
1895 0 +1.227013267e-001 +8.728270133e+001 +8.728270133e+001 +1.9467e+000 +1.0043e+000
1897 0 +1.366728384e-002 +8.717366728e+001 +8.717366728e+001 +1.9592e+000 +9.9305e-001
1915 0 +1.155073357e-002 +8.717155073e+001 +8.717155073e+001 +1.9600e+000 +9.9294e-001
1925 0 +7.198494531e-003 +8.716719849e+001 +8.716719849e+001 +1.9666e+000 +9.8686e-001
1926 0 +2.754374188e-003 +8.716275437e+001 +8.716275437e+001 +1.9688e+000 +9.8698e-001
1930 0 +2.319998572e-003 +8.716232000e+001 +8.716232000e+001 +1.9636e+000 +9.9172e-001
1931 0 +1.461916574e-003 +8.716146192e+001 +8.716146192e+001 +1.9679e+000 +9.8783e-001
1946 0 +1.437454750e-003 +8.716143745e+001 +8.716143745e+001 +1.9679e+000 +9.8784e-001
2004 0 +1.278625666e-003 +8.716127863e+001 +8.716127863e+001 +1.9678e+000 +9.8789e-001
2007 0 +7.737389628e-004 +8.716077374e+001 +8.716077374e+001 +1.9670e+000 +9.8854e-001
2012 0 +6.726976407e-004 +8.716067270e+001 +8.716067270e+001 +1.9677e+000 +9.8839e-001
2021 0 +5.967030541e-004 +8.716059670e+001 +8.716059670e+001 +1.9676e+000 +9.8851e-001
2030 0 +1.364322013e-004 +8.716013643e+001 +8.716013643e+001 +1.9671e+000 +9.8925e-001
2039 0 +3.603085412e-005 +8.716003603e+001 +8.716003603e+001 +1.9663e+000 +9.8953e-001
2071 0 +2.848151892e-005 +8.716002848e+001 +8.716002848e+001 +1.9664e+000 +9.8947e-001
2073 0 +2.422387634e-005 +8.716002422e+001 +8.716002422e+001 +1.9663e+000 +9.8951e-001
2075 0 +2.344229927e-005 +8.716002344e+001 +8.716002344e+001 +1.9664e+000 +9.8951e-001
2088 0 +2.330852332e-005 +8.716002331e+001 +8.716002331e+001 +1.9661e+000 +9.8984e-001
2089 0 +7.894971645e-006 +8.716000789e+001 +8.716000789e+001 +1.9663e+000 +9.8972e-001
2106 0 +6.443974897e-006 +8.716000644e+001 +8.716000644e+001 +1.9663e+000 +9.8970e-001
2109 0 +4.417099120e-006 +8.716000442e+001 +8.716000442e+001 +1.9665e+000 +9.8956e-001
2111 0 +1.714100449e-006 +8.716000171e+001 +8.716000171e+001 +1.9665e+000 +9.8955e-001
2125 0 +5.082025751e-007 +8.716000051e+001 +8.716000051e+001 +1.9664e+000 +9.8963e-001
2136 0 +3.607819821e-007 +8.716000036e+001 +8.716000036e+001 +1.9664e+000 +9.8963e-001
2141 0 +3.238776713e-007 +8.716000032e+001 +8.716000032e+001 +1.9664e+000 +9.8963e-001
2160 0 +2.586611174e-007 +8.716000026e+001 +8.716000026e+001 +1.9664e+000 +9.8962e-001
2165 0 +3.021827411e-008 +8.716000003e+001 +8.716000003e+001 +1.9664e+000 +9.8960e-001
2174 0 +2.586192238e-008 +8.716000003e+001 +8.716000003e+001 +1.9664e+000 +9.8960e-001
2182 0 +2.476085115e-008 +8.716000002e+001 +8.716000002e+001 +1.9664e+000 +9.8960e-001
2205 0 +5.118863555e-009 +8.716000001e+001 +8.716000001e+001 +1.9664e+000 +9.8960e-001
% f evaluations | g evaluations | best noise-free fitness - Fopt (-3.475000000000e+001) + sum g_i+ | measured fitness | best measured fitness or single-digit g-values | x1 | x2...
1 0 +6.367477843e+002 +6.019977843e+002 +6.019977843e+002 +5.0000e+000 -5.0000e+000
3 0 +2.971313794e+001 -5.036862056e+000 -5.036862056e+000 +5.0000e+000 +5.0000e+000
5 0 +1.665015328e+001 -1.809984672e+001 -1.809984672e+001 +3.7873e+000 +2.7357e+000
7 0 +1.539506493e+001 -1.935493507e+001 -1.935493507e+001 +5.0000e+000 +3.5963e+000
11 0 +1.326959562e+001 -2.148040438e+001 -2.148040438e+001 +4.0636e+000 +3.4586e+000
12 0 +5.252383652e+000 -2.949761635e+001 -2.949761635e+001 +4.2551e+000 +3.6301e+000
69 0 +5.209401395e+000 -2.954059861e+001 -2.954059861e+001 +4.2537e+000 +3.6308e+000
92 0 +5.108081455e+000 -2.964191854e+001 -2.964191854e+001 +4.2472e+000 +3.6301e+000
147 0 +5.004736695e+000 -2.974526330e+001 -2.974526330e+001 +4.2332e+000 +3.6236e+000
545 0 +4.876975951e+000 -2.987302405e+001 -2.987302405e+001 +2.9948e+000 +2.3435e+000
558 0 +4.368175923e+000 -3.038182408e+001 -3.038182408e+001 +3.0115e+000 +2.3436e+000
571 0 +4.123721860e+000 -3.062627814e+001 -3.062627814e+001 +2.9681e+000 +2.3231e+000
585 0 +4.067866271e+000 -3.068213373e+001 -3.068213373e+001 +2.9912e+000 +2.3324e+000
615 0 +2.952851993e+000 -3.179714801e+001 -3.179714801e+001 +2.9902e+000 +2.3109e+000
616 0 +2.709284830e+000 -3.204071517e+001 -3.204071517e+001 +2.9226e+000 +2.2743e+000
627 0 +2.509927128e+000 -3.224007287e+001 -3.224007287e+001 +2.9151e+000 +2.2627e+000
630 0 +2.435792219e+000 -3.231420778e+001 -3.231420778e+001 +2.8875e+000 +2.2201e+000
647 0 +2.263523495e+000 -3.248647651e+001 -3.248647651e+001 +2.9787e+000 +2.2571e+000
650 0 +2.096054347e+000 -3.265394565e+001 -3.265394565e+001 +2.9580e+000 +2.2459e+000
668 0 +2.031402322e+000 -3.271859768e+001 -3.271859768e+001 +2.9415e+000 +2.2557e+000
677 0 +1.990578288e+000 -3.275942171e+001 -3.275942171e+001 +2.9397e+000 +2.2446e+000
2171 0 +1.645322036e+000 -3.310467796e+001 -3.310467796e+001 +2.5972e+000 +2.8662e+000
2716 0 +1.534470773e+000 -3.321552923e+001 -3.321552923e+001 +2.5778e+000 +2.8675e+000
2733 0 +1.507502930e+000 -3.324249707e+001 -3.324249707e+001 +2.5840e+000 +2.8675e+000
2767 0 +1.012764528e+000 -3.373723547e+001 -3.373723547e+001 +2.5479e+000 +2.8377e+000
2789 0 +9.996283662e-001 -3.375037163e+001 -3.375037163e+001 +2.5435e+000 +2.8377e+000
6326 0 +5.973477871e-001 -3.415265221e+001 -3.415265221e+001 +2.3040e+000 +2.3296e+000
6391 0 +4.313206312e-001 -3.431867937e+001 -3.431867937e+001 +2.3138e+000 +2.3380e+000
6402 0 +2.722346150e-001 -3.447776538e+001 -3.447776538e+001 +2.3126e+000 +2.3419e+000
6411 0 +1.640441187e-001 -3.458595588e+001 -3.458595588e+001 +2.3029e+000 +2.3441e+000
6414 0 +9.249368582e-002 -3.465750631e+001 -3.465750631e+001 +2.3267e+000 +2.3536e+000
6428 0 +1.712683660e-002 -3.473287316e+001 -3.473287316e+001 +2.3396e+000 +2.3686e+000
6429 0 +3.716550451e-003 -3.474628345e+001 -3.474628345e+001 +2.3276e+000 +2.3616e+000
6469 0 +3.324550280e-003 -3.474667545e+001 -3.474667545e+001 +2.3297e+000 +2.3617e+000
6478 0 +2.873317850e-003 -3.474712668e+001 -3.474712668e+001 +2.3301e+000 +2.3620e+000
6490 0 +2.273316385e-003 -3.474772668e+001 -3.474772668e+001 +2.3306e+000 +2.3625e+000
6493 0 +1.128105024e-003 -3.474887189e+001 -3.474887189e+001 +2.3311e+000 +2.3630e+000
6494 0 +1.045403831e-003 -3.474895460e+001 -3.474895460e+001 +2.3304e+000 +2.3643e+000
6506 0 +2.922814660e-004 -3.474970772e+001 -3.474970772e+001 +2.3304e+000 +2.3639e+000
6532 0 +1.148651393e-004 -3.474988513e+001 -3.474988513e+001 +2.3311e+000 +2.3642e+000
6551 0 +3.060798065e-005 -3.474996939e+001 -3.474996939e+001 +2.3315e+000 +2.3642e+000
6554 0 +2.082950567e-005 -3.474997917e+001 -3.474997917e+001 +2.3313e+000 +2.3642e+000
6577 0 +7.000731017e-008 -3.474999993e+001 -3.474999993e+001 +2.3312e+000 +2.3640e+000
6607 0 +5.569298622e-008 -3.474999994e+001 -3.474999994e+001 +2.3312e+000 +2.3640e+000
6629 0 +1.853368303e-008 -3.474999998e+001 -3.474999998e+001 +2.3312e+000 +2.3640e+000
6653 0 +1.008845629e-008 -3.474999999e+001 -3.474999999e+001 +2.3312e+000 +2.3640e+000
6661 0 +1.996006915e-009 -3.475000000e+001 -3.475000000e+001 +2.3312e+000 +2.3640e+000
% f evaluations | g evaluations | best noise-free fitness - Fopt (-1.000000000000e+003) + sum g_i+ | measured fitness | best measured fitness or single-digit g-values | x1 | x2...
1 0 +1.728550053e+003 +7.285500530e+002 +7.285500530e+002 +5.0000e+000 +5.0000e+000
2 0 +2.811647848e+002 -7.188352152e+002 -7.188352152e+002 -5.0000e+000 +5.0000e+000
4 0 +8.420401971e+001 -9.157959803e+002 -9.157959803e+002 -5.0000e+000 -5.0000e+000
7 0 +2.601651504e+001 -9.739834850e+002 -9.739834850e+002 -1.7747e+000 -5.0000e+000
10 0 +2.429388871e+001 -9.757061113e+002 -9.757061113e+002 -1.8185e+000 -4.4043e+000
21 0 +8.698532430e+000 -9.913014676e+002 -9.913014676e+002 -2.7404e+000 -4.8243e+000
40 0 +4.058057012e+000 -9.959419430e+002 -9.959419430e+002 -2.9492e+000 -4.2534e+000
47 0 +3.039152762e+000 -9.969608472e+002 -9.969608472e+002 -2.9333e+000 -4.1827e+000
67 0 +2.598944254e+000 -9.974010557e+002 -9.974010557e+002 -2.9403e+000 -4.1827e+000
72 0 +2.037687495e+000 -9.979623125e+002 -9.979623125e+002 -2.9527e+000 -4.1932e+000
106 0 +1.994902884e+000 -9.980050971e+002 -9.980050971e+002 -2.9620e+000 -4.1830e+000
607 0 +1.921500180e+000 -9.980784998e+002 -9.980784998e+002 -3.7145e+000 -3.3009e+000
632 0 +9.759760268e-001 -9.990240240e+002 -9.990240240e+002 -3.7538e+000 -3.2056e+000
652 0 +6.583324423e-002 -9.999341668e+002 -9.999341668e+002 -3.7561e+000 -3.2405e+000
687 0 +5.571766630e-002 -9.999442823e+002 -9.999442823e+002 -3.7517e+000 -3.2416e+000
695 0 +3.662000341e-002 -9.999633800e+002 -9.999633800e+002 -3.7524e+000 -3.2385e+000
702 0 +1.073143774e-002 -9.999892686e+002 -9.999892686e+002 -3.7572e+000 -3.2344e+000
710 0 +9.670394132e-003 -9.999903296e+002 -9.999903296e+002 -3.7567e+000 -3.2340e+000
715 0 +8.117957594e-003 -9.999918820e+002 -9.999918820e+002 -3.7577e+000 -3.2339e+000
719 0 +5.201145726e-003 -9.999947989e+002 -9.999947989e+002 -3.7601e+000 -3.2280e+000
734 0 +4.835070792e-003 -9.999951649e+002 -9.999951649e+002 -3.7587e+000 -3.2297e+000
758 0 +3.908971261e-003 -9.999960910e+002 -9.999960910e+002 -3.7585e+000 -3.2306e+000
762 0 +8.617974109e-004 -9.999991382e+002 -9.999991382e+002 -3.7610e+000 -3.2302e+000
766 0 +7.305732220e-004 -9.999992694e+002 -9.999992694e+002 -3.7609e+000 -3.2302e+000
772 0 +5.412380056e-004 -9.999994588e+002 -9.999994588e+002 -3.7608e+000 -3.2301e+000
788 0 +4.280064579e-004 -9.999995720e+002 -9.999995720e+002 -3.7617e+000 -3.2280e+000
792 0 +6.297236041e-005 -9.999999370e+002 -9.999999370e+002 -3.7614e+000 -3.2292e+000
816 0 +1.281161644e-006 -9.999999987e+002 -9.999999987e+002 -3.7615e+000 -3.2288e+000
820 0 +1.005072477e-006 -9.999999990e+002 -9.999999990e+002 -3.7616e+000 -3.2288e+000
823 0 +8.870556485e-007 -9.999999991e+002 -9.999999991e+002 -3.7616e+000 -3.2288e+000
843 0 +1.069826112e-007 -9.999999999e+002 -9.999999999e+002 -3.7616e+000 -3.2288e+000
857 0 +9.759446584e-009 -1.000000000e+003 -1.000000000e+003 -3.7616e+000 -3.2288e+000
% f evaluations | g evaluations | best noise-free fitness - Fopt (-9.247000000000e+001) + sum g_i+ | measured fitness | best measured fitness or single-digit g-values | x1 | x2...
1 0 +2.553400899e+002 +1.628700899e+002 +1.628700899e+002 +5.0000e+000 -5.0000e+000
5 0 +2.278083403e+002 +1.353383403e+002 +1.353383403e+002 -1.5138e+000 -5.0000e+000
7 0 +2.740221306e+001 -6.506778694e+001 -6.506778694e+001 +8.3103e-001 -9.7452e-001
30 0 +2.147192382e+001 -7.099807618e+001 -7.099807618e+001 -1.2125e-001 +4.3680e-001
33 0 +1.920953971e+001 -7.326046029e+001 -7.326046029e+001 +2.8236e-001 -1.4292e+000
40 0 +1.688583857e+001 -7.558416143e+001 -7.558416143e+001 +2.6715e-001 -9.0705e-001
51 0 +1.641835259e+001 -7.605164741e+001 -7.605164741e+001 +2.6339e-001 -9.2630e-001
55 0 +7.308905484e+000 -8.516109452e+001 -8.516109452e+001 +1.0156e+000 +1.1688e-001
62 0 +5.251525415e+000 -8.721847459e+001 -8.721847459e+001 +1.0607e+000 +4.0016e-002
112 0 +5.027263027e+000 -8.744273697e+001 -8.744273697e+001 +1.0420e+000 +4.0639e-002
119 0 +4.980995014e+000 -8.748900499e+001 -8.748900499e+001 +1.0223e+000 +5.5571e-002
604 0 +1.869984368e+000 -9.060001563e+001 -9.060001563e+001 +3.5153e+000 -3.9793e-001
618 0 +1.664061323e+000 -9.080593868e+001 -9.080593868e+001 +3.5425e+000 -3.9847e-001
633 0 +1.283797802e+000 -9.118620220e+001 -9.118620220e+001 +3.5485e+000 -4.0763e-001
646 0 +1.184801441e+000 -9.128519856e+001 -9.128519856e+001 +3.5656e+000 -4.3858e-001
648 0 +1.014028967e+000 -9.145597103e+001 -9.145597103e+001 +3.5603e+000 -4.2897e-001
664 0 +9.977942716e-001 -9.147220573e+001 -9.147220573e+001 +3.5578e+000 -4.2492e-001
2103 0 +5.493204681e-001 -9.192067953e+001 -9.192067953e+001 +2.8515e+000 -1.9664e-001
2123 0 +4.860934618e-001 -9.198390654e+001 -9.198390654e+001 +2.8379e+000 -1.9921e-001
2159 0 +3.334186883e-002 -9.243665813e+001 -9.243665813e+001 +2.8784e+000 -2.0404e-001
2160 0 +2.756144250e-002 -9.244243856e+001 -9.244243856e+001 +2.8776e+000 -2.0451e-001
2177 0 +2.734230389e-002 -9.244265770e+001 -9.244265770e+001 +2.8776e+000 -2.0454e-001
2182 0 +1.136620751e-002 -9.245863379e+001 -9.245863379e+001 +2.8890e+000 -2.0596e-001
2191 0 +3.279789795e-003 -9.246672021e+001 -9.246672021e+001 +2.8862e+000 -2.0844e-001
2202 0 +1.399028645e-003 -9.246860097e+001 -9.246860097e+001 +2.8818e+000 -2.0723e-001
2226 0 +1.133752717e-003 -9.246886625e+001 -9.246886625e+001 +2.8818e+000 -2.0731e-001
2231 0 +4.413953184e-005 -9.246995586e+001 -9.246995586e+001 +2.8829e+000 -2.0797e-001
2248 0 +1.790139534e-005 -9.246998210e+001 -9.246998210e+001 +2.8821e+000 -2.0804e-001
2251 0 +1.513643070e-005 -9.246998486e+001 -9.246998486e+001 +2.8821e+000 -2.0803e-001
2296 0 +1.511671799e-005 -9.246998488e+001 -9.246998488e+001 +2.8821e+000 -2.0804e-001
2298 0 +1.023100818e-005 -9.246998977e+001 -9.246998977e+001 +2.8823e+000 -2.0806e-001
2314 0 +8.685633972e-006 -9.246999131e+001 -9.246999131e+001 +2.8822e+000 -2.0804e-001
2316 0 +8.145335585e-006 -9.246999185e+001 -9.246999185e+001 +2.8822e+000 -2.0799e-001
2322 0 +6.388456129e-006 -9.246999361e+001 -9.246999361e+001 +2.8823e+000 -2.0804e-001
2323 0 +5.560170280e-008 -9.246999994e+001 -9.246999994e+001 +2.8824e+000 -2.0800e-001
2364 0 +5.098577560e-008 -9.246999995e+001 -9.246999995e+001 +2.8824e+000 -2.0800e-001
2380 0 +1.083841994e-008 -9.246999999e+001 -9.246999999e+001 +2.8824e+000 -2.0800e-001
2394 0 +8.057085665e-009 -9.246999999e+001 -9.246999999e+001 +2.8824e+000 -2.0800e-001
% f evaluations | g evaluations | best noise-free fitness - Fopt (-2.153000000000e+002) + sum g_i+ | measured fitness | best measured fitness or single-digit g-values | x1 | x2...
1 0 +6.468724270e+002 +4.315724270e+002 +4.315724270e+002 +5.0000e+000 +5.0000e+000
2 0 +5.080393642e+001 -1.644960636e+002 -1.644960636e+002 -5.0000e+000 +5.0000e+000
5 0 +2.429515437e+001 -1.910048456e+002 -1.910048456e+002 -3.5419e+000 +3.2836e+000
8 0 +1.514411974e+001 -2.001558803e+002 -2.001558803e+002 -2.5368e+000 +2.5941e+000
36 0 +6.864760365e+000 -2.084352396e+002 -2.084352396e+002 -2.6729e+000 +3.4988e+000
37 0 +2.908349346e+000 -2.123916507e+002 -2.123916507e+002 -2.7482e+000 +4.2625e+000
42 0 +2.110125029e+000 -2.131898750e+002 -2.131898750e+002 -2.6587e+000 +3.2918e+000
52 0 +2.071424574e+000 -2.132285754e+002 -2.132285754e+002 -2.6611e+000 +3.3027e+000
85 0 +1.433194327e+000 -2.138668057e+002 -2.138668057e+002 -2.6575e+000 +3.3262e+000
120 0 +1.248025718e+000 -2.140519743e+002 -2.140519743e+002 -2.6466e+000 +3.3583e+000
123 0 +1.074394632e+000 -2.142256054e+002 -2.142256054e+002 -2.6492e+000 +3.3243e+000
129 0 +1.014567818e+000 -2.142854322e+002 -2.142854322e+002 -2.6452e+000 +3.3171e+000
219 0 +9.974017408e-001 -2.143025983e+002 -2.143025983e+002 -2.6428e+000 +3.3225e+000
12069 0 +9.116662421e-002 -2.152088334e+002 -2.152088334e+002 -2.9836e+000 +3.5051e+000
12088 0 +2.911702195e-002 -2.152708830e+002 -2.152708830e+002 -2.9836e+000 +3.4939e+000
12091 0 +1.999918907e-002 -2.152800008e+002 -2.152800008e+002 -2.9836e+000 +3.4838e+000
12120 0 +1.006524608e-002 -2.152899348e+002 -2.152899348e+002 -2.9795e+000 +3.4753e+000
12130 0 +4.378409954e-003 -2.152956216e+002 -2.152956216e+002 -2.9793e+000 +3.4855e+000
12169 0 +3.972083362e-003 -2.152960279e+002 -2.152960279e+002 -2.9794e+000 +3.4856e+000
12172 0 +2.349035899e-003 -2.152976510e+002 -2.152976510e+002 -2.9787e+000 +3.4807e+000
12185 0 +1.614108693e-003 -2.152983859e+002 -2.152983859e+002 -2.9791e+000 +3.4800e+000
12189 0 +1.224715570e-003 -2.152987753e+002 -2.152987753e+002 -2.9806e+000 +3.4850e+000
12194 0 +1.175138787e-003 -2.152988249e+002 -2.152988249e+002 -2.9804e+000 +3.4850e+000
12203 0 +8.332401055e-004 -2.152991668e+002 -2.152991668e+002 -2.9803e+000 +3.4810e+000
12215 0 +7.936927304e-004 -2.152992063e+002 -2.152992063e+002 -2.9800e+000 +3.4807e+000
12217 0 +7.163685486e-004 -2.152992836e+002 -2.152992836e+002 -2.9800e+000 +3.4807e+000
12223 0 +6.890419922e-004 -2.152993110e+002 -2.152993110e+002 -2.9806e+000 +3.4841e+000
12231 0 +2.140356617e-004 -2.152997860e+002 -2.152997860e+002 -2.9797e+000 +3.4815e+000
12237 0 +2.477271212e-005 -2.152999752e+002 -2.152999752e+002 -2.9799e+000 +3.4825e+000
12242 0 +8.237778445e-006 -2.152999918e+002 -2.152999918e+002 -2.9800e+000 +3.4826e+000
12250 0 +3.246686049e-007 -2.152999997e+002 -2.152999997e+002 -2.9800e+000 +3.4824e+000
12265 0 +1.277500985e-007 -2.152999999e+002 -2.152999999e+002 -2.9800e+000 +3.4824e+000
12273 0 +5.412823612e-008 -2.152999999e+002 -2.152999999e+002 -2.9800e+000 +3.4824e+000
12293 0 +2.485006689e-008 -2.153000000e+002 -2.153000000e+002 -2.9800e+000 +3.4824e+000
12317 0 +1.421958018e-008 -2.153000000e+002 -2.153000000e+002 -2.9800e+000 +3.4824e+000
12329 0 +9.699107295e-009 -2.153000000e+002 -2.153000000e+002 -2.9800e+000 +3.4824e+000
% f evaluations | g evaluations | best noise-free fitness - Fopt (-5.449000000000e+001) + sum g_i+ | measured fitness | best measured fitness or single-digit g-values | x1 | x2...
1 0 +3.906836448e+002 +3.361936448e+002 +3.361936448e+002 -5.0000e+000 -5.0000e+000
2 0 +2.294432522e+002 +1.749532522e+002 +1.749532522e+002 +5.0000e+000 -5.0000e+000
6 0 +1.762518737e+002 +1.217618737e+002 +1.217618737e+002 +4.6239e+000 +2.5656e+000
8 0 +1.641688565e+002 +1.096788565e+002 +1.096788565e+002 +8.6256e-001 -4.4114e+000
9 0 +3.010855341e+001 -2.438144659e+001 -2.438144659e+001 -2.1835e-001 -1.1046e-001
43 0 +1.463010385e+001 -3.985989615e+001 -3.985989615e+001 +2.9191e+000 -2.1817e+000
51 0 +1.581166214e+000 -5.290883379e+001 -5.290883379e+001 +2.7296e+000 -1.2423e+000
131 0 +1.035941684e+000 -5.345405832e+001 -5.345405832e+001 +2.7571e+000 -1.2715e+000
164 0 +1.017499786e+000 -5.347250021e+001 -5.347250021e+001 +2.7503e+000 -1.2724e+000
216 0 +9.997788146e-001 -5.349022119e+001 -5.349022119e+001 +2.7334e+000 -1.2660e+000
645 0 +3.490122802e-001 -5.414098772e+001 -5.414098772e+001 +3.4209e+000 -1.1827e+000
653 0 +1.527214997e-001 -5.433727850e+001 -5.433727850e+001 +3.3661e+000 -1.1831e+000
678 0 +1.459197147e-001 -5.434408029e+001 -5.434408029e+001 +3.3944e+000 -1.1934e+000
684 0 +9.672771793e-002 -5.439327228e+001 -5.439327228e+001 +3.4021e+000 -1.1813e+000
694 0 +7.982322378e-003 -5.448201768e+001 -5.448201768e+001 +3.3906e+000 -1.1819e+000
717 0 +7.681250738e-003 -5.448231875e+001 -5.448231875e+001 +3.3944e+000 -1.1856e+000
742 0 +4.882658811e-003 -5.448511734e+001 -5.448511734e+001 +3.3920e+000 -1.1850e+000
746 0 +3.624182123e-003 -5.448637582e+001 -5.448637582e+001 +3.3917e+000 -1.1848e+000
754 0 +2.575068284e-003 -5.448742493e+001 -5.448742493e+001 +3.3868e+000 -1.1818e+000
756 0 +1.477868808e-003 -5.448852213e+001 -5.448852213e+001 +3.3893e+000 -1.1828e+000
761 0 +8.694959671e-004 -5.448913050e+001 -5.448913050e+001 +3.3891e+000 -1.1841e+000
769 0 +4.882165273e-004 -5.448951178e+001 -5.448951178e+001 +3.3891e+000 -1.1838e+000
772 0 +2.651280758e-004 -5.448973487e+001 -5.448973487e+001 +3.3891e+000 -1.1836e+000
796 0 +2.133418631e-004 -5.448978666e+001 -5.448978666e+001 +3.3882e+000 -1.1829e+000
797 0 +1.383715646e-004 -5.448986163e+001 -5.448986163e+001 +3.3886e+000 -1.1832e+000
799 0 +7.212986316e-005 -5.448992787e+001 -5.448992787e+001 +3.3874e+000 -1.1831e+000
809 0 +6.084518164e-005 -5.448993915e+001 -5.448993915e+001 +3.3875e+000 -1.1831e+000
813 0 +5.573266084e-005 -5.448994427e+001 -5.448994427e+001 +3.3876e+000 -1.1832e+000
818 0 +4.439629775e-005 -5.448995560e+001 -5.448995560e+001 +3.3879e+000 -1.1833e+000
827 0 +3.776675973e-005 -5.448996223e+001 -5.448996223e+001 +3.3879e+000 -1.1833e+000
834 0 +3.694242108e-005 -5.448996306e+001 -5.448996306e+001 +3.3881e+000 -1.1834e+000
835 0 +1.839165056e-005 -5.448998161e+001 -5.448998161e+001 +3.3877e+000 -1.1831e+000
836 0 +6.364359287e-006 -5.448999364e+001 -5.448999364e+001 +3.3880e+000 -1.1831e+000
838 0 +2.754847024e-006 -5.448999725e+001 -5.448999725e+001 +3.3881e+000 -1.1832e+000
848 0 +6.269759822e-007 -5.448999937e+001 -5.448999937e+001 +3.3880e+000 -1.1832e+000
851 0 +4.404123288e-007 -5.448999956e+001 -5.448999956e+001 +3.3880e+000 -1.1832e+000
868 0 +2.213144512e-008 -5.448999998e+001 -5.448999998e+001 +3.3880e+000 -1.1832e+000
929 0 +1.816560768e-008 -5.448999998e+001 -5.448999998e+001 +3.3880e+000 -1.1832e+000
934 0 +7.572616312e-009 -5.448999999e+001 -5.448999999e+001 +3.3880e+000 -1.1832e+000
% f evaluations | g evaluations | best noise-free fitness - Fopt (5.049000000000e+001) + sum g_i+ | measured fitness | best measured fitness or single-digit g-values | x1 | x2...
1 0 +8.766191268e+002 +9.271091268e+002 +9.271091268e+002 -5.0000e+000 -5.0000e+000
2 0 +2.802248400e+002 +3.307148400e+002 +3.307148400e+002 +5.0000e+000 -5.0000e+000
4 0 +1.303391214e+002 +1.808291214e+002 +1.808291214e+002 +4.3645e+000 -3.5891e+000
8 0 +8.062291474e+001 +1.311129147e+002 +1.311129147e+002 +1.6745e+000 -2.9895e+000
23 0 +4.223187240e+001 +9.272187240e+001 +9.272187240e+001 +1.1056e+000 -1.5809e+000
26 0 +4.011643638e+001 +9.060643638e+001 +9.060643638e+001 +1.0840e+000 -1.5842e+000
28 0 +2.929788628e+001 +7.978788628e+001 +7.978788628e+001 +3.0703e+000 -1.4863e+000
31 0 +2.202091720e+001 +7.251091720e+001 +7.251091720e+001 +4.0391e+000 -8.7775e-001
35 0 +1.853901834e+001 +6.902901834e+001 +6.902901834e+001 +4.0065e+000 -1.1262e+000
43 0 +1.359457316e+001 +6.408457316e+001 +6.408457316e+001 +4.8566e+000 -7.7230e-001
44 0 +5.411258695e+000 +5.590125869e+001 +5.590125869e+001 +3.9803e+000 -7.5830e-001
52 0 +5.119545165e+000 +5.560954517e+001 +5.560954517e+001 +3.8646e+000 -7.7173e-001
66 0 +4.846382291e+000 +5.533638229e+001 +5.533638229e+001 +3.9458e+000 -7.0062e-001
72 0 +4.429728872e+000 +5.491972887e+001 +5.491972887e+001 +3.8886e+000 -7.4781e-001
99 0 +4.271708315e+000 +5.476170832e+001 +5.476170832e+001 +3.9116e+000 -7.5704e-001
113 0 +4.139751674e+000 +5.462975167e+001 +5.462975167e+001 +3.9073e+000 -7.4681e-001
131 0 +2.602238112e+000 +5.309223811e+001 +5.309223811e+001 +2.7472e+000 -7.2112e-001
136 0 +2.165221119e+000 +5.265522112e+001 +5.265522112e+001 +2.7368e+000 -7.3403e-001
138 0 +2.057250621e+000 +5.254725062e+001 +5.254725062e+001 +2.7262e+000 -7.4376e-001
151 0 +2.035369232e+000 +5.252536923e+001 +5.252536923e+001 +2.7047e+000 -7.5005e-001
178 0 +1.994161178e+000 +5.248416118e+001 +5.248416118e+001 +2.7021e+000 -7.4376e-001
5125 0 +1.360516039e+000 +5.185051604e+001 +5.185051604e+001 +3.4001e+000 +1.2736e-001
5144 0 +1.215524092e+000 +5.170552409e+001 +5.170552409e+001 +3.3995e+000 +1.2323e-001
5172 0 +9.968803379e-001 +5.148688034e+001 +5.148688034e+001 +3.3676e+000 +1.1402e-001
7376 0 +8.592564287e-001 +5.134925643e+001 +5.134925643e+001 +3.6254e+000 -1.4212e-001
7377 0 +2.273108522e-001 +5.071731085e+001 +5.071731085e+001 +3.6093e+000 -1.5439e-001
7386 0 +9.104974079e-002 +5.058104974e+001 +5.058104974e+001 +3.5986e+000 -1.6729e-001
7396 0 +7.257300343e-002 +5.056257300e+001 +5.056257300e+001 +3.5988e+000 -1.6547e-001
7402 0 +8.547080300e-003 +5.049854708e+001 +5.049854708e+001 +3.5887e+000 -1.6495e-001
7443 0 +2.502731584e-003 +5.049250273e+001 +5.049250273e+001 +3.5804e+000 -1.6589e-001
7452 0 +9.305267524e-004 +5.049093053e+001 +5.049093053e+001 +3.5813e+000 -1.6601e-001
7486 0 +7.933643480e-005 +5.049007934e+001 +5.049007934e+001 +3.5821e+000 -1.6628e-001
7493 0 +6.029708896e-005 +5.049006030e+001 +5.049006030e+001 +3.5823e+000 -1.6625e-001
7495 0 +5.690958057e-005 +5.049005691e+001 +5.049005691e+001 +3.5825e+000 -1.6622e-001
7504 0 +3.158227719e-005 +5.049003158e+001 +5.049003158e+001 +3.5824e+000 -1.6627e-001
7514 0 +2.972525159e-006 +5.049000297e+001 +5.049000297e+001 +3.5823e+000 -1.6637e-001
7530 0 +2.024518828e-006 +5.049000202e+001 +5.049000202e+001 +3.5824e+000 -1.6637e-001
7567 0 +1.001231453e-006 +5.049000100e+001 +5.049000100e+001 +3.5824e+000 -1.6637e-001
7571 0 +8.235884508e-007 +5.049000082e+001 +5.049000082e+001 +3.5825e+000 -1.6638e-001
7572 0 +1.105296477e-007 +5.049000011e+001 +5.049000011e+001 +3.5824e+000 -1.6639e-001
7578 0 +1.016707571e-007 +5.049000010e+001 +5.049000010e+001 +3.5824e+000 -1.6639e-001
7581 0 +4.658544839e-008 +5.049000005e+001 +5.049000005e+001 +3.5824e+000 -1.6639e-001
7585 0 +1.211375178e-008 +5.049000001e+001 +5.049000001e+001 +3.5824e+000 -1.6640e-001
7598 0 +2.331056237e-009 +5.049000000e+001 +5.049000000e+001 +3.5824e+000 -1.6640e-001
% f evaluations | g evaluations | best noise-free fitness - Fopt (-3.641300000000e+002) + sum g_i+ | measured fitness | best measured fitness or single-digit g-values | x1 | x2...
1 0 +2.227949784e+002 -1.413350216e+002 -1.413350216e+002 -5.0000e+000 -5.0000e+000
6 0 +5.832793808e+001 -3.058020619e+002 -3.058020619e+002 +1.5842e+000 +1.4611e-001
7 0 +2.924965850e+001 -3.348803415e+002 -3.348803415e+002 -2.9656e+000 -5.5380e-001
9 0 +2.194999084e+001 -3.421800092e+002 -3.421800092e+002 -2.8094e+000 -5.5266e-001
21 0 +2.100057002e+001 -3.431294300e+002 -3.431294300e+002 -2.4412e+000 +5.8523e-002
43 0 +1.187603698e+001 -3.522539630e+002 -3.522539630e+002 -1.3099e+000 +1.7906e-001
67 0 +9.915963919e+000 -3.542140361e+002 -3.542140361e+002 -8.5748e-001 -9.5585e-002
85 0 +5.698117039e+000 -3.584318830e+002 -3.584318830e+002 -2.0011e+000 -2.7372e-001
100 0 +4.325299395e+000 -3.598047006e+002 -3.598047006e+002 -1.9916e+000 -2.8894e-001
108 0 +4.209323777e+000 -3.599206762e+002 -3.599206762e+002 -1.9812e+000 -2.8901e-001
115 0 +4.133863023e+000 -3.599961370e+002 -3.599961370e+002 -1.9396e+000 -2.9722e-001
126 0 +2.771848855e+000 -3.613581511e+002 -3.613581511e+002 -4.2030e+000 -3.4701e-001
142 0 +2.501084861e+000 -3.616289151e+002 -3.616289151e+002 -4.1703e+000 -3.5221e-001
145 0 +1.966377654e+000 -3.621636223e+002 -3.621636223e+002 -4.0545e+000 -3.3773e-001
153 0 +1.617121753e+000 -3.625128782e+002 -3.625128782e+002 -4.0664e+000 -3.2859e-001
154 0 +1.451735623e+000 -3.626782644e+002 -3.626782644e+002 -4.0772e+000 -3.2851e-001
173 0 +1.345404815e+000 -3.627845952e+002 -3.627845952e+002 -4.0856e+000 -3.2885e-001
178 0 +1.103875714e+000 -3.630261243e+002 -3.630261243e+002 -4.1264e+000 -3.3046e-001
182 0 +1.048790596e+000 -3.630812094e+002 -3.630812094e+002 -4.1382e+000 -3.2410e-001
185 0 +1.023070247e+000 -3.631069298e+002 -3.631069298e+002 -4.1332e+000 -3.2340e-001
246 0 +9.985489833e-001 -3.631314510e+002 -3.631314510e+002 -4.1355e+000 -3.1701e-001
10037 0 +7.119445548e-002 -3.640588055e+002 -3.640588055e+002 -3.7819e+000 -6.0029e-001
10091 0 +2.107507476e-002 -3.641089249e+002 -3.641089249e+002 -3.7500e+000 -5.9761e-001
10095 0 +1.147860991e-002 -3.641185214e+002 -3.641185214e+002 -3.7686e+000 -5.9816e-001
10114 0 +1.001467563e-002 -3.641199853e+002 -3.641199853e+002 -3.7684e+000 -5.9887e-001
10117 0 +9.493623984e-004 -3.641290506e+002 -3.641290506e+002 -3.7611e+000 -5.9771e-001
10130 0 +1.788473931e-004 -3.641298212e+002 -3.641298212e+002 -3.7606e+000 -5.9867e-001
10152 0 +1.118264547e-004 -3.641298882e+002 -3.641298882e+002 -3.7610e+000 -5.9865e-001
10154 0 +9.913271185e-006 -3.641299901e+002 -3.641299901e+002 -3.7610e+000 -5.9843e-001
10187 0 +6.830008033e-006 -3.641299932e+002 -3.641299932e+002 -3.7610e+000 -5.9841e-001
10194 0 +4.047961454e-006 -3.641299960e+002 -3.641299960e+002 -3.7609e+000 -5.9842e-001
10197 0 +1.931696829e-006 -3.641299981e+002 -3.641299981e+002 -3.7609e+000 -5.9843e-001
10229 0 +1.373738314e-006 -3.641299986e+002 -3.641299986e+002 -3.7608e+000 -5.9842e-001
10231 0 +4.510541203e-007 -3.641299995e+002 -3.641299995e+002 -3.7608e+000 -5.9841e-001
10237 0 +2.922761837e-007 -3.641299997e+002 -3.641299997e+002 -3.7608e+000 -5.9841e-001
10239 0 +7.632320376e-008 -3.641299999e+002 -3.641299999e+002 -3.7608e+000 -5.9840e-001
10254 0 +1.737913635e-008 -3.641300000e+002 -3.641300000e+002 -3.7608e+000 -5.9840e-001
10262 0 +1.472119493e-008 -3.641300000e+002 -3.641300000e+002 -3.7608e+000 -5.9840e-001
10270 0 +1.227022040e-008 -3.641300000e+002 -3.641300000e+002 -3.7608e+000 -5.9840e-001
10281 0 +5.761194188e-009 -3.641300000e+002 -3.641300000e+002 -3.7608e+000 -5.9840e-001
% f evaluations | g evaluations | best noise-free fitness - Fopt (1.592700000000e+002) + sum g_i+ | measured fitness | best measured fitness or single-digit g-values | x1 | x2...
1 0 +9.445212071e+002 +1.103791207e+003 +1.103791207e+003 -5.0000e+000 +5.0000e+000
3 0 +4.788732595e+001 +2.071573260e+002 +2.071573260e+002 -5.0000e+000 -5.0000e+000
5 0 +4.088612768e+001 +2.001561277e+002 +2.001561277e+002 -5.0000e+000 -4.7167e+000
9 0 +2.736950482e+001 +1.866395048e+002 +1.866395048e+002 -1.9887e+000 -1.9455e+000
11 0 +1.611559473e+001 +1.753855947e+002 +1.753855947e+002 -2.6646e+000 -2.1395e+000
19 0 +8.125886445e+000 +1.673958864e+002 +1.673958864e+002 -3.2368e+000 -2.4188e+000
58 0 +4.102434177e+000 +1.633724342e+002 +1.633724342e+002 -3.1429e+000 -2.3292e+000
131 0 +4.063920995e+000 +1.633339210e+002 +1.633339210e+002 -3.1416e+000 -2.3243e+000
212 0 +3.980867878e+000 +1.632508679e+002 +1.632508679e+002 -3.1516e+000 -2.3340e+000
592 0 +2.276769184e+000 +1.615467692e+002 +1.615467692e+002 -2.5477e+000 -2.3520e+000
708 0 +2.001410563e+000 +1.612714106e+002 +1.612714106e+002 -2.5321e+000 -2.3333e+000
740 0 +1.992274763e+000 +1.612622748e+002 +1.612622748e+002 -2.5332e+000 -2.3332e+000
741 0 +1.629285063e+000 +1.608992851e+002 +1.608992851e+002 -2.4841e+000 -2.0377e+000
766 0 +1.219541073e+000 +1.604895411e+002 +1.604895411e+002 -2.4708e+000 -2.0143e+000
786 0 +1.182479083e+000 +1.604524791e+002 +1.604524791e+002 -2.4712e+000 -2.0221e+000
801 0 +1.107226461e+000 +1.603772265e+002 +1.603772265e+002 -2.4678e+000 -2.0167e+000
813 0 +1.083441886e+000 +1.603534419e+002 +1.603534419e+002 -2.4561e+000 -1.9993e+000
832 0 +1.050896371e+000 +1.603208964e+002 +1.603208964e+002 -2.4559e+000 -2.0004e+000
837 0 +1.033687306e+000 +1.603036873e+002 +1.603036873e+002 -2.4555e+000 -2.0007e+000
847 0 +1.010880793e+000 +1.602808808e+002 +1.602808808e+002 -2.4569e+000 -2.0040e+000
898 0 +9.986082920e-001 +1.602686083e+002 +1.602686083e+002 -2.4536e+000 -2.0018e+000
3532 0 +5.946241123e-001 +1.598646241e+002 +1.598646241e+002 -1.6972e+000 -1.4802e+000
3545 0 +2.365867672e-002 +1.592936587e+002 +1.592936587e+002 -1.6660e+000 -1.4519e+000
3608 0 +2.152085368e-002 +1.592915209e+002 +1.592915209e+002 -1.6729e+000 -1.4519e+000
3622 0 +1.531780926e-002 +1.592853178e+002 +1.592853178e+002 -1.6704e+000 -1.4498e+000
3630 0 +1.188466863e-002 +1.592818847e+002 +1.592818847e+002 -1.6693e+000 -1.4487e+000
3677 0 +8.609573524e-003 +1.592786096e+002 +1.592786096e+002 -1.6687e+000 -1.4506e+000
3680 0 +6.994270326e-003 +1.592769943e+002 +1.592769943e+002 -1.6652e+000 -1.4494e+000
3696 0 +5.022617747e-003 +1.592750226e+002 +1.592750226e+002 -1.6663e+000 -1.4494e+000
3699 0 +3.889221253e-003 +1.592738892e+002 +1.592738892e+002 -1.6673e+000 -1.4488e+000
3705 0 +1.308757664e-004 +1.592701309e+002 +1.592701309e+002 -1.6643e+000 -1.4464e+000
3716 0 +1.112365635e-004 +1.592701112e+002 +1.592701112e+002 -1.6644e+000 -1.4464e+000
3718 0 +1.089333329e-004 +1.592701089e+002 +1.592701089e+002 -1.6644e+000 -1.4464e+000
3738 0 +7.690757076e-005 +1.592700769e+002 +1.592700769e+002 -1.6642e+000 -1.4463e+000
3748 0 +6.288291448e-005 +1.592700629e+002 +1.592700629e+002 -1.6638e+000 -1.4465e+000
3756 0 +1.932155115e-005 +1.592700193e+002 +1.592700193e+002 -1.6642e+000 -1.4465e+000
3758 0 +1.750282999e-005 +1.592700175e+002 +1.592700175e+002 -1.6638e+000 -1.4462e+000
3759 0 +6.048283382e-006 +1.592700060e+002 +1.592700060e+002 -1.6639e+000 -1.4463e+000
3766 0 +8.645198477e-007 +1.592700009e+002 +1.592700009e+002 -1.6639e+000 -1.4464e+000
3792 0 +6.312061487e-007 +1.592700006e+002 +1.592700006e+002 -1.6640e+000 -1.4464e+000
3819 0 +3.001575806e-007 +1.592700003e+002 +1.592700003e+002 -1.6640e+000 -1.4464e+000
3847 0 +2.714262166e-007 +1.592700003e+002 +1.592700003e+002 -1.6640e+000 -1.4464e+000
3856 0 +1.734398154e-007 +1.592700002e+002 +1.592700002e+002 -1.6640e+000 -1.4464e+000
3875 0 +1.313024427e-007 +1.592700001e+002 +1.592700001e+002 -1.6640e+000 -1.4464e+000
3883 0 +3.232079848e-008 +1.592700000e+002 +1.592700000e+002 -1.6640e+000 -1.4464e+000
3891 0 +9.214545571e-009 +1.592700000e+002 +1.592700000e+002 -1.6640e+000 -1.4464e+000
