% f evaluations | g evaluations | best noise-free fitness - Fopt (7.948000000000e+001) + sum g_i+ | measured fitness | best measured fitness or single-digit g-values | x1 | x2...
1 0 +1.234239757e+002 +2.029039757e+002 +2.029039757e+002 +5.0000e+000 -5.0000e+000 +5.0000e+000 -5.0000e+000 -5.0000e+000
4 0 +1.089439757e+002 +1.884239757e+002 +1.884239757e+002 +5.0000e+000 -5.0000e+000 -5.0000e+000 -5.0000e+000 -5.0000e+000
5 0 +8.489597568e+001 +1.643759757e+002 +1.643759757e+002 +5.0000e+000 -5.0000e+000 +5.0000e+000 +5.0000e+000 -5.0000e+000
7 0 +7.041597568e+001 +1.498959757e+002 +1.498959757e+002 +5.0000e+000 -5.0000e+000 -5.0000e+000 +5.0000e+000 -5.0000e+000
8 0 +5.975012033e+001 +1.392301203e+002 +1.392301203e+002 +4.1814e+000 -4.6338e+000 +4.5028e+000 +3.5723e+000 -4.1633e+000
12 0 +1.540752431e+001 +9.488752431e+001 +9.488752431e+001 +5.3930e-002 -5.0000e+000 -7.3616e-001 +1.7476e+000 -3.4329e+000
15 0 +0.000000000e+000 +7.948000000e+001 +7.948000000e+001 +2.5280e-001 -1.1568e+000 -7.2400e-001 +1.9264e+000 -2.6808e+000
% f evaluations | g evaluations | best noise-free fitness - Fopt (3.944800000000e+002) + sum g_i+ | measured fitness | best measured fitness or single-digit g-values | x1 | x2...
1 0 +2.372661165e+002 +6.317461165e+002 +6.317461165e+002 +5.0000e+000 +5.0000e+000 +5.0000e+000 +5.0000e+000 +5.0000e+000
2 0 +1.592981165e+002 +5.537781165e+002 +5.537781165e+002 -5.0000e+000 +5.0000e+000 +5.0000e+000 +5.0000e+000 +5.0000e+000
7 0 +2.544211648e+001 +4.199221165e+002 +4.199221165e+002 -5.0000e+000 -5.0000e+000 -5.0000e+000 +5.0000e+000 +5.0000e+000
9 0 +2.502848210e+001 +4.195084821e+002 +4.195084821e+002 -4.9342e+000 -4.9342e+000 -5.0000e+000 +5.0000e+000 +5.0000e+000
13 0 +0.000000000e+000 +3.944800000e+002 +3.944800000e+002 -3.8984e+000 -2.8904e+000 -3.8024e+000 +3.9056e+000 +8.5920e-001
% f evaluations | g evaluations | best noise-free fitness - Fopt (-2.471100000000e+002) + sum g_i+ | measured fitness | best measured fitness or single-digit g-values | x1 | x2...
1 0 +1.282168883e+002 -1.188931117e+002 -1.188931117e+002 -5.0000e+000 -5.0000e+000 +5.0000e+000 -5.0000e+000 +5.0000e+000
3 0 +1.241528883e+002 -1.229571117e+002 -1.229571117e+002 -5.0000e+000 +5.0000e+000 +5.0000e+000 -5.0000e+000 +5.0000e+000
4 0 +1.143928883e+002 -1.327171117e+002 -1.327171117e+002 -5.0000e+000 -5.0000e+000 -5.0000e+000 -5.0000e+000 +5.0000e+000
6 0 +6.623288832e+001 -1.808771117e+002 -1.808771117e+002 -5.0000e+000 -5.0000e+000 +5.0000e+000 -5.0000e+000 -5.0000e+000
7 0 +4.834488832e+001 -1.987651117e+002 -1.987651117e+002 -5.0000e+000 +5.0000e+000 -5.0000e+000 -5.0000e+000 -5.0000e+000
8 0 +3.502621078e+001 -2.120837892e+002 -2.120837892e+002 -5.0000e+000 -4.8307e-001 -5.0000e+000 -5.0000e+000 +4.8307e-001
9 0 +2.562645565e+001 -2.214835443e+002 -2.214835443e+002 -5.0000e+000 -8.8398e-001 -4.1124e+000 -5.0000e+000 -3.5842e-003
13 0 +7.756128548e+000 -2.393538715e+002 -2.393538715e+002 -1.3401e+000 +2.0320e-001 -6.9120e-001 -5.0000e+000 -3.0992e+000
16 0 +0.000000000e+000 -2.471100000e+002 -2.471100000e+002 -3.7984e+000 +2.0320e-001 -6.9120e-001 -3.6912e+000 -3.0992e+000
% f evaluations | g evaluations | best noise-free fitness - Fopt (-1.520400000000e+002) + sum g_i+ | measured fitness | best measured fitness or single-digit g-values | x1 | x2...
1 0 +2.012646458e+002 +4.922464576e+001 +4.922464576e+001 -5.0000e+000 -5.0000e+000 +5.0000e+000 +5.0000e+000 -5.0000e+000
3 0 +1.727846458e+002 +2.074464576e+001 +2.074464576e+001 -5.0000e+000 +5.0000e+000 +5.0000e+000 +5.0000e+000 -5.0000e+000
4 0 +1.227686458e+002 -2.927135424e+001 -2.927135424e+001 -5.0000e+000 -5.0000e+000 -5.0000e+000 +5.0000e+000 -5.0000e+000
7 0 +4.590464576e+001 -1.061353542e+002 -1.061353542e+002 -5.0000e+000 +5.0000e+000 -5.0000e+000 +5.0000e+000 +5.0000e+000
9 0 +3.433036077e+001 -1.177096392e+002 -1.177096392e+002 -5.0000e+000 +8.1785e-004 -5.0000e+000 +5.0000e+000 +8.1785e-004
12 0 +2.072228485e+001 -1.313177151e+002 -1.313177151e+002 -6.7631e-003 +5.0000e+000 -5.0000e+000 +5.0000e+000 +4.6735e-001
15 0 +0.000000000e+000 -1.520400000e+002 -1.520400000e+002 -2.6720e-001 +1.4240e+000 -3.9248e+000 +3.2968e+000 +2.4192e+000
% f evaluations | g evaluations | best noise-free fitness - Fopt (-2.525000000000e+001) + sum g_i+ | measured fitness | best measured fitness or single-digit g-values | x1 | x2...
1 0 +4.478375104e+001 +1.953375104e+001 +1.953375104e+001 +5.0000e+000 +5.0000e+000 -5.0000e+000 -5.0000e+000 +5.0000e+000
7 0 +3.962628338e+001 +1.437628338e+001 +1.437628338e+001 +3.4119e+000 -4.6499e+000 -4.4920e+000 -2.3644e+000 +4.7735e+000
9 0 +3.552385957e+001 +1.027385957e+001 +1.027385957e+001 +3.6200e+000 -4.3891e+000 -4.0980e+000 -2.9897e+000 +4.8514e+000
12 0 +0.000000000e+000 -2.525000000e+001 -2.525000000e+001 +3.6144e+000 +6.3520e-001 -1.4216e+000 -2.1528e+000 +3.2968e+000
% f evaluations | g evaluations | best noise-free fitness - Fopt (1.830100000000e+002) + sum g_i+ | measured fitness | best measured fitness or single-digit g-values | x1 | x2...
1 0 +2.307731526e+002 +4.137831526e+002 +4.137831526e+002 +5.0000e+000 -5.0000e+000 -5.0000e+000 -5.0000e+000 +5.0000e+000
2 0 +1.880531526e+002 +3.710631526e+002 +3.710631526e+002 -5.0000e+000 -5.0000e+000 -5.0000e+000 -5.0000e+000 +5.0000e+000
3 0 +1.687091526e+002 +3.517191526e+002 +3.517191526e+002 +5.0000e+000 +5.0000e+000 -5.0000e+000 -5.0000e+000 +5.0000e+000
6 0 +1.596371526e+002 +3.426471526e+002 +3.426471526e+002 +5.0000e+000 -5.0000e+000 -5.0000e+000 -5.0000e+000 -5.0000e+000
7 0 +3.426115264e+001 +2.172711526e+002 +2.172711526e+002 -5.0000e+000 +5.0000e+000 -5.0000e+000 +5.0000e+000 -5.0000e+000
8 0 +2.221346701e+001 +2.052234670e+002 +2.052234670e+002 -5.0000e+000 +3.9496e+000 -5.0000e+000 +3.9496e+000 -3.9496e+000
11 0 +1.105993274e+001 +1.940699327e+002 +1.940699327e+002 -1.3850e+000 +8.6732e-001 -5.0000e+000 +8.6732e-001 -4.4823e+000
16 0 +0.000000000e+000 +1.830100000e+002 +1.830100000e+002 -2.1360e+000 +3.1032e+000 -2.8520e+000 +1.0296e+000 -3.5568e+000
% f evaluations | g evaluations | best noise-free fitness - Fopt (1.835200000000e+002) + sum g_i+ | measured fitness | best measured fitness or single-digit g-values | x1 | x2...
1 0 +6.060920448e+001 +2.441292045e+002 +2.441292045e+002 -5.0000e+000 -5.0000e+000 -5.0000e+000 -5.0000e+000 -5.0000e+000
8 0 +4.225367498e+001 +2.257736750e+002 +2.257736750e+002 -3.6109e+000 -4.4419e+000 -4.0154e+000 -4.9489e+000 +3.5674e+000
9 0 +3.656606936e+001 +2.200860694e+002 +2.200860694e+002 -3.8067e+000 -4.8532e+000 -4.3712e+000 -4.2976e+000 +2.8320e+000
10 0 +3.068267933e+001 +2.142026793e+002 +2.142026793e+002 +2.8675e+000 -4.9965e+000 -4.3860e+000 -3.8150e+000 -4.3825e+000
12 0 +0.000000000e+000 +1.835200000e+002 +1.835200000e+002 -2.1600e-002 -3.9416e+000 -2.3344e+000 -2.0432e+000 -6.5760e-001
% f evaluations | g evaluations | best noise-free fitness - Fopt (-5.938400000000e+002) + sum g_i+ | measured fitness | best measured fitness or single-digit g-values | x1 | x2...
1 0 +1.338302374e+002 -4.600097626e+002 -4.600097626e+002 +5.0000e+000 +5.0000e+000 -5.0000e+000 +5.0000e+000 +5.0000e+000
2 0 +8.243823744e+001 -5.114017626e+002 -5.114017626e+002 -5.0000e+000 +5.0000e+000 -5.0000e+000 +5.0000e+000 +5.0000e+000
7 0 +7.099823744e+001 -5.228417626e+002 -5.228417626e+002 -5.0000e+000 +5.0000e+000 +5.0000e+000 +5.0000e+000 +5.0000e+000
12 0 +5.888069857e+001 -5.349593014e+002 -5.349593014e+002 -2.7133e+000 +4.2322e+000 +4.0174e+000 -3.1075e+000 -1.8221e-001
13 0 +4.812194103e+001 -5.457180590e+002 -5.457180590e+002 -2.5696e+000 +5.0000e+000 +5.0000e+000 +2.1780e-001 +4.8349e-001
16 0 +0.000000000e+000 -5.938400000e+002 -5.938400000e+002 -2.5696e+000 +9.4400e-002 +5.7200e-001 +2.1336e+000 +1.3664e+000
% f evaluations | g evaluations | best noise-free fitness - Fopt (-1.000000000000e+003) + sum g_i+ | measured fitness | best measured fitness or single-digit g-values | x1 | x2...
1 0 +6.386952064e+001 -9.361304794e+002 -9.361304794e+002 -5.0000e+000 +5.0000e+000 -5.0000e+000 -5.0000e+000 -5.0000e+000
6 0 +1.785352064e+001 -9.821464794e+002 -9.821464794e+002 -5.0000e+000 +5.0000e+000 -5.0000e+000 -5.0000e+000 +5.0000e+000
7 0 +6.729001701e+000 -9.932709983e+002 -9.932709983e+002 -4.5101e+000 +3.6204e+000 -4.3459e+000 -4.3075e+000 +3.8784e+000
9 0 +4.589999709e+000 -9.954100003e+002 -9.954100003e+002 -5.0000e+000 +5.0000e+000 -5.0000e+000 -2.8912e+000 +2.8912e+000
10 0 +2.353573336e+000 -9.976464267e+002 -9.976464267e+002 -4.6336e+000 +3.9682e+000 -4.5108e+000 -3.3163e+000 +2.9954e+000
11 0 +1.698703838e+000 -9.983012962e+002 -9.983012962e+002 -4.7435e+000 +4.2779e+000 -4.6576e+000 -2.4341e+000 +2.2095e+000
15 0 +0.000000000e+000 -1.000000000e+003 -1.000000000e+003 -3.8432e+000 +3.8528e+000 -3.8216e+000 -2.4456e+000 +2.3008e+000
% f evaluations | g evaluations | best noise-free fitness - Fopt (-2.531000000000e+001) + sum g_i+ | measured fitness | best measured fitness or single-digit g-values | x1 | x2...
1 0 +1.182443859e+002 +9.293438592e+001 +9.293438592e+001 -5.0000e+000 +5.0000e+000 -5.0000e+000 +5.0000e+000 +5.0000e+000
2 0 +4.886838592e+001 +2.355838592e+001 +2.355838592e+001 +5.0000e+000 +5.0000e+000 -5.0000e+000 +5.0000e+000 +5.0000e+000
7 0 +3.181238592e+001 +6.502385920e+000 +6.502385920e+000 +5.0000e+000 +5.0000e+000 +5.0000e+000 +5.0000e+000 +5.0000e+000
9 0 +2.000771057e+001 -5.302289427e+000 -5.302289427e+000 +3.9407e+000 +4.9679e+000 +4.4642e+000 +4.4692e+000 +4.1301e+000
15 0 +0.000000000e+000 -2.531000000e+001 -2.531000000e+001 +3.4688e+000 +3.5328e+000 +8.5280e-001 +3.1864e+000 +2.3872e+000
% f evaluations | g evaluations | best noise-free fitness - Fopt (2.228000000000e+001) + sum g_i+ | measured fitness | best measured fitness or single-digit g-values | x1 | x2...
1 0 +9.111887296e+001 +1.133988730e+002 +1.133988730e+002 +5.0000e+000 -5.0000e+000 +5.0000e+000 +5.0000e+000 -5.0000e+000
4 0 +5.468687296e+001 +7.696687296e+001 +7.696687296e+001 +5.0000e+000 -5.0000e+000 -5.0000e+000 +5.0000e+000 -5.0000e+000
7 0 +5.209959452e+001 +7.437959452e+001 +7.437959452e+001 +5.0000e+000 -5.0000e+000 -4.5629e+000 +5.0000e+000 -5.0000e+000
10 0 +4.939619343e+001 +7.167619343e+001 +7.167619343e+001 +4.1662e+000 -3.7432e+000 +3.8123e+000 +3.4068e+000 -3.3683e+000
11 0 +4.694115346e+001 +6.922115346e+001 +6.922115346e+001 +4.9426e+000 -4.9135e+000 -3.9868e+000 +4.8904e+000 -4.8877e+000
12 0 +1.924191981e+001 +4.152191981e+001 +4.152191981e+001 +5.0000e+000 -1.7768e+000 -1.8216e+000 +6.5864e-002 -5.0000e+000
15 0 +0.000000000e+000 +2.228000000e+001 +2.228000000e+001 +1.4128e+000 -1.7768e+000 -1.8216e+000 +1.0176e+000 -2.6616e+000
% f evaluations | g evaluations | best noise-free fitness - Fopt (3.561400000000e+002) + sum g_i+ | measured fitness | best measured fitness or single-digit g-values | x1 | x2...
1 0 +9.963120512e+001 +4.557712051e+002 +4.557712051e+002 +5.0000e+000 -5.0000e+000 -5.0000e+000 -5.0000e+000 +5.0000e+000
5 0 +5.518320512e+001 +4.113232051e+002 +4.113232051e+002 +5.0000e+000 -5.0000e+000 -5.0000e+000 +5.0000e+000 +5.0000e+000
7 0 +3.539354938e+001 +3.915335494e+002 +3.915335494e+002 +4.3263e+000 -4.6193e+000 -4.5080e+000 +4.1996e+000 +3.7844e+000
8 0 +2.838166876e+001 +3.845216688e+002 +3.845216688e+002 +4.5078e+000 -4.7219e+000 -4.6406e+000 +1.7213e+000 +1.4180e+000
12 0 +2.386253663e+001 +3.800025366e+002 +3.800025366e+002 +5.0000e+000 -2.7534e-001 -1.7962e+000 +5.0000e+000 +7.1400e-001
15 0 +0.000000000e+000 +3.561400000e+002 +3.561400000e+002 +1.4584e+000 -5.2480e-001 -3.5376e+000 +2.2224e+000 +1.4280e+000
% f evaluations | g evaluations | best noise-free fitness - Fopt (-4.757000000000e+002) + sum g_i+ | measured fitness | best measured fitness or single-digit g-values | x1 | x2...
1 0 +2.330118592e+002 -2.426881408e+002 -2.426881408e+002 -5.0000e+000 +5.0000e+000 -5.0000e+000 -5.0000e+000 +5.0000e+000
3 0 +2.241318592e+002 -2.515681408e+002 -2.515681408e+002 -5.0000e+000 -5.0000e+000 -5.0000e+000 -5.0000e+000 +5.0000e+000
4 0 +1.572678592e+002 -3.184321408e+002 -3.184321408e+002 -5.0000e+000 +5.0000e+000 +5.0000e+000 -5.0000e+000 +5.0000e+000
7 0 +5.459585920e+001 -4.211041408e+002 -4.211041408e+002 -5.0000e+000 -5.0000e+000 +5.0000e+000 +5.0000e+000 -5.0000e+000
10 0 +4.566020975e+001 -4.300397902e+002 -4.300397902e+002 -5.0000e+000 +5.1720e-001 -5.1720e-001 +5.0000e+000 +5.1720e-001
11 0 +3.095258856e+001 -4.447474114e+002 -4.447474114e+002 -3.4669e+000 -4.3847e+000 +4.6688e+000 +3.1484e+000 -4.4529e+000
12 0 +1.967904500e+001 -4.560209550e+002 -4.560209550e+002 -1.1497e+000 -4.4400e-001 +1.0703e+000 +1.9138e+000 -5.0000e+000
15 0 +0.000000000e+000 -4.757000000e+002 -4.757000000e+002 -8.2960e-001 -4.4400e-001 +3.7872e+000 +3.0064e+000 -1.6832e+000
% f evaluations | g evaluations | best noise-free fitness - Fopt (-1.000000000000e+003) + sum g_i+ | measured fitness | best measured fitness or single-digit g-values | x1 | x2...
1 0 +1.697818298e+002 -8.302181702e+002 -8.302181702e+002 -5.0000e+000 -5.0000e+000 -5.0000e+000 -5.0000e+000 -5.0000e+000
3 0 +1.033498298e+002 -8.966501702e+002 -8.966501702e+002 -5.0000e+000 +5.0000e+000 -5.0000e+000 -5.0000e+000 -5.0000e+000
4 0 +9.512582976e+001 -9.048741702e+002 -9.048741702e+002 -5.0000e+000 -5.0000e+000 +5.0000e+000 -5.0000e+000 -5.0000e+000
7 0 +2.869382976e+001 -9.713061702e+002 -9.713061702e+002 -5.0000e+000 +5.0000e+000 +5.0000e+000 -5.0000e+000 -5.0000e+000
11 0 +2.698903502e+001 -9.730109650e+002 -9.730109650e+002 -5.0000e+000 +4.3762e+000 +5.0000e+000 -5.0000e+000 -5.0000e+000
12 0 +6.415444768e+000 -9.935845552e+002 -9.935845552e+002 -5.0000e+000 +3.3216e+000 +3.7328e+000 -3.9711e-002 -8.0376e-002
15 0 +0.000000000e+000 -1.000000000e+003 -1.000000000e+003 -3.8024e+000 +3.3216e+000 +3.7328e+000 -1.4208e+000 -1.8336e+000
% f evaluations | g evaluations | best noise-free fitness - Fopt (-4.158000000000e+001) + sum g_i+ | measured fitness | best measured fitness or single-digit g-values | x1 | x2...
1 0 +1.538725344e+002 +1.122925344e+002 +1.122925344e+002 +5.0000e+000 +5.0000e+000 +5.0000e+000 +5.0000e+000 +5.0000e+000
4 0 +9.112053440e+001 +4.954053440e+001 +4.954053440e+001 +5.0000e+000 +5.0000e+000 -5.0000e+000 +5.0000e+000 +5.0000e+000
7 0 +6.638453440e+001 +2.480453440e+001 +2.480453440e+001 +5.0000e+000 +5.0000e+000 -5.0000e+000 -5.0000e+000 -5.0000e+000
8 0 +6.133137872e+001 +1.975137872e+001 +1.975137872e+001 +5.0000e+000 +5.0000e+000 -2.0435e+000 +5.0000e+000 +2.0435e+000
9 0 +2.423105964e+001 -1.734894036e+001 -1.734894036e+001 +5.0000e+000 +5.0000e+000 -3.4832e+000 +1.3051e-001 -1.3863e+000
12 0 +4.965493887e+000 -3.661450611e+001 -3.661450611e+001 +1.7594e-003 +5.0000e+000 -3.1376e+000 -1.0480e-001 -1.1320e+000
15 0 +0.000000000e+000 -4.158000000e+001 -4.158000000e+001 +5.9760e-001 +2.8528e+000 -3.1376e+000 -1.0480e-001 -1.1320e+000
