% f evaluations | g evaluations | best noise-free fitness - Fopt (-9.210000000000e+000) + sum g_i+ | measured fitness | best measured fitness or single-digit g-values | x1 | x2...
1 0 +8.634116618e+000 -5.758833816e-001 -5.758833816e-001 +6.2343e-002 +4.6304e+000
4 0 +0.000000000e+000 -9.210000000e+000 -9.210000000e+000 +5.0000e+000 +5.0000e+000
% f evaluations | g evaluations | best noise-free fitness - Fopt (6.559900000000e+002) + sum g_i+ | measured fitness | best measured fitness or single-digit g-values | x1 | x2...
1 0 +7.717233215e+001 +7.331623322e+002 +7.331623322e+002 -2.4927e+000 +1.9680e+000
2 0 +5.136870670e+001 +7.073587067e+002 +7.073587067e+002 +2.3109e+000 -1.3204e-001
4 0 +0.000000000e+000 +6.559900000e+002 +6.559900000e+002 +5.0000e+000 -5.0000e+000
% f evaluations | g evaluations | best noise-free fitness - Fopt (6.671000000000e+001) + sum g_i+ | measured fitness | best measured fitness or single-digit g-values | x1 | x2...
1 0 +4.174049446e+001 +1.084504945e+002 +1.084504945e+002 +2.9095e+000 -1.6169e+000
3 0 +1.612348105e+001 +8.283348105e+001 +8.283348105e+001 +3.9466e+000 -4.2823e+000
4 0 +0.000000000e+000 +6.671000000e+001 +6.671000000e+001 -5.0000e+000 -5.0000e+000
% f evaluations | g evaluations | best noise-free fitness - Fopt (9.416700000000e+002) + sum g_i+ | measured fitness | best measured fitness or single-digit g-values | x1 | x2...
1 0 +5.420080947e+001 +9.958708095e+002 +9.958708095e+002 +1.0245e-001 -9.0164e-002
4 0 +0.000000000e+000 +9.416700000e+002 +9.416700000e+002 -5.0000e+000 -5.0000e+000
% f evaluations | g evaluations | best noise-free fitness - Fopt (-3.745000000000e+001) + sum g_i+ | measured fitness | best measured fitness or single-digit g-values | x1 | x2...
1 0 +1.185273161e+001 -2.559726839e+001 -2.559726839e+001 -3.5636e+000 +4.6711e+000
4 0 +0.000000000e+000 -3.745000000e+001 -3.745000000e+001 +5.0000e+000 +5.0000e+000
% f evaluations | g evaluations | best noise-free fitness - Fopt (-6.639000000000e+001) + sum g_i+ | measured fitness | best measured fitness or single-digit g-values | x1 | x2...
1 0 +1.005842207e+002 +3.419422065e+001 +3.419422065e+001 -2.4854e+000 -4.8070e+000
2 0 +8.606225232e+001 +1.967225232e+001 +1.967225232e+001 -2.9824e+000 -3.4045e+000
3 0 +7.285881595e+001 +6.468815950e+000 +6.468815950e+000 -7.1806e-001 -1.8577e+000
4 0 +0.000000000e+000 -6.639000000e+001 -6.639000000e+001 -5.0000e+000 +5.0000e+000
% f evaluations | g evaluations | best noise-free fitness - Fopt (-2.260100000000e+002) + sum g_i+ | measured fitness | best measured fitness or single-digit g-values | x1 | x2...
1 0 +2.723417601e+001 -1.987758240e+002 -1.987758240e+002 +4.4298e+000 +3.2196e+000
4 0 +0.000000000e+000 -2.260100000e+002 -2.260100000e+002 -5.0000e+000 +5.0000e+000
% f evaluations | g evaluations | best noise-free fitness - Fopt (1.000000000000e+003) + sum g_i+ | measured fitness | best measured fitness or single-digit g-values | x1 | x2...
1 0 +8.823307330e+001 +1.088233073e+003 +1.088233073e+003 +3.5004e+000 -2.9733e+000
2 0 +2.460989564e+001 +1.024609896e+003 +1.024609896e+003 -2.0878e+000 +2.8302e+000
3 0 +1.460672470e+001 +1.014606725e+003 +1.014606725e+003 +2.9818e+000 +4.3375e+000
4 0 +0.000000000e+000 +1.000000000e+003 +1.000000000e+003 -5.0000e+000 +5.0000e+000
% f evaluations | g evaluations | best noise-free fitness - Fopt (-1.830200000000e+002) + sum g_i+ | measured fitness | best measured fitness or single-digit g-values | x1 | x2...
1 0 +6.886554858e+001 -1.141544514e+002 -1.141544514e+002 -1.4930e+000 +1.2373e+000
2 0 +2.357561423e+000 -1.806624386e+002 -1.806624386e+002 +3.4168e+000 -4.9226e+000
4 0 +0.000000000e+000 -1.830200000e+002 -1.830200000e+002 +5.0000e+000 -5.0000e+000
% f evaluations | g evaluations | best noise-free fitness - Fopt (-1.026200000000e+002) + sum g_i+ | measured fitness | best measured fitness or single-digit g-values | x1 | x2...
1 0 +4.177699941e+001 -6.084300059e+001 -6.084300059e+001 -4.5718e+000 -8.6512e-001
3 0 +5.840555073e+000 -9.677944493e+001 -9.677944493e+001 +3.8408e-001 -4.9544e+000
4 0 +0.000000000e+000 -1.026200000e+002 -1.026200000e+002 -5.0000e+000 -5.0000e+000
% f evaluations | g evaluations | best noise-free fitness - Fopt (9.953000000000e+001) + sum g_i+ | measured fitness | best measured fitness or single-digit g-values | x1 | x2...
1 0 +2.946697449e+001 +1.289969745e+002 +1.289969745e+002 -3.2227e-001 -2.5211e+000
4 0 +0.000000000e+000 +9.953000000e+001 +9.953000000e+001 -5.0000e+000 -5.0000e+000
% f evaluations | g evaluations | best noise-free fitness - Fopt (1.495900000000e+002) + sum g_i+ | measured fitness | best measured fitness or single-digit g-values | x1 | x2...
1 0 +1.265328078e+001 +1.622432808e+002 +1.622432808e+002 -4.1599e+000 +3.8187e+000
4 0 +0.000000000e+000 +1.495900000e+002 +1.495900000e+002 -5.0000e+000 +5.0000e+000
% f evaluations | g evaluations | best noise-free fitness - Fopt (-1.000000000000e+003) + sum g_i+ | measured fitness | best measured fitness or single-digit g-values | x1 | x2...
1 0 +1.817154176e+001 -9.818284582e+002 -9.818284582e+002 -9.2853e-002 -3.6921e+000
4 0 +0.000000000e+000 -1.000000000e+003 -1.000000000e+003 +5.0000e+000 -5.0000e+000
% f evaluations | g evaluations | best noise-free fitness - Fopt (-2.922000000000e+001) + sum g_i+ | measured fitness | best measured fitness or single-digit g-values | x1 | x2...
1 0 +1.920574605e+001 -1.001425395e+001 -1.001425395e+001 +4.0146e+000 -3.9809e+000
4 0 +0.000000000e+000 -2.922000000e+001 -2.922000000e+001 -5.0000e+000 -5.0000e+000
% f evaluations | g evaluations | best noise-free fitness - Fopt (-4.096000000000e+001) + sum g_i+ | measured fitness | best measured fitness or single-digit g-values | x1 | x2...
1 0 +3.373814131e+001 -7.221858690e+000 -7.221858690e+000 +3.6780e+000 +1.7584e+000
4 0 +0.000000000e+000 -4.096000000e+001 -4.096000000e+001 +5.0000e+000 +5.0000e+000
