% f evaluations | g evaluations | best noise-free fitness - Fopt (-1.694000000000e+001) + sum g_i+ | measured fitness | best measured fitness or single-digit g-values | x1 | x2...
1 0 +2.889401771e+001 +1.195401771e+001 +1.195401771e+001 +3.6104e+000 -4.6377e+000
2 0 +9.165865956e+000 -7.774134044e+000 -7.774134044e+000 +3.5281e+000 +4.3484e-001
6 0 +7.671879553e+000 -9.268120447e+000 -9.268120447e+000 +4.3180e+000 +2.5768e+000
8 0 +5.960112992e+000 -1.097988701e+001 -1.097988701e+001 +5.0000e+000 +1.8399e+000
10 0 +5.533350889e+000 -1.140664911e+001 -1.140664911e+001 +3.0989e+000 -8.6108e-001
14 0 +5.205242602e+000 -1.173475740e+001 -1.173475740e+001 +3.2359e+000 -3.2968e-001
17 0 +4.997606557e+000 -1.194239344e+001 -1.194239344e+001 +4.8322e+000 -1.1732e+000
20 0 +3.142708718e+000 -1.379729128e+001 -1.379729128e+001 +2.7498e+000 +5.0000e+000
27 0 +2.574519580e-001 -1.668254804e+001 -1.668254804e+001 +3.6535e+000 +2.3490e+000
40 0 +2.518877221e-001 -1.668811228e+001 -1.668811228e+001 +3.6121e+000 +2.6065e+000
84 0 +1.410649104e-001 -1.679893509e+001 -1.679893509e+001 +3.6259e+000 +2.6087e+000
255 0 +1.100871230e-001 -1.682991288e+001 -1.682991288e+001 +3.6157e+000 +2.6480e+000
256 0 +7.935542434e-002 -1.686064458e+001 -1.686064458e+001 +3.6657e+000 +2.5596e+000
258 0 +6.372622621e-002 -1.687627377e+001 -1.687627377e+001 +3.6777e+000 +2.5291e+000
280 0 +3.250589755e-002 -1.690749410e+001 -1.690749410e+001 +3.6576e+000 +2.5632e+000
303 0 +1.715978430e-002 -1.692284022e+001 -1.692284022e+001 +3.6621e+000 +2.5448e+000
305 0 +1.643369073e-002 -1.692356631e+001 -1.692356631e+001 +3.6616e+000 +2.5469e+000
378 0 +5.227812444e-003 -1.693477219e+001 -1.693477219e+001 +3.6558e+000 +2.5468e+000
401 0 +3.225638504e-003 -1.693677436e+001 -1.693677436e+001 +3.6553e+000 +2.5482e+000
402 0 +3.138327501e-003 -1.693686167e+001 -1.693686167e+001 +3.6551e+000 +2.5487e+000
420 0 +3.061857577e-003 -1.693693814e+001 -1.693693814e+001 +3.6552e+000 +2.5487e+000
427 0 +1.998114183e-003 -1.693800189e+001 -1.693800189e+001 +3.6562e+000 +2.5484e+000
433 0 +9.827995100e-004 -1.693901720e+001 -1.693901720e+001 +3.6561e+000 +2.5487e+000
502 0 +3.903761680e-004 -1.693960962e+001 -1.693960962e+001 +3.6560e+000 +2.5496e+000
525 0 +2.688938985e-004 -1.693973111e+001 -1.693973111e+001 +3.6560e+000 +2.5494e+000
539 0 +2.334529183e-004 -1.693976655e+001 -1.693976655e+001 +3.6560e+000 +2.5495e+000
682 0 +6.563126968e-005 -1.693993437e+001 -1.693993437e+001 +3.6560e+000 +2.5496e+000
685 0 +3.214253066e-005 -1.693996786e+001 -1.693996786e+001 +3.6560e+000 +2.5496e+000
705 0 +3.103558712e-005 -1.693996896e+001 -1.693996896e+001 +3.6560e+000 +2.5496e+000
720 0 +2.967502484e-005 -1.693997032e+001 -1.693997032e+001 +3.6560e+000 +2.5496e+000
754 0 +2.671690795e-005 -1.693997328e+001 -1.693997328e+001 +3.6560e+000 +2.5496e+000
755 0 +2.501766588e-006 -1.693999750e+001 -1.693999750e+001 +3.6560e+000 +2.5496e+000
764 0 +2.046303496e-006 -1.693999795e+001 -1.693999795e+001 +3.6560e+000 +2.5496e+000
775 0 +6.601644813e-007 -1.693999934e+001 -1.693999934e+001 +3.6560e+000 +2.5496e+000
867 0 +5.218697368e-007 -1.693999948e+001 -1.693999948e+001 +3.6560e+000 +2.5496e+000
910 0 +4.454952638e-007 -1.693999955e+001 -1.693999955e+001 +3.6560e+000 +2.5496e+000
947 0 +3.921047558e-007 -1.693999961e+001 -1.693999961e+001 +3.6560e+000 +2.5496e+000
969 0 +3.270062052e-007 -1.693999967e+001 -1.693999967e+001 +3.6560e+000 +2.5496e+000
977 0 +1.705549124e-007 -1.693999983e+001 -1.693999983e+001 +3.6560e+000 +2.5496e+000
997 0 +5.258626956e-008 -1.693999995e+001 -1.693999995e+001 +3.6560e+000 +2.5496e+000
1079 0 +3.828105477e-008 -1.693999996e+001 -1.693999996e+001 +3.6560e+000 +2.5496e+000
1100 0 +3.018705286e-008 -1.693999997e+001 -1.693999997e+001 +3.6560e+000 +2.5496e+000
1131 0 +1.379283532e-008 -1.693999999e+001 -1.693999999e+001 +3.6560e+000 +2.5496e+000
1132 0 +4.333191583e-009 -1.694000000e+001 -1.694000000e+001 +3.6560e+000 +2.5496e+000
% f evaluations | g evaluations | best noise-free fitness - Fopt (1.881000000000e+001) + sum g_i+ | measured fitness | best measured fitness or single-digit g-values | x1 | x2...
1 0 +2.547263274e+001 +4.428263274e+001 +4.428263274e+001 -3.3347e+000 -1.1295e+000
2 0 +1.168795294e+001 +3.049795294e+001 +3.049795294e+001 +2.6366e+000 +4.5365e+000
6 0 +7.982264551e-001 +1.960822646e+001 +1.960822646e+001 -5.2777e-001 +1.9984e+000
84 0 +4.235244673e-001 +1.923352447e+001 +1.923352447e+001 -1.8790e-001 +1.7355e+000
130 0 +9.802847088e-002 +1.890802847e+001 +1.890802847e+001 -1.2910e-001 +1.7410e+000
245 0 +5.940902976e-002 +1.886940903e+001 +1.886940903e+001 -2.1121e-001 +1.7802e+000
252 0 +4.793174684e-002 +1.885793175e+001 +1.885793175e+001 -1.9353e-001 +1.7718e+000
265 0 +3.673797275e-003 +1.881367380e+001 +1.881367380e+001 -1.8747e-001 +1.7802e+000
307 0 +1.125468062e-003 +1.881112547e+001 +1.881112547e+001 -1.9014e-001 +1.7806e+000
322 0 +2.295318570e-004 +1.881022953e+001 +1.881022953e+001 -1.9139e-001 +1.7808e+000
398 0 +2.985786806e-005 +1.881002986e+001 +1.881002986e+001 -1.9118e-001 +1.7808e+000
499 0 +2.112311446e-005 +1.881002112e+001 +1.881002112e+001 -1.9120e-001 +1.7808e+000
527 0 +1.315977049e-005 +1.881001316e+001 +1.881001316e+001 -1.9120e-001 +1.7808e+000
546 0 +8.039060511e-006 +1.881000804e+001 +1.881000804e+001 -1.9120e-001 +1.7808e+000
550 0 +3.495063805e-006 +1.881000350e+001 +1.881000350e+001 -1.9120e-001 +1.7808e+000
554 0 +1.146003321e-006 +1.881000115e+001 +1.881000115e+001 -1.9120e-001 +1.7808e+000
573 0 +4.521166339e-007 +1.881000045e+001 +1.881000045e+001 -1.9120e-001 +1.7808e+000
605 0 +3.240192896e-007 +1.881000032e+001 +1.881000032e+001 -1.9120e-001 +1.7808e+000
625 0 +3.116701635e-007 +1.881000031e+001 +1.881000031e+001 -1.9120e-001 +1.7808e+000
638 0 +1.327251198e-007 +1.881000013e+001 +1.881000013e+001 -1.9120e-001 +1.7808e+000
648 0 +1.024207883e-007 +1.881000010e+001 +1.881000010e+001 -1.9120e-001 +1.7808e+000
653 0 +8.343778646e-008 +1.881000008e+001 +1.881000008e+001 -1.9120e-001 +1.7808e+000
657 0 +4.185631752e-008 +1.881000004e+001 +1.881000004e+001 -1.9120e-001 +1.7808e+000
668 0 +7.409749259e-009 +1.881000001e+001 +1.881000001e+001 -1.9120e-001 +1.7808e+000
% f evaluations | g evaluations | best noise-free fitness - Fopt (2.731500000000e+002) + sum g_i+ | measured fitness | best measured fitness or single-digit g-values | x1 | x2...
1 0 +5.889535242e+000 +2.790395352e+002 +2.790395352e+002 -3.5712e+000 +1.1807e+000
14 0 +4.956407784e+000 +2.781064078e+002 +2.781064078e+002 -1.9446e+000 +5.0000e+000
20 0 +3.897572520e+000 +2.770475725e+002 +2.770475725e+002 -2.1977e+000 +5.0000e+000
45 0 +3.121750274e+000 +2.762717503e+002 +2.762717503e+002 -2.8849e+000 +3.9892e+000
65 0 +8.796881315e-001 +2.740296881e+002 +2.740296881e+002 -3.3247e+000 +3.9971e+000
98 0 +8.431287114e-001 +2.739931287e+002 +2.739931287e+002 -3.3301e+000 +3.9760e+000
124 0 +2.876396393e-001 +2.734376396e+002 +2.734376396e+002 -3.5324e+000 +3.8292e+000
184 0 +2.795597404e-001 +2.734295597e+002 +2.734295597e+002 -3.5714e+000 +3.8885e+000
196 0 +2.098519282e-001 +2.733598519e+002 +2.733598519e+002 -3.6071e+000 +3.8047e+000
205 0 +6.905936891e-002 +2.732190594e+002 +2.732190594e+002 -3.5718e+000 +3.7426e+000
238 0 +6.480439597e-002 +2.732148044e+002 +2.732148044e+002 -3.5897e+000 +3.7045e+000
290 0 +6.110878516e-002 +2.732111088e+002 +2.732111088e+002 -3.5805e+000 +3.7902e+000
324 0 +5.382916940e-002 +2.732038292e+002 +2.732038292e+002 -3.5714e+000 +3.7559e+000
333 0 +3.789082262e-002 +2.731878908e+002 +2.731878908e+002 -3.5727e+000 +3.7429e+000
360 0 +1.693613863e-002 +2.731669361e+002 +2.731669361e+002 -3.5730e+000 +3.7548e+000
417 0 +1.218692027e-002 +2.731621869e+002 +2.731621869e+002 -3.5773e+000 +3.7548e+000
424 0 +1.062257572e-002 +2.731606226e+002 +2.731606226e+002 -3.5754e+000 +3.7601e+000
438 0 +8.216145054e-003 +2.731582161e+002 +2.731582161e+002 -3.5749e+000 +3.7624e+000
457 0 +8.066923756e-003 +2.731580669e+002 +2.731580669e+002 -3.5781e+000 +3.7605e+000
458 0 +7.587025238e-003 +2.731575870e+002 +2.731575870e+002 -3.5788e+000 +3.7495e+000
463 0 +2.011907800e-003 +2.731520119e+002 +2.731520119e+002 -3.5795e+000 +3.7532e+000
472 0 +1.001499669e-003 +2.731510015e+002 +2.731510015e+002 -3.5793e+000 +3.7529e+000
572 0 +3.076253379e-004 +2.731503076e+002 +2.731503076e+002 -3.5793e+000 +3.7536e+000
591 0 +4.501102347e-005 +2.731500450e+002 +2.731500450e+002 -3.5792e+000 +3.7536e+000
620 0 +8.799019611e-007 +2.731500009e+002 +2.731500009e+002 -3.5792e+000 +3.7536e+000
736 0 +7.150867418e-007 +2.731500007e+002 +2.731500007e+002 -3.5792e+000 +3.7536e+000
767 0 +6.714922733e-007 +2.731500007e+002 +2.731500007e+002 -3.5792e+000 +3.7536e+000
791 0 +6.349153523e-007 +2.731500006e+002 +2.731500006e+002 -3.5792e+000 +3.7536e+000
820 0 +6.300842870e-007 +2.731500006e+002 +2.731500006e+002 -3.5792e+000 +3.7536e+000
831 0 +5.820506317e-007 +2.731500006e+002 +2.731500006e+002 -3.5792e+000 +3.7536e+000
837 0 +5.613194958e-007 +2.731500006e+002 +2.731500006e+002 -3.5792e+000 +3.7536e+000
838 0 +4.490979109e-007 +2.731500004e+002 +2.731500004e+002 -3.5792e+000 +3.7536e+000
854 0 +4.189241736e-007 +2.731500004e+002 +2.731500004e+002 -3.5792e+000 +3.7536e+000
882 0 +3.882413466e-007 +2.731500004e+002 +2.731500004e+002 -3.5792e+000 +3.7536e+000
893 0 +2.987361540e-007 +2.731500003e+002 +2.731500003e+002 -3.5792e+000 +3.7536e+000
895 0 +2.812005278e-007 +2.731500003e+002 +2.731500003e+002 -3.5792e+000 +3.7536e+000
940 0 +6.843913525e-008 +2.731500001e+002 +2.731500001e+002 -3.5792e+000 +3.7536e+000
965 0 +2.955005129e-008 +2.731500000e+002 +2.731500000e+002 -3.5792e+000 +3.7536e+000
994 0 +2.948706879e-008 +2.731500000e+002 +2.731500000e+002 -3.5792e+000 +3.7536e+000
1000 0 +2.832996415e-008 +2.731500000e+002 +2.731500000e+002 -3.5792e+000 +3.7536e+000
1004 0 +7.467065188e-009 +2.731500000e+002 +2.731500000e+002 -3.5792e+000 +3.7536e+000
% f evaluations | g evaluations | best noise-free fitness - Fopt (3.718000000000e+001) + sum g_i+ | measured fitness | best measured fitness or single-digit g-values | x1 | x2...
1 0 +7.104831186e+001 +1.082283119e+002 +1.082283119e+002 -3.2291e-001 -3.9299e+000
2 0 +1.110083923e+000 +3.829008392e+001 +3.829008392e+001 -2.8893e+000 +2.0929e+000
81 0 +9.684690838e-001 +3.814846908e+001 +3.814846908e+001 -4.3938e+000 +2.0185e+000
118 0 +5.815200106e-001 +3.776152001e+001 +3.776152001e+001 -4.3291e+000 +2.2097e+000
144 0 +3.674043469e-001 +3.754740435e+001 +3.754740435e+001 -3.9138e+000 +1.9452e+000
178 0 +2.658376413e-001 +3.744583764e+001 +3.744583764e+001 -4.0440e+000 +2.0081e+000
204 0 +2.455242355e-001 +3.742552424e+001 +3.742552424e+001 -3.7424e+000 +2.1449e+000
217 0 +7.123308264e-002 +3.725123308e+001 +3.725123308e+001 -3.8788e+000 +2.0661e+000
234 0 +5.970510127e-002 +3.723970510e+001 +3.723970510e+001 -3.8516e+000 +2.0450e+000
344 0 +4.281303565e-002 +3.722281304e+001 +3.722281304e+001 -3.8998e+000 +2.0716e+000
357 0 +3.193337440e-002 +3.721193337e+001 +3.721193337e+001 -3.9150e+000 +2.0714e+000
381 0 +1.813382802e-002 +3.719813383e+001 +3.719813383e+001 -3.9027e+000 +2.0618e+000
386 0 +1.499699613e-002 +3.719499700e+001 +3.719499700e+001 -3.9031e+000 +2.0619e+000
431 0 +7.550086046e-003 +3.718755009e+001 +3.718755009e+001 -3.9036e+000 +2.0624e+000
474 0 +3.466749072e-003 +3.718346675e+001 +3.718346675e+001 -3.8978e+000 +2.0590e+000
488 0 +3.215868286e-003 +3.718321587e+001 +3.718321587e+001 -3.8975e+000 +2.0591e+000
523 0 +3.073316857e-003 +3.718307332e+001 +3.718307332e+001 -3.8977e+000 +2.0591e+000
545 0 +1.625453139e-003 +3.718162545e+001 +3.718162545e+001 -3.8991e+000 +2.0601e+000
555 0 +1.420701911e-003 +3.718142070e+001 +3.718142070e+001 -3.8988e+000 +2.0602e+000
562 0 +1.075791621e-003 +3.718107579e+001 +3.718107579e+001 -3.8989e+000 +2.0601e+000
565 0 +8.015744944e-004 +3.718080157e+001 +3.718080157e+001 -3.8990e+000 +2.0599e+000
571 0 +2.817241987e-004 +3.718028172e+001 +3.718028172e+001 -3.8992e+000 +2.0599e+000
576 0 +2.678004230e-004 +3.718026780e+001 +3.718026780e+001 -3.8991e+000 +2.0600e+000
601 0 +2.307212218e-004 +3.718023072e+001 +3.718023072e+001 -3.8992e+000 +2.0599e+000
659 0 +7.841901233e-005 +3.718007842e+001 +3.718007842e+001 -3.8992e+000 +2.0600e+000
672 0 +5.291354240e-005 +3.718005291e+001 +3.718005291e+001 -3.8992e+000 +2.0600e+000
678 0 +3.719975901e-005 +3.718003720e+001 +3.718003720e+001 -3.8992e+000 +2.0600e+000
698 0 +3.538534051e-005 +3.718003539e+001 +3.718003539e+001 -3.8992e+000 +2.0600e+000
706 0 +3.403354660e-005 +3.718003403e+001 +3.718003403e+001 -3.8992e+000 +2.0600e+000
707 0 +2.904937870e-005 +3.718002905e+001 +3.718002905e+001 -3.8992e+000 +2.0600e+000
744 0 +1.454232351e-005 +3.718001454e+001 +3.718001454e+001 -3.8992e+000 +2.0600e+000
761 0 +2.604150325e-006 +3.718000260e+001 +3.718000260e+001 -3.8992e+000 +2.0600e+000
777 0 +1.249793762e-006 +3.718000125e+001 +3.718000125e+001 -3.8992e+000 +2.0600e+000
798 0 +5.880625480e-007 +3.718000059e+001 +3.718000059e+001 -3.8992e+000 +2.0600e+000
802 0 +5.743906542e-007 +3.718000057e+001 +3.718000057e+001 -3.8992e+000 +2.0600e+000
818 0 +3.779827509e-007 +3.718000038e+001 +3.718000038e+001 -3.8992e+000 +2.0600e+000
833 0 +3.501507848e-007 +3.718000035e+001 +3.718000035e+001 -3.8992e+000 +2.0600e+000
882 0 +3.371659716e-007 +3.718000034e+001 +3.718000034e+001 -3.8992e+000 +2.0600e+000
884 0 +2.191766271e-007 +3.718000022e+001 +3.718000022e+001 -3.8992e+000 +2.0600e+000
895 0 +4.608147464e-008 +3.718000005e+001 +3.718000005e+001 -3.8992e+000 +2.0600e+000
956 0 +3.010920580e-008 +3.718000003e+001 +3.718000003e+001 -3.8992e+000 +2.0600e+000
987 0 +2.587627534e-008 +3.718000003e+001 +3.718000003e+001 -3.8992e+000 +2.0600e+000
1005 0 +1.262908711e-008 +3.718000001e+001 +3.718000001e+001 -3.8992e+000 +2.0600e+000
1008 0 +1.207275346e-008 +3.718000001e+001 +3.718000001e+001 -3.8992e+000 +2.0600e+000
1032 0 +7.411088632e-009 +3.718000001e+001 +3.718000001e+001 -3.8992e+000 +2.0600e+000
% f evaluations | g evaluations | best noise-free fitness - Fopt (-1.479000000000e+002) + sum g_i+ | measured fitness | best measured fitness or single-digit g-values | x1 | x2...
1 0 +8.287928360e+000 -1.396120716e+002 -1.396120716e+002 -5.5207e-001 -8.7116e-002
5 0 +4.182812573e+000 -1.437171874e+002 -1.437171874e+002 +6.0248e-001 -2.8494e+000
14 0 +3.471800413e+000 -1.444281996e+002 -1.444281996e+002 -2.0408e+000 -8.5840e-001
23 0 +3.465324312e+000 -1.444346757e+002 -1.444346757e+002 -1.4871e+000 -1.0911e+000
37 0 +7.409804933e-001 -1.471590195e+002 -1.471590195e+002 -1.8218e+000 +2.5480e-001
44 0 +5.378734791e-001 -1.473621265e+002 -1.473621265e+002 -1.7981e+000 +3.1305e-002
150 0 +4.296071907e-001 -1.474703928e+002 -1.474703928e+002 -1.8249e+000 +1.2962e-001
186 0 +4.230005809e-001 -1.474769994e+002 -1.474769994e+002 -1.3305e+000 -5.4569e-002
188 0 +1.581749451e-001 -1.477418251e+002 -1.477418251e+002 -1.7742e+000 +2.5208e-001
285 0 +1.537889174e-001 -1.477462111e+002 -1.477462111e+002 -1.5969e+000 +1.1163e-001
291 0 +7.806252421e-002 -1.478219375e+002 -1.478219375e+002 -1.6590e+000 +1.4451e-001
333 0 +3.954477942e-002 -1.478604552e+002 -1.478604552e+002 -1.6450e+000 +1.1954e-001
345 0 +1.874558603e-002 -1.478812544e+002 -1.478812544e+002 -1.6656e+000 +1.3850e-001
349 0 +1.782524688e-002 -1.478821748e+002 -1.478821748e+002 -1.6782e+000 +1.4652e-001
403 0 +1.668541127e-002 -1.478833146e+002 -1.478833146e+002 -1.6721e+000 +1.4394e-001
436 0 +8.588845215e-003 -1.478914112e+002 -1.478914112e+002 -1.6655e+000 +1.3429e-001
440 0 +7.622471529e-003 -1.478923775e+002 -1.478923775e+002 -1.6654e+000 +1.3389e-001
463 0 +7.549029829e-003 -1.478924510e+002 -1.478924510e+002 -1.6655e+000 +1.3383e-001
490 0 +4.663518148e-003 -1.478953365e+002 -1.478953365e+002 -1.6679e+000 +1.3273e-001
498 0 +3.056669564e-003 -1.478969433e+002 -1.478969433e+002 -1.6686e+000 +1.3480e-001
602 0 +2.638825481e-003 -1.478973612e+002 -1.478973612e+002 -1.6695e+000 +1.3487e-001
628 0 +1.895533296e-003 -1.478981045e+002 -1.478981045e+002 -1.6706e+000 +1.3515e-001
633 0 +1.026716046e-003 -1.478989733e+002 -1.478989733e+002 -1.6711e+000 +1.3569e-001
648 0 +4.859467323e-004 -1.478995141e+002 -1.478995141e+002 -1.6702e+000 +1.3503e-001
649 0 +3.786767957e-004 -1.478996213e+002 -1.478996213e+002 -1.6703e+000 +1.3511e-001
652 0 +2.349381305e-004 -1.478997651e+002 -1.478997651e+002 -1.6703e+000 +1.3519e-001
813 0 +2.336296439e-004 -1.478997664e+002 -1.478997664e+002 -1.6703e+000 +1.3520e-001
1018 0 +1.156453791e-004 -1.478998844e+002 -1.478998844e+002 -1.6704e+000 +1.3517e-001
1020 0 +1.113771487e-004 -1.478998886e+002 -1.478998886e+002 -1.6704e+000 +1.3517e-001
1031 0 +9.123746932e-005 -1.478999088e+002 -1.478999088e+002 -1.6704e+000 +1.3518e-001
1035 0 +7.745429147e-005 -1.478999225e+002 -1.478999225e+002 -1.6704e+000 +1.3517e-001
1054 0 +6.516867310e-005 -1.478999348e+002 -1.478999348e+002 -1.6704e+000 +1.3518e-001
1055 0 +2.882744690e-005 -1.478999712e+002 -1.478999712e+002 -1.6704e+000 +1.3519e-001
2229 0 +2.216908598e-006 -1.478999978e+002 -1.478999978e+002 -1.6704e+000 +1.3520e-001
2247 0 +8.408173358e-007 -1.478999992e+002 -1.478999992e+002 -1.6704e+000 +1.3520e-001
2307 0 +7.639904993e-007 -1.478999992e+002 -1.478999992e+002 -1.6704e+000 +1.3520e-001
2310 0 +6.604849716e-007 -1.478999993e+002 -1.478999993e+002 -1.6704e+000 +1.3520e-001
2312 0 +4.418625679e-007 -1.478999996e+002 -1.478999996e+002 -1.6704e+000 +1.3520e-001
2375 0 +3.413935588e-007 -1.478999997e+002 -1.478999997e+002 -1.6704e+000 +1.3520e-001
2377 0 +1.980100421e-007 -1.478999998e+002 -1.478999998e+002 -1.6704e+000 +1.3520e-001
2393 0 +1.203202089e-007 -1.478999999e+002 -1.478999999e+002 -1.6704e+000 +1.3520e-001
2403 0 +1.161855323e-007 -1.478999999e+002 -1.478999999e+002 -1.6704e+000 +1.3520e-001
2416 0 +7.116437928e-008 -1.478999999e+002 -1.478999999e+002 -1.6704e+000 +1.3520e-001
2422 0 +1.841925723e-008 -1.479000000e+002 -1.479000000e+002 -1.6704e+000 +1.3520e-001
2442 0 +8.442299304e-009 -1.479000000e+002 -1.479000000e+002 -1.6704e+000 +1.3520e-001
% f evaluations | g evaluations | best noise-free fitness - Fopt (4.817100000000e+002) + sum g_i+ | measured fitness | best measured fitness or single-digit g-values | x1 | x2...
1 0 +4.146653381e+002 +8.963753381e+002 +8.963753381e+002 -3.8187e+000 +2.3468e+000
2 0 +3.076682738e+002 +7.893782738e+002 +7.893782738e+002 -4.1845e+000 +3.6930e+000
3 0 +8.933958625e+001 +5.710495863e+002 +5.710495863e+002 -2.4304e+000 -8.1960e-002
4 0 +8.056620439e+001 +5.622762044e+002 +5.622762044e+002 +5.0000e+000 +5.0000e+000
5 0 +3.870823202e+001 +5.204182320e+002 +5.204182320e+002 -1.1318e+000 -1.5630e+000
7 0 +2.002554840e+000 +4.837125548e+002 +4.837125548e+002 +1.5733e+000 -1.5719e+000
53 0 +7.552798197e-001 +4.824652798e+002 +4.824652798e+002 +9.8225e-001 -2.2466e+000
205 0 +7.362953055e-001 +4.824462953e+002 +4.824462953e+002 +1.2042e+000 -2.8838e+000
231 0 +9.979304362e-002 +4.818097930e+002 +4.818097930e+002 +1.0106e+000 -2.9449e+000
285 0 +9.378627175e-002 +4.818037863e+002 +4.818037863e+002 +1.0475e+000 -2.9832e+000
293 0 +3.281602558e-002 +4.817428160e+002 +4.817428160e+002 +1.0512e+000 -3.0006e+000
329 0 +1.812107144e-002 +4.817281211e+002 +4.817281211e+002 +1.0459e+000 -2.9986e+000
385 0 +3.387266812e-003 +4.817133873e+002 +4.817133873e+002 +1.0397e+000 -3.0027e+000
444 0 +1.590125566e-003 +4.817115901e+002 +4.817115901e+002 +1.0407e+000 -3.0003e+000
454 0 +1.021745709e-003 +4.817110217e+002 +4.817110217e+002 +1.0406e+000 -3.0003e+000
529 0 +2.267113711e-004 +4.817102267e+002 +4.817102267e+002 +1.0408e+000 -3.0007e+000
558 0 +1.810353453e-004 +4.817101810e+002 +4.817101810e+002 +1.0408e+000 -3.0009e+000
562 0 +1.037266612e-004 +4.817101037e+002 +4.817101037e+002 +1.0408e+000 -3.0008e+000
578 0 +3.758130947e-005 +4.817100376e+002 +4.817100376e+002 +1.0408e+000 -3.0008e+000
611 0 +2.966782421e-005 +4.817100297e+002 +4.817100297e+002 +1.0408e+000 -3.0008e+000
638 0 +2.887727106e-005 +4.817100289e+002 +4.817100289e+002 +1.0408e+000 -3.0008e+000
659 0 +2.879459441e-005 +4.817100288e+002 +4.817100288e+002 +1.0408e+000 -3.0008e+000
714 0 +8.868196062e-006 +4.817100089e+002 +4.817100089e+002 +1.0408e+000 -3.0008e+000
775 0 +2.332775011e-006 +4.817100023e+002 +4.817100023e+002 +1.0408e+000 -3.0008e+000
776 0 +1.307721675e-006 +4.817100013e+002 +4.817100013e+002 +1.0408e+000 -3.0008e+000
791 0 +1.210282221e-006 +4.817100012e+002 +4.817100012e+002 +1.0408e+000 -3.0008e+000
827 0 +7.796211889e-007 +4.817100008e+002 +4.817100008e+002 +1.0408e+000 -3.0008e+000
837 0 +6.386056270e-007 +4.817100006e+002 +4.817100006e+002 +1.0408e+000 -3.0008e+000
839 0 +6.205045793e-007 +4.817100006e+002 +4.817100006e+002 +1.0408e+000 -3.0008e+000
845 0 +5.771329938e-007 +4.817100006e+002 +4.817100006e+002 +1.0408e+000 -3.0008e+000
847 0 +4.493711572e-007 +4.817100004e+002 +4.817100004e+002 +1.0408e+000 -3.0008e+000
924 0 +4.236880500e-007 +4.817100004e+002 +4.817100004e+002 +1.0408e+000 -3.0008e+000
928 0 +3.017003678e-007 +4.817100003e+002 +4.817100003e+002 +1.0408e+000 -3.0008e+000
930 0 +2.108305921e-007 +4.817100002e+002 +4.817100002e+002 +1.0408e+000 -3.0008e+000
964 0 +1.913642222e-007 +4.817100002e+002 +4.817100002e+002 +1.0408e+000 -3.0008e+000
976 0 +1.787454948e-007 +4.817100002e+002 +4.817100002e+002 +1.0408e+000 -3.0008e+000
983 0 +8.574903632e-008 +4.817100001e+002 +4.817100001e+002 +1.0408e+000 -3.0008e+000
991 0 +8.222201586e-008 +4.817100001e+002 +4.817100001e+002 +1.0408e+000 -3.0008e+000
1070 0 +5.781618029e-008 +4.817100001e+002 +4.817100001e+002 +1.0408e+000 -3.0008e+000
1084 0 +2.106276042e-008 +4.817100000e+002 +4.817100000e+002 +1.0408e+000 -3.0008e+000
1121 0 +4.835442269e-009 +4.817100000e+002 +4.817100000e+002 +1.0408e+000 -3.0008e+000
% f evaluations | g evaluations | best noise-free fitness - Fopt (-3.646000000000e+001) + sum g_i+ | measured fitness | best measured fitness or single-digit g-values | x1 | x2...
1 0 +3.529961727e+002 +3.165361727e+002 +3.165361727e+002 -5.5494e-001 +4.5866e+000
2 0 +6.052242539e+001 +2.406242539e+001 +2.406242539e+001 +2.1270e+000 +2.2414e+000
4 0 +5.776781879e+000 -3.068321812e+001 -3.068321812e+001 +5.0000e+000 -5.0000e+000
8 0 +4.119018854e+000 -3.234098115e+001 -3.234098115e+001 +1.5455e+000 -2.8076e+000
10 0 +2.794086371e+000 -3.366591363e+001 -3.366591363e+001 +3.0095e+000 -3.1378e+000
59 0 +7.669222966e-001 -3.569307770e+001 -3.569307770e+001 +2.5011e+000 -3.0462e+000
184 0 +6.765698515e-001 -3.578343015e+001 -3.578343015e+001 +1.9986e+000 -2.7125e+000
208 0 +3.629150560e-001 -3.609708494e+001 -3.609708494e+001 +2.1251e+000 -2.6228e+000
233 0 +2.594622208e-001 -3.620053778e+001 -3.620053778e+001 +2.2372e+000 -2.8961e+000
234 0 +2.502497098e-001 -3.620975029e+001 -3.620975029e+001 +2.1675e+000 -2.9160e+000
244 0 +1.097927344e-001 -3.635020727e+001 -3.635020727e+001 +2.1569e+000 -2.8427e+000
262 0 +1.022153342e-001 -3.635778467e+001 -3.635778467e+001 +2.1569e+000 -2.8465e+000
278 0 +8.804087022e-002 -3.637195913e+001 -3.637195913e+001 +2.1085e+000 -2.8572e+000
285 0 +1.831733974e-002 -3.644168266e+001 -3.644168266e+001 +2.1289e+000 -2.8614e+000
344 0 +1.652703934e-002 -3.644347296e+001 -3.644347296e+001 +2.1201e+000 -2.8355e+000
361 0 +7.830061350e-003 -3.645216994e+001 -3.645216994e+001 +2.1253e+000 -2.8491e+000
385 0 +7.701279409e-003 -3.645229872e+001 -3.645229872e+001 +2.1246e+000 -2.8474e+000
425 0 +4.456093658e-003 -3.645554391e+001 -3.645554391e+001 +2.1214e+000 -2.8487e+000
448 0 +3.220714656e-003 -3.645677929e+001 -3.645677929e+001 +2.1224e+000 -2.8477e+000
481 0 +1.570836733e-003 -3.645842916e+001 -3.645842916e+001 +2.1213e+000 -2.8471e+000
482 0 +9.881590891e-004 -3.645901184e+001 -3.645901184e+001 +2.1212e+000 -2.8471e+000
558 0 +2.377590572e-004 -3.645976224e+001 -3.645976224e+001 +2.1215e+000 -2.8472e+000
609 0 +2.331992826e-004 -3.645976680e+001 -3.645976680e+001 +2.1216e+000 -2.8473e+000
5224 0 +2.037663277e-004 -3.645979623e+001 -3.645979623e+001 +2.1216e+000 -2.8472e+000
5230 0 +4.822745673e-005 -3.645995177e+001 -3.645995177e+001 +2.1216e+000 -2.8472e+000
5233 0 +3.711869022e-005 -3.645996288e+001 -3.645996288e+001 +2.1216e+000 -2.8472e+000
5240 0 +2.878785997e-005 -3.645997121e+001 -3.645997121e+001 +2.1216e+000 -2.8472e+000
5339 0 +2.072209791e-005 -3.645997928e+001 -3.645997928e+001 +2.1216e+000 -2.8472e+000
5345 0 +1.752891713e-005 -3.645998247e+001 -3.645998247e+001 +2.1216e+000 -2.8472e+000
5361 0 +1.101196341e-005 -3.645998899e+001 -3.645998899e+001 +2.1216e+000 -2.8472e+000
5367 0 +7.725149480e-006 -3.645999227e+001 -3.645999227e+001 +2.1216e+000 -2.8472e+000
5370 0 +4.568445362e-006 -3.645999543e+001 -3.645999543e+001 +2.1216e+000 -2.8472e+000
5376 0 +4.457501063e-006 -3.645999554e+001 -3.645999554e+001 +2.1216e+000 -2.8472e+000
5382 0 +3.115135478e-006 -3.645999688e+001 -3.645999688e+001 +2.1216e+000 -2.8472e+000
5389 0 +2.962219583e-006 -3.645999704e+001 -3.645999704e+001 +2.1216e+000 -2.8472e+000
5391 0 +8.892357286e-007 -3.645999911e+001 -3.645999911e+001 +2.1216e+000 -2.8472e+000
5408 0 +8.634924953e-007 -3.645999914e+001 -3.645999914e+001 +2.1216e+000 -2.8472e+000
5411 0 +7.625690657e-007 -3.645999924e+001 -3.645999924e+001 +2.1216e+000 -2.8472e+000
5414 0 +6.752693054e-007 -3.645999932e+001 -3.645999932e+001 +2.1216e+000 -2.8472e+000
5429 0 +6.451806129e-007 -3.645999935e+001 -3.645999935e+001 +2.1216e+000 -2.8472e+000
5457 0 +4.751058640e-007 -3.645999952e+001 -3.645999952e+001 +2.1216e+000 -2.8472e+000
5481 0 +2.108685422e-007 -3.645999979e+001 -3.645999979e+001 +2.1216e+000 -2.8472e+000
5487 0 +1.699650696e-007 -3.645999983e+001 -3.645999983e+001 +2.1216e+000 -2.8472e+000
5497 0 +1.377944159e-007 -3.645999986e+001 -3.645999986e+001 +2.1216e+000 -2.8472e+000
5513 0 +5.049884777e-008 -3.645999995e+001 -3.645999995e+001 +2.1216e+000 -2.8472e+000
5520 0 +2.383180941e-008 -3.645999998e+001 -3.645999998e+001 +2.1216e+000 -2.8472e+000
5577 0 +1.648178483e-008 -3.645999998e+001 -3.645999998e+001 +2.1216e+000 -2.8472e+000
5594 0 +1.154868556e-008 -3.645999999e+001 -3.645999999e+001 +2.1216e+000 -2.8472e+000
5599 0 +6.250907347e-009 -3.645999999e+001 -3.645999999e+001 +2.1216e+000 -2.8472e+000
% f evaluations | g evaluations | best noise-free fitness - Fopt (3.920000000000e+001) + sum g_i+ | measured fitness | best measured fitness or single-digit g-values | x1 | x2...
1 0 +4.815950308e+001 +8.735950308e+001 +8.735950308e+001 +4.3311e+000 -2.9890e+000
2 0 +3.179176698e+001 +7.099176698e+001 +7.099176698e+001 +3.1405e-001 +9.0451e-001
3 0 +4.739887483e+000 +4.393988748e+001 +4.393988748e+001 +4.5483e+000 +1.9382e+000
10 0 +2.510790925e+000 +4.171079093e+001 +4.171079093e+001 +5.0000e+000 +2.2496e+000
14 0 +1.860549655e+000 +4.106054966e+001 +4.106054966e+001 +3.6551e+000 +2.4616e+000
16 0 +1.540268572e+000 +4.074026857e+001 +4.074026857e+001 +3.9562e+000 +2.3162e+000
23 0 +1.424145220e+000 +4.062414522e+001 +4.062414522e+001 +4.4735e+000 +2.0522e+000
36 0 +1.054442279e+000 +4.025444228e+001 +4.025444228e+001 +4.1457e+000 +2.1952e+000
47 0 +1.029963786e+000 +4.022996379e+001 +4.022996379e+001 +4.3433e+000 +2.0963e+000
114 0 +5.737178092e-001 +3.977371781e+001 +3.977371781e+001 +4.0440e+000 +2.0617e+000
165 0 +2.877422654e-001 +3.948774227e+001 +3.948774227e+001 +3.7572e+000 +1.6952e+000
219 0 +1.957390055e-001 +3.939573901e+001 +3.939573901e+001 +3.7338e+000 +1.5888e+000
249 0 +1.693896838e-001 +3.936938968e+001 +3.936938968e+001 +3.6660e+000 +1.6340e+000
278 0 +1.577307557e-001 +3.935773076e+001 +3.935773076e+001 +3.6243e+000 +1.5743e+000
345 0 +7.974242059e-002 +3.927974242e+001 +3.927974242e+001 +3.6676e+000 +1.5701e+000
349 0 +5.770596550e-002 +3.925770597e+001 +3.925770597e+001 +3.7427e+000 +1.6265e+000
357 0 +5.162194075e-002 +3.925162194e+001 +3.925162194e+001 +3.7311e+000 +1.6223e+000
370 0 +1.892876979e-002 +3.921892877e+001 +3.921892877e+001 +3.7230e+000 +1.6226e+000
441 0 +1.642603123e-002 +3.921642603e+001 +3.921642603e+001 +3.7234e+000 +1.6227e+000
454 0 +1.262213094e-002 +3.921262213e+001 +3.921262213e+001 +3.7163e+000 +1.6229e+000
466 0 +1.138186897e-002 +3.921138187e+001 +3.921138187e+001 +3.7164e+000 +1.6231e+000
480 0 +7.599815670e-003 +3.920759982e+001 +3.920759982e+001 +3.7173e+000 +1.6229e+000
499 0 +7.549591942e-003 +3.920754959e+001 +3.920754959e+001 +3.7177e+000 +1.6228e+000
1744 0 +3.247226284e-003 +3.920324723e+001 +3.920324723e+001 +3.7214e+000 +1.6277e+000
1747 0 +3.163630817e-003 +3.920316363e+001 +3.920316363e+001 +3.7209e+000 +1.6283e+000
1776 0 +3.031009868e-003 +3.920303101e+001 +3.920303101e+001 +3.7223e+000 +1.6307e+000
1830 0 +2.154497722e-003 +3.920215450e+001 +3.920215450e+001 +3.7229e+000 +1.6299e+000
1837 0 +1.045211485e-003 +3.920104521e+001 +3.920104521e+001 +3.7226e+000 +1.6296e+000
1844 0 +1.005112416e-003 +3.920100511e+001 +3.920100511e+001 +3.7238e+000 +1.6309e+000
1893 0 +9.955145863e-004 +3.920099551e+001 +3.920099551e+001 +3.7238e+000 +1.6310e+000
1927 0 +3.022235668e-004 +3.920030222e+001 +3.920030222e+001 +3.7234e+000 +1.6305e+000
1929 0 +2.708861261e-004 +3.920027089e+001 +3.920027089e+001 +3.7234e+000 +1.6306e+000
1931 0 +2.541465430e-004 +3.920025415e+001 +3.920025415e+001 +3.7233e+000 +1.6304e+000
1983 0 +2.340410874e-004 +3.920023404e+001 +3.920023404e+001 +3.7232e+000 +1.6303e+000
2002 0 +2.239007857e-004 +3.920022390e+001 +3.920022390e+001 +3.7232e+000 +1.6304e+000
2010 0 +1.744168771e-004 +3.920017442e+001 +3.920017442e+001 +3.7232e+000 +1.6304e+000
2017 0 +6.871855288e-005 +3.920006872e+001 +3.920006872e+001 +3.7232e+000 +1.6304e+000
2025 0 +5.784869099e-005 +3.920005785e+001 +3.920005785e+001 +3.7232e+000 +1.6304e+000
2035 0 +2.884934801e-005 +3.920002885e+001 +3.920002885e+001 +3.7232e+000 +1.6304e+000
2055 0 +2.877957329e-005 +3.920002878e+001 +3.920002878e+001 +3.7232e+000 +1.6304e+000
3436 0 +2.816597497e-005 +3.920002817e+001 +3.920002817e+001 +3.7232e+000 +1.6304e+000
3450 0 +1.489631958e-005 +3.920001490e+001 +3.920001490e+001 +3.7232e+000 +1.6304e+000
3462 0 +6.831428315e-006 +3.920000683e+001 +3.920000683e+001 +3.7232e+000 +1.6304e+000
3475 0 +2.655307263e-006 +3.920000266e+001 +3.920000266e+001 +3.7232e+000 +1.6304e+000
3482 0 +1.110206121e-006 +3.920000111e+001 +3.920000111e+001 +3.7232e+000 +1.6304e+000
3496 0 +1.013520986e-006 +3.920000101e+001 +3.920000101e+001 +3.7232e+000 +1.6304e+000
3572 0 +9.836557169e-007 +3.920000098e+001 +3.920000098e+001 +3.7232e+000 +1.6304e+000
3580 0 +6.300813808e-007 +3.920000063e+001 +3.920000063e+001 +3.7232e+000 +1.6304e+000
3613 0 +5.557006375e-007 +3.920000056e+001 +3.920000056e+001 +3.7232e+000 +1.6304e+000
3618 0 +3.875224266e-007 +3.920000039e+001 +3.920000039e+001 +3.7232e+000 +1.6304e+000
3619 0 +3.295617006e-007 +3.920000033e+001 +3.920000033e+001 +3.7232e+000 +1.6304e+000
3671 0 +1.726665531e-007 +3.920000017e+001 +3.920000017e+001 +3.7232e+000 +1.6304e+000
3678 0 +1.413236390e-007 +3.920000014e+001 +3.920000014e+001 +3.7232e+000 +1.6304e+000
3683 0 +9.335295204e-009 +3.920000001e+001 +3.920000001e+001 +3.7232e+000 +1.6304e+000
% f evaluations | g evaluations | best noise-free fitness - Fopt (-3.225000000000e+001) + sum g_i+ | measured fitness | best measured fitness or single-digit g-values | x1 | x2...
1 0 +1.015605068e+003 +9.833550675e+002 +9.833550675e+002 -4.7648e+000 -4.6126e+000
2 0 +4.575894163e+002 +4.253394163e+002 +4.253394163e+002 -2.0415e+000 -4.3896e+000
3 0 +6.702134481e+000 -2.554786552e+001 -2.554786552e+001 +4.1955e+000 -4.1513e-001
11 0 +6.232817792e+000 -2.601718221e+001 -2.601718221e+001 +8.7059e-001 +1.2074e+000
23 0 +3.044409666e+000 -2.920559033e+001 -2.920559033e+001 +3.8024e+000 +8.0495e-001
26 0 +2.507472768e+000 -2.974252723e+001 -2.974252723e+001 +3.9943e+000 +1.8701e+000
27 0 +1.840402305e+000 -3.040959769e+001 -3.040959769e+001 +2.9947e+000 +1.1469e+000
44 0 +1.040729119e+000 -3.120927088e+001 -3.120927088e+001 +2.7477e+000 +7.4038e-001
111 0 +8.043366944e-001 -3.144566331e+001 -3.144566331e+001 +4.2161e+000 +1.2827e+000
134 0 +6.236007504e-001 -3.162639925e+001 -3.162639925e+001 +3.3630e+000 +1.0297e+000
176 0 +5.374492427e-001 -3.171255076e+001 -3.171255076e+001 +3.1195e+000 +9.5824e-001
195 0 +5.002256644e-001 -3.174977434e+001 -3.174977434e+001 +3.5852e+000 +9.4523e-001
242 0 +3.107984901e-001 -3.193920151e+001 -3.193920151e+001 +3.6946e+000 +1.0577e+000
251 0 +1.634859954e-001 -3.208651400e+001 -3.208651400e+001 +3.6123e+000 +1.0361e+000
253 0 +9.775568717e-002 -3.215224431e+001 -3.215224431e+001 +3.4697e+000 +1.0202e+000
271 0 +5.859944994e-002 -3.219140055e+001 -3.219140055e+001 +3.5726e+000 +1.0386e+000
317 0 +5.130145539e-002 -3.219869854e+001 -3.219869854e+001 +3.5775e+000 +1.0656e+000
341 0 +3.739037763e-002 -3.221260962e+001 -3.221260962e+001 +3.5895e+000 +1.0663e+000
351 0 +3.211618270e-002 -3.221788382e+001 -3.221788382e+001 +3.6261e+000 +1.0683e+000
353 0 +7.553088440e-003 -3.224244691e+001 -3.224244691e+001 +3.5926e+000 +1.0587e+000
417 0 +3.756889856e-003 -3.224624311e+001 -3.224624311e+001 +3.5963e+000 +1.0606e+000
439 0 +3.021463676e-003 -3.224697854e+001 -3.224697854e+001 +3.5976e+000 +1.0610e+000
459 0 +1.597518083e-003 -3.224840248e+001 -3.224840248e+001 +3.5954e+000 +1.0612e+000
530 0 +1.059435461e-003 -3.224894056e+001 -3.224894056e+001 +3.5959e+000 +1.0612e+000
577 0 +1.045358416e-003 -3.224895464e+001 -3.224895464e+001 +3.5970e+000 +1.0617e+000
579 0 +3.201054193e-004 -3.224967989e+001 -3.224967989e+001 +3.5960e+000 +1.0617e+000
594 0 +3.935855766e-005 -3.224996064e+001 -3.224996064e+001 +3.5960e+000 +1.0616e+000
637 0 +3.405606211e-005 -3.224996594e+001 -3.224996594e+001 +3.5960e+000 +1.0616e+000
684 0 +3.196666148e-005 -3.224996803e+001 -3.224996803e+001 +3.5960e+000 +1.0616e+000
753 0 +3.049792697e-005 -3.224996950e+001 -3.224996950e+001 +3.5960e+000 +1.0616e+000
767 0 +1.997864683e-005 -3.224998002e+001 -3.224998002e+001 +3.5960e+000 +1.0616e+000
790 0 +1.543860105e-005 -3.224998456e+001 -3.224998456e+001 +3.5960e+000 +1.0616e+000
826 0 +2.778817169e-006 -3.224999722e+001 -3.224999722e+001 +3.5960e+000 +1.0616e+000
909 0 +2.230899398e-006 -3.224999777e+001 -3.224999777e+001 +3.5960e+000 +1.0616e+000
912 0 +7.551573162e-007 -3.224999924e+001 -3.224999924e+001 +3.5960e+000 +1.0616e+000
1008 0 +1.671403282e-007 -3.224999983e+001 -3.224999983e+001 +3.5960e+000 +1.0616e+000
1063 0 +1.538197978e-007 -3.224999985e+001 -3.224999985e+001 +3.5960e+000 +1.0616e+000
1105 0 +4.373902129e-009 -3.225000000e+001 -3.225000000e+001 +3.5960e+000 +1.0616e+000
% f evaluations | g evaluations | best noise-free fitness - Fopt (3.681200000000e+002) + sum g_i+ | measured fitness | best measured fitness or single-digit g-values | x1 | x2...
1 0 +5.122906232e+001 +4.193490623e+002 +4.193490623e+002 +4.2180e+000 +2.6732e+000
2 0 +8.247450331e+000 +3.763674503e+002 +3.763674503e+002 +1.4539e+000 -2.7392e+000
3 0 +5.401703614e+000 +3.735217036e+002 +3.735217036e+002 -9.9171e-001 -1.3234e+000
10 0 +4.345051274e+000 +3.724650513e+002 +3.724650513e+002 +7.8904e-002 -1.0030e+000
14 0 +4.217150456e+000 +3.723371505e+002 +3.723371505e+002 +7.6178e-001 -9.0366e-001
16 0 +3.136524692e+000 +3.712565247e+002 +3.712565247e+002 +6.6523e-001 -1.0015e+000
42 0 +2.059318667e+000 +3.701793187e+002 +3.701793187e+002 -2.2683e+000 -7.8600e-001
62 0 +1.871402581e+000 +3.699914026e+002 +3.699914026e+002 -3.4752e+000 -8.6004e-001
75 0 +1.119430216e+000 +3.692394302e+002 +3.692394302e+002 -3.5087e+000 -1.1564e+000
127 0 +2.443223939e-001 +3.683643224e+002 +3.683643224e+002 -2.3636e+000 -1.1815e+000
213 0 +1.624561825e-001 +3.682824562e+002 +3.682824562e+002 -2.5018e+000 -1.1601e+000
246 0 +1.606792492e-001 +3.682806792e+002 +3.682806792e+002 -2.5188e+000 -1.1594e+000
253 0 +7.280349466e-002 +3.681928035e+002 +3.681928035e+002 -2.4894e+000 -1.0898e+000
255 0 +6.319125995e-002 +3.681831913e+002 +3.681831913e+002 -2.4217e+000 -1.1038e+000
272 0 +3.137415301e-002 +3.681513742e+002 +3.681513742e+002 -2.4523e+000 -1.0919e+000
356 0 +1.888965802e-002 +3.681388897e+002 +3.681388897e+002 -2.4654e+000 -1.0849e+000
373 0 +1.456808642e-002 +3.681345681e+002 +3.681345681e+002 -2.4627e+000 -1.0918e+000
383 0 +1.420493679e-002 +3.681342049e+002 +3.681342049e+002 -2.4673e+000 -1.0928e+000
412 0 +1.401263855e-002 +3.681340126e+002 +3.681340126e+002 -2.4673e+000 -1.0927e+000
417 0 +7.857677305e-003 +3.681278577e+002 +3.681278577e+002 -2.4692e+000 -1.0914e+000
423 0 +7.551233249e-003 +3.681275512e+002 +3.681275512e+002 -2.4702e+000 -1.0891e+000
457 0 +4.993784530e-003 +3.681249938e+002 +3.681249938e+002 -2.4639e+000 -1.0905e+000
467 0 +3.084093687e-003 +3.681230841e+002 +3.681230841e+002 -2.4656e+000 -1.0904e+000
491 0 +1.206067727e-003 +3.681212061e+002 +3.681212061e+002 -2.4630e+000 -1.0900e+000
528 0 +1.028447435e-003 +3.681210284e+002 +3.681210284e+002 -2.4636e+000 -1.0899e+000
535 0 +4.715454212e-004 +3.681204715e+002 +3.681204715e+002 -2.4633e+000 -1.0897e+000
568 0 +3.038228923e-004 +3.681203038e+002 +3.681203038e+002 -2.4633e+000 -1.0897e+000
575 0 +3.732052545e-005 +3.681200373e+002 +3.681200373e+002 -2.4632e+000 -1.0896e+000
686 0 +3.492470131e-005 +3.681200349e+002 +3.681200349e+002 -2.4632e+000 -1.0896e+000
701 0 +3.330058888e-005 +3.681200333e+002 +3.681200333e+002 -2.4632e+000 -1.0896e+000
705 0 +3.115009605e-005 +3.681200312e+002 +3.681200312e+002 -2.4632e+000 -1.0896e+000
707 0 +1.645463777e-005 +3.681200165e+002 +3.681200165e+002 -2.4632e+000 -1.0896e+000
782 0 +1.015472247e-005 +3.681200102e+002 +3.681200102e+002 -2.4632e+000 -1.0896e+000
791 0 +6.277019509e-006 +3.681200063e+002 +3.681200063e+002 -2.4632e+000 -1.0896e+000
807 0 +1.171180202e-006 +3.681200012e+002 +3.681200012e+002 -2.4632e+000 -1.0896e+000
841 0 +4.319825848e-007 +3.681200004e+002 +3.681200004e+002 -2.4632e+000 -1.0896e+000
863 0 +4.115410093e-007 +3.681200004e+002 +3.681200004e+002 -2.4632e+000 -1.0896e+000
867 0 +4.088798278e-008 +3.681200000e+002 +3.681200000e+002 -2.4632e+000 -1.0896e+000
890 0 +2.544550171e-008 +3.681200000e+002 +3.681200000e+002 -2.4632e+000 -1.0896e+000
906 0 +2.293597845e-008 +3.681200000e+002 +3.681200000e+002 -2.4632e+000 -1.0896e+000
907 0 +7.754181297e-009 +3.681200000e+002 +3.681200000e+002 -2.4632e+000 -1.0896e+000
% f evaluations | g evaluations | best noise-free fitness - Fopt (4.739000000000e+001) + sum g_i+ | measured fitness | best measured fitness or single-digit g-values | x1 | x2...
1 0 +5.133626563e+000 +5.252362656e+001 +5.252362656e+001 -3.1541e+000 -2.5273e-001
25 0 +1.848576998e+000 +4.923857700e+001 +4.923857700e+001 -1.2318e+000 +9.5570e-001
58 0 +1.330749999e+000 +4.872075000e+001 +4.872075000e+001 -2.9267e-001 +3.5756e+000
75 0 +6.268343574e-001 +4.801683436e+001 +4.801683436e+001 -6.0344e-001 +2.9267e+000
101 0 +5.315278826e-001 +4.792152788e+001 +4.792152788e+001 -6.6191e-001 +2.8187e+000
144 0 +2.890415594e-001 +4.767904156e+001 +4.767904156e+001 -5.6900e-001 +2.6593e+000
223 0 +2.431477609e-001 +4.763314776e+001 +4.763314776e+001 -6.1151e-001 +2.6440e+000
417 0 +1.700667301e-001 +4.756006673e+001 +4.756006673e+001 -5.9173e-001 +2.5477e+000
502 0 +1.640552474e-001 +4.755405525e+001 +4.755405525e+001 -5.9023e-001 +2.5323e+000
514 0 +1.595136334e-001 +4.754951363e+001 +4.754951363e+001 -5.8781e-001 +2.5541e+000
523 0 +1.579016639e-001 +4.754790166e+001 +4.754790166e+001 -5.8252e-001 +2.6019e+000
1884 0 +1.011297857e-001 +4.749112979e+001 +4.749112979e+001 -5.5006e-001 +2.5603e+000
1890 0 +3.363630246e-002 +4.742363630e+001 +4.742363630e+001 -5.0080e-001 +2.6148e+000
1916 0 +3.015896988e-002 +4.742015897e+001 +4.742015897e+001 -5.0210e-001 +2.6139e+000
1952 0 +1.535728293e-002 +4.740535728e+001 +4.740535728e+001 -4.9727e-001 +2.6274e+000
1963 0 +1.049609695e-002 +4.740049610e+001 +4.740049610e+001 -4.9426e-001 +2.6350e+000
2003 0 +8.183634758e-003 +4.739818363e+001 +4.739818363e+001 -4.9390e-001 +2.6349e+000
2009 0 +7.549043766e-003 +4.739754904e+001 +4.739754904e+001 -4.9365e-001 +2.6349e+000
4516 0 +8.547298447e-004 +4.739085473e+001 +4.739085473e+001 -4.9778e-001 +2.6293e+000
4582 0 +4.219928039e-004 +4.739042199e+001 +4.739042199e+001 -4.9761e-001 +2.6295e+000
4642 0 +3.563812912e-004 +4.739035638e+001 +4.739035638e+001 -4.9766e-001 +2.6295e+000
4674 0 +2.474259690e-004 +4.739024743e+001 +4.739024743e+001 -4.9770e-001 +2.6294e+000
4700 0 +2.377344885e-004 +4.739023773e+001 +4.739023773e+001 -4.9770e-001 +2.6294e+000
4702 0 +2.317665107e-004 +4.739023177e+001 +4.739023177e+001 -4.9771e-001 +2.6294e+000
5955 0 +3.377507458e-005 +4.739003378e+001 +4.739003378e+001 -4.9760e-001 +2.6296e+000
6040 0 +3.098808556e-005 +4.739003099e+001 +4.739003099e+001 -4.9760e-001 +2.6296e+000
6043 0 +3.075972025e-005 +4.739003076e+001 +4.739003076e+001 -4.9761e-001 +2.6296e+000
6069 0 +2.885971528e-005 +4.739002886e+001 +4.739002886e+001 -4.9761e-001 +2.6296e+000
6103 0 +2.877800785e-005 +4.739002878e+001 +4.739002878e+001 -4.9761e-001 +2.6296e+000
7603 0 +2.586655555e-005 +4.739002587e+001 +4.739002587e+001 -4.9760e-001 +2.6296e+000
7605 0 +1.761176536e-005 +4.739001761e+001 +4.739001761e+001 -4.9760e-001 +2.6296e+000
7640 0 +1.608982482e-005 +4.739001609e+001 +4.739001609e+001 -4.9760e-001 +2.6296e+000
7666 0 +1.320472426e-005 +4.739001320e+001 +4.739001320e+001 -4.9760e-001 +2.6296e+000
7695 0 +1.297491509e-005 +4.739001297e+001 +4.739001297e+001 -4.9760e-001 +2.6296e+000
7714 0 +1.255417663e-005 +4.739001255e+001 +4.739001255e+001 -4.9760e-001 +2.6296e+000
7721 0 +1.184226231e-005 +4.739001184e+001 +4.739001184e+001 -4.9760e-001 +2.6296e+000
7735 0 +1.170223675e-005 +4.739001170e+001 +4.739001170e+001 -4.9760e-001 +2.6296e+000
7748 0 +1.129549518e-005 +4.739001130e+001 +4.739001130e+001 -4.9760e-001 +2.6296e+000
7754 0 +1.066178610e-005 +4.739001066e+001 +4.739001066e+001 -4.9760e-001 +2.6296e+000
7766 0 +8.304354580e-006 +4.739000830e+001 +4.739000830e+001 -4.9760e-001 +2.6296e+000
7771 0 +7.677162777e-006 +4.739000768e+001 +4.739000768e+001 -4.9760e-001 +2.6296e+000
7777 0 +6.729968902e-006 +4.739000673e+001 +4.739000673e+001 -4.9760e-001 +2.6296e+000
7781 0 +6.252242073e-006 +4.739000625e+001 +4.739000625e+001 -4.9760e-001 +2.6296e+000
7784 0 +4.114660982e-006 +4.739000411e+001 +4.739000411e+001 -4.9760e-001 +2.6296e+000
7787 0 +3.920533793e-006 +4.739000392e+001 +4.739000392e+001 -4.9760e-001 +2.6296e+000
7788 0 +3.202722773e-006 +4.739000320e+001 +4.739000320e+001 -4.9760e-001 +2.6296e+000
7789 0 +1.693875532e-006 +4.739000169e+001 +4.739000169e+001 -4.9760e-001 +2.6296e+000
7807 0 +6.542404165e-007 +4.739000065e+001 +4.739000065e+001 -4.9760e-001 +2.6296e+000
7853 0 +6.409364630e-007 +4.739000064e+001 +4.739000064e+001 -4.9760e-001 +2.6296e+000
7861 0 +5.886687120e-007 +4.739000059e+001 +4.739000059e+001 -4.9760e-001 +2.6296e+000
7866 0 +5.346671941e-007 +4.739000053e+001 +4.739000053e+001 -4.9760e-001 +2.6296e+000
7900 0 +5.105208558e-007 +4.739000051e+001 +4.739000051e+001 -4.9760e-001 +2.6296e+000
7911 0 +3.158758233e-007 +4.739000032e+001 +4.739000032e+001 -4.9760e-001 +2.6296e+000
7937 0 +2.174398759e-007 +4.739000022e+001 +4.739000022e+001 -4.9760e-001 +2.6296e+000
7971 0 +1.682912867e-007 +4.739000017e+001 +4.739000017e+001 -4.9760e-001 +2.6296e+000
8003 0 +1.246942318e-007 +4.739000012e+001 +4.739000012e+001 -4.9760e-001 +2.6296e+000
8006 0 +9.937175349e-008 +4.739000010e+001 +4.739000010e+001 -4.9760e-001 +2.6296e+000
8017 0 +9.125074740e-008 +4.739000009e+001 +4.739000009e+001 -4.9760e-001 +2.6296e+000
8021 0 +1.527315874e-008 +4.739000002e+001 +4.739000002e+001 -4.9760e-001 +2.6296e+000
8047 0 +6.267896424e-009 +4.739000001e+001 +4.739000001e+001 -4.9760e-001 +2.6296e+000
% f evaluations | g evaluations | best noise-free fitness - Fopt (-3.428900000000e+002) + sum g_i+ | measured fitness | best measured fitness or single-digit g-values | x1 | x2...
1 0 +2.793438237e+000 -3.400965618e+002 -3.400965618e+002 +2.2194e+000 -3.5965e+000
39 0 +7.639613887e-001 -3.421260386e+002 -3.421260386e+002 +1.8228e+000 -3.1857e+000
101 0 +5.280999568e-001 -3.423619000e+002 -3.423619000e+002 +2.0769e+000 -2.7253e+000
111 0 +1.302810765e-001 -3.427597189e+002 -3.427597189e+002 +2.2561e+000 -2.8111e+000
221 0 +6.689119401e-002 -3.428231088e+002 -3.428231088e+002 +2.2784e+000 -2.7523e+000
376 0 +6.035929415e-002 -3.428296407e+002 -3.428296407e+002 +2.2924e+000 -2.7071e+000
388 0 +5.883040169e-002 -3.428311696e+002 -3.428311696e+002 +2.2763e+000 -2.7145e+000
452 0 +3.906544141e-002 -3.428509346e+002 -3.428509346e+002 +2.2343e+000 -2.7685e+000
458 0 +3.263675330e-002 -3.428573632e+002 -3.428573632e+002 +2.2263e+000 -2.7974e+000
463 0 +1.746809639e-002 -3.428725319e+002 -3.428725319e+002 +2.2420e+000 -2.7816e+000
512 0 +1.730229717e-002 -3.428726977e+002 -3.428726977e+002 +2.2423e+000 -2.7813e+000
518 0 +1.695865881e-002 -3.428730413e+002 -3.428730413e+002 +2.2434e+000 -2.7796e+000
531 0 +1.641920711e-002 -3.428735808e+002 -3.428735808e+002 +2.2492e+000 -2.7722e+000
574 0 +1.128875259e-002 -3.428787112e+002 -3.428787112e+002 +2.2458e+000 -2.7642e+000
586 0 +8.257200833e-003 -3.428817428e+002 -3.428817428e+002 +2.2454e+000 -2.7648e+000
598 0 +8.123709337e-003 -3.428818763e+002 -3.428818763e+002 +2.2416e+000 -2.7696e+000
605 0 +7.445828680e-003 -3.428825542e+002 -3.428825542e+002 +2.2433e+000 -2.7705e+000
606 0 +7.323439722e-003 -3.428826766e+002 -3.428826766e+002 +2.2441e+000 -2.7692e+000
614 0 +4.567700180e-003 -3.428854323e+002 -3.428854323e+002 +2.2434e+000 -2.7705e+000
633 0 +4.412154825e-003 -3.428855878e+002 -3.428855878e+002 +2.2434e+000 -2.7705e+000
638 0 +1.860435173e-003 -3.428881396e+002 -3.428881396e+002 +2.2441e+000 -2.7705e+000
642 0 +2.960352094e-004 -3.428897040e+002 -3.428897040e+002 +2.2440e+000 -2.7705e+000
652 0 +2.598630218e-004 -3.428897401e+002 -3.428897401e+002 +2.2440e+000 -2.7705e+000
724 0 +2.413587535e-004 -3.428897586e+002 -3.428897586e+002 +2.2441e+000 -2.7704e+000
727 0 +2.347262297e-004 -3.428897653e+002 -3.428897653e+002 +2.2441e+000 -2.7704e+000
734 0 +2.305013221e-004 -3.428897695e+002 -3.428897695e+002 +2.2441e+000 -2.7704e+000
759 0 +1.425381494e-004 -3.428898575e+002 -3.428898575e+002 +2.2440e+000 -2.7704e+000
766 0 +3.135801654e-005 -3.428899686e+002 -3.428899686e+002 +2.2440e+000 -2.7704e+000
779 0 +3.083977759e-005 -3.428899692e+002 -3.428899692e+002 +2.2440e+000 -2.7704e+000
806 0 +2.920546700e-005 -3.428899708e+002 -3.428899708e+002 +2.2440e+000 -2.7704e+000
919 0 +2.878488414e-005 -3.428899712e+002 -3.428899712e+002 +2.2440e+000 -2.7704e+000
3837 0 +2.544725174e-005 -3.428899746e+002 -3.428899746e+002 +2.2440e+000 -2.7704e+000
3951 0 +2.089320952e-005 -3.428899791e+002 -3.428899791e+002 +2.2440e+000 -2.7704e+000
3962 0 +1.739253094e-005 -3.428899826e+002 -3.428899826e+002 +2.2440e+000 -2.7704e+000
4026 0 +1.165832697e-005 -3.428899883e+002 -3.428899883e+002 +2.2440e+000 -2.7704e+000
4046 0 +7.306213490e-006 -3.428899927e+002 -3.428899927e+002 +2.2440e+000 -2.7704e+000
4061 0 +5.366260893e-006 -3.428899946e+002 -3.428899946e+002 +2.2440e+000 -2.7704e+000
4065 0 +1.129221687e-006 -3.428899989e+002 -3.428899989e+002 +2.2440e+000 -2.7704e+000
4111 0 +7.084248068e-007 -3.428899993e+002 -3.428899993e+002 +2.2440e+000 -2.7704e+000
4124 0 +6.297383948e-007 -3.428899994e+002 -3.428899994e+002 +2.2440e+000 -2.7704e+000
4125 0 +4.629930004e-007 -3.428899995e+002 -3.428899995e+002 +2.2440e+000 -2.7704e+000
4149 0 +4.377582741e-007 -3.428899996e+002 -3.428899996e+002 +2.2440e+000 -2.7704e+000
4183 0 +3.913000342e-007 -3.428899996e+002 -3.428899996e+002 +2.2440e+000 -2.7704e+000
4191 0 +3.627411047e-007 -3.428899996e+002 -3.428899996e+002 +2.2440e+000 -2.7704e+000
4206 0 +3.117860956e-007 -3.428899997e+002 -3.428899997e+002 +2.2440e+000 -2.7704e+000
4216 0 +1.682138304e-007 -3.428899998e+002 -3.428899998e+002 +2.2440e+000 -2.7704e+000
4225 0 +1.587938527e-007 -3.428899998e+002 -3.428899998e+002 +2.2440e+000 -2.7704e+000
4228 0 +1.496824211e-007 -3.428899999e+002 -3.428899999e+002 +2.2440e+000 -2.7704e+000
4232 0 +1.336072160e-007 -3.428899999e+002 -3.428899999e+002 +2.2440e+000 -2.7704e+000
4239 0 +3.952897032e-008 -3.428900000e+002 -3.428900000e+002 +2.2440e+000 -2.7704e+000
4244 0 +3.351948408e-008 -3.428900000e+002 -3.428900000e+002 +2.2440e+000 -2.7704e+000
4250 0 +9.145765034e-009 -3.428900000e+002 -3.428900000e+002 +2.2440e+000 -2.7704e+000
% f evaluations | g evaluations | best noise-free fitness - Fopt (9.102000000000e+001) + sum g_i+ | measured fitness | best measured fitness or single-digit g-values | x1 | x2...
1 0 +2.276083000e+001 +1.137808300e+002 +1.137808300e+002 -2.2457e+000 +2.6754e-001
2 0 +1.902420357e+001 +1.100442036e+002 +1.100442036e+002 +2.8062e+000 +4.0805e+000
6 0 +8.445677479e+000 +9.946567748e+001 +9.946567748e+001 +5.0000e+000 +8.8599e-001
10 0 +5.075329197e+000 +9.609532920e+001 +9.609532920e+001 +5.0000e+000 +1.3858e+000
14 0 +4.569307847e+000 +9.558930785e+001 +9.558930785e+001 +3.2307e+000 +7.0100e-001
20 0 +2.618467749e+000 +9.363846775e+001 +9.363846775e+001 +2.2199e+000 +3.2807e-001
38 0 +2.174748387e+000 +9.319474839e+001 +9.319474839e+001 -2.7664e-001 -1.6017e+000
79 0 +1.736853228e+000 +9.275685323e+001 +9.275685323e+001 +8.8038e-001 -8.3741e-001
84 0 +1.029317624e+000 +9.204931762e+001 +9.204931762e+001 +1.3412e+000 -7.5567e-001
210 0 +7.768489559e-001 +9.179684896e+001 +9.179684896e+001 +7.4862e-001 -1.0491e+000
237 0 +2.080100925e-001 +9.122801009e+001 +9.122801009e+001 +5.1470e-001 -8.3741e-001
255 0 +1.272514748e-001 +9.114725147e+001 +9.114725147e+001 +6.4578e-001 -8.3741e-001
334 0 +2.016939762e-002 +9.104016940e+001 +9.104016940e+001 +5.5186e-001 -8.7769e-001
370 0 +6.493577186e-003 +9.102649358e+001 +9.102649358e+001 +5.6377e-001 -8.7358e-001
415 0 +5.611453684e-003 +9.102561145e+001 +9.102561145e+001 +5.6393e-001 -8.7322e-001
420 0 +3.577010356e-003 +9.102357701e+001 +9.102357701e+001 +5.6309e-001 -8.7303e-001
454 0 +1.002158530e-003 +9.102100216e+001 +9.102100216e+001 +5.6240e-001 -8.7408e-001
458 0 +9.927405746e-004 +9.102099274e+001 +9.102099274e+001 +5.6329e-001 -8.7398e-001
480 0 +2.588211859e-004 +9.102025882e+001 +9.102025882e+001 +5.6259e-001 -8.7438e-001
533 0 +2.323229176e-004 +9.102023232e+001 +9.102023232e+001 +5.6242e-001 -8.7446e-001
565 0 +1.532547355e-004 +9.102015325e+001 +9.102015325e+001 +5.6243e-001 -8.7441e-001
571 0 +1.017614783e-004 +9.102010176e+001 +9.102010176e+001 +5.6235e-001 -8.7442e-001
588 0 +2.944069287e-005 +9.102002944e+001 +9.102002944e+001 +5.6238e-001 -8.7441e-001
677 0 +2.881769913e-005 +9.102002882e+001 +9.102002882e+001 +5.6240e-001 -8.7441e-001
681 0 +2.801189309e-005 +9.102002801e+001 +9.102002801e+001 +5.6239e-001 -8.7440e-001
717 0 +2.161980576e-005 +9.102002162e+001 +9.102002162e+001 +5.6239e-001 -8.7440e-001
720 0 +1.835135579e-005 +9.102001835e+001 +9.102001835e+001 +5.6240e-001 -8.7440e-001
721 0 +1.776014767e-005 +9.102001776e+001 +9.102001776e+001 +5.6240e-001 -8.7440e-001
729 0 +1.620866493e-005 +9.102001621e+001 +9.102001621e+001 +5.6240e-001 -8.7440e-001
737 0 +1.233866651e-005 +9.102001234e+001 +9.102001234e+001 +5.6240e-001 -8.7440e-001
757 0 +6.826443112e-006 +9.102000683e+001 +9.102000683e+001 +5.6240e-001 -8.7440e-001
764 0 +1.191218075e-006 +9.102000119e+001 +9.102000119e+001 +5.6240e-001 -8.7440e-001
810 0 +9.065881983e-007 +9.102000091e+001 +9.102000091e+001 +5.6240e-001 -8.7440e-001
822 0 +8.623805456e-007 +9.102000086e+001 +9.102000086e+001 +5.6240e-001 -8.7440e-001
829 0 +6.278293938e-007 +9.102000063e+001 +9.102000063e+001 +5.6240e-001 -8.7440e-001
846 0 +6.047287400e-007 +9.102000060e+001 +9.102000060e+001 +5.6240e-001 -8.7440e-001
870 0 +4.141324297e-007 +9.102000041e+001 +9.102000041e+001 +5.6240e-001 -8.7440e-001
903 0 +3.019967068e-007 +9.102000030e+001 +9.102000030e+001 +5.6240e-001 -8.7440e-001
906 0 +8.625993075e-008 +9.102000009e+001 +9.102000009e+001 +5.6240e-001 -8.7440e-001
929 0 +5.904982459e-008 +9.102000006e+001 +9.102000006e+001 +5.6240e-001 -8.7440e-001
962 0 +5.850831997e-008 +9.102000006e+001 +9.102000006e+001 +5.6240e-001 -8.7440e-001
964 0 +3.273471805e-008 +9.102000003e+001 +9.102000003e+001 +5.6240e-001 -8.7440e-001
1005 0 +2.918828557e-008 +9.102000003e+001 +9.102000003e+001 +5.6240e-001 -8.7440e-001
1013 0 +2.783446007e-008 +9.102000003e+001 +9.102000003e+001 +5.6240e-001 -8.7440e-001
1017 0 +1.799193683e-008 +9.102000002e+001 +9.102000002e+001 +5.6240e-001 -8.7440e-001
1031 0 +1.426073482e-008 +9.102000001e+001 +9.102000001e+001 +5.6240e-001 -8.7440e-001
1040 0 +6.769127481e-009 +9.102000001e+001 +9.102000001e+001 +5.6240e-001 -8.7440e-001
% f evaluations | g evaluations | best noise-free fitness - Fopt (7.324200000000e+002) + sum g_i+ | measured fitness | best measured fitness or single-digit g-values | x1 | x2...
1 0 +1.410949631e+001 +7.465294963e+002 +7.465294963e+002 +4.6915e+000 -4.6232e+000
3 0 +3.577725034e+000 +7.359977250e+002 +7.359977250e+002 -1.8422e+000 -3.6892e+000
19 0 +6.556833032e-001 +7.330756833e+002 +7.330756833e+002 -2.8527e+000 -2.5477e+000
78 0 +4.830372636e-001 +7.329030373e+002 +7.329030373e+002 -2.8486e+000 -2.1524e+000
136 0 +4.397083213e-001 +7.328597083e+002 +7.328597083e+002 -2.7697e+000 -2.2423e+000
148 0 +3.630757985e-001 +7.327830758e+002 +7.327830758e+002 -2.8502e+000 -2.1425e+000
210 0 +2.306574708e-001 +7.326506575e+002 +7.326506575e+002 -2.8102e+000 -2.3426e+000
231 0 +1.005474207e-001 +7.325205474e+002 +7.325205474e+002 -2.7951e+000 -2.3613e+000
338 0 +6.474563016e-002 +7.324847456e+002 +7.324847456e+002 -2.7612e+000 -2.3408e+000
351 0 +3.831349708e-002 +7.324583135e+002 +7.324583135e+002 -2.7348e+000 -2.4034e+000
355 0 +1.520088450e-002 +7.324352009e+002 +7.324352009e+002 -2.7357e+000 -2.3840e+000
400 0 +7.767631763e-003 +7.324277676e+002 +7.324277676e+002 -2.7347e+000 -2.3898e+000
408 0 +3.078708463e-003 +7.324230787e+002 +7.324230787e+002 -2.7375e+000 -2.3850e+000
512 0 +2.046835284e-003 +7.324220468e+002 +7.324220468e+002 -2.7388e+000 -2.3829e+000
553 0 +2.016566480e-003 +7.324220166e+002 +7.324220166e+002 -2.7387e+000 -2.3829e+000
560 0 +1.016123483e-003 +7.324210161e+002 +7.324210161e+002 -2.7393e+000 -2.3819e+000
570 0 +9.830603971e-004 +7.324209831e+002 +7.324209831e+002 -2.7393e+000 -2.3819e+000
719 0 +2.435839904e-004 +7.324202436e+002 +7.324202436e+002 -2.7392e+000 -2.3825e+000
726 0 +1.359781328e-004 +7.324201360e+002 +7.324201360e+002 -2.7392e+000 -2.3824e+000
748 0 +1.324564653e-004 +7.324201325e+002 +7.324201325e+002 -2.7392e+000 -2.3824e+000
751 0 +6.247138060e-005 +7.324200625e+002 +7.324200625e+002 -2.7392e+000 -2.3824e+000
752 0 +5.862861997e-005 +7.324200586e+002 +7.324200586e+002 -2.7392e+000 -2.3824e+000
777 0 +3.100044671e-005 +7.324200310e+002 +7.324200310e+002 -2.7392e+000 -2.3824e+000
778 0 +2.941915807e-005 +7.324200294e+002 +7.324200294e+002 -2.7392e+000 -2.3824e+000
816 0 +2.878850421e-005 +7.324200288e+002 +7.324200288e+002 -2.7392e+000 -2.3824e+000
830 0 +2.418968734e-005 +7.324200242e+002 +7.324200242e+002 -2.7392e+000 -2.3824e+000
835 0 +4.456653301e-006 +7.324200045e+002 +7.324200045e+002 -2.7392e+000 -2.3824e+000
870 0 +4.207487223e-006 +7.324200042e+002 +7.324200042e+002 -2.7392e+000 -2.3824e+000
911 0 +1.512490144e-006 +7.324200015e+002 +7.324200015e+002 -2.7392e+000 -2.3824e+000
915 0 +1.277064371e-006 +7.324200013e+002 +7.324200013e+002 -2.7392e+000 -2.3824e+000
927 0 +4.794319466e-007 +7.324200005e+002 +7.324200005e+002 -2.7392e+000 -2.3824e+000
935 0 +4.405846994e-007 +7.324200004e+002 +7.324200004e+002 -2.7392e+000 -2.3824e+000
958 0 +4.216121852e-007 +7.324200004e+002 +7.324200004e+002 -2.7392e+000 -2.3824e+000
968 0 +3.984661134e-007 +7.324200004e+002 +7.324200004e+002 -2.7392e+000 -2.3824e+000
984 0 +3.716414767e-007 +7.324200004e+002 +7.324200004e+002 -2.7392e+000 -2.3824e+000
1020 0 +2.602045015e-007 +7.324200003e+002 +7.324200003e+002 -2.7392e+000 -2.3824e+000
1025 0 +2.266256161e-007 +7.324200002e+002 +7.324200002e+002 -2.7392e+000 -2.3824e+000
1045 0 +1.488597263e-007 +7.324200001e+002 +7.324200001e+002 -2.7392e+000 -2.3824e+000
1048 0 +7.430026017e-008 +7.324200001e+002 +7.324200001e+002 -2.7392e+000 -2.3824e+000
1052 0 +7.148810255e-008 +7.324200001e+002 +7.324200001e+002 -2.7392e+000 -2.3824e+000
1113 0 +1.466105459e-008 +7.324200000e+002 +7.324200000e+002 -2.7392e+000 -2.3824e+000
1140 0 +1.292642082e-008 +7.324200000e+002 +7.324200000e+002 -2.7392e+000 -2.3824e+000
1185 0 +1.204978162e-008 +7.324200000e+002 +7.324200000e+002 -2.7392e+000 -2.3824e+000
1195 0 +6.168079381e-009 +7.324200000e+002 +7.324200000e+002 -2.7392e+000 -2.3824e+000
% f evaluations | g evaluations | best noise-free fitness - Fopt (3.542000000000e+001) + sum g_i+ | measured fitness | best measured fitness or single-digit g-values | x1 | x2...
1 0 +1.800437862e+001 +5.342437862e+001 +5.342437862e+001 +2.5184e+000 -4.2535e+000
4 0 +1.310030096e+001 +4.852030096e+001 +4.852030096e+001 +5.0000e+000 -5.0000e+000
5 0 +7.826662583e+000 +4.324666258e+001 +4.324666258e+001 -2.7478e+000 -3.5125e+000
9 0 +7.609949761e+000 +4.302994976e+001 +4.302994976e+001 +1.2610e+000 -3.3724e+000
10 0 +2.075798157e+000 +3.749579816e+001 +3.749579816e+001 +5.0000e+000 -2.1445e+000
42 0 +1.697496783e+000 +3.711749678e+001 +3.711749678e+001 +4.4777e+000 -2.1288e+000
43 0 +1.038107224e+000 +3.645810722e+001 +3.645810722e+001 +2.9842e+000 -2.6705e+000
78 0 +4.989031804e-001 +3.591890318e+001 +3.591890318e+001 +3.4368e+000 -2.5331e+000
85 0 +4.320226229e-001 +3.585202262e+001 +3.585202262e+001 +3.4303e+000 -2.5161e+000
126 0 +5.736476410e-002 +3.547736476e+001 +3.547736476e+001 +3.7116e+000 -2.3491e+000
282 0 +4.906632052e-002 +3.546906632e+001 +3.546906632e+001 +3.7119e+000 -2.3487e+000
414 0 +3.507600031e-002 +3.545507600e+001 +3.545507600e+001 +3.7061e+000 -2.3508e+000
417 0 +3.279547404e-002 +3.545279547e+001 +3.545279547e+001 +3.7040e+000 -2.3325e+000
419 0 +3.200570498e-002 +3.545200570e+001 +3.545200570e+001 +3.7052e+000 -2.3320e+000
476 0 +2.295222078e-002 +3.544295222e+001 +3.544295222e+001 +3.7046e+000 -2.3382e+000
480 0 +7.784108993e-003 +3.542778411e+001 +3.542778411e+001 +3.6902e+000 -2.3445e+000
531 0 +3.541800935e-003 +3.542354180e+001 +3.542354180e+001 +3.6839e+000 -2.3490e+000
547 0 +1.302681078e-003 +3.542130268e+001 +3.542130268e+001 +3.6869e+000 -2.3475e+000
557 0 +1.216979758e-003 +3.542121698e+001 +3.542121698e+001 +3.6872e+000 -2.3477e+000
593 0 +1.164790201e-003 +3.542116479e+001 +3.542116479e+001 +3.6873e+000 -2.3476e+000
645 0 +1.059719283e-003 +3.542105972e+001 +3.542105972e+001 +3.6873e+000 -2.3476e+000
649 0 +9.850598331e-004 +3.542098506e+001 +3.542098506e+001 +3.6874e+000 -2.3476e+000
673 0 +4.346484927e-004 +3.542043465e+001 +3.542043465e+001 +3.6867e+000 -2.3479e+000
685 0 +2.387146058e-004 +3.542023871e+001 +3.542023871e+001 +3.6865e+000 -2.3479e+000
746 0 +9.461565436e-005 +3.542009462e+001 +3.542009462e+001 +3.6864e+000 -2.3480e+000
755 0 +3.352625115e-005 +3.542003353e+001 +3.542003353e+001 +3.6864e+000 -2.3480e+000
776 0 +2.962615975e-005 +3.542002963e+001 +3.542002963e+001 +3.6864e+000 -2.3480e+000
827 0 +2.891733050e-005 +3.542002892e+001 +3.542002892e+001 +3.6864e+000 -2.3480e+000
836 0 +2.878312733e-005 +3.542002878e+001 +3.542002878e+001 +3.6864e+000 -2.3480e+000
2152 0 +1.817492848e-005 +3.542001817e+001 +3.542001817e+001 +3.6864e+000 -2.3480e+000
2203 0 +1.000299260e-005 +3.542001000e+001 +3.542001000e+001 +3.6864e+000 -2.3480e+000
2222 0 +7.675628602e-006 +3.542000768e+001 +3.542000768e+001 +3.6864e+000 -2.3480e+000
2227 0 +2.209984672e-006 +3.542000221e+001 +3.542000221e+001 +3.6864e+000 -2.3480e+000
2275 0 +1.679479809e-006 +3.542000168e+001 +3.542000168e+001 +3.6864e+000 -2.3480e+000
2294 0 +1.490512489e-006 +3.542000149e+001 +3.542000149e+001 +3.6864e+000 -2.3480e+000
2295 0 +1.056832438e-006 +3.542000106e+001 +3.542000106e+001 +3.6864e+000 -2.3480e+000
2296 0 +9.670471570e-007 +3.542000097e+001 +3.542000097e+001 +3.6864e+000 -2.3480e+000
2304 0 +9.410468280e-007 +3.542000094e+001 +3.542000094e+001 +3.6864e+000 -2.3480e+000
2320 0 +9.230211191e-007 +3.542000092e+001 +3.542000092e+001 +3.6864e+000 -2.3480e+000
2332 0 +6.843558964e-007 +3.542000068e+001 +3.542000068e+001 +3.6864e+000 -2.3480e+000
2334 0 +6.436862918e-007 +3.542000064e+001 +3.542000064e+001 +3.6864e+000 -2.3480e+000
2344 0 +6.131350219e-007 +3.542000061e+001 +3.542000061e+001 +3.6864e+000 -2.3480e+000
2352 0 +5.936539296e-007 +3.542000059e+001 +3.542000059e+001 +3.6864e+000 -2.3480e+000
2355 0 +5.824276741e-007 +3.542000058e+001 +3.542000058e+001 +3.6864e+000 -2.3480e+000
2375 0 +5.734929829e-007 +3.542000057e+001 +3.542000057e+001 +3.6864e+000 -2.3480e+000
2407 0 +5.496513680e-007 +3.542000055e+001 +3.542000055e+001 +3.6864e+000 -2.3480e+000
2411 0 +4.412917676e-007 +3.542000044e+001 +3.542000044e+001 +3.6864e+000 -2.3480e+000
2438 0 +3.262906603e-007 +3.542000033e+001 +3.542000033e+001 +3.6864e+000 -2.3480e+000
2439 0 +2.594625101e-007 +3.542000026e+001 +3.542000026e+001 +3.6864e+000 -2.3480e+000
2446 0 +2.450374978e-007 +3.542000025e+001 +3.542000025e+001 +3.6864e+000 -2.3480e+000
2481 0 +2.166095001e-007 +3.542000022e+001 +3.542000022e+001 +3.6864e+000 -2.3480e+000
2492 0 +1.850034010e-007 +3.542000019e+001 +3.542000019e+001 +3.6864e+000 -2.3480e+000
2498 0 +5.945529580e-008 +3.542000006e+001 +3.542000006e+001 +3.6864e+000 -2.3480e+000
2508 0 +5.170241479e-008 +3.542000005e+001 +3.542000005e+001 +3.6864e+000 -2.3480e+000
2509 0 +3.734106002e-008 +3.542000004e+001 +3.542000004e+001 +3.6864e+000 -2.3480e+000
2536 0 +2.833792223e-008 +3.542000003e+001 +3.542000003e+001 +3.6864e+000 -2.3480e+000
2565 0 +1.211618894e-008 +3.542000001e+001 +3.542000001e+001 +3.6864e+000 -2.3480e+000
2573 0 +6.555630705e-009 +3.542000001e+001 +3.542000001e+001 +3.6864e+000 -2.3480e+000
