% function evaluation | noise-free fitness - Fopt (-5.465000000000e+02) | best noise-free fitness - Fopt | measured fitness | best measured fitness | x1 | x2...
1 +6.299190710e+04 +6.299190710e+04 +6.244540710e+04 +6.244540710e+04 -1.0072e+00 -2.5007e+00 +1.0583e+00 +2.4656e+00 -3.4249e+00 +3.6028e+00 -3.6016e+00 +1.5595e+00 -1.2532e+00 +2.2524e-01 +2.7423e+00 -2.2998e+00 +2.3206e-01 +1.4391e+00 -9.2036e-01 +2.1076e-01 +2.9807e-01 +7.1831e-01 -3.4186e+00 -1.3120e+00
30 +3.656935486e+04 +3.656935486e+04 +3.602285486e+04 +3.602285486e+04 -5.0000e+00 -8.0156e-01 +1.5484e-01 -1.8451e-01 -4.3101e-01 -3.9195e-01 -5.0000e+00 +4.6684e+00 -1.3257e+00 +2.8188e+00 +2.1814e+00 -1.1875e+00 +1.8207e+00 +8.1155e-01 -1.3649e+00 -2.1123e+00 +7.9644e-01 +2.3379e-01 -2.5567e+00 +3.1794e+00
97 +9.959521820e+03 +9.959521820e+03 +9.413021820e+03 +9.413021820e+03 -1.5172e+00 -3.0156e-01 -1.1119e+00 +4.3317e-01 +4.8992e-01 +9.9300e-01 +1.4991e+00 +1.7875e+00 -2.8736e+00 +2.6320e+00 +3.9323e+00 -6.7151e-01 +3.8214e-01 -3.2082e+00 +5.2235e-01 -1.7981e+00 -7.0735e-01 -2.2325e+00 -1.9174e+00 +5.7495e-01
110 +4.042831113e+03 +4.042831113e+03 +3.496331113e+03 +3.496331113e+03 -1.2962e+00 +2.8011e-01 +5.4216e-01 +1.2475e+00 -5.4450e-01 +1.9229e+00 -2.0815e+00 +2.2181e+00 -1.8743e+00 +1.9681e+00 +2.8412e+00 +1.9107e-01 +2.5656e+00 -2.3183e+00 +2.9837e+00 -9.3301e-01 +1.4949e+00 -4.9053e-01 -3.2088e+00 +1.4337e+00
121 +1.616395643e+03 +1.616395643e+03 +1.069895643e+03 +1.069895643e+03 -2.5119e+00 -5.1798e-01 +7.7316e-01 +4.9796e-01 +2.2290e-01 +1.2990e+00 -2.6418e+00 +2.8847e+00 -1.9364e+00 +6.6798e-01 +1.3558e+00 +7.5041e-01 +2.5887e+00 -2.1519e+00 +2.3160e+00 -4.0249e-01 +1.8578e+00 +5.2895e-02 -2.0427e+00 +1.3397e+00
171 +1.359578395e+03 +1.359578395e+03 +8.130783954e+02 +8.130783954e+02 -9.8173e-01 -8.4626e-01 -1.8604e+00 -3.6688e-01 -4.9600e-02 +1.7495e-01 -1.9750e+00 +1.2031e+00 -2.9532e+00 +2.4494e+00 -6.3583e-03 +6.0352e-01 +2.0189e+00 -4.0859e-01 +2.4637e+00 -1.5623e+00 +2.5365e+00 -2.6485e+00 -6.0930e-01 +1.2071e+00
175 +4.675873542e+02 +4.675873542e+02 -7.891264581e+01 -7.891264581e+01 -1.2618e+00 +2.1631e-01 -1.7753e-01 -1.9973e-01 -6.9130e-01 +1.1118e+00 -1.1708e+00 -9.1106e-01 -2.0531e+00 +2.4840e+00 +1.0187e+00 -1.2745e-01 +2.0578e+00 -1.3980e-01 +2.1448e+00 -1.4563e+00 +1.1071e+00 -1.9436e+00 -2.4937e+00 +1.7640e+00
186 +2.023383783e+02 +2.023383783e+02 -3.441616217e+02 -3.441616217e+02 -2.3611e+00 -2.7335e-01 +3.0451e-01 +9.3863e-01 -6.1498e-01 +1.1361e+00 -5.1755e-01 +1.1695e+00 -1.8796e+00 +1.9274e+00 +2.3254e+00 +2.1145e+00 +1.4298e+00 -1.4366e+00 +1.7122e+00 -1.0969e+00 +9.8379e-01 -1.8991e+00 -1.2155e+00 +9.7036e-01
201 +6.527804469e+00 +6.527804469e+00 -5.399721955e+02 -5.399721955e+02 -2.0885e+00 -7.0209e-01 -7.0832e-01 +3.3741e-01 -1.7806e-01 +7.8679e-01 -8.1510e-01 +1.0035e+00 -2.5750e+00 +1.3732e+00 +2.3635e+00 +1.4455e+00 +2.3358e+00 -1.1144e+00 +1.2405e+00 -1.7085e+00 +1.8878e+00 -1.9910e+00 -5.7474e-01 +1.2364e+00
208 +4.212901655e+00 +4.212901655e+00 -5.422870983e+02 -5.422870983e+02 -2.4256e+00 -5.0095e-01 -4.8537e-01 +3.5747e-01 -8.7943e-01 +4.5569e-01 -1.6852e+00 +1.4334e+00 -1.4271e+00 +1.8506e+00 +1.8927e+00 +1.1411e+00 +2.0351e+00 -9.8400e-01 +2.5093e+00 -1.8027e+00 +2.1573e+00 -1.9810e+00 -1.0038e+00 +1.4278e+00
224 +3.502582498e+00 +3.502582498e+00 -5.429974175e+02 -5.429974175e+02 -1.8945e+00 -1.3025e+00 -3.6550e-01 -1.2738e-01 -1.3386e-01 -2.1726e-01 -1.8449e+00 +1.4724e+00 -1.6711e+00 +1.8358e+00 +1.1266e+00 +1.2042e+00 +2.4162e+00 -3.7379e-01 +1.7399e+00 -1.9345e+00 +2.2077e+00 -1.3216e+00 -1.2440e+00 +1.6202e+00
706 +2.509683020e+00 +2.509683020e+00 -5.439903170e+02 -5.439903170e+02 -2.0841e+00 -1.1968e+00 -2.3531e-01 -4.6790e-01 +4.3113e-01 +1.1813e-01 -1.4265e+00 -7.2493e-02 -2.0011e+00 +1.4808e+00 +1.6300e+00 +1.2374e+00 +1.4427e+00 -5.9512e-01 +9.5056e-01 -1.5476e+00 +1.6119e+00 -1.8035e+00 -1.2485e+00 +1.4789e+00
% function evaluation | noise-free fitness - Fopt (1.000000000000e+03) | best noise-free fitness - Fopt | measured fitness | best measured fitness | x1 | x2...
1 +9.645776269e+04 +9.645776269e+04 +9.745776269e+04 +9.745776269e+04 -1.9419e+00 -2.5804e+00 -1.8007e-01 +1.9976e+00 -3.9840e+00 +2.0941e+00 -1.4133e+00 -3.1723e-01 +2.2256e+00 +3.8212e+00 -1.3061e+00 +6.3475e-01 +1.9019e+00 +7.2902e-03 +3.4149e+00 +4.6857e-01 -3.5015e+00 +1.2478e+00 -6.8816e-01 +7.9899e-01
56 +5.409043486e+04 +5.409043486e+04 +5.509043486e+04 +5.509043486e+04 -4.3592e+00 -4.0765e+00 +5.0494e-01 +1.7769e+00 -2.5441e+00 -1.3351e+00 -4.9670e+00 +8.4383e-01 +4.6242e+00 +2.0717e-01 -3.8313e+00 +5.8538e-01 -3.3420e+00 -4.8232e+00 -2.4099e+00 -3.3766e+00 +3.3104e-01 -5.2916e-01 -3.7228e+00 -2.2950e-01
106 +3.656132490e+04 +3.656132490e+04 +3.756132490e+04 +3.756132490e+04 -2.1258e+00 +1.5905e+00 +1.1511e+00 -1.0705e+00 -2.4195e+00 +3.8879e+00 -4.0430e+00 +1.4954e+00 +2.8479e+00 -4.3239e+00 -3.0696e-01 +4.3073e-01 -1.4087e+00 +5.5504e-01 -1.7527e+00 -1.8426e+00 +2.2670e+00 -2.7225e+00 -2.9130e+00 +2.4607e+00
109 +1.833372961e+04 +1.833372961e+04 +1.933372961e+04 +1.933372961e+04 -2.0370e+00 -1.3289e+00 +5.0000e+00 +3.3788e+00 -4.5627e-01 +2.0028e-01 -1.5491e+00 +3.4041e+00 +4.7713e-01 -2.1715e+00 -3.3044e+00 +3.7667e-02 +4.1134e-01 -1.2542e+00 -7.0857e-01 -2.0987e+00 -2.0810e+00 -2.0969e+00 -1.1540e+00 +4.8757e-01
122 +1.350036698e+04 +1.350036698e+04 +1.450036698e+04 +1.450036698e+04 -4.2362e+00 -2.5219e+00 +4.2035e+00 +3.0109e+00 -1.4403e+00 -1.2803e+00 -2.5487e+00 +1.6754e+00 -1.7479e+00 -1.2983e+00 -1.4805e+00 -2.3564e+00 -2.6081e-02 -3.2144e+00 -2.7290e+00 -1.8607e+00 -1.4092e+00 -6.6028e-01 -1.6875e+00 +5.0274e-01
130 +6.765924307e+03 +6.765924307e+03 +7.765924307e+03 +7.765924307e+03 -3.0828e+00 -2.7790e+00 +1.9170e+00 +3.0623e-01 -2.9646e-01 +4.2451e-01 -2.6018e+00 +1.1499e+00 +5.6190e-01 -2.0357e+00 -1.2721e+00 -2.6453e+00 -1.8175e+00 -2.1278e+00 -1.5756e+00 -3.4184e+00 -1.3216e+00 -9.3317e-01 -1.8090e+00 -1.8430e-01
153 +2.358520776e+03 +2.358520776e+03 +3.358520776e+03 +3.358520776e+03 -1.3399e+00 -2.2711e+00 +2.3330e+00 -9.6376e-01 -3.2105e-01 +7.4753e-01 -2.2544e+00 +2.6426e+00 -6.3737e-01 -2.0079e+00 -1.5627e+00 -2.5799e+00 -2.1031e+00 -1.1969e-01 -6.8958e-01 -2.7192e+00 -1.0613e+00 -1.2800e-01 -2.5766e+00 +8.7559e-01
192 +1.048755594e+03 +1.048755594e+03 +2.048755594e+03 +2.048755594e+03 -7.9305e-01 -2.1592e+00 +1.2721e+00 +1.3803e-01 -2.7857e+00 +1.3952e+00 -1.1963e+00 +3.5697e+00 -1.2770e+00 -2.3841e+00 -5.1784e-02 -2.9293e+00 -1.2940e+00 -8.5243e-01 -1.6655e+00 -2.4915e+00 -1.2410e+00 -2.3924e+00 -1.7275e+00 +1.7692e+00
197 +9.502822406e+02 +9.502822406e+02 +1.950282241e+03 +1.950282241e+03 -1.5713e+00 -1.2030e+00 +2.4929e+00 -5.6580e-01 -1.9199e+00 -1.4190e-01 -1.0904e+00 +2.7714e+00 -1.2513e+00 -1.2163e+00 -4.0444e-01 -1.9707e+00 -1.3078e+00 -8.5429e-01 -9.1319e-01 -1.2349e+00 -1.6987e+00 -1.5063e+00 -6.8918e-01 +2.1906e+00
205 +5.841277358e+02 +5.841277358e+02 +1.584127736e+03 +1.584127736e+03 -1.5957e+00 -7.4095e-01 +2.0812e+00 +1.2712e-01 -1.8896e+00 +2.0161e-01 -1.1789e+00 +2.1914e+00 -9.4933e-01 -2.7133e+00 -1.1532e+00 -2.1724e+00 -9.4950e-01 -4.5068e-01 -1.3240e+00 -1.3470e+00 -1.5655e+00 -2.4682e+00 -4.6519e-01 +2.8655e+00
215 +2.257446186e+02 +2.257446186e+02 +1.225744619e+03 +1.225744619e+03 -7.3232e-01 -1.6502e+00 +1.5574e+00 -3.9844e-01 -1.5664e+00 +1.3487e+00 -8.3784e-01 +2.5368e+00 -4.3758e-01 -1.9780e+00 -1.0941e+00 -1.7133e+00 -1.1848e+00 -4.9480e-01 -1.3674e+00 -1.0544e+00 -9.3646e-01 -2.7001e+00 -5.9982e-01 +1.5394e+00
237 +6.613181632e+01 +6.613181632e+01 +1.066131816e+03 +1.066131816e+03 -7.5953e-01 +3.3364e-01 +1.8605e+00 -4.3863e-01 -1.9458e+00 +1.8857e+00 -9.0311e-01 +2.6863e+00 -3.7042e-01 -2.2281e+00 -3.6187e-01 -2.1592e+00 -2.0709e+00 -1.2409e-01 -8.7001e-01 -1.5588e+00 -1.3512e+00 -2.2590e+00 -4.7735e-01 +1.2578e+00
242 +1.332396785e+01 +1.332396785e+01 +1.013323968e+03 +1.013323968e+03 -1.0906e+00 -1.1792e+00 +1.2893e+00 -6.5269e-01 -2.3270e+00 +5.6921e-01 -1.2729e+00 +2.5079e+00 -2.6557e-01 -2.0280e+00 -4.0479e-01 -2.0695e+00 -1.2537e+00 -4.9232e-01 -7.1584e-01 -1.2707e+00 -1.7058e+00 -1.4498e+00 -1.4425e+00 +1.6096e+00
267 +7.781284723e+00 +7.781284723e+00 +1.007781285e+03 +1.007781285e+03 -1.4092e+00 -5.0149e-01 +7.4855e-02 -9.2086e-01 -1.2841e+00 +1.8870e+00 -1.0170e+00 +1.9412e+00 -1.0609e+00 -1.9479e+00 -1.1507e+00 -1.6665e+00 -2.4009e+00 -1.8423e+00 -2.2386e+00 -1.7735e+00 -1.4505e+00 -2.0753e+00 -1.8948e+00 +6.7514e-01
269 +4.104561661e+00 +4.104561661e+00 +1.004104562e+03 +1.004104562e+03 -2.4592e+00 +4.9141e-01 +4.6985e-01 -5.5710e-01 -2.0207e+00 +2.2430e+00 -1.1262e+00 +7.8553e-01 -8.2032e-01 -1.9145e+00 -8.2768e-01 -6.7808e-01 -1.5612e+00 -1.4150e+00 -1.6470e+00 -2.3375e+00 -8.7153e-01 -2.3311e+00 -1.6485e+00 +1.9369e+00
288 +3.857101275e+00 +3.857101275e+00 +1.003857101e+03 +1.003857101e+03 -1.3298e+00 +4.7569e-01 +8.9518e-01 +1.0646e-01 -2.6713e+00 +1.1150e+00 -7.6773e-01 +1.6341e+00 +2.1191e-01 -2.0248e+00 -8.3396e-01 -1.4185e+00 -2.3864e+00 -1.3715e+00 -1.5426e+00 -9.1306e-01 -2.1874e+00 -9.1302e-01 -2.2460e+00 +2.0239e+00
17621 +2.483099711e+00 +2.483099711e+00 +1.002483100e+03 +1.002483100e+03 +1.7251e+00 +2.0721e+00 -1.9329e+00 +1.6190e+00 -1.9136e-01 +1.7395e+00 +2.9626e-01 +2.8075e+00 +3.0108e-01 -2.0622e+00 -1.3887e-01 -2.0256e+00 -1.5646e+00 -1.7047e+00 -1.4515e+00 -1.8884e+00 -1.7123e+00 -1.5477e+00 -1.5555e+00 +1.3905e+00
% function evaluation | noise-free fitness - Fopt (2.083800000000e+02) | best noise-free fitness - Fopt | measured fitness | best measured fitness | x1 | x2...
1 +1.179525138e+05 +1.179525138e+05 +1.181608938e+05 +1.181608938e+05 -4.8314e-01 +1.0628e+00 -2.1188e+00 +2.3692e-01 +2.3042e+00 -3.3221e+00 +6.2229e-01 -1.0626e+00 +7.8305e-01 +1.5934e+00 -2.4848e+00 -2.7375e+00 -1.3480e+00 +1.9335e+00 +2.0288e+00 -2.8931e+00 -3.2006e+00 +1.5875e+00 -2.9259e+00 +2.6294e+00
2 +8.387612126e+04 +8.387612126e+04 +8.408450126e+04 +8.408450126e+04 -2.9649e+00 -2.3926e+00 -5.0000e+00 +3.1871e+00 +1.3817e+00 -1.5318e+00 +6.7693e-01 -3.0529e+00 +5.1045e-01 +4.4789e+00 +1.3707e-01 +2.5148e+00 -6.0691e-01 +4.7904e-01 +5.0000e+00 -3.8340e+00 -1.6066e+00 +1.2534e+00 -4.1039e-01 -1.4524e+00
29 +5.687109040e+04 +5.687109040e+04 +5.707947040e+04 +5.707947040e+04 -4.3901e+00 +4.3596e+00 -5.0000e+00 +2.4810e+00 +5.0000e+00 -5.0000e+00 -1.7464e-01 -2.8066e+00 -1.1749e+00 +5.0000e+00 -9.9234e-01 -2.0835e+00 -1.3956e+00 +1.6828e+00 -5.2819e-02 -5.8663e-01 +3.1878e+00 +1.2282e+00 +8.8116e-01 -8.8423e-02
96 +3.875611804e+04 +3.875611804e+04 +3.896449804e+04 +3.896449804e+04 -3.5408e-01 +3.2299e+00 -1.2351e+00 +2.7055e+00 +5.0000e+00 -2.4140e+00 +2.9856e+00 -3.5563e+00 +2.4136e+00 +1.5387e+00 +2.9664e+00 -2.0766e+00 -1.9131e+00 -1.1867e+00 +3.1077e+00 -1.4352e+00 +4.4035e+00 -6.7446e-01 +1.1980e+00 +2.9954e+00
125 +2.295554218e+04 +2.295554218e+04 +2.316392218e+04 +2.316392218e+04 -1.6910e+00 +1.6234e+00 -2.0879e+00 +1.4399e+00 +2.9671e+00 -2.0168e+00 +5.0000e+00 -4.0350e-01 -9.6524e-01 +4.6649e+00 -7.5599e-01 -6.6334e-01 -3.5012e-01 -1.9003e+00 +4.5358e+00 +1.1059e+00 +2.0976e+00 +1.9482e+00 +2.7359e+00 +4.5583e-02
126 +1.323304834e+04 +1.323304834e+04 +1.344142834e+04 +1.344142834e+04 -5.5803e-01 +2.8280e+00 -4.4691e+00 -1.9191e-01 +3.8806e+00 -3.2597e-01 +4.7116e+00 -4.9372e-01 -2.0376e+00 +2.2041e+00 -8.0473e-01 -4.4640e-01 -4.7075e-01 -5.7187e-02 +1.5103e+00 +9.1725e-01 +2.2822e+00 +1.2791e+00 +2.6016e+00 +2.7093e+00
128 +6.573538714e+03 +6.573538714e+03 +6.781918714e+03 +6.781918714e+03 -9.0011e-02 +2.9389e+00 -3.5193e+00 -1.3992e-01 +1.4103e+00 +1.6471e-01 +3.4566e+00 -9.4362e-01 -1.2769e+00 +2.2266e+00 -1.0701e+00 -9.3572e-01 -1.4703e+00 +5.0656e-01 +2.9922e+00 -1.4188e-01 +1.4631e+00 +2.5355e+00 +2.5447e+00 +7.6126e-01
149 +4.573351091e+03 +4.573351091e+03 +4.781731091e+03 +4.781731091e+03 -3.0193e+00 +2.2019e+00 -3.8413e+00 +6.6433e-01 +3.0936e+00 +7.0620e-01 +1.4146e+00 -5.6847e-01 -1.2643e+00 +3.2398e+00 +1.1259e+00 -2.6215e-01 -1.6688e+00 -6.9551e-01 +2.9157e+00 -2.9088e+00 +2.0409e+00 +2.3261e+00 +4.0918e-01 +1.3413e+00
167 +6.836629131e+02 +6.836629131e+02 +8.920429131e+02 +8.920429131e+02 -1.7081e+00 +2.5919e+00 -2.3734e+00 +1.5573e-01 +1.5095e+00 -3.7764e-01 +3.1781e+00 +4.5887e-01 -1.2122e+00 +2.4297e+00 -2.4709e-01 -3.4614e-02 -1.5740e+00 -6.3940e-01 +3.0763e+00 -1.0734e+00 +1.6284e+00 +1.0671e+00 +1.1744e+00 +2.0888e+00
204 +4.503045987e+02 +4.503045987e+02 +6.586845987e+02 +6.586845987e+02 -7.7255e-01 +2.9802e+00 -2.9146e+00 -5.2285e-01 +1.3018e+00 +3.0723e+00 +2.1648e+00 +1.0146e+00 -6.0043e-01 +2.0091e+00 +2.2964e+00 +7.2752e-01 -1.8303e+00 -6.5160e-01 +1.7583e+00 -2.0006e+00 +5.2318e-01 +1.9799e+00 +1.6790e+00 +1.7810e+00
210 +1.465387012e+02 +1.465387012e+02 +3.549187012e+02 +3.549187012e+02 -1.2315e+00 +2.2018e+00 -1.7247e+00 -9.2107e-01 +1.4669e+00 +2.0386e+00 +2.5963e+00 +1.9633e-01 -1.3909e-01 +2.4262e+00 +7.8756e-01 +5.3269e-01 -2.4913e+00 -1.6351e+00 +1.1161e+00 -1.6875e+00 +1.8383e+00 +1.5381e+00 +1.9947e+00 +2.4134e+00
226 +9.421701527e+01 +9.421701527e+01 +3.025970153e+02 +3.025970153e+02 -1.8698e+00 +2.1792e+00 -2.0591e+00 -1.0832e+00 +1.0279e+00 +1.3130e+00 +1.6505e+00 +7.2469e-01 +2.4402e-01 +2.2071e+00 +9.5733e-01 +8.9550e-01 -2.1578e+00 -9.6318e-01 +1.7740e+00 -1.6369e+00 +6.4779e-01 +1.0148e+00 +9.7703e-01 +2.1452e+00
249 +3.727461173e+00 +3.727461173e+00 +2.121074612e+02 +2.121074612e+02 -1.7675e+00 +2.5163e+00 -1.1285e+00 +3.5251e-01 +2.6105e+00 +1.2315e+00 +1.4307e+00 -1.8568e-02 -8.5466e-01 +1.8316e+00 +6.2155e-01 +8.7376e-01 -1.6544e+00 -7.9076e-01 +1.3610e+00 -1.4070e+00 +9.0140e-01 +1.7116e+00 +1.5271e+00 +1.3963e+00
628 +2.487197525e+00 +2.487197525e+00 +2.108671975e+02 +2.108671975e+02 -2.0681e+00 +1.1608e+00 -9.0795e-01 -7.0695e-02 +2.6047e+00 +6.7810e-01 +1.6668e+00 +3.6350e-01 -3.3641e-01 +2.0089e+00 +6.5387e-01 +1.4038e+00 -1.7846e+00 -5.5163e-01 +2.0888e+00 -1.4305e+00 +1.8720e+00 +1.3301e+00 +1.0958e+00 +1.7231e+00
% function evaluation | noise-free fitness - Fopt (-1.449600000000e+02) | best noise-free fitness - Fopt | measured fitness | best measured fitness | x1 | x2...
1 +1.784373215e+05 +1.784373215e+05 +1.782923615e+05 +1.782923615e+05 +1.3298e-01 -2.4098e+00 -6.1015e-01 +3.6615e+00 -1.4305e+00 +2.6709e+00 -3.1640e+00 -2.2535e+00 +3.5025e+00 +2.6924e+00 -1.3884e+00 -8.0435e-01 -1.4832e+00 -2.1056e+00 +7.4805e-03 -1.7312e+00 +3.2954e-01 -1.7796e+00 -5.3902e-01 +3.6376e+00
11 +1.562295580e+05 +1.562295580e+05 +1.560845980e+05 +1.560845980e+05 +1.0086e+00 -1.0654e+00 -1.0036e+00 +1.6983e+00 +1.4986e+00 +2.3116e+00 -4.3346e+00 -1.7889e+00 +5.0000e+00 +3.5412e-01 +1.3042e+00 +2.3657e+00 -2.9251e+00 -3.2984e-01 +2.4311e+00 -5.0000e+00 +9.4963e-01 +7.2575e-02 +2.3186e+00 +7.2997e-01
39 +8.809793469e+04 +8.809793469e+04 +8.795297469e+04 +8.795297469e+04 -9.3186e-01 -1.0358e+00 -3.2026e+00 -3.9287e+00 -1.5643e+00 +5.0000e+00 -1.0787e+00 -3.1947e+00 +1.7152e+00 -3.4820e-01 -1.5683e+00 +1.5939e+00 -1.5884e+00 -2.5690e+00 -8.3588e-01 +1.8025e+00 -2.9952e+00 -1.6529e+00 +3.7166e+00 -4.0219e+00
74 +5.908872503e+04 +5.908872503e+04 +5.894376503e+04 +5.894376503e+04 -2.1401e-01 -2.7904e+00 -1.7519e-01 +9.8321e-01 -4.6920e+00 +5.0000e+00 -4.3655e+00 -2.4729e+00 +4.6038e-01 -2.7594e+00 +5.0000e+00 -8.1070e-01 -1.3058e+00 -2.3731e+00 +4.2245e+00 -4.6086e-01 -3.6275e+00 -1.8954e+00 +1.8838e+00 -1.0911e+00
78 +3.616584636e+04 +3.616584636e+04 +3.602088636e+04 +3.602088636e+04 +3.2807e+00 +2.3661e+00 -1.2037e+00 +3.0967e+00 -2.1796e+00 +1.2276e+00 -1.8301e+00 -1.0548e+00 -5.0000e+00 +1.7831e+00 +3.6353e-01 -3.0017e+00 +5.0000e+00 -2.3262e-01 +4.4528e-01 +2.6455e+00 -3.9327e+00 -1.7539e+00 +4.0661e-01 -4.7504e-01
112 +1.032946468e+04 +1.032946468e+04 +1.018450468e+04 +1.018450468e+04 +2.8483e+00 -3.4088e+00 -1.0569e+00 +4.5674e-01 -2.1827e+00 +3.5130e+00 -3.9216e+00 +1.2062e+00 -1.3514e-01 +2.6803e+00 +1.1952e+00 +4.3435e+00 -8.9180e-01 +1.6764e+00 +2.7276e+00 +1.9497e+00 -1.0021e-01 -9.2191e-01 +2.3486e+00 -2.6197e+00
132 +7.937747644e+03 +7.937747644e+03 +7.792787644e+03 +7.792787644e+03 +1.5596e+00 -1.1445e+00 -1.2643e-01 +1.4335e+00 -3.5511e+00 +2.8097e-02 -1.1808e+00 -1.0438e+00 -7.2576e-01 -1.7258e+00 +3.3285e+00 -2.2404e+00 +1.6233e+00 +3.0309e+00 +1.4069e+00 +1.0791e+00 -2.2016e+00 -2.1911e+00 +4.4707e-01 -1.4751e+00
140 +1.835708488e+03 +1.835708488e+03 +1.690748488e+03 +1.690748488e+03 +1.4312e+00 -2.0551e+00 -1.0877e+00 +1.5776e+00 -2.5611e+00 +9.9665e-01 -1.3146e+00 -2.4248e-01 -1.3767e+00 -2.2847e-01 +2.3110e+00 +2.2290e+00 +2.9384e+00 -2.1817e-01 +2.2065e+00 +1.3297e+00 -2.3709e+00 -2.6414e+00 +9.6738e-02 -2.1893e+00
202 +1.500753768e+02 +1.500753768e+02 +5.115376814e+00 +5.115376814e+00 +1.7246e+00 -2.7952e+00 +1.9649e-01 +1.0913e-02 -1.2861e+00 +4.2296e-01 -2.5475e+00 +1.3812e+00 -9.2378e-01 +3.3625e-01 -2.1570e-02 +1.3454e+00 +7.4358e-01 +1.3279e+00 +2.6280e+00 +2.1349e+00 -2.1507e+00 -2.2917e+00 +2.3368e+00 -1.2817e+00
214 +1.303124769e+01 +1.303124769e+01 -1.319287523e+02 -1.319287523e+02 -1.1746e-01 -2.0320e+00 -5.2428e-01 -1.1274e+00 -2.6645e+00 +1.6722e+00 -1.8297e+00 +9.3430e-01 +2.8996e-01 +2.2127e+00 +2.3600e+00 +1.7207e+00 +1.4296e-01 +1.0904e+00 +2.5544e+00 +1.8419e+00 -1.4159e+00 -1.8604e+00 +1.8649e+00 -2.0587e+00
275 +4.325442811e+00 +4.325442811e+00 -1.406345572e+02 -1.406345572e+02 +1.9368e+00 -1.8354e+00 -1.4032e-01 -4.5679e-01 -2.3364e+00 -1.4079e-01 -2.2790e+00 +2.0377e+00 -6.8028e-01 +1.6504e+00 +1.9462e+00 +1.7560e+00 +6.2469e-01 +8.2041e-01 +2.5026e+00 +1.2188e+00 -1.4999e+00 -1.2969e+00 +1.8063e+00 -2.2833e+00
282 +3.749754133e+00 +3.749754133e+00 -1.412102459e+02 -1.412102459e+02 +1.1524e+00 -2.5173e+00 -2.5132e-01 +6.8313e-01 -2.7993e+00 +7.3438e-01 -2.4688e+00 +9.3890e-01 -1.5399e-01 +1.0589e+00 +1.4735e+00 +1.8618e+00 +5.2852e-01 +8.0650e-01 +2.3087e+00 +1.3746e+00 -1.3916e+00 -8.5839e-01 +1.7144e+00 -1.6656e+00
766 +2.485920611e+00 +2.485920611e+00 -1.424740794e+02 -1.424740794e+02 +1.4922e+00 -2.9970e+00 -2.7882e-01 +4.3699e-01 -2.7486e+00 -7.6840e-02 -7.4592e-01 +1.7537e+00 -5.3711e-01 +1.8359e+00 +9.6734e-01 +5.3925e-01 +7.3814e-01 +1.6229e+00 +1.1651e+00 +1.4258e+00 -1.1870e+00 -1.3608e+00 +1.9387e+00 -1.7830e+00
% function evaluation | noise-free fitness - Fopt (-6.300000000000e+00) | best noise-free fitness - Fopt | measured fitness | best measured fitness | x1 | x2...
1 +1.447875255e+05 +1.447875255e+05 +1.447812255e+05 +1.447812255e+05 -2.2599e+00 +7.6521e-01 -4.9053e-01 -3.3927e+00 -1.5848e+00 +2.7508e+00 +1.6726e-02 +3.8632e-02 -2.6901e+00 -1.3023e+00 +2.0114e+00 +2.6124e+00 -2.1030e+00 +1.8699e+00 -3.4822e+00 +2.9230e+00 -1.3972e+00 +1.2274e+00 -3.8632e-01 +3.9589e+00
28 +8.264079089e+04 +8.264079089e+04 +8.263449089e+04 +8.263449089e+04 +1.5207e+00 -1.8578e+00 -1.0739e+00 -2.6130e+00 +7.0909e-01 +3.8660e+00 +3.9113e+00 +2.9000e+00 -3.1718e+00 -2.7739e+00 +2.1446e+00 +1.7668e+00 -5.4310e-01 -1.4625e+00 -4.6322e-01 +2.7202e+00 -5.0000e+00 -6.5491e-01 -1.9648e+00 -1.7392e+00
34 +4.883597512e+04 +4.883597512e+04 +4.882967512e+04 +4.882967512e+04 +1.4396e+00 +5.5051e-01 -8.9995e-01 -5.0000e+00 -1.3572e+00 +2.4755e+00 -1.0387e+00 -3.7058e-01 -1.4468e+00 -2.3227e+00 +1.4982e+00 +1.3182e+00 -2.0949e+00 +2.0960e+00 -2.4965e+00 +5.0000e+00 +1.4139e+00 -1.9165e+00 -7.1546e-01 -2.4965e+00
66 +3.912733006e+04 +3.912733006e+04 +3.912103006e+04 +3.912103006e+04 -7.8073e-01 +1.1952e+00 -1.1843e+00 -2.5504e+00 -1.7496e+00 +2.3721e+00 -1.4449e+00 +2.9306e+00 -1.3011e+00 -1.7938e+00 +1.5285e+00 +4.9566e+00 +1.0154e+00 +5.6294e-01 -3.2398e+00 +1.3386e-01 -3.7310e+00 -1.0588e-01 -3.9304e+00 -6.8381e-01
115 +6.510249110e+03 +6.510249110e+03 +6.503949110e+03 +6.503949110e+03 -3.4363e-01 -3.4402e+00 -1.4387e+00 -9.2374e-01 -2.3307e+00 -8.4025e-01 -2.3461e+00 +7.5090e-01 +1.1342e+00 +5.1076e-01 -2.2076e+00 -9.7586e-01 +4.2889e-01 +1.3722e+00 -8.7887e-01 +1.7300e+00 -2.4283e-01 -2.1398e+00 -4.3581e-01 -3.0613e+00
141 +2.084634891e+03 +2.084634891e+03 +2.078334891e+03 +2.078334891e+03 -1.3284e+00 -2.6692e+00 -2.3411e+00 -1.5019e+00 -2.7137e+00 +1.6627e+00 +6.4714e-01 -5.6052e-01 +2.4311e+00 -7.1332e-01 -4.7428e-01 +7.7408e-01 -1.9728e+00 +2.1980e+00 -1.6901e+00 +3.1609e+00 +3.2619e-01 -2.3085e+00 -2.0172e+00 -2.1372e+00
200 +1.575564224e+03 +1.575564224e+03 +1.569264224e+03 +1.569264224e+03 -2.0889e+00 -1.6372e+00 -2.6339e+00 +5.7353e-01 -2.9967e+00 +2.0630e+00 -9.2964e-01 -7.9361e-01 +2.4226e+00 +1.3312e+00 -1.1363e+00 +9.2419e-01 -1.1593e+00 -2.1723e-01 -5.9492e-01 +2.7631e+00 -7.6064e-01 -2.6343e+00 -1.2782e+00 -2.6601e+00
203 +1.116160239e+02 +1.116160239e+02 +1.053160239e+02 +1.053160239e+02 -8.1934e-01 -2.4477e+00 -9.4680e-01 -1.6428e-02 -2.1445e+00 +1.2279e+00 -6.2292e-01 -1.5162e-03 +9.2684e-01 +1.9885e+00 -1.4020e+00 +1.0786e+00 -1.9345e+00 +9.8087e-01 -4.5939e-01 +2.0866e+00 -1.1226e+00 -1.0929e+00 -9.9406e-01 -2.1540e+00
233 +9.715929633e+01 +9.715929633e+01 +9.085929633e+01 +9.085929633e+01 -2.2697e+00 -2.6565e+00 -2.2122e+00 -4.8478e-01 -3.4201e+00 +8.9476e-01 +3.0667e-01 -1.1601e-01 +4.9716e-01 +9.6198e-01 -8.8688e-01 +1.6205e+00 -2.4903e+00 +1.3529e+00 -1.0791e+00 +6.2663e-01 -1.2477e+00 -1.3028e+00 -2.1371e+00 -2.1896e+00
238 +3.973831322e+00 +3.973831322e+00 -2.326168678e+00 -2.326168678e+00 -1.6059e+00 -3.2814e+00 -2.0840e+00 -1.0785e+00 -2.8428e+00 +8.1922e-01 +1.3939e+00 -1.0129e+00 +2.3512e+00 +8.1920e-01 -4.2694e-01 +8.2462e-01 -3.8582e-01 +1.8771e+00 -9.5148e-01 +1.9766e+00 -3.7415e-01 -1.5196e+00 -1.7754e+00 -1.8591e+00
1018 +2.460832741e+00 +2.460832741e+00 -3.839167259e+00 -3.839167259e+00 -7.0295e-01 -2.8278e+00 -1.8607e+00 -3.7326e-02 -2.6232e+00 +2.9116e-02 +1.0833e-01 -1.9440e+00 +1.4932e+00 +9.6804e-01 -4.5317e-01 +1.0855e+00 -1.8323e+00 +1.2291e+00 -1.8502e+00 +1.0508e+00 -1.3664e+00 -1.6262e+00 -1.4707e+00 -1.9299e+00
