% f evaluations | g evaluations | best noise-free fitness - Fopt (7.135000000000e+001) + sum g_i+ | measured fitness | best measured fitness or single-digit g-values | x1 | x2...
1 0 +1.439111087e+002 +2.152611087e+002 +2.152611087e+002 +5.0000e+000 +5.0000e+000
2 0 +7.926274462e+001 +1.506127446e+002 +1.506127446e+002 -5.0000e+000 +5.0000e+000
3 0 +4.419558233e+001 +1.155455823e+002 +1.155455823e+002 +5.0000e+000 -5.0000e+000
9 0 +3.700238906e+001 +1.083523891e+002 +1.083523891e+002 +4.6390e+000 -5.0000e+000
14 0 +1.664915751e+001 +8.799915751e+001 +8.799915751e+001 +1.8000e+000 -5.0000e+000
23 0 +1.361735796e+001 +8.496735796e+001 +8.496735796e+001 +2.1028e+000 -4.7936e+000
32 0 +1.193288127e+001 +8.328288127e+001 +8.328288127e+001 +2.2441e+000 -4.9683e+000
39 0 +9.412441404e+000 +8.076244140e+001 +8.076244140e+001 +2.2512e+000 -4.9925e+000
98 0 +9.176964450e+000 +8.052696445e+001 +8.052696445e+001 +2.1214e+000 -4.9975e+000
101 0 +8.604364967e+000 +7.995436497e+001 +7.995436497e+001 +2.1471e+000 -4.9976e+000
104 0 +7.731589355e+000 +7.908158936e+001 +7.908158936e+001 +2.1519e+000 -4.9974e+000
146 0 +7.420587074e+000 +7.877058707e+001 +7.877058707e+001 +2.1655e+000 -4.9974e+000
156 0 +1.426155599e+000 +7.277615560e+001 +7.277615560e+001 +2.2173e+000 +9.2889e-001
175 0 +1.289616726e+000 +7.263961673e+001 +7.263961673e+001 +2.2013e+000 +9.2861e-001
200 0 +1.249632442e+000 +7.259963244e+001 +7.259963244e+001 +2.2049e+000 +9.2861e-001
252 0 +1.225560475e+000 +7.257556047e+001 +7.257556047e+001 +2.2055e+000 +9.2858e-001
282 0 +1.189550671e+000 +7.253955067e+001 +7.253955067e+001 +2.2064e+000 +9.2878e-001
352 0 +1.138816160e+000 +7.248881616e+001 +7.248881616e+001 +2.2055e+000 +9.2877e-001
403 0 +4.918957670e-002 +7.139918958e+001 +7.139918958e+001 +1.1946e+000 +2.9693e+000
434 0 +4.729218963e-002 +7.139729219e+001 +7.139729219e+001 +1.1960e+000 +2.9694e+000
435 0 +3.871175267e-002 +7.138871175e+001 +7.138871175e+001 +1.1953e+000 +2.9696e+000
451 0 +3.121661933e-002 +7.138121662e+001 +7.138121662e+001 +1.1951e+000 +2.9697e+000
567 0 +2.682858580e-002 +7.137682859e+001 +7.137682859e+001 +1.2130e+000 +2.9700e+000
568 0 +1.395843541e-002 +7.136395844e+001 +7.136395844e+001 +1.2249e+000 +2.9702e+000
582 0 +1.364383389e-002 +7.136364383e+001 +7.136364383e+001 +1.2478e+000 +2.9698e+000
583 0 +1.215717031e-002 +7.136215717e+001 +7.136215717e+001 +1.2534e+000 +2.9698e+000
594 0 +1.142702374e-002 +7.136142702e+001 +7.136142702e+001 +1.2598e+000 +2.9700e+000
625 0 +7.308473556e-003 +7.135730847e+001 +7.135730847e+001 +1.2707e+000 +2.9702e+000
626 0 +4.915796008e-003 +7.135491580e+001 +7.135491580e+001 +1.2758e+000 +2.9706e+000
629 0 +4.528893070e-003 +7.135452889e+001 +7.135452889e+001 +1.2768e+000 +2.9706e+000
641 0 +3.903109986e-003 +7.135390311e+001 +7.135390311e+001 +1.2771e+000 +2.9705e+000
642 0 +4.157969316e-004 +7.135041580e+001 +7.135041580e+001 +1.2873e+000 +2.9711e+000
718 0 +4.068955754e-004 +7.135040690e+001 +7.135040690e+001 +1.2873e+000 +2.9711e+000
720 0 +3.643176593e-004 +7.135036432e+001 +7.135036432e+001 +1.2869e+000 +2.9715e+000
729 0 +3.230072640e-004 +7.135032301e+001 +7.135032301e+001 +1.2873e+000 +2.9715e+000
732 0 +6.622033422e-005 +7.135006622e+001 +7.135006622e+001 +1.2867e+000 +2.9720e+000
734 0 +6.086544164e-005 +7.135006087e+001 +7.135006087e+001 +1.2871e+000 +2.9717e+000
741 0 +6.923792526e-006 +7.135000692e+001 +7.135000692e+001 +1.2870e+000 +2.9723e+000
744 0 +2.646453481e-006 +7.135000265e+001 +7.135000265e+001 +1.2871e+000 +2.9723e+000
757 0 +6.274036082e-007 +7.135000063e+001 +7.135000063e+001 +1.2872e+000 +2.9722e+000
777 0 +6.088608444e-007 +7.135000061e+001 +7.135000061e+001 +1.2872e+000 +2.9722e+000
790 0 +5.684023563e-007 +7.135000057e+001 +7.135000057e+001 +1.2872e+000 +2.9722e+000
801 0 +4.060027834e-007 +7.135000041e+001 +7.135000041e+001 +1.2872e+000 +2.9722e+000
812 0 +3.242748079e-007 +7.135000032e+001 +7.135000032e+001 +1.2872e+000 +2.9722e+000
819 0 +3.207372572e-007 +7.135000032e+001 +7.135000032e+001 +1.2872e+000 +2.9722e+000
820 0 +7.672497304e-009 +7.135000001e+001 +7.135000001e+001 +1.2870e+000 +2.9722e+000
% f evaluations | g evaluations | best noise-free fitness - Fopt (-3.552200000000e+002) + sum g_i+ | measured fitness | best measured fitness or single-digit g-values | x1 | x2...
1 0 +3.336370800e+001 -3.218562920e+002 -3.218562920e+002 +5.0000e+000 +5.0000e+000
3 0 +1.251645047e+001 -3.427035495e+002 -3.427035495e+002 +5.0000e+000 -5.0000e+000
20 0 +1.210747857e+001 -3.431125214e+002 -3.431125214e+002 -4.0064e+000 +1.5121e+000
30 0 +9.362758488e+000 -3.458572415e+002 -3.458572415e+002 -3.9838e+000 +1.5121e+000
32 0 +4.152653831e+000 -3.510673462e+002 -3.510673462e+002 +3.4983e+000 -2.9732e+000
35 0 +3.276075205e+000 -3.519439248e+002 -3.519439248e+002 +3.4905e+000 -2.9677e+000
73 0 +1.160170293e+000 -3.540598297e+002 -3.540598297e+002 +3.6936e+000 -2.9677e+000
112 0 +1.680556355e-001 -3.550519444e+002 -3.550519444e+002 +3.6484e+000 -2.9737e+000
155 0 +1.612883454e-001 -3.550587117e+002 -3.550587117e+002 +3.6467e+000 -2.9737e+000
165 0 +1.468512939e-001 -3.550731487e+002 -3.550731487e+002 +3.5256e+000 -3.0048e+000
206 0 +6.228678898e-002 -3.551577132e+002 -3.551577132e+002 +3.5656e+000 -3.0063e+000
230 0 +1.818490487e-002 -3.552018151e+002 -3.552018151e+002 +3.5395e+000 -3.0120e+000
254 0 +1.141301770e-002 -3.552085870e+002 -3.552085870e+002 +3.5400e+000 -3.0113e+000
260 0 +1.014932091e-002 -3.552098507e+002 -3.552098507e+002 +3.5398e+000 -3.0098e+000
261 0 +4.331077963e-003 -3.552156689e+002 -3.552156689e+002 +3.5380e+000 -3.0101e+000
270 0 +2.567059249e-003 -3.552174329e+002 -3.552174329e+002 +3.5316e+000 -3.0120e+000
272 0 +8.765493379e-004 -3.552191235e+002 -3.552191235e+002 +3.5207e+000 -3.0137e+000
276 0 +3.618384505e-005 -3.552199638e+002 -3.552199638e+002 +3.5248e+000 -3.0133e+000
334 0 +2.393608469e-005 -3.552199761e+002 -3.552199761e+002 +3.5246e+000 -3.0134e+000
367 0 +1.493545921e-005 -3.552199851e+002 -3.552199851e+002 +3.5251e+000 -3.0134e+000
373 0 +6.756665584e-006 -3.552199932e+002 -3.552199932e+002 +3.5239e+000 -3.0137e+000
383 0 +6.539528783e-006 -3.552199935e+002 -3.552199935e+002 +3.5239e+000 -3.0137e+000
396 0 +1.144310374e-006 -3.552199989e+002 -3.552199989e+002 +3.5239e+000 -3.0137e+000
417 0 +1.097204290e-006 -3.552199989e+002 -3.552199989e+002 +3.5239e+000 -3.0137e+000
436 0 +6.109025321e-007 -3.552199994e+002 -3.552199994e+002 +3.5244e+000 -3.0135e+000
440 0 +3.783694638e-007 -3.552199996e+002 -3.552199996e+002 +3.5244e+000 -3.0135e+000
448 0 +2.155335324e-007 -3.552199998e+002 -3.552199998e+002 +3.5243e+000 -3.0136e+000
456 0 +1.961878979e-007 -3.552199998e+002 -3.552199998e+002 +3.5243e+000 -3.0136e+000
481 0 +1.609544142e-007 -3.552199998e+002 -3.552199998e+002 +3.5245e+000 -3.0135e+000
484 0 +5.132335446e-009 -3.552200000e+002 -3.552200000e+002 +3.5244e+000 -3.0136e+000
% f evaluations | g evaluations | best noise-free fitness - Fopt (9.917000000000e+001) + sum g_i+ | measured fitness | best measured fitness or single-digit g-values | x1 | x2...
1 0 +5.705585977e+001 +1.562258598e+002 +1.562258598e+002 -5.0000e+000 -5.0000e+000
5 0 +4.864674939e+001 +1.478167494e+002 +1.478167494e+002 -4.9036e+000 -5.0000e+000
14 0 +9.019928170e+000 +1.081899282e+002 +1.081899282e+002 -1.4888e-001 -5.0000e+000
33 0 +8.389156007e+000 +1.075591560e+002 +1.075591560e+002 -1.4836e-001 -5.0000e+000
34 0 +8.031327988e+000 +1.072013280e+002 +1.072013280e+002 -1.6842e-001 -4.9728e+000
53 0 +7.736204160e+000 +1.069062042e+002 +1.069062042e+002 -1.6171e-001 -4.9977e+000
57 0 +2.434223870e+000 +1.016042239e+002 +1.016042239e+002 +8.1156e-001 -4.7955e+000
87 0 +1.464202643e+000 +1.006342026e+002 +1.006342026e+002 +8.2509e-001 -4.7957e+000
154 0 +8.980386466e-001 +1.000680386e+002 +1.000680386e+002 +9.4289e-001 -4.9671e+000
166 0 +1.553507941e-001 +9.932535079e+001 +9.932535079e+001 +9.6901e-001 -4.9045e+000
202 0 +1.156327536e-001 +9.928563275e+001 +9.928563275e+001 +9.9681e-001 -4.9619e+000
225 0 +2.717157628e-002 +9.919717158e+001 +9.919717158e+001 +9.4638e-001 -4.8867e+000
240 0 +2.489269021e-002 +9.919489269e+001 +9.919489269e+001 +9.4950e-001 -4.8921e+000
260 0 +5.948550069e-003 +9.917594855e+001 +9.917594855e+001 +9.2362e-001 -4.8392e+000
266 0 +2.323594792e-003 +9.917232359e+001 +9.917232359e+001 +9.2609e-001 -4.8443e+000
308 0 +9.407242900e-004 +9.917094072e+001 +9.917094072e+001 +9.3054e-001 -4.8507e+000
337 0 +9.210617503e-004 +9.917092106e+001 +9.917092106e+001 +9.3128e-001 -4.8518e+000
344 0 +1.852323490e-004 +9.917018523e+001 +9.917018523e+001 +9.2907e-001 -4.8507e+000
352 0 +1.179479248e-004 +9.917011795e+001 +9.917011795e+001 +9.2756e-001 -4.8493e+000
353 0 +1.171711804e-004 +9.917011717e+001 +9.917011717e+001 +9.2663e-001 -4.8471e+000
369 0 +9.716400466e-005 +9.917009716e+001 +9.917009716e+001 +9.2792e-001 -4.8488e+000
385 0 +8.341268587e-005 +9.917008341e+001 +9.917008341e+001 +9.2805e-001 -4.8491e+000
388 0 +2.640092845e-006 +9.917000264e+001 +9.917000264e+001 +9.2782e-001 -4.8491e+000
422 0 +2.817203324e-007 +9.917000028e+001 +9.917000028e+001 +9.2775e-001 -4.8491e+000
442 0 +2.517873696e-007 +9.917000025e+001 +9.917000025e+001 +9.2775e-001 -4.8491e+000
447 0 +1.729852102e-007 +9.917000017e+001 +9.917000017e+001 +9.2774e-001 -4.8491e+000
484 0 +1.142239370e-007 +9.917000011e+001 +9.917000011e+001 +9.2775e-001 -4.8491e+000
561 0 +1.051741663e-007 +9.917000011e+001 +9.917000011e+001 +9.2774e-001 -4.8491e+000
564 0 +9.317469107e-008 +9.917000009e+001 +9.917000009e+001 +9.2774e-001 -4.8491e+000
589 0 +5.384839596e-008 +9.917000005e+001 +9.917000005e+001 +9.2765e-001 -4.8490e+000
591 0 +3.643437196e-008 +9.917000004e+001 +9.917000004e+001 +9.2766e-001 -4.8490e+000
594 0 +2.910483943e-008 +9.917000003e+001 +9.917000003e+001 +9.2765e-001 -4.8490e+000
597 0 +3.983586794e-010 +9.917000000e+001 +9.917000000e+001 +9.2764e-001 -4.8490e+000
% f evaluations | g evaluations | best noise-free fitness - Fopt (-5.179100000000e+002) + sum g_i+ | measured fitness | best measured fitness or single-digit g-values | x1 | x2...
1 0 +1.616270428e+001 -5.017472957e+002 -5.017472957e+002 +5.0000e+000 +5.0000e+000
10 0 +1.217354729e+001 -5.057364527e+002 -5.057364527e+002 +5.0000e+000 -3.2404e+000
11 0 +9.565247587e+000 -5.083447524e+002 -5.083447524e+002 +5.0000e+000 -3.2775e+000
22 0 +8.865796343e+000 -5.090442037e+002 -5.090442037e+002 +5.0000e+000 -3.2696e+000
25 0 +7.222721096e+000 -5.106872789e+002 -5.106872789e+002 +5.0000e+000 -3.2103e+000
34 0 +5.008765844e+000 -5.129012342e+002 -5.129012342e+002 +4.8786e+000 -3.2142e+000
38 0 +1.870544435e+000 -5.160394556e+002 -5.160394556e+002 +5.0000e+000 -3.1690e+000
52 0 +1.462502237e+000 -5.164474978e+002 -5.164474978e+002 +5.0000e+000 -3.1756e+000
84 0 +1.975832428e-001 -5.177124168e+002 -5.177124168e+002 +7.5132e-001 +3.7200e+000
163 0 +1.904556435e-001 -5.177195444e+002 -5.177195444e+002 +7.5132e-001 +3.7245e+000
211 0 +1.533310422e-001 -5.177566690e+002 -5.177566690e+002 +7.5132e-001 +3.7257e+000
242 0 +9.653590976e-002 -5.178134641e+002 -5.178134641e+002 +7.5132e-001 +3.7314e+000
320 0 +4.296127753e-003 -5.179057039e+002 -5.179057039e+002 +6.3732e-001 +3.6269e+000
321 0 +1.992772369e-003 -5.179080072e+002 -5.179080072e+002 +6.3667e-001 +3.6307e+000
328 0 +6.073320230e-005 -5.179099393e+002 -5.179099393e+002 +6.3144e-001 +3.6261e+000
421 0 +2.741636104e-005 -5.179099726e+002 -5.179099726e+002 +6.3171e-001 +3.6263e+000
425 0 +2.145693554e-005 -5.179099785e+002 -5.179099785e+002 +6.3057e-001 +3.6255e+000
433 0 +7.514812523e-007 -5.179099992e+002 -5.179099992e+002 +6.3034e-001 +3.6253e+000
453 0 +6.920469104e-007 -5.179099993e+002 -5.179099993e+002 +6.3034e-001 +3.6253e+000
466 0 +2.768026661e-007 -5.179099997e+002 -5.179099997e+002 +6.3037e-001 +3.6252e+000
474 0 +2.058582140e-007 -5.179099998e+002 -5.179099998e+002 +6.3057e-001 +3.6254e+000
480 0 +1.985106337e-007 -5.179099998e+002 -5.179099998e+002 +6.3047e-001 +3.6253e+000
520 0 +1.930524149e-007 -5.179099998e+002 -5.179099998e+002 +6.3048e-001 +3.6253e+000
521 0 +8.059248557e-008 -5.179099999e+002 -5.179099999e+002 +6.3053e-001 +3.6253e+000
523 0 +6.200093594e-008 -5.179099999e+002 -5.179099999e+002 +6.3054e-001 +3.6253e+000
528 0 +5.864296782e-008 -5.179099999e+002 -5.179099999e+002 +6.3053e-001 +3.6253e+000
535 0 +4.547473509e-013 -5.179100000e+002 -5.179100000e+002 +6.3048e-001 +3.6253e+000
547 0 +0.000000000e+000 -5.179100000e+002 -5.179100000e+002 +6.3047e-001 +3.6253e+000
% f evaluations | g evaluations | best noise-free fitness - Fopt (-5.721000000000e+001) + sum g_i+ | measured fitness | best measured fitness or single-digit g-values | x1 | x2...
1 0 +3.083113924e+001 -2.637886076e+001 -2.637886076e+001 +5.0000e+000 -5.0000e+000
11 0 +2.637736717e+001 -3.083263283e+001 -3.083263283e+001 +5.0000e+000 -2.8754e+000
13 0 +1.112464127e+001 -4.608535873e+001 -4.608535873e+001 +5.0000e+000 -1.4398e+000
31 0 +6.272439085e+000 -5.093756091e+001 -5.093756091e+001 +5.0000e+000 -1.4686e+000
54 0 +2.591671566e+000 -5.461832843e+001 -5.461832843e+001 +1.3874e+000 -1.9696e+000
150 0 +1.628955969e+000 -5.558104403e+001 -5.558104403e+001 +1.1099e+000 -1.6440e+000
158 0 +5.662740003e-001 -5.664372600e+001 -5.664372600e+001 +1.1192e+000 -1.6334e+000
190 0 +4.307180513e-001 -5.677928195e+001 -5.677928195e+001 +1.1310e+000 -1.6440e+000
249 0 +2.890283679e-001 -5.692097163e+001 -5.692097163e+001 +9.6599e-001 -1.4581e+000
251 0 +2.430974658e-001 -5.696690253e+001 -5.696690253e+001 +9.8342e-001 -1.4786e+000
267 0 +8.531681006e-002 -5.712468319e+001 -5.712468319e+001 +9.7486e-001 -1.4567e+000
279 0 +1.325684163e-004 -5.720986743e+001 -5.720986743e+001 +9.2647e-001 -1.3759e+000
364 0 +4.863765353e-005 -5.720995136e+001 -5.720995136e+001 +9.2482e-001 -1.3726e+000
435 0 +3.299088453e-005 -5.720996701e+001 -5.720996701e+001 +9.2562e-001 -1.3743e+000
452 0 +1.202419426e-005 -5.720998798e+001 -5.720998798e+001 +9.2501e-001 -1.3730e+000
472 0 +1.894336194e-006 -5.720999811e+001 -5.720999811e+001 +9.2532e-001 -1.3736e+000
489 0 +8.000656990e-007 -5.720999920e+001 -5.720999920e+001 +9.2539e-001 -1.3737e+000
490 0 +4.910802645e-007 -5.720999951e+001 -5.720999951e+001 +9.2543e-001 -1.3737e+000
536 0 +4.837820455e-007 -5.720999952e+001 -5.720999952e+001 +9.2545e-001 -1.3737e+000
551 0 +2.929375142e-008 -5.720999997e+001 -5.720999997e+001 +9.2551e-001 -1.3739e+000
565 0 +1.219395074e-008 -5.720999999e+001 -5.720999999e+001 +9.2549e-001 -1.3738e+000
566 0 +7.075321662e-009 -5.720999999e+001 -5.720999999e+001 +9.2550e-001 -1.3738e+000
% f evaluations | g evaluations | best noise-free fitness - Fopt (6.626000000000e+001) + sum g_i+ | measured fitness | best measured fitness or single-digit g-values | x1 | x2...
1 0 +2.157348496e+002 +2.819948496e+002 +2.819948496e+002 +5.0000e+000 -5.0000e+000
2 0 +7.910972422e+001 +1.453697242e+002 +1.453697242e+002 -5.0000e+000 -5.0000e+000
5 0 +5.907526407e+001 +1.253352641e+002 +1.253352641e+002 -1.2299e+000 -5.0000e+000
7 0 +4.654703824e+001 +1.128070382e+002 +1.128070382e+002 -1.2299e+000 -4.0184e+000
11 0 +4.564561977e+000 +7.082456198e+001 +7.082456198e+001 +1.0973e+000 -4.2468e+000
13 0 +3.991847965e+000 +7.025184797e+001 +7.025184797e+001 +1.0973e+000 -4.1298e+000
57 0 +3.681870271e+000 +6.994187027e+001 +6.994187027e+001 +1.7865e+000 -8.3613e-001
58 0 +2.126144641e+000 +6.838614464e+001 +6.838614464e+001 +1.8367e+000 -7.6641e-001
104 0 +1.660280865e+000 +6.792028086e+001 +6.792028086e+001 +1.0177e+000 -3.9784e+000
106 0 +4.822641690e-001 +6.674226417e+001 +6.674226417e+001 +1.2094e+000 -4.4020e+000
225 0 +2.058816934e-001 +6.646588169e+001 +6.646588169e+001 +1.7686e+000 -1.1892e+000
389 0 +1.134913235e-001 +6.637349132e+001 +6.637349132e+001 +1.7648e+000 -1.1778e+000
432 0 +2.917564732e-002 +6.628917565e+001 +6.628917565e+001 +1.7588e+000 -1.1422e+000
522 0 +2.751400666e-002 +6.628751401e+001 +6.628751401e+001 +1.7573e+000 -1.1341e+000
527 0 +1.378875500e-002 +6.627378875e+001 +6.627378875e+001 +1.7557e+000 -1.1214e+000
533 0 +1.080771284e-002 +6.627080771e+001 +6.627080771e+001 +1.7538e+000 -1.1076e+000
540 0 +7.041292036e-003 +6.626704129e+001 +6.626704129e+001 +1.7543e+000 -1.1207e+000
546 0 +5.340447053e-003 +6.626534045e+001 +6.626534045e+001 +1.7543e+000 -1.1166e+000
550 0 +2.876043991e-003 +6.626287604e+001 +6.626287604e+001 +1.7534e+000 -1.1195e+000
555 0 +2.744564783e-003 +6.626274456e+001 +6.626274456e+001 +1.7521e+000 -1.1292e+000
568 0 +4.309651799e-004 +6.626043097e+001 +6.626043097e+001 +1.7534e+000 -1.1261e+000
589 0 +1.748943003e-004 +6.626017489e+001 +6.626017489e+001 +1.7530e+000 -1.1269e+000
636 0 +1.169816107e-004 +6.626011698e+001 +6.626011698e+001 +1.7532e+000 -1.1269e+000
652 0 +9.323737603e-005 +6.626009324e+001 +6.626009324e+001 +1.7532e+000 -1.1271e+000
662 0 +7.851229627e-005 +6.626007851e+001 +6.626007851e+001 +1.7530e+000 -1.1256e+000
677 0 +4.723437783e-006 +6.626000472e+001 +6.626000472e+001 +1.7527e+000 -1.1244e+000
687 0 +3.733819824e-006 +6.626000373e+001 +6.626000373e+001 +1.7527e+000 -1.1244e+000
695 0 +6.807305937e-007 +6.626000068e+001 +6.626000068e+001 +1.7527e+000 -1.1241e+000
741 0 +2.649059780e-007 +6.626000026e+001 +6.626000026e+001 +1.7527e+000 -1.1243e+000
750 0 +7.793775580e-008 +6.626000008e+001 +6.626000008e+001 +1.7527e+000 -1.1242e+000
756 0 +5.380890400e-008 +6.626000005e+001 +6.626000005e+001 +1.7527e+000 -1.1243e+000
771 0 +2.369240804e-008 +6.626000002e+001 +6.626000002e+001 +1.7527e+000 -1.1242e+000
775 0 +1.303747865e-008 +6.626000001e+001 +6.626000001e+001 +1.7527e+000 -1.1242e+000
777 0 +1.260147542e-009 +6.626000000e+001 +6.626000000e+001 +1.7527e+000 -1.1242e+000
880 0 +0.000000000e+000 +6.626000000e+001 +6.626000000e+001 +1.7527e+000 -1.1242e+000
% f evaluations | g evaluations | best noise-free fitness - Fopt (-1.386200000000e+002) + sum g_i+ | measured fitness | best measured fitness or single-digit g-values | x1 | x2...
1 0 +8.691712890e+001 -5.170287110e+001 -5.170287110e+001 -5.0000e+000 -5.0000e+000
5 0 +7.248423371e+001 -6.613576629e+001 -6.613576629e+001 -5.0000e+000 -4.3287e+000
6 0 +3.360609391e+001 -1.050139061e+002 -1.050139061e+002 +2.3409e+000 -4.3287e+000
16 0 +7.480633818e+000 -1.311393662e+002 -1.311393662e+002 +1.6865e-001 -4.3774e+000
81 0 +4.314557067e+000 -1.343054429e+002 -1.343054429e+002 +2.1261e+000 -4.8953e+000
83 0 +4.096272374e+000 -1.345237276e+002 -1.345237276e+002 +2.1272e+000 -4.8987e+000
85 0 +1.512844947e+000 -1.371071551e+002 -1.371071551e+002 +2.0623e+000 -4.3287e+000
132 0 +1.427615699e+000 -1.371923843e+002 -1.371923843e+002 +2.0330e+000 -3.8822e+000
156 0 +1.127794648e+000 -1.374922054e+002 -1.374922054e+002 +2.0162e+000 -3.8903e+000
172 0 +5.429418137e-001 -1.380770582e+002 -1.380770582e+002 +2.0330e+000 -4.0121e+000
201 0 +6.448590726e-002 -1.385555141e+002 -1.385555141e+002 +2.0107e+000 -4.0110e+000
225 0 +3.355408791e-003 -1.386166446e+002 -1.386166446e+002 +2.0051e+000 -3.9717e+000
344 0 +2.886742336e-003 -1.386171133e+002 -1.386171133e+002 +2.0039e+000 -3.9579e+000
364 0 +2.734959877e-003 -1.386172650e+002 -1.386172650e+002 +2.0039e+000 -3.9579e+000
374 0 +1.645040011e-003 -1.386183550e+002 -1.386183550e+002 +1.9999e+000 -3.9417e+000
380 0 +9.267009382e-004 -1.386190733e+002 -1.386190733e+002 +1.9992e+000 -3.9478e+000
386 0 +2.434099336e-004 -1.386197566e+002 -1.386197566e+002 +2.0022e+000 -3.9586e+000
396 0 +1.097608684e-004 -1.386198902e+002 -1.386198902e+002 +2.0009e+000 -3.9528e+000
407 0 +6.441546020e-006 -1.386199936e+002 -1.386199936e+002 +2.0015e+000 -3.9547e+000
453 0 +3.504169030e-006 -1.386199965e+002 -1.386199965e+002 +2.0016e+000 -3.9546e+000
469 0 +1.781130919e-006 -1.386199982e+002 -1.386199982e+002 +2.0016e+000 -3.9545e+000
488 0 +1.336786283e-006 -1.386199987e+002 -1.386199987e+002 +2.0016e+000 -3.9545e+000
501 0 +6.421036005e-007 -1.386199994e+002 -1.386199994e+002 +2.0016e+000 -3.9544e+000
531 0 +7.687000902e-008 -1.386199999e+002 -1.386199999e+002 +2.0016e+000 -3.9545e+000
551 0 +1.718720455e-008 -1.386200000e+002 -1.386200000e+002 +2.0016e+000 -3.9545e+000
569 0 +1.306261765e-010 -1.386200000e+002 -1.386200000e+002 +2.0016e+000 -3.9545e+000
% f evaluations | g evaluations | best noise-free fitness - Fopt (7.313900000000e+002) + sum g_i+ | measured fitness | best measured fitness or single-digit g-values | x1 | x2...
1 0 +3.258293395e+001 +7.639729339e+002 +7.639729339e+002 +5.0000e+000 +5.0000e+000
4 0 +1.886319021e+001 +7.502531902e+002 +7.502531902e+002 +4.9531e+000 -3.5212e+000
32 0 +1.214992334e+001 +7.435399233e+002 +7.435399233e+002 +4.9700e+000 -3.8079e+000
36 0 +1.011474185e+001 +7.415047419e+002 +7.415047419e+002 +4.9786e+000 -3.8119e+000
54 0 +7.477433524e+000 +7.388674335e+002 +7.388674335e+002 +4.9452e+000 -3.7237e+000
90 0 +4.895892409e+000 +7.362858924e+002 +7.362858924e+002 +4.9431e+000 -3.6812e+000
292 0 +4.685760623e+000 +7.360757606e+002 +7.360757606e+002 +4.9417e+000 -3.6714e+000
339 0 +4.665684661e+000 +7.360556847e+002 +7.360556847e+002 +4.9412e+000 -3.6711e+000
348 0 +4.415960652e+000 +7.358059607e+002 +7.358059607e+002 +4.9420e+000 -3.6742e+000
373 0 +4.281812901e+000 +7.356718129e+002 +7.356718129e+002 +4.9423e+000 -3.6755e+000
409 0 +4.244630297e+000 +7.356346303e+002 +7.356346303e+002 +4.9423e+000 -3.6754e+000
1038 0 +9.828266643e-001 +7.323728267e+002 +7.323728267e+002 +4.0013e+000 -8.9228e-001
1228 0 +5.096032141e-001 +7.318996032e+002 +7.318996032e+002 +3.9874e+000 -8.3271e-001
1288 0 +2.991906855e-001 +7.316891907e+002 +7.316891907e+002 +3.9983e+000 -8.4833e-001
1304 0 +6.280684488e-002 +7.314528068e+002 +7.314528068e+002 +4.0601e+000 -1.0160e+000
1311 0 +2.516756789e-002 +7.314151676e+002 +7.314151676e+002 +4.0683e+000 -1.0143e+000
1331 0 +2.132886378e-003 +7.313921329e+002 +7.313921329e+002 +4.0683e+000 -1.0630e+000
1339 0 +1.499674463e-003 +7.313914997e+002 +7.313914997e+002 +4.0682e+000 -1.0632e+000
1371 0 +1.117438824e-003 +7.313911174e+002 +7.313911174e+002 +4.0694e+000 -1.0616e+000
1400 0 +6.598803516e-004 +7.313906599e+002 +7.313906599e+002 +4.0693e+000 -1.0622e+000
1423 0 +6.450559270e-004 +7.313906451e+002 +7.313906451e+002 +4.0692e+000 -1.0648e+000
1425 0 +2.670544188e-005 +7.313900267e+002 +7.313900267e+002 +4.0689e+000 -1.0726e+000
1436 0 +6.859280006e-006 +7.313900069e+002 +7.313900069e+002 +4.0690e+000 -1.0723e+000
1480 0 +1.312796940e-006 +7.313900013e+002 +7.313900013e+002 +4.0690e+000 -1.0718e+000
1496 0 +9.119069091e-007 +7.313900009e+002 +7.313900009e+002 +4.0690e+000 -1.0718e+000
1538 0 +7.500602806e-009 +7.313900000e+002 +7.313900000e+002 +4.0690e+000 -1.0721e+000
% f evaluations | g evaluations | best noise-free fitness - Fopt (7.526000000000e+001) + sum g_i+ | measured fitness | best measured fitness or single-digit g-values | x1 | x2...
1 0 +6.849915467e+001 +1.437591547e+002 +1.437591547e+002 +5.0000e+000 -5.0000e+000
3 0 +6.186827668e+001 +1.371282767e+002 +1.371282767e+002 +5.0000e+000 +5.0000e+000
4 0 +2.018420955e+001 +9.544420955e+001 +9.544420955e+001 +4.7423e+000 +3.3520e+000
10 0 +1.280031891e+001 +8.806031891e+001 +8.806031891e+001 -5.0000e+000 +4.1935e+000
14 0 +7.157318082e+000 +8.241731808e+001 +8.241731808e+001 +5.0000e+000 -4.5147e+000
22 0 +3.175155226e+000 +7.843515523e+001 +7.843515523e+001 -1.8000e+000 +2.7265e-001
99 0 +2.855374175e+000 +7.811537417e+001 +7.811537417e+001 -4.8982e+000 +2.9533e+000
137 0 +1.537256758e+000 +7.679725676e+001 +7.679725676e+001 -4.8982e+000 +4.4611e+000
313 0 +1.466098582e+000 +7.672609858e+001 +7.672609858e+001 -4.8974e+000 +4.4622e+000
356 0 +6.473742153e-001 +7.590737422e+001 +7.590737422e+001 -4.8855e+000 +2.8170e+000
359 0 +4.812074066e-001 +7.574120741e+001 +7.574120741e+001 -4.7899e+000 +2.8852e+000
371 0 +4.781410152e-001 +7.573814102e+001 +7.573814102e+001 -4.7899e+000 +2.8851e+000
385 0 +4.108230118e-001 +7.567082301e+001 +7.567082301e+001 -4.8923e+000 +2.8119e+000
386 0 +2.886275704e-001 +7.554862757e+001 +7.554862757e+001 -4.9812e+000 +2.7485e+000
389 0 +1.749286223e-001 +7.543492862e+001 +7.543492862e+001 -4.9314e+000 +2.7835e+000
419 0 +1.325975797e-001 +7.539259758e+001 +7.539259758e+001 -4.9257e+000 +2.7750e+000
428 0 +1.087262503e-001 +7.536872625e+001 +7.536872625e+001 -4.9157e+000 +2.7799e+000
439 0 +3.059407909e-002 +7.529059408e+001 +7.529059408e+001 -4.9739e+000 +2.7342e+000
458 0 +2.882765033e-002 +7.528882765e+001 +7.528882765e+001 -4.9854e+000 +2.7279e+000
467 0 +4.896949190e-003 +7.526489695e+001 +7.526489695e+001 -4.9950e+000 +2.7140e+000
481 0 +2.439213849e-003 +7.526243921e+001 +7.526243921e+001 -4.9992e+000 +2.7093e+000
485 0 +2.336693892e-003 +7.526233669e+001 +7.526233669e+001 -4.9997e+000 +2.7089e+000
524 0 +1.994117237e-003 +7.526199412e+001 +7.526199412e+001 -4.9999e+000 +2.7088e+000
542 0 +1.447710713e-003 +7.526144771e+001 +7.526144771e+001 -4.9999e+000 +2.7089e+000
545 0 +9.338870014e-004 +7.526093389e+001 +7.526093389e+001 -4.9996e+000 +2.7097e+000
552 0 +7.813725809e-004 +7.526078137e+001 +7.526078137e+001 -4.9993e+000 +2.7099e+000
604 0 +4.311999472e-004 +7.526043120e+001 +7.526043120e+001 -4.9991e+000 +2.7102e+000
614 0 +4.067349892e-004 +7.526040673e+001 +7.526040673e+001 -4.9992e+000 +2.7102e+000
694 0 +3.864798295e-004 +7.526038648e+001 +7.526038648e+001 -4.9992e+000 +2.7102e+000
755 0 +3.711013786e-004 +7.526037110e+001 +7.526037110e+001 -4.9992e+000 +2.7102e+000
784 0 +3.616728094e-004 +7.526036167e+001 +7.526036167e+001 -4.9992e+000 +2.7102e+000
12190 0 +3.251067183e-005 +7.526003251e+001 +7.526003251e+001 -1.7619e+000 +3.7426e-001
12242 0 +1.302227462e-005 +7.526001302e+001 +7.526001302e+001 -1.7622e+000 +3.7393e-001
12259 0 +7.243182566e-006 +7.526000724e+001 +7.526000724e+001 -1.7622e+000 +3.7389e-001
12266 0 +4.660419989e-006 +7.526000466e+001 +7.526000466e+001 -1.7623e+000 +3.7384e-001
12289 0 +2.952481964e-006 +7.526000295e+001 +7.526000295e+001 -1.7624e+000 +3.7379e-001
12318 0 +2.506865272e-006 +7.526000251e+001 +7.526000251e+001 -1.7625e+000 +3.7365e-001
12320 0 +3.229967689e-007 +7.526000032e+001 +7.526000032e+001 -1.7626e+000 +3.7358e-001
12327 0 +2.849521223e-007 +7.526000028e+001 +7.526000028e+001 -1.7626e+000 +3.7357e-001
12358 0 +2.645431749e-007 +7.526000026e+001 +7.526000026e+001 -1.7626e+000 +3.7357e-001
12359 0 +2.519083040e-007 +7.526000025e+001 +7.526000025e+001 -1.7626e+000 +3.7357e-001
12369 0 +2.504777399e-007 +7.526000025e+001 +7.526000025e+001 -1.7626e+000 +3.7356e-001
12382 0 +2.451774606e-007 +7.526000025e+001 +7.526000025e+001 -1.7626e+000 +3.7353e-001
12385 0 +8.787890238e-008 +7.526000009e+001 +7.526000009e+001 -1.7626e+000 +3.7353e-001
12401 0 +8.283380737e-008 +7.526000008e+001 +7.526000008e+001 -1.7626e+000 +3.7353e-001
12408 0 +5.833737760e-008 +7.526000006e+001 +7.526000006e+001 -1.7627e+000 +3.7350e-001
12410 0 +1.519295267e-008 +7.526000002e+001 +7.526000002e+001 -1.7626e+000 +3.7353e-001
12411 0 +1.093502533e-008 +7.526000001e+001 +7.526000001e+001 -1.7626e+000 +3.7353e-001
12422 0 +8.434355436e-009 +7.526000001e+001 +7.526000001e+001 -1.7626e+000 +3.7352e-001
12446 0 +0.000000000e+000 +7.526000000e+001 +7.526000000e+001 -1.7626e+000 +3.7351e-001
% f evaluations | g evaluations | best noise-free fitness - Fopt (-4.913000000000e+001) + sum g_i+ | measured fitness | best measured fitness or single-digit g-values | x1 | x2...
1 0 +2.009719458e+002 +1.518419458e+002 +1.518419458e+002 +5.0000e+000 +5.0000e+000
2 0 +9.389590154e+001 +4.476590154e+001 +4.476590154e+001 -5.0000e+000 +5.0000e+000
4 0 +4.730158723e+001 -1.828412766e+000 -1.828412766e+000 -5.0000e+000 -5.0000e+000
5 0 +4.648903031e+001 -2.640969688e+000 -2.640969688e+000 -5.0000e+000 +7.4116e-001
6 0 +4.398204415e+001 -5.147955852e+000 -5.147955852e+000 +3.2878e+000 -4.0170e+000
13 0 +1.910668772e+001 -3.002331228e+001 -3.002331228e+001 -1.1532e+000 -4.0170e+000
16 0 +1.777020216e+001 -3.135979784e+001 -3.135979784e+001 -1.1425e+000 -4.0197e+000
18 0 +6.173020647e+000 -4.295697935e+001 -4.295697935e+001 -1.5790e+000 -4.0197e+000
22 0 +4.578178389e+000 -4.455182161e+001 -4.455182161e+001 -1.5678e+000 -4.0225e+000
64 0 +2.161891774e+000 -4.696810823e+001 -4.696810823e+001 -1.7323e+000 +2.3584e+000
117 0 +1.410533744e+000 -4.771946626e+001 -4.771946626e+001 -1.8755e+000 -4.4000e+000
139 0 +1.108876616e+000 -4.802112338e+001 -4.802112338e+001 +5.0000e+000 -4.1718e+000
189 0 +9.875797358e-001 -4.814242026e+001 -4.814242026e+001 +5.0000e+000 -4.1727e+000
193 0 +6.851950372e-001 -4.844480496e+001 -4.844480496e+001 +4.9957e+000 -4.1726e+000
202 0 +6.037546046e-001 -4.852624540e+001 -4.852624540e+001 +4.9986e+000 -4.1690e+000
222 0 +5.391739990e-001 -4.859082600e+001 -4.859082600e+001 +4.9997e+000 -4.1687e+000
224 0 +5.087114814e-001 -4.862128852e+001 -4.862128852e+001 +4.9999e+000 -4.1687e+000
233 0 +4.699586909e-001 -4.866004131e+001 -4.866004131e+001 +4.9977e+000 -4.2120e+000
248 0 +7.569986031e-002 -4.905430014e+001 -4.905430014e+001 +5.0000e+000 -2.6639e+000
363 0 +7.369485384e-002 -4.905630515e+001 -4.905630515e+001 +4.9977e+000 -2.6710e+000
372 0 +6.058772725e-002 -4.906941227e+001 -4.906941227e+001 +4.9994e+000 -2.6697e+000
376 0 +5.434661030e-002 -4.907565339e+001 -4.907565339e+001 +4.9973e+000 -2.6667e+000
383 0 +2.407288782e-002 -4.910592711e+001 -4.910592711e+001 +4.9975e+000 -2.6686e+000
412 0 +2.116365984e-002 -4.910883634e+001 -4.910883634e+001 +4.9976e+000 -2.6685e+000
422 0 +2.016554635e-002 -4.910983445e+001 -4.910983445e+001 +4.9976e+000 -2.6684e+000
470 0 +1.988138970e-002 -4.911011861e+001 -4.911011861e+001 +4.9974e+000 -2.6686e+000
500 0 +1.932242988e-002 -4.911067757e+001 -4.911067757e+001 +4.9974e+000 -2.6685e+000
583 0 +1.898730231e-002 -4.911101270e+001 -4.911101270e+001 +4.9974e+000 -2.6686e+000
1274 0 +7.817294941e-003 -4.912218271e+001 -4.912218271e+001 +3.8457e+000 +4.9565e+000
1275 0 +4.302891231e-003 -4.912569711e+001 -4.912569711e+001 +3.8594e+000 +4.9667e+000
1292 0 +4.200289625e-003 -4.912579971e+001 -4.912579971e+001 +3.8595e+000 +4.9664e+000
1295 0 +1.998052329e-003 -4.912800195e+001 -4.912800195e+001 +3.8590e+000 +4.9667e+000
1330 0 +1.939676316e-003 -4.912806032e+001 -4.912806032e+001 +3.8590e+000 +4.9668e+000
1333 0 +1.514429308e-003 -4.912848557e+001 -4.912848557e+001 +3.8572e+000 +4.9648e+000
1340 0 +9.863163619e-004 -4.912901368e+001 -4.912901368e+001 +3.8570e+000 +4.9645e+000
1341 0 +1.378217972e-005 -4.912998622e+001 -4.912998622e+001 +3.8525e+000 +4.9622e+000
1348 0 +8.878660793e-006 -4.912999112e+001 -4.912999112e+001 +3.8525e+000 +4.9621e+000
1389 0 +3.287208408e-006 -4.912999671e+001 -4.912999671e+001 +3.8518e+000 +4.9617e+000
1391 0 +2.386474435e-006 -4.912999761e+001 -4.912999761e+001 +3.8520e+000 +4.9618e+000
1421 0 +2.197175085e-006 -4.912999780e+001 -4.912999780e+001 +3.8519e+000 +4.9617e+000
1451 0 +1.424940471e-006 -4.912999858e+001 -4.912999858e+001 +3.8519e+000 +4.9618e+000
1475 0 +1.408458367e-006 -4.912999859e+001 -4.912999859e+001 +3.8519e+000 +4.9618e+000
1480 0 +9.204905638e-007 -4.912999908e+001 -4.912999908e+001 +3.8519e+000 +4.9618e+000
1485 0 +8.808222418e-007 -4.912999912e+001 -4.912999912e+001 +3.8519e+000 +4.9618e+000
1486 0 +8.671397609e-007 -4.912999913e+001 -4.912999913e+001 +3.8519e+000 +4.9618e+000
1489 0 +6.544829176e-007 -4.912999935e+001 -4.912999935e+001 +3.8519e+000 +4.9618e+000
1501 0 +5.663510692e-007 -4.912999943e+001 -4.912999943e+001 +3.8519e+000 +4.9618e+000
1530 0 +4.944544898e-007 -4.912999951e+001 -4.912999951e+001 +3.8519e+000 +4.9618e+000
1536 0 +4.746935360e-007 -4.912999953e+001 -4.912999953e+001 +3.8519e+000 +4.9618e+000
3528 0 +2.583339267e-007 -4.912999974e+001 -4.912999974e+001 +3.8521e+000 +4.9619e+000
3538 0 +2.386917473e-007 -4.912999976e+001 -4.912999976e+001 +3.8521e+000 +4.9619e+000
3546 0 +2.332171505e-007 -4.912999977e+001 -4.912999977e+001 +3.8521e+000 +4.9619e+000
3550 0 +1.111637431e-007 -4.912999989e+001 -4.912999989e+001 +3.8521e+000 +4.9619e+000
3571 0 +1.061345287e-007 -4.912999989e+001 -4.912999989e+001 +3.8521e+000 +4.9619e+000
3573 0 +8.544576247e-008 -4.912999991e+001 -4.912999991e+001 +3.8521e+000 +4.9619e+000
3599 0 +8.281527641e-008 -4.912999992e+001 -4.912999992e+001 +3.8521e+000 +4.9619e+000
4413 0 +2.331307059e-008 -4.912999998e+001 -4.912999998e+001 +3.8521e+000 +4.9619e+000
4423 0 +1.554283102e-008 -4.912999998e+001 -4.912999998e+001 +3.8520e+000 +4.9619e+000
4428 0 +9.747040508e-009 -4.912999999e+001 -4.912999999e+001 +3.8520e+000 +4.9619e+000
% f evaluations | g evaluations | best noise-free fitness - Fopt (-1.418900000000e+002) + sum g_i+ | measured fitness | best measured fitness or single-digit g-values | x1 | x2...
1 0 +6.664634418e+001 -7.524365582e+001 -7.524365582e+001 +5.0000e+000 -5.0000e+000
7 0 +2.240261959e+001 -1.194873804e+002 -1.194873804e+002 +2.3135e+000 -5.0000e+000
19 0 +2.077347915e+001 -1.211165209e+002 -1.211165209e+002 +2.6058e+000 -4.7932e+000
23 0 +9.837094770e+000 -1.320529052e+002 -1.320529052e+002 +3.1732e+000 -5.0000e+000
171 0 +9.758694144e+000 -1.321313059e+002 -1.321313059e+002 +3.1724e+000 -5.0000e+000
177 0 +9.515502262e+000 -1.323744977e+002 -1.323744977e+002 +3.1726e+000 -5.0000e+000
193 0 +4.150575137e+000 -1.377394249e+002 -1.377394249e+002 -7.1476e-001 +2.0160e+000
200 0 +3.904963958e+000 -1.379850360e+002 -1.379850360e+002 -1.8223e+000 +4.0108e+000
203 0 +3.783809804e+000 -1.381061902e+002 -1.381061902e+002 -1.8212e+000 +4.0108e+000
219 0 +4.647981095e-001 -1.414252019e+002 -1.414252019e+002 -1.8838e+000 +4.1238e+000
243 0 +4.570253549e-001 -1.414329746e+002 -1.414329746e+002 -1.8839e+000 +4.1238e+000
285 0 +4.425758283e-001 -1.414474242e+002 -1.414474242e+002 -1.8842e+000 +4.1238e+000
294 0 +4.358500464e-001 -1.414541500e+002 -1.414541500e+002 -1.8845e+000 +4.1238e+000
305 0 +3.899092251e-001 -1.415000908e+002 -1.415000908e+002 -1.8887e+000 +4.1238e+000
308 0 +3.831195916e-001 -1.415068804e+002 -1.415068804e+002 -1.8889e+000 +4.1238e+000
310 0 +3.609477456e-001 -1.415290523e+002 -1.415290523e+002 -1.8896e+000 +4.1238e+000
326 0 +2.693609723e-001 -1.416206390e+002 -1.416206390e+002 -1.8917e+000 +4.1238e+000
355 0 +9.334650465e-002 -1.417966535e+002 -1.417966535e+002 +8.3156e-001 -4.3974e+000
356 0 +8.643902324e-002 -1.418035610e+002 -1.418035610e+002 +8.3019e-001 -4.3974e+000
358 0 +7.826062221e-002 -1.418117394e+002 -1.418117394e+002 +8.2948e-001 -4.3974e+000
369 0 +7.646984789e-002 -1.418135302e+002 -1.418135302e+002 +8.2859e-001 -4.3974e+000
370 0 +6.485918839e-002 -1.418251408e+002 -1.418251408e+002 +8.2800e-001 -4.3974e+000
380 0 +4.960074245e-002 -1.418403993e+002 -1.418403993e+002 +8.2604e-001 -4.3974e+000
386 0 +4.892409776e-002 -1.418410759e+002 -1.418410759e+002 +8.2748e-001 -4.3974e+000
390 0 +4.098856661e-002 -1.418490114e+002 -1.418490114e+002 +8.2467e-001 -4.3974e+000
392 0 +3.738364332e-002 -1.418526164e+002 -1.418526164e+002 +8.2515e-001 -4.3974e+000
396 0 +3.623824187e-002 -1.418537618e+002 -1.418537618e+002 +8.1752e-001 -4.3974e+000
406 0 +3.371135844e-002 -1.418562886e+002 -1.418562886e+002 +8.1148e-001 -4.3974e+000
542 0 +2.227211692e-002 -1.418677279e+002 -1.418677279e+002 +8.0626e-001 -4.3974e+000
650 0 +1.020720493e-002 -1.418797928e+002 -1.418797928e+002 +7.9723e-001 -4.3923e+000
667 0 +9.656611371e-003 -1.418803434e+002 -1.418803434e+002 +7.9526e-001 -4.3918e+000
704 0 +9.331863298e-003 -1.418806681e+002 -1.418806681e+002 +7.9537e-001 -4.3917e+000
718 0 +9.002163318e-003 -1.418809978e+002 -1.418809978e+002 +7.8947e-001 -4.3953e+000
719 0 +5.087324984e-003 -1.418849127e+002 -1.418849127e+002 +7.8839e-001 -4.3952e+000
742 0 +3.868565283e-003 -1.418861314e+002 -1.418861314e+002 +7.8596e-001 -4.3959e+000
760 0 +2.879740102e-003 -1.418871203e+002 -1.418871203e+002 +7.6205e-001 -4.4078e+000
838 0 +4.077565804e-004 -1.418895922e+002 -1.418895922e+002 +7.3522e-001 -4.4138e+000
850 0 +2.005502550e-004 -1.418897994e+002 -1.418897994e+002 +7.3262e-001 -4.4143e+000
856 0 +1.025147195e-004 -1.418898975e+002 -1.418898975e+002 +7.3992e-001 -4.4132e+000
871 0 +6.884386181e-006 -1.418899931e+002 -1.418899931e+002 +7.3465e-001 -4.4146e+000
911 0 +6.675566596e-006 -1.418899933e+002 -1.418899933e+002 +7.3474e-001 -4.4146e+000
916 0 +1.469122878e-006 -1.418899985e+002 -1.418899985e+002 +7.3524e-001 -4.4145e+000
921 0 +1.430280406e-006 -1.418899986e+002 -1.418899986e+002 +7.3530e-001 -4.4145e+000
926 0 +2.691128600e-007 -1.418899997e+002 -1.418899997e+002 +7.3583e-001 -4.4144e+000
943 0 +5.578786499e-008 -1.418899999e+002 -1.418899999e+002 +7.3576e-001 -4.4144e+000
976 0 +6.969230526e-009 -1.418900000e+002 -1.418900000e+002 +7.3571e-001 -4.4144e+000
% f evaluations | g evaluations | best noise-free fitness - Fopt (1.095700000000e+002) + sum g_i+ | measured fitness | best measured fitness or single-digit g-values | x1 | x2...
1 0 +8.448619583e+001 +1.940561958e+002 +1.940561958e+002 -5.0000e+000 -5.0000e+000
3 0 +4.000569826e+001 +1.495756983e+002 +1.495756983e+002 -5.0000e+000 +5.0000e+000
5 0 +3.506251739e+001 +1.446325174e+002 +1.446325174e+002 +4.8658e+000 +5.0000e+000
9 0 +2.839688289e+001 +1.379668829e+002 +1.379668829e+002 +4.9988e+000 +5.0000e+000
10 0 +1.789930166e+001 +1.274693017e+002 +1.274693017e+002 +4.9388e+000 +5.0000e+000
27 0 +1.646445295e+001 +1.260344529e+002 +1.260344529e+002 +1.6272e+000 +5.0000e+000
28 0 +1.230116013e+001 +1.218711601e+002 +1.218711601e+002 +4.5706e-001 +3.8554e+000
29 0 +3.623963870e+000 +1.131939639e+002 +1.131939639e+002 -3.8871e+000 +2.6656e+000
63 0 +2.054254321e+000 +1.116242543e+002 +1.116242543e+002 -3.9349e+000 +2.6912e+000
152 0 +5.692805512e-001 +1.101392806e+002 +1.101392806e+002 -3.9755e+000 +2.7513e+000
161 0 +5.362630571e-001 +1.101062631e+002 +1.101062631e+002 -3.9847e+000 +2.8674e+000
266 0 +5.017933379e-001 +1.100717933e+002 +1.100717933e+002 -3.9927e+000 +2.7797e+000
267 0 +4.351666220e-001 +1.100051666e+002 +1.100051666e+002 -4.0016e+000 +2.8015e+000
268 0 +1.330169476e-001 +1.097030169e+002 +1.097030169e+002 -4.0878e+000 +3.0731e+000
270 0 +2.287750650e-002 +1.095928775e+002 +1.095928775e+002 -4.0795e+000 +3.0424e+000
290 0 +1.354870580e-002 +1.095835487e+002 +1.095835487e+002 -4.0871e+000 +3.0537e+000
298 0 +4.085254585e-003 +1.095740853e+002 +1.095740853e+002 -4.0845e+000 +3.0414e+000
303 0 +5.455356199e-004 +1.095705455e+002 +1.095705455e+002 -4.0773e+000 +3.0288e+000
349 0 +5.050216195e-004 +1.095705050e+002 +1.095705050e+002 -4.0773e+000 +3.0292e+000
364 0 +4.291800699e-004 +1.095704292e+002 +1.095704292e+002 -4.0781e+000 +3.0311e+000
369 0 +1.753281987e-004 +1.095701753e+002 +1.095701753e+002 -4.0790e+000 +3.0352e+000
388 0 +1.072337204e-004 +1.095701072e+002 +1.095701072e+002 -4.0764e+000 +3.0291e+000
435 0 +7.837542421e-005 +1.095700784e+002 +1.095700784e+002 -4.0767e+000 +3.0295e+000
442 0 +7.352270767e-005 +1.095700735e+002 +1.095700735e+002 -4.0766e+000 +3.0295e+000
453 0 +1.688493336e-005 +1.095700169e+002 +1.095700169e+002 -4.0772e+000 +3.0304e+000
457 0 +4.405629980e-006 +1.095700044e+002 +1.095700044e+002 -4.0774e+000 +3.0308e+000
482 0 +2.148311140e-006 +1.095700021e+002 +1.095700021e+002 -4.0775e+000 +3.0310e+000
485 0 +1.798152354e-006 +1.095700018e+002 +1.095700018e+002 -4.0775e+000 +3.0309e+000
508 0 +1.272907895e-006 +1.095700013e+002 +1.095700013e+002 -4.0775e+000 +3.0309e+000
514 0 +9.893303599e-007 +1.095700010e+002 +1.095700010e+002 -4.0775e+000 +3.0309e+000
528 0 +9.111313091e-007 +1.095700009e+002 +1.095700009e+002 -4.0774e+000 +3.0309e+000
562 0 +8.460466461e-007 +1.095700008e+002 +1.095700008e+002 -4.0774e+000 +3.0309e+000
566 0 +7.026783067e-007 +1.095700007e+002 +1.095700007e+002 -4.0774e+000 +3.0309e+000
617 0 +6.896150495e-007 +1.095700007e+002 +1.095700007e+002 -4.0774e+000 +3.0309e+000
1409 0 +4.822867510e-007 +1.095700005e+002 +1.095700005e+002 -4.0776e+000 +3.0312e+000
1505 0 +2.277074316e-007 +1.095700002e+002 +1.095700002e+002 -4.0776e+000 +3.0312e+000
1522 0 +6.475467274e-008 +1.095700001e+002 +1.095700001e+002 -4.0776e+000 +3.0312e+000
1525 0 +2.430245161e-008 +1.095700000e+002 +1.095700000e+002 -4.0776e+000 +3.0311e+000
1526 0 +2.066528282e-008 +1.095700000e+002 +1.095700000e+002 -4.0776e+000 +3.0311e+000
1528 0 +2.415546874e-009 +1.095700000e+002 +1.095700000e+002 -4.0776e+000 +3.0311e+000
% f evaluations | g evaluations | best noise-free fitness - Fopt (7.836000000000e+001) + sum g_i+ | measured fitness | best measured fitness or single-digit g-values | x1 | x2...
1 0 +4.712960201e+001 +1.254896020e+002 +1.254896020e+002 +5.0000e+000 -5.0000e+000
2 0 +1.965307035e+001 +9.801307035e+001 +9.801307035e+001 -5.0000e+000 -5.0000e+000
4 0 +3.312439593e+000 +8.167243959e+001 +8.167243959e+001 +4.5880e+000 -2.9675e+000
10 0 +2.152782534e+000 +8.051278253e+001 +8.051278253e+001 +4.5880e+000 -2.9766e+000
29 0 +1.762869267e+000 +8.012286927e+001 +8.012286927e+001 +4.5880e+000 -2.9737e+000
47 0 +1.265293076e+000 +7.962529308e+001 +7.962529308e+001 +4.8344e+000 -2.9475e+000
99 0 +7.202618984e-001 +7.908026190e+001 +7.908026190e+001 +4.8345e+000 -2.9876e+000
105 0 +3.416726424e-002 +7.839416726e+001 +7.839416726e+001 +4.7911e+000 -2.9767e+000
187 0 +2.330312444e-002 +7.838330312e+001 +7.838330312e+001 +4.7865e+000 -2.9758e+000
217 0 +1.573154913e-002 +7.837573155e+001 +7.837573155e+001 +4.7830e+000 -2.9784e+000
228 0 +1.357487552e-002 +7.837357488e+001 +7.837357488e+001 +4.7498e+000 -2.9791e+000
236 0 +1.195893732e-002 +7.837195894e+001 +7.837195894e+001 +4.7616e+000 -2.9784e+000
262 0 +7.870924573e-004 +7.836078709e+001 +7.836078709e+001 +4.7525e+000 -2.9811e+000
294 0 +3.001505649e-004 +7.836030015e+001 +7.836030015e+001 +4.7524e+000 -2.9808e+000
353 0 +1.762850328e-004 +7.836017629e+001 +7.836017629e+001 +4.7521e+000 -2.9808e+000
359 0 +7.259406691e-005 +7.836007259e+001 +7.836007259e+001 +4.7553e+000 -2.9805e+000
370 0 +3.026028232e-005 +7.836003026e+001 +7.836003026e+001 +4.7552e+000 -2.9805e+000
407 0 +2.277120284e-005 +7.836002277e+001 +7.836002277e+001 +4.7553e+000 -2.9805e+000
426 0 +2.838534101e-006 +7.836000284e+001 +7.836000284e+001 +4.7543e+000 -2.9806e+000
463 0 +1.013497723e-006 +7.836000101e+001 +7.836000101e+001 +4.7542e+000 -2.9806e+000
485 0 +7.990962558e-007 +7.836000080e+001 +7.836000080e+001 +4.7542e+000 -2.9806e+000
511 0 +6.028330688e-007 +7.836000060e+001 +7.836000060e+001 +4.7543e+000 -2.9806e+000
528 0 +2.032037258e-007 +7.836000020e+001 +7.836000020e+001 +4.7542e+000 -2.9806e+000
544 0 +1.647971288e-007 +7.836000016e+001 +7.836000016e+001 +4.7541e+000 -2.9806e+000
567 0 +3.376855773e-008 +7.836000003e+001 +7.836000003e+001 +4.7542e+000 -2.9806e+000
570 0 +2.900489449e-008 +7.836000003e+001 +7.836000003e+001 +4.7542e+000 -2.9806e+000
581 0 +2.286012091e-008 +7.836000002e+001 +7.836000002e+001 +4.7542e+000 -2.9806e+000
594 0 +1.544819384e-008 +7.836000002e+001 +7.836000002e+001 +4.7542e+000 -2.9806e+000
601 0 +1.317290810e-008 +7.836000001e+001 +7.836000001e+001 +4.7542e+000 -2.9806e+000
610 0 +1.212265488e-008 +7.836000001e+001 +7.836000001e+001 +4.7542e+000 -2.9806e+000
612 0 +8.835854715e-009 +7.836000001e+001 +7.836000001e+001 +4.7542e+000 -2.9806e+000
685 0 +0.000000000e+000 +7.836000000e+001 +7.836000000e+001 +4.7542e+000 -2.9806e+000
% f evaluations | g evaluations | best noise-free fitness - Fopt (1.140900000000e+002) + sum g_i+ | measured fitness | best measured fitness or single-digit g-values | x1 | x2...
1 0 +9.142401243e+001 +2.055140124e+002 +2.055140124e+002 -5.0000e+000 -5.0000e+000
3 0 +1.716780051e+001 +1.312578005e+002 +1.312578005e+002 -5.0000e+000 +5.0000e+000
21 0 +1.480951268e+001 +1.288995127e+002 +1.288995127e+002 -3.6004e+000 +4.9642e+000
29 0 +1.298023811e+001 +1.270702381e+002 +1.270702381e+002 -3.5866e+000 +4.9642e+000
31 0 +1.721475854e+000 +1.158114759e+002 +1.158114759e+002 -3.5518e+000 +4.7995e+000
80 0 +1.086052770e+000 +1.151760528e+002 +1.151760528e+002 -3.4742e+000 +4.9355e+000
118 0 +4.977087918e-001 +1.145877088e+002 +1.145877088e+002 -3.4631e+000 +4.9957e+000
126 0 +4.636572237e-001 +1.145536572e+002 +1.145536572e+002 -3.5084e+000 +4.9608e+000
138 0 +4.142104189e-001 +1.145042104e+002 +1.145042104e+002 -3.4631e+000 +4.9980e+000
150 0 +3.586100227e-001 +1.144486100e+002 +1.144486100e+002 -3.5077e+000 +4.9523e+000
158 0 +3.176325572e-001 +1.144076326e+002 +1.144076326e+002 -3.4597e+000 +4.9980e+000
159 0 +2.708264206e-001 +1.143608264e+002 +1.143608264e+002 -3.4594e+000 +4.9995e+000
179 0 +2.525767972e-001 +1.143425768e+002 +1.143425768e+002 -3.4594e+000 +4.9998e+000
265 0 +2.487293210e-001 +1.143387293e+002 +1.143387293e+002 -3.4594e+000 +4.9999e+000
317 0 +2.447046935e-001 +1.143347047e+002 +1.143347047e+002 -3.4594e+000 +5.0000e+000
1959 0 +1.043854909e-001 +1.141943855e+002 +1.141943855e+002 -4.6872e-001 -2.7486e+000
1991 0 +6.421777416e-002 +1.141542178e+002 +1.141542178e+002 -4.6872e-001 -2.7389e+000
2025 0 +4.397811378e-002 +1.141339781e+002 +1.141339781e+002 -4.6872e-001 -2.7328e+000
2044 0 +3.763909529e-002 +1.141276391e+002 +1.141276391e+002 -4.6872e-001 -2.7358e+000
2083 0 +3.234171660e-002 +1.141223417e+002 +1.141223417e+002 -4.6872e-001 -2.7347e+000
2187 0 +3.145404220e-002 +1.141214540e+002 +1.141214540e+002 -4.6872e-001 -2.7344e+000
2217 0 +3.078364009e-002 +1.141207836e+002 +1.141207836e+002 -4.6872e-001 -2.7343e+000
3186 0 +5.024143923e-004 +1.140905024e+002 +1.140905024e+002 +4.5666e+000 -2.8178e+000
3274 0 +2.201367031e-004 +1.140902201e+002 +1.140902201e+002 +4.5639e+000 -2.8297e+000
3305 0 +8.528472556e-005 +1.140900853e+002 +1.140900853e+002 +4.5656e+000 -2.8222e+000
3385 0 +3.258906986e-005 +1.140900326e+002 +1.140900326e+002 +4.5658e+000 -2.8226e+000
3441 0 +1.682943966e-005 +1.140900168e+002 +1.140900168e+002 +4.5652e+000 -2.8246e+000
3482 0 +1.173094304e-006 +1.140900012e+002 +1.140900012e+002 +4.5651e+000 -2.8245e+000
3524 0 +9.069817821e-007 +1.140900009e+002 +1.140900009e+002 +4.5651e+000 -2.8246e+000
3621 0 +7.373269995e-007 +1.140900007e+002 +1.140900007e+002 +4.5651e+000 -2.8245e+000
3665 0 +7.004656055e-007 +1.140900007e+002 +1.140900007e+002 +4.5651e+000 -2.8245e+000
3716 0 +6.900211247e-007 +1.140900007e+002 +1.140900007e+002 +4.5651e+000 -2.8245e+000
4542 0 +5.749158589e-007 +1.140900006e+002 +1.140900006e+002 +4.5648e+000 -2.8254e+000
4547 0 +4.934202877e-007 +1.140900005e+002 +1.140900005e+002 +4.5650e+000 -2.8249e+000
4554 0 +5.473705755e-008 +1.140900001e+002 +1.140900001e+002 +4.5650e+000 -2.8250e+000
4558 0 +2.350859063e-008 +1.140900000e+002 +1.140900000e+002 +4.5650e+000 -2.8250e+000
4616 0 +8.229235959e-009 +1.140900000e+002 +1.140900000e+002 +4.5650e+000 -2.8250e+000
4677 0 +0.000000000e+000 +1.140900000e+002 +1.140900000e+002 +4.5650e+000 -2.8250e+000
% f evaluations | g evaluations | best noise-free fitness - Fopt (-5.445900000000e+002) + sum g_i+ | measured fitness | best measured fitness or single-digit g-values | x1 | x2...
1 0 +2.141663311e+001 -5.231733669e+002 -5.231733669e+002 +5.0000e+000 -5.0000e+000
11 0 +2.141327688e+001 -5.231767231e+002 -5.231767231e+002 +5.0000e+000 -5.0000e+000
20 0 +1.008253722e+001 -5.345074628e+002 -5.345074628e+002 -1.1799e+000 -1.5492e+000
74 0 +9.262605317e+000 -5.353273947e+002 -5.353273947e+002 -5.9894e-001 +3.1461e+000
77 0 +3.536227937e+000 -5.410537721e+002 -5.410537721e+002 -2.5932e-001 -2.6212e+000
185 0 +2.847684212e+000 -5.417423158e+002 -5.417423158e+002 -2.7454e+000 -1.7429e+000
196 0 +2.654163064e+000 -5.419358369e+002 -5.419358369e+002 -2.8579e+000 -1.6899e+000
220 0 +4.236218464e-001 -5.441663782e+002 -5.441663782e+002 -2.5302e+000 -1.8595e+000
233 0 +4.086565440e-002 -5.445491343e+002 -5.445491343e+002 -7.1352e-001 -2.0376e+000
382 0 +3.867500531e-002 -5.445513250e+002 -5.445513250e+002 -2.7233e+000 -1.6977e+000
481 0 +1.758585088e-002 -5.445724141e+002 -5.445724141e+002 -2.7210e+000 -1.6975e+000
487 0 +1.080928323e-002 -5.445791907e+002 -5.445791907e+002 -2.7238e+000 -1.6934e+000
496 0 +6.495809192e-003 -5.445835042e+002 -5.445835042e+002 -2.7235e+000 -1.6938e+000
527 0 +5.393999413e-003 -5.445846060e+002 -5.445846060e+002 -2.7237e+000 -1.6937e+000
578 0 +5.032650853e-003 -5.445849673e+002 -5.445849673e+002 -2.7237e+000 -1.6937e+000
626 0 +4.570222620e-003 -5.445854298e+002 -5.445854298e+002 -2.7229e+000 -1.6945e+000
641 0 +3.175617456e-003 -5.445868244e+002 -5.445868244e+002 -2.7228e+000 -1.6944e+000
677 0 +3.156211689e-003 -5.445868438e+002 -5.445868438e+002 -2.7228e+000 -1.6944e+000
739 0 +2.993659469e-003 -5.445870063e+002 -5.445870063e+002 -2.7228e+000 -1.6945e+000
790 0 +2.861155447e-003 -5.445871388e+002 -5.445871388e+002 -2.7227e+000 -1.6945e+000
2775 0 +5.773079909e-004 -5.445894227e+002 -5.445894227e+002 -4.4297e+000 -1.3448e+000
2791 0 +2.163525577e-004 -5.445897836e+002 -5.445897836e+002 -4.4333e+000 -1.3414e+000
2807 0 +2.003846993e-004 -5.445897996e+002 -5.445897996e+002 -4.4338e+000 -1.3412e+000
2810 0 +7.776824873e-005 -5.445899222e+002 -5.445899222e+002 -4.4368e+000 -1.3390e+000
2843 0 +6.086823089e-005 -5.445899391e+002 -5.445899391e+002 -4.4347e+000 -1.3417e+000
2851 0 +5.948375542e-005 -5.445899405e+002 -5.445899405e+002 -4.4344e+000 -1.3411e+000
2854 0 +5.224140955e-005 -5.445899478e+002 -5.445899478e+002 -4.4345e+000 -1.3410e+000
2861 0 +8.001844435e-006 -5.445899920e+002 -5.445899920e+002 -4.4333e+000 -1.3422e+000
2873 0 +3.918779612e-006 -5.445899961e+002 -5.445899961e+002 -4.4332e+000 -1.3424e+000
2899 0 +3.014985737e-006 -5.445899970e+002 -5.445899970e+002 -4.4335e+000 -1.3420e+000
2900 0 +2.872983828e-006 -5.445899971e+002 -5.445899971e+002 -4.4335e+000 -1.3420e+000
2904 0 +2.813744118e-006 -5.445899972e+002 -5.445899972e+002 -4.4338e+000 -1.3418e+000
2920 0 +6.440700417e-009 -5.445900000e+002 -5.445900000e+002 -4.4337e+000 -1.3418e+000
