% f evaluations | g evaluations | best noise-free fitness - Fopt (-2.098800000000e+002) + sum g_i+ | measured fitness | best measured fitness or single-digit g-values | x1 | x2...
1 0 +3.789433002e+006 +3.789223122e+006 +3.789223122e+006 +2.9661e+000 -4.7099e+000 +1.6689e+000
5 0 +2.052079693e+006 +2.051869813e+006 +2.051869813e+006 -5.0000e+000 +5.0000e+000 +5.0000e+000
7 0 +1.333471321e+005 +1.331372521e+005 +1.331372521e+005 +4.4415e+000 -1.3836e+000 +3.2046e+000
10 0 +1.622393851e+004 +1.601405851e+004 +1.601405851e+004 +2.0004e-003 +1.2073e+000 +3.6830e+000
14 0 +1.217996875e+004 +1.197008875e+004 +1.197008875e+004 -4.3874e-001 +3.5249e+000 +3.4971e+000
16 0 +9.076936943e+003 +8.867056943e+003 +8.867056943e+003 -2.7303e-001 +2.8294e+000 +3.5038e+000
18 0 +7.556951890e+003 +7.347071890e+003 +7.347071890e+003 -4.1096e-001 +2.5717e+000 +3.5026e+000
20 0 +1.235859634e+003 +1.025979634e+003 +1.025979634e+003 -1.4604e+000 +1.3179e+000 +3.5298e+000
97 0 +5.191773303e+002 +3.092973303e+002 +3.092973303e+002 +1.1036e+000 -8.2264e-002 +3.5708e+000
208 0 +4.221755734e+002 +2.122955734e+002 +2.122955734e+002 +1.4824e+000 -3.0989e-002 +3.5681e+000
209 0 +3.032606817e+002 +9.338068170e+001 +9.338068170e+001 +4.0302e+000 +2.0044e-001 +3.5699e+000
236 0 +2.826627689e+002 +7.278276890e+001 +7.278276890e+001 +3.8044e+000 +2.8594e-001 +3.5705e+000
238 0 +1.271288812e+002 -8.275111884e+001 -8.275111884e+001 +3.4342e+000 +7.8441e-001 +3.5565e+000
242 0 +4.942447145e+001 -1.604555285e+002 -1.604555285e+002 +4.9879e+000 +6.3376e-001 +3.5541e+000
254 0 +4.319296579e+001 -1.666870342e+002 -1.666870342e+002 +4.9988e+000 +6.1903e-001 +3.5545e+000
273 0 +2.876902071e+001 -1.811109793e+002 -1.811109793e+002 +1.5528e+000 +6.1797e-001 +3.5545e+000
297 0 +1.917382745e+001 -1.907061726e+002 -1.907061726e+002 +2.3292e+000 +5.1516e-001 +3.5509e+000
331 0 +6.223160873e+000 -2.036568391e+002 -2.036568391e+002 +2.3367e+000 +5.2191e-001 +3.5541e+000
389 0 +4.012488650e+000 -2.058675114e+002 -2.058675114e+002 +7.7515e-001 +3.9085e-001 +3.5535e+000
398 0 +1.211965481e+000 -2.086680345e+002 -2.086680345e+002 +2.1403e+000 +4.3279e-001 +3.5540e+000
426 0 +1.042967723e+000 -2.088370323e+002 -2.088370323e+002 +1.3990e+000 +4.1749e-001 +3.5545e+000
433 0 +8.420636401e-001 -2.090379364e+002 -2.090379364e+002 +1.5434e+000 +4.2365e-001 +3.5548e+000
453 0 +7.995757975e-001 -2.090804242e+002 -2.090804242e+002 +1.5960e+000 +4.2611e-001 +3.5548e+000
471 0 +5.339662307e-001 -2.093460338e+002 -2.093460338e+002 +1.6246e+000 +4.3531e-001 +3.5549e+000
492 0 +4.907576605e-001 -2.093892423e+002 -2.093892423e+002 +1.6278e+000 +4.3614e-001 +3.5548e+000
499 0 +4.891127049e-001 -2.093908873e+002 -2.093908873e+002 +1.0723e+000 +4.5425e-001 +3.5551e+000
501 0 +4.019346588e-001 -2.094780653e+002 -2.094780653e+002 +1.3477e+000 +4.3516e-001 +3.5549e+000
546 0 +3.878955510e-002 -2.098412104e+002 -2.098412104e+002 +1.3765e+000 +4.5100e-001 +3.5545e+000
562 0 +1.487382334e-002 -2.098651262e+002 -2.098651262e+002 +1.3202e+000 +4.4897e-001 +3.5544e+000
576 0 +1.362040684e-002 -2.098663796e+002 -2.098663796e+002 +1.3182e+000 +4.4815e-001 +3.5544e+000
608 0 +5.158091625e-003 -2.098748419e+002 -2.098748419e+002 +1.1524e+000 +4.4658e-001 +3.5544e+000
643 0 +2.416178789e-003 -2.098775838e+002 -2.098775838e+002 +1.2479e+000 +4.4858e-001 +3.5544e+000
654 0 +1.317380536e-003 -2.098786826e+002 -2.098786826e+002 +1.2408e+000 +4.4784e-001 +3.5544e+000
668 0 +1.063704336e-003 -2.098789363e+002 -2.098789363e+002 +1.2355e+000 +4.4810e-001 +3.5544e+000
698 0 +6.765016544e-004 -2.098793235e+002 -2.098793235e+002 +1.1813e+000 +4.4808e-001 +3.5544e+000
730 0 +5.652074128e-004 -2.098794348e+002 -2.098794348e+002 +1.2289e+000 +4.4814e-001 +3.5544e+000
744 0 +1.416546041e-004 -2.098798583e+002 -2.098798583e+002 +1.2163e+000 +4.4794e-001 +3.5544e+000
803 0 +7.784575894e-005 -2.098799222e+002 -2.098799222e+002 +1.2103e+000 +4.4782e-001 +3.5544e+000
820 0 +4.979230664e-005 -2.098799502e+002 -2.098799502e+002 +1.2080e+000 +4.4786e-001 +3.5544e+000
848 0 +1.135051278e-005 -2.098799886e+002 -2.098799886e+002 +1.2100e+000 +4.4800e-001 +3.5544e+000
875 0 +1.973772498e-006 -2.098799980e+002 -2.098799980e+002 +1.2087e+000 +4.4799e-001 +3.5544e+000
878 0 +1.797353661e-006 -2.098799982e+002 -2.098799982e+002 +1.2086e+000 +4.4799e-001 +3.5544e+000
881 0 +1.693595152e-006 -2.098799983e+002 -2.098799983e+002 +1.2085e+000 +4.4800e-001 +3.5544e+000
883 0 +1.645343389e-006 -2.098799984e+002 -2.098799984e+002 +1.2085e+000 +4.4800e-001 +3.5544e+000
889 0 +6.692363854e-007 -2.098799993e+002 -2.098799993e+002 +1.2080e+000 +4.4800e-001 +3.5544e+000
901 0 +2.433420150e-007 -2.098799998e+002 -2.098799998e+002 +1.2075e+000 +4.4801e-001 +3.5544e+000
902 0 +1.251536901e-007 -2.098799999e+002 -2.098799999e+002 +1.2075e+000 +4.4800e-001 +3.5544e+000
905 0 +1.158326768e-007 -2.098799999e+002 -2.098799999e+002 +1.2075e+000 +4.4801e-001 +3.5544e+000
922 0 +3.611509669e-008 -2.098800000e+002 -2.098800000e+002 +1.2071e+000 +4.4800e-001 +3.5544e+000
961 0 +7.265583690e-009 -2.098800000e+002 -2.098800000e+002 +1.2072e+000 +4.4800e-001 +3.5544e+000
% f evaluations | g evaluations | best noise-free fitness - Fopt (-9.209000000000e+001) + sum g_i+ | measured fitness | best measured fitness or single-digit g-values | x1 | x2...
1 0 +3.109871224e+005 +3.108950324e+005 +3.108950324e+005 -3.3976e+000 -2.6685e+000 +6.0854e-001
3 0 +9.879578678e+004 +9.870369678e+004 +9.870369678e+004 +3.1825e+000 +1.6211e+000 -2.1780e-001
7 0 +7.247312052e+004 +7.238103052e+004 +7.238103052e+004 -2.8280e+000 -1.8776e+000 -1.3820e-001
8 0 +5.448785623e+004 +5.439576623e+004 +5.439576623e+004 +5.0000e+000 -5.0000e+000 +5.2406e-002
12 0 +2.005538824e+004 +1.996329824e+004 +1.996329824e+004 +3.1722e-001 -1.5511e+000 +4.1328e-002
16 0 +1.487280815e+004 +1.478071815e+004 +1.478071815e+004 +5.0000e+000 -1.0861e+000 +5.8523e-002
20 0 +8.404586683e+003 +8.312496683e+003 +8.312496683e+003 +5.0000e+000 -2.7428e-001 +6.8787e-002
24 0 +6.809291890e+003 +6.717201890e+003 +6.717201890e+003 +5.0000e+000 +5.0000e+000 +6.9963e-002
26 0 +4.111528115e+003 +4.019438115e+003 +4.019438115e+003 +5.0000e+000 +7.7478e-001 +6.9428e-002
31 0 +3.597360639e+003 +3.505270639e+003 +3.505270639e+003 -3.3976e+000 +8.1472e-001 +9.6249e-002
75 0 +2.918343999e+003 +2.826253999e+003 +2.826253999e+003 -4.2382e+000 +1.1509e+000 +1.0905e-001
81 0 +2.286044715e+003 +2.193954715e+003 +2.193954715e+003 +3.3050e+000 +2.2225e+000 +1.3470e-001
123 0 +1.676848925e+003 +1.584758925e+003 +1.584758925e+003 +4.1842e+000 +1.4462e+000 +1.0051e-001
141 0 +1.060655233e+003 +9.685652327e+002 +9.685652327e+002 +2.7121e+000 +3.1879e+000 +6.4277e-002
151 0 +5.379582238e+002 +4.458682238e+002 +4.458682238e+002 -3.4116e+000 +1.8567e+000 +9.5672e-002
225 0 +3.989794025e+002 +3.068894025e+002 +3.068894025e+002 -3.7926e+000 +2.0291e+000 +9.8469e-002
230 0 +3.570379098e+002 +2.649479098e+002 +2.649479098e+002 -2.8337e+000 +2.0635e+000 +9.8016e-002
244 0 +3.475847719e+002 +2.554947719e+002 +2.554947719e+002 +4.9024e+000 +2.2791e+000 +1.0464e-001
257 0 +2.630638135e+002 +1.709738135e+002 +1.709738135e+002 +3.5185e+000 +2.3539e+000 +1.0376e-001
279 0 +1.778216084e+002 +8.573160844e+001 +8.573160844e+001 +3.5427e+000 +2.4258e+000 +1.0177e-001
309 0 +5.574090922e+001 -3.634909078e+001 -3.634909078e+001 +2.6273e+000 +2.6505e+000 +9.7623e-002
323 0 +4.471636676e+001 -4.737363324e+001 -4.737363324e+001 +2.5617e+000 +2.7281e+000 +9.6009e-002
354 0 +1.290342580e+001 -7.918657420e+001 -7.918657420e+001 +2.6065e+000 +2.5393e+000 +9.2318e-002
365 0 +1.140447246e+001 -8.068552754e+001 -8.068552754e+001 +2.6896e+000 +2.5659e+000 +9.2401e-002
418 0 +1.071236677e+001 -8.137763323e+001 -8.137763323e+001 +3.6992e+000 +2.6215e+000 +9.1971e-002
447 0 +2.804319561e+000 -8.928568044e+001 -8.928568044e+001 +2.3028e+000 +2.6243e+000 +9.1218e-002
449 0 +1.955126922e+000 -9.013487308e+001 -9.013487308e+001 -5.5888e-001 +2.6225e+000 +9.0305e-002
492 0 +1.634857369e+000 -9.045514263e+001 -9.045514263e+001 -4.4238e-001 +2.6112e+000 +9.0425e-002
505 0 +8.773428043e-001 -9.121265720e+001 -9.121265720e+001 +1.4835e+000 +2.6351e+000 +9.0813e-002
532 0 +5.025301741e-001 -9.158746983e+001 -9.158746983e+001 +1.4492e+000 +2.6207e+000 +9.0435e-002
593 0 +4.784537600e-001 -9.161154624e+001 -9.161154624e+001 +1.3758e+000 +2.6205e+000 +9.0458e-002
606 0 +2.866157882e-001 -9.180338421e+001 -9.180338421e+001 +5.7268e-001 +2.6361e+000 +9.0622e-002
613 0 +2.523073457e-001 -9.183769265e+001 -9.183769265e+001 +4.7965e-001 +2.6267e+000 +9.0795e-002
621 0 +2.477500181e-001 -9.184224998e+001 -9.184224998e+001 +5.2553e-001 +2.6261e+000 +9.0823e-002
622 0 +1.052659000e-001 -9.198473410e+001 -9.198473410e+001 +4.9853e-001 +2.6207e+000 +9.0644e-002
625 0 +6.690581701e-002 -9.202309418e+001 -9.202309418e+001 +7.2778e-001 +2.6290e+000 +9.0518e-002
629 0 +3.852424828e-003 -9.208614758e+001 -9.208614758e+001 +6.8901e-001 +2.6203e+000 +9.0423e-002
641 0 +2.060428598e-003 -9.208793957e+001 -9.208793957e+001 +7.0833e-001 +2.6230e+000 +9.0404e-002
675 0 +1.669603236e-003 -9.208833040e+001 -9.208833040e+001 +7.3046e-001 +2.6229e+000 +9.0404e-002
711 0 +4.652712468e-004 -9.208953473e+001 -9.208953473e+001 +7.4217e-001 +2.6217e+000 +9.0387e-002
712 0 +4.476110600e-004 -9.208955239e+001 -9.208955239e+001 +7.4285e-001 +2.6218e+000 +9.0388e-002
734 0 +3.676630841e-005 -9.208996323e+001 -9.208996323e+001 +7.2657e-001 +2.6217e+000 +9.0406e-002
784 0 +3.616620546e-005 -9.208996383e+001 -9.208996383e+001 +7.2647e-001 +2.6217e+000 +9.0406e-002
788 0 +4.024274844e-006 -9.208999598e+001 -9.208999598e+001 +7.2591e-001 +2.6216e+000 +9.0398e-002
789 0 +3.313120459e-006 -9.208999669e+001 -9.208999669e+001 +7.2620e-001 +2.6216e+000 +9.0399e-002
792 0 +1.739965469e-006 -9.208999826e+001 -9.208999826e+001 +7.2559e-001 +2.6216e+000 +9.0399e-002
812 0 +1.369097546e-006 -9.208999863e+001 -9.208999863e+001 +7.2485e-001 +2.6216e+000 +9.0401e-002
837 0 +6.844338429e-007 -9.208999932e+001 -9.208999932e+001 +7.2635e-001 +2.6216e+000 +9.0400e-002
848 0 +5.512648045e-007 -9.208999945e+001 -9.208999945e+001 +7.2589e-001 +2.6216e+000 +9.0400e-002
849 0 +3.716736643e-007 -9.208999963e+001 -9.208999963e+001 +7.2612e-001 +2.6216e+000 +9.0400e-002
857 0 +1.740120297e-007 -9.208999983e+001 -9.208999983e+001 +7.2598e-001 +2.6216e+000 +9.0400e-002
872 0 +1.079968115e-008 -9.208999999e+001 -9.208999999e+001 +7.2552e-001 +2.6216e+000 +9.0400e-002
906 0 +3.560003847e-009 -9.209000000e+001 -9.209000000e+001 +7.2557e-001 +2.6216e+000 +9.0400e-002
% f evaluations | g evaluations | best noise-free fitness - Fopt (-8.789000000000e+001) + sum g_i+ | measured fitness | best measured fitness or single-digit g-values | x1 | x2...
1 0 +1.974520638e+005 +1.973641738e+005 +1.973641738e+005 -1.9041e+000 +4.4018e+000 +8.1590e-001
4 0 +3.005736769e+004 +2.996947769e+004 +2.996947769e+004 -3.8514e+000 +1.4003e+000 +1.4113e+000
13 0 +7.441302488e+003 +7.353412488e+003 +7.353412488e+003 +3.8554e+000 +3.6040e+000 +1.1573e+000
20 0 +2.929419670e+003 +2.841529670e+003 +2.841529670e+003 -2.6520e+000 +5.0000e+000 +1.2197e+000
28 0 +2.798954724e+003 +2.711064724e+003 +2.711064724e+003 -3.3472e+000 +5.0000e+000 +1.2216e+000
38 0 +5.547305990e+002 +4.668405990e+002 +4.668405990e+002 +3.0341e-001 +4.1869e+000 +1.2648e+000
132 0 +3.112834639e+002 +2.233934639e+002 +2.233934639e+002 +2.5162e-001 +4.1217e+000 +1.2593e+000
159 0 +6.580492277e+001 -2.208507723e+001 -2.208507723e+001 +1.0111e-001 +3.9002e+000 +1.2490e+000
203 0 +5.138811163e+001 -3.650188837e+001 -3.650188837e+001 +2.1555e-001 +3.8725e+000 +1.2495e+000
221 0 +8.236308609e+000 -7.965369139e+001 -7.965369139e+001 +3.7384e-001 +3.6054e+000 +1.2470e+000
396 0 +6.749813489e+000 -8.114018651e+001 -8.114018651e+001 -2.0306e-002 +3.5971e+000 +1.2475e+000
408 0 +5.574163698e+000 -8.231583630e+001 -8.231583630e+001 -2.0943e-001 +3.6120e+000 +1.2475e+000
420 0 +4.075489966e+000 -8.381451003e+001 -8.381451003e+001 -2.8365e-001 +3.6414e+000 +1.2476e+000
427 0 +1.904200162e+000 -8.598579984e+001 -8.598579984e+001 -5.7581e-001 +3.6348e+000 +1.2485e+000
464 0 +9.104817851e-001 -8.697951821e+001 -8.697951821e+001 +1.2044e+000 +3.6448e+000 +1.2498e+000
472 0 +7.591348850e-001 -8.713086511e+001 -8.713086511e+001 +9.9446e-001 +3.6563e+000 +1.2500e+000
477 0 +6.752229313e-001 -8.721477707e+001 -8.721477707e+001 +1.0024e+000 +3.6556e+000 +1.2499e+000
494 0 +1.647188940e-001 -8.772528111e+001 -8.772528111e+001 +5.0912e-001 +3.6374e+000 +1.2498e+000
550 0 +8.282132968e-002 -8.780717867e+001 -8.780717867e+001 +3.5395e-001 +3.6372e+000 +1.2497e+000
572 0 +6.409518328e-002 -8.782590482e+001 -8.782590482e+001 +3.4715e-001 +3.6396e+000 +1.2497e+000
573 0 +5.632696763e-002 -8.783367303e+001 -8.783367303e+001 +2.9675e-001 +3.6390e+000 +1.2497e+000
585 0 +5.402106820e-002 -8.783597893e+001 -8.783597893e+001 +2.9720e-001 +3.6390e+000 +1.2497e+000
590 0 +2.097850087e-002 -8.786902150e+001 -8.786902150e+001 +1.7428e-001 +3.6418e+000 +1.2496e+000
599 0 +1.537637740e-002 -8.787462362e+001 -8.787462362e+001 +2.1355e-001 +3.6423e+000 +1.2496e+000
606 0 +1.324593761e-002 -8.787675406e+001 -8.787675406e+001 +2.6317e-001 +3.6471e+000 +1.2497e+000
617 0 +3.825811381e-003 -8.788617419e+001 -8.788617419e+001 +2.1101e-001 +3.6473e+000 +1.2496e+000
650 0 +7.489034897e-005 -8.788992511e+001 -8.788992511e+001 +2.3490e-001 +3.6457e+000 +1.2496e+000
743 0 +6.347127638e-005 -8.788993653e+001 -8.788993653e+001 +2.4554e-001 +3.6457e+000 +1.2496e+000
760 0 +4.397411900e-006 -8.788999560e+001 -8.788999560e+001 +2.3863e-001 +3.6455e+000 +1.2496e+000
778 0 +2.016783043e-006 -8.788999798e+001 -8.788999798e+001 +2.4042e-001 +3.6456e+000 +1.2496e+000
809 0 +1.951287103e-006 -8.788999805e+001 -8.788999805e+001 +2.4027e-001 +3.6456e+000 +1.2496e+000
837 0 +1.705337041e-006 -8.788999829e+001 -8.788999829e+001 +2.4019e-001 +3.6456e+000 +1.2496e+000
847 0 +3.187385005e-007 -8.788999968e+001 -8.788999968e+001 +2.3893e-001 +3.6456e+000 +1.2496e+000
892 0 +4.096345663e-008 -8.788999996e+001 -8.788999996e+001 +2.3934e-001 +3.6456e+000 +1.2496e+000
914 0 +3.513086710e-008 -8.788999996e+001 -8.788999996e+001 +2.3934e-001 +3.6456e+000 +1.2496e+000
924 0 +1.741547351e-008 -8.788999998e+001 -8.788999998e+001 +2.3927e-001 +3.6456e+000 +1.2496e+000
936 0 +4.067004511e-009 -8.789000000e+001 -8.789000000e+001 +2.3915e-001 +3.6456e+000 +1.2496e+000
% f evaluations | g evaluations | best noise-free fitness - Fopt (3.201900000000e+002) + sum g_i+ | measured fitness | best measured fitness or single-digit g-values | x1 | x2...
1 0 +2.304315971e+006 +2.304636161e+006 +2.304636161e+006 +3.7308e+000 +6.5744e-001 +3.0479e+000
8 0 +7.379137841e+004 +7.411156841e+004 +7.411156841e+004 +1.7927e+000 -5.0000e+000 +1.6610e+000
10 0 +4.825640373e+004 +4.857659373e+004 +4.857659373e+004 +1.7335e+000 -2.8558e+000 +1.6218e+000
12 0 +1.301672819e+004 +1.333691819e+004 +1.333691819e+004 +5.0000e+000 -4.0745e+000 +1.4965e+000
14 0 +9.006992592e+003 +9.327182592e+003 +9.327182592e+003 +5.0000e+000 -3.4925e+000 +1.4896e+000
18 0 +5.289004772e+003 +5.609194772e+003 +5.609194772e+003 +5.0000e+000 -3.0611e+000 +1.4787e+000
44 0 +1.422837032e+002 +4.624737032e+002 +4.624737032e+002 +1.7070e+000 -2.4438e+000 +1.3915e+000
68 0 +1.461643272e+001 +3.348064327e+002 +3.348064327e+002 +1.2309e+000 -2.4718e+000 +1.4031e+000
274 0 +8.812101339e+000 +3.290021013e+002 +3.290021013e+002 +1.2105e+000 -2.4268e+000 +1.4015e+000
303 0 +7.750034004e+000 +3.279400340e+002 +3.279400340e+002 +1.4065e+000 -2.3699e+000 +1.4009e+000
400 0 +7.069351345e+000 +3.272593513e+002 +3.272593513e+002 +1.5929e+000 -2.3213e+000 +1.4044e+000
401 0 +5.476029615e+000 +3.256660296e+002 +3.256660296e+002 +1.7416e+000 -2.3478e+000 +1.4036e+000
402 0 +4.700555634e+000 +3.248905556e+002 +3.248905556e+002 +1.5846e+000 -2.3505e+000 +1.4039e+000
419 0 +1.460390144e+000 +3.216503901e+002 +3.216503901e+002 -6.1619e-002 -2.3267e+000 +1.4038e+000
451 0 +1.119142643e+000 +3.213091426e+002 +3.213091426e+002 -1.6559e-001 -2.3384e+000 +1.4039e+000
474 0 +6.454128145e-001 +3.208354128e+002 +3.208354128e+002 +5.6753e-002 -2.3646e+000 +1.4038e+000
514 0 +4.666752637e-001 +3.206566753e+002 +3.206566753e+002 -4.7571e-001 -2.3507e+000 +1.4026e+000
523 0 +3.692294638e-001 +3.205592295e+002 +3.205592295e+002 -3.8090e-001 -2.3620e+000 +1.4026e+000
529 0 +1.044525217e-001 +3.202944525e+002 +3.202944525e+002 -2.3405e-001 -2.3562e+000 +1.4030e+000
547 0 +8.499204580e-002 +3.202749920e+002 +3.202749920e+002 -2.4623e-001 -2.3548e+000 +1.4031e+000
551 0 +2.462421016e-002 +3.202146242e+002 +3.202146242e+002 -4.3890e-001 -2.3561e+000 +1.4032e+000
553 0 +2.410425593e-002 +3.202141043e+002 +3.202141043e+002 -4.6371e-001 -2.3570e+000 +1.4033e+000
560 0 +2.182375441e-002 +3.202118238e+002 +3.202118238e+002 -4.4630e-001 -2.3569e+000 +1.4033e+000
563 0 +1.956198499e-002 +3.202095620e+002 +3.202095620e+002 -4.5241e-001 -2.3569e+000 +1.4033e+000
572 0 +1.456132059e-002 +3.202045613e+002 +3.202045613e+002 -4.6473e-001 -2.3574e+000 +1.4033e+000
578 0 +5.775564124e-003 +3.201957756e+002 +3.201957756e+002 -4.7196e-001 -2.3599e+000 +1.4033e+000
583 0 +3.895649100e-003 +3.201938956e+002 +3.201938956e+002 -4.6435e-001 -2.3596e+000 +1.4032e+000
600 0 +2.229893030e-003 +3.201922299e+002 +3.201922299e+002 -4.7227e-001 -2.3607e+000 +1.4032e+000
624 0 +1.904835735e-003 +3.201919048e+002 +3.201919048e+002 -3.9088e-001 -2.3605e+000 +1.4032e+000
638 0 +1.853438876e-003 +3.201918534e+002 +3.201918534e+002 -4.0682e-001 -2.3599e+000 +1.4032e+000
650 0 +1.134999256e-003 +3.201911350e+002 +3.201911350e+002 -4.2418e-001 -2.3598e+000 +1.4032e+000
654 0 +6.030288257e-004 +3.201906030e+002 +3.201906030e+002 -4.1899e-001 -2.3605e+000 +1.4032e+000
661 0 +3.817234543e-004 +3.201903817e+002 +3.201903817e+002 -4.4061e-001 -2.3605e+000 +1.4032e+000
678 0 +1.971181878e-004 +3.201901971e+002 +3.201901971e+002 -4.4287e-001 -2.3608e+000 +1.4032e+000
703 0 +8.399443976e-005 +3.201900840e+002 +3.201900840e+002 -4.3409e-001 -2.3607e+000 +1.4032e+000
707 0 +4.385185747e-005 +3.201900439e+002 +3.201900439e+002 -4.3586e-001 -2.3608e+000 +1.4032e+000
733 0 +2.459525308e-005 +3.201900246e+002 +3.201900246e+002 -4.3153e-001 -2.3607e+000 +1.4032e+000
740 0 +1.935183832e-006 +3.201900019e+002 +3.201900019e+002 -4.3330e-001 -2.3608e+000 +1.4032e+000
747 0 +1.743109010e-006 +3.201900017e+002 +3.201900017e+002 -4.3353e-001 -2.3608e+000 +1.4032e+000
764 0 +1.044470650e-006 +3.201900010e+002 +3.201900010e+002 -4.3213e-001 -2.3608e+000 +1.4032e+000
785 0 +2.323971557e-007 +3.201900002e+002 +3.201900002e+002 -4.3324e-001 -2.3608e+000 +1.4032e+000
786 0 +6.005052455e-009 +3.201900000e+002 +3.201900000e+002 -4.3279e-001 -2.3608e+000 +1.4032e+000
% f evaluations | g evaluations | best noise-free fitness - Fopt (-1.042400000000e+002) + sum g_i+ | measured fitness | best measured fitness or single-digit g-values | x1 | x2...
1 0 +1.908393674e+005 +1.907351274e+005 +1.907351274e+005 +3.6083e+000 +3.7661e+000 +9.6582e-001
4 0 +7.805452066e+004 +7.795028066e+004 +7.795028066e+004 -1.3037e+000 -2.5447e+000 +1.0382e+000
8 0 +2.241172208e+004 +2.230748208e+004 +2.230748208e+004 +7.2633e-001 +8.2546e-001 +1.3007e+000
12 0 +4.303045054e+003 +4.198805054e+003 +4.198805054e+003 -2.3076e+000 -5.0000e+000 +1.2574e+000
14 0 +4.159912840e+003 +4.055672840e+003 +4.055672840e+003 -2.1431e+000 -5.0000e+000 +1.2595e+000
16 0 +1.850328399e+003 +1.746088399e+003 +1.746088399e+003 -1.4333e-001 -5.0000e+000 +1.2888e+000
20 0 +1.769500627e+003 +1.665260627e+003 +1.665260627e+003 -9.5791e-002 -5.0000e+000 +1.2905e+000
40 0 +1.278267964e+003 +1.174027964e+003 +1.174027964e+003 -5.0000e+000 -5.0000e+000 +1.3107e+000
51 0 +1.251351565e+003 +1.147111565e+003 +1.147111565e+003 -5.4950e-002 -5.0000e+000 +1.3107e+000
82 0 +6.760388292e+002 +5.717988292e+002 +5.717988292e+002 -1.4094e-001 -4.7687e+000 +1.3071e+000
141 0 +6.392511998e+002 +5.350111998e+002 +5.350111998e+002 -2.3223e-001 -4.7691e+000 +1.3121e+000
183 0 +2.813843315e+002 +1.771443315e+002 +1.771443315e+002 +2.2526e-001 -4.4696e+000 +1.3121e+000
191 0 +7.919787697e+001 -2.504212303e+001 -2.504212303e+001 -1.4322e-001 -4.1046e+000 +1.3068e+000
198 0 +4.488792149e+001 -5.935207851e+001 -5.935207851e+001 -3.6442e-001 -4.0578e+000 +1.3092e+000
228 0 +1.995700383e+001 -8.428299617e+001 -8.428299617e+001 -3.6442e-001 -4.0435e+000 +1.3118e+000
250 0 +1.487650062e+001 -8.936349938e+001 -8.936349938e+001 -4.3029e-002 -3.8558e+000 +1.3104e+000
319 0 +1.258735006e+001 -9.165264994e+001 -9.165264994e+001 +1.0309e-001 -3.8407e+000 +1.3109e+000
342 0 +4.059710385e+000 -1.001802896e+002 -1.001802896e+002 -8.4932e-001 -3.9597e+000 +1.3129e+000
358 0 +2.299494649e+000 -1.019405054e+002 -1.019405054e+002 -8.9451e-001 -3.9167e+000 +1.3131e+000
427 0 +1.055849790e+000 -1.031841502e+002 -1.031841502e+002 -6.2782e-002 -3.9345e+000 +1.3144e+000
434 0 +1.727918270e-001 -1.040672082e+002 -1.040672082e+002 +3.0568e-001 -3.9325e+000 +1.3135e+000
467 0 +1.088025212e-001 -1.041311975e+002 -1.041311975e+002 +3.1085e-001 -3.9305e+000 +1.3135e+000
497 0 +6.187951491e-002 -1.041781205e+002 -1.041781205e+002 +3.1438e-001 -3.9279e+000 +1.3135e+000
562 0 +3.672783202e-002 -1.042032722e+002 -1.042032722e+002 +2.6495e-001 -3.9219e+000 +1.3135e+000
577 0 +8.619590662e-003 -1.042313804e+002 -1.042313804e+002 +2.9847e-001 -3.9206e+000 +1.3136e+000
596 0 +2.349691448e-003 -1.042376503e+002 -1.042376503e+002 +3.6994e-001 -3.9186e+000 +1.3136e+000
625 0 +1.890075128e-003 -1.042381099e+002 -1.042381099e+002 +3.5429e-001 -3.9201e+000 +1.3136e+000
635 0 +1.378130822e-003 -1.042386219e+002 -1.042386219e+002 +3.5951e-001 -3.9200e+000 +1.3136e+000
642 0 +1.314203068e-003 -1.042386858e+002 -1.042386858e+002 +4.0280e-001 -3.9210e+000 +1.3136e+000
664 0 +9.930737054e-004 -1.042390069e+002 -1.042390069e+002 +4.1060e-001 -3.9208e+000 +1.3136e+000
668 0 +8.691500450e-004 -1.042391308e+002 -1.042391308e+002 +4.1778e-001 -3.9204e+000 +1.3136e+000
675 0 +3.056534069e-005 -1.042399694e+002 -1.042399694e+002 +3.9895e-001 -3.9200e+000 +1.3136e+000
712 0 +1.477656173e-005 -1.042399852e+002 -1.042399852e+002 +3.9693e-001 -3.9199e+000 +1.3136e+000
746 0 +1.401836020e-005 -1.042399860e+002 -1.042399860e+002 +3.9731e-001 -3.9200e+000 +1.3136e+000
753 0 +3.197087679e-006 -1.042399968e+002 -1.042399968e+002 +3.9605e-001 -3.9200e+000 +1.3136e+000
760 0 +1.030399233e-006 -1.042399990e+002 -1.042399990e+002 +3.9490e-001 -3.9200e+000 +1.3136e+000
776 0 +6.157452361e-007 -1.042399994e+002 -1.042399994e+002 +3.9520e-001 -3.9200e+000 +1.3136e+000
789 0 +3.997817402e-007 -1.042399996e+002 -1.042399996e+002 +3.9500e-001 -3.9200e+000 +1.3136e+000
806 0 +9.244833166e-008 -1.042399999e+002 -1.042399999e+002 +3.9431e-001 -3.9200e+000 +1.3136e+000
831 0 +8.950330255e-008 -1.042399999e+002 -1.042399999e+002 +3.9449e-001 -3.9200e+000 +1.3136e+000
836 0 +5.588250929e-008 -1.042399999e+002 -1.042399999e+002 +3.9445e-001 -3.9200e+000 +1.3136e+000
844 0 +4.386514263e-008 -1.042400000e+002 -1.042400000e+002 +3.9439e-001 -3.9200e+000 +1.3136e+000
848 0 +9.408751112e-009 -1.042400000e+002 -1.042400000e+002 +3.9448e-001 -3.9200e+000 +1.3136e+000
% f evaluations | g evaluations | best noise-free fitness - Fopt (-6.785000000000e+001) + sum g_i+ | measured fitness | best measured fitness or single-digit g-values | x1 | x2...
1 0 +8.535914122e+006 +8.535846272e+006 +8.535846272e+006 -2.2005e+000 -1.4507e+000 -1.6875e+000
2 0 +1.041299403e+006 +1.041231553e+006 +1.041231553e+006 +3.1507e-001 +2.0177e+000 +2.3146e+000
8 0 +2.543150180e+005 +2.542471680e+005 +2.542471680e+005 +5.0000e+000 +5.7937e-001 +7.9827e-001
10 0 +2.338990353e+002 +1.660490353e+002 +1.660490353e+002 +3.8852e+000 +2.5647e+000 +1.3079e+000
54 0 +5.704397637e+001 -1.080602363e+001 -1.080602363e+001 +2.9379e+000 +3.1288e+000 +1.2976e+000
89 0 +5.007468865e+001 -1.777531135e+001 -1.777531135e+001 +2.9735e+000 +2.9355e+000 +1.2974e+000
192 0 +4.423650900e+001 -2.361349100e+001 -2.361349100e+001 +2.9598e+000 +3.0096e+000 +1.2975e+000
196 0 +4.300668026e+001 -2.484331974e+001 -2.484331974e+001 +2.9609e+000 +3.0469e+000 +1.2978e+000
278 0 +2.351502664e+001 -4.433497336e+001 -4.433497336e+001 +3.3686e+000 +3.1024e+000 +1.3011e+000
313 0 +1.007897317e+001 -5.777102683e+001 -5.777102683e+001 +2.5521e+000 +2.9771e+000 +1.3014e+000
371 0 +7.968223450e+000 -5.988177655e+001 -5.988177655e+001 +1.2621e+000 +2.9771e+000 +1.3014e+000
373 0 +1.736984588e+000 -6.611301541e+001 -6.611301541e+001 +1.1218e+000 +3.0017e+000 +1.3028e+000
432 0 +1.036263635e+000 -6.681373637e+001 -6.681373637e+001 +9.8640e-001 +2.9861e+000 +1.3036e+000
483 0 +9.769955957e-001 -6.687300440e+001 -6.687300440e+001 +9.9087e-001 +2.9875e+000 +1.3036e+000
497 0 +3.788260048e-001 -6.747117400e+001 -6.747117400e+001 +5.0514e-001 +3.0000e+000 +1.3041e+000
503 0 +9.912768216e-002 -6.775087232e+001 -6.775087232e+001 +8.2774e-001 +3.0041e+000 +1.3040e+000
504 0 +4.863694010e-002 -6.780136306e+001 -6.780136306e+001 +9.1536e-001 +3.0081e+000 +1.3041e+000
513 0 +4.772366791e-002 -6.780227633e+001 -6.780227633e+001 +9.0019e-001 +3.0074e+000 +1.3041e+000
522 0 +3.770657601e-002 -6.781229342e+001 -6.781229342e+001 +9.7943e-001 +3.0127e+000 +1.3038e+000
533 0 +4.378980534e-003 -6.784562102e+001 -6.784562102e+001 +8.5413e-001 +3.0126e+000 +1.3040e+000
573 0 +5.354398844e-004 -6.784946456e+001 -6.784946456e+001 +9.0391e-001 +3.0144e+000 +1.3040e+000
633 0 +4.144588813e-004 -6.784958554e+001 -6.784958554e+001 +8.9829e-001 +3.0146e+000 +1.3040e+000
678 0 +3.438207302e-004 -6.784965618e+001 -6.784965618e+001 +8.9558e-001 +3.0141e+000 +1.3040e+000
686 0 +2.682717847e-004 -6.784973173e+001 -6.784973173e+001 +8.9515e-001 +3.0145e+000 +1.3040e+000
687 0 +1.577124393e-004 -6.784984229e+001 -6.784984229e+001 +8.9115e-001 +3.0143e+000 +1.3040e+000
714 0 +4.019017901e-005 -6.784995981e+001 -6.784995981e+001 +8.8767e-001 +3.0144e+000 +1.3040e+000
745 0 +3.942900300e-005 -6.784996057e+001 -6.784996057e+001 +8.8769e-001 +3.0144e+000 +1.3040e+000
750 0 +1.745698189e-005 -6.784998254e+001 -6.784998254e+001 +8.8534e-001 +3.0145e+000 +1.3040e+000
763 0 +1.712167665e-005 -6.784998288e+001 -6.784998288e+001 +8.8531e-001 +3.0145e+000 +1.3040e+000
792 0 +2.415356249e-006 -6.784999758e+001 -6.784999758e+001 +8.8222e-001 +3.0144e+000 +1.3040e+000
806 0 +1.601266533e-006 -6.784999840e+001 -6.784999840e+001 +8.8278e-001 +3.0144e+000 +1.3040e+000
821 0 +4.062443395e-007 -6.784999959e+001 -6.784999959e+001 +8.8121e-001 +3.0144e+000 +1.3040e+000
846 0 +3.671731861e-007 -6.784999963e+001 -6.784999963e+001 +8.8206e-001 +3.0144e+000 +1.3040e+000
851 0 +1.937865193e-007 -6.784999981e+001 -6.784999981e+001 +8.8124e-001 +3.0144e+000 +1.3040e+000
860 0 +9.282823044e-008 -6.784999991e+001 -6.784999991e+001 +8.8186e-001 +3.0144e+000 +1.3040e+000
904 0 +3.418527683e-008 -6.784999997e+001 -6.784999997e+001 +8.8142e-001 +3.0144e+000 +1.3040e+000
910 0 +1.114428017e-008 -6.784999999e+001 -6.784999999e+001 +8.8168e-001 +3.0144e+000 +1.3040e+000
979 0 +4.767755968e-009 -6.785000000e+001 -6.785000000e+001 +8.8157e-001 +3.0144e+000 +1.3040e+000
% f evaluations | g evaluations | best noise-free fitness - Fopt (-3.639800000000e+002) + sum g_i+ | measured fitness | best measured fitness or single-digit g-values | x1 | x2...
1 0 +5.061581999e+005 +5.057942199e+005 +5.057942199e+005 +1.8907e+000 +2.7517e+000 +3.3557e+000
6 0 +4.579306883e+004 +4.542908883e+004 +4.542908883e+004 -4.8545e+000 +1.4389e+000 +2.4116e+000
8 0 +3.934166901e+004 +3.897768901e+004 +3.897768901e+004 -4.0168e+000 -6.2828e-001 +2.7740e+000
10 0 +1.707219309e+004 +1.670821309e+004 +1.670821309e+004 -5.0000e+000 +6.9885e-001 +2.7122e+000
12 0 +1.291551806e+004 +1.255153806e+004 +1.255153806e+004 +5.0000e+000 +8.2525e-002 +2.5491e+000
14 0 +6.974200736e+003 +6.610220736e+003 +6.610220736e+003 +5.0000e+000 +5.9658e-001 +2.5877e+000
16 0 +6.736945782e+003 +6.372965782e+003 +6.372965782e+003 +3.2400e+000 +6.3905e-001 +2.5883e+000
31 0 +5.504289574e+003 +5.140309574e+003 +5.140309574e+003 +1.0072e+000 +9.2154e-001 +2.5898e+000
40 0 +4.432643120e+003 +4.068663120e+003 +4.068663120e+003 -5.0000e+000 +1.2291e+000 +2.5931e+000
41 0 +3.167802264e+003 +2.803822264e+003 +2.803822264e+003 +3.8058e+000 +1.5235e+000 +2.6138e+000
43 0 +2.733606552e+003 +2.369626552e+003 +2.369626552e+003 +3.8058e+000 +1.7023e+000 +2.6235e+000
61 0 +7.683132672e+002 +4.043332672e+002 +4.043332672e+002 +2.9939e+000 +2.4831e+000 +2.5951e+000
106 0 +6.226187414e+002 +2.586387414e+002 +2.586387414e+002 +2.7408e+000 +2.4358e+000 +2.6015e+000
146 0 +4.659243638e+002 +1.019443638e+002 +1.019443638e+002 -3.0704e+000 +2.8361e+000 +2.5963e+000
192 0 +3.113328774e+002 -5.264712261e+001 -5.264712261e+001 +2.8849e+000 +2.8885e+000 +2.6283e+000
219 0 +1.977622637e+002 -1.662177363e+002 -1.662177363e+002 -5.0000e+000 +3.0095e+000 +2.6023e+000
231 0 +1.836205741e+002 -1.803594259e+002 -1.803594259e+002 +2.5354e+000 +3.1616e+000 +2.6003e+000
262 0 +8.255278483e+001 -2.814272152e+002 -2.814272152e+002 +2.9320e+000 +3.2627e+000 +2.6042e+000
300 0 +5.441229247e+001 -3.095677075e+002 -3.095677075e+002 -6.2153e-001 +3.3008e+000 +2.6077e+000
303 0 +2.926734126e+001 -3.347126587e+002 -3.347126587e+002 -4.5014e-001 +3.3492e+000 +2.6131e+000
391 0 +1.925684354e+001 -3.447231565e+002 -3.447231565e+002 +3.4992e+000 +3.2914e+000 +2.6157e+000
412 0 +1.070151594e+001 -3.532784841e+002 -3.532784841e+002 +4.6423e+000 +3.1417e+000 +2.6139e+000
415 0 +3.837571982e+000 -3.601424280e+002 -3.601424280e+002 +2.3469e+000 +3.1333e+000 +2.6142e+000
448 0 +1.323505102e+000 -3.626564949e+002 -3.626564949e+002 +1.1222e+000 +3.2221e+000 +2.6135e+000
496 0 +1.201038657e+000 -3.627789613e+002 -3.627789613e+002 +1.2400e+000 +3.2203e+000 +2.6135e+000
542 0 +8.798894998e-001 -3.631001105e+002 -3.631001105e+002 +1.3777e+000 +3.2147e+000 +2.6135e+000
550 0 +3.213442975e-001 -3.636586557e+002 -3.636586557e+002 +1.5643e+000 +3.2071e+000 +2.6136e+000
558 0 +1.981072924e-001 -3.637818927e+002 -3.637818927e+002 +1.6705e+000 +3.2034e+000 +2.6136e+000
571 0 +5.370741362e-002 -3.639262926e+002 -3.639262926e+002 +1.6679e+000 +3.1960e+000 +2.6136e+000
574 0 +6.318762839e-003 -3.639736812e+002 -3.639736812e+002 +1.7693e+000 +3.1894e+000 +2.6135e+000
604 0 +5.913109608e-003 -3.639740869e+002 -3.639740869e+002 +1.7368e+000 +3.1894e+000 +2.6136e+000
625 0 +4.474836873e-003 -3.639755252e+002 -3.639755252e+002 +1.7446e+000 +3.1901e+000 +2.6136e+000
646 0 +3.485325259e-003 -3.639765147e+002 -3.639765147e+002 +1.7972e+000 +3.1889e+000 +2.6136e+000
647 0 +3.159570964e-003 -3.639768404e+002 -3.639768404e+002 +1.8002e+000 +3.1899e+000 +2.6136e+000
655 0 +8.410306282e-005 -3.639799159e+002 -3.639799159e+002 +1.8147e+000 +3.1907e+000 +2.6136e+000
705 0 +4.443397359e-006 -3.639799956e+002 -3.639799956e+002 +1.8092e+000 +3.1904e+000 +2.6136e+000
754 0 +4.062600510e-006 -3.639799959e+002 -3.639799959e+002 +1.8095e+000 +3.1904e+000 +2.6136e+000
792 0 +2.480656576e-006 -3.639799975e+002 -3.639799975e+002 +1.8104e+000 +3.1904e+000 +2.6136e+000
805 0 +1.469488041e-006 -3.639799985e+002 -3.639799985e+002 +1.8108e+000 +3.1904e+000 +2.6136e+000
822 0 +1.240407755e-006 -3.639799988e+002 -3.639799988e+002 +1.8106e+000 +3.1904e+000 +2.6136e+000
828 0 +9.537548635e-007 -3.639799990e+002 -3.639799990e+002 +1.8107e+000 +3.1904e+000 +2.6136e+000
842 0 +6.140276128e-007 -3.639799994e+002 -3.639799994e+002 +1.8105e+000 +3.1904e+000 +2.6136e+000
843 0 +3.514126092e-007 -3.639799996e+002 -3.639799996e+002 +1.8110e+000 +3.1904e+000 +2.6136e+000
847 0 +3.008456702e-007 -3.639799997e+002 -3.639799997e+002 +1.8113e+000 +3.1904e+000 +2.6136e+000
851 0 +6.655511697e-008 -3.639799999e+002 -3.639799999e+002 +1.8114e+000 +3.1904e+000 +2.6136e+000
881 0 +1.977241482e-009 -3.639800000e+002 -3.639800000e+002 +1.8112e+000 +3.1904e+000 +2.6136e+000
% f evaluations | g evaluations | best noise-free fitness - Fopt (-1.865000000000e+001) + sum g_i+ | measured fitness | best measured fitness or single-digit g-values | x1 | x2...
1 0 +7.197693245e+006 +7.197674595e+006 +7.197674595e+006 +3.3897e+000 -1.6946e+000 +8.3204e-002
3 0 +9.056091493e+005 +9.055904993e+005 +9.055904993e+005 +3.8614e+000 -2.9165e+000 -3.4464e+000
7 0 +2.698926858e+005 +2.698740358e+005 +2.698740358e+005 -4.8371e+000 -2.4511e+000 -3.0172e+000
8 0 +6.017667467e+004 +6.015802467e+004 +6.015802467e+004 -6.1044e-001 +5.0000e+000 -2.4853e+000
12 0 +9.580703923e+003 +9.562053923e+003 +9.562053923e+003 +4.5029e+000 -5.0000e+000 -2.5443e+000
14 0 +4.853956633e+003 +4.835306633e+003 +4.835306633e+003 +5.0000e+000 -1.6516e+000 -2.5527e+000
72 0 +4.685985813e+003 +4.667335813e+003 +4.667335813e+003 +2.3317e+000 -1.7159e+000 -2.5515e+000
75 0 +7.344545365e+001 +5.479545365e+001 +5.479545365e+001 +4.4664e+000 -2.3490e+000 -2.4885e+000
114 0 +4.489538274e+001 +2.624538274e+001 +2.624538274e+001 +4.9864e+000 -2.3664e+000 -2.4850e+000
118 0 +4.148554526e+001 +2.283554526e+001 +2.283554526e+001 +4.9956e+000 -2.3622e+000 -2.4846e+000
128 0 +3.972268611e+001 +2.107268611e+001 +2.107268611e+001 +4.9996e+000 -2.3742e+000 -2.4848e+000
157 0 +3.833872656e+001 +1.968872656e+001 +1.968872656e+001 +4.9999e+000 -2.3742e+000 -2.4846e+000
163 0 +3.061747386e+001 +1.196747386e+001 +1.196747386e+001 +2.4904e+000 -2.3694e+000 -2.4848e+000
325 0 +2.113356940e+001 +2.483569398e+000 +2.483569398e+000 +3.7724e+000 -2.4289e+000 -2.4843e+000
332 0 +1.265141687e+001 -5.998583126e+000 -5.998583126e+000 +4.4948e-001 -2.4329e+000 -2.4840e+000
341 0 +5.326481320e+000 -1.332351868e+001 -1.332351868e+001 +5.0131e-001 -2.4697e+000 -2.4830e+000
353 0 +3.650974207e+000 -1.499902579e+001 -1.499902579e+001 +2.7354e-001 -2.4744e+000 -2.4822e+000
366 0 +8.399836097e-001 -1.781001639e+001 -1.781001639e+001 +8.5044e-001 -2.4800e+000 -2.4803e+000
385 0 +8.275978016e-001 -1.782240220e+001 -1.782240220e+001 +8.4895e-001 -2.4773e+000 -2.4802e+000
399 0 +4.498107374e-001 -1.820018926e+001 -1.820018926e+001 +1.3204e+000 -2.4771e+000 -2.4803e+000
405 0 +2.710234712e-001 -1.837897653e+001 -1.837897653e+001 +1.4219e+000 -2.4752e+000 -2.4804e+000
417 0 +1.008026104e-001 -1.854919739e+001 -1.854919739e+001 +1.4342e+000 -2.4725e+000 -2.4805e+000
425 0 +6.986821033e-002 -1.858013179e+001 -1.858013179e+001 +1.4503e+000 -2.4716e+000 -2.4806e+000
434 0 +1.365937611e-002 -1.863634062e+001 -1.863634062e+001 +1.3940e+000 -2.4680e+000 -2.4809e+000
515 0 +1.251827713e-002 -1.863748172e+001 -1.863748172e+001 +1.4248e+000 -2.4674e+000 -2.4807e+000
518 0 +1.229133768e-002 -1.863770866e+001 -1.863770866e+001 +1.4107e+000 -2.4674e+000 -2.4807e+000
519 0 +6.157531468e-004 -1.864938425e+001 -1.864938425e+001 +1.4573e+000 -2.4661e+000 -2.4808e+000
578 0 +4.656649824e-004 -1.864953434e+001 -1.864953434e+001 +1.4856e+000 -2.4652e+000 -2.4808e+000
602 0 +1.815965389e-004 -1.864981840e+001 -1.864981840e+001 +1.4663e+000 -2.4654e+000 -2.4808e+000
615 0 +1.333979021e-004 -1.864986660e+001 -1.864986660e+001 +1.4762e+000 -2.4658e+000 -2.4808e+000
628 0 +4.412789054e-005 -1.864995587e+001 -1.864995587e+001 +1.4629e+000 -2.4657e+000 -2.4808e+000
650 0 +2.969711904e-005 -1.864997030e+001 -1.864997030e+001 +1.4670e+000 -2.4655e+000 -2.4808e+000
670 0 +2.478292746e-005 -1.864997522e+001 -1.864997522e+001 +1.4661e+000 -2.4655e+000 -2.4808e+000
674 0 +9.654569340e-006 -1.864999035e+001 -1.864999035e+001 +1.4653e+000 -2.4656e+000 -2.4808e+000
685 0 +8.458255529e-006 -1.864999154e+001 -1.864999154e+001 +1.4655e+000 -2.4656e+000 -2.4808e+000
699 0 +7.537284944e-006 -1.864999246e+001 -1.864999246e+001 +1.4653e+000 -2.4656e+000 -2.4808e+000
716 0 +6.230831776e-006 -1.864999377e+001 -1.864999377e+001 +1.4659e+000 -2.4656e+000 -2.4808e+000
730 0 +1.831589440e-006 -1.864999817e+001 -1.864999817e+001 +1.4661e+000 -2.4656e+000 -2.4808e+000
755 0 +1.600654205e-006 -1.864999840e+001 -1.864999840e+001 +1.4660e+000 -2.4656e+000 -2.4808e+000
761 0 +1.274864655e-006 -1.864999873e+001 -1.864999873e+001 +1.4661e+000 -2.4656e+000 -2.4808e+000
772 0 +1.220986007e-006 -1.864999878e+001 -1.864999878e+001 +1.4661e+000 -2.4656e+000 -2.4808e+000
786 0 +9.278474842e-007 -1.864999907e+001 -1.864999907e+001 +1.4663e+000 -2.4656e+000 -2.4808e+000
813 0 +7.901334413e-007 -1.864999921e+001 -1.864999921e+001 +1.4663e+000 -2.4656e+000 -2.4808e+000
820 0 +7.668239768e-007 -1.864999923e+001 -1.864999923e+001 +1.4663e+000 -2.4656e+000 -2.4808e+000
821 0 +2.027643831e-007 -1.864999980e+001 -1.864999980e+001 +1.4669e+000 -2.4656e+000 -2.4808e+000
830 0 +1.687958040e-007 -1.864999983e+001 -1.864999983e+001 +1.4670e+000 -2.4656e+000 -2.4808e+000
840 0 +1.441594115e-007 -1.864999986e+001 -1.864999986e+001 +1.4670e+000 -2.4656e+000 -2.4808e+000
851 0 +1.239711587e-007 -1.864999988e+001 -1.864999988e+001 +1.4672e+000 -2.4656e+000 -2.4808e+000
865 0 +1.921647907e-008 -1.864999998e+001 -1.864999998e+001 +1.4671e+000 -2.4656e+000 -2.4808e+000
871 0 +1.504295710e-008 -1.864999998e+001 -1.864999998e+001 +1.4671e+000 -2.4656e+000 -2.4808e+000
872 0 +5.405549786e-009 -1.864999999e+001 -1.864999999e+001 +1.4672e+000 -2.4656e+000 -2.4808e+000
% f evaluations | g evaluations | best noise-free fitness - Fopt (1.749200000000e+002) + sum g_i+ | measured fitness | best measured fitness or single-digit g-values | x1 | x2...
1 0 +2.222639547e+007 +2.222657039e+007 +2.222657039e+007 +2.5769e+000 +1.2428e-001 +1.3326e+000
2 0 +1.865300828e+005 +1.867050028e+005 +1.867050028e+005 +3.8955e+000 +1.8726e+000 -3.8136e+000
7 0 +3.550256073e+003 +3.725176073e+003 +3.725176073e+003 +3.5318e+000 -1.9507e-001 -3.4436e+000
44 0 +2.083973024e+003 +2.258893024e+003 +2.258893024e+003 +5.0000e+000 -3.8193e-001 -3.4086e+000
144 0 +1.921507921e+003 +2.096427921e+003 +2.096427921e+003 +5.0000e+000 -5.9665e-001 -3.4051e+000
147 0 +1.880850941e+003 +2.055770941e+003 +2.055770941e+003 -4.1550e+000 -6.0251e-001 -3.4049e+000
155 0 +2.564041275e+002 +4.313241275e+002 +4.313241275e+002 +5.0000e+000 -1.3679e+000 -3.4109e+000
159 0 +2.163270273e+002 +3.912470273e+002 +3.912470273e+002 -2.8032e+000 -1.3712e+000 -3.4114e+000
190 0 +2.018217428e+002 +3.767417428e+002 +3.767417428e+002 -4.0136e+000 -1.6515e+000 -3.3980e+000
229 0 +1.987688813e+002 +3.736888813e+002 +3.736888813e+002 -4.5775e+000 -1.4248e+000 -3.4156e+000
261 0 +1.632318996e+002 +3.381518996e+002 +3.381518996e+002 -9.2368e-001 -1.4737e+000 -3.4159e+000
300 0 +1.334122351e+002 +3.083322351e+002 +3.083322351e+002 +4.5669e+000 -1.6583e+000 -3.4025e+000
321 0 +6.193073235e+001 +2.368507323e+002 +2.368507323e+002 +4.5395e+000 -1.8056e+000 -3.4049e+000
345 0 +5.250435603e+001 +2.274243560e+002 +2.274243560e+002 +4.9403e+000 -1.7946e+000 -3.4069e+000
367 0 +4.996675512e+001 +2.248867551e+002 +2.248867551e+002 +4.9965e+000 -1.8425e+000 -3.4070e+000
375 0 +4.767823627e+001 +2.225982363e+002 +2.225982363e+002 +4.9403e+000 -1.7946e+000 -3.4080e+000
383 0 +3.982243313e+001 +2.147424331e+002 +2.147424331e+002 +3.5597e+000 -1.9619e+000 -3.4085e+000
396 0 +9.417836544e+000 +1.843378365e+002 +1.843378365e+002 -2.3123e-001 -1.7652e+000 -3.4086e+000
407 0 +7.551972080e+000 +1.824719721e+002 +1.824719721e+002 +9.6491e-001 -1.8575e+000 -3.4087e+000
416 0 +2.782264384e+000 +1.777022644e+002 +1.777022644e+002 -4.8840e-001 -1.8899e+000 -3.4106e+000
457 0 +2.158020255e+000 +1.770780203e+002 +1.770780203e+002 -6.4974e-001 -1.8855e+000 -3.4104e+000
459 0 +1.229620368e+000 +1.761496204e+002 +1.761496204e+002 -1.6269e+000 -1.8743e+000 -3.4101e+000
463 0 +1.256553592e-001 +1.750456554e+002 +1.750456554e+002 -1.3659e+000 -1.8392e+000 -3.4106e+000
514 0 +9.815433932e-002 +1.750181543e+002 +1.750181543e+002 -1.3495e+000 -1.8511e+000 -3.4103e+000
533 0 +6.829579663e-002 +1.749882958e+002 +1.749882958e+002 -1.3082e+000 -1.8514e+000 -3.4104e+000
563 0 +5.555242153e-002 +1.749755524e+002 +1.749755524e+002 -1.1064e+000 -1.8459e+000 -3.4106e+000
577 0 +1.343729683e-002 +1.749334373e+002 +1.749334373e+002 -1.0542e+000 -1.8455e+000 -3.4104e+000
578 0 +7.750406372e-004 +1.749207750e+002 +1.749207750e+002 -1.1791e+000 -1.8446e+000 -3.4104e+000
674 0 +5.733362374e-004 +1.749205733e+002 +1.749205733e+002 -1.1756e+000 -1.8447e+000 -3.4104e+000
676 0 +1.267643045e-004 +1.749201268e+002 +1.749201268e+002 -1.1416e+000 -1.8447e+000 -3.4104e+000
692 0 +4.556053506e-005 +1.749200456e+002 +1.749200456e+002 -1.1574e+000 -1.8447e+000 -3.4104e+000
701 0 +8.434083014e-006 +1.749200084e+002 +1.749200084e+002 -1.1534e+000 -1.8447e+000 -3.4104e+000
725 0 +8.029241258e-006 +1.749200080e+002 +1.749200080e+002 -1.1546e+000 -1.8448e+000 -3.4104e+000
747 0 +3.581350711e-006 +1.749200036e+002 +1.749200036e+002 -1.1524e+000 -1.8447e+000 -3.4104e+000
760 0 +7.283049683e-007 +1.749200007e+002 +1.749200007e+002 -1.1512e+000 -1.8448e+000 -3.4104e+000
809 0 +4.800184001e-007 +1.749200005e+002 +1.749200005e+002 -1.1524e+000 -1.8448e+000 -3.4104e+000
814 0 +4.522775043e-007 +1.749200005e+002 +1.749200005e+002 -1.1523e+000 -1.8448e+000 -3.4104e+000
815 0 +3.579070267e-007 +1.749200004e+002 +1.749200004e+002 -1.1519e+000 -1.8448e+000 -3.4104e+000
820 0 +3.471793093e-007 +1.749200003e+002 +1.749200003e+002 -1.1519e+000 -1.8448e+000 -3.4104e+000
845 0 +3.318745030e-007 +1.749200003e+002 +1.749200003e+002 -1.1519e+000 -1.8448e+000 -3.4104e+000
850 0 +7.411364322e-008 +1.749200001e+002 +1.749200001e+002 -1.1519e+000 -1.8448e+000 -3.4104e+000
874 0 +5.137843573e-008 +1.749200001e+002 +1.749200001e+002 -1.1520e+000 -1.8448e+000 -3.4104e+000
875 0 +4.028788680e-008 +1.749200000e+002 +1.749200000e+002 -1.1520e+000 -1.8448e+000 -3.4104e+000
882 0 +1.651986281e-008 +1.749200000e+002 +1.749200000e+002 -1.1519e+000 -1.8448e+000 -3.4104e+000
918 0 +4.252513008e-009 +1.749200000e+002 +1.749200000e+002 -1.1521e+000 -1.8448e+000 -3.4104e+000
% f evaluations | g evaluations | best noise-free fitness - Fopt (-5.659600000000e+002) + sum g_i+ | measured fitness | best measured fitness or single-digit g-values | x1 | x2...
1 0 +6.089531376e+006 +6.088965416e+006 +6.088965416e+006 -1.7860e+000 +3.2220e+000 +1.7951e-001
2 0 +1.991093078e+006 +1.990527118e+006 +1.990527118e+006 +2.2744e+000 +1.8071e-001 -7.7470e-001
8 0 +2.049459501e+004 +1.992863501e+004 +1.992863501e+004 +5.0000e+000 -3.7053e+000 -2.2215e+000
10 0 +1.457682515e+004 +1.401086515e+004 +1.401086515e+004 +5.0000e+000 -2.8677e+000 -2.2249e+000
30 0 +2.932266876e+003 +2.366306876e+003 +2.366306876e+003 +5.0000e+000 +2.0498e+000 -2.1423e+000
77 0 +3.129593564e+002 -2.530006436e+002 -2.530006436e+002 +1.1149e+000 +2.5558e-001 -2.1264e+000
173 0 +2.434471878e+002 -3.225128122e+002 -3.225128122e+002 -1.6279e+000 +6.2810e-002 -2.1304e+000
233 0 +9.915731065e+001 -4.668026894e+002 -4.668026894e+002 -1.0406e+000 +3.6529e-001 -2.1359e+000
350 0 +5.323348271e+001 -5.127265173e+002 -5.127265173e+002 -2.0345e+000 +3.9870e-001 -2.1495e+000
374 0 +4.674672200e+001 -5.192132780e+002 -5.192132780e+002 -3.7952e+000 +2.2867e-001 -2.1512e+000
381 0 +2.172201958e+001 -5.442379804e+002 -5.442379804e+002 -4.4211e+000 +1.6436e-001 -2.1426e+000
382 0 +1.399146200e+001 -5.519685380e+002 -5.519685380e+002 -4.1592e+000 +1.9008e-001 -2.1434e+000
418 0 +3.634717055e+000 -5.623252829e+002 -5.623252829e+002 -2.1526e+000 +2.0978e-001 -2.1437e+000
439 0 +3.437745013e+000 -5.625222550e+002 -5.625222550e+002 -2.3227e+000 +2.0555e-001 -2.1443e+000
448 0 +4.554389056e-002 -5.659144561e+002 -5.659144561e+002 -1.0298e+000 +2.4267e-001 -2.1448e+000
548 0 +4.083719413e-002 -5.659191628e+002 -5.659191628e+002 -1.0137e+000 +2.3681e-001 -2.1450e+000
573 0 +2.541711663e-002 -5.659345829e+002 -5.659345829e+002 -9.0191e-001 +2.3936e-001 -2.1447e+000
588 0 +5.792822793e-003 -5.659542072e+002 -5.659542072e+002 -1.0117e+000 +2.3489e-001 -2.1448e+000
601 0 +2.397876197e-003 -5.659576021e+002 -5.659576021e+002 -9.8276e-001 +2.3594e-001 -2.1448e+000
603 0 +1.513492943e-003 -5.659584865e+002 -5.659584865e+002 -9.2865e-001 +2.3671e-001 -2.1448e+000
627 0 +1.125457133e-003 -5.659588745e+002 -5.659588745e+002 -9.8254e-001 +2.3559e-001 -2.1448e+000
659 0 +3.325456594e-004 -5.659596675e+002 -5.659596675e+002 -9.4167e-001 +2.3617e-001 -2.1448e+000
719 0 +4.816138232e-005 -5.659599518e+002 -5.659599518e+002 -9.5395e-001 +2.3581e-001 -2.1448e+000
766 0 +1.791664795e-005 -5.659599821e+002 -5.659599821e+002 -9.5398e-001 +2.3593e-001 -2.1448e+000
773 0 +1.413367443e-005 -5.659599859e+002 -5.659599859e+002 -9.5426e-001 +2.3594e-001 -2.1448e+000
791 0 +1.388951296e-005 -5.659599861e+002 -5.659599861e+002 -9.5427e-001 +2.3594e-001 -2.1448e+000
798 0 +5.120577953e-006 -5.659599949e+002 -5.659599949e+002 -9.5721e-001 +2.3599e-001 -2.1448e+000
810 0 +3.768170700e-006 -5.659599962e+002 -5.659599962e+002 -9.5961e-001 +2.3600e-001 -2.1448e+000
814 0 +1.299840733e-007 -5.659599999e+002 -5.659599999e+002 -9.5745e-001 +2.3601e-001 -2.1448e+000
827 0 +8.323058864e-008 -5.659599999e+002 -5.659599999e+002 -9.5761e-001 +2.3599e-001 -2.1448e+000
852 0 +1.306761988e-008 -5.659600000e+002 -5.659600000e+002 -9.5771e-001 +2.3600e-001 -2.1448e+000
869 0 +3.198465492e-009 -5.659600000e+002 -5.659600000e+002 -9.5762e-001 +2.3600e-001 -2.1448e+000
% f evaluations | g evaluations | best noise-free fitness - Fopt (7.095000000000e+001) + sum g_i+ | measured fitness | best measured fitness or single-digit g-values | x1 | x2...
1 0 +2.133944606e+005 +2.134654106e+005 +2.134654106e+005 -1.6699e-001 +2.8704e+000 -2.5791e+000
8 0 +2.752465757e+004 +2.759560757e+004 +2.759560757e+004 -1.9562e+000 -1.2949e+000 -2.2678e+000
12 0 +1.891034749e+004 +1.898129749e+004 +1.898129749e+004 -3.7183e+000 +5.0000e+000 -2.0660e+000
16 0 +1.064738868e+004 +1.071833868e+004 +1.071833868e+004 -5.0000e+000 -3.0650e-001 -2.0383e+000
68 0 +4.770905276e+003 +4.841855276e+003 +4.841855276e+003 -4.8167e+000 -6.2754e-001 -2.0871e+000
85 0 +3.801615141e+003 +3.872565141e+003 +3.872565141e+003 -4.9687e+000 -5.2438e-001 -2.1550e+000
87 0 +3.565888752e+003 +3.636838752e+003 +3.636838752e+003 -4.9908e+000 -5.2884e-001 -2.1507e+000
112 0 +2.830719130e+003 +2.901669130e+003 +2.901669130e+003 -4.9803e+000 -2.4356e-001 -2.1540e+000
140 0 +2.765745706e+003 +2.836695706e+003 +2.836695706e+003 -4.9896e+000 +2.4213e+000 -2.1546e+000
141 0 +2.639838303e+003 +2.710788303e+003 +2.710788303e+003 -4.9925e+000 -1.9113e-001 -2.1538e+000
162 0 +2.598918200e+003 +2.669868200e+003 +2.669868200e+003 -4.8949e+000 +2.0543e-001 -2.1677e+000
181 0 +2.325685312e+003 +2.396635312e+003 +2.396635312e+003 -4.9171e+000 -7.5424e-002 -2.1552e+000
199 0 +2.259088363e+003 +2.330038363e+003 +2.330038363e+003 -4.9991e+000 +2.3984e+000 -2.1098e+000
222 0 +1.012722133e+003 +1.083672133e+003 +1.083672133e+003 -4.9866e+000 +1.9546e+000 -2.1079e+000
247 0 +9.835380926e+002 +1.054488093e+003 +1.054488093e+003 -4.8015e+000 +1.9506e+000 -2.1084e+000
261 0 +9.547253802e+002 +1.025675380e+003 +1.025675380e+003 -4.8576e+000 +1.9525e+000 -2.1093e+000
288 0 +5.191659064e+001 +1.228665906e+002 +1.228665906e+002 +5.0000e+000 +9.0924e-001 -2.1264e+000
314 0 +4.405644157e+001 +1.150064416e+002 +1.150064416e+002 -2.7925e+000 +9.0924e-001 -2.1264e+000
356 0 +3.757763774e+001 +1.085276377e+002 +1.085276377e+002 -3.9600e+000 +1.1873e+000 -2.1292e+000
361 0 +3.394925869e+001 +1.048992587e+002 +1.048992587e+002 -4.1506e+000 +1.1791e+000 -2.1277e+000
367 0 +2.023670501e+001 +9.118670501e+001 +9.118670501e+001 +1.6982e+000 +1.2167e+000 -2.1284e+000
397 0 +1.670988819e+000 +7.262098882e+001 +7.262098882e+001 +6.1790e-001 +1.1014e+000 -2.1283e+000
459 0 +1.374841644e+000 +7.232484164e+001 +7.232484164e+001 +1.5965e+000 +1.0584e+000 -2.1273e+000
470 0 +1.011556515e+000 +7.196155652e+001 +7.196155652e+001 +9.1343e-001 +1.0802e+000 -2.1282e+000
474 0 +8.017420117e-001 +7.175174201e+001 +7.175174201e+001 +1.3661e-001 +1.0906e+000 -2.1279e+000
485 0 +1.011453034e-001 +7.105114530e+001 +7.105114530e+001 +4.0549e-001 +1.0845e+000 -2.1270e+000
505 0 +2.954585461e-002 +7.097954585e+001 +7.097954585e+001 +4.9894e-001 +1.0773e+000 -2.1273e+000
542 0 +2.927734867e-002 +7.097927735e+001 +7.097927735e+001 +4.6686e-001 +1.0802e+000 -2.1273e+000
552 0 +2.050550076e-002 +7.097050550e+001 +7.097050550e+001 +6.3611e-001 +1.0763e+000 -2.1273e+000
572 0 +1.735155115e-002 +7.096735155e+001 +7.096735155e+001 +6.0905e-001 +1.0763e+000 -2.1273e+000
574 0 +2.962890424e-003 +7.095296289e+001 +7.095296289e+001 +5.6541e-001 +1.0786e+000 -2.1272e+000
640 0 +9.558691448e-004 +7.095095587e+001 +7.095095587e+001 +6.0772e-001 +1.0795e+000 -2.1272e+000
647 0 +7.191997851e-004 +7.095071920e+001 +7.095071920e+001 +6.0875e-001 +1.0793e+000 -2.1272e+000
655 0 +4.756959181e-005 +7.095004757e+001 +7.095004757e+001 +6.1658e-001 +1.0790e+000 -2.1272e+000
697 0 +3.402930028e-005 +7.095003403e+001 +7.095003403e+001 +6.1789e-001 +1.0791e+000 -2.1272e+000
750 0 +3.033676708e-005 +7.095003034e+001 +7.095003034e+001 +6.1919e-001 +1.0793e+000 -2.1272e+000
761 0 +1.753065204e-005 +7.095001753e+001 +7.095001753e+001 +6.1197e-001 +1.0793e+000 -2.1272e+000
763 0 +9.027933132e-006 +7.095000903e+001 +7.095000903e+001 +6.1253e-001 +1.0793e+000 -2.1272e+000
779 0 +6.610106411e-006 +7.095000661e+001 +7.095000661e+001 +6.1637e-001 +1.0792e+000 -2.1272e+000
784 0 +5.354774004e-006 +7.095000535e+001 +7.095000535e+001 +6.1203e-001 +1.0792e+000 -2.1272e+000
787 0 +2.760691572e-006 +7.095000276e+001 +7.095000276e+001 +6.1495e-001 +1.0792e+000 -2.1272e+000
833 0 +2.638074648e-006 +7.095000264e+001 +7.095000264e+001 +6.1277e-001 +1.0792e+000 -2.1272e+000
837 0 +7.019717572e-007 +7.095000070e+001 +7.095000070e+001 +6.1380e-001 +1.0792e+000 -2.1272e+000
845 0 +3.415959071e-007 +7.095000034e+001 +7.095000034e+001 +6.1456e-001 +1.0792e+000 -2.1272e+000
879 0 +1.948872637e-007 +7.095000019e+001 +7.095000019e+001 +6.1427e-001 +1.0792e+000 -2.1272e+000
893 0 +6.811541198e-008 +7.095000007e+001 +7.095000007e+001 +6.1429e-001 +1.0792e+000 -2.1272e+000
915 0 +6.110401785e-008 +7.095000006e+001 +7.095000006e+001 +6.1459e-001 +1.0792e+000 -2.1272e+000
918 0 +1.445707198e-008 +7.095000001e+001 +7.095000001e+001 +6.1449e-001 +1.0792e+000 -2.1272e+000
929 0 +1.279083506e-008 +7.095000001e+001 +7.095000001e+001 +6.1451e-001 +1.0792e+000 -2.1272e+000
938 0 +1.998088806e-009 +7.095000000e+001 +7.095000000e+001 +6.1438e-001 +1.0792e+000 -2.1272e+000
% f evaluations | g evaluations | best noise-free fitness - Fopt (4.728000000000e+001) + sum g_i+ | measured fitness | best measured fitness or single-digit g-values | x1 | x2...
1 0 +3.252338317e+007 +3.252343045e+007 +3.252343045e+007 +3.6333e+000 +3.1980e+000 -2.7436e+000
2 0 +6.352777107e+006 +6.352824387e+006 +6.352824387e+006 +4.9899e+000 +9.4454e-001 +6.6532e-001
4 0 +7.740962092e+004 +7.745690092e+004 +7.745690092e+004 +2.3422e+000 -6.5213e-001 +3.5440e+000
8 0 +4.947982828e+004 +4.952710828e+004 +4.952710828e+004 -1.0999e-001 +3.4666e-001 +3.0532e+000
12 0 +4.463250315e+004 +4.467978315e+004 +4.467978315e+004 +1.1487e+000 +5.0000e+000 +3.3677e+000
14 0 +3.710270649e+004 +3.714998649e+004 +3.714998649e+004 +1.3607e+000 +5.0000e+000 +3.3229e+000
22 0 +3.111719396e+004 +3.116447396e+004 +3.116447396e+004 +2.6791e+000 +3.4624e+000 +3.3765e+000
24 0 +2.992687565e+004 +2.997415565e+004 +2.997415565e+004 +3.3128e+000 +2.9400e+000 +3.4022e+000
55 0 +1.301327716e+004 +1.306055716e+004 +1.306055716e+004 +3.2264e+000 +2.8345e+000 +3.2561e+000
89 0 +1.138598423e+004 +1.143326423e+004 +1.143326423e+004 +3.3347e+000 +2.6363e+000 +3.2584e+000
113 0 +4.154445906e+003 +4.201725906e+003 +4.201725906e+003 +3.5983e+000 -2.5019e+000 +3.2409e+000
149 0 +3.917901076e+003 +3.965181076e+003 +3.965181076e+003 +3.5934e+000 -2.4969e+000 +3.2442e+000
177 0 +7.455862521e+002 +7.928662521e+002 +7.928662521e+002 +4.3169e+000 -4.0967e-001 +3.2457e+000
248 0 +2.841677248e+002 +3.314477248e+002 +3.314477248e+002 +3.7787e+000 -1.0571e+000 +3.2853e+000
292 0 +2.143279632e+002 +2.616079632e+002 +2.616079632e+002 +2.5470e+000 -7.0506e-001 +3.2844e+000
378 0 +1.627717070e+002 +2.100517070e+002 +2.100517070e+002 +2.5391e+000 -1.1948e+000 +3.2708e+000
381 0 +1.379826018e+002 +1.852626018e+002 +1.852626018e+002 +2.4791e+000 -1.1610e+000 +3.2687e+000
389 0 +9.060643043e+001 +1.378864304e+002 +1.378864304e+002 -1.2737e+000 -5.6198e-001 +3.2677e+000
397 0 +7.668010791e+001 +1.239601079e+002 +1.239601079e+002 -1.4174e+000 -6.1895e-001 +3.2667e+000
418 0 +5.468510634e+001 +1.019651063e+002 +1.019651063e+002 -2.5806e+000 -6.6140e-001 +3.2710e+000
446 0 +4.573306861e+001 +9.301306861e+001 +9.301306861e+001 -6.2046e-001 -7.0020e-001 +3.2741e+000
457 0 +2.553856159e+000 +4.983385616e+001 +4.983385616e+001 +5.0000e+000 -8.2872e-001 +3.2701e+000
472 0 +2.139181421e+000 +4.941918142e+001 +4.941918142e+001 +5.0000e+000 -7.9808e-001 +3.2701e+000
476 0 +1.459656341e+000 +4.873965634e+001 +4.873965634e+001 +2.9355e+000 -7.7556e-001 +3.2707e+000
520 0 +9.148210755e-001 +4.819482108e+001 +4.819482108e+001 +3.0321e+000 -8.2878e-001 +3.2706e+000
538 0 +3.491967915e-001 +4.762919679e+001 +4.762919679e+001 +3.5499e+000 -8.1607e-001 +3.2700e+000
577 0 +3.376312281e-001 +4.761763123e+001 +4.761763123e+001 +3.2800e+000 -8.0141e-001 +3.2701e+000
593 0 +2.819760712e-001 +4.756197607e+001 +4.756197607e+001 +3.4405e+000 -7.9689e-001 +3.2701e+000
594 0 +1.658503549e-001 +4.744585035e+001 +4.744585035e+001 +3.4883e+000 -8.0048e-001 +3.2701e+000
595 0 +1.505912396e-001 +4.743059124e+001 +4.743059124e+001 +4.0440e+000 -8.0987e-001 +3.2705e+000
606 0 +1.355725412e-001 +4.741557254e+001 +4.741557254e+001 +3.5173e+000 -8.0097e-001 +3.2701e+000
613 0 +8.581927588e-002 +4.736581928e+001 +4.736581928e+001 +3.6767e+000 -8.1538e-001 +3.2703e+000
625 0 +7.200177582e-002 +4.735200178e+001 +4.735200178e+001 +3.8168e+000 -8.0174e-001 +3.2702e+000
629 0 +4.925373136e-002 +4.732925373e+001 +4.732925373e+001 +3.5850e+000 -8.0827e-001 +3.2702e+000
637 0 +4.620617559e-002 +4.732620618e+001 +4.732620618e+001 +3.5970e+000 -8.0880e-001 +3.2702e+000
646 0 +2.908156982e-002 +4.730908157e+001 +4.730908157e+001 +3.5591e+000 -8.0476e-001 +3.2703e+000
667 0 +7.668956217e-003 +4.728766896e+001 +4.728766896e+001 +3.6497e+000 -8.0880e-001 +3.2704e+000
674 0 +6.590560237e-004 +4.728065906e+001 +4.728065906e+001 +3.6990e+000 -8.0567e-001 +3.2704e+000
711 0 +4.163149164e-004 +4.728041631e+001 +4.728041631e+001 +3.7063e+000 -8.0590e-001 +3.2704e+000
718 0 +1.514464595e-004 +4.728015145e+001 +4.728015145e+001 +3.6838e+000 -8.0618e-001 +3.2704e+000
749 0 +1.066989626e-005 +4.728001067e+001 +4.728001067e+001 +3.6965e+000 -8.0639e-001 +3.2704e+000
760 0 +6.811984520e-006 +4.728000681e+001 +4.728000681e+001 +3.6945e+000 -8.0634e-001 +3.2704e+000
764 0 +3.687026783e-006 +4.728000369e+001 +4.728000369e+001 +3.6950e+000 -8.0635e-001 +3.2704e+000
819 0 +2.510114598e-006 +4.728000251e+001 +4.728000251e+001 +3.6958e+000 -8.0643e-001 +3.2704e+000
823 0 +5.283989495e-007 +4.728000053e+001 +4.728000053e+001 +3.6943e+000 -8.0642e-001 +3.2704e+000
847 0 +7.307455974e-009 +4.728000001e+001 +4.728000001e+001 +3.6945e+000 -8.0640e-001 +3.2704e+000
% f evaluations | g evaluations | best noise-free fitness - Fopt (-5.688800000000e+002) + sum g_i+ | measured fitness | best measured fitness or single-digit g-values | x1 | x2...
1 0 +7.459386494e+002 +1.770586494e+002 +1.770586494e+002 -2.3683e+000 -1.7870e+000 -1.2775e+000
85 0 +2.541137414e+002 -3.147662586e+002 -3.147662586e+002 -2.3683e+000 -2.2471e+000 -1.2515e+000
122 0 +5.869605095e+001 -5.101839491e+002 -5.101839491e+002 -2.5310e+000 -2.4594e+000 -1.2577e+000
259 0 +4.242140426e+001 -5.264585957e+002 -5.264585957e+002 -2.5790e+000 -2.5506e+000 -1.2592e+000
273 0 +2.338567984e+001 -5.454943202e+002 -5.454943202e+002 +5.0000e+000 -2.4101e+000 -1.2633e+000
329 0 +1.635800073e+001 -5.525219993e+002 -5.525219993e+002 +2.3531e+000 -2.4101e+000 -1.2633e+000
351 0 +1.317907985e+001 -5.557009201e+002 -5.557009201e+002 +1.4452e+000 -2.4422e+000 -1.2639e+000
372 0 +6.840556293e+000 -5.620394437e+002 -5.620394437e+002 +7.2029e-001 -2.4889e+000 -1.2634e+000
374 0 +4.685040156e-001 -5.684114960e+002 -5.684114960e+002 +3.0460e+000 -2.5453e+000 -1.2635e+000
402 0 +3.361941548e-001 -5.685438058e+002 -5.685438058e+002 +2.5669e+000 -2.5598e+000 -1.2633e+000
417 0 +2.700744590e-001 -5.686099255e+002 -5.686099255e+002 +2.5220e+000 -2.5583e+000 -1.2633e+000
436 0 +6.732770141e-002 -5.688126723e+002 -5.688126723e+002 +2.3814e+000 -2.5400e+000 -1.2630e+000
442 0 +6.003936445e-002 -5.688199606e+002 -5.688199606e+002 +2.3905e+000 -2.5436e+000 -1.2630e+000
466 0 +3.602871752e-002 -5.688439713e+002 -5.688439713e+002 +2.3095e+000 -2.5400e+000 -1.2632e+000
470 0 +1.996675738e-002 -5.688600332e+002 -5.688600332e+002 +2.3780e+000 -2.5390e+000 -1.2632e+000
487 0 +1.380549181e-003 -5.688786195e+002 -5.688786195e+002 +2.4828e+000 -2.5434e+000 -1.2632e+000
526 0 +2.718001664e-004 -5.688797282e+002 -5.688797282e+002 +2.4569e+000 -2.5422e+000 -1.2632e+000
563 0 +1.272507558e-004 -5.688798727e+002 -5.688798727e+002 +2.4703e+000 -2.5422e+000 -1.2632e+000
591 0 +3.858368893e-005 -5.688799614e+002 -5.688799614e+002 +2.4708e+000 -2.5424e+000 -1.2632e+000
645 0 +3.236279599e-005 -5.688799676e+002 -5.688799676e+002 +2.4718e+000 -2.5422e+000 -1.2632e+000
660 0 +2.766408795e-005 -5.688799723e+002 -5.688799723e+002 +2.4723e+000 -2.5422e+000 -1.2632e+000
663 0 +6.390565659e-007 -5.688799994e+002 -5.688799994e+002 +2.4725e+000 -2.5424e+000 -1.2632e+000
729 0 +5.451744300e-007 -5.688799995e+002 -5.688799995e+002 +2.4716e+000 -2.5424e+000 -1.2632e+000
735 0 +1.353707830e-007 -5.688799999e+002 -5.688799999e+002 +2.4720e+000 -2.5424e+000 -1.2632e+000
745 0 +1.285876579e-007 -5.688799999e+002 -5.688799999e+002 +2.4717e+000 -2.5424e+000 -1.2632e+000
762 0 +4.635887763e-008 -5.688800000e+002 -5.688800000e+002 +2.4720e+000 -2.5424e+000 -1.2632e+000
783 0 +4.497405826e-008 -5.688800000e+002 -5.688800000e+002 +2.4720e+000 -2.5424e+000 -1.2632e+000
849 0 +4.204878223e-008 -5.688800000e+002 -5.688800000e+002 +2.4720e+000 -2.5424e+000 -1.2632e+000
869 0 +1.013358997e-008 -5.688800000e+002 -5.688800000e+002 +2.4721e+000 -2.5424e+000 -1.2632e+000
895 0 +5.205038178e-009 -5.688800000e+002 -5.688800000e+002 +2.4720e+000 -2.5424e+000 -1.2632e+000
% f evaluations | g evaluations | best noise-free fitness - Fopt (2.069000000000e+001) + sum g_i+ | measured fitness | best measured fitness or single-digit g-values | x1 | x2...
1 0 +1.587733015e+007 +1.587735084e+007 +1.587735084e+007 +4.1995e+000 +3.7852e+000 -2.4381e+000
2 0 +8.698444321e+006 +8.698465011e+006 +8.698465011e+006 +3.6105e+000 +8.8237e-001 -1.4864e+000
6 0 +2.170412440e+005 +2.170619340e+005 +2.170619340e+005 +1.7023e+000 -4.3165e+000 +1.0996e+000
8 0 +1.409562976e+004 +1.411631976e+004 +1.411631976e+004 +8.1110e-001 -1.4487e+000 +1.6319e+000
29 0 +1.311225378e+004 +1.313294378e+004 +1.313294378e+004 -1.0364e+000 +3.6207e+000 +1.4955e+000
38 0 +1.263191629e+004 +1.265260629e+004 +1.265260629e+004 -1.0364e+000 +3.6207e+000 +1.5008e+000
44 0 +1.193551762e+004 +1.195620762e+004 +1.195620762e+004 -1.4019e+000 +3.6207e+000 +1.5114e+000
60 0 +1.027456227e+002 +1.234356227e+002 +1.234356227e+002 +4.3391e+000 +2.0490e-001 +1.5232e+000
88 0 +8.993148261e+001 +1.106214826e+002 +1.106214826e+002 +4.4810e+000 -8.8043e-003 +1.5252e+000
100 0 +8.699346334e+001 +1.076834633e+002 +1.076834633e+002 +2.7702e+000 -1.1378e-002 +1.5255e+000
130 0 +6.413452399e+001 +8.482452399e+001 +8.482452399e+001 +1.5057e+000 +2.0948e-001 +1.5255e+000
321 0 +2.086953103e+001 +4.155953103e+001 +4.155953103e+001 +1.6063e+000 +2.8470e-001 +1.5338e+000
332 0 +6.646864011e+000 +2.733686401e+001 +2.733686401e+001 +1.8687e+000 +1.3542e-001 +1.5320e+000
408 0 +5.281619724e+000 +2.597161972e+001 +2.597161972e+001 +2.1179e+000 +1.7439e-001 +1.5349e+000
409 0 +2.182393119e+000 +2.287239312e+001 +2.287239312e+001 +2.7488e+000 +1.2340e-001 +1.5338e+000
460 0 +2.078207598e+000 +2.276820760e+001 +2.276820760e+001 +2.7939e+000 +1.2387e-001 +1.5339e+000
466 0 +1.475768110e+000 +2.216576811e+001 +2.216576811e+001 +2.8305e+000 +1.3431e-001 +1.5340e+000
473 0 +1.244516331e+000 +2.193451633e+001 +2.193451633e+001 +2.8781e+000 +1.4067e-001 +1.5341e+000
490 0 +7.338522700e-001 +2.142385227e+001 +2.142385227e+001 +2.9123e+000 +1.5560e-001 +1.5336e+000
496 0 +6.547268700e-001 +2.134472687e+001 +2.134472687e+001 +2.9500e+000 +1.5564e-001 +1.5336e+000
498 0 +5.990912016e-001 +2.128909120e+001 +2.128909120e+001 +2.9805e+000 +1.5568e-001 +1.5336e+000
500 0 +4.702971042e-001 +2.116029710e+001 +2.116029710e+001 +3.1117e+000 +1.4549e-001 +1.5337e+000
501 0 +3.216299287e-001 +2.101162993e+001 +2.101162993e+001 +3.3748e+000 +1.4217e-001 +1.5336e+000
519 0 +1.155101911e-001 +2.080551019e+001 +2.080551019e+001 +4.1105e+000 +1.5177e-001 +1.5337e+000
524 0 +9.437801122e-002 +2.078437801e+001 +2.078437801e+001 +4.0803e+000 +1.5041e-001 +1.5337e+000
526 0 +7.822790548e-002 +2.076822791e+001 +2.076822791e+001 +4.0725e+000 +1.5564e-001 +1.5336e+000
551 0 +4.170239243e-003 +2.069417024e+001 +2.069417024e+001 +3.8695e+000 +1.5296e-001 +1.5336e+000
681 0 +1.859378227e-003 +2.069185938e+001 +2.069185938e+001 +3.8398e+000 +1.5309e-001 +1.5336e+000
696 0 +3.064500786e-004 +2.069030645e+001 +2.069030645e+001 +3.7892e+000 +1.5367e-001 +1.5336e+000
744 0 +1.744979297e-004 +2.069017450e+001 +2.069017450e+001 +3.8154e+000 +1.5381e-001 +1.5336e+000
762 0 +1.708799723e-004 +2.069017088e+001 +2.069017088e+001 +3.8154e+000 +1.5380e-001 +1.5336e+000
772 0 +1.363347043e-004 +2.069013633e+001 +2.069013633e+001 +3.8172e+000 +1.5358e-001 +1.5336e+000
791 0 +1.047026302e-004 +2.069010470e+001 +2.069010470e+001 +3.8028e+000 +1.5367e-001 +1.5336e+000
794 0 +5.789977610e-006 +2.069000579e+001 +2.069000579e+001 +3.8069e+000 +1.5354e-001 +1.5336e+000
803 0 +5.168315084e-006 +2.069000517e+001 +2.069000517e+001 +3.8046e+000 +1.5357e-001 +1.5336e+000
817 0 +1.207131962e-006 +2.069000121e+001 +2.069000121e+001 +3.8053e+000 +1.5359e-001 +1.5336e+000
830 0 +9.317187200e-007 +2.069000093e+001 +2.069000093e+001 +3.8053e+000 +1.5360e-001 +1.5336e+000
861 0 +8.112953651e-007 +2.069000081e+001 +2.069000081e+001 +3.8065e+000 +1.5360e-001 +1.5336e+000
863 0 +1.366238429e-007 +2.069000014e+001 +2.069000014e+001 +3.8059e+000 +1.5360e-001 +1.5336e+000
864 0 +3.985006103e-008 +2.069000004e+001 +2.069000004e+001 +3.8056e+000 +1.5360e-001 +1.5336e+000
867 0 +2.483935901e-008 +2.069000002e+001 +2.069000002e+001 +3.8056e+000 +1.5360e-001 +1.5336e+000
873 0 +2.036357216e-008 +2.069000002e+001 +2.069000002e+001 +3.8056e+000 +1.5360e-001 +1.5336e+000
875 0 +1.117930282e-008 +2.069000001e+001 +2.069000001e+001 +3.8056e+000 +1.5360e-001 +1.5336e+000
881 0 +5.351729726e-009 +2.069000001e+001 +2.069000001e+001 +3.8056e+000 +1.5360e-001 +1.5336e+000
% f evaluations | g evaluations | best noise-free fitness - Fopt (5.616700000000e+002) + sum g_i+ | measured fitness | best measured fitness or single-digit g-values | x1 | x2...
1 0 +8.460242413e+006 +8.460804083e+006 +8.460804083e+006 -2.8650e+000 +2.4881e+000 +5.6956e-001
3 0 +1.020471092e+006 +1.021032762e+006 +1.021032762e+006 -2.2362e+000 -3.6484e+000 -3.3653e+000
8 0 +5.407841740e+005 +5.413458440e+005 +5.413458440e+005 +9.3911e-001 +5.0000e+000 -1.5973e+000
10 0 +1.663210870e+004 +1.719377870e+004 +1.719377870e+004 +5.0000e+000 +5.1252e-001 -2.2312e+000
12 0 +3.916973923e+003 +4.478643923e+003 +4.478643923e+003 -5.0000e+000 +1.3655e+000 -2.4025e+000
18 0 +9.008461571e+002 +1.462516157e+003 +1.462516157e+003 +5.9188e-002 +4.0126e-001 -2.3391e+000
20 0 +6.741423912e+002 +1.235812391e+003 +1.235812391e+003 -8.8816e-001 +5.6822e-001 -2.3491e+000
24 0 +4.196929530e+002 +9.813629530e+002 +9.813629530e+002 -1.8017e+000 +3.4304e-001 -2.3475e+000
61 0 +8.963465112e+001 +6.513046511e+002 +6.513046511e+002 -2.5981e+000 +1.6973e-001 -2.3617e+000
137 0 +3.102934738e+001 +5.926993474e+002 +5.926993474e+002 -1.9871e+000 -5.6414e-002 -2.3571e+000
177 0 +2.130095119e+001 +5.829709512e+002 +5.829709512e+002 -1.9121e+000 -1.6150e-001 -2.3583e+000
267 0 +1.529938820e+001 +5.769693882e+002 +5.769693882e+002 -2.2329e+000 -1.5119e-001 -2.3659e+000
367 0 +8.739867829e+000 +5.704098678e+002 +5.704098678e+002 -2.0888e+000 -1.9917e-001 -2.3643e+000
374 0 +4.364488182e+000 +5.660344882e+002 +5.660344882e+002 -2.1922e+000 -1.4212e-001 -2.3644e+000
384 0 +3.876070730e+000 +5.655460707e+002 +5.655460707e+002 -2.1936e+000 -1.4222e-001 -2.3642e+000
430 0 +5.756008729e-001 +5.622456009e+002 +5.622456009e+002 -1.1229e+000 -1.0751e-001 -2.3626e+000
443 0 +5.185613943e-001 +5.621885614e+002 +5.621885614e+002 -9.6966e-001 -1.1645e-001 -2.3625e+000
457 0 +1.870262358e-001 +5.618570262e+002 +5.618570262e+002 -2.0751e+000 -1.2102e-001 -2.3626e+000
493 0 +1.522621760e-001 +5.618222622e+002 +5.618222622e+002 -1.9736e+000 -1.2159e-001 -2.3621e+000
522 0 +1.511515494e-001 +5.618211515e+002 +5.618211515e+002 -1.9741e+000 -1.2188e-001 -2.3621e+000
527 0 +8.790269679e-002 +5.617579027e+002 +5.617579027e+002 -1.9077e+000 -1.1557e-001 -2.3623e+000
573 0 +7.263654916e-002 +5.617426365e+002 +5.617426365e+002 -1.8795e+000 -1.1722e-001 -2.3622e+000
577 0 +4.597892424e-002 +5.617159789e+002 +5.617159789e+002 -1.9127e+000 -1.1995e-001 -2.3624e+000
581 0 +4.229994693e-002 +5.617122999e+002 +5.617122999e+002 -1.8980e+000 -1.1887e-001 -2.3624e+000
619 0 +3.658453878e-002 +5.617065845e+002 +5.617065845e+002 -1.8601e+000 -1.1688e-001 -2.3624e+000
623 0 +6.731016432e-003 +5.616767310e+002 +5.616767310e+002 -1.6527e+000 -1.1952e-001 -2.3625e+000
648 0 +1.481907521e-003 +5.616714819e+002 +5.616714819e+002 -1.7045e+000 -1.2045e-001 -2.3624e+000
655 0 +6.413579114e-004 +5.616706414e+002 +5.616706414e+002 -1.6821e+000 -1.1964e-001 -2.3624e+000
686 0 +5.296823189e-004 +5.616705297e+002 +5.616705297e+002 -1.6870e+000 -1.2003e-001 -2.3624e+000
695 0 +3.178266534e-004 +5.616703178e+002 +5.616703178e+002 -1.6918e+000 -1.2044e-001 -2.3624e+000
696 0 +9.861790227e-005 +5.616700986e+002 +5.616700986e+002 -1.6917e+000 -1.2003e-001 -2.3624e+000
703 0 +8.566144493e-005 +5.616700857e+002 +5.616700857e+002 -1.6927e+000 -1.2012e-001 -2.3624e+000
708 0 +4.232044842e-005 +5.616700423e+002 +5.616700423e+002 -1.7063e+000 -1.2009e-001 -2.3624e+000
717 0 +9.309864254e-006 +5.616700093e+002 +5.616700093e+002 -1.7004e+000 -1.2006e-001 -2.3624e+000
733 0 +2.327659786e-006 +5.616700023e+002 +5.616700023e+002 -1.6995e+000 -1.1997e-001 -2.3624e+000
745 0 +1.428862902e-006 +5.616700014e+002 +5.616700014e+002 -1.6999e+000 -1.1997e-001 -2.3624e+000
760 0 +8.299501815e-007 +5.616700008e+002 +5.616700008e+002 -1.7015e+000 -1.2001e-001 -2.3624e+000
791 0 +6.981373417e-007 +5.616700007e+002 +5.616700007e+002 -1.7015e+000 -1.2001e-001 -2.3624e+000
804 0 +4.151440862e-007 +5.616700004e+002 +5.616700004e+002 -1.7013e+000 -1.2001e-001 -2.3624e+000
825 0 +2.051782531e-007 +5.616700002e+002 +5.616700002e+002 -1.7011e+000 -1.2000e-001 -2.3624e+000
893 0 +6.205539194e-008 +5.616700001e+002 +5.616700001e+002 -1.7009e+000 -1.2000e-001 -2.3624e+000
902 0 +5.614731435e-008 +5.616700001e+002 +5.616700001e+002 -1.7010e+000 -1.2000e-001 -2.3624e+000
905 0 +4.391404218e-008 +5.616700000e+002 +5.616700000e+002 -1.7010e+000 -1.2000e-001 -2.3624e+000
937 0 +3.563059181e-008 +5.616700000e+002 +5.616700000e+002 -1.7006e+000 -1.2000e-001 -2.3624e+000
945 0 +1.137198069e-008 +5.616700000e+002 +5.616700000e+002 -1.7007e+000 -1.2000e-001 -2.3624e+000
952 0 +8.003894436e-009 +5.616700000e+002 +5.616700000e+002 -1.7008e+000 -1.2000e-001 -2.3624e+000
