% f evaluations | g evaluations | best noise-free fitness - Fopt (4.078000000000e+001) + sum g_i+ | measured fitness | best measured fitness or single-digit g-values | x1 | x2...
1 0 +7.370595618e+000 +4.815059562e+001 +4.815059562e+001 +2.5199e-001 +6.0780e-001
2 0 +4.847266684e+000 +4.562726668e+001 +4.562726668e+001 -2.7685e+000 +4.5032e+000
3 0 +1.127446978e+000 +4.190744698e+001 +4.190744698e+001 +4.1746e+000 +5.0232e-001
17 0 +5.117143814e-002 +4.083117144e+001 +4.083117144e+001 -2.2604e+000 -1.4493e+000
57 0 +5.151186084e-003 +4.078515119e+001 +4.078515119e+001 -2.6724e+000 -1.8247e+000
59 0 +6.444681092e-004 +4.078064447e+001 +4.078064447e+001 -2.5632e+000 -1.8746e+000
83 0 +7.979945336e-005 +4.078007980e+001 +4.078007980e+001 -2.5580e+000 -1.8493e+000
98 0 +2.683039170e-005 +4.078002683e+001 +4.078002683e+001 -2.5103e+000 -1.7596e+000
128 0 +3.191811338e-006 +4.078000319e+001 +4.078000319e+001 -2.4810e+000 -1.7512e+000
156 0 +1.823475159e-006 +4.078000182e+001 +4.078000182e+001 -2.5051e+000 -1.7674e+000
174 0 +5.958105334e-007 +4.078000060e+001 +4.078000060e+001 -2.4932e+000 -1.7638e+000
192 0 +5.483836603e-007 +4.078000055e+001 +4.078000055e+001 -2.4918e+000 -1.7633e+000
205 0 +3.442681873e-007 +4.078000034e+001 +4.078000034e+001 -2.4881e+000 -1.7642e+000
207 0 +2.449629406e-007 +4.078000024e+001 +4.078000024e+001 -2.4898e+000 -1.7660e+000
212 0 +3.370296042e-008 +4.078000003e+001 +4.078000003e+001 -2.5225e+000 -1.7971e+000
219 0 +1.047041565e-009 +4.078000000e+001 +4.078000000e+001 -2.5091e+000 -1.7841e+000
% f evaluations | g evaluations | best noise-free fitness - Fopt (-1.600000000000e+000) + sum g_i+ | measured fitness | best measured fitness or single-digit g-values | x1 | x2...
1 0 +1.817702153e+001 +1.657702153e+001 +1.657702153e+001 -2.0872e-001 -1.1257e+000
2 0 +6.075003393e+000 +4.475003393e+000 +4.475003393e+000 -1.1990e+000 -1.9803e+000
6 0 +5.029821929e+000 +3.429821929e+000 +3.429821929e+000 -2.2642e-001 -5.0000e+000
7 0 +2.574233579e+000 +9.742335793e-001 +9.742335793e-001 -3.1068e+000 -2.2778e+000
11 0 +1.809964946e+000 +2.099649462e-001 +2.099649462e-001 -3.9821e+000 +3.4968e+000
89 0 +1.296337286e+000 -3.036627143e-001 -3.036627143e-001 -2.7013e+000 -2.2349e+000
90 0 +1.106306089e+000 -4.936939108e-001 -4.936939108e-001 -2.7437e+000 -2.1475e+000
118 0 +1.006393944e+000 -5.936060556e-001 -5.936060556e-001 -2.7132e+000 -2.0841e+000
125 0 +9.521032171e-001 -6.478967829e-001 -6.478967829e-001 -2.7285e+000 -2.0147e+000
218 0 +9.303799187e-001 -6.696200813e-001 -6.696200813e-001 -2.7115e+000 -1.9555e+000
585 0 +7.864615531e-001 -8.135384469e-001 -8.135384469e-001 +1.1875e+000 -1.7517e+000
609 0 +4.850144523e-001 -1.114985548e+000 -1.114985548e+000 +4.7823e-002 -1.8277e+000
629 0 +2.782638228e-001 -1.321736177e+000 -1.321736177e+000 +8.4245e-001 -1.8055e+000
630 0 +2.093178230e-001 -1.390682177e+000 -1.390682177e+000 +6.5648e-001 -1.8148e+000
639 0 +2.025095544e-001 -1.397490446e+000 -1.397490446e+000 +3.9637e-001 -1.8321e+000
651 0 +1.741301674e-001 -1.425869833e+000 -1.425869833e+000 +5.5463e-001 -1.8260e+000
658 0 +1.516009940e-001 -1.448399006e+000 -1.448399006e+000 +7.8579e-001 -1.8267e+000
662 0 +9.220561640e-002 -1.507794384e+000 -1.507794384e+000 +8.7493e-001 -1.8560e+000
664 0 +4.761063160e-002 -1.552389368e+000 -1.552389368e+000 +7.6956e-001 -1.8803e+000
673 0 +2.902324335e-002 -1.570976757e+000 -1.570976757e+000 +1.5016e+000 -1.9492e+000
674 0 +1.684786069e-002 -1.583152139e+000 -1.583152139e+000 +1.1126e+000 -1.9129e+000
678 0 +1.506688796e-002 -1.584933112e+000 -1.584933112e+000 +1.0785e+000 -1.9151e+000
682 0 +1.901292502e-003 -1.598098707e+000 -1.598098707e+000 +9.9606e-001 -1.9532e+000
706 0 +6.562734279e-006 -1.599993437e+000 -1.599993437e+000 +1.0732e+000 -1.9995e+000
714 0 +4.853911251e-008 -1.599999951e+000 -1.599999951e+000 +1.1061e+000 -2.0111e+000
716 0 +2.181212988e-008 -1.599999978e+000 -1.599999978e+000 +1.1150e+000 -2.0093e+000
718 0 +2.996174642e-009 -1.599999997e+000 -1.599999997e+000 +1.1289e+000 -2.0145e+000
% f evaluations | g evaluations | best noise-free fitness - Fopt (-3.708400000000e+002) + sum g_i+ | measured fitness | best measured fitness or single-digit g-values | x1 | x2...
1 0 +2.644396220e+001 -3.443960378e+002 -3.443960378e+002 +4.2467e+000 +8.8475e-001
2 0 +3.306144829e+000 -3.675338552e+002 -3.675338552e+002 +4.9761e+000 +4.7741e+000
17 0 +7.436682218e-001 -3.700963318e+002 -3.700963318e+002 +1.9750e+000 -2.1343e-001
24 0 +4.988209739e-001 -3.703411790e+002 -3.703411790e+002 +1.9166e+000 -3.2265e-001
26 0 +4.765813743e-001 -3.703634186e+002 -3.703634186e+002 +2.2601e+000 -3.2265e-001
37 0 +1.919356421e-001 -3.706480644e+002 -3.706480644e+002 +2.1748e+000 -4.8277e-001
48 0 +2.423071029e-002 -3.708157693e+002 -3.708157693e+002 +2.6885e+000 -5.7043e-001
62 0 +8.965174147e-004 -3.708391035e+002 -3.708391035e+002 +2.9024e+000 -7.0307e-001
82 0 +6.930486892e-004 -3.708393070e+002 -3.708393070e+002 +2.8958e+000 -7.2380e-001
89 0 +1.519960006e-005 -3.708399848e+002 -3.708399848e+002 +3.0318e+000 -7.7224e-001
111 0 +1.435940624e-005 -3.708399856e+002 -3.708399856e+002 +3.0665e+000 -7.7581e-001
146 0 +8.147986819e-006 -3.708399919e+002 -3.708399919e+002 +3.0521e+000 -7.7507e-001
147 0 +6.985812092e-006 -3.708399930e+002 -3.708399930e+002 +3.1494e+000 -8.0855e-001
150 0 +6.402186500e-006 -3.708399936e+002 -3.708399936e+002 +3.0755e+000 -7.8220e-001
151 0 +1.617208511e-006 -3.708399984e+002 -3.708399984e+002 +3.0665e+000 -7.9291e-001
153 0 +2.818115945e-007 -3.708399997e+002 -3.708399997e+002 +3.0830e+000 -7.9529e-001
165 0 +8.027029708e-009 -3.708400000e+002 -3.708400000e+002 +3.1077e+000 -8.0388e-001
% f evaluations | g evaluations | best noise-free fitness - Fopt (-3.256000000000e+001) + sum g_i+ | measured fitness | best measured fitness or single-digit g-values | x1 | x2...
1 0 +1.618592537e+001 -1.637407463e+001 -1.637407463e+001 +1.6786e+000 -4.0775e+000
2 0 +1.107201303e+001 -2.148798697e+001 -2.148798697e+001 +3.6212e+000 -1.6877e+000
6 0 +7.605458076e+000 -2.495454192e+001 -2.495454192e+001 +2.8558e+000 -1.3557e+000
13 0 +7.285906917e+000 -2.527409308e+001 -2.527409308e+001 -1.9065e+000 +3.0222e+000
20 0 +2.405347059e+000 -3.015465294e+001 -3.015465294e+001 -5.0000e+000 +3.0290e+000
28 0 +1.893785139e+000 -3.066621486e+001 -3.066621486e+001 +1.2809e+000 +1.2313e+000
51 0 +1.414983640e+000 -3.114501636e+001 -3.114501636e+001 +1.3254e+000 +1.3153e+000
60 0 +9.224795888e-001 -3.163752041e+001 -3.163752041e+001 -4.8113e+000 +3.3404e+000
107 0 +7.261890397e-001 -3.183381096e+001 -3.183381096e+001 -4.7156e+000 +3.3848e+000
129 0 +7.043041428e-001 -3.185569586e+001 -3.185569586e+001 -4.6823e+000 +3.3725e+000
6198 0 +5.038612077e-002 -3.250961388e+001 -3.250961388e+001 +1.4465e+000 -2.7713e+000
6221 0 +3.090710871e-002 -3.252909289e+001 -3.252909289e+001 +1.5039e+000 -2.8290e+000
6240 0 +2.432603371e-002 -3.253567397e+001 -3.253567397e+001 +1.4764e+000 -2.8303e+000
6243 0 +2.347059976e-002 -3.253652940e+001 -3.253652940e+001 +1.4702e+000 -2.8306e+000
6266 0 +2.208621972e-002 -3.253791378e+001 -3.253791378e+001 +1.4420e+000 -2.8319e+000
6273 0 +2.101100276e-002 -3.253898900e+001 -3.253898900e+001 +1.4673e+000 -2.8819e+000
6275 0 +1.828821951e-002 -3.254171178e+001 -3.254171178e+001 +1.4451e+000 -2.9190e+000
6285 0 +1.308942050e-002 -3.254691058e+001 -3.254691058e+001 +1.4052e+000 -2.9209e+000
6302 0 +1.067629270e-002 -3.254932371e+001 -3.254932371e+001 +1.3611e+000 -3.0076e+000
6307 0 +8.274566559e-003 -3.255172543e+001 -3.255172543e+001 +1.3556e+000 -3.0039e+000
6316 0 +3.712885805e-003 -3.255628711e+001 -3.255628711e+001 +1.3225e+000 -3.0052e+000
6320 0 +3.217085231e-003 -3.255678291e+001 -3.255678291e+001 +1.2934e+000 -3.0374e+000
6322 0 +2.142767025e-003 -3.255785723e+001 -3.255785723e+001 +1.2722e+000 -3.0644e+000
6333 0 +9.956120059e-004 -3.255900439e+001 -3.255900439e+001 +1.2472e+000 -3.0824e+000
6339 0 +9.043234304e-004 -3.255909568e+001 -3.255909568e+001 +1.2390e+000 -3.0755e+000
6342 0 +7.940082006e-004 -3.255920599e+001 -3.255920599e+001 +1.2251e+000 -3.0901e+000
6346 0 +7.119132601e-004 -3.255928809e+001 -3.255928809e+001 +1.2202e+000 -3.0969e+000
6347 0 +5.462406119e-004 -3.255945376e+001 -3.255945376e+001 +1.2119e+000 -3.1002e+000
6356 0 +2.878188158e-004 -3.255971218e+001 -3.255971218e+001 +1.1875e+000 -3.1114e+000
6365 0 +1.587948819e-004 -3.255984121e+001 -3.255984121e+001 +1.1615e+000 -3.1662e+000
6373 0 +2.475429042e-006 -3.255999752e+001 -3.255999752e+001 +1.0262e+000 -3.2641e+000
6385 0 +8.021721953e-008 -3.255999992e+001 -3.255999992e+001 +1.0500e+000 -3.2482e+000
6458 0 +4.266543385e-008 -3.255999996e+001 -3.255999996e+001 +1.0374e+000 -3.2637e+000
6461 0 +1.184395160e-008 -3.255999999e+001 -3.255999999e+001 +1.0402e+000 -3.2618e+000
6462 0 +3.513733304e-009 -3.256000000e+001 -3.256000000e+001 +1.0585e+000 -3.2472e+000
% f evaluations | g evaluations | best noise-free fitness - Fopt (5.154000000000e+002) + sum g_i+ | measured fitness | best measured fitness or single-digit g-values | x1 | x2...
1 0 +1.052784553e+001 +5.259278455e+002 +5.259278455e+002 -2.6301e+000 +2.5511e+000
2 0 +8.660090534e+000 +5.240600905e+002 +5.240600905e+002 -3.2387e+000 +4.2644e+000
5 0 +1.517427329e-001 +5.155517427e+002 +5.155517427e+002 -2.5578e+000 -4.7363e-001
54 0 +1.245223058e-001 +5.155245223e+002 +5.155245223e+002 -2.6219e+000 -4.8763e-001
65 0 +1.018670232e-001 +5.155018670e+002 +5.155018670e+002 -2.6934e+000 -5.2260e-001
67 0 +9.032771103e-002 +5.154903277e+002 +5.154903277e+002 -2.6941e+000 -4.8929e-001
73 0 +6.297172874e-002 +5.154629717e+002 +5.154629717e+002 -2.7613e+000 -4.8470e-001
81 0 +1.490093877e-002 +5.154149009e+002 +5.154149009e+002 -3.0345e+000 -5.4386e-001
96 0 +1.364344020e-002 +5.154136434e+002 +5.154136434e+002 -3.1708e+000 -5.6158e-001
120 0 +3.965895537e-004 +5.154003966e+002 +5.154003966e+002 -3.2812e+000 -6.5519e-001
161 0 +3.102890969e-005 +5.154000310e+002 +5.154000310e+002 -3.5382e+000 -7.3193e-001
164 0 +2.588721964e-005 +5.154000259e+002 +5.154000259e+002 -3.5228e+000 -7.2730e-001
174 0 +1.458012662e-006 +5.154000015e+002 +5.154000015e+002 -3.4516e+000 -7.1357e-001
194 0 +1.427855977e-006 +5.154000014e+002 +5.154000014e+002 -3.4513e+000 -7.1357e-001
214 0 +8.276821291e-007 +5.154000008e+002 +5.154000008e+002 -3.4304e+000 -7.1385e-001
243 0 +5.940437404e-007 +5.154000006e+002 +5.154000006e+002 -3.4427e+000 -7.2459e-001
246 0 +5.546382909e-008 +5.154000001e+002 +5.154000001e+002 -3.4505e+000 -7.2072e-001
285 0 +4.938601705e-008 +5.154000000e+002 +5.154000000e+002 -3.4533e+000 -7.2072e-001
310 0 +4.866467407e-008 +5.154000000e+002 +5.154000000e+002 -3.4525e+000 -7.2095e-001
312 0 +1.636283287e-008 +5.154000000e+002 +5.154000000e+002 -3.4843e+000 -7.3469e-001
317 0 +1.515491022e-008 +5.154000000e+002 +5.154000000e+002 -3.4838e+000 -7.3456e-001
318 0 +1.225282631e-008 +5.154000000e+002 +5.154000000e+002 -3.4856e+000 -7.3439e-001
322 0 +9.567884263e-009 +5.154000000e+002 +5.154000000e+002 -3.4833e+000 -7.3362e-001
400 0 +0.000000000e+000 +5.154000000e+002 +5.154000000e+002 -3.4725e+000 -7.2877e-001
% f evaluations | g evaluations | best noise-free fitness - Fopt (-8.628000000000e+001) + sum g_i+ | measured fitness | best measured fitness or single-digit g-values | x1 | x2...
1 0 +2.056961093e+001 -6.571038907e+001 -6.571038907e+001 -1.1033e+000 -3.6097e+000
2 0 +8.675625356e+000 -7.760437464e+001 -7.760437464e+001 -4.3553e+000 +1.6699e+000
6 0 +5.323797242e+000 -8.095620276e+001 -8.095620276e+001 -2.3293e+000 +5.0000e+000
10 0 +1.459419679e+000 -8.482058032e+001 -8.482058032e+001 -2.5599e+000 +5.0000e+000
29 0 +1.389609298e+000 -8.489039070e+001 -8.489039070e+001 -2.7701e+000 +5.0000e+000
32 0 +1.171150606e+000 -8.510884939e+001 -8.510884939e+001 -2.7430e+000 +5.0000e+000
44 0 +4.973534699e-001 -8.578264653e+001 -8.578264653e+001 -1.7611e+000 +1.3251e+000
46 0 +6.003354204e-002 -8.621996646e+001 -8.621996646e+001 -2.0348e+000 +1.8276e+000
75 0 +2.113350053e-002 -8.625886650e+001 -8.625886650e+001 -2.1922e+000 +2.1588e+000
78 0 +1.895879425e-002 -8.626104121e+001 -8.626104121e+001 -2.3060e+000 +2.3677e+000
79 0 +3.627811438e-003 -8.627637219e+001 -8.627637219e+001 -2.2684e+000 +2.2050e+000
118 0 +1.249040058e-003 -8.627875096e+001 -8.627875096e+001 -2.4713e+000 +2.5314e+000
120 0 +1.649551317e-004 -8.627983504e+001 -8.627983504e+001 -2.5462e+000 +2.5385e+000
134 0 +9.596493160e-005 -8.627990404e+001 -8.627990404e+001 -2.5335e+000 +2.5180e+000
172 0 +3.779200654e-005 -8.627996221e+001 -8.627996221e+001 -2.4404e+000 +2.4329e+000
176 0 +3.044154376e-005 -8.627996956e+001 -8.627996956e+001 -2.4411e+000 +2.4322e+000
192 0 +2.638417774e-005 -8.627997362e+001 -8.627997362e+001 -2.4350e+000 +2.4202e+000
212 0 +2.243734930e-005 -8.627997756e+001 -8.627997756e+001 -2.4315e+000 +2.4120e+000
219 0 +6.611342585e-006 -8.627999339e+001 -8.627999339e+001 -2.4422e+000 +2.4217e+000
229 0 +6.180484860e-006 -8.627999382e+001 -8.627999382e+001 -2.4123e+000 +2.3537e+000
231 0 +1.206827704e-007 -8.627999988e+001 -8.627999988e+001 -2.4575e+000 +2.4276e+000
234 0 +5.961412342e-008 -8.627999994e+001 -8.627999994e+001 -2.4387e+000 +2.3933e+000
246 0 +4.904713080e-008 -8.627999995e+001 -8.627999995e+001 -2.4401e+000 +2.3929e+000
270 0 +1.203220279e-008 -8.627999999e+001 -8.627999999e+001 -2.4434e+000 +2.3985e+000
295 0 +3.859810249e-010 -8.628000000e+001 -8.628000000e+001 -2.4549e+000 +2.4172e+000
343 0 +0.000000000e+000 -8.628000000e+001 -8.628000000e+001 -2.4523e+000 +2.4121e+000
% f evaluations | g evaluations | best noise-free fitness - Fopt (2.224000000000e+001) + sum g_i+ | measured fitness | best measured fitness or single-digit g-values | x1 | x2...
1 0 +1.204710293e+001 +3.428710293e+001 +3.428710293e+001 -2.7627e+000 -5.1332e-001
2 0 +5.658737116e+000 +2.789873712e+001 +2.789873712e+001 +5.2841e-001 -1.5324e-001
7 0 +2.481924773e+000 +2.472192477e+001 +2.472192477e+001 +3.4439e+000 +1.3926e+000
9 0 +1.623245314e+000 +2.386324531e+001 +2.386324531e+001 +2.0306e+000 +5.1301e-001
10 0 +4.581000481e-001 +2.269810005e+001 +2.269810005e+001 +1.5590e+000 +6.1410e-001
29 0 +4.466913074e-001 +2.268669131e+001 +2.268669131e+001 +2.0198e+000 +6.1765e-001
47 0 +1.420498176e-001 +2.238204982e+001 +2.238204982e+001 +1.7516e+000 +6.1558e-001
49 0 +1.330889651e-001 +2.237308897e+001 +2.237308897e+001 +2.0130e+000 +6.8462e-001
69 0 +9.639258866e-002 +2.233639259e+001 +2.233639259e+001 +1.8316e+000 +7.1641e-001
119 0 +5.271050758e-002 +2.229271051e+001 +2.229271051e+001 +1.9204e+000 +7.7225e-001
121 0 +1.855384677e-002 +2.225855385e+001 +2.225855385e+001 +2.0809e+000 +9.2119e-001
126 0 +1.772237832e-002 +2.225772238e+001 +2.225772238e+001 +2.0678e+000 +8.9694e-001
129 0 +1.520696443e-002 +2.225520696e+001 +2.225520696e+001 +2.1547e+000 +8.6276e-001
142 0 +1.109221827e-002 +2.225109222e+001 +2.225109222e+001 +2.1305e+000 +9.0867e-001
156 0 +9.620609666e-003 +2.224962061e+001 +2.224962061e+001 +2.1420e+000 +9.1034e-001
157 0 +3.831537538e-003 +2.224383154e+001 +2.224383154e+001 +2.2592e+000 +1.0413e+000
183 0 +1.267692813e-003 +2.224126769e+001 +2.224126769e+001 +2.3230e+000 +9.9880e-001
192 0 +1.154150314e-003 +2.224115415e+001 +2.224115415e+001 +2.3370e+000 +1.0049e+000
204 0 +9.569864710e-004 +2.224095699e+001 +2.224095699e+001 +2.4844e+000 +1.0821e+000
224 0 +3.315603676e-004 +2.224033156e+001 +2.224033156e+001 +2.6105e+000 +1.2595e+000
233 0 +2.573183897e-004 +2.224025732e+001 +2.224025732e+001 +2.5361e+000 +1.2144e+000
238 0 +2.285262145e-004 +2.224022853e+001 +2.224022853e+001 +2.5346e+000 +1.2117e+000
258 0 +3.671029999e-005 +2.224003671e+001 +2.224003671e+001 +2.5982e+000 +1.1967e+000
267 0 +3.388067680e-005 +2.224003388e+001 +2.224003388e+001 +2.5803e+000 +1.1815e+000
270 0 +6.544643103e-006 +2.224000654e+001 +2.224000654e+001 +2.4784e+000 +1.1244e+000
279 0 +1.817292667e-006 +2.224000182e+001 +2.224000182e+001 +2.5080e+000 +1.1434e+000
292 0 +4.456350169e-007 +2.224000045e+001 +2.224000045e+001 +2.5545e+000 +1.1832e+000
317 0 +1.839243211e-007 +2.224000018e+001 +2.224000018e+001 +2.5424e+000 +1.1730e+000
321 0 +1.326375596e-007 +2.224000013e+001 +2.224000013e+001 +2.5461e+000 +1.1806e+000
336 0 +1.983053721e-010 +2.224000000e+001 +2.224000000e+001 +2.5272e+000 +1.1680e+000
% f evaluations | g evaluations | best noise-free fitness - Fopt (-2.301000000000e+001) + sum g_i+ | measured fitness | best measured fitness or single-digit g-values | x1 | x2...
1 0 +6.937331450e+000 -1.607266855e+001 -1.607266855e+001 +5.6648e-001 -4.7817e+000
2 0 +1.386392149e+000 -2.162360785e+001 -2.162360785e+001 +1.7809e+000 +4.1739e+000
78 0 +1.357647030e+000 -2.165235297e+001 -2.165235297e+001 +2.1142e+000 +4.2950e+000
98 0 +1.148688691e+000 -2.186131131e+001 -2.186131131e+001 +1.9712e+000 +4.5069e+000
122 0 +1.049104411e+000 -2.196089559e+001 -2.196089559e+001 +2.1500e+000 +4.4653e+000
130 0 +9.836674004e-001 -2.202633260e+001 -2.202633260e+001 +1.9132e+000 +4.3186e+000
142 0 +9.301864256e-001 -2.207981357e+001 -2.207981357e+001 +1.9962e+000 +4.3914e+000
2164 0 +4.948786878e-001 -2.251512131e+001 -2.251512131e+001 +1.9977e+000 -3.1820e+000
2407 0 +6.483402776e-002 -2.294516597e+001 -2.294516597e+001 +2.6610e+000 -3.0655e+000
2409 0 +6.376849607e-002 -2.294623150e+001 -2.294623150e+001 +2.6598e+000 -3.0655e+000
2410 0 +1.452418339e-002 -2.299547582e+001 -2.299547582e+001 +2.4710e+000 -3.0756e+000
2446 0 +1.264822706e-002 -2.299735177e+001 -2.299735177e+001 +2.4916e+000 -3.0572e+000
2453 0 +8.906286863e-003 -2.300109371e+001 -2.300109371e+001 +2.5752e+000 -3.0271e+000
2454 0 +4.983967387e-003 -2.300501603e+001 -2.300501603e+001 +2.5351e+000 -2.9758e+000
2455 0 +3.307968969e-003 -2.300669203e+001 -2.300669203e+001 +2.6305e+000 -2.8943e+000
2472 0 +9.961024250e-004 -2.300900390e+001 -2.300900390e+001 +2.7741e+000 -2.8943e+000
2474 0 +8.737679678e-004 -2.300912623e+001 -2.300912623e+001 +2.7553e+000 -2.8978e+000
2481 0 +8.896395706e-005 -2.300991104e+001 -2.300991104e+001 +2.7558e+000 -2.8580e+000
2491 0 +3.192503426e-005 -2.300996807e+001 -2.300996807e+001 +2.9263e+000 -2.7227e+000
2497 0 +4.191947678e-006 -2.300999581e+001 -2.300999581e+001 +2.9276e+000 -2.7386e+000
2516 0 +2.268480124e-006 -2.300999773e+001 -2.300999773e+001 +2.9242e+000 -2.7423e+000
2538 0 +1.493567574e-006 -2.300999851e+001 -2.300999851e+001 +2.9025e+000 -2.7505e+000
2582 0 +1.179009129e-006 -2.300999882e+001 -2.300999882e+001 +2.9128e+000 -2.7556e+000
2596 0 +5.406402934e-007 -2.300999946e+001 -2.300999946e+001 +2.8403e+000 -2.7985e+000
2597 0 +4.271311873e-007 -2.300999957e+001 -2.300999957e+001 +2.8427e+000 -2.7972e+000
2606 0 +4.906640427e-008 -2.300999995e+001 -2.300999995e+001 +2.8926e+000 -2.7667e+000
2618 0 +1.415068951e-008 -2.300999999e+001 -2.300999999e+001 +2.8661e+000 -2.7792e+000
2647 0 +1.258310434e-008 -2.300999999e+001 -2.300999999e+001 +2.8636e+000 -2.7816e+000
2651 0 +4.103313245e-009 -2.301000000e+001 -2.301000000e+001 +2.8646e+000 -2.7835e+000
2751 0 +0.000000000e+000 -2.301000000e+001 -2.301000000e+001 +2.8746e+000 -2.7766e+000
% f evaluations | g evaluations | best noise-free fitness - Fopt (-3.323700000000e+002) + sum g_i+ | measured fitness | best measured fitness or single-digit g-values | x1 | x2...
1 0 +9.869729519e-005 -3.323699013e+002 -3.323699013e+002 +2.1778e-001 -3.3137e+000
74 0 +6.518391501e-006 -3.323699935e+002 -3.323699935e+002 +1.9852e-001 -3.3617e+000
110 0 +8.967766121e-007 -3.323699991e+002 -3.323699991e+002 +2.1006e-001 -3.3453e+000
148 0 +2.473517497e-007 -3.323699998e+002 -3.323699998e+002 +2.2437e-001 -3.3360e+000
158 0 +9.404419643e-008 -3.323699999e+002 -3.323699999e+002 +2.2821e-001 -3.3391e+000
176 0 +2.951139777e-009 -3.323700000e+002 -3.323700000e+002 +2.5078e-001 -3.3238e+000
% f evaluations | g evaluations | best noise-free fitness - Fopt (-1.231300000000e+002) + sum g_i+ | measured fitness | best measured fitness or single-digit g-values | x1 | x2...
1 0 +2.171964363e+001 -1.014103564e+002 -1.014103564e+002 -4.2203e+000 +2.6696e+000
2 0 +2.006190545e+001 -1.030680946e+002 -1.030680946e+002 -1.9141e+000 +1.1547e+000
4 0 +6.049918026e+000 -1.170800820e+002 -1.170800820e+002 +5.0000e+000 +5.0000e+000
5 0 +2.804171544e+000 -1.203258285e+002 -1.203258285e+002 +2.7498e+000 +4.5535e+000
9 0 +2.252779664e+000 -1.208772203e+002 -1.208772203e+002 +1.0136e+000 -1.0375e+000
47 0 +2.217501777e+000 -1.209124982e+002 -1.209124982e+002 +1.0342e+000 -4.2945e+000
60 0 +2.062131874e+000 -1.210678681e+002 -1.210678681e+002 +1.0485e+000 -4.1801e+000
64 0 +2.004781922e+000 -1.211252181e+002 -1.211252181e+002 +8.7825e-001 -4.1161e+000
761 0 +1.528468385e+000 -1.216015316e+002 -1.216015316e+002 +2.9603e+000 -7.5113e-001
803 0 +4.611908889e-001 -1.226688091e+002 -1.226688091e+002 +1.4881e+000 -1.2825e+000
821 0 +1.675990023e-001 -1.229624010e+002 -1.229624010e+002 +1.4145e+000 -1.3978e+000
860 0 +7.414343445e-002 -1.230558566e+002 -1.230558566e+002 +1.5989e+000 -1.3663e+000
878 0 +4.548635827e-002 -1.230845136e+002 -1.230845136e+002 +1.7601e+000 -1.2935e+000
891 0 +2.072577255e-002 -1.231092742e+002 -1.231092742e+002 +1.8725e+000 -1.3978e+000
902 0 +1.096517509e-002 -1.231190348e+002 -1.231190348e+002 +1.9375e+000 -1.2677e+000
903 0 +2.028640650e-003 -1.231279714e+002 -1.231279714e+002 +2.3805e+000 -1.1340e+000
918 0 +1.116286936e-003 -1.231288837e+002 -1.231288837e+002 +2.4034e+000 -1.1340e+000
926 0 +6.156646850e-004 -1.231293843e+002 -1.231293843e+002 +2.2232e+000 -1.1964e+000
934 0 +1.891748266e-004 -1.231298108e+002 -1.231298108e+002 +2.2139e+000 -1.2120e+000
937 0 +5.302356749e-005 -1.231299470e+002 -1.231299470e+002 +2.2752e+000 -1.1981e+000
938 0 +3.352723013e-005 -1.231299665e+002 -1.231299665e+002 +2.4034e+000 -1.1987e+000
951 0 +1.572316137e-005 -1.231299843e+002 -1.231299843e+002 +2.2441e+000 -1.2384e+000
967 0 +1.688191446e-006 -1.231299983e+002 -1.231299983e+002 +2.3440e+000 -1.1921e+000
993 0 +4.023615219e-007 -1.231299996e+002 -1.231299996e+002 +2.3547e+000 -1.1980e+000
1016 0 +3.430396589e-008 -1.231300000e+002 -1.231300000e+002 +2.3256e+000 -1.2095e+000
1029 0 +1.243219572e-008 -1.231300000e+002 -1.231300000e+002 +2.3263e+000 -1.2086e+000
1034 0 +1.022532103e-008 -1.231300000e+002 -1.231300000e+002 +2.3274e+000 -1.2077e+000
1039 0 +2.437161584e-010 -1.231300000e+002 -1.231300000e+002 +2.3230e+000 -1.2074e+000
% f evaluations | g evaluations | best noise-free fitness - Fopt (-1.537900000000e+002) + sum g_i+ | measured fitness | best measured fitness or single-digit g-values | x1 | x2...
1 0 +3.819993291e+001 -1.155900671e+002 -1.155900671e+002 +1.4236e+000 -4.9705e+000
2 0 +3.315752096e+000 -1.504742479e+002 -1.504742479e+002 +3.9838e+000 -1.2594e+000
5 0 +2.499668067e+000 -1.512903319e+002 -1.512903319e+002 +1.4166e+000 +1.4053e+000
25 0 +1.462731885e+000 -1.523272681e+002 -1.523272681e+002 +1.4166e+000 +1.8675e+000
112 0 +1.438357807e+000 -1.523516422e+002 -1.523516422e+002 +1.4141e+000 +1.8871e+000
117 0 +1.291955639e+000 -1.524980444e+002 -1.524980444e+002 +1.6061e+000 +2.1918e+000
143 0 +1.246138221e+000 -1.525438618e+002 -1.525438618e+002 +1.5306e+000 +2.1111e+000
1094 0 +1.163711543e-002 -1.537783629e+002 -1.537783629e+002 -1.7977e+000 +2.1250e+000
1180 0 +3.448134568e-003 -1.537865519e+002 -1.537865519e+002 -1.9144e+000 +2.1250e+000
1298 0 +1.921614547e-004 -1.537898078e+002 -1.537898078e+002 -2.2490e+000 +2.2835e+000
1301 0 +5.625888321e-006 -1.537899944e+002 -1.537899944e+002 -2.1602e+000 +2.2835e+000
1303 0 +1.747889087e-007 -1.537899998e+002 -1.537899998e+002 -2.1766e+000 +2.2835e+000
1305 0 +1.518730812e-007 -1.537899998e+002 -1.537899998e+002 -2.1773e+000 +2.2835e+000
1312 0 +1.016692579e-007 -1.537899999e+002 -1.537899999e+002 -2.1786e+000 +2.2835e+000
1313 0 +5.017611215e-008 -1.537899999e+002 -1.537899999e+002 -2.1812e+000 +2.2835e+000
1341 0 +4.379143093e-008 -1.537900000e+002 -1.537900000e+002 -2.1847e+000 +2.2835e+000
1375 0 +2.622329021e-009 -1.537900000e+002 -1.537900000e+002 -2.1926e+000 +2.2897e+000
1471 0 +0.000000000e+000 -1.537900000e+002 -1.537900000e+002 -2.2014e+000 +2.2934e+000
% f evaluations | g evaluations | best noise-free fitness - Fopt (-4.860000000000e+001) + sum g_i+ | measured fitness | best measured fitness or single-digit g-values | x1 | x2...
1 0 +5.780479724e+000 -4.281952028e+001 -4.281952028e+001 -4.6881e+000 -1.2120e+000
9 0 +3.891638624e+000 -4.470836138e+001 -4.470836138e+001 +4.1216e+000 -2.9562e+000
17 0 +3.299892263e+000 -4.530010774e+001 -4.530010774e+001 -4.4447e+000 +4.8541e+000
130 0 +3.173296431e+000 -4.542670357e+001 -4.542670357e+001 -4.8547e+000 -5.6429e-001
146 0 +3.161247139e+000 -4.543875286e+001 -4.543875286e+001 -4.8538e+000 -5.6598e-001
152 0 +3.090014730e+000 -4.550998527e+001 -4.550998527e+001 -4.8373e+000 -5.8131e-001
156 0 +2.551510758e+000 -4.604848924e+001 -4.604848924e+001 -4.9433e+000 -2.0719e+000
229 0 +2.511181690e+000 -4.608881831e+001 -4.608881831e+001 -4.9109e+000 -2.0365e+000
855 0 +2.039638432e+000 -4.656036157e+001 -4.656036157e+001 -3.9457e+000 -3.1953e+000
870 0 +1.939604749e+000 -4.666039525e+001 -4.666039525e+001 -3.9105e+000 -3.4949e+000
936 0 +1.417363058e+000 -4.718263694e+001 -4.718263694e+001 -3.6855e+000 -3.3168e+000
938 0 +1.379172336e+000 -4.722082766e+001 -4.722082766e+001 -3.6371e+000 -3.3031e+000
947 0 +1.210134353e+000 -4.738986565e+001 -4.738986565e+001 -3.6643e+000 -3.3813e+000
958 0 +9.377694919e-001 -4.766223051e+001 -4.766223051e+001 -3.5117e+000 -3.4826e+000
1002 0 +9.317994460e-001 -4.766820055e+001 -4.766820055e+001 -3.4627e+000 -3.4767e+000
1839 0 +5.312793486e-001 -4.806872065e+001 -4.806872065e+001 -3.1484e+000 -9.8284e-001
1840 0 +3.494662683e-001 -4.825053373e+001 -4.825053373e+001 -2.8417e+000 -1.4291e+000
1860 0 +2.051557493e-001 -4.839484425e+001 -4.839484425e+001 -3.0559e+000 -1.2863e+000
1863 0 +1.347699607e-001 -4.846523004e+001 -4.846523004e+001 -2.9969e+000 -1.2863e+000
1866 0 +3.582304815e-002 -4.856417695e+001 -4.856417695e+001 -2.7770e+000 -1.3262e+000
1897 0 +8.070649657e-003 -4.859192935e+001 -4.859192935e+001 -2.4832e+000 -1.3127e+000
1901 0 +7.019322529e-003 -4.859298068e+001 -4.859298068e+001 -2.4991e+000 -1.3127e+000
1903 0 +2.781799751e-003 -4.859721820e+001 -4.859721820e+001 -2.4891e+000 -1.3477e+000
1904 0 +2.701279226e-003 -4.859729872e+001 -4.859729872e+001 -2.4737e+000 -1.3477e+000
1921 0 +1.175304269e-003 -4.859882470e+001 -4.859882470e+001 -2.0825e+000 -1.5561e+000
1940 0 +3.841391017e-005 -4.859996159e+001 -4.859996159e+001 -2.0954e+000 -1.5092e+000
1945 0 +3.042751639e-005 -4.859996957e+001 -4.859996957e+001 -2.0991e+000 -1.5058e+000
1948 0 +2.664498769e-005 -4.859997336e+001 -4.859997336e+001 -2.1131e+000 -1.5058e+000
1985 0 +7.708337719e-007 -4.859999923e+001 -4.859999923e+001 -2.2259e+000 -1.4678e+000
2010 0 +5.516994150e-008 -4.859999994e+001 -4.859999994e+001 -2.2075e+000 -1.4620e+000
2043 0 +1.632903235e-008 -4.859999998e+001 -4.859999998e+001 -2.1893e+000 -1.4723e+000
2066 0 +1.563194019e-013 -4.860000000e+001 -4.860000000e+001 -2.2067e+000 -1.4668e+000
2214 0 +0.000000000e+000 -4.860000000e+001 -4.860000000e+001 -2.2063e+000 -1.4669e+000
% f evaluations | g evaluations | best noise-free fitness - Fopt (2.770000000000e+001) + sum g_i+ | measured fitness | best measured fitness or single-digit g-values | x1 | x2...
1 0 +1.494075205e+001 +4.264075205e+001 +4.264075205e+001 -4.0831e+000 -2.8943e+000
2 0 +7.343045501e+000 +3.504304550e+001 +3.504304550e+001 -3.4601e+000 +2.2150e+000
7 0 +2.927945392e+000 +3.062794539e+001 +3.062794539e+001 +1.0790e-001 -2.2750e+000
26 0 +1.999928697e+000 +2.969992870e+001 +2.969992870e+001 +3.6805e+000 +9.4029e-001
33 0 +2.130622929e-001 +2.791306229e+001 +2.791306229e+001 +2.9240e+000 -4.9363e-001
62 0 +3.968038974e-003 +2.770396804e+001 +2.770396804e+001 +3.4073e+000 -3.6371e-001
129 0 +8.242276200e-005 +2.770008242e+001 +2.770008242e+001 +3.8281e+000 -3.2456e-001
144 0 +3.721439643e-005 +2.770003721e+001 +2.770003721e+001 +3.8289e+000 -3.2033e-001
193 0 +2.413843990e-005 +2.770002414e+001 +2.770002414e+001 +3.8693e+000 -2.8939e-001
209 0 +6.372557905e-006 +2.770000637e+001 +2.770000637e+001 +3.8344e+000 -2.9220e-001
219 0 +9.167401060e-008 +2.770000009e+001 +2.770000009e+001 +3.7803e+000 -3.0088e-001
227 0 +2.591529835e-008 +2.770000003e+001 +2.770000003e+001 +3.7626e+000 -3.0920e-001
235 0 +2.568377511e-009 +2.770000000e+001 +2.770000000e+001 +3.7675e+000 -3.0696e-001
% f evaluations | g evaluations | best noise-free fitness - Fopt (2.993000000000e+001) + sum g_i+ | measured fitness | best measured fitness or single-digit g-values | x1 | x2...
1 0 +5.741617974e+000 +3.567161797e+001 +3.567161797e+001 -1.4973e+000 +4.0004e+000
17 0 +5.131645500e+000 +3.506164550e+001 +3.506164550e+001 -3.6525e+000 -2.8975e+000
19 0 +1.403133279e+000 +3.133313328e+001 +3.133313328e+001 +5.8295e-001 +3.3858e+000
48 0 +4.689972249e-002 +2.997689972e+001 +2.997689972e+001 -8.6766e-001 +1.7325e+000
53 0 +7.502833630e-003 +2.993750283e+001 +2.993750283e+001 -8.8988e-001 +1.6278e+000
65 0 +3.726573825e-005 +2.993003727e+001 +2.993003727e+001 -9.9457e-001 +1.7858e+000
109 0 +6.490250072e-006 +2.993000649e+001 +2.993000649e+001 -9.6777e-001 +1.6690e+000
140 0 +1.719376275e-006 +2.993000172e+001 +2.993000172e+001 -9.7513e-001 +1.6461e+000
151 0 +4.776261520e-007 +2.993000048e+001 +2.993000048e+001 -9.8909e-001 +1.7261e+000
173 0 +1.256983886e-007 +2.993000013e+001 +2.993000013e+001 -9.8885e-001 +1.7185e+000
187 0 +1.190915739e-007 +2.993000012e+001 +2.993000012e+001 -9.8859e-001 +1.7177e+000
193 0 +4.776534368e-008 +2.993000005e+001 +2.993000005e+001 -9.9093e-001 +1.7192e+000
194 0 +9.485034980e-011 +2.993000000e+001 +2.993000000e+001 -9.8942e-001 +1.7036e+000
% f evaluations | g evaluations | best noise-free fitness - Fopt (-1.983000000000e+001) + sum g_i+ | measured fitness | best measured fitness or single-digit g-values | x1 | x2...
1 0 +7.206114369e+000 -1.262388563e+001 -1.262388563e+001 -5.3158e-001 +4.5660e+000
3 0 +6.979384666e+000 -1.285061533e+001 -1.285061533e+001 +1.6571e+000 +5.6653e-001
9 0 +2.011492186e+000 -1.781850781e+001 -1.781850781e+001 +3.8927e+000 -3.0935e+000
32 0 +1.994938544e+000 -1.783506146e+001 -1.783506146e+001 +3.8760e+000 -3.3504e+000
70 0 +1.262345861e+000 -1.856765414e+001 -1.856765414e+001 -5.4141e-001 +1.3700e+000
83 0 +7.704268358e-001 -1.905957316e+001 -1.905957316e+001 -5.8387e-001 +1.4077e+000
95 0 +3.929585673e-001 -1.943704143e+001 -1.943704143e+001 -7.6366e-001 +1.6581e+000
142 0 +3.827497939e-002 -1.979172502e+001 -1.979172502e+001 +2.6323e-002 +1.4148e+000
144 0 +1.859644555e-002 -1.981140355e+001 -1.981140355e+001 -1.8253e-001 +1.5346e+000
215 0 +3.928288401e-003 -1.982607171e+001 -1.982607171e+001 +5.2305e-002 +1.4726e+000
259 0 +3.654231939e-003 -1.982634577e+001 -1.982634577e+001 +1.4049e-002 +1.5045e+000
274 0 +3.442130142e-005 -1.982996558e+001 -1.982996558e+001 +2.5822e-001 +1.4827e+000
281 0 +6.936226345e-006 -1.982999306e+001 -1.982999306e+001 +2.9548e-001 +1.4760e+000
289 0 +6.330512011e-006 -1.982999367e+001 -1.982999367e+001 +3.0484e-001 +1.4764e+000
328 0 +6.065128467e-006 -1.982999393e+001 -1.982999393e+001 +4.3974e-001 +1.4476e+000
349 0 +8.843407713e-007 -1.982999912e+001 -1.982999912e+001 +4.1595e-001 +1.4529e+000
364 0 +5.774799021e-007 -1.982999942e+001 -1.982999942e+001 +4.1420e-001 +1.4542e+000
365 0 +4.213731586e-010 -1.983000000e+001 -1.983000000e+001 +3.6866e-001 +1.4639e+000
