% f evaluations | g evaluations | best noise-free fitness - Fopt (-5.465000000000e+002) + sum g_i+ | measured fitness | best measured fitness or single-digit g-values | x1 | x2...
1 0 +2.963645737e+004 +2.908995737e+004 +2.908995737e+004 -2.6607e+000 -2.2115e+000
2 0 +2.676825094e+004 +2.622175094e+004 +2.622175094e+004 +1.6514e+000 -9.9862e-001
3 0 +1.311712471e+004 +1.257062471e+004 +1.257062471e+004 -3.1013e+000 +3.7814e+000
6 0 +5.835902991e+002 +3.709029915e+001 +3.709029915e+001 -3.7068e+000 +1.0737e+000
8 0 +3.691709996e+000 -5.428082900e+002 -5.428082900e+002 -9.8139e-001 +1.9409e+000
9 0 +3.423107054e+000 -5.430768929e+002 -5.430768929e+002 -1.9906e+000 +7.3415e-001
17 0 +2.746055867e+000 -5.437539441e+002 -5.437539441e+002 +5.9535e-004 +2.5786e+000
43 0 +2.546178503e+000 -5.439538215e+002 -5.439538215e+002 -1.1259e-001 +2.5656e+000
70 0 +2.351464060e+000 -5.441485359e+002 -5.441485359e+002 +2.1546e-001 +2.7130e+000
78 0 +1.989381329e+000 -5.445106187e+002 -5.445106187e+002 +1.1713e-001 +2.6538e+000
131 0 +1.771447458e+000 -5.447285525e+002 -5.447285525e+002 +6.3088e-001 +2.7543e+000
147 0 +1.697193709e+000 -5.448028063e+002 -5.448028063e+002 +6.0885e-001 +2.7540e+000
154 0 +1.494353547e+000 -5.450056465e+002 -5.450056465e+002 +6.4268e-001 +2.7873e+000
684 0 +1.250290526e+000 -5.452497095e+002 -5.452497095e+002 +1.5521e+000 +1.8854e+000
711 0 +1.207144687e+000 -5.452928553e+002 -5.452928553e+002 +1.5248e+000 +1.8597e+000
721 0 +1.192083727e+000 -5.453079163e+002 -5.453079163e+002 +1.4959e+000 +1.8595e+000
1197 0 +6.650755236e-001 -5.458349245e+002 -5.458349245e+002 +1.5051e+000 +2.9904e+000
1233 0 +6.503830083e-001 -5.458496170e+002 -5.458496170e+002 +1.5072e+000 +2.9927e+000
1243 0 +6.310608292e-001 -5.458689392e+002 -5.458689392e+002 +1.5349e+000 +3.0045e+000
1249 0 +6.074996373e-001 -5.458925004e+002 -5.458925004e+002 +1.4888e+000 +3.0053e+000
1289 0 +5.983931015e-001 -5.459016069e+002 -5.459016069e+002 +1.4973e+000 +3.0044e+000
4331 0 +3.052128992e-001 -5.461947871e+002 -5.461947871e+002 -2.1300e+000 +2.1326e+000
4349 0 +1.766287764e-001 -5.463233712e+002 -5.463233712e+002 -2.1113e+000 +2.1297e+000
4362 0 +1.032175624e-001 -5.463967824e+002 -5.463967824e+002 -2.0909e+000 +2.1281e+000
4397 0 +6.276439057e-002 -5.464372356e+002 -5.464372356e+002 -2.1068e+000 +2.1201e+000
4404 0 +5.753874037e-002 -5.464424613e+002 -5.464424613e+002 -2.1232e+000 +2.0863e+000
4434 0 +4.790655413e-002 -5.464520934e+002 -5.464520934e+002 -2.1297e+000 +2.0873e+000
4435 0 +4.583169663e-002 -5.464541683e+002 -5.464541683e+002 -2.1378e+000 +2.0881e+000
4437 0 +4.008296312e-002 -5.464599170e+002 -5.464599170e+002 -2.1304e+000 +2.0888e+000
4443 0 +8.437041962e-003 -5.464915630e+002 -5.464915630e+002 -2.1214e+000 +2.1031e+000
4453 0 +3.536625319e-003 -5.464964634e+002 -5.464964634e+002 -2.1162e+000 +2.1030e+000
4463 0 +2.928532180e-003 -5.464970715e+002 -5.464970715e+002 -2.1134e+000 +2.1048e+000
4480 0 +2.569720190e-003 -5.464974303e+002 -5.464974303e+002 -2.1149e+000 +2.1026e+000
4504 0 +2.187425160e-003 -5.464978126e+002 -5.464978126e+002 -2.1127e+000 +2.1045e+000
4508 0 +6.487482267e-004 -5.464993513e+002 -5.464993513e+002 -2.1083e+000 +2.1052e+000
4512 0 +3.516615527e-005 -5.464999648e+002 -5.464999648e+002 -2.1052e+000 +2.1051e+000
4541 0 +3.292142685e-005 -5.464999671e+002 -5.464999671e+002 -2.1050e+000 +2.1052e+000
4547 0 +3.204764880e-006 -5.464999968e+002 -5.464999968e+002 -2.1045e+000 +2.1049e+000
4568 0 +2.159299015e-006 -5.464999978e+002 -5.464999978e+002 -2.1050e+000 +2.1047e+000
4578 0 +1.703415364e-008 -5.465000000e+002 -5.465000000e+002 -2.1048e+000 +2.1049e+000
4622 0 +1.482180778e-008 -5.465000000e+002 -5.465000000e+002 -2.1049e+000 +2.1048e+000
4626 0 +2.203023541e-009 -5.465000000e+002 -5.465000000e+002 -2.1048e+000 +2.1048e+000
% f evaluations | g evaluations | best noise-free fitness - Fopt (1.000000000000e+003) + sum g_i+ | measured fitness | best measured fitness or single-digit g-values | x1 | x2...
1 0 +2.025188151e+004 +2.125188151e+004 +2.125188151e+004 +2.8055e+000 -3.7177e-001
2 0 +4.907571911e+000 +1.004907572e+003 +1.004907572e+003 -8.9063e-002 +2.4823e+000
6 0 +1.265132506e+000 +1.001265133e+003 +1.001265133e+003 +2.4963e+000 +3.2436e+000
105 0 +1.238309734e+000 +1.001238310e+003 +1.001238310e+003 +2.4963e+000 +3.2501e+000
111 0 +1.207277283e+000 +1.001207277e+003 +1.001207277e+003 +2.5001e+000 +3.2640e+000
116 0 +1.182797528e+000 +1.001182798e+003 +1.001182798e+003 +2.5024e+000 +3.2642e+000
120 0 +1.120612235e+000 +1.001120612e+003 +1.001120612e+003 +2.5140e+000 +3.2599e+000
1464 0 +7.915181131e-001 +1.000791518e+003 +1.000791518e+003 +1.5815e+000 +3.0442e+000
1470 0 +7.107677225e-001 +1.000710768e+003 +1.000710768e+003 +1.5035e+000 +3.0285e+000
1476 0 +6.951570570e-001 +1.000695157e+003 +1.000695157e+003 +1.5081e+000 +3.0283e+000
1488 0 +6.797404195e-001 +1.000679740e+003 +1.000679740e+003 +1.5133e+000 +3.0280e+000
1529 0 +6.579913593e-001 +1.000657991e+003 +1.000657991e+003 +1.4970e+000 +2.9899e+000
1560 0 +5.948864990e-001 +1.000594886e+003 +1.000594886e+003 +1.5036e+000 +3.0054e+000
6271 0 +5.152851381e-001 +1.000515285e+003 +1.000515285e+003 -2.1371e+000 +2.1414e+000
6273 0 +3.910823857e-001 +1.000391082e+003 +1.000391082e+003 -2.1371e+000 +2.1352e+000
6290 0 +1.056176610e-001 +1.000105618e+003 +1.000105618e+003 -2.1540e+000 +2.0792e+000
6307 0 +5.217345775e-002 +1.000052173e+003 +1.000052173e+003 -2.1478e+000 +2.0988e+000
6308 0 +1.392875104e-002 +1.000013929e+003 +1.000013929e+003 -2.1048e+000 +2.0974e+000
6338 0 +1.343065194e-002 +1.000013431e+003 +1.000013431e+003 -2.1048e+000 +2.0976e+000
6342 0 +6.795399403e-003 +1.000006795e+003 +1.000006795e+003 -2.0893e+000 +2.1071e+000
6351 0 +6.706385745e-003 +1.000006706e+003 +1.000006706e+003 -2.0891e+000 +2.1074e+000
6358 0 +6.555381958e-003 +1.000006555e+003 +1.000006555e+003 -2.0889e+000 +2.1081e+000
6362 0 +6.407666359e-003 +1.000006408e+003 +1.000006408e+003 -2.0890e+000 +2.1082e+000
6377 0 +4.753685757e-003 +1.000004754e+003 +1.000004754e+003 -2.0936e+000 +2.1052e+000
6388 0 +3.651036518e-003 +1.000003651e+003 +1.000003651e+003 -2.0971e+000 +2.1039e+000
6394 0 +2.661636055e-003 +1.000002662e+003 +1.000002662e+003 -2.0991e+000 +2.1036e+000
6397 0 +1.364821537e-003 +1.000001365e+003 +1.000001365e+003 -2.1102e+000 +2.1019e+000
6398 0 +2.923113833e-004 +1.000000292e+003 +1.000000292e+003 -2.1045e+000 +2.1060e+000
6414 0 +2.460343146e-004 +1.000000246e+003 +1.000000246e+003 -2.1065e+000 +2.1036e+000
6422 0 +1.988947381e-004 +1.000000199e+003 +1.000000199e+003 -2.1068e+000 +2.1037e+000
6432 0 +1.026122417e-004 +1.000000103e+003 +1.000000103e+003 -2.1068e+000 +2.1042e+000
6441 0 +8.833729783e-005 +1.000000088e+003 +1.000000088e+003 -2.1066e+000 +2.1042e+000
6448 0 +7.769376202e-005 +1.000000078e+003 +1.000000078e+003 -2.1065e+000 +2.1046e+000
6449 0 +1.635851288e-005 +1.000000016e+003 +1.000000016e+003 -2.1056e+000 +2.1046e+000
6473 0 +1.525805146e-005 +1.000000015e+003 +1.000000015e+003 -2.1056e+000 +2.1046e+000
6478 0 +7.880533190e-006 +1.000000008e+003 +1.000000008e+003 -2.1054e+000 +2.1048e+000
6488 0 +7.511568697e-006 +1.000000008e+003 +1.000000008e+003 -2.1051e+000 +2.1049e+000
6489 0 +2.129042059e-006 +1.000000002e+003 +1.000000002e+003 -2.1047e+000 +2.1048e+000
6499 0 +1.687266717e-006 +1.000000002e+003 +1.000000002e+003 -2.1047e+000 +2.1048e+000
6544 0 +7.338915111e-007 +1.000000001e+003 +1.000000001e+003 -2.1048e+000 +2.1048e+000
6545 0 +6.119921636e-008 +1.000000000e+003 +1.000000000e+003 -2.1048e+000 +2.1049e+000
6557 0 +1.154887741e-008 +1.000000000e+003 +1.000000000e+003 -2.1048e+000 +2.1048e+000
6565 0 +6.337018021e-009 +1.000000000e+003 +1.000000000e+003 -2.1049e+000 +2.1048e+000
% f evaluations | g evaluations | best noise-free fitness - Fopt (2.083800000000e+002) + sum g_i+ | measured fitness | best measured fitness or single-digit g-values | x1 | x2...
1 0 +4.403857744e+004 +4.424695744e+004 +4.424695744e+004 +3.7228e-001 -2.0496e+000
2 0 +2.988501334e+003 +3.196881334e+003 +3.196881334e+003 +1.9833e+000 +4.1159e+000
5 0 +1.296684923e+003 +1.505064923e+003 +1.505064923e+003 -2.8282e+000 +2.6065e+000
6 0 +1.575474562e+002 +3.659274562e+002 +3.659274562e+002 -3.4649e-001 +2.8651e+000
10 0 +4.940095711e+000 +2.133200957e+002 +2.133200957e+002 -6.9875e-001 +1.6746e+000
12 0 +4.894159636e+000 +2.132741596e+002 +2.132741596e+002 -7.1247e-001 +1.6725e+000
18 0 +4.066149876e+000 +2.124461499e+002 +2.124461499e+002 -1.2188e+000 +1.6746e+000
20 0 +3.386532212e+000 +2.117665322e+002 +2.117665322e+002 -1.1104e+000 +1.6889e+000
36 0 +3.077012828e+000 +2.114570128e+002 +2.114570128e+002 -1.0348e+000 +1.6720e+000
42 0 +2.283749342e+000 +2.106637493e+002 +2.106637493e+002 -2.1257e+000 +1.6744e+000
60 0 +1.291478946e+000 +2.096714789e+002 +2.096714789e+002 -2.0137e+000 +1.7822e+000
90 0 +1.099985157e+000 +2.094799852e+002 +2.094799852e+002 -2.1214e+000 +1.7627e+000
163 0 +1.095810745e+000 +2.094758107e+002 +2.094758107e+002 -2.0986e+000 +1.7690e+000
622 0 +7.501979201e-001 +2.091301979e+002 +2.091301979e+002 -2.1232e+000 +2.1557e+000
635 0 +6.560027066e-001 +2.090360027e+002 +2.090360027e+002 -2.0436e+000 +2.1682e+000
661 0 +2.562875061e-001 +2.086362875e+002 +2.086362875e+002 -2.0202e+000 +2.1437e+000
669 0 +2.294555145e-001 +2.086094555e+002 +2.086094555e+002 -2.0979e+000 +2.1368e+000
679 0 +2.207283087e-001 +2.086007283e+002 +2.086007283e+002 -2.0692e+000 +2.1412e+000
689 0 +1.964694384e-001 +2.085764694e+002 +2.085764694e+002 -2.0566e+000 +2.1404e+000
690 0 +1.288266727e-001 +2.085088267e+002 +2.085088267e+002 -2.0963e+000 +2.1295e+000
692 0 +1.048823531e-001 +2.084848824e+002 +2.084848824e+002 -2.0784e+000 +2.1301e+000
695 0 +7.974542033e-002 +2.084597454e+002 +2.084597454e+002 -2.0486e+000 +2.1171e+000
708 0 +6.404867447e-002 +2.084440487e+002 +2.084440487e+002 -2.0893e+000 +2.0935e+000
711 0 +1.701704667e-002 +2.083970170e+002 +2.083970170e+002 -2.1191e+000 +2.1082e+000
718 0 +1.105667460e-002 +2.083910567e+002 +2.083910567e+002 -2.1008e+000 +2.0993e+000
724 0 +2.845976174e-003 +2.083828460e+002 +2.083828460e+002 -2.0981e+000 +2.1040e+000
725 0 +2.373228928e-003 +2.083823732e+002 +2.083823732e+002 -2.1145e+000 +2.1022e+000
734 0 +2.110950736e-003 +2.083821110e+002 +2.083821110e+002 -2.1021e+000 +2.1028e+000
735 0 +1.300189226e-003 +2.083813002e+002 +2.083813002e+002 -2.1009e+000 +2.1039e+000
737 0 +9.490146718e-004 +2.083809490e+002 +2.083809490e+002 -2.1007e+000 +2.1044e+000
745 0 +4.266008614e-004 +2.083804266e+002 +2.083804266e+002 -2.1022e+000 +2.1045e+000
773 0 +2.652119808e-004 +2.083802652e+002 +2.083802652e+002 -2.1039e+000 +2.1041e+000
777 0 +2.351941108e-004 +2.083802352e+002 +2.083802352e+002 -2.1039e+000 +2.1042e+000
788 0 +8.882449094e-005 +2.083800888e+002 +2.083800888e+002 -2.1030e+000 +2.1053e+000
797 0 +3.503309074e-007 +2.083800004e+002 +2.083800004e+002 -2.1050e+000 +2.1048e+000
798 0 +9.776874776e-008 +2.083800001e+002 +2.083800001e+002 -2.1049e+000 +2.1048e+000
827 0 +7.990811923e-008 +2.083800001e+002 +2.083800001e+002 -2.1049e+000 +2.1048e+000
837 0 +7.451092188e-008 +2.083800001e+002 +2.083800001e+002 -2.1049e+000 +2.1048e+000
869 0 +5.665253866e-008 +2.083800001e+002 +2.083800001e+002 -2.1049e+000 +2.1048e+000
875 0 +5.338145570e-008 +2.083800001e+002 +2.083800001e+002 -2.1049e+000 +2.1048e+000
881 0 +4.870756243e-008 +2.083800000e+002 +2.083800000e+002 -2.1049e+000 +2.1048e+000
882 0 +3.229897061e-008 +2.083800000e+002 +2.083800000e+002 -2.1049e+000 +2.1048e+000
884 0 +2.060619408e-008 +2.083800000e+002 +2.083800000e+002 -2.1048e+000 +2.1048e+000
890 0 +1.705566888e-008 +2.083800000e+002 +2.083800000e+002 -2.1048e+000 +2.1048e+000
899 0 +6.488306781e-009 +2.083800000e+002 +2.083800000e+002 -2.1048e+000 +2.1048e+000
% f evaluations | g evaluations | best noise-free fitness - Fopt (-1.449600000000e+002) + sum g_i+ | measured fitness | best measured fitness or single-digit g-values | x1 | x2...
1 0 +2.712314256e+002 +1.262714256e+002 +1.262714256e+002 +3.2539e+000 -3.6640e+000
3 0 +2.378074126e+000 -1.425819259e+002 -1.425819259e+002 -1.9718e+000 -2.0391e+000
14 0 +1.635471397e+000 -1.433245286e+002 -1.433245286e+002 -2.2472e+000 -1.7114e+000
40 0 +1.107884705e+000 -1.438521153e+002 -1.438521153e+002 -2.1244e+000 -1.7636e+000
46 0 +9.809433507e-001 -1.439790566e+002 -1.439790566e+002 -2.0216e+000 -1.0115e+000
92 0 +6.975601643e-001 -1.442624398e+002 -1.442624398e+002 -2.1101e+000 -9.8010e-001
135 0 +5.958282411e-001 -1.443641718e+002 -1.443641718e+002 -2.1130e+000 -9.5608e-001
5539 0 +2.501522198e-001 -1.447098478e+002 -1.447098478e+002 -2.1472e+000 -2.0654e+000
5549 0 +1.442508756e-001 -1.448157491e+002 -1.448157491e+002 -2.1517e+000 -2.0743e+000
5561 0 +8.092407457e-002 -1.448790759e+002 -1.448790759e+002 -2.1300e+000 -2.0824e+000
5615 0 +7.919078273e-002 -1.448808092e+002 -1.448808092e+002 -2.1276e+000 -2.0829e+000
5621 0 +2.973564379e-002 -1.449302644e+002 -1.449302644e+002 -2.1334e+000 -2.0917e+000
5626 0 +1.700563673e-002 -1.449429944e+002 -1.449429944e+002 -2.1295e+000 -2.0961e+000
5630 0 +1.049411524e-002 -1.449495059e+002 -1.449495059e+002 -2.0879e+000 -2.1127e+000
5656 0 +9.234219913e-003 -1.449507658e+002 -1.449507658e+002 -2.0861e+000 -2.1107e+000
5660 0 +6.717107318e-003 -1.449532829e+002 -1.449532829e+002 -2.1209e+000 -2.1017e+000
5665 0 +6.507029449e-003 -1.449534930e+002 -1.449534930e+002 -2.1207e+000 -2.1017e+000
5686 0 +6.180515376e-003 -1.449538195e+002 -1.449538195e+002 -2.1204e+000 -2.1014e+000
5691 0 +4.271827849e-003 -1.449557282e+002 -1.449557282e+002 -2.1159e+000 -2.0999e+000
5699 0 +2.008626088e-003 -1.449579914e+002 -1.449579914e+002 -2.1051e+000 -2.1020e+000
5702 0 +2.957628008e-004 -1.449597042e+002 -1.449597042e+002 -2.1020e+000 -2.1061e+000
5704 0 +1.975566534e-004 -1.449598024e+002 -1.449598024e+002 -2.1022e+000 -2.1053e+000
5707 0 +1.510149998e-004 -1.449598490e+002 -1.449598490e+002 -2.1070e+000 -2.1039e+000
5715 0 +1.307745919e-006 -1.449599987e+002 -1.449599987e+002 -2.1049e+000 -2.1048e+000
5755 0 +4.901180262e-007 -1.449599995e+002 -1.449599995e+002 -2.1049e+000 -2.1049e+000
5777 0 +1.729022472e-007 -1.449599998e+002 -1.449599998e+002 -2.1048e+000 -2.1049e+000
5796 0 +4.557418265e-008 -1.449600000e+002 -1.449600000e+002 -2.1048e+000 -2.1049e+000
5810 0 +4.066737347e-008 -1.449600000e+002 -1.449600000e+002 -2.1048e+000 -2.1049e+000
5814 0 +2.118903808e-008 -1.449600000e+002 -1.449600000e+002 -2.1048e+000 -2.1049e+000
5827 0 +1.297536301e-008 -1.449600000e+002 -1.449600000e+002 -2.1049e+000 -2.1048e+000
5857 0 +5.747580190e-009 -1.449600000e+002 -1.449600000e+002 -2.1048e+000 -2.1048e+000
% f evaluations | g evaluations | best noise-free fitness - Fopt (-6.300000000000e+000) + sum g_i+ | measured fitness | best measured fitness or single-digit g-values | x1 | x2...
1 0 +2.811137982e+003 +2.804837982e+003 +2.804837982e+003 +1.8549e+000 +1.2617e-001
8 0 +1.440345446e+000 -4.859654554e+000 -4.859654554e+000 +9.8876e-001 -2.4204e+000
46 0 +1.334861871e+000 -4.965138129e+000 -4.965138129e+000 +1.0437e+000 -2.3393e+000
67 0 +1.223346299e+000 -5.076653701e+000 -5.076653701e+000 +1.0176e+000 -2.3531e+000
81 0 +1.021894534e+000 -5.278105466e+000 -5.278105466e+000 +1.9295e+000 -2.1133e+000
87 0 +4.152022880e-001 -5.884797712e+000 -5.884797712e+000 +2.0915e+000 -2.0669e+000
93 0 +2.177226427e-001 -6.082277357e+000 -6.082277357e+000 +2.0210e+000 -2.1390e+000
97 0 +2.621982466e-002 -6.273780175e+000 -6.273780175e+000 +2.1030e+000 -2.1155e+000
101 0 +1.856382645e-002 -6.281436174e+000 -6.281436174e+000 +2.0893e+000 -2.1158e+000
122 0 +1.563497134e-002 -6.284365029e+000 -6.284365029e+000 +2.1248e+000 -2.0951e+000
131 0 +1.432080860e-002 -6.285679191e+000 -6.285679191e+000 +2.1201e+000 -2.0952e+000
149 0 +8.877163735e-003 -6.291122836e+000 -6.291122836e+000 +2.1180e+000 -2.0973e+000
174 0 +6.135382334e-003 -6.293864618e+000 -6.293864618e+000 +2.1090e+000 -2.0990e+000
175 0 +3.943963329e-003 -6.296056037e+000 -6.296056037e+000 +2.1065e+000 -2.1005e+000
183 0 +3.658053349e-003 -6.296341947e+000 -6.296341947e+000 +2.1138e+000 -2.1001e+000
189 0 +3.294886546e-003 -6.296705113e+000 -6.296705113e+000 +2.0968e+000 -2.1043e+000
202 0 +2.300805767e-003 -6.297699194e+000 -6.297699194e+000 +2.1138e+000 -2.1016e+000
206 0 +4.441871782e-004 -6.299555813e+000 -6.299555813e+000 +2.1007e+000 -2.1060e+000
219 0 +3.267332522e-004 -6.299673267e+000 -6.299673267e+000 +2.1014e+000 -2.1054e+000
230 0 +2.695407457e-004 -6.299730459e+000 -6.299730459e+000 +2.1068e+000 -2.1052e+000
232 0 +1.339987906e-004 -6.299866001e+000 -6.299866001e+000 +2.1031e+000 -2.1058e+000
234 0 +1.279730398e-004 -6.299872027e+000 -6.299872027e+000 +2.1032e+000 -2.1057e+000
236 0 +1.617497287e-005 -6.299983825e+000 -6.299983825e+000 +2.1040e+000 -2.1050e+000
258 0 +1.484473545e-005 -6.299985155e+000 -6.299985155e+000 +2.1041e+000 -2.1050e+000
269 0 +1.326895351e-005 -6.299986731e+000 -6.299986731e+000 +2.1041e+000 -2.1050e+000
270 0 +4.037708846e-006 -6.299995962e+000 -6.299995962e+000 +2.1046e+000 -2.1050e+000
271 0 +2.076140705e-006 -6.299997924e+000 -6.299997924e+000 +2.1049e+000 -2.1049e+000
272 0 +1.970154089e-006 -6.299998030e+000 -6.299998030e+000 +2.1048e+000 -2.1049e+000
315 0 +1.802862480e-006 -6.299998197e+000 -6.299998197e+000 +2.1047e+000 -2.1050e+000
325 0 +1.762043481e-006 -6.299998238e+000 -6.299998238e+000 +2.1047e+000 -2.1049e+000
329 0 +1.422469937e-006 -6.299998578e+000 -6.299998578e+000 +2.1049e+000 -2.1049e+000
330 0 +1.780689836e-007 -6.299999822e+000 -6.299999822e+000 +2.1049e+000 -2.1048e+000
346 0 +2.215789241e-008 -6.299999978e+000 -6.299999978e+000 +2.1049e+000 -2.1048e+000
360 0 +7.673079949e-009 -6.299999992e+000 -6.299999992e+000 +2.1048e+000 -2.1049e+000
% f evaluations | g evaluations | best noise-free fitness - Fopt (-1.367600000000e+002) + sum g_i+ | measured fitness | best measured fitness or single-digit g-values | x1 | x2...
1 0 +1.186557278e+005 +1.185189678e+005 +1.185189678e+005 -3.9571e+000 +3.2627e+000
2 0 +4.165141937e+002 +2.797541937e+002 +2.797541937e+002 +3.5179e+000 -1.5404e+000
8 0 +3.860243674e+002 +2.492643674e+002 +2.492643674e+002 +3.4813e+000 -9.5361e-001
9 0 +2.208474492e+002 +8.408744922e+001 +8.408744922e+001 -8.3668e-001 -1.1520e+000
10 0 +3.085371119e+000 -1.336746289e+002 -1.336746289e+002 +2.2795e+000 -1.1333e+000
37 0 +1.650817193e+000 -1.351091828e+002 -1.351091828e+002 +2.1184e+000 -1.0279e+000
61 0 +1.265699726e+000 -1.354943003e+002 -1.354943003e+002 +1.9683e+000 -9.6498e-001
108 0 +6.920543424e-001 -1.360679457e+002 -1.360679457e+002 +2.1603e+000 -9.5643e-001
114 0 +6.362266504e-001 -1.361237733e+002 -1.361237733e+002 +2.1080e+000 -9.4695e-001
119 0 +6.111938770e-001 -1.361488061e+002 -1.361488061e+002 +2.1246e+000 -9.4996e-001
157 0 +5.937718777e-001 -1.361662281e+002 -1.361662281e+002 +2.1086e+000 -9.6218e-001
1369 0 +4.770002386e-001 -1.362829998e+002 -1.362829998e+002 +2.1712e+000 -2.0494e+000
1374 0 +1.657902170e-001 -1.365942098e+002 -1.365942098e+002 +2.0237e+000 -2.1286e+000
1406 0 +2.509658602e-002 -1.367349034e+002 -1.367349034e+002 +2.0734e+000 -2.1116e+000
1408 0 +1.649073932e-002 -1.367435093e+002 -1.367435093e+002 +2.1109e+000 -2.1112e+000
1415 0 +1.087769236e-002 -1.367491223e+002 -1.367491223e+002 +2.1233e+000 -2.0972e+000
1424 0 +7.527663051e-003 -1.367524723e+002 -1.367524723e+002 +2.1195e+000 -2.0983e+000
1427 0 +5.877736463e-003 -1.367541223e+002 -1.367541223e+002 +2.1176e+000 -2.0990e+000
1466 0 +2.343681773e-003 -1.367576563e+002 -1.367576563e+002 +2.1092e+000 -2.1010e+000
1491 0 +6.440318728e-004 -1.367593560e+002 -1.367593560e+002 +2.1001e+000 -2.1055e+000
1501 0 +4.809458156e-005 -1.367599519e+002 -1.367599519e+002 +2.1040e+000 -2.1047e+000
1528 0 +4.131843477e-005 -1.367599587e+002 -1.367599587e+002 +2.1044e+000 -2.1046e+000
1533 0 +3.354735290e-005 -1.367599665e+002 -1.367599665e+002 +2.1045e+000 -2.1046e+000
1538 0 +2.596294780e-005 -1.367599740e+002 -1.367599740e+002 +2.1041e+000 -2.1052e+000
1548 0 +2.355777067e-005 -1.367599764e+002 -1.367599764e+002 +2.1044e+000 -2.1047e+000
1572 0 +9.273933784e-006 -1.367599907e+002 -1.367599907e+002 +2.1054e+000 -2.1047e+000
1573 0 +7.946032355e-006 -1.367599921e+002 -1.367599921e+002 +2.1047e+000 -2.1051e+000
1581 0 +6.817044607e-006 -1.367599932e+002 -1.367599932e+002 +2.1048e+000 -2.1050e+000
1583 0 +4.381319911e-006 -1.367599956e+002 -1.367599956e+002 +2.1050e+000 -2.1049e+000
1589 0 +2.118213899e-006 -1.367599979e+002 -1.367599979e+002 +2.1050e+000 -2.1049e+000
1603 0 +1.200958962e-006 -1.367599988e+002 -1.367599988e+002 +2.1050e+000 -2.1048e+000
1618 0 +4.988448268e-007 -1.367599995e+002 -1.367599995e+002 +2.1050e+000 -2.1048e+000
1624 0 +1.846554483e-007 -1.367599998e+002 -1.367599998e+002 +2.1049e+000 -2.1048e+000
1657 0 +1.779656600e-007 -1.367599998e+002 -1.367599998e+002 +2.1049e+000 -2.1048e+000
1659 0 +1.372109182e-007 -1.367599999e+002 -1.367599999e+002 +2.1049e+000 -2.1048e+000
1668 0 +3.816538197e-008 -1.367600000e+002 -1.367600000e+002 +2.1049e+000 -2.1048e+000
1678 0 +3.595548037e-008 -1.367600000e+002 -1.367600000e+002 +2.1048e+000 -2.1048e+000
1696 0 +3.066438126e-008 -1.367600000e+002 -1.367600000e+002 +2.1048e+000 -2.1048e+000
1699 0 +4.892598326e-009 -1.367600000e+002 -1.367600000e+002 +2.1048e+000 -2.1048e+000
% f evaluations | g evaluations | best noise-free fitness - Fopt (3.667500000000e+002) + sum g_i+ | measured fitness | best measured fitness or single-digit g-values | x1 | x2...
1 0 +4.559029228e+002 +8.226529228e+002 +8.226529228e+002 +3.5598e+000 -2.4178e+000
3 0 +6.532788267e+001 +4.320778827e+002 +4.320778827e+002 +2.8987e+000 -2.7203e+000
12 0 +4.181066913e+000 +3.709310669e+002 +3.709310669e+002 -8.8891e-001 -1.9455e+000
16 0 +4.795087819e-001 +3.672295088e+002 +3.672295088e+002 -2.0642e+000 -2.0723e+000
18 0 +4.521960652e-001 +3.672021961e+002 +3.672021961e+002 -2.0873e+000 -2.0662e+000
60 0 +3.302502179e-001 +3.670802502e+002 +3.670802502e+002 -2.0157e+000 -2.1503e+000
124 0 +2.303538740e-001 +3.669803539e+002 +3.669803539e+002 -2.0217e+000 -2.1410e+000
133 0 +1.719357929e-001 +3.669219358e+002 +3.669219358e+002 -2.0277e+000 -2.1340e+000
135 0 +1.544586600e-001 +3.669044587e+002 +3.669044587e+002 -2.0730e+000 -2.1355e+000
137 0 +7.428721898e-002 +3.668242872e+002 +3.668242872e+002 -2.1425e+000 -2.1078e+000
147 0 +6.209391036e-002 +3.668120939e+002 +3.668120939e+002 -2.0764e+000 -2.1248e+000
163 0 +4.141680140e-002 +3.667914168e+002 +3.667914168e+002 -2.0971e+000 -2.1194e+000
164 0 +3.558649664e-002 +3.667855865e+002 +3.667855865e+002 -2.1302e+000 -2.0897e+000
184 0 +3.065808139e-002 +3.667806581e+002 +3.667806581e+002 -2.1201e+000 -2.0911e+000
189 0 +2.964433263e-002 +3.667796443e+002 +3.667796443e+002 -2.1172e+000 -2.0916e+000
190 0 +2.919381147e-002 +3.667791938e+002 +3.667791938e+002 -2.1169e+000 -2.0918e+000
192 0 +2.599579566e-002 +3.667759958e+002 +3.667759958e+002 -2.1269e+000 -2.0919e+000
195 0 +1.221596433e-002 +3.667622160e+002 +3.667622160e+002 -2.0944e+000 -2.1136e+000
203 0 +1.153501818e-002 +3.667615350e+002 +3.667615350e+002 -2.0852e+000 -2.1124e+000
205 0 +5.428265222e-003 +3.667554283e+002 +3.667554283e+002 -2.0920e+000 -2.1058e+000
208 0 +4.925583444e-003 +3.667549256e+002 +3.667549256e+002 -2.0982e+000 -2.1104e+000
210 0 +4.743431523e-003 +3.667547434e+002 +3.667547434e+002 -2.0992e+000 -2.1102e+000
214 0 +7.782889247e-004 +3.667507783e+002 +3.667507783e+002 -2.1094e+000 -2.1027e+000
223 0 +7.289452735e-004 +3.667507289e+002 +3.667507289e+002 -2.1093e+000 -2.1028e+000
225 0 +4.628073568e-004 +3.667504628e+002 +3.667504628e+002 -2.1089e+000 -2.1034e+000
238 0 +3.082554506e-004 +3.667503083e+002 +3.667503083e+002 -2.1082e+000 -2.1042e+000
239 0 +2.546445184e-004 +3.667502546e+002 +3.667502546e+002 -2.1017e+000 -2.1056e+000
244 0 +1.625764135e-004 +3.667501626e+002 +3.667501626e+002 -2.1024e+000 -2.1052e+000
256 0 +1.199560689e-004 +3.667501200e+002 +3.667501200e+002 -2.1035e+000 -2.1046e+000
278 0 +6.497609553e-005 +3.667500650e+002 +3.667500650e+002 -2.1035e+000 -2.1049e+000
287 0 +2.257523295e-005 +3.667500226e+002 +3.667500226e+002 -2.1052e+000 -2.1045e+000
289 0 +1.312436086e-005 +3.667500131e+002 +3.667500131e+002 -2.1055e+000 -2.1047e+000
292 0 +1.203859028e-006 +3.667500012e+002 +3.667500012e+002 -2.1049e+000 -2.1049e+000
337 0 +5.234649052e-007 +3.667500005e+002 +3.667500005e+002 -2.1048e+000 -2.1049e+000
347 0 +4.129066724e-007 +3.667500004e+002 +3.667500004e+002 -2.1048e+000 -2.1049e+000
388 0 +5.949351589e-008 +3.667500001e+002 +3.667500001e+002 -2.1049e+000 -2.1048e+000
402 0 +3.173340701e-008 +3.667500000e+002 +3.667500000e+002 -2.1049e+000 -2.1048e+000
408 0 +1.670775873e-008 +3.667500000e+002 +3.667500000e+002 -2.1049e+000 -2.1048e+000
409 0 +8.169877219e-009 +3.667500000e+002 +3.667500000e+002 -2.1049e+000 -2.1048e+000
% f evaluations | g evaluations | best noise-free fitness - Fopt (-2.486900000000e+002) + sum g_i+ | measured fitness | best measured fitness or single-digit g-values | x1 | x2...
1 0 +3.573813947e+004 +3.548944947e+004 +3.548944947e+004 -4.9428e+000 +4.7720e-001
5 0 +2.115517984e+004 +2.090648984e+004 +2.090648984e+004 +4.1702e+000 -3.9513e+000
6 0 +2.505254800e+003 +2.256564800e+003 +2.256564800e+003 +5.0000e+000 -5.3315e-002
8 0 +6.688853313e+000 -2.420011467e+002 -2.420011467e+002 +1.5131e+000 -1.2721e+000
22 0 +3.548683721e+000 -2.451413163e+002 -2.451413163e+002 +1.8834e+000 -1.2273e+000
32 0 +3.406304689e+000 -2.452836953e+002 -2.452836953e+002 +1.0144e+000 -1.9496e+000
44 0 +2.214267495e+000 -2.464757325e+002 -2.464757325e+002 +2.2801e+000 -1.7576e+000
51 0 +2.118618669e+000 -2.465713813e+002 -2.465713813e+002 +2.2962e+000 -1.6881e+000
66 0 +2.481910993e-001 -2.484418089e+002 -2.484418089e+002 +2.1754e+000 -2.1093e+000
83 0 +1.025473699e-001 -2.485874526e+002 -2.485874526e+002 +2.1585e+000 -2.1023e+000
115 0 +4.050587998e-002 -2.486494941e+002 -2.486494941e+002 +2.0777e+000 -2.1023e+000
129 0 +2.446430593e-002 -2.486655357e+002 -2.486655357e+002 +2.0872e+000 -2.1011e+000
143 0 +2.320292625e-002 -2.486667971e+002 -2.486667971e+002 +2.0854e+000 -2.1023e+000
148 0 +1.578489343e-002 -2.486742151e+002 -2.486742151e+002 +2.0852e+000 -2.1049e+000
154 0 +7.205863010e-003 -2.486827941e+002 -2.486827941e+002 +2.0896e+000 -2.1064e+000
178 0 +6.916097938e-003 -2.486830839e+002 -2.486830839e+002 +2.0953e+000 -2.1115e+000
180 0 +2.076352635e-003 -2.486879236e+002 -2.486879236e+002 +2.0972e+000 -2.1083e+000
190 0 +1.655459361e-003 -2.486883445e+002 -2.486883445e+002 +2.1079e+000 -2.1065e+000
211 0 +1.188907970e-005 -2.486899881e+002 -2.486899881e+002 +2.1043e+000 -2.1048e+000
267 0 +9.276724711e-006 -2.486899907e+002 -2.486899907e+002 +2.1044e+000 -2.1049e+000
282 0 +7.474848957e-006 -2.486899925e+002 -2.486899925e+002 +2.1044e+000 -2.1048e+000
298 0 +4.629200248e-006 -2.486899954e+002 -2.486899954e+002 +2.1044e+000 -2.1049e+000
304 0 +4.342748610e-006 -2.486899957e+002 -2.486899957e+002 +2.1044e+000 -2.1049e+000
306 0 +3.409817083e-006 -2.486899966e+002 -2.486899966e+002 +2.1046e+000 -2.1048e+000
307 0 +9.109387804e-007 -2.486899991e+002 -2.486899991e+002 +2.1047e+000 -2.1049e+000
308 0 +7.487273024e-008 -2.486899999e+002 -2.486899999e+002 +2.1048e+000 -2.1048e+000
318 0 +6.087699944e-008 -2.486899999e+002 -2.486899999e+002 +2.1048e+000 -2.1048e+000
330 0 +5.839794426e-008 -2.486899999e+002 -2.486899999e+002 +2.1048e+000 -2.1049e+000
345 0 +2.915362529e-008 -2.486900000e+002 -2.486900000e+002 +2.1048e+000 -2.1049e+000
347 0 +3.499081913e-009 -2.486900000e+002 -2.486900000e+002 +2.1049e+000 -2.1048e+000
% f evaluations | g evaluations | best noise-free fitness - Fopt (-6.786000000000e+001) + sum g_i+ | measured fitness | best measured fitness or single-digit g-values | x1 | x2...
1 0 +1.043557511e+005 +1.042878911e+005 +1.042878911e+005 +2.9719e+000 -3.1881e+000
2 0 +8.480984975e+004 +8.474198975e+004 +8.474198975e+004 -3.6085e+000 -4.3180e+000
4 0 +5.132169000e+004 +5.125383000e+004 +5.125383000e+004 -5.0000e+000 +5.0000e+000
5 0 +2.798635830e+000 -6.506136417e+001 -6.506136417e+001 +6.8686e-001 +2.4823e+000
8 0 +2.240960978e+000 -6.561903902e+001 -6.561903902e+001 -2.2661e+000 +1.2246e+000
25 0 +1.662723446e+000 -6.619727655e+001 -6.619727655e+001 -2.1465e+000 +1.2081e+000
29 0 +1.604432937e+000 -6.625556706e+001 -6.625556706e+001 -2.1494e+000 +1.2137e+000
42 0 +1.197466434e+000 -6.666253357e+001 -6.666253357e+001 -2.2621e+000 +9.2529e-001
45 0 +8.375556508e-001 -6.702244435e+001 -6.702244435e+001 -2.1721e+000 +9.6717e-001
58 0 +7.769191996e-001 -6.708308080e+001 -6.708308080e+001 -2.1420e+000 +9.7624e-001
73 0 +6.028671840e-001 -6.725713282e+001 -6.725713282e+001 -2.1199e+000 +9.5272e-001
104 0 +5.999904263e-001 -6.726000957e+001 -6.726000957e+001 -2.1058e+000 +9.6621e-001
1112 0 +2.038969729e-001 -6.765610303e+001 -6.765610303e+001 -2.1917e+000 +2.0753e+000
1118 0 +1.918616863e-001 -6.766813831e+001 -6.766813831e+001 -2.1864e+000 +2.0744e+000
1131 0 +1.628726532e-001 -6.769712735e+001 -6.769712735e+001 -2.1829e+000 +2.0790e+000
1184 0 +1.566150140e-001 -6.770338499e+001 -6.770338499e+001 -2.1835e+000 +2.0828e+000
1191 0 +1.299863079e-001 -6.773001369e+001 -6.773001369e+001 -2.1702e+000 +2.0790e+000
1192 0 +1.191290788e-001 -6.774087092e+001 -6.774087092e+001 -2.1735e+000 +2.0862e+000
1205 0 +9.269964936e-002 -6.776730035e+001 -6.776730035e+001 -2.1651e+000 +2.0922e+000
1209 0 +7.871050032e-002 -6.778128950e+001 -6.778128950e+001 -2.1585e+000 +2.0964e+000
1210 0 +5.521732538e-002 -6.780478267e+001 -6.780478267e+001 -2.1502e+000 +2.0971e+000
1211 0 +5.495074392e-002 -6.780504926e+001 -6.780504926e+001 -2.1476e+000 +2.1001e+000
1215 0 +5.237971051e-002 -6.780762029e+001 -6.780762029e+001 -2.1219e+000 +2.0872e+000
1217 0 +4.019112599e-002 -6.781980887e+001 -6.781980887e+001 -2.1075e+000 +2.0916e+000
1219 0 +1.595637062e-002 -6.784404363e+001 -6.784404363e+001 -2.1002e+000 +2.0982e+000
1224 0 +7.726827817e-003 -6.785227317e+001 -6.785227317e+001 -2.0939e+000 +2.1032e+000
1249 0 +4.261001946e-003 -6.785573900e+001 -6.785573900e+001 -2.0941e+000 +2.1052e+000
1252 0 +3.369648030e-003 -6.785663035e+001 -6.785663035e+001 -2.1026e+000 +2.1090e+000
1265 0 +2.700191551e-003 -6.785729981e+001 -6.785729981e+001 -2.0980e+000 +2.1090e+000
1267 0 +1.461979347e-003 -6.785853802e+001 -6.785853802e+001 -2.1026e+000 +2.1077e+000
1270 0 +4.917173746e-004 -6.785950828e+001 -6.785950828e+001 -2.1089e+000 +2.1044e+000
1272 0 +7.413726829e-005 -6.785992586e+001 -6.785992586e+001 -2.1062e+000 +2.1048e+000
1285 0 +7.129050805e-005 -6.785992871e+001 -6.785992871e+001 -2.1055e+000 +2.1052e+000
1295 0 +9.376546217e-006 -6.785999062e+001 -6.785999062e+001 -2.1053e+000 +2.1049e+000
1319 0 +8.866707873e-006 -6.785999113e+001 -6.785999113e+001 -2.1052e+000 +2.1049e+000
1323 0 +2.666151957e-006 -6.785999733e+001 -6.785999733e+001 -2.1050e+000 +2.1049e+000
1341 0 +8.305126897e-007 -6.785999917e+001 -6.785999917e+001 -2.1050e+000 +2.1048e+000
1357 0 +6.457789539e-007 -6.785999935e+001 -6.785999935e+001 -2.1050e+000 +2.1048e+000
1358 0 +1.016968696e-007 -6.785999990e+001 -6.785999990e+001 -2.1049e+000 +2.1048e+000
1377 0 +3.134110216e-008 -6.785999997e+001 -6.785999997e+001 -2.1048e+000 +2.1048e+000
1381 0 +4.053219982e-010 -6.786000000e+001 -6.786000000e+001 -2.1048e+000 +2.1048e+000
% f evaluations | g evaluations | best noise-free fitness - Fopt (-2.329000000000e+001) + sum g_i+ | measured fitness | best measured fitness or single-digit g-values | x1 | x2...
1 0 +2.811024518e+004 +2.808695518e+004 +2.808695518e+004 +2.8311e+000 +4.6970e+000
3 0 +3.292256522e+000 -1.999774348e+001 -1.999774348e+001 +8.3849e-001 +2.1200e+000
34 0 +2.007358527e+000 -2.128264147e+001 -2.128264147e+001 +2.2357e-001 +2.5762e+000
45 0 +1.922503346e+000 -2.136749665e+001 -2.136749665e+001 +2.5264e-001 +2.5751e+000
74 0 +1.852396112e+000 -2.143760389e+001 -2.143760389e+001 +2.8224e-001 +2.5701e+000
127 0 +1.285519706e+000 -2.200448029e+001 -2.200448029e+001 +9.8175e-001 +2.4113e+000
133 0 +1.256481173e+000 -2.203351883e+001 -2.203351883e+001 +1.0049e+000 +2.4055e+000
165 0 +1.195771097e+000 -2.209422890e+001 -2.209422890e+001 +9.9916e-001 +2.4012e+000
190 0 +1.150230038e+000 -2.213976996e+001 -2.213976996e+001 +1.0348e+000 +2.3876e+000
192 0 +1.145121246e+000 -2.214487875e+001 -2.214487875e+001 +1.0344e+000 +2.3870e+000
199 0 +1.110558205e+000 -2.217944180e+001 -2.217944180e+001 +1.0307e+000 +2.3826e+000
204 0 +1.095740489e+000 -2.219425951e+001 -2.219425951e+001 +9.9931e-001 +2.3820e+000
659 0 +3.381748122e-001 -2.295182519e+001 -2.295182519e+001 +2.0261e+000 +2.1517e+000
666 0 +3.202227093e-001 -2.296977729e+001 -2.296977729e+001 +2.0295e+000 +2.1504e+000
674 0 +1.454525146e-001 -2.314454749e+001 -2.314454749e+001 +2.0311e+000 +2.1297e+000
701 0 +9.194768547e-002 -2.319805231e+001 -2.319805231e+001 +2.1257e+000 +2.1176e+000
707 0 +2.461886725e-002 -2.326538113e+001 -2.326538113e+001 +2.1334e+000 +2.1017e+000
714 0 +2.057837259e-002 -2.326942163e+001 -2.326942163e+001 +2.1281e+000 +2.1042e+000
729 0 +1.339762470e-002 -2.327660238e+001 -2.327660238e+001 +2.1223e+000 +2.0957e+000
730 0 +6.799403400e-003 -2.328320060e+001 -2.328320060e+001 +2.1188e+000 +2.0986e+000
758 0 +5.884138737e-003 -2.328411586e+001 -2.328411586e+001 +2.1161e+000 +2.0988e+000
773 0 +8.377869567e-004 -2.328916221e+001 -2.328916221e+001 +2.1097e+000 +2.1027e+000
778 0 +3.458346647e-004 -2.328965417e+001 -2.328965417e+001 +2.1082e+000 +2.1045e+000
793 0 +2.308541201e-004 -2.328976915e+001 -2.328976915e+001 +2.1051e+000 +2.1057e+000
810 0 +5.464233088e-005 -2.328994536e+001 -2.328994536e+001 +2.1047e+000 +2.1044e+000
825 0 +2.339827984e-005 -2.328997660e+001 -2.328997660e+001 +2.1042e+000 +2.1048e+000
847 0 +2.200037898e-005 -2.328997800e+001 -2.328997800e+001 +2.1041e+000 +2.1048e+000
850 0 +2.160059438e-005 -2.328997840e+001 -2.328997840e+001 +2.1055e+000 +2.1045e+000
854 0 +2.131895119e-006 -2.328999787e+001 -2.328999787e+001 +2.1046e+000 +2.1048e+000
855 0 +2.000102057e-006 -2.328999800e+001 -2.328999800e+001 +2.1048e+000 +2.1048e+000
882 0 +6.054428461e-007 -2.328999939e+001 -2.328999939e+001 +2.1050e+000 +2.1048e+000
886 0 +4.925952588e-007 -2.328999951e+001 -2.328999951e+001 +2.1049e+000 +2.1048e+000
895 0 +1.948976802e-007 -2.328999981e+001 -2.328999981e+001 +2.1049e+000 +2.1048e+000
908 0 +1.263196161e-007 -2.328999987e+001 -2.328999987e+001 +2.1049e+000 +2.1048e+000
909 0 +5.474898757e-008 -2.328999995e+001 -2.328999995e+001 +2.1048e+000 +2.1049e+000
918 0 +4.312283508e-008 -2.328999996e+001 -2.328999996e+001 +2.1049e+000 +2.1049e+000
919 0 +5.249606971e-009 -2.328999999e+001 -2.328999999e+001 +2.1049e+000 +2.1048e+000
% f evaluations | g evaluations | best noise-free fitness - Fopt (-1.028000000000e+001) + sum g_i+ | measured fitness | best measured fitness or single-digit g-values | x1 | x2...
1 0 +1.163683242e+004 +1.162655242e+004 +1.162655242e+004 +2.8183e+000 +3.7541e+000
2 0 +6.119447161e+000 -4.160552839e+000 -4.160552839e+000 -9.4346e-001 +2.6364e+000
7 0 +3.910095225e+000 -6.369904775e+000 -6.369904775e+000 -1.2105e+000 +2.6385e+000
22 0 +2.563805562e+000 -7.716194438e+000 -7.716194438e+000 -1.5190e+000 +2.6010e+000
30 0 +2.458556936e+000 -7.821443064e+000 -7.821443064e+000 -1.6945e+000 +2.7105e+000
35 0 +2.153500686e+000 -8.126499314e+000 -8.126499314e+000 -1.7809e+000 +3.0679e+000
57 0 +1.726677919e+000 -8.553322081e+000 -8.553322081e+000 -1.6374e+000 +2.9836e+000
59 0 +1.473473900e+000 -8.806526100e+000 -8.806526100e+000 -1.6094e+000 +1.9043e+000
105 0 +1.319340909e+000 -8.960659091e+000 -8.960659091e+000 -1.5176e+000 +1.8898e+000
110 0 +1.313117972e+000 -8.966882028e+000 -8.966882028e+000 -1.5770e+000 +1.8912e+000
114 0 +1.198528781e+000 -9.081471219e+000 -9.081471219e+000 -1.5082e+000 +1.8715e+000
602 0 +1.144580784e+000 -9.135419216e+000 -9.135419216e+000 +9.9175e-001 +2.3705e+000
604 0 +1.108480114e+000 -9.171519886e+000 -9.171519886e+000 +9.9248e-001 +2.3785e+000
607 0 +1.087865434e+000 -9.192134566e+000 -9.192134566e+000 +1.0099e+000 +2.3789e+000
2806 0 +1.053231713e+000 -9.226768287e+000 -9.226768287e+000 +2.0768e+000 +9.2544e-001
2811 0 +8.181445526e-001 -9.461855447e+000 -9.461855447e+000 +2.1244e+000 +9.2658e-001
2821 0 +6.533996627e-001 -9.626600337e+000 -9.626600337e+000 +2.1541e+000 +9.4915e-001
2857 0 +6.344358795e-001 -9.645564121e+000 -9.645564121e+000 +2.1445e+000 +9.4779e-001
2872 0 +6.210884818e-001 -9.658911518e+000 -9.658911518e+000 +2.1216e+000 +9.4743e-001
2884 0 +6.132821977e-001 -9.666717802e+000 -9.666717802e+000 +2.1334e+000 +9.5244e-001
2886 0 +5.980932613e-001 -9.681906739e+000 -9.681906739e+000 +2.1200e+000 +9.5783e-001
4180 0 +1.407868669e-001 -1.013921313e+001 -1.013921313e+001 +2.0669e+000 +2.0938e+000
4184 0 +1.184607007e-001 -1.016153930e+001 -1.016153930e+001 +2.1694e+000 +2.0961e+000
4237 0 +8.206524770e-002 -1.019793475e+001 -1.019793475e+001 +2.1619e+000 +2.0907e+000
4250 0 +6.764383445e-002 -1.021235617e+001 -1.021235617e+001 +2.1564e+000 +2.0902e+000
4252 0 +3.992609709e-002 -1.024007390e+001 -1.024007390e+001 +2.1179e+000 +2.0897e+000
4256 0 +3.104648849e-002 -1.024895351e+001 -1.024895351e+001 +2.1380e+000 +2.1001e+000
4258 0 +6.939979722e-003 -1.027306002e+001 -1.027306002e+001 +2.1204e+000 +2.0991e+000
4260 0 +6.798042152e-003 -1.027320196e+001 -1.027320196e+001 +2.1181e+000 +2.0985e+000
4262 0 +4.032800812e-004 -1.027959672e+001 -1.027959672e+001 +2.1057e+000 +2.1059e+000
4306 0 +2.854861613e-004 -1.027971451e+001 -1.027971451e+001 +2.1081e+000 +2.1037e+000
4319 0 +5.415762069e-005 -1.027994584e+001 -1.027994584e+001 +2.1050e+000 +2.1043e+000
4321 0 +2.448105515e-005 -1.027997552e+001 -1.027997552e+001 +2.1052e+000 +2.1045e+000
4327 0 +1.759388704e-005 -1.027998241e+001 -1.027998241e+001 +2.1044e+000 +2.1052e+000
4341 0 +1.598822935e-005 -1.027998401e+001 -1.027998401e+001 +2.1041e+000 +2.1051e+000
4354 0 +1.313811655e-007 -1.027999987e+001 -1.027999987e+001 +2.1049e+000 +2.1048e+000
4362 0 +4.478213000e-008 -1.027999996e+001 -1.027999996e+001 +2.1048e+000 +2.1048e+000
4408 0 +4.453143809e-008 -1.027999996e+001 -1.027999996e+001 +2.1048e+000 +2.1048e+000
4414 0 +3.482134225e-008 -1.027999997e+001 -1.027999997e+001 +2.1048e+000 +2.1048e+000
4421 0 +3.173748198e-008 -1.027999997e+001 -1.027999997e+001 +2.1049e+000 +2.1049e+000
4422 0 +2.846259406e-008 -1.027999997e+001 -1.027999997e+001 +2.1049e+000 +2.1048e+000
4427 0 +1.877875633e-010 -1.028000000e+001 -1.028000000e+001 +2.1048e+000 +2.1048e+000
% f evaluations | g evaluations | best noise-free fitness - Fopt (1.799700000000e+002) + sum g_i+ | measured fitness | best measured fitness or single-digit g-values | x1 | x2...
1 0 +1.494736887e+003 +1.674706887e+003 +1.674706887e+003 -4.4275e+000 +7.2274e-001
3 0 +5.347960634e+002 +7.147660634e+002 +7.147660634e+002 -3.6545e+000 +7.4871e-001
13 0 +9.721064666e+001 +2.771806467e+002 +2.771806467e+002 +2.4298e-001 +1.0817e+000
28 0 +4.478034280e+000 +1.844480343e+002 +1.844480343e+002 -4.9706e-001 +1.9004e+000
37 0 +3.746309749e+000 +1.837163097e+002 +1.837163097e+002 -4.1533e-001 +1.9677e+000
48 0 +3.574841243e+000 +1.835448412e+002 +1.835448412e+002 -4.0066e-001 +2.2369e+000
59 0 +1.818071741e+000 +1.817880717e+002 +1.817880717e+002 -9.4709e-001 +1.2433e+000
80 0 +1.428124287e+000 +1.813981243e+002 +1.813981243e+002 -1.9510e+000 +1.0330e+000
85 0 +1.188183967e+000 +1.811581840e+002 +1.811581840e+002 -2.0136e+000 +9.4383e-001
125 0 +1.143508690e+000 +1.811135087e+002 +1.811135087e+002 -2.0079e+000 +9.4917e-001
143 0 +1.043528817e+000 +1.810135288e+002 +1.810135288e+002 -2.0147e+000 +9.5171e-001
149 0 +8.238569219e-001 +1.807938569e+002 +1.807938569e+002 -2.0625e+000 +9.4418e-001
151 0 +7.848476224e-001 +1.807548476e+002 +1.807548476e+002 -2.0844e+000 +9.3905e-001
158 0 +7.700247014e-001 +1.807400247e+002 +1.807400247e+002 -2.1126e+000 +9.3244e-001
169 0 +6.176937061e-001 +1.805876937e+002 +1.805876937e+002 -2.0744e+000 +9.6552e-001
179 0 +5.922273731e-001 +1.805622274e+002 +1.805622274e+002 -2.1045e+000 +9.6061e-001
610 0 +5.323076417e-002 +1.800232308e+002 +1.800232308e+002 -2.1183e+000 +2.1154e+000
626 0 +8.375145385e-004 +1.799708375e+002 +1.799708375e+002 -2.1016e+000 +2.1072e+000
648 0 +6.098269641e-004 +1.799706098e+002 +1.799706098e+002 -2.1005e+000 +2.1066e+000
688 0 +2.904092034e-004 +1.799702904e+002 +1.799702904e+002 -2.1015e+000 +2.1058e+000
705 0 +1.851516936e-004 +1.799701852e+002 +1.799701852e+002 -2.1055e+000 +2.1055e+000
739 0 +1.442764265e-004 +1.799701443e+002 +1.799701443e+002 -2.1025e+000 +2.1054e+000
746 0 +6.706244287e-005 +1.799700671e+002 +1.799700671e+002 -2.1064e+000 +2.1046e+000
753 0 +8.483021332e-006 +1.799700085e+002 +1.799700085e+002 -2.1054e+000 +2.1046e+000
779 0 +8.221120368e-006 +1.799700082e+002 +1.799700082e+002 -2.1054e+000 +2.1046e+000
791 0 +8.108853905e-006 +1.799700081e+002 +1.799700081e+002 -2.1053e+000 +2.1046e+000
812 0 +4.768999105e-006 +1.799700048e+002 +1.799700048e+002 -2.1052e+000 +2.1048e+000
814 0 +6.927623133e-007 +1.799700007e+002 +1.799700007e+002 -2.1049e+000 +2.1049e+000
859 0 +6.095939966e-007 +1.799700006e+002 +1.799700006e+002 -2.1050e+000 +2.1048e+000
861 0 +3.919180074e-007 +1.799700004e+002 +1.799700004e+002 -2.1050e+000 +2.1048e+000
865 0 +3.036225280e-007 +1.799700003e+002 +1.799700003e+002 -2.1049e+000 +2.1048e+000
877 0 +2.372865993e-007 +1.799700002e+002 +1.799700002e+002 -2.1049e+000 +2.1048e+000
900 0 +2.228452445e-008 +1.799700000e+002 +1.799700000e+002 -2.1048e+000 +2.1049e+000
910 0 +1.690659701e-008 +1.799700000e+002 +1.799700000e+002 -2.1048e+000 +2.1049e+000
932 0 +5.978080253e-009 +1.799700000e+002 +1.799700000e+002 -2.1048e+000 +2.1048e+000
% f evaluations | g evaluations | best noise-free fitness - Fopt (8.376000000000e+001) + sum g_i+ | measured fitness | best measured fitness or single-digit g-values | x1 | x2...
1 0 +3.979533131e+004 +3.987909131e+004 +3.987909131e+004 +2.4998e+000 -1.3544e+000
2 0 +1.030987325e+004 +1.039363325e+004 +1.039363325e+004 +3.8120e+000 +5.7792e-001
4 0 +6.452619295e+003 +6.536379295e+003 +6.536379295e+003 +5.0000e+000 +5.0000e+000
5 0 +2.520461944e+003 +2.604221944e+003 +2.604221944e+003 -3.3701e-002 +3.7349e-001
7 0 +3.553069333e+002 +4.390669333e+002 +4.390669333e+002 +3.4309e+000 +3.3121e+000
10 0 +4.067500234e+000 +8.782750023e+001 +8.782750023e+001 +5.0372e-001 +2.6475e+000
16 0 +3.853453534e+000 +8.761345353e+001 +8.761345353e+001 +4.4147e-001 +2.3427e+000
31 0 +3.237678249e+000 +8.699767825e+001 +8.699767825e+001 -4.4881e-002 +1.1568e+000
54 0 +2.851828988e+000 +8.661182899e+001 +8.661182899e+001 -2.3517e-001 +1.3940e+000
77 0 +2.206822753e+000 +8.596682275e+001 +8.596682275e+001 +1.4426e+000 +1.9119e+000
81 0 +1.575560546e+000 +8.533556055e+001 +8.533556055e+001 +1.4688e+000 +1.8921e+000
82 0 +1.519434959e+000 +8.527943496e+001 +8.527943496e+001 +1.4029e+000 +1.8247e+000
143 0 +1.251454064e+000 +8.501145406e+001 +8.501145406e+001 +1.5381e+000 +1.8575e+000
176 0 +1.218683158e+000 +8.497868316e+001 +8.497868316e+001 +1.4760e+000 +1.8575e+000
195 0 +1.190391379e+000 +8.495039138e+001 +8.495039138e+001 +1.5170e+000 +1.8710e+000
629 0 +3.733147255e-001 +8.413331473e+001 +8.413331473e+001 -2.0036e+000 +2.1522e+000
654 0 +3.424297527e-001 +8.410242975e+001 +8.410242975e+001 -2.0189e+000 +2.1516e+000
665 0 +3.202012357e-001 +8.408020124e+001 +8.408020124e+001 -2.0153e+000 +2.1493e+000
667 0 +3.110439300e-001 +8.407104393e+001 +8.407104393e+001 -2.0085e+000 +2.1471e+000
676 0 +2.758499250e-001 +8.403584993e+001 +8.403584993e+001 -2.0107e+000 +2.1435e+000
680 0 +1.974602825e-001 +8.395746028e+001 +8.395746028e+001 -2.0403e+000 +2.1403e+000
684 0 +1.547701388e-001 +8.391477014e+001 +8.391477014e+001 -2.0581e+000 +2.1365e+000
690 0 +8.426682769e-002 +8.384426683e+001 +8.384426683e+001 -2.0772e+000 +2.1278e+000
703 0 +5.279027028e-002 +8.381279027e+001 +8.381279027e+001 -2.0672e+000 +2.1225e+000
711 0 +5.207796450e-002 +8.381207796e+001 +8.381207796e+001 -2.0960e+000 +2.1211e+000
713 0 +2.550699459e-002 +8.378550699e+001 +8.378550699e+001 -2.0738e+000 +2.1149e+000
722 0 +4.283343674e-003 +8.376428334e+001 +8.376428334e+001 -2.0919e+000 +2.1086e+000
723 0 +3.847181700e-003 +8.376384718e+001 +8.376384718e+001 -2.0982e+000 +2.1032e+000
735 0 +1.846612679e-003 +8.376184661e+001 +8.376184661e+001 -2.0989e+000 +2.1044e+000
758 0 +1.778385697e-003 +8.376177839e+001 +8.376177839e+001 -2.1015e+000 +2.1032e+000
778 0 +1.715881404e-003 +8.376171588e+001 +8.376171588e+001 -2.1020e+000 +2.1031e+000
781 0 +3.121619191e-004 +8.376031216e+001 +8.376031216e+001 -2.1053e+000 +2.1036e+000
786 0 +2.304598699e-004 +8.376023046e+001 +8.376023046e+001 -2.1072e+000 +2.1037e+000
796 0 +1.152172931e-004 +8.376011522e+001 +8.376011522e+001 -2.1055e+000 +2.1040e+000
800 0 +8.748706918e-006 +8.376000875e+001 +8.376000875e+001 -2.1054e+000 +2.1047e+000
807 0 +2.283361198e-007 +8.376000023e+001 +8.376000023e+001 -2.1048e+000 +2.1049e+000
860 0 +1.244425505e-007 +8.376000012e+001 +8.376000012e+001 -2.1048e+000 +2.1048e+000
895 0 +1.223847903e-007 +8.376000012e+001 +8.376000012e+001 -2.1048e+000 +2.1048e+000
910 0 +8.287388198e-008 +8.376000008e+001 +8.376000008e+001 -2.1048e+000 +2.1048e+000
912 0 +2.627982099e-008 +8.376000003e+001 +8.376000003e+001 -2.1048e+000 +2.1048e+000
924 0 +8.537725193e-009 +8.376000001e+001 +8.376000001e+001 -2.1049e+000 +2.1048e+000
% f evaluations | g evaluations | best noise-free fitness - Fopt (-3.890100000000e+002) + sum g_i+ | measured fitness | best measured fitness or single-digit g-values | x1 | x2...
1 0 +3.646547303e+003 +3.257537303e+003 +3.257537303e+003 -3.8926e+000 +6.4451e-001
8 0 +4.201579771e+002 +3.114797708e+001 +3.114797708e+001 -3.5237e+000 -1.2421e+000
12 0 +2.242013438e+001 -3.665898656e+002 -3.665898656e+002 -2.6889e+000 -1.7863e+000
22 0 +2.002000599e+001 -3.689899940e+002 -3.689899940e+002 -2.6850e+000 -1.6702e+000
23 0 +4.321355490e+000 -3.846886445e+002 -3.846886445e+002 -9.4591e-001 -1.4057e+000
48 0 +2.996949463e+000 -3.860130505e+002 -3.860130505e+002 -8.5360e-001 -1.2187e+000
60 0 +1.019525275e+000 -3.879904747e+002 -3.879904747e+002 +1.5953e+000 -3.0619e+000
91 0 +7.404079709e-001 -3.882695920e+002 -3.882695920e+002 +1.5011e+000 -3.0304e+000
115 0 +6.230112229e-001 -3.883869888e+002 -3.883869888e+002 +1.4926e+000 -2.9951e+000
151 0 +6.119293931e-001 -3.883980706e+002 -3.883980706e+002 +1.5315e+000 -3.0204e+000
219 0 +5.942874913e-001 -3.884157125e+002 -3.884157125e+002 +1.5113e+000 -3.0060e+000
1758 0 +4.439094097e-001 -3.885660906e+002 -3.885660906e+002 -1.9881e+000 -2.1552e+000
1766 0 +4.332402682e-001 -3.885767597e+002 -3.885767597e+002 -1.9944e+000 -2.1557e+000
1784 0 +3.461748793e-001 -3.886638251e+002 -3.886638251e+002 -1.9903e+000 -2.1232e+000
1786 0 +3.280556543e-001 -3.886819443e+002 -3.886819443e+002 -2.0673e+000 -2.1485e+000
1787 0 +3.046031454e-001 -3.887053969e+002 -3.887053969e+002 -2.1915e+000 -2.0615e+000
1790 0 +3.541621169e-002 -3.889745838e+002 -3.889745838e+002 -2.1418e+000 -2.0974e+000
1799 0 +2.989694376e-002 -3.889801031e+002 -3.889801031e+002 -2.1391e+000 -2.0972e+000
1839 0 +6.250801006e-003 -3.890037492e+002 -3.890037492e+002 -2.1174e+000 -2.1047e+000
1846 0 +1.483268848e-003 -3.890085167e+002 -3.890085167e+002 -2.1077e+000 -2.1064e+000
1860 0 +8.393038581e-004 -3.890091607e+002 -3.890091607e+002 -2.1100e+000 -2.1044e+000
1910 0 +6.555127317e-005 -3.890099344e+002 -3.890099344e+002 -2.1035e+000 -2.1049e+000
1927 0 +4.482872669e-005 -3.890099552e+002 -3.890099552e+002 -2.1037e+000 -2.1049e+000
1940 0 +3.831017528e-005 -3.890099617e+002 -3.890099617e+002 -2.1037e+000 -2.1050e+000
1945 0 +2.436378037e-005 -3.890099756e+002 -3.890099756e+002 -2.1056e+000 -2.1045e+000
1955 0 +4.157390663e-006 -3.890099958e+002 -3.890099958e+002 -2.1051e+000 -2.1047e+000
1967 0 +2.420870260e-006 -3.890099976e+002 -3.890099976e+002 -2.1051e+000 -2.1048e+000
1990 0 +2.229402071e-006 -3.890099978e+002 -3.890099978e+002 -2.1051e+000 -2.1048e+000
2027 0 +1.948891850e-006 -3.890099981e+002 -3.890099981e+002 -2.1049e+000 -2.1049e+000
2034 0 +6.060467399e-007 -3.890099994e+002 -3.890099994e+002 -2.1048e+000 -2.1049e+000
2037 0 +4.784491807e-007 -3.890099995e+002 -3.890099995e+002 -2.1048e+000 -2.1049e+000
2043 0 +3.998431453e-007 -3.890099996e+002 -3.890099996e+002 -2.1048e+000 -2.1049e+000
2050 0 +3.187215043e-007 -3.890099997e+002 -3.890099997e+002 -2.1048e+000 -2.1049e+000
2056 0 +1.308297328e-007 -3.890099999e+002 -3.890099999e+002 -2.1048e+000 -2.1049e+000
2061 0 +4.254115993e-008 -3.890100000e+002 -3.890100000e+002 -2.1048e+000 -2.1048e+000
2078 0 +2.315448455e-008 -3.890100000e+002 -3.890100000e+002 -2.1048e+000 -2.1048e+000
2104 0 +1.880800937e-008 -3.890100000e+002 -3.890100000e+002 -2.1049e+000 -2.1048e+000
2107 0 +3.039588137e-009 -3.890100000e+002 -3.890100000e+002 -2.1048e+000 -2.1048e+000
% f evaluations | g evaluations | best noise-free fitness - Fopt (-1.455800000000e+002) + sum g_i+ | measured fitness | best measured fitness or single-digit g-values | x1 | x2...
1 0 +8.835475170e+002 +7.379675170e+002 +7.379675170e+002 +3.4747e+000 +4.7022e-002
6 0 +3.880759873e+000 -1.416992401e+002 -1.416992401e+002 +2.3904e+000 -1.3706e+000
14 0 +2.045162149e+000 -1.435348379e+002 -1.435348379e+002 +2.1458e+000 -1.3781e+000
23 0 +2.037326758e+000 -1.435426732e+002 -1.435426732e+002 +2.0568e+000 -1.4061e+000
64 0 +1.689409669e+000 -1.438905903e+002 -1.438905903e+002 +2.1553e+000 -1.6997e+000
87 0 +1.173607566e+000 -1.444063924e+002 -1.444063924e+002 +2.1443e+000 -1.7377e+000
98 0 +8.733428881e-001 -1.447066571e+002 -1.447066571e+002 +2.1484e+000 -2.1527e+000
100 0 +8.530677742e-001 -1.447269322e+002 -1.447269322e+002 +2.1481e+000 -2.1520e+000
103 0 +5.303635390e-002 -1.455269636e+002 -1.455269636e+002 +2.1314e+000 -2.1100e+000
167 0 +4.890991915e-002 -1.455310901e+002 -1.455310901e+002 +2.1388e+000 -2.1052e+000
172 0 +3.406786468e-002 -1.455459321e+002 -1.455459321e+002 +2.1416e+000 -2.0961e+000
174 0 +3.386892356e-002 -1.455461311e+002 -1.455461311e+002 +2.1415e+000 -2.0959e+000
196 0 +3.033246481e-002 -1.455496675e+002 -1.455496675e+002 +2.1382e+000 -2.0935e+000
197 0 +2.969211450e-002 -1.455503079e+002 -1.455503079e+002 +2.1330e+000 -2.0916e+000
198 0 +1.770117787e-002 -1.455622988e+002 -1.455622988e+002 +2.1311e+000 -2.0994e+000
203 0 +1.718205276e-002 -1.455628179e+002 -1.455628179e+002 +2.1307e+000 -2.0995e+000
206 0 +1.637858585e-002 -1.455636214e+002 -1.455636214e+002 +2.1292e+000 -2.1011e+000
210 0 +9.933911342e-003 -1.455700661e+002 -1.455700661e+002 +2.1241e+000 -2.0985e+000
217 0 +4.751441860e-004 -1.455795249e+002 -1.455795249e+002 +2.1091e+000 -2.1040e+000
226 0 +3.614379387e-004 -1.455796386e+002 -1.455796386e+002 +2.1073e+000 -2.1051e+000
245 0 +2.470109238e-004 -1.455797530e+002 -1.455797530e+002 +2.1063e+000 -2.1054e+000
254 0 +2.280541147e-004 -1.455797719e+002 -1.455797719e+002 +2.1063e+000 -2.1053e+000
256 0 +1.847054567e-004 -1.455798153e+002 -1.455798153e+002 +2.1037e+000 -2.1059e+000
280 0 +1.614856546e-004 -1.455798385e+002 -1.455798385e+002 +2.1051e+000 -2.1056e+000
283 0 +1.481602800e-004 -1.455798518e+002 -1.455798518e+002 +2.1050e+000 -2.1056e+000
296 0 +9.954641524e-005 -1.455799005e+002 -1.455799005e+002 +2.1047e+000 -2.1055e+000
297 0 +7.623682916e-005 -1.455799238e+002 -1.455799238e+002 +2.1038e+000 -2.1055e+000
298 0 +7.581684372e-005 -1.455799242e+002 -1.455799242e+002 +2.1038e+000 -2.1055e+000
302 0 +3.444979220e-005 -1.455799656e+002 -1.455799656e+002 +2.1040e+000 -2.1053e+000
305 0 +2.143965281e-005 -1.455799786e+002 -1.455799786e+002 +2.1046e+000 -2.1052e+000
314 0 +2.024702977e-005 -1.455799798e+002 -1.455799798e+002 +2.1046e+000 -2.1052e+000
315 0 +4.936781295e-007 -1.455799995e+002 -1.455799995e+002 +2.1048e+000 -2.1049e+000
339 0 +4.359092429e-007 -1.455799996e+002 -1.455799996e+002 +2.1049e+000 -2.1049e+000
340 0 +3.640471107e-007 -1.455799996e+002 -1.455799996e+002 +2.1048e+000 -2.1049e+000
363 0 +3.356713023e-007 -1.455799997e+002 -1.455799997e+002 +2.1048e+000 -2.1049e+000
398 0 +3.148477674e-007 -1.455799997e+002 -1.455799997e+002 +2.1049e+000 -2.1048e+000
404 0 +1.883638561e-007 -1.455799998e+002 -1.455799998e+002 +2.1048e+000 -2.1049e+000
419 0 +1.520349429e-007 -1.455799998e+002 -1.455799998e+002 +2.1048e+000 -2.1049e+000
422 0 +1.142543908e-007 -1.455799999e+002 -1.455799999e+002 +2.1048e+000 -2.1049e+000
431 0 +2.235947250e-008 -1.455800000e+002 -1.455800000e+002 +2.1049e+000 -2.1048e+000
437 0 +1.686794349e-008 -1.455800000e+002 -1.455800000e+002 +2.1048e+000 -2.1049e+000
449 0 +1.074732836e-008 -1.455800000e+002 -1.455800000e+002 +2.1048e+000 -2.1048e+000
451 0 +8.123890893e-009 -1.455800000e+002 -1.455800000e+002 +2.1048e+000 -2.1048e+000
