% f evaluations | g evaluations | best noise-free fitness - Fopt (-1.694000000000e+001) + sum g_i+ | measured fitness | best measured fitness or single-digit g-values | x1 | x2...
1 0 +1.398221148e+002 +1.228821148e+002 +1.228821148e+002 +5.0000e+000 +5.0000e+000
3 0 +1.016199963e+001 -6.778000370e+000 -6.778000370e+000 +5.0000e+000 -5.0000e+000
4 0 +8.125536545e+000 -8.814463455e+000 -8.814463455e+000 +4.5188e+000 -2.6627e+000
112 0 +7.849528711e+000 -9.090471289e+000 -9.090471289e+000 +4.9999e+000 -3.3366e+000
129 0 +5.425596312e+000 -1.151440369e+001 -1.151440369e+001 +4.4719e+000 -1.4888e+000
151 0 +3.998318558e+000 -1.294168144e+001 -1.294168144e+001 +4.1380e+000 -2.8421e-001
185 0 +3.228349591e+000 -1.371165041e+001 -1.371165041e+001 +4.2874e+000 -4.8210e-001
226 0 +1.348047759e+000 -1.559195224e+001 -1.559195224e+001 +3.8326e+000 +1.6268e+000
244 0 +9.002636133e-001 -1.603973639e+001 -1.603973639e+001 +3.6762e+000 +2.3317e+000
265 0 +7.830679323e-001 -1.615693207e+001 -1.615693207e+001 +3.6820e+000 +2.4470e+000
275 0 +5.218624436e-001 -1.641813756e+001 -1.641813756e+001 +3.6754e+000 +2.5145e+000
277 0 +1.596858149e-001 -1.678031419e+001 -1.678031419e+001 +3.6179e+000 +2.6785e+000
318 0 +1.053286426e-001 -1.683467136e+001 -1.683467136e+001 +3.6257e+000 +2.6411e+000
430 0 +1.034060998e-001 -1.683659390e+001 -1.683659390e+001 +3.6240e+000 +2.6492e+000
434 0 +9.937740136e-002 -1.684062260e+001 -1.684062260e+001 +3.6251e+000 +2.6449e+000
505 0 +7.507091845e-002 -1.686492908e+001 -1.686492908e+001 +3.6504e+000 +2.5736e+000
544 0 +6.106923423e-002 -1.687893077e+001 -1.687893077e+001 +3.6507e+000 +2.5757e+000
547 0 +5.767656687e-002 -1.688232343e+001 -1.688232343e+001 +3.6675e+000 +2.4946e+000
702 0 +3.397586580e-002 -1.690602413e+001 -1.690602413e+001 +3.6551e+000 +2.5545e+000
704 0 +7.552083399e-003 -1.693244792e+001 -1.693244792e+001 +3.6562e+000 +2.5498e+000
707 0 +4.184026670e-003 -1.693581597e+001 -1.693581597e+001 +3.6558e+000 +2.5509e+000
711 0 +1.308679668e-003 -1.693869132e+001 -1.693869132e+001 +3.6562e+000 +2.5485e+000
773 0 +1.085341687e-003 -1.693891466e+001 -1.693891466e+001 +3.6562e+000 +2.5486e+000
833 0 +1.038892389e-003 -1.693896111e+001 -1.693896111e+001 +3.6561e+000 +2.5490e+000
839 0 +1.019669543e-003 -1.693898033e+001 -1.693898033e+001 +3.6562e+000 +2.5487e+000
871 0 +9.885784807e-004 -1.693901142e+001 -1.693901142e+001 +3.6562e+000 +2.5487e+000
925 0 +4.188914327e-004 -1.693958111e+001 -1.693958111e+001 +3.6561e+000 +2.5493e+000
934 0 +2.397361344e-004 -1.693976026e+001 -1.693976026e+001 +3.6560e+000 +2.5494e+000
991 0 +1.338915204e-004 -1.693986611e+001 -1.693986611e+001 +3.6560e+000 +2.5496e+000
1003 0 +1.249335014e-004 -1.693987507e+001 -1.693987507e+001 +3.6560e+000 +2.5496e+000
1015 0 +2.877769975e-005 -1.693997122e+001 -1.693997122e+001 +3.6560e+000 +2.5496e+000
1056 0 +1.176886384e-005 -1.693998823e+001 -1.693998823e+001 +3.6560e+000 +2.5496e+000
1063 0 +7.550167524e-006 -1.693999245e+001 -1.693999245e+001 +3.6560e+000 +2.5496e+000
1075 0 +1.276456977e-006 -1.693999872e+001 -1.693999872e+001 +3.6560e+000 +2.5496e+000
1099 0 +9.520521154e-007 -1.693999905e+001 -1.693999905e+001 +3.6560e+000 +2.5496e+000
1105 0 +5.499752014e-007 -1.693999945e+001 -1.693999945e+001 +3.6560e+000 +2.5496e+000
1136 0 +5.238646672e-007 -1.693999948e+001 -1.693999948e+001 +3.6560e+000 +2.5496e+000
1174 0 +4.649756029e-007 -1.693999954e+001 -1.693999954e+001 +3.6560e+000 +2.5496e+000
1188 0 +4.195547554e-007 -1.693999958e+001 -1.693999958e+001 +3.6560e+000 +2.5496e+000
1189 0 +3.531711776e-007 -1.693999965e+001 -1.693999965e+001 +3.6560e+000 +2.5496e+000
1204 0 +3.279320104e-007 -1.693999967e+001 -1.693999967e+001 +3.6560e+000 +2.5496e+000
1220 0 +2.864936945e-007 -1.693999971e+001 -1.693999971e+001 +3.6560e+000 +2.5496e+000
1247 0 +1.776228515e-007 -1.693999982e+001 -1.693999982e+001 +3.6560e+000 +2.5496e+000
1263 0 +1.019229678e-007 -1.693999990e+001 -1.693999990e+001 +3.6560e+000 +2.5496e+000
1264 0 +6.246844819e-008 -1.693999994e+001 -1.693999994e+001 +3.6560e+000 +2.5496e+000
1269 0 +5.164482531e-008 -1.693999995e+001 -1.693999995e+001 +3.6560e+000 +2.5496e+000
1270 0 +3.648450431e-008 -1.693999996e+001 -1.693999996e+001 +3.6560e+000 +2.5496e+000
1388 0 +1.136175243e-008 -1.693999999e+001 -1.693999999e+001 +3.6560e+000 +2.5496e+000
1421 0 +1.081214052e-008 -1.693999999e+001 -1.693999999e+001 +3.6560e+000 +2.5496e+000
1426 0 +6.193559443e-009 -1.693999999e+001 -1.693999999e+001 +3.6560e+000 +2.5496e+000
% f evaluations | g evaluations | best noise-free fitness - Fopt (1.881000000000e+001) + sum g_i+ | measured fitness | best measured fitness or single-digit g-values | x1 | x2...
1 0 +4.484681646e+001 +6.365681646e+001 +6.365681646e+001 +5.0000e+000 +5.0000e+000
7 0 +1.427732494e+001 +3.308732494e+001 +3.308732494e+001 +5.0000e+000 +4.5771e+000
64 0 +1.199003559e+001 +3.080003559e+001 +3.080003559e+001 +4.9152e+000 +4.4248e+000
67 0 +1.169465950e+001 +3.050465950e+001 +3.050465950e+001 +4.9348e+000 +4.4365e+000
1180 0 +7.966259553e+000 +2.677625955e+001 +2.677625955e+001 +3.4823e+000 +2.9513e+000
1236 0 +3.712480197e+000 +2.252248020e+001 +2.252248020e+001 -1.6468e+000 +1.8356e+000
1283 0 +1.909574546e+000 +2.071957455e+001 +2.071957455e+001 +7.7023e-001 +1.6677e+000
1343 0 +1.439275924e+000 +2.024927592e+001 +2.024927592e+001 +1.0936e+000 +1.7505e+000
1374 0 +1.410201358e+000 +2.022020136e+001 +2.022020136e+001 +9.9888e-001 +1.7242e+000
1401 0 +1.302409163e+000 +2.011240916e+001 +2.011240916e+001 +8.5520e-001 +1.7316e+000
1477 0 +1.275702541e+000 +2.008570254e+001 +2.008570254e+001 +8.0611e-001 +1.7254e+000
1494 0 +1.027491612e+000 +1.983749161e+001 +1.983749161e+001 +8.1958e-001 +1.7291e+000
1501 0 +8.901642913e-001 +1.970016429e+001 +1.970016429e+001 +6.4676e-001 +1.7080e+000
1507 0 +7.971835215e-001 +1.960718352e+001 +1.960718352e+001 +6.3241e-001 +1.7042e+000
1513 0 +7.425921401e-001 +1.955259214e+001 +1.955259214e+001 +5.3652e-001 +1.6938e+000
1544 0 +5.540319899e-001 +1.936403199e+001 +1.936403199e+001 +4.1655e-001 +1.7120e+000
1546 0 +5.377799628e-001 +1.934777996e+001 +1.934777996e+001 +4.0768e-001 +1.7114e+000
1565 0 +4.727065100e-001 +1.928270651e+001 +1.928270651e+001 -4.0681e-002 +1.7527e+000
1570 0 +1.104599207e-001 +1.892045992e+001 +1.892045992e+001 -1.8165e-001 +1.7809e+000
1590 0 +3.391473221e-002 +1.884391473e+001 +1.884391473e+001 -1.6817e-001 +1.7783e+000
1600 0 +3.358666293e-002 +1.884358666e+001 +1.884358666e+001 -1.6969e-001 +1.7786e+000
1610 0 +3.250949423e-002 +1.884250949e+001 +1.884250949e+001 -1.5954e-001 +1.7766e+000
1627 0 +3.212567978e-002 +1.884212568e+001 +1.884212568e+001 -1.5760e-001 +1.7750e+000
1868 0 +1.852556795e-002 +1.882852557e+001 +1.882852557e+001 -1.8007e-001 +1.7789e+000
1869 0 +1.375364992e-002 +1.882375365e+001 +1.882375365e+001 -1.9546e-001 +1.7811e+000
1890 0 +8.300341957e-003 +1.881830034e+001 +1.881830034e+001 -1.9779e-001 +1.7812e+000
1950 0 +5.182686236e-003 +1.881518269e+001 +1.881518269e+001 -1.9445e-001 +1.7809e+000
1965 0 +3.104862752e-003 +1.881310486e+001 +1.881310486e+001 -1.9429e-001 +1.7809e+000
1967 0 +3.076687387e-003 +1.881307669e+001 +1.881307669e+001 -1.9409e-001 +1.7809e+000
2036 0 +2.747385569e-003 +1.881274739e+001 +1.881274739e+001 -1.8981e-001 +1.7807e+000
2050 0 +1.293801035e-003 +1.881129380e+001 +1.881129380e+001 -1.9035e-001 +1.7807e+000
2055 0 +1.201060450e-003 +1.881120106e+001 +1.881120106e+001 -1.9005e-001 +1.7807e+000
2085 0 +9.885847581e-004 +1.881098858e+001 +1.881098858e+001 -1.9019e-001 +1.7807e+000
4128 0 +6.409820394e-004 +1.881064098e+001 +1.881064098e+001 -1.9129e-001 +1.7808e+000
4152 0 +2.874121020e-004 +1.881028741e+001 +1.881028741e+001 -1.9143e-001 +1.7808e+000
4171 0 +2.674701769e-004 +1.881026747e+001 +1.881026747e+001 -1.9108e-001 +1.7808e+000
4184 0 +2.302526309e-004 +1.881023025e+001 +1.881023025e+001 -1.9132e-001 +1.7808e+000
4194 0 +1.359724312e-004 +1.881013597e+001 +1.881013597e+001 -1.9125e-001 +1.7808e+000
4221 0 +8.539797916e-005 +1.881008540e+001 +1.881008540e+001 -1.9125e-001 +1.7808e+000
4236 0 +3.456292457e-005 +1.881003456e+001 +1.881003456e+001 -1.9123e-001 +1.7808e+000
4265 0 +3.376151254e-005 +1.881003376e+001 +1.881003376e+001 -1.9123e-001 +1.7808e+000
4266 0 +3.192035411e-005 +1.881003192e+001 +1.881003192e+001 -1.9119e-001 +1.7808e+000
4273 0 +2.878190439e-005 +1.881002878e+001 +1.881002878e+001 -1.9119e-001 +1.7808e+000
4318 0 +2.307621296e-005 +1.881002308e+001 +1.881002308e+001 -1.9119e-001 +1.7808e+000
4324 0 +1.253966236e-005 +1.881001254e+001 +1.881001254e+001 -1.9120e-001 +1.7808e+000
4327 0 +1.223722444e-005 +1.881001224e+001 +1.881001224e+001 -1.9120e-001 +1.7808e+000
4343 0 +1.009519666e-005 +1.881001010e+001 +1.881001010e+001 -1.9120e-001 +1.7808e+000
4351 0 +3.163769922e-006 +1.881000316e+001 +1.881000316e+001 -1.9120e-001 +1.7808e+000
4372 0 +2.707342968e-006 +1.881000271e+001 +1.881000271e+001 -1.9120e-001 +1.7808e+000
4414 0 +1.311573850e-006 +1.881000131e+001 +1.881000131e+001 -1.9120e-001 +1.7808e+000
4415 0 +7.570851821e-007 +1.881000076e+001 +1.881000076e+001 -1.9120e-001 +1.7808e+000
4426 0 +6.774383898e-007 +1.881000068e+001 +1.881000068e+001 -1.9120e-001 +1.7808e+000
4446 0 +5.216870029e-007 +1.881000052e+001 +1.881000052e+001 -1.9120e-001 +1.7808e+000
4473 0 +4.577580981e-007 +1.881000046e+001 +1.881000046e+001 -1.9120e-001 +1.7808e+000
4474 0 +2.644639245e-007 +1.881000026e+001 +1.881000026e+001 -1.9120e-001 +1.7808e+000
4480 0 +9.848232096e-008 +1.881000010e+001 +1.881000010e+001 -1.9120e-001 +1.7808e+000
4497 0 +5.178501539e-008 +1.881000005e+001 +1.881000005e+001 -1.9120e-001 +1.7808e+000
4537 0 +4.457421454e-008 +1.881000004e+001 +1.881000004e+001 -1.9120e-001 +1.7808e+000
4546 0 +2.117156939e-008 +1.881000002e+001 +1.881000002e+001 -1.9120e-001 +1.7808e+000
4554 0 +1.524587745e-008 +1.881000002e+001 +1.881000002e+001 -1.9120e-001 +1.7808e+000
4557 0 +1.173621200e-008 +1.881000001e+001 +1.881000001e+001 -1.9120e-001 +1.7808e+000
4604 0 +5.790830926e-009 +1.881000001e+001 +1.881000001e+001 -1.9120e-001 +1.7808e+000
% f evaluations | g evaluations | best noise-free fitness - Fopt (2.731500000000e+002) + sum g_i+ | measured fitness | best measured fitness or single-digit g-values | x1 | x2...
1 0 +2.020419173e+002 +4.751919173e+002 +4.751919173e+002 +5.0000e+000 +5.0000e+000
2 0 +1.361099352e+002 +4.092599352e+002 +4.092599352e+002 -5.0000e+000 +5.0000e+000
5 0 +8.186032520e+001 +3.550103252e+002 +3.550103252e+002 -4.8968e+000 -5.0000e+000
6 0 +3.831468729e+001 +3.114646873e+002 +3.114646873e+002 -4.8968e+000 +3.7870e+000
11 0 +2.203507395e+001 +2.951850740e+002 +2.951850740e+002 -2.9959e+000 +3.7870e+000
16 0 +1.697763634e+001 +2.901276363e+002 +2.901276363e+002 -3.6148e+000 +4.4435e+000
17 0 +1.395978965e+001 +2.871097897e+002 +2.871097897e+002 -3.3923e+000 +4.4435e+000
31 0 +7.246287757e+000 +2.803962878e+002 +2.803962878e+002 -3.0671e+000 +4.5925e+000
39 0 +5.780693422e+000 +2.789306934e+002 +2.789306934e+002 -3.0665e+000 +4.5900e+000
46 0 +4.348037026e+000 +2.774980370e+002 +2.774980370e+002 -3.4556e+000 +4.1659e+000
59 0 +3.266018380e+000 +2.764160184e+002 +2.764160184e+002 -3.0720e+000 +4.7510e+000
81 0 +2.654323805e+000 +2.758043238e+002 +2.758043238e+002 -3.0598e+000 +4.7197e+000
96 0 +2.430410131e+000 +2.755804101e+002 +2.755804101e+002 -3.0593e+000 +4.7176e+000
111 0 +1.963278642e+000 +2.751132786e+002 +2.751132786e+002 -3.0532e+000 +4.8371e+000
123 0 +1.866911198e+000 +2.750169112e+002 +2.750169112e+002 -3.1935e+000 +4.4756e+000
151 0 +6.569369428e-001 +2.738069369e+002 +2.738069369e+002 -3.3300e+000 +4.3104e+000
196 0 +5.352883928e-001 +2.736852884e+002 +2.736852884e+002 -3.3197e+000 +4.3336e+000
239 0 +3.655729299e-001 +2.735155729e+002 +2.735155729e+002 -3.3906e+000 +4.1796e+000
278 0 +3.629990855e-001 +2.735129991e+002 +2.735129991e+002 -3.3894e+000 +4.1800e+000
300 0 +3.321994743e-001 +2.734821995e+002 +2.734821995e+002 -3.4396e+000 +4.0731e+000
320 0 +3.176442418e-001 +2.734676442e+002 +2.734676442e+002 -3.4920e+000 +3.9591e+000
322 0 +1.802032295e-001 +2.733302032e+002 +2.733302032e+002 -3.4888e+000 +3.9630e+000
355 0 +1.679155553e-001 +2.733179156e+002 +2.733179156e+002 -3.4955e+000 +3.9484e+000
356 0 +1.074897709e-001 +2.732574898e+002 +2.732574898e+002 -3.5384e+000 +3.8519e+000
361 0 +1.003776080e-001 +2.732503776e+002 +2.732503776e+002 -3.5668e+000 +3.7894e+000
367 0 +9.811637564e-002 +2.732481164e+002 +2.732481164e+002 -3.5667e+000 +3.7894e+000
415 0 +9.765330436e-002 +2.732476533e+002 +2.732476533e+002 -3.5643e+000 +3.7949e+000
476 0 +6.805721219e-002 +2.732180572e+002 +2.732180572e+002 -3.5678e+000 +3.7796e+000
478 0 +6.503016924e-002 +2.732150302e+002 +2.732150302e+002 -3.5661e+000 +3.7789e+000
499 0 +3.386868814e-002 +2.731838687e+002 +2.731838687e+002 -3.5642e+000 +3.7862e+000
513 0 +3.258237781e-002 +2.731825824e+002 +2.731825824e+002 -3.5631e+000 +3.7894e+000
534 0 +3.193603538e-002 +2.731819360e+002 +2.731819360e+002 -3.5627e+000 +3.7901e+000
1507 0 +2.936652447e-002 +2.731793665e+002 +2.731793665e+002 -3.5869e+000 +3.7368e+000
1515 0 +1.106081881e-002 +2.731610608e+002 +2.731610608e+002 -3.5809e+000 +3.7499e+000
1528 0 +4.119011428e-003 +2.731541190e+002 +2.731541190e+002 -3.5791e+000 +3.7541e+000
1538 0 +1.561896050e-003 +2.731515619e+002 +2.731515619e+002 -3.5788e+000 +3.7546e+000
1562 0 +1.415483607e-003 +2.731514155e+002 +2.731514155e+002 -3.5788e+000 +3.7545e+000
1600 0 +1.115417392e-003 +2.731511154e+002 +2.731511154e+002 -3.5788e+000 +3.7544e+000
1608 0 +1.079689261e-003 +2.731510797e+002 +2.731510797e+002 -3.5788e+000 +3.7544e+000
1629 0 +5.496444168e-004 +2.731505496e+002 +2.731505496e+002 -3.5791e+000 +3.7539e+000
1649 0 +5.286130844e-004 +2.731505286e+002 +2.731505286e+002 -3.5791e+000 +3.7539e+000
1652 0 +4.647438914e-004 +2.731504647e+002 +2.731504647e+002 -3.5791e+000 +3.7539e+000
1660 0 +3.261933994e-004 +2.731503262e+002 +2.731503262e+002 -3.5791e+000 +3.7537e+000
1667 0 +2.931119546e-004 +2.731502931e+002 +2.731502931e+002 -3.5792e+000 +3.7536e+000
1671 0 +2.855173220e-004 +2.731502855e+002 +2.731502855e+002 -3.5792e+000 +3.7536e+000
1674 0 +2.747206267e-004 +2.731502747e+002 +2.731502747e+002 -3.5792e+000 +3.7535e+000
1690 0 +6.391000926e-005 +2.731500639e+002 +2.731500639e+002 -3.5792e+000 +3.7536e+000
1696 0 +5.528224017e-005 +2.731500553e+002 +2.731500553e+002 -3.5792e+000 +3.7536e+000
1715 0 +4.463072258e-005 +2.731500446e+002 +2.731500446e+002 -3.5792e+000 +3.7536e+000
1719 0 +4.013542713e-005 +2.731500401e+002 +2.731500401e+002 -3.5792e+000 +3.7536e+000
1732 0 +3.879497240e-005 +2.731500388e+002 +2.731500388e+002 -3.5792e+000 +3.7536e+000
1739 0 +2.894857187e-005 +2.731500289e+002 +2.731500289e+002 -3.5792e+000 +3.7536e+000
1782 0 +2.877860777e-005 +2.731500288e+002 +2.731500288e+002 -3.5792e+000 +3.7536e+000
3467 0 +7.047794384e-006 +2.731500070e+002 +2.731500070e+002 -3.5792e+000 +3.7536e+000
3472 0 +3.118557174e-006 +2.731500031e+002 +2.731500031e+002 -3.5792e+000 +3.7536e+000
3483 0 +1.809362175e-006 +2.731500018e+002 +2.731500018e+002 -3.5792e+000 +3.7536e+000
3516 0 +1.660306452e-006 +2.731500017e+002 +2.731500017e+002 -3.5792e+000 +3.7536e+000
3517 0 +1.048256365e-006 +2.731500010e+002 +2.731500010e+002 -3.5792e+000 +3.7536e+000
3543 0 +9.381909081e-007 +2.731500009e+002 +2.731500009e+002 -3.5792e+000 +3.7536e+000
3600 0 +8.866267649e-007 +2.731500009e+002 +2.731500009e+002 -3.5792e+000 +3.7536e+000
3601 0 +8.581246789e-007 +2.731500009e+002 +2.731500009e+002 -3.5792e+000 +3.7536e+000
3603 0 +7.524839702e-007 +2.731500008e+002 +2.731500008e+002 -3.5792e+000 +3.7536e+000
3604 0 +6.355426763e-007 +2.731500006e+002 +2.731500006e+002 -3.5792e+000 +3.7536e+000
3607 0 +6.007967386e-007 +2.731500006e+002 +2.731500006e+002 -3.5792e+000 +3.7536e+000
3614 0 +5.287052431e-007 +2.731500005e+002 +2.731500005e+002 -3.5792e+000 +3.7536e+000
3630 0 +4.322121754e-007 +2.731500004e+002 +2.731500004e+002 -3.5792e+000 +3.7536e+000
3638 0 +2.925480658e-007 +2.731500003e+002 +2.731500003e+002 -3.5792e+000 +3.7536e+000
3670 0 +2.693777219e-007 +2.731500003e+002 +2.731500003e+002 -3.5792e+000 +3.7536e+000
3671 0 +2.520096132e-007 +2.731500003e+002 +2.731500003e+002 -3.5792e+000 +3.7536e+000
3672 0 +4.751615279e-008 +2.731500000e+002 +2.731500000e+002 -3.5792e+000 +3.7536e+000
3747 0 +2.410746447e-008 +2.731500000e+002 +2.731500000e+002 -3.5792e+000 +3.7536e+000
3757 0 +2.356586037e-008 +2.731500000e+002 +2.731500000e+002 -3.5792e+000 +3.7536e+000
3759 0 +2.125824494e-008 +2.731500000e+002 +2.731500000e+002 -3.5792e+000 +3.7536e+000
3765 0 +2.073528549e-008 +2.731500000e+002 +2.731500000e+002 -3.5792e+000 +3.7536e+000
3766 0 +6.911932360e-009 +2.731500000e+002 +2.731500000e+002 -3.5792e+000 +3.7536e+000
% f evaluations | g evaluations | best noise-free fitness - Fopt (3.718000000000e+001) + sum g_i+ | measured fitness | best measured fitness or single-digit g-values | x1 | x2...
1 0 +1.993766836e+002 +2.365566836e+002 +2.365566836e+002 -5.0000e+000 +5.0000e+000
5 0 +8.388287055e+000 +4.556828705e+001 +4.556828705e+001 -1.3225e+000 +1.6389e+000
27 0 +2.137859930e+000 +3.931785993e+001 +3.931785993e+001 -2.4972e+000 +1.9594e+000
71 0 +1.393743977e+000 +3.857374398e+001 +3.857374398e+001 -2.5023e+000 +2.0128e+000
206 0 +1.034299892e+000 +3.821429989e+001 +3.821429989e+001 -3.1863e+000 +2.0397e+000
219 0 +8.251593647e-001 +3.800515936e+001 +3.800515936e+001 -3.1893e+000 +2.0297e+000
231 0 +7.490976432e-001 +3.792909764e+001 +3.792909764e+001 -3.1669e+000 +2.0286e+000
239 0 +5.614396588e-001 +3.774143966e+001 +3.774143966e+001 -3.6413e+000 +2.0710e+000
240 0 +5.349645652e-001 +3.771496457e+001 +3.771496457e+001 -3.6362e+000 +2.0716e+000
272 0 +4.092761279e-001 +3.758927613e+001 +3.758927613e+001 -4.0094e+000 +2.0644e+000
274 0 +2.526942231e-001 +3.743269422e+001 +3.743269422e+001 -3.9520e+000 +2.0600e+000
292 0 +1.726213458e-001 +3.735262135e+001 +3.735262135e+001 -3.9368e+000 +2.0589e+000
303 0 +1.573629725e-001 +3.733736297e+001 +3.733736297e+001 -3.9567e+000 +2.0609e+000
312 0 +1.287662421e-001 +3.730876624e+001 +3.730876624e+001 -3.8467e+000 +2.0601e+000
314 0 +4.611987912e-002 +3.722611988e+001 +3.722611988e+001 -3.9026e+000 +2.0600e+000
330 0 +3.783945113e-002 +3.721783945e+001 +3.721783945e+001 -3.9043e+000 +2.0594e+000
331 0 +2.730575277e-002 +3.720730575e+001 +3.720730575e+001 -3.9025e+000 +2.0597e+000
365 0 +1.700322427e-002 +3.719700322e+001 +3.719700322e+001 -3.9146e+000 +2.0614e+000
424 0 +1.681671498e-002 +3.719681671e+001 +3.719681671e+001 -3.9146e+000 +2.0614e+000
445 0 +1.635902736e-002 +3.719635903e+001 +3.719635903e+001 -3.9149e+000 +2.0614e+000
486 0 +8.307009185e-003 +3.718830701e+001 +3.718830701e+001 -3.8983e+000 +2.0602e+000
487 0 +3.395735705e-003 +3.718339574e+001 +3.718339574e+001 -3.8984e+000 +2.0600e+000
518 0 +1.772501102e-003 +3.718177250e+001 +3.718177250e+001 -3.8986e+000 +2.0599e+000
529 0 +1.216056175e-003 +3.718121606e+001 +3.718121606e+001 -3.8988e+000 +2.0599e+000
543 0 +9.855150761e-004 +3.718098552e+001 +3.718098552e+001 -3.8988e+000 +2.0599e+000
3423 0 +2.301448259e-004 +3.718023014e+001 +3.718023014e+001 -3.8991e+000 +2.0600e+000
5439 0 +1.789583421e-004 +3.718017896e+001 +3.718017896e+001 -3.8991e+000 +2.0600e+000
5464 0 +1.063441712e-004 +3.718010634e+001 +3.718010634e+001 -3.8992e+000 +2.0600e+000
5475 0 +1.040087829e-004 +3.718010401e+001 +3.718010401e+001 -3.8992e+000 +2.0600e+000
5486 0 +4.518325656e-005 +3.718004518e+001 +3.718004518e+001 -3.8992e+000 +2.0600e+000
5489 0 +4.301278727e-005 +3.718004301e+001 +3.718004301e+001 -3.8992e+000 +2.0600e+000
5496 0 +3.169053431e-005 +3.718003169e+001 +3.718003169e+001 -3.8992e+000 +2.0600e+000
5501 0 +3.095635495e-005 +3.718003096e+001 +3.718003096e+001 -3.8992e+000 +2.0600e+000
5524 0 +2.920814779e-005 +3.718002921e+001 +3.718002921e+001 -3.8992e+000 +2.0600e+000
5535 0 +2.878086828e-005 +3.718002878e+001 +3.718002878e+001 -3.8992e+000 +2.0600e+000
5551 0 +2.522188194e-005 +3.718002522e+001 +3.718002522e+001 -3.8992e+000 +2.0600e+000
5567 0 +7.300530456e-006 +3.718000730e+001 +3.718000730e+001 -3.8992e+000 +2.0600e+000
5569 0 +4.674560302e-006 +3.718000467e+001 +3.718000467e+001 -3.8992e+000 +2.0600e+000
5591 0 +9.412811863e-007 +3.718000094e+001 +3.718000094e+001 -3.8992e+000 +2.0600e+000
5665 0 +7.838631575e-007 +3.718000078e+001 +3.718000078e+001 -3.8992e+000 +2.0600e+000
5676 0 +7.719339408e-007 +3.718000077e+001 +3.718000077e+001 -3.8992e+000 +2.0600e+000
5680 0 +5.912025429e-007 +3.718000059e+001 +3.718000059e+001 -3.8992e+000 +2.0600e+000
5714 0 +2.380825492e-007 +3.718000024e+001 +3.718000024e+001 -3.8992e+000 +2.0600e+000
5750 0 +1.940196412e-007 +3.718000019e+001 +3.718000019e+001 -3.8992e+000 +2.0600e+000
5751 0 +1.260300877e-007 +3.718000013e+001 +3.718000013e+001 -3.8992e+000 +2.0600e+000
5763 0 +9.781710020e-008 +3.718000010e+001 +3.718000010e+001 -3.8992e+000 +2.0600e+000
5781 0 +9.545739488e-008 +3.718000010e+001 +3.718000010e+001 -3.8992e+000 +2.0600e+000
5786 0 +5.744733755e-008 +3.718000006e+001 +3.718000006e+001 -3.8992e+000 +2.0600e+000
5787 0 +5.422475624e-008 +3.718000005e+001 +3.718000005e+001 -3.8992e+000 +2.0600e+000
5788 0 +5.237046707e-008 +3.718000005e+001 +3.718000005e+001 -3.8992e+000 +2.0600e+000
5794 0 +3.231421175e-008 +3.718000003e+001 +3.718000003e+001 -3.8992e+000 +2.0600e+000
5808 0 +2.263416121e-008 +3.718000002e+001 +3.718000002e+001 -3.8992e+000 +2.0600e+000
5820 0 +9.824617564e-009 +3.718000001e+001 +3.718000001e+001 -3.8992e+000 +2.0600e+000
% f evaluations | g evaluations | best noise-free fitness - Fopt (-1.479000000000e+002) + sum g_i+ | measured fitness | best measured fitness or single-digit g-values | x1 | x2...
1 0 +4.951163892e+003 +4.803263892e+003 +4.803263892e+003 +5.0000e+000 +5.0000e+000
2 0 +3.671222646e+001 -1.111877735e+002 -1.111877735e+002 -5.0000e+000 +5.0000e+000
5 0 +3.147405464e+001 -1.164259454e+002 -1.164259454e+002 -5.0000e+000 +2.6643e+000
9 0 +2.952986820e+001 -1.183701318e+002 -1.183701318e+002 -5.0000e+000 +2.2608e+000
22 0 +2.110794009e+001 -1.267920599e+002 -1.267920599e+002 -1.5314e+000 -2.6589e-001
26 0 +7.505707300e+000 -1.403942927e+002 -1.403942927e+002 -1.5314e+000 -8.3503e-002
34 0 +4.340773454e+000 -1.435592265e+002 -1.435592265e+002 -1.9977e+000 +2.8587e-001
54 0 +1.138660007e+000 -1.467613400e+002 -1.467613400e+002 -1.7885e+000 +2.8587e-001
132 0 +7.952457041e-001 -1.471047543e+002 -1.471047543e+002 -1.8142e+000 +2.6970e-001
134 0 +6.582602893e-001 -1.472417397e+002 -1.472417397e+002 -1.5019e+000 -3.6834e-003
135 0 +5.554098736e-001 -1.473445901e+002 -1.473445901e+002 -1.5342e+000 +1.8908e-002
179 0 +4.178634205e-001 -1.474821366e+002 -1.474821366e+002 -1.5346e+000 +1.9572e-002
184 0 +3.903199364e-001 -1.475096801e+002 -1.475096801e+002 -1.4115e+000 -7.3752e-002
239 0 +3.236496499e-001 -1.475763504e+002 -1.475763504e+002 -1.4822e+000 -5.2062e-003
273 0 +3.013704997e-001 -1.475986295e+002 -1.475986295e+002 -1.4811e+000 -5.8517e-003
278 0 +2.597111997e-001 -1.476402888e+002 -1.476402888e+002 -1.8339e+000 +2.9937e-001
285 0 +1.654772567e-001 -1.477345227e+002 -1.477345227e+002 -1.5421e+000 +3.5334e-002
287 0 +1.575399041e-001 -1.477424601e+002 -1.477424601e+002 -1.6734e+000 +1.3116e-001
362 0 +1.358117296e-001 -1.477641883e+002 -1.477641883e+002 -1.6649e+000 +1.2828e-001
378 0 +1.066782118e-001 -1.477933218e+002 -1.477933218e+002 -1.6125e+000 +9.2849e-002
380 0 +9.985820865e-002 -1.478001418e+002 -1.478001418e+002 -1.6014e+000 +8.3509e-002
467 0 +7.124204590e-002 -1.478287580e+002 -1.478287580e+002 -1.6274e+000 +9.9630e-002
476 0 +5.869932518e-002 -1.478413007e+002 -1.478413007e+002 -1.6266e+000 +1.0051e-001
523 0 +5.471518341e-002 -1.478452848e+002 -1.478452848e+002 -1.6430e+000 +1.1182e-001
528 0 +4.533386401e-002 -1.478546661e+002 -1.478546661e+002 -1.6497e+000 +1.1648e-001
539 0 +3.822080548e-002 -1.478617792e+002 -1.478617792e+002 -1.6573e+000 +1.2230e-001
558 0 +3.217546831e-002 -1.478678245e+002 -1.478678245e+002 -1.6524e+000 +1.1872e-001
616 0 +2.665813343e-002 -1.478733419e+002 -1.478733419e+002 -1.6654e+000 +1.3104e-001
622 0 +5.350253069e-003 -1.478946497e+002 -1.478946497e+002 -1.6719e+000 +1.3658e-001
719 0 +2.094444380e-003 -1.478979056e+002 -1.478979056e+002 -1.6701e+000 +1.3492e-001
792 0 +5.764064556e-004 -1.478994236e+002 -1.478994236e+002 -1.6704e+000 +1.3526e-001
841 0 +5.321239839e-004 -1.478994679e+002 -1.478994679e+002 -1.6704e+000 +1.3526e-001
855 0 +3.000989229e-004 -1.478996999e+002 -1.478996999e+002 -1.6704e+000 +1.3517e-001
856 0 +2.298261092e-004 -1.478997702e+002 -1.478997702e+002 -1.6704e+000 +1.3519e-001
995 0 +3.764426654e-005 -1.478999624e+002 -1.478999624e+002 -1.6704e+000 +1.3519e-001
998 0 +3.658497127e-005 -1.478999634e+002 -1.478999634e+002 -1.6704e+000 +1.3519e-001
999 0 +2.888461495e-005 -1.478999711e+002 -1.478999711e+002 -1.6704e+000 +1.3518e-001
1094 0 +2.879092929e-005 -1.478999712e+002 -1.478999712e+002 -1.6704e+000 +1.3518e-001
1118 0 +5.427764592e-006 -1.478999946e+002 -1.478999946e+002 -1.6704e+000 +1.3520e-001
1132 0 +3.458510008e-006 -1.478999965e+002 -1.478999965e+002 -1.6704e+000 +1.3520e-001
1147 0 +1.976710990e-006 -1.478999980e+002 -1.478999980e+002 -1.6704e+000 +1.3520e-001
1181 0 +6.581267655e-007 -1.478999993e+002 -1.478999993e+002 -1.6704e+000 +1.3520e-001
1208 0 +5.383914754e-007 -1.478999995e+002 -1.478999995e+002 -1.6704e+000 +1.3520e-001
1213 0 +4.538344172e-007 -1.478999995e+002 -1.478999995e+002 -1.6704e+000 +1.3520e-001
1230 0 +3.316892787e-007 -1.478999997e+002 -1.478999997e+002 -1.6704e+000 +1.3520e-001
1237 0 +2.451245393e-007 -1.478999998e+002 -1.478999998e+002 -1.6704e+000 +1.3520e-001
1245 0 +1.518514807e-007 -1.478999998e+002 -1.478999998e+002 -1.6704e+000 +1.3520e-001
1270 0 +1.261228704e-007 -1.478999999e+002 -1.478999999e+002 -1.6704e+000 +1.3520e-001
1282 0 +1.021792002e-007 -1.478999999e+002 -1.478999999e+002 -1.6704e+000 +1.3520e-001
1296 0 +9.848707805e-008 -1.478999999e+002 -1.478999999e+002 -1.6704e+000 +1.3520e-001
1301 0 +8.818599895e-008 -1.478999999e+002 -1.478999999e+002 -1.6704e+000 +1.3520e-001
1322 0 +7.896741749e-008 -1.478999999e+002 -1.478999999e+002 -1.6704e+000 +1.3520e-001
1328 0 +4.490090078e-008 -1.479000000e+002 -1.479000000e+002 -1.6704e+000 +1.3520e-001
1332 0 +4.372850526e-009 -1.479000000e+002 -1.479000000e+002 -1.6704e+000 +1.3520e-001
% f evaluations | g evaluations | best noise-free fitness - Fopt (4.817100000000e+002) + sum g_i+ | measured fitness | best measured fitness or single-digit g-values | x1 | x2...
1 0 +2.053227515e+002 +6.870327515e+002 +6.870327515e+002 -5.0000e+000 -5.0000e+000
11 0 +2.018693558e+002 +6.835793558e+002 +6.835793558e+002 -1.8000e+000 -5.0000e+000
14 0 +1.931634384e+002 +6.748734384e+002 +6.748734384e+002 -1.7964e+000 -5.0000e+000
21 0 +9.147673758e+001 +5.731867376e+002 +5.731867376e+002 -1.0529e+000 -4.8193e+000
22 0 +4.216078073e+001 +5.238707807e+002 +5.238707807e+002 +3.7630e-001 -4.9835e+000
26 0 +2.041006234e+001 +5.021200623e+002 +5.021200623e+002 +3.8896e-001 -4.9924e+000
43 0 +1.851688078e+001 +5.002268808e+002 +5.002268808e+002 +3.8960e-001 -4.9995e+000
66 0 +1.224127162e+001 +4.939512716e+002 +4.939512716e+002 +5.6745e-001 -4.9969e+000
69 0 +8.270144827e+000 +4.899801448e+002 +4.899801448e+002 +5.2426e-001 -4.9995e+000
79 0 +6.936080411e+000 +4.886460804e+002 +4.886460804e+002 +8.9817e-001 -4.9076e+000
88 0 +4.538814096e+000 +4.862488141e+002 +4.862488141e+002 +7.0289e-001 -4.9359e+000
114 0 +2.475809904e+000 +4.841858099e+002 +4.841858099e+002 +7.2945e-001 -4.9341e+000
189 0 +2.416757092e+000 +4.841267571e+002 +4.841267571e+002 +7.7942e-001 -4.8915e+000
206 0 +2.351012422e+000 +4.840610124e+002 +4.840610124e+002 +7.8465e-001 -4.8885e+000
209 0 +2.212927977e+000 +4.839229280e+002 +4.839229280e+002 +7.8242e-001 -4.8806e+000
226 0 +1.871762702e+000 +4.835817627e+002 +4.835817627e+002 +7.8244e-001 -4.8190e+000
229 0 +1.857363966e+000 +4.835673640e+002 +4.835673640e+002 +7.8347e-001 -4.8190e+000
1146 0 +1.064738854e+000 +4.827747389e+002 +4.827747389e+002 +1.0583e+000 -2.8483e+000
1159 0 +5.494188670e-001 +4.822594189e+002 +4.822594189e+002 +1.0248e+000 -2.7245e+000
1179 0 +3.311797584e-001 +4.820411798e+002 +4.820411798e+002 +1.0464e+000 -2.9360e+000
1232 0 +2.953535900e-001 +4.820053536e+002 +4.820053536e+002 +1.0425e+000 -2.9327e+000
1239 0 +6.397916431e-002 +4.817739792e+002 +4.817739792e+002 +1.0416e+000 -2.9360e+000
1244 0 +4.698057865e-002 +4.817569806e+002 +4.817569806e+002 +1.0360e+000 -3.0343e+000
1309 0 +4.231551042e-002 +4.817523155e+002 +4.817523155e+002 +1.0410e+000 -2.9802e+000
1334 0 +1.966080226e-002 +4.817296608e+002 +4.817296608e+002 +1.0411e+000 -2.9805e+000
1369 0 +1.565109067e-002 +4.817256511e+002 +4.817256511e+002 +1.0396e+000 -3.0087e+000
1378 0 +1.159311017e-002 +4.817215931e+002 +4.817215931e+002 +1.0412e+000 -2.9910e+000
1405 0 +7.623001787e-003 +4.817176230e+002 +4.817176230e+002 +1.0409e+000 -2.9955e+000
1410 0 +7.063430442e-003 +4.817170634e+002 +4.817170634e+002 +1.0409e+000 -2.9976e+000
1415 0 +1.777654165e-003 +4.817117777e+002 +4.817117777e+002 +1.0409e+000 -2.9999e+000
1455 0 +1.129804227e-003 +4.817111298e+002 +4.817111298e+002 +1.0409e+000 -2.9997e+000
1464 0 +1.062531712e-003 +4.817110625e+002 +4.817110625e+002 +1.0407e+000 -3.0016e+000
1541 0 +2.409429503e-004 +4.817102409e+002 +4.817102409e+002 +1.0408e+000 -3.0006e+000
1550 0 +2.360802715e-004 +4.817102361e+002 +4.817102361e+002 +1.0408e+000 -3.0007e+000
1585 0 +3.078144965e-005 +4.817100308e+002 +4.817100308e+002 +1.0408e+000 -3.0008e+000
1613 0 +3.001985300e-005 +4.817100300e+002 +4.817100300e+002 +1.0408e+000 -3.0008e+000
1701 0 +2.890791683e-005 +4.817100289e+002 +4.817100289e+002 +1.0408e+000 -3.0008e+000
1779 0 +1.415471331e-006 +4.817100014e+002 +4.817100014e+002 +1.0408e+000 -3.0008e+000
1837 0 +1.339418361e-006 +4.817100013e+002 +4.817100013e+002 +1.0408e+000 -3.0008e+000
1838 0 +5.739579478e-007 +4.817100006e+002 +4.817100006e+002 +1.0408e+000 -3.0008e+000
1889 0 +5.240021324e-007 +4.817100005e+002 +4.817100005e+002 +1.0408e+000 -3.0008e+000
1900 0 +4.775573643e-007 +4.817100005e+002 +4.817100005e+002 +1.0408e+000 -3.0008e+000
1906 0 +3.053399382e-007 +4.817100003e+002 +4.817100003e+002 +1.0408e+000 -3.0008e+000
1915 0 +2.817116069e-007 +4.817100003e+002 +4.817100003e+002 +1.0408e+000 -3.0008e+000
1926 0 +2.657898790e-007 +4.817100003e+002 +4.817100003e+002 +1.0408e+000 -3.0008e+000
1930 0 +2.583789183e-007 +4.817100003e+002 +4.817100003e+002 +1.0408e+000 -3.0008e+000
1939 0 +2.458154427e-007 +4.817100002e+002 +4.817100002e+002 +1.0408e+000 -3.0008e+000
1948 0 +2.433362170e-007 +4.817100002e+002 +4.817100002e+002 +1.0408e+000 -3.0008e+000
1953 0 +2.173207463e-007 +4.817100002e+002 +4.817100002e+002 +1.0408e+000 -3.0008e+000
1957 0 +1.448937041e-007 +4.817100001e+002 +4.817100001e+002 +1.0408e+000 -3.0008e+000
1966 0 +1.140377890e-007 +4.817100001e+002 +4.817100001e+002 +1.0408e+000 -3.0008e+000
1970 0 +7.313610695e-008 +4.817100001e+002 +4.817100001e+002 +1.0408e+000 -3.0008e+000
2002 0 +5.555062899e-008 +4.817100001e+002 +4.817100001e+002 +1.0408e+000 -3.0008e+000
2015 0 +5.485469501e-008 +4.817100001e+002 +4.817100001e+002 +1.0408e+000 -3.0008e+000
2020 0 +3.726876230e-008 +4.817100000e+002 +4.817100000e+002 +1.0408e+000 -3.0008e+000
2040 0 +3.337851240e-008 +4.817100000e+002 +4.817100000e+002 +1.0408e+000 -3.0008e+000
2050 0 +3.240097612e-008 +4.817100000e+002 +4.817100000e+002 +1.0408e+000 -3.0008e+000
2052 0 +3.054066156e-008 +4.817100000e+002 +4.817100000e+002 +1.0408e+000 -3.0008e+000
2058 0 +2.838044111e-008 +4.817100000e+002 +4.817100000e+002 +1.0408e+000 -3.0008e+000
2070 0 +2.632003770e-008 +4.817100000e+002 +4.817100000e+002 +1.0408e+000 -3.0008e+000
2088 0 +2.572096491e-008 +4.817100000e+002 +4.817100000e+002 +1.0408e+000 -3.0008e+000
2090 0 +2.463627879e-008 +4.817100000e+002 +4.817100000e+002 +1.0408e+000 -3.0008e+000
2096 0 +1.746190037e-008 +4.817100000e+002 +4.817100000e+002 +1.0408e+000 -3.0008e+000
2098 0 +1.471221367e-008 +4.817100000e+002 +4.817100000e+002 +1.0408e+000 -3.0008e+000
2099 0 +7.575920336e-009 +4.817100000e+002 +4.817100000e+002 +1.0408e+000 -3.0008e+000
% f evaluations | g evaluations | best noise-free fitness - Fopt (-3.646000000000e+001) + sum g_i+ | measured fitness | best measured fitness or single-digit g-values | x1 | x2...
1 0 +2.298553089e+002 +1.933953089e+002 +1.933953089e+002 -5.0000e+000 -5.0000e+000
2 0 +1.360155755e+002 +9.955557545e+001 +9.955557545e+001 +5.0000e+000 -5.0000e+000
4 0 +7.822050795e+001 +4.176050795e+001 +4.176050795e+001 +6.1881e-001 -3.0480e+000
6 0 +5.659340270e+001 +2.013340270e+001 +2.013340270e+001 +6.1881e-001 -1.8336e+000
7 0 +2.450971140e+001 -1.195028860e+001 -1.195028860e+001 +9.1093e-001 -1.8336e+000
8 0 +1.440694711e+001 -2.205305289e+001 -2.205305289e+001 +9.1093e-001 -1.1664e+000
14 0 +1.076257121e+001 -2.569742879e+001 -2.569742879e+001 +8.1365e-001 -1.3885e+000
18 0 +5.521499905e+000 -3.093850010e+001 -3.093850010e+001 +1.8000e+000 -2.6153e+000
24 0 +2.888949311e+000 -3.357105069e+001 -3.357105069e+001 +2.0208e+000 -2.7954e+000
49 0 +2.386651616e+000 -3.407334838e+001 -3.407334838e+001 +3.1410e+000 -4.3435e+000
65 0 +2.109922454e+000 -3.435007755e+001 -3.435007755e+001 +3.2033e+000 -4.3942e+000
98 0 +1.089548778e+000 -3.537045122e+001 -3.537045122e+001 +2.5836e+000 -3.4716e+000
261 0 +1.056953798e+000 -3.540304620e+001 -3.540304620e+001 +2.5545e+000 -3.4294e+000
275 0 +6.412017333e-001 -3.581879827e+001 -3.581879827e+001 +2.1076e+000 -2.8550e+000
297 0 +5.849791025e-001 -3.587502090e+001 -3.587502090e+001 +2.1800e+000 -2.9412e+000
307 0 +2.815717111e-001 -3.617842829e+001 -3.617842829e+001 +2.0928e+000 -2.7798e+000
313 0 +1.574613698e-001 -3.630253863e+001 -3.630253863e+001 +2.0484e+000 -2.7064e+000
429 0 +1.218940647e-001 -3.633810594e+001 -3.633810594e+001 +2.0604e+000 -2.7366e+000
450 0 +1.006951505e-001 -3.635930485e+001 -3.635930485e+001 +2.0580e+000 -2.7322e+000
468 0 +9.973948090e-002 -3.636026052e+001 -3.636026052e+001 +2.0585e+000 -2.7337e+000
524 0 +9.763707163e-002 -3.636236293e+001 -3.636236293e+001 +2.0630e+000 -2.7378e+000
2586 0 +7.998771478e-002 -3.638001229e+001 -3.638001229e+001 +2.1481e+000 -2.8874e+000
2591 0 +7.670743049e-002 -3.638329257e+001 -3.638329257e+001 +2.1285e+000 -2.8604e+000
2597 0 +6.803995485e-002 -3.639196005e+001 -3.639196005e+001 +2.1274e+000 -2.8587e+000
2610 0 +1.920067696e-002 -3.644079932e+001 -3.644079932e+001 +2.1247e+000 -2.8517e+000
2620 0 +8.660243505e-003 -3.645133976e+001 -3.645133976e+001 +2.1247e+000 -2.8519e+000
2634 0 +8.139861245e-003 -3.645186014e+001 -3.645186014e+001 +2.1248e+000 -2.8516e+000
2669 0 +7.694088115e-003 -3.645230591e+001 -3.645230591e+001 +2.1254e+000 -2.8528e+000
2722 0 +7.573475220e-003 -3.645242652e+001 -3.645242652e+001 +2.1256e+000 -2.8531e+000
3829 0 +7.391525269e-003 -3.645260847e+001 -3.645260847e+001 +2.1210e+000 -2.8462e+000
3865 0 +6.655429184e-003 -3.645334457e+001 -3.645334457e+001 +2.1207e+000 -2.8457e+000
3875 0 +3.024286499e-003 -3.645697571e+001 -3.645697571e+001 +2.1214e+000 -2.8467e+000
3884 0 +1.102025409e-003 -3.645889797e+001 -3.645889797e+001 +2.1222e+000 -2.8481e+000
3895 0 +1.000873873e-003 -3.645899913e+001 -3.645899913e+001 +2.1222e+000 -2.8480e+000
3929 0 +9.928437513e-004 -3.645900716e+001 -3.645900716e+001 +2.1215e+000 -2.8470e+000
3935 0 +2.533613147e-004 -3.645974664e+001 -3.645974664e+001 +2.1216e+000 -2.8472e+000
3951 0 +2.357958700e-004 -3.645976420e+001 -3.645976420e+001 +2.1216e+000 -2.8471e+000
3958 0 +2.325320328e-004 -3.645976747e+001 -3.645976747e+001 +2.1216e+000 -2.8471e+000
3977 0 +1.363590172e-004 -3.645986364e+001 -3.645986364e+001 +2.1216e+000 -2.8472e+000
4000 0 +1.329691758e-004 -3.645986703e+001 -3.645986703e+001 +2.1216e+000 -2.8472e+000
4005 0 +6.543298540e-005 -3.645993457e+001 -3.645993457e+001 +2.1216e+000 -2.8472e+000
4023 0 +3.843670517e-005 -3.645996156e+001 -3.645996156e+001 +2.1216e+000 -2.8472e+000
4025 0 +3.289577212e-005 -3.645996710e+001 -3.645996710e+001 +2.1216e+000 -2.8472e+000
4031 0 +2.944292737e-005 -3.645997056e+001 -3.645997056e+001 +2.1216e+000 -2.8472e+000
4088 0 +2.883513956e-005 -3.645997116e+001 -3.645997116e+001 +2.1216e+000 -2.8472e+000
6223 0 +2.593864636e-006 -3.645999741e+001 -3.645999741e+001 +2.1216e+000 -2.8472e+000
6233 0 +5.815601583e-007 -3.645999942e+001 -3.645999942e+001 +2.1216e+000 -2.8472e+000
6265 0 +5.668365262e-007 -3.645999943e+001 -3.645999943e+001 +2.1216e+000 -2.8472e+000
6320 0 +3.919901133e-007 -3.645999961e+001 -3.645999961e+001 +2.1216e+000 -2.8472e+000
6333 0 +2.052822197e-007 -3.645999979e+001 -3.645999979e+001 +2.1216e+000 -2.8472e+000
6402 0 +1.710397228e-007 -3.645999983e+001 -3.645999983e+001 +2.1216e+000 -2.8472e+000
6416 0 +1.054428651e-007 -3.645999989e+001 -3.645999989e+001 +2.1216e+000 -2.8472e+000
6451 0 +8.892502024e-008 -3.645999991e+001 -3.645999991e+001 +2.1216e+000 -2.8472e+000
6456 0 +8.549752550e-008 -3.645999991e+001 -3.645999991e+001 +2.1216e+000 -2.8472e+000
6460 0 +1.792089677e-008 -3.645999998e+001 -3.645999998e+001 +2.1216e+000 -2.8472e+000
6495 0 +1.684983886e-008 -3.645999998e+001 -3.645999998e+001 +2.1216e+000 -2.8472e+000
6496 0 +4.128395403e-009 -3.646000000e+001 -3.646000000e+001 +2.1216e+000 -2.8472e+000
% f evaluations | g evaluations | best noise-free fitness - Fopt (3.920000000000e+001) + sum g_i+ | measured fitness | best measured fitness or single-digit g-values | x1 | x2...
1 0 +8.629450731e+002 +9.021450731e+002 +9.021450731e+002 -5.0000e+000 +5.0000e+000
2 0 +1.208160783e+002 +1.600160783e+002 +1.600160783e+002 +5.0000e+000 +5.0000e+000
4 0 +8.215557406e+001 +1.213555741e+002 +1.213555741e+002 +2.9244e+000 -2.2132e+000
6 0 +4.587324185e+001 +8.507324185e+001 +8.507324185e+001 +2.9244e+000 +1.7779e+000
7 0 +3.769291864e+001 +7.689291864e+001 +7.689291864e+001 +2.9244e+000 +2.2742e+000
9 0 +1.021089739e+001 +4.941089739e+001 +4.941089739e+001 +4.2095e+000 +1.7779e+000
17 0 +2.907654690e+000 +4.210765469e+001 +4.210765469e+001 +3.0909e+000 +8.2117e-001
43 0 +1.027662488e+000 +4.022766249e+001 +4.022766249e+001 +3.1484e+000 +8.6982e-001
89 0 +7.446838327e-001 +3.994468383e+001 +3.994468383e+001 +3.2543e+000 +9.8897e-001
186 0 +3.667592782e-001 +3.956675928e+001 +3.956675928e+001 +3.5310e+000 +1.3632e+000
205 0 +2.431385644e-001 +3.944313856e+001 +3.944313856e+001 +3.6147e+000 +1.4995e+000
250 0 +2.157331952e-001 +3.941573320e+001 +3.941573320e+001 +3.6863e+000 +1.5905e+000
261 0 +1.647464195e-001 +3.936474642e+001 +3.936474642e+001 +3.6897e+000 +1.5943e+000
262 0 +1.576814595e-001 +3.935768146e+001 +3.935768146e+001 +3.6900e+000 +1.5948e+000
268 0 +1.441554868e-001 +3.934415549e+001 +3.934415549e+001 +3.6906e+000 +1.5883e+000
295 0 +1.098967407e-001 +3.930989674e+001 +3.930989674e+001 +3.7763e+000 +1.7041e+000
345 0 +1.011720786e-001 +3.930117208e+001 +3.930117208e+001 +3.7796e+000 +1.7057e+000
352 0 +9.193443632e-002 +3.929193444e+001 +3.929193444e+001 +3.7514e+000 +1.6678e+000
369 0 +7.876484638e-002 +3.927876485e+001 +3.927876485e+001 +3.7362e+000 +1.6473e+000
370 0 +7.739958638e-002 +3.927739959e+001 +3.927739959e+001 +3.6969e+000 +1.5987e+000
386 0 +3.194558997e-002 +3.923194559e+001 +3.923194559e+001 +3.7021e+000 +1.6037e+000
394 0 +1.819764239e-002 +3.921819764e+001 +3.921819764e+001 +3.7169e+000 +1.6213e+000
405 0 +1.747600187e-002 +3.921747600e+001 +3.921747600e+001 +3.7153e+000 +1.6194e+000
424 0 +1.682881922e-002 +3.921682882e+001 +3.921682882e+001 +3.7144e+000 +1.6181e+000
430 0 +1.389045520e-002 +3.921389046e+001 +3.921389046e+001 +3.7168e+000 +1.6221e+000
436 0 +1.300519162e-002 +3.921300519e+001 +3.921300519e+001 +3.7261e+000 +1.6345e+000
438 0 +8.345411673e-003 +3.920834541e+001 +3.920834541e+001 +3.7200e+000 +1.6265e+000
441 0 +7.637079853e-003 +3.920763708e+001 +3.920763708e+001 +3.7243e+000 +1.6315e+000
442 0 +7.295419305e-003 +3.920729542e+001 +3.920729542e+001 +3.7233e+000 +1.6307e+000
450 0 +3.646472824e-003 +3.920364647e+001 +3.920364647e+001 +3.7234e+000 +1.6309e+000
453 0 +3.323128635e-003 +3.920332313e+001 +3.920332313e+001 +3.7243e+000 +1.6320e+000
454 0 +3.076133901e-003 +3.920307613e+001 +3.920307613e+001 +3.7242e+000 +1.6319e+000
464 0 +1.507366402e-003 +3.920150737e+001 +3.920150737e+001 +3.7224e+000 +1.6293e+000
524 0 +1.416108931e-003 +3.920141611e+001 +3.920141611e+001 +3.7224e+000 +1.6294e+000
532 0 +1.007557038e-003 +3.920100756e+001 +3.920100756e+001 +3.7225e+000 +1.6295e+000
537 0 +9.912126909e-004 +3.920099121e+001 +3.920099121e+001 +3.7226e+000 +1.6296e+000
1952 0 +3.477590925e-004 +3.920034776e+001 +3.920034776e+001 +3.7232e+000 +1.6304e+000
1963 0 +3.464664969e-004 +3.920034647e+001 +3.920034647e+001 +3.7232e+000 +1.6303e+000
1968 0 +2.602332688e-004 +3.920026023e+001 +3.920026023e+001 +3.7232e+000 +1.6303e+000
1971 0 +2.162062249e-004 +3.920021621e+001 +3.920021621e+001 +3.7232e+000 +1.6303e+000
1989 0 +1.784922229e-004 +3.920017849e+001 +3.920017849e+001 +3.7232e+000 +1.6303e+000
2006 0 +1.559890284e-004 +3.920015599e+001 +3.920015599e+001 +3.7232e+000 +1.6304e+000
2096 0 +1.493844700e-004 +3.920014938e+001 +3.920014938e+001 +3.7232e+000 +1.6304e+000
2122 0 +1.311220491e-004 +3.920013112e+001 +3.920013112e+001 +3.7232e+000 +1.6304e+000
2128 0 +1.169906863e-004 +3.920011699e+001 +3.920011699e+001 +3.7232e+000 +1.6304e+000
2133 0 +1.145972018e-004 +3.920011460e+001 +3.920011460e+001 +3.7232e+000 +1.6304e+000
2139 0 +1.121272236e-004 +3.920011213e+001 +3.920011213e+001 +3.7232e+000 +1.6304e+000
2147 0 +8.984141989e-005 +3.920008984e+001 +3.920008984e+001 +3.7232e+000 +1.6304e+000
2148 0 +8.886650316e-005 +3.920008887e+001 +3.920008887e+001 +3.7232e+000 +1.6304e+000
2154 0 +7.253233646e-005 +3.920007253e+001 +3.920007253e+001 +3.7232e+000 +1.6304e+000
2162 0 +6.922209372e-005 +3.920006922e+001 +3.920006922e+001 +3.7232e+000 +1.6304e+000
2164 0 +6.470036241e-005 +3.920006470e+001 +3.920006470e+001 +3.7232e+000 +1.6304e+000
2167 0 +4.515211416e-005 +3.920004515e+001 +3.920004515e+001 +3.7232e+000 +1.6304e+000
2170 0 +3.155472560e-005 +3.920003155e+001 +3.920003155e+001 +3.7232e+000 +1.6304e+000
2183 0 +2.881286436e-005 +3.920002881e+001 +3.920002881e+001 +3.7232e+000 +1.6304e+000
5575 0 +8.021354361e-006 +3.920000802e+001 +3.920000802e+001 +3.7232e+000 +1.6304e+000
5626 0 +2.907631099e-006 +3.920000291e+001 +3.920000291e+001 +3.7232e+000 +1.6304e+000
5627 0 +1.271651179e-006 +3.920000127e+001 +3.920000127e+001 +3.7232e+000 +1.6304e+000
5633 0 +8.701430829e-007 +3.920000087e+001 +3.920000087e+001 +3.7232e+000 +1.6304e+000
5665 0 +6.981586722e-007 +3.920000070e+001 +3.920000070e+001 +3.7232e+000 +1.6304e+000
5669 0 +6.480540691e-007 +3.920000065e+001 +3.920000065e+001 +3.7232e+000 +1.6304e+000
5699 0 +5.295795944e-007 +3.920000053e+001 +3.920000053e+001 +3.7232e+000 +1.6304e+000
5716 0 +4.321574281e-007 +3.920000043e+001 +3.920000043e+001 +3.7232e+000 +1.6304e+000
5738 0 +4.242104268e-007 +3.920000042e+001 +3.920000042e+001 +3.7232e+000 +1.6304e+000
5757 0 +3.940717193e-007 +3.920000039e+001 +3.920000039e+001 +3.7232e+000 +1.6304e+000
5767 0 +9.722182881e-008 +3.920000010e+001 +3.920000010e+001 +3.7232e+000 +1.6304e+000
5787 0 +9.516984534e-008 +3.920000010e+001 +3.920000010e+001 +3.7232e+000 +1.6304e+000
5838 0 +8.735195678e-008 +3.920000009e+001 +3.920000009e+001 +3.7232e+000 +1.6304e+000
5850 0 +5.171141026e-008 +3.920000005e+001 +3.920000005e+001 +3.7232e+000 +1.6304e+000
5855 0 +2.795750476e-008 +3.920000003e+001 +3.920000003e+001 +3.7232e+000 +1.6304e+000
5869 0 +6.625398896e-009 +3.920000001e+001 +3.920000001e+001 +3.7232e+000 +1.6304e+000
% f evaluations | g evaluations | best noise-free fitness - Fopt (-3.225000000000e+001) + sum g_i+ | measured fitness | best measured fitness or single-digit g-values | x1 | x2...
1 0 +2.933343619e+002 +2.610843619e+002 +2.610843619e+002 +5.0000e+000 -5.0000e+000
3 0 +2.235586197e+002 +1.913086197e+002 +1.913086197e+002 +5.0000e+000 +5.0000e+000
5 0 +7.087856178e+001 +3.862856178e+001 +3.862856178e+001 +1.5271e+000 +1.5271e+000
8 0 +8.435970079e+000 -2.381402992e+001 -2.381402992e+001 +5.0000e+000 +1.5172e+000
13 0 +5.598229931e+000 -2.665177007e+001 -2.665177007e+001 +5.0000e+000 +1.4332e+000
16 0 +4.044227085e+000 -2.820577292e+001 -2.820577292e+001 +5.0000e+000 +1.2446e+000
56 0 +3.388867614e+000 -2.886113239e+001 -2.886113239e+001 +5.0000e+000 +1.2907e+000
95 0 +1.525207503e+000 -3.072479250e+001 -3.072479250e+001 +4.9934e+000 +1.2720e+000
106 0 +1.398264636e+000 -3.085173536e+001 -3.085173536e+001 +4.9553e+000 +1.2725e+000
194 0 +1.066161595e+000 -3.118383841e+001 -3.118383841e+001 +4.4448e+000 +1.2080e+000
219 0 +1.030486125e+000 -3.121951387e+001 -3.121951387e+001 +4.5229e+000 +1.2157e+000
227 0 +7.518031511e-001 -3.149819685e+001 -3.149819685e+001 +4.2423e+000 +1.1709e+000
247 0 +5.769327956e-001 -3.167306720e+001 -3.167306720e+001 +4.0701e+000 +1.1417e+000
250 0 +4.031888325e-001 -3.184681117e+001 -3.184681117e+001 +3.6549e+000 +1.0738e+000
258 0 +1.841742190e-001 -3.206582578e+001 -3.206582578e+001 +3.7158e+000 +1.0770e+000
275 0 +1.688286146e-001 -3.208117139e+001 -3.208117139e+001 +3.6409e+000 +1.0731e+000
296 0 +1.435700853e-001 -3.210642991e+001 -3.210642991e+001 +3.6588e+000 +1.0732e+000
308 0 +1.015730605e-001 -3.214842694e+001 -3.214842694e+001 +3.5230e+000 +1.0467e+000
357 0 +5.771183865e-002 -3.219228816e+001 -3.219228816e+001 +3.6353e+000 +1.0663e+000
404 0 +5.243504017e-002 -3.219756496e+001 -3.219756496e+001 +3.5619e+000 +1.0541e+000
417 0 +3.360129454e-002 -3.221639871e+001 -3.221639871e+001 +3.6185e+000 +1.0657e+000
427 0 +3.210272901e-002 -3.221789727e+001 -3.221789727e+001 +3.6193e+000 +1.0658e+000
437 0 +2.566773699e-002 -3.222433226e+001 -3.222433226e+001 +3.5785e+000 +1.0576e+000
441 0 +2.292018030e-002 -3.222707982e+001 -3.222707982e+001 +3.5768e+000 +1.0576e+000
445 0 +1.641838566e-002 -3.223358161e+001 -3.223358161e+001 +3.5760e+000 +1.0570e+000
2476 0 +9.830422880e-003 -3.224016958e+001 -3.224016958e+001 +3.5915e+000 +1.0605e+000
2507 0 +7.570957513e-003 -3.224242904e+001 -3.224242904e+001 +3.5940e+000 +1.0610e+000
2530 0 +3.665638875e-003 -3.224633436e+001 -3.224633436e+001 +3.5939e+000 +1.0613e+000
2545 0 +3.024368908e-003 -3.224697563e+001 -3.224697563e+001 +3.5942e+000 +1.0613e+000
2660 0 +2.626234767e-003 -3.224737377e+001 -3.224737377e+001 +3.5946e+000 +1.0613e+000
2674 0 +9.859055960e-004 -3.224901409e+001 -3.224901409e+001 +3.5964e+000 +1.0616e+000
3981 0 +2.297093084e-004 -3.224977029e+001 -3.224977029e+001 +3.5962e+000 +1.0616e+000
5994 0 +1.671769503e-004 -3.224983282e+001 -3.224983282e+001 +3.5961e+000 +1.0616e+000
6060 0 +1.481309819e-004 -3.224985187e+001 -3.224985187e+001 +3.5961e+000 +1.0616e+000
6088 0 +2.882684289e-005 -3.224997117e+001 -3.224997117e+001 +3.5960e+000 +1.0616e+000
8905 0 +2.436474804e-005 -3.224997564e+001 -3.224997564e+001 +3.5960e+000 +1.0616e+000
8910 0 +2.106260332e-005 -3.224997894e+001 -3.224997894e+001 +3.5960e+000 +1.0616e+000
8918 0 +1.960145699e-005 -3.224998040e+001 -3.224998040e+001 +3.5960e+000 +1.0616e+000
8922 0 +1.155375867e-005 -3.224998845e+001 -3.224998845e+001 +3.5960e+000 +1.0616e+000
8930 0 +5.370175018e-006 -3.224999463e+001 -3.224999463e+001 +3.5960e+000 +1.0616e+000
8955 0 +7.327650877e-007 -3.224999927e+001 -3.224999927e+001 +3.5960e+000 +1.0616e+000
8979 0 +6.417154736e-007 -3.224999936e+001 -3.224999936e+001 +3.5960e+000 +1.0616e+000
8988 0 +6.165023763e-007 -3.224999938e+001 -3.224999938e+001 +3.5960e+000 +1.0616e+000
9002 0 +5.678486161e-007 -3.224999943e+001 -3.224999943e+001 +3.5960e+000 +1.0616e+000
9006 0 +5.118208577e-007 -3.224999949e+001 -3.224999949e+001 +3.5960e+000 +1.0616e+000
9037 0 +4.244615965e-007 -3.224999958e+001 -3.224999958e+001 +3.5960e+000 +1.0616e+000
9053 0 +3.856343795e-007 -3.224999961e+001 -3.224999961e+001 +3.5960e+000 +1.0616e+000
9060 0 +2.903366223e-007 -3.224999971e+001 -3.224999971e+001 +3.5960e+000 +1.0616e+000
9066 0 +2.823696903e-007 -3.224999972e+001 -3.224999972e+001 +3.5960e+000 +1.0616e+000
9076 0 +1.565034040e-007 -3.224999984e+001 -3.224999984e+001 +3.5960e+000 +1.0616e+000
9085 0 +7.378214661e-008 -3.224999993e+001 -3.224999993e+001 +3.5960e+000 +1.0616e+000
9102 0 +5.070548070e-008 -3.224999995e+001 -3.224999995e+001 +3.5960e+000 +1.0616e+000
9110 0 +3.227440715e-008 -3.224999997e+001 -3.224999997e+001 +3.5960e+000 +1.0616e+000
9117 0 +1.441077302e-008 -3.224999999e+001 -3.224999999e+001 +3.5960e+000 +1.0616e+000
9177 0 +1.334502997e-008 -3.224999999e+001 -3.224999999e+001 +3.5960e+000 +1.0616e+000
9186 0 +7.821768122e-009 -3.224999999e+001 -3.224999999e+001 +3.5960e+000 +1.0616e+000
% f evaluations | g evaluations | best noise-free fitness - Fopt (3.681200000000e+002) + sum g_i+ | measured fitness | best measured fitness or single-digit g-values | x1 | x2...
1 0 +4.388464848e+002 +8.069664848e+002 +8.069664848e+002 -5.0000e+000 +5.0000e+000
2 0 +1.811112732e+002 +5.492312732e+002 +5.492312732e+002 +5.0000e+000 +5.0000e+000
5 0 +2.678944315e+001 +3.949094432e+002 +3.949094432e+002 +5.0000e+000 -1.0266e+000
6 0 +9.936238261e+000 +3.780562383e+002 +3.780562383e+002 +5.0000e+000 -9.1438e-001
9 0 +9.748590496e+000 +3.778685905e+002 +3.778685905e+002 -5.0000e+000 -1.2746e+000
10 0 +9.183089740e+000 +3.773030897e+002 +3.773030897e+002 -5.0000e+000 -1.2766e+000
11 0 +7.992093137e+000 +3.761120931e+002 +3.761120931e+002 -3.6714e+000 -1.2766e+000
15 0 +2.364991508e+000 +3.704849915e+002 +3.704849915e+002 -3.6714e+000 -1.1669e+000
16 0 +1.133906271e+000 +3.692539063e+002 +3.692539063e+002 -1.8583e+000 -1.0868e+000
30 0 +2.436716257e-001 +3.683636716e+002 +3.683636716e+002 -2.2821e+000 -1.0857e+000
230 0 +1.273142308e-001 +3.682473142e+002 +3.682473142e+002 -2.5231e+000 -1.0906e+000
232 0 +1.157148193e-001 +3.682357148e+002 +3.682357148e+002 -2.5252e+000 -1.0914e+000
236 0 +1.100690186e-001 +3.682300690e+002 +3.682300690e+002 -2.5328e+000 -1.0918e+000
245 0 +9.786473720e-002 +3.682178647e+002 +3.682178647e+002 -2.5441e+000 -1.0935e+000
257 0 +8.731871690e-002 +3.682073187e+002 +3.682073187e+002 -2.4154e+000 -1.0885e+000
276 0 +6.868855611e-002 +3.681886886e+002 +3.681886886e+002 -2.4289e+000 -1.0895e+000
298 0 +5.782322454e-002 +3.681778232e+002 +3.681778232e+002 -2.4111e+000 -1.0878e+000
304 0 +5.012792247e-002 +3.681701279e+002 +3.681701279e+002 -2.4443e+000 -1.0885e+000
315 0 +4.317108296e-002 +3.681631711e+002 +3.681631711e+002 -2.4289e+000 -1.0878e+000
337 0 +3.192969099e-002 +3.681519297e+002 +3.681519297e+002 -2.4320e+000 -1.0879e+000
371 0 +1.657741192e-002 +3.681365774e+002 +3.681365774e+002 -2.4477e+000 -1.0887e+000
375 0 +1.438105983e-002 +3.681343811e+002 +3.681343811e+002 -2.4585e+000 -1.0895e+000
376 0 +1.671540639e-003 +3.681216715e+002 +3.681216715e+002 -2.4628e+000 -1.0896e+000
405 0 +1.034427912e-003 +3.681210344e+002 +3.681210344e+002 -2.4634e+000 -1.0896e+000
505 0 +1.012834533e-003 +3.681210128e+002 +3.681210128e+002 -2.4635e+000 -1.0896e+000
507 0 +3.441410478e-004 +3.681203441e+002 +3.681203441e+002 -2.4631e+000 -1.0896e+000
532 0 +2.735015963e-004 +3.681202735e+002 +3.681202735e+002 -2.4632e+000 -1.0896e+000
537 0 +2.097174453e-004 +3.681202097e+002 +3.681202097e+002 -2.4633e+000 -1.0896e+000
560 0 +1.474853332e-004 +3.681201475e+002 +3.681201475e+002 -2.4632e+000 -1.0896e+000
564 0 +3.831184495e-005 +3.681200383e+002 +3.681200383e+002 -2.4632e+000 -1.0896e+000
591 0 +2.892122535e-005 +3.681200289e+002 +3.681200289e+002 -2.4632e+000 -1.0896e+000
611 0 +2.736116818e-005 +3.681200274e+002 +3.681200274e+002 -2.4632e+000 -1.0896e+000
622 0 +2.091259898e-005 +3.681200209e+002 +3.681200209e+002 -2.4632e+000 -1.0896e+000
647 0 +1.640490518e-005 +3.681200164e+002 +3.681200164e+002 -2.4632e+000 -1.0896e+000
669 0 +1.409378353e-005 +3.681200141e+002 +3.681200141e+002 -2.4632e+000 -1.0896e+000
672 0 +8.155805517e-006 +3.681200082e+002 +3.681200082e+002 -2.4632e+000 -1.0896e+000
704 0 +6.942213986e-007 +3.681200007e+002 +3.681200007e+002 -2.4632e+000 -1.0896e+000
721 0 +6.826483059e-007 +3.681200007e+002 +3.681200007e+002 -2.4632e+000 -1.0896e+000
723 0 +5.519178217e-007 +3.681200006e+002 +3.681200006e+002 -2.4632e+000 -1.0896e+000
726 0 +4.773747833e-007 +3.681200005e+002 +3.681200005e+002 -2.4632e+000 -1.0896e+000
765 0 +4.457189107e-007 +3.681200004e+002 +3.681200004e+002 -2.4632e+000 -1.0896e+000
791 0 +4.001328193e-007 +3.681200004e+002 +3.681200004e+002 -2.4632e+000 -1.0896e+000
794 0 +3.392083272e-007 +3.681200003e+002 +3.681200003e+002 -2.4632e+000 -1.0896e+000
809 0 +1.912342213e-007 +3.681200002e+002 +3.681200002e+002 -2.4632e+000 -1.0896e+000
813 0 +1.714490736e-007 +3.681200002e+002 +3.681200002e+002 -2.4632e+000 -1.0896e+000
821 0 +1.628755513e-007 +3.681200002e+002 +3.681200002e+002 -2.4632e+000 -1.0896e+000
827 0 +1.060201384e-007 +3.681200001e+002 +3.681200001e+002 -2.4632e+000 -1.0896e+000
841 0 +9.850600691e-008 +3.681200001e+002 +3.681200001e+002 -2.4632e+000 -1.0896e+000
843 0 +3.429892104e-008 +3.681200000e+002 +3.681200000e+002 -2.4632e+000 -1.0896e+000
880 0 +2.723459147e-008 +3.681200000e+002 +3.681200000e+002 -2.4632e+000 -1.0896e+000
886 0 +2.614109462e-008 +3.681200000e+002 +3.681200000e+002 -2.4632e+000 -1.0896e+000
890 0 +2.443977110e-008 +3.681200000e+002 +3.681200000e+002 -2.4632e+000 -1.0896e+000
904 0 +2.392158649e-008 +3.681200000e+002 +3.681200000e+002 -2.4632e+000 -1.0896e+000
913 0 +3.273669336e-009 +3.681200000e+002 +3.681200000e+002 -2.4632e+000 -1.0896e+000
% f evaluations | g evaluations | best noise-free fitness - Fopt (4.739000000000e+001) + sum g_i+ | measured fitness | best measured fitness or single-digit g-values | x1 | x2...
1 0 +3.664188680e+001 +8.403188680e+001 +8.403188680e+001 -5.0000e+000 -5.0000e+000
13 0 +1.968757415e+001 +6.707757415e+001 +6.707757415e+001 -2.9418e+000 -1.8000e+000
38 0 +1.621513542e+001 +6.360513542e+001 +6.360513542e+001 -1.9067e+000 +3.2888e-001
39 0 +7.953876834e+000 +5.534387683e+001 +5.534387683e+001 -2.0116e+000 +2.7355e-002
43 0 +6.287814662e+000 +5.367781466e+001 +5.367781466e+001 -2.0211e+000 -1.6416e-001
96 0 +6.039222709e+000 +5.342922271e+001 +5.342922271e+001 -1.0679e+000 +1.3583e+000
104 0 +3.997688564e+000 +5.138768856e+001 +5.138768856e+001 -1.2434e+000 +1.2118e+000
109 0 +1.860870536e+000 +4.925087054e+001 +4.925087054e+001 -1.2888e+000 +1.0814e+000
124 0 +3.314611717e-001 +4.772146117e+001 +4.772146117e+001 -5.3625e-001 +2.5722e+000
157 0 +1.591107238e-001 +4.754911072e+001 +4.754911072e+001 -5.6357e-001 +2.4943e+000
205 0 +1.573702412e-001 +4.754737024e+001 +4.754737024e+001 -5.6455e-001 +2.4923e+000
254 0 +1.359285007e-001 +4.752592850e+001 +4.752592850e+001 -5.0709e-001 +2.6190e+000
323 0 +6.675273049e-002 +4.745675273e+001 +4.745675273e+001 -4.7558e-001 +2.6761e+000
328 0 +4.432216069e-002 +4.743432216e+001 +4.743432216e+001 -5.0633e-001 +2.6123e+000
342 0 +8.457931779e-003 +4.739845793e+001 +4.739845793e+001 -4.9797e-001 +2.6283e+000
439 0 +7.937576623e-003 +4.739793758e+001 +4.739793758e+001 -4.9946e-001 +2.6254e+000
440 0 +7.581787134e-003 +4.739758179e+001 +4.739758179e+001 -4.9893e-001 +2.6265e+000
630 0 +4.646712242e-003 +4.739464671e+001 +4.739464671e+001 -4.9909e-001 +2.6266e+000
635 0 +3.606388196e-003 +4.739360639e+001 +4.739360639e+001 -4.9898e-001 +2.6268e+000
637 0 +3.425334211e-003 +4.739342533e+001 +4.739342533e+001 -4.9896e-001 +2.6268e+000
638 0 +3.324767165e-003 +4.739332477e+001 +4.739332477e+001 -4.9894e-001 +2.6268e+000
640 0 +3.296938723e-003 +4.739329694e+001 +4.739329694e+001 -4.9893e-001 +2.6269e+000
649 0 +3.036550055e-003 +4.739303655e+001 +4.739303655e+001 -4.9878e-001 +2.6272e+000
1866 0 +9.872950372e-004 +4.739098730e+001 +4.739098730e+001 -4.9718e-001 +2.6304e+000
1872 0 +6.003025776e-004 +4.739060030e+001 +4.739060030e+001 -4.9745e-001 +2.6299e+000
1878 0 +1.335657031e-004 +4.739013357e+001 +4.739013357e+001 -4.9758e-001 +2.6296e+000
1896 0 +1.101048593e-004 +4.739011010e+001 +4.739011010e+001 -4.9758e-001 +2.6296e+000
1919 0 +3.041519263e-005 +4.739003042e+001 +4.739003042e+001 -4.9761e-001 +2.6296e+000
1923 0 +2.877771423e-005 +4.739002878e+001 +4.739002878e+001 -4.9761e-001 +2.6296e+000
2002 0 +2.750013220e-005 +4.739002750e+001 +4.739002750e+001 -4.9760e-001 +2.6296e+000
2005 0 +1.521327840e-005 +4.739001521e+001 +4.739001521e+001 -4.9760e-001 +2.6296e+000
2032 0 +1.032176446e-005 +4.739001032e+001 +4.739001032e+001 -4.9760e-001 +2.6296e+000
2052 0 +1.022728302e-005 +4.739001023e+001 +4.739001023e+001 -4.9760e-001 +2.6296e+000
2083 0 +7.593917154e-006 +4.739000759e+001 +4.739000759e+001 -4.9760e-001 +2.6296e+000
2085 0 +3.711113592e-006 +4.739000371e+001 +4.739000371e+001 -4.9760e-001 +2.6296e+000
2091 0 +1.974545874e-006 +4.739000197e+001 +4.739000197e+001 -4.9760e-001 +2.6296e+000
2122 0 +1.284736932e-006 +4.739000128e+001 +4.739000128e+001 -4.9760e-001 +2.6296e+000
2125 0 +1.132366336e-006 +4.739000113e+001 +4.739000113e+001 -4.9760e-001 +2.6296e+000
2139 0 +1.027364732e-006 +4.739000103e+001 +4.739000103e+001 -4.9760e-001 +2.6296e+000
2140 0 +5.537654673e-007 +4.739000055e+001 +4.739000055e+001 -4.9760e-001 +2.6296e+000
2172 0 +5.225940640e-007 +4.739000052e+001 +4.739000052e+001 -4.9760e-001 +2.6296e+000
2187 0 +2.989539638e-007 +4.739000030e+001 +4.739000030e+001 -4.9760e-001 +2.6296e+000
2201 0 +2.041942864e-007 +4.739000020e+001 +4.739000020e+001 -4.9760e-001 +2.6296e+000
2208 0 +1.790216615e-007 +4.739000018e+001 +4.739000018e+001 -4.9760e-001 +2.6296e+000
2214 0 +1.569757160e-007 +4.739000016e+001 +4.739000016e+001 -4.9760e-001 +2.6296e+000
2219 0 +1.174816191e-007 +4.739000012e+001 +4.739000012e+001 -4.9760e-001 +2.6296e+000
2242 0 +7.315952644e-008 +4.739000007e+001 +4.739000007e+001 -4.9760e-001 +2.6296e+000
2246 0 +4.743008475e-008 +4.739000005e+001 +4.739000005e+001 -4.9760e-001 +2.6296e+000
2252 0 +3.263200199e-008 +4.739000003e+001 +4.739000003e+001 -4.9760e-001 +2.6296e+000
2255 0 +1.771718416e-008 +4.739000002e+001 +4.739000002e+001 -4.9760e-001 +2.6296e+000
2269 0 +1.356058732e-008 +4.739000001e+001 +4.739000001e+001 -4.9760e-001 +2.6296e+000
2297 0 +9.135682433e-009 +4.739000001e+001 +4.739000001e+001 -4.9760e-001 +2.6296e+000
% f evaluations | g evaluations | best noise-free fitness - Fopt (-3.428900000000e+002) + sum g_i+ | measured fitness | best measured fitness or single-digit g-values | x1 | x2...
1 0 +3.311396158e+003 +2.968506158e+003 +2.968506158e+003 +5.0000e+000 +5.0000e+000
2 0 +1.252603766e+003 +9.097137663e+002 +9.097137663e+002 -5.0000e+000 +5.0000e+000
3 0 +1.551007849e+002 -1.877892151e+002 -1.877892151e+002 +5.0000e+000 -5.0000e+000
8 0 +1.085869289e+002 -2.343030711e+002 -2.343030711e+002 +9.4019e-001 -2.4748e+000
10 0 +6.243581620e+001 -2.804541838e+002 -2.804541838e+002 +4.0120e+000 -2.4033e+000
17 0 +1.044172408e+001 -3.324482759e+002 -3.324482759e+002 +1.2372e+000 -3.8417e+000
31 0 +3.921896520e+000 -3.389681035e+002 -3.389681035e+002 +1.4850e+000 -4.1865e+000
81 0 +3.198485013e+000 -3.396915150e+002 -3.396915150e+002 +1.0573e+000 -4.5799e+000
123 0 +2.106115985e+000 -3.407838840e+002 -3.407838840e+002 +1.2970e+000 -4.2888e+000
162 0 +2.007456047e+000 -3.408825440e+002 -3.408825440e+002 +1.3075e+000 -4.2888e+000
191 0 +1.072744171e+000 -3.418172558e+002 -3.418172558e+002 +1.8035e+000 -3.5279e+000
209 0 +8.352557582e-001 -3.420547442e+002 -3.420547442e+002 +2.4349e+000 -2.5631e+000
221 0 +5.329320262e-001 -3.423570680e+002 -3.423570680e+002 +2.5293e+000 -2.4105e+000
257 0 +3.789044538e-001 -3.425110955e+002 -3.425110955e+002 +2.1496e+000 -2.9434e+000
308 0 +3.639830459e-001 -3.425260170e+002 -3.425260170e+002 +2.0564e+000 -3.0782e+000
330 0 +1.026888088e-001 -3.427873112e+002 -3.427873112e+002 +2.1921e+000 -2.8556e+000
390 0 +4.239820014e-002 -3.428476018e+002 -3.428476018e+002 +2.2446e+000 -2.7688e+000
407 0 +3.691252375e-002 -3.428530875e+002 -3.428530875e+002 +2.2382e+000 -2.7782e+000
432 0 +3.282037362e-002 -3.428571796e+002 -3.428571796e+002 +2.2375e+000 -2.7793e+000
489 0 +1.802608107e-002 -3.428719739e+002 -3.428719739e+002 +2.2549e+000 -2.7556e+000
494 0 +1.635225952e-002 -3.428736477e+002 -3.428736477e+002 +2.2545e+000 -2.7567e+000
575 0 +9.520060573e-003 -3.428804799e+002 -3.428804799e+002 +2.2467e+000 -2.7669e+000
577 0 +7.670336017e-003 -3.428823297e+002 -3.428823297e+002 +2.2454e+000 -2.7680e+000
599 0 +7.363566106e-003 -3.428826364e+002 -3.428826364e+002 +2.2448e+000 -2.7691e+000
602 0 +3.926554293e-003 -3.428860734e+002 -3.428860734e+002 +2.2449e+000 -2.7689e+000
613 0 +3.066899357e-003 -3.428869331e+002 -3.428869331e+002 +2.2439e+000 -2.7703e+000
635 0 +1.167060596e-003 -3.428888329e+002 -3.428888329e+002 +2.2442e+000 -2.7700e+000
654 0 +4.430591227e-004 -3.428895569e+002 -3.428895569e+002 +2.2442e+000 -2.7701e+000
673 0 +2.718677580e-004 -3.428897281e+002 -3.428897281e+002 +2.2441e+000 -2.7702e+000
688 0 +2.394890410e-004 -3.428897605e+002 -3.428897605e+002 +2.2439e+000 -2.7705e+000
717 0 +2.303159062e-004 -3.428897697e+002 -3.428897697e+002 +2.2439e+000 -2.7705e+000
732 0 +1.909241132e-004 -3.428898091e+002 -3.428898091e+002 +2.2440e+000 -2.7705e+000
746 0 +1.623909328e-004 -3.428898376e+002 -3.428898376e+002 +2.2440e+000 -2.7705e+000
758 0 +5.412892801e-005 -3.428899459e+002 -3.428899459e+002 +2.2440e+000 -2.7704e+000
782 0 +4.943714373e-005 -3.428899506e+002 -3.428899506e+002 +2.2440e+000 -2.7704e+000
787 0 +3.034828711e-005 -3.428899697e+002 -3.428899697e+002 +2.2440e+000 -2.7704e+000
788 0 +2.878008462e-005 -3.428899712e+002 -3.428899712e+002 +2.2440e+000 -2.7704e+000
14590 0 +2.555291621e-005 -3.428899744e+002 -3.428899744e+002 +2.2440e+000 -2.7704e+000
14630 0 +3.402999198e-006 -3.428899966e+002 -3.428899966e+002 +2.2440e+000 -2.7704e+000
14680 0 +2.425583546e-006 -3.428899976e+002 -3.428899976e+002 +2.2440e+000 -2.7704e+000
14696 0 +1.279201626e-006 -3.428899987e+002 -3.428899987e+002 +2.2440e+000 -2.7704e+000
14711 0 +1.129599184e-006 -3.428899989e+002 -3.428899989e+002 +2.2440e+000 -2.7704e+000
14732 0 +1.030829878e-006 -3.428899990e+002 -3.428899990e+002 +2.2440e+000 -2.7704e+000
14739 0 +9.751244079e-007 -3.428899990e+002 -3.428899990e+002 +2.2440e+000 -2.7704e+000
14747 0 +8.913788179e-007 -3.428899991e+002 -3.428899991e+002 +2.2440e+000 -2.7704e+000
14748 0 +8.769568467e-007 -3.428899991e+002 -3.428899991e+002 +2.2440e+000 -2.7704e+000
14755 0 +8.304850780e-007 -3.428899992e+002 -3.428899992e+002 +2.2440e+000 -2.7704e+000
14756 0 +7.356803735e-007 -3.428899993e+002 -3.428899993e+002 +2.2440e+000 -2.7704e+000
14761 0 +7.166702858e-007 -3.428899993e+002 -3.428899993e+002 +2.2440e+000 -2.7704e+000
14762 0 +6.753315347e-007 -3.428899993e+002 -3.428899993e+002 +2.2440e+000 -2.7704e+000
14766 0 +6.604716987e-007 -3.428899993e+002 -3.428899993e+002 +2.2440e+000 -2.7704e+000
14767 0 +6.337022000e-007 -3.428899994e+002 -3.428899994e+002 +2.2440e+000 -2.7704e+000
14770 0 +5.720973490e-007 -3.428899994e+002 -3.428899994e+002 +2.2440e+000 -2.7704e+000
14782 0 +5.603086493e-007 -3.428899994e+002 -3.428899994e+002 +2.2440e+000 -2.7704e+000
14787 0 +2.876348617e-007 -3.428899997e+002 -3.428899997e+002 +2.2440e+000 -2.7704e+000
14796 0 +7.427655646e-008 -3.428899999e+002 -3.428899999e+002 +2.2440e+000 -2.7704e+000
14840 0 +6.434083843e-008 -3.428899999e+002 -3.428899999e+002 +2.2440e+000 -2.7704e+000
14917 0 +1.791909199e-008 -3.428900000e+002 -3.428900000e+002 +2.2440e+000 -2.7704e+000
14941 0 +1.595424237e-008 -3.428900000e+002 -3.428900000e+002 +2.2440e+000 -2.7704e+000
14948 0 +1.448819376e-008 -3.428900000e+002 -3.428900000e+002 +2.2440e+000 -2.7704e+000
14953 0 +5.332765340e-009 -3.428900000e+002 -3.428900000e+002 +2.2440e+000 -2.7704e+000
% f evaluations | g evaluations | best noise-free fitness - Fopt (9.102000000000e+001) + sum g_i+ | measured fitness | best measured fitness or single-digit g-values | x1 | x2...
1 0 +5.126246698e+002 +6.036446698e+002 +6.036446698e+002 -5.0000e+000 +5.0000e+000
2 0 +1.974434370e+002 +2.884634370e+002 +2.884634370e+002 +5.0000e+000 +5.0000e+000
7 0 +1.539837197e+002 +2.450037197e+002 +2.450037197e+002 +3.8686e-001 -5.0000e+000
13 0 +1.705908476e+001 +1.080790848e+002 +1.080790848e+002 +1.7836e+000 -6.5861e-001
24 0 +1.438857667e+001 +1.054085767e+002 +1.054085767e+002 +1.7598e+000 -7.2048e-001
27 0 +2.700891121e+000 +9.372089112e+001 +9.372089112e+001 +1.9715e+000 -2.6039e-001
92 0 +2.504661841e+000 +9.352466184e+001 +9.352466184e+001 +2.0404e+000 -2.6039e-001
106 0 +1.764721296e+000 +9.278472130e+001 +9.278472130e+001 +8.4907e-001 -7.9212e-001
107 0 +1.465526219e+000 +9.248552622e+001 +9.248552622e+001 +1.0285e+000 -7.0711e-001
122 0 +5.260186456e-001 +9.154601865e+001 +9.154601865e+001 +2.6357e-001 -1.0135e+000
145 0 +1.983206101e-001 +9.121832061e+001 +9.121832061e+001 +6.1837e-001 -8.5354e-001
150 0 +1.882330589e-001 +9.120823306e+001 +9.120823306e+001 +4.2993e-001 -9.2678e-001
173 0 +1.562334597e-001 +9.117623346e+001 +9.117623346e+001 +4.2270e-001 -9.3156e-001
250 0 +1.139613936e-001 +9.113396139e+001 +9.113396139e+001 +4.2702e-001 -9.2923e-001
258 0 +1.045305088e-001 +9.112453051e+001 +9.112453051e+001 +4.3948e-001 -9.2298e-001
277 0 +9.846841574e-002 +9.111846842e+001 +9.111846842e+001 +4.3161e-001 -9.2736e-001
280 0 +9.766562769e-002 +9.111766563e+001 +9.111766563e+001 +4.4466e-001 -9.2080e-001
335 0 +7.435453442e-002 +9.109435453e+001 +9.109435453e+001 +6.0598e-001 -8.5317e-001
337 0 +6.543369442e-002 +9.108543369e+001 +9.108543369e+001 +6.0537e-001 -8.5348e-001
343 0 +4.052941247e-002 +9.106052941e+001 +9.106052941e+001 +5.8917e-001 -8.6217e-001
351 0 +3.954275896e-002 +9.105954276e+001 +9.105954276e+001 +5.9317e-001 -8.6025e-001
358 0 +3.270240690e-002 +9.105270241e+001 +9.105270241e+001 +5.9064e-001 -8.6146e-001
393 0 +3.231580117e-002 +9.105231580e+001 +9.105231580e+001 +5.9170e-001 -8.6095e-001
2398 0 +1.046371017e-002 +9.103046371e+001 +9.103046371e+001 +5.6859e-001 -8.7174e-001
2400 0 +9.812756640e-003 +9.102981276e+001 +9.102981276e+001 +5.6628e-001 -8.7281e-001
2401 0 +9.600661745e-003 +9.102960066e+001 +9.102960066e+001 +5.6635e-001 -8.7278e-001
2402 0 +8.770318559e-003 +9.102877032e+001 +9.102877032e+001 +5.6683e-001 -8.7255e-001
2408 0 +7.659744576e-003 +9.102765974e+001 +9.102765974e+001 +5.6770e-001 -8.7213e-001
2439 0 +7.572275617e-003 +9.102757228e+001 +9.102757228e+001 +5.6770e-001 -8.7214e-001
2469 0 +3.585249850e-003 +9.102358525e+001 +9.102358525e+001 +5.6538e-001 -8.7304e-001
2472 0 +3.255199963e-003 +9.102325520e+001 +9.102325520e+001 +5.6434e-001 -8.7345e-001
2484 0 +3.216668161e-003 +9.102321667e+001 +9.102321667e+001 +5.6526e-001 -8.7311e-001
2486 0 +3.042896560e-003 +9.102304290e+001 +9.102304290e+001 +5.6511e-001 -8.7318e-001
2621 0 +1.040094230e-003 +9.102104009e+001 +9.102104009e+001 +5.6320e-001 -8.7406e-001
2627 0 +1.016696776e-003 +9.102101670e+001 +9.102101670e+001 +5.6323e-001 -8.7403e-001
2645 0 +6.349431724e-004 +9.102063494e+001 +9.102063494e+001 +5.6235e-001 -8.7443e-001
2668 0 +5.095999117e-004 +9.102050960e+001 +9.102050960e+001 +5.6258e-001 -8.7433e-001
2689 0 +3.691871058e-004 +9.102036919e+001 +9.102036919e+001 +5.6231e-001 -8.7444e-001
2700 0 +3.092941185e-004 +9.102030929e+001 +9.102030929e+001 +5.6228e-001 -8.7446e-001
2701 0 +2.582241033e-004 +9.102025822e+001 +9.102025822e+001 +5.6226e-001 -8.7447e-001
2727 0 +2.446115796e-004 +9.102024461e+001 +9.102024461e+001 +5.6225e-001 -8.7447e-001
2736 0 +2.354703684e-004 +9.102023547e+001 +9.102023547e+001 +5.6230e-001 -8.7445e-001
2741 0 +2.310048969e-004 +9.102023100e+001 +9.102023100e+001 +5.6230e-001 -8.7445e-001
3630 0 +2.247153771e-004 +9.102022472e+001 +9.102022472e+001 +5.6242e-001 -8.7439e-001
3648 0 +1.236725983e-004 +9.102012367e+001 +9.102012367e+001 +5.6245e-001 -8.7438e-001
3672 0 +2.897569206e-005 +9.102002898e+001 +9.102002898e+001 +5.6242e-001 -8.7439e-001
3749 0 +2.877863169e-005 +9.102002878e+001 +9.102002878e+001 +5.6242e-001 -8.7439e-001
12883 0 +1.705863731e-005 +9.102001706e+001 +9.102001706e+001 +5.6240e-001 -8.7440e-001
12900 0 +9.054457621e-006 +9.102000905e+001 +9.102000905e+001 +5.6240e-001 -8.7440e-001
12925 0 +7.341041538e-006 +9.102000734e+001 +9.102000734e+001 +5.6240e-001 -8.7440e-001
12928 0 +4.821717852e-007 +9.102000048e+001 +9.102000048e+001 +5.6240e-001 -8.7440e-001
12976 0 +4.680802306e-007 +9.102000047e+001 +9.102000047e+001 +5.6240e-001 -8.7440e-001
12994 0 +4.629861792e-007 +9.102000046e+001 +9.102000046e+001 +5.6240e-001 -8.7440e-001
13003 0 +4.445880535e-007 +9.102000044e+001 +9.102000044e+001 +5.6240e-001 -8.7440e-001
13007 0 +4.188474918e-007 +9.102000042e+001 +9.102000042e+001 +5.6240e-001 -8.7440e-001
13017 0 +3.766648433e-007 +9.102000038e+001 +9.102000038e+001 +5.6240e-001 -8.7440e-001
13020 0 +3.421719441e-007 +9.102000034e+001 +9.102000034e+001 +5.6240e-001 -8.7440e-001
13021 0 +2.180621408e-007 +9.102000022e+001 +9.102000022e+001 +5.6240e-001 -8.7440e-001
13045 0 +6.766532579e-008 +9.102000007e+001 +9.102000007e+001 +5.6240e-001 -8.7440e-001
13053 0 +2.020766487e-008 +9.102000002e+001 +9.102000002e+001 +5.6240e-001 -8.7440e-001
13125 0 +1.988902909e-008 +9.102000002e+001 +9.102000002e+001 +5.6240e-001 -8.7440e-001
13136 0 +1.678785111e-008 +9.102000002e+001 +9.102000002e+001 +5.6240e-001 -8.7440e-001
13155 0 +7.423523130e-009 +9.102000001e+001 +9.102000001e+001 +5.6240e-001 -8.7440e-001
% f evaluations | g evaluations | best noise-free fitness - Fopt (7.324200000000e+002) + sum g_i+ | measured fitness | best measured fitness or single-digit g-values | x1 | x2...
1 0 +5.422308228e+002 +1.274650823e+003 +1.274650823e+003 -5.0000e+000 -5.0000e+000
2 0 +1.989998876e+002 +9.314198876e+002 +9.314198876e+002 +5.0000e+000 -5.0000e+000
7 0 +1.070452934e+002 +8.394652934e+002 +8.394652934e+002 +5.0000e+000 -4.9642e+000
10 0 +4.305035535e+001 +7.754703553e+002 +7.754703553e+002 +3.1985e+000 -4.5010e+000
16 0 +3.708882835e+001 +7.695088284e+002 +7.695088284e+002 +2.8833e+000 -4.6527e+000
32 0 +2.945233572e+001 +7.618723357e+002 +7.618723357e+002 +2.4423e+000 -4.6367e+000
38 0 +1.581362837e+001 +7.482336284e+002 +7.482336284e+002 +4.4414e+000 -4.5210e+000
81 0 +1.343482975e+001 +7.458548298e+002 +7.458548298e+002 +7.7857e-002 -3.9331e+000
86 0 +6.443883841e+000 +7.388638838e+002 +7.388638838e+002 -8.2038e-001 -3.7255e+000
129 0 +5.368008252e+000 +7.377880083e+002 +7.377880083e+002 -8.3840e-001 -3.7127e+000
176 0 +4.089566723e+000 +7.365095667e+002 +7.365095667e+002 -1.6249e+000 -3.5391e+000
217 0 +1.885748828e+000 +7.343057488e+002 +7.343057488e+002 -1.6719e+000 -3.4412e+000
239 0 +1.851332718e+000 +7.342713327e+002 +7.342713327e+002 -1.6650e+000 -3.4440e+000
1198 0 +1.481993242e+000 +7.339019932e+002 +7.339019932e+002 -2.4442e+000 -2.7136e+000
1240 0 +1.251832413e+000 +7.336718324e+002 +7.336718324e+002 -2.4359e+000 -2.7441e+000
1309 0 +3.567988456e-001 +7.327767988e+002 +7.327767988e+002 -2.6958e+000 -2.4371e+000
1315 0 +2.627131545e-001 +7.326827132e+002 +7.326827132e+002 -2.8197e+000 -2.3067e+000
1402 0 +2.437984505e-001 +7.326637985e+002 +7.326637985e+002 -2.7403e+000 -2.3943e+000
1428 0 +2.329731453e-001 +7.326529731e+002 +7.326529731e+002 -2.6915e+000 -2.4477e+000
1434 0 +1.682190484e-001 +7.325882190e+002 +7.325882190e+002 -2.6875e+000 -2.4521e+000
1452 0 +1.375102009e-001 +7.325575102e+002 +7.325575102e+002 -2.6879e+000 -2.4518e+000
1453 0 +1.133682711e-001 +7.325333683e+002 +7.325333683e+002 -2.6851e+000 -2.4562e+000
1482 0 +9.762628271e-002 +7.325176263e+002 +7.325176263e+002 -2.6839e+000 -2.4586e+000
1546 0 +6.301840234e-002 +7.324830184e+002 +7.324830184e+002 -2.6995e+000 -2.4375e+000
1550 0 +5.760878456e-002 +7.324776088e+002 +7.324776088e+002 -2.6985e+000 -2.4396e+000
2593 0 +3.978300977e-002 +7.324597830e+002 +7.324597830e+002 -2.7139e+000 -2.4179e+000
2642 0 +3.312901828e-002 +7.324531290e+002 +7.324531290e+002 -2.7151e+000 -2.4158e+000
2677 0 +3.234197557e-002 +7.324523420e+002 +7.324523420e+002 -2.7157e+000 -2.4148e+000
6447 0 +1.001177701e-002 +7.324300118e+002 +7.324300118e+002 -2.7373e+000 -2.3843e+000
6490 0 +3.183726395e-003 +7.324231837e+002 +7.324231837e+002 -2.7376e+000 -2.3842e+000
6555 0 +3.077081668e-003 +7.324230771e+002 +7.324230771e+002 -2.7381e+000 -2.3839e+000
6664 0 +1.444916878e-003 +7.324214449e+002 +7.324214449e+002 -2.7392e+000 -2.3823e+000
6672 0 +1.068991600e-003 +7.324210690e+002 +7.324210690e+002 -2.7392e+000 -2.3823e+000
6674 0 +6.195216297e-004 +7.324206195e+002 +7.324206195e+002 -2.7391e+000 -2.3825e+000
6679 0 +2.576576977e-004 +7.324202577e+002 +7.324202577e+002 -2.7392e+000 -2.3825e+000
6729 0 +1.752383700e-004 +7.324201752e+002 +7.324201752e+002 -2.7392e+000 -2.3824e+000
6750 0 +3.462836946e-005 +7.324200346e+002 +7.324200346e+002 -2.7392e+000 -2.3824e+000
6761 0 +2.879942338e-005 +7.324200288e+002 +7.324200288e+002 -2.7392e+000 -2.3824e+000
6863 0 +2.126515938e-005 +7.324200213e+002 +7.324200213e+002 -2.7392e+000 -2.3824e+000
6876 0 +1.689036071e-005 +7.324200169e+002 +7.324200169e+002 -2.7392e+000 -2.3824e+000
6894 0 +4.176546213e-006 +7.324200042e+002 +7.324200042e+002 -2.7392e+000 -2.3824e+000
6901 0 +2.997242404e-006 +7.324200030e+002 +7.324200030e+002 -2.7392e+000 -2.3824e+000
6902 0 +1.612367441e-006 +7.324200016e+002 +7.324200016e+002 -2.7392e+000 -2.3824e+000
6911 0 +9.709942788e-007 +7.324200010e+002 +7.324200010e+002 -2.7392e+000 -2.3824e+000
6976 0 +9.532770946e-007 +7.324200010e+002 +7.324200010e+002 -2.7392e+000 -2.3824e+000
6989 0 +9.231897593e-007 +7.324200009e+002 +7.324200009e+002 -2.7392e+000 -2.3824e+000
7000 0 +7.922484428e-007 +7.324200008e+002 +7.324200008e+002 -2.7392e+000 -2.3824e+000
7006 0 +6.498848961e-007 +7.324200006e+002 +7.324200006e+002 -2.7392e+000 -2.3824e+000
7020 0 +5.365629931e-007 +7.324200005e+002 +7.324200005e+002 -2.7392e+000 -2.3824e+000
7045 0 +5.008736252e-007 +7.324200005e+002 +7.324200005e+002 -2.7392e+000 -2.3824e+000
7063 0 +3.617730044e-007 +7.324200004e+002 +7.324200004e+002 -2.7392e+000 -2.3824e+000
7065 0 +2.115116331e-007 +7.324200002e+002 +7.324200002e+002 -2.7392e+000 -2.3824e+000
7129 0 +1.878665898e-007 +7.324200002e+002 +7.324200002e+002 -2.7392e+000 -2.3824e+000
7134 0 +1.431581040e-007 +7.324200001e+002 +7.324200001e+002 -2.7392e+000 -2.3824e+000
7136 0 +1.036131607e-007 +7.324200001e+002 +7.324200001e+002 -2.7392e+000 -2.3824e+000
7140 0 +5.366132427e-008 +7.324200001e+002 +7.324200001e+002 -2.7392e+000 -2.3824e+000
7170 0 +1.417504336e-008 +7.324200000e+002 +7.324200000e+002 -2.7392e+000 -2.3824e+000
7181 0 +1.231353508e-008 +7.324200000e+002 +7.324200000e+002 -2.7392e+000 -2.3824e+000
7194 0 +8.120082384e-009 +7.324200000e+002 +7.324200000e+002 -2.7392e+000 -2.3824e+000
% f evaluations | g evaluations | best noise-free fitness - Fopt (3.542000000000e+001) + sum g_i+ | measured fitness | best measured fitness or single-digit g-values | x1 | x2...
1 0 +3.346457241e+002 +3.700657241e+002 +3.700657241e+002 +5.0000e+000 -5.0000e+000
2 0 +1.160742184e+002 +1.514942184e+002 +1.514942184e+002 -5.0000e+000 -5.0000e+000
8 0 +6.955511744e+001 +1.049751174e+002 +1.049751174e+002 -2.7140e+000 -2.7140e+000
9 0 +9.300192580e+000 +4.472019258e+001 +4.472019258e+001 -2.8448e+000 -5.0000e+000
56 0 +7.934216737e+000 +4.335421674e+001 +4.335421674e+001 -2.7994e+000 -4.9594e+000
66 0 +5.246023254e+000 +4.066602325e+001 +4.066602325e+001 -5.6270e-001 -4.2018e+000
77 0 +5.110879944e+000 +4.053087994e+001 +4.053087994e+001 -5.4488e-001 -4.1977e+000
269 0 +4.811751417e+000 +4.023175142e+001 +4.023175142e+001 +2.2554e-001 -3.8602e+000
281 0 +4.439192270e+000 +3.985919227e+001 +3.985919227e+001 +1.7952e-001 -3.8567e+000
283 0 +4.039941912e+000 +3.945994191e+001 +3.945994191e+001 +1.6444e-001 -3.8674e+000
1083 0 +2.947692992e+000 +3.836769299e+001 +3.836769299e+001 +3.4061e+000 -2.3859e+000
1085 0 +1.326918967e+000 +3.674691897e+001 +3.674691897e+001 +3.8068e+000 -2.3392e+000
1123 0 +1.190965476e+000 +3.661096548e+001 +3.661096548e+001 +3.4455e+000 -2.4548e+000
1161 0 +1.166898329e+000 +3.658689833e+001 +3.658689833e+001 +3.4307e+000 -2.4602e+000
1183 0 +2.352202674e-001 +3.565522027e+001 +3.565522027e+001 +3.7289e+000 -2.3264e+000
1256 0 +2.835776729e-002 +3.544835777e+001 +3.544835777e+001 +3.6724e+000 -2.3536e+000
1258 0 +1.648551068e-002 +3.543648551e+001 +3.543648551e+001 +3.6776e+000 -2.3512e+000
1509 0 +9.946138122e-003 +3.542994614e+001 +3.542994614e+001 +3.6788e+000 -2.3512e+000
1513 0 +9.094592509e-003 +3.542909459e+001 +3.542909459e+001 +3.6794e+000 -2.3509e+000
1523 0 +8.439505126e-003 +3.542843951e+001 +3.542843951e+001 +3.6791e+000 -2.3511e+000
1524 0 +7.410313546e-003 +3.542741031e+001 +3.542741031e+001 +3.6858e+000 -2.3482e+000
1525 0 +6.908740737e-003 +3.542690874e+001 +3.542690874e+001 +3.6864e+000 -2.3479e+000
1529 0 +3.562273802e-003 +3.542356227e+001 +3.542356227e+001 +3.6870e+000 -2.3477e+000
1535 0 +3.370772353e-003 +3.542337077e+001 +3.542337077e+001 +3.6872e+000 -2.3476e+000
1571 0 +3.287041303e-003 +3.542328704e+001 +3.542328704e+001 +3.6836e+000 -2.3491e+000
1572 0 +3.084295467e-003 +3.542308430e+001 +3.542308430e+001 +3.6840e+000 -2.3490e+000
1597 0 +1.525268928e-003 +3.542152527e+001 +3.542152527e+001 +3.6863e+000 -2.3481e+000
1601 0 +1.483522541e-003 +3.542148352e+001 +3.542148352e+001 +3.6855e+000 -2.3484e+000
1613 0 +1.443256447e-003 +3.542144326e+001 +3.542144326e+001 +3.6869e+000 -2.3478e+000
1619 0 +9.953719763e-004 +3.542099537e+001 +3.542099537e+001 +3.6872e+000 -2.3477e+000
1651 0 +2.481761880e-004 +3.542024818e+001 +3.542024818e+001 +3.6864e+000 -2.3480e+000
1660 0 +2.412099592e-004 +3.542024121e+001 +3.542024121e+001 +3.6862e+000 -2.3481e+000
1680 0 +2.349339235e-004 +3.542023493e+001 +3.542023493e+001 +3.6862e+000 -2.3481e+000
1682 0 +2.298422593e-004 +3.542022984e+001 +3.542022984e+001 +3.6863e+000 -2.3481e+000
3943 0 +4.221973657e-005 +3.542004222e+001 +3.542004222e+001 +3.6864e+000 -2.3480e+000
3948 0 +3.006751167e-005 +3.542003007e+001 +3.542003007e+001 +3.6864e+000 -2.3480e+000
4001 0 +2.951097913e-005 +3.542002951e+001 +3.542002951e+001 +3.6864e+000 -2.3480e+000
4048 0 +2.881076337e-005 +3.542002881e+001 +3.542002881e+001 +3.6864e+000 -2.3480e+000
5244 0 +2.700742382e-005 +3.542002701e+001 +3.542002701e+001 +3.6864e+000 -2.3480e+000
5246 0 +2.601432031e-005 +3.542002601e+001 +3.542002601e+001 +3.6864e+000 -2.3480e+000
5247 0 +2.182512334e-005 +3.542002183e+001 +3.542002183e+001 +3.6864e+000 -2.3480e+000
5265 0 +1.452417806e-005 +3.542001452e+001 +3.542001452e+001 +3.6864e+000 -2.3480e+000
5280 0 +1.039958697e-005 +3.542001040e+001 +3.542001040e+001 +3.6864e+000 -2.3480e+000
5323 0 +8.638034856e-006 +3.542000864e+001 +3.542000864e+001 +3.6864e+000 -2.3480e+000
5324 0 +6.329485714e-006 +3.542000633e+001 +3.542000633e+001 +3.6864e+000 -2.3480e+000
5328 0 +6.053402714e-006 +3.542000605e+001 +3.542000605e+001 +3.6864e+000 -2.3480e+000
5329 0 +1.426297842e-006 +3.542000143e+001 +3.542000143e+001 +3.6864e+000 -2.3480e+000
5330 0 +1.314984111e-006 +3.542000131e+001 +3.542000131e+001 +3.6864e+000 -2.3480e+000
5345 0 +1.184312652e-006 +3.542000118e+001 +3.542000118e+001 +3.6864e+000 -2.3480e+000
5350 0 +6.697660098e-007 +3.542000067e+001 +3.542000067e+001 +3.6864e+000 -2.3480e+000
5356 0 +5.091302171e-007 +3.542000051e+001 +3.542000051e+001 +3.6864e+000 -2.3480e+000
5360 0 +4.931073434e-007 +3.542000049e+001 +3.542000049e+001 +3.6864e+000 -2.3480e+000
5368 0 +3.939673547e-007 +3.542000039e+001 +3.542000039e+001 +3.6864e+000 -2.3480e+000
5392 0 +1.128025744e-007 +3.542000011e+001 +3.542000011e+001 +3.6864e+000 -2.3480e+000
5402 0 +9.358501529e-008 +3.542000009e+001 +3.542000009e+001 +3.6864e+000 -2.3480e+000
5447 0 +8.220078485e-008 +3.542000008e+001 +3.542000008e+001 +3.6864e+000 -2.3480e+000
5468 0 +5.945101123e-008 +3.542000006e+001 +3.542000006e+001 +3.6864e+000 -2.3480e+000
5476 0 +4.621938388e-008 +3.542000005e+001 +3.542000005e+001 +3.6864e+000 -2.3480e+000
5487 0 +2.537901622e-008 +3.542000003e+001 +3.542000003e+001 +3.6864e+000 -2.3480e+000
5503 0 +1.944179928e-009 +3.542000000e+001 +3.542000000e+001 +3.6864e+000 -2.3480e+000
