% f evaluations | g evaluations | best noise-free fitness - Fopt (7.948000000000e+001) + sum g_i+ | measured fitness | best measured fitness or single-digit g-values | x1 | x2...
1 0 +8.995197568e+001 +1.694319757e+002 +1.694319757e+002 -5.0000e+000 -5.0000e+000 +5.0000e+000 +5.0000e+000 -5.0000e+000
2 0 +8.489597568e+001 +1.643759757e+002 +1.643759757e+002 +5.0000e+000 -5.0000e+000 +5.0000e+000 +5.0000e+000 -5.0000e+000
4 0 +7.547197568e+001 +1.549519757e+002 +1.549519757e+002 -5.0000e+000 -5.0000e+000 -5.0000e+000 +5.0000e+000 -5.0000e+000
7 0 +7.041597568e+001 +1.498959757e+002 +1.498959757e+002 +5.0000e+000 -5.0000e+000 -5.0000e+000 +5.0000e+000 -5.0000e+000
12 0 +1.706950321e+001 +9.654950321e+001 +9.654950321e+001 +2.5106e-001 -5.0000e+000 -1.4843e+000 +1.0628e+000 -1.6931e+000
13 0 +0.000000000e+000 +7.948000000e+001 +7.948000000e+001 +2.5280e-001 -1.1568e+000 -7.2400e-001 +1.9264e+000 -2.6808e+000
% f evaluations | g evaluations | best noise-free fitness - Fopt (3.944800000000e+002) + sum g_i+ | measured fitness | best measured fitness or single-digit g-values | x1 | x2...
1 0 +1.014901165e+002 +4.959701165e+002 +4.959701165e+002 -5.0000e+000 -5.0000e+000 +5.0000e+000 +5.0000e+000 +5.0000e+000
4 0 +2.544211648e+001 +4.199221165e+002 +4.199221165e+002 -5.0000e+000 -5.0000e+000 -5.0000e+000 +5.0000e+000 +5.0000e+000
12 0 +0.000000000e+000 +3.944800000e+002 +3.944800000e+002 -3.8984e+000 -2.8904e+000 -3.8024e+000 +3.9056e+000 +8.5920e-001
% f evaluations | g evaluations | best noise-free fitness - Fopt (-2.471100000000e+002) + sum g_i+ | measured fitness | best measured fitness or single-digit g-values | x1 | x2...
1 0 +1.979768883e+002 -4.913311168e+001 -4.913311168e+001 -5.0000e+000 +5.0000e+000 +5.0000e+000 +5.0000e+000 +5.0000e+000
4 0 +1.841528883e+002 -6.295711168e+001 -6.295711168e+001 -5.0000e+000 +5.0000e+000 -5.0000e+000 +5.0000e+000 +5.0000e+000
5 0 +1.241528883e+002 -1.229571117e+002 -1.229571117e+002 -5.0000e+000 +5.0000e+000 +5.0000e+000 -5.0000e+000 +5.0000e+000
7 0 +4.834488832e+001 -1.987651117e+002 -1.987651117e+002 -5.0000e+000 +5.0000e+000 -5.0000e+000 -5.0000e+000 -5.0000e+000
12 0 +3.423469186e+001 -2.128753081e+002 -2.128753081e+002 -2.5671e+000 +5.0000e+000 -2.2604e-001 -5.0000e+000 -3.0992e-001
13 0 +0.000000000e+000 -2.471100000e+002 -2.471100000e+002 -3.7984e+000 +2.0320e-001 -6.9120e-001 -3.6912e+000 -3.0992e+000
% f evaluations | g evaluations | best noise-free fitness - Fopt (-1.520400000000e+002) + sum g_i+ | measured fitness | best measured fitness or single-digit g-values | x1 | x2...
1 0 +9.428864576e+001 -5.775135424e+001 -5.775135424e+001 -5.0000e+000 +5.0000e+000 -5.0000e+000 +5.0000e+000 -5.0000e+000
6 0 +4.590464576e+001 -1.061353542e+002 -1.061353542e+002 -5.0000e+000 +5.0000e+000 -5.0000e+000 +5.0000e+000 +5.0000e+000
9 0 +1.636845365e+001 -1.356715464e+002 -1.356715464e+002 +2.3250e+000 +1.6408e-001 -4.1340e+000 +4.9983e+000 +4.6825e+000
12 0 +0.000000000e+000 -1.520400000e+002 -1.520400000e+002 -2.6720e-001 +1.4240e+000 -3.9248e+000 +3.2968e+000 +2.4192e+000
% f evaluations | g evaluations | best noise-free fitness - Fopt (-2.525000000000e+001) + sum g_i+ | measured fitness | best measured fitness or single-digit g-values | x1 | x2...
1 0 +2.387677510e+002 +2.135177510e+002 +2.135177510e+002 -5.0000e+000 -5.0000e+000 -5.0000e+000 +5.0000e+000 -5.0000e+000
2 0 +1.664797510e+002 +1.412297510e+002 +1.412297510e+002 +5.0000e+000 -5.0000e+000 -5.0000e+000 +5.0000e+000 -5.0000e+000
7 0 +4.478375104e+001 +1.953375104e+001 +1.953375104e+001 +5.0000e+000 +5.0000e+000 -5.0000e+000 -5.0000e+000 +5.0000e+000
10 0 +4.065533699e+001 +1.540533699e+001 +1.540533699e+001 -1.9158e+000 -2.0218e+000 -2.7549e+000 -2.2929e+000 +2.1946e+000
12 0 +3.305402467e+001 +7.804024665e+000 +7.804024665e+000 +5.0000e+000 +3.1678e-002 -5.0000e+000 -5.0000e+000 +1.5699e-001
13 0 +0.000000000e+000 -2.525000000e+001 -2.525000000e+001 +3.6144e+000 +6.3520e-001 -1.4216e+000 -2.1528e+000 +3.2968e+000
% f evaluations | g evaluations | best noise-free fitness - Fopt (1.830100000000e+002) + sum g_i+ | measured fitness | best measured fitness or single-digit g-values | x1 | x2...
1 0 +3.426115264e+001 +2.172711526e+002 +2.172711526e+002 -5.0000e+000 +5.0000e+000 -5.0000e+000 +5.0000e+000 -5.0000e+000
12 0 +0.000000000e+000 +1.830100000e+002 +1.830100000e+002 -2.1360e+000 +3.1032e+000 -2.8520e+000 +1.0296e+000 -3.5568e+000
% f evaluations | g evaluations | best noise-free fitness - Fopt (1.835200000000e+002) + sum g_i+ | measured fitness | best measured fitness or single-digit g-values | x1 | x2...
1 0 +1.485932045e+002 +3.321132045e+002 +3.321132045e+002 +5.0000e+000 -5.0000e+000 +5.0000e+000 +5.0000e+000 -5.0000e+000
2 0 +1.481612045e+002 +3.316812045e+002 +3.316812045e+002 -5.0000e+000 -5.0000e+000 +5.0000e+000 +5.0000e+000 -5.0000e+000
4 0 +1.019052045e+002 +2.854252045e+002 +2.854252045e+002 +5.0000e+000 -5.0000e+000 -5.0000e+000 +5.0000e+000 -5.0000e+000
7 0 +6.060920448e+001 +2.441292045e+002 +2.441292045e+002 -5.0000e+000 -5.0000e+000 -5.0000e+000 -5.0000e+000 -5.0000e+000
8 0 +5.164165785e+001 +2.351616579e+002 +2.351616579e+002 +4.4357e+000 -2.1798e+000 +2.8915e+000 -1.1362e+000 +7.5246e-002
9 0 +3.447679124e+001 +2.179967912e+002 +2.179967912e+002 +1.4248e+000 -4.4880e+000 -4.3116e+000 -1.5736e+000 +4.6298e+000
12 0 +1.274463567e+001 +1.962646357e+002 +1.962646357e+002 -1.1070e-002 -5.0000e+000 -6.9944e-001 -5.0000e+000 -2.0093e-001
13 0 +0.000000000e+000 +1.835200000e+002 +1.835200000e+002 -2.1600e-002 -3.9416e+000 -2.3344e+000 -2.0432e+000 -6.5760e-001
% f evaluations | g evaluations | best noise-free fitness - Fopt (-5.938400000000e+002) + sum g_i+ | measured fitness | best measured fitness or single-digit g-values | x1 | x2...
1 0 +1.611582374e+002 -4.326817626e+002 -4.326817626e+002 +5.0000e+000 +5.0000e+000 -5.0000e+000 +5.0000e+000 -5.0000e+000
2 0 +1.097662374e+002 -4.840737626e+002 -4.840737626e+002 -5.0000e+000 +5.0000e+000 -5.0000e+000 +5.0000e+000 -5.0000e+000
7 0 +7.099823744e+001 -5.228417626e+002 -5.228417626e+002 -5.0000e+000 +5.0000e+000 +5.0000e+000 +5.0000e+000 +5.0000e+000
8 0 +5.563083416e+000 -5.882769166e+002 -5.882769166e+002 -2.9600e+000 -1.4131e+000 -6.9066e-001 +1.2309e+000 +2.2201e+000
13 0 +0.000000000e+000 -5.938400000e+002 -5.938400000e+002 -2.5696e+000 +9.4400e-002 +5.7200e-001 +2.1336e+000 +1.3664e+000
% f evaluations | g evaluations | best noise-free fitness - Fopt (-1.000000000000e+003) + sum g_i+ | measured fitness | best measured fitness or single-digit g-values | x1 | x2...
1 0 +9.471752064e+001 -9.052824794e+002 -9.052824794e+002 +5.0000e+000 +5.0000e+000 -5.0000e+000 -5.0000e+000 +5.0000e+000
2 0 +1.785352064e+001 -9.821464794e+002 -9.821464794e+002 -5.0000e+000 +5.0000e+000 -5.0000e+000 -5.0000e+000 +5.0000e+000
12 0 +0.000000000e+000 -1.000000000e+003 -1.000000000e+003 -3.8432e+000 +3.8528e+000 -3.8216e+000 -2.4456e+000 +2.3008e+000
% f evaluations | g evaluations | best noise-free fitness - Fopt (-2.531000000000e+001) + sum g_i+ | measured fitness | best measured fitness or single-digit g-values | x1 | x2...
1 0 +1.502123859e+002 +1.249023859e+002 +1.249023859e+002 +5.0000e+000 -5.0000e+000 +5.0000e+000 +5.0000e+000 -5.0000e+000
3 0 +7.955638592e+001 +5.424638592e+001 +5.424638592e+001 +5.0000e+000 +5.0000e+000 +5.0000e+000 +5.0000e+000 -5.0000e+000
7 0 +3.181238592e+001 +6.502385920e+000 +6.502385920e+000 +5.0000e+000 +5.0000e+000 +5.0000e+000 +5.0000e+000 +5.0000e+000
13 0 +0.000000000e+000 -2.531000000e+001 -2.531000000e+001 +3.4688e+000 +3.5328e+000 +8.5280e-001 +3.1864e+000 +2.3872e+000
% f evaluations | g evaluations | best noise-free fitness - Fopt (2.228000000000e+001) + sum g_i+ | measured fitness | best measured fitness or single-digit g-values | x1 | x2...
1 0 +1.032948730e+002 +1.255748730e+002 +1.255748730e+002 -5.0000e+000 -5.0000e+000 -5.0000e+000 -5.0000e+000 -5.0000e+000
2 0 +7.503887296e+001 +9.731887296e+001 +9.731887296e+001 +5.0000e+000 -5.0000e+000 -5.0000e+000 -5.0000e+000 -5.0000e+000
7 0 +5.468687296e+001 +7.696687296e+001 +7.696687296e+001 +5.0000e+000 -5.0000e+000 -5.0000e+000 +5.0000e+000 -5.0000e+000
8 0 +3.369787089e+001 +5.597787089e+001 +5.597787089e+001 +1.2358e+000 -3.2315e-001 -9.6737e-001 +2.2294e+000 +2.7564e+000
12 0 +1.700561415e+001 +3.928561415e+001 +3.928561415e+001 +5.9961e-001 -5.0000e+000 -5.1294e-001 +9.4709e-001 -6.0302e-001
13 0 +0.000000000e+000 +2.228000000e+001 +2.228000000e+001 +1.4128e+000 -1.7768e+000 -1.8216e+000 +1.0176e+000 -2.6616e+000
% f evaluations | g evaluations | best noise-free fitness - Fopt (3.561400000000e+002) + sum g_i+ | measured fitness | best measured fitness or single-digit g-values | x1 | x2...
1 0 +1.392952051e+002 +4.954352051e+002 +4.954352051e+002 -5.0000e+000 +5.0000e+000 -5.0000e+000 -5.0000e+000 +5.0000e+000
2 0 +1.101272051e+002 +4.662672051e+002 +4.662672051e+002 +5.0000e+000 +5.0000e+000 -5.0000e+000 -5.0000e+000 +5.0000e+000
5 0 +9.484720512e+001 +4.509872051e+002 +4.509872051e+002 -5.0000e+000 +5.0000e+000 -5.0000e+000 +5.0000e+000 +5.0000e+000
7 0 +5.518320512e+001 +4.113232051e+002 +4.113232051e+002 +5.0000e+000 -5.0000e+000 -5.0000e+000 +5.0000e+000 +5.0000e+000
8 0 +2.987948435e+001 +3.860194843e+002 +3.860194843e+002 -1.7852e+000 -1.0351e+000 -6.2333e-002 +3.1893e+000 +3.8949e+000
12 0 +5.680097399e+000 +3.618200974e+002 +3.618200974e+002 +1.5646e-001 -1.6307e-001 -5.0000e+000 +2.1429e+000 +1.2061e-001
13 0 +0.000000000e+000 +3.561400000e+002 +3.561400000e+002 +1.4584e+000 -5.2480e-001 -3.5376e+000 +2.2224e+000 +1.4280e+000
% f evaluations | g evaluations | best noise-free fitness - Fopt (-4.757000000000e+002) + sum g_i+ | measured fitness | best measured fitness or single-digit g-values | x1 | x2...
1 0 +1.572678592e+002 -3.184321408e+002 -3.184321408e+002 -5.0000e+000 +5.0000e+000 +5.0000e+000 -5.0000e+000 +5.0000e+000
3 0 +1.483878592e+002 -3.273121408e+002 -3.273121408e+002 -5.0000e+000 -5.0000e+000 +5.0000e+000 -5.0000e+000 +5.0000e+000
5 0 +9.713985920e+001 -3.785601408e+002 -3.785601408e+002 -5.0000e+000 +5.0000e+000 +5.0000e+000 +5.0000e+000 +5.0000e+000
7 0 +5.459585920e+001 -4.211041408e+002 -4.211041408e+002 -5.0000e+000 -5.0000e+000 +5.0000e+000 +5.0000e+000 -5.0000e+000
9 0 +4.066531299e+001 -4.350346870e+002 -4.350346870e+002 -1.6376e+000 -4.7074e+000 +4.6370e+000 +3.1027e-001 +2.0376e+000
10 0 +2.484485198e+001 -4.508551480e+002 -4.508551480e+002 -1.2585e+000 -1.6706e+000 +2.4467e+000 -2.0522e-001 +1.6402e+000
11 0 +2.362875611e+001 -4.520712439e+002 -4.520712439e+002 -4.6683e+000 +1.4647e+000 +3.2246e+000 +1.3463e+000 -3.1589e+000
12 0 +2.067905963e+001 -4.550209404e+002 -4.550209404e+002 -8.9748e-001 -2.5792e+000 +1.8038e+000 +1.9200e+000 -5.0000e+000
13 0 +0.000000000e+000 -4.757000000e+002 -4.757000000e+002 -8.2960e-001 -4.4400e-001 +3.7872e+000 +3.0064e+000 -1.6832e+000
% f evaluations | g evaluations | best noise-free fitness - Fopt (-1.000000000000e+003) + sum g_i+ | measured fitness | best measured fitness or single-digit g-values | x1 | x2...
1 0 +2.444858298e+002 -7.555141702e+002 -7.555141702e+002 +5.0000e+000 +5.0000e+000 -5.0000e+000 +5.0000e+000 +5.0000e+000
2 0 +1.684378298e+002 -8.315621702e+002 -8.315621702e+002 -5.0000e+000 +5.0000e+000 -5.0000e+000 +5.0000e+000 +5.0000e+000
7 0 +2.869382976e+001 -9.713061702e+002 -9.713061702e+002 -5.0000e+000 +5.0000e+000 +5.0000e+000 -5.0000e+000 -5.0000e+000
13 0 +0.000000000e+000 -1.000000000e+003 -1.000000000e+003 -3.8024e+000 +3.3216e+000 +3.7328e+000 -1.4208e+000 -1.8336e+000
% f evaluations | g evaluations | best noise-free fitness - Fopt (-4.158000000000e+001) + sum g_i+ | measured fitness | best measured fitness or single-digit g-values | x1 | x2...
1 0 +2.002405344e+002 +1.586605344e+002 +1.586605344e+002 -5.0000e+000 -5.0000e+000 +5.0000e+000 +5.0000e+000 -5.0000e+000
2 0 +1.882885344e+002 +1.467085344e+002 +1.467085344e+002 +5.0000e+000 -5.0000e+000 +5.0000e+000 +5.0000e+000 -5.0000e+000
3 0 +1.431845344e+002 +1.016045344e+002 +1.016045344e+002 -5.0000e+000 +5.0000e+000 +5.0000e+000 +5.0000e+000 -5.0000e+000
4 0 +1.374885344e+002 +9.590853440e+001 +9.590853440e+001 -5.0000e+000 -5.0000e+000 -5.0000e+000 +5.0000e+000 -5.0000e+000
7 0 +6.638453440e+001 +2.480453440e+001 +2.480453440e+001 +5.0000e+000 +5.0000e+000 -5.0000e+000 -5.0000e+000 -5.0000e+000
8 0 +6.746296401e+000 -3.483370360e+001 -3.483370360e+001 +1.9825e+000 +3.1742e+000 -2.4083e+000 -1.3460e+000 +4.9677e-001
13 0 +0.000000000e+000 -4.158000000e+001 -4.158000000e+001 +5.9760e-001 +2.8528e+000 -3.1376e+000 -1.0480e-001 -1.1320e+000
