% f evaluations | g evaluations | best noise-free fitness - Fopt (4.078000000000e+001) + sum g_i+ | measured fitness | best measured fitness or single-digit g-values | x1 | x2...
1 0 +5.299015206e+001 +9.377015206e+001 +9.377015206e+001 +5.0000e+000 -5.0000e+000
2 0 +2.539546629e+001 +6.617546629e+001 +6.617546629e+001 -5.0000e+000 -5.0000e+000
4 0 +4.067890496e+000 +4.484789050e+001 +4.484789050e+001 -3.3292e+000 +8.6744e-001
24 0 +2.156916406e-001 +4.099569164e+001 +4.099569164e+001 -2.5654e+000 -1.5900e+000
83 0 +1.077690310e-001 +4.088776903e+001 +4.088776903e+001 -2.3479e+000 -1.8475e+000
112 0 +6.552138653e-002 +4.084552139e+001 +4.084552139e+001 -2.9171e+000 -1.9657e+000
117 0 +2.364074514e-002 +4.080364075e+001 +4.080364075e+001 -2.9685e+000 -2.0957e+000
149 0 +7.093616829e-003 +4.078709362e+001 +4.078709362e+001 -2.8324e+000 -1.9902e+000
152 0 +3.990728753e-003 +4.078399073e+001 +4.078399073e+001 -2.4798e+000 -1.8492e+000
196 0 +2.893952144e-005 +4.078002894e+001 +4.078002894e+001 -2.5409e+000 -1.8315e+000
226 0 +2.681697134e-005 +4.078002682e+001 +4.078002682e+001 -2.5237e+000 -1.8184e+000
234 0 +2.185892593e-005 +4.078002186e+001 +4.078002186e+001 -2.4375e+000 -1.7270e+000
243 0 +1.576850711e-005 +4.078001577e+001 +4.078001577e+001 -2.5254e+000 -1.8162e+000
250 0 +1.255230746e-005 +4.078001255e+001 +4.078001255e+001 -2.5167e+000 -1.8091e+000
256 0 +7.043043645e-006 +4.078000704e+001 +4.078000704e+001 -2.5757e+000 -1.8285e+000
259 0 +1.399649342e-006 +4.078000140e+001 +4.078000140e+001 -2.5464e+000 -1.8047e+000
265 0 +5.266567200e-007 +4.078000053e+001 +4.078000053e+001 -2.5010e+000 -1.7852e+000
278 0 +1.751922696e-007 +4.078000018e+001 +4.078000018e+001 -2.5120e+000 -1.7785e+000
308 0 +1.410308670e-008 +4.078000001e+001 +4.078000001e+001 -2.5016e+000 -1.7780e+000
339 0 +1.312087505e-008 +4.078000001e+001 +4.078000001e+001 -2.5017e+000 -1.7780e+000
363 0 +1.266837302e-008 +4.078000001e+001 +4.078000001e+001 -2.5018e+000 -1.7776e+000
366 0 +1.190985444e-008 +4.078000001e+001 +4.078000001e+001 -2.5025e+000 -1.7776e+000
370 0 +1.155846263e-008 +4.078000001e+001 +4.078000001e+001 -2.5031e+000 -1.7779e+000
375 0 +1.147786577e-008 +4.078000001e+001 +4.078000001e+001 -2.5043e+000 -1.7779e+000
381 0 +1.112413628e-008 +4.078000001e+001 +4.078000001e+001 -2.5045e+000 -1.7781e+000
382 0 +1.096447022e-008 +4.078000001e+001 +4.078000001e+001 -2.5047e+000 -1.7781e+000
385 0 +8.848431321e-009 +4.078000001e+001 +4.078000001e+001 -2.5041e+000 -1.7786e+000
% f evaluations | g evaluations | best noise-free fitness - Fopt (-1.600000000000e+000) + sum g_i+ | measured fitness | best measured fitness or single-digit g-values | x1 | x2...
1 0 +5.334225324e+001 +5.174225324e+001 +5.174225324e+001 +5.0000e+000 +5.0000e+000
2 0 +4.689203640e+001 +4.529203640e+001 +4.529203640e+001 -5.0000e+000 +5.0000e+000
3 0 +4.427803597e+001 +4.267803597e+001 +4.267803597e+001 +5.0000e+000 -5.0000e+000
4 0 +8.899498300e+000 +7.299498300e+000 +7.299498300e+000 -5.0000e+000 -5.0000e+000
6 0 +1.462406200e-002 -1.585375938e+000 -1.585375938e+000 +1.3939e+000 -1.9507e+000
21 0 +7.575936634e-003 -1.592424063e+000 -1.592424063e+000 +1.2936e+000 -1.9507e+000
78 0 +1.225937438e-003 -1.598774063e+000 -1.598774063e+000 +9.6645e-001 -2.0448e+000
105 0 +2.384502432e-004 -1.599761550e+000 -1.599761550e+000 +9.4704e-001 -1.9916e+000
112 0 +9.964086187e-007 -1.599999004e+000 -1.599999004e+000 +1.0998e+000 -2.0171e+000
149 0 +4.143249877e-008 -1.599999959e+000 -1.599999959e+000 +1.1268e+000 -2.0088e+000
222 0 +3.899525147e-011 -1.600000000e+000 -1.600000000e+000 +1.1313e+000 -2.0131e+000
% f evaluations | g evaluations | best noise-free fitness - Fopt (-3.708400000000e+002) + sum g_i+ | measured fitness | best measured fitness or single-digit g-values | x1 | x2...
1 0 +6.997162312e+000 -3.638428377e+002 -3.638428377e+002 +5.0000e+000 -5.0000e+000
3 0 +2.977439324e+000 -3.678625607e+002 -3.678625607e+002 +5.0000e+000 +5.0000e+000
4 0 +1.986504632e+000 -3.688534954e+002 -3.688534954e+002 +2.5238e+000 -4.3101e+000
5 0 +1.298206403e+000 -3.695417936e+002 -3.695417936e+002 +2.6992e+000 -4.3101e+000
59 0 +7.251969235e-001 -3.701148031e+002 -3.701148031e+002 +2.8021e+000 -4.2585e+000
136 0 +7.025216375e-001 -3.701374784e+002 -3.701374784e+002 +2.8774e+000 -4.2829e+000
17273 0 +5.649413515e-001 -3.702750586e+002 -3.702750586e+002 +3.7288e+000 -8.1065e-001
17276 0 +2.371846332e-001 -3.706028154e+002 -3.706028154e+002 +2.8315e+000 -5.0519e-001
17311 0 +1.238274760e-001 -3.707161725e+002 -3.707161725e+002 +3.3440e+000 -7.3159e-001
17331 0 +7.735911816e-003 -3.708322641e+002 -3.708322641e+002 +3.2977e+000 -8.0329e-001
17351 0 +2.506332911e-004 -3.708397494e+002 -3.708397494e+002 +3.2681e+000 -8.4918e-001
17371 0 +1.804256273e-004 -3.708398196e+002 -3.708398196e+002 +3.2491e+000 -8.7855e-001
17415 0 +1.176978665e-004 -3.708398823e+002 -3.708398823e+002 +3.2418e+000 -8.7221e-001
17416 0 +3.413102831e-007 -3.708399997e+002 -3.708399997e+002 +3.0902e+000 -7.9459e-001
17437 0 +2.481596084e-007 -3.708399998e+002 -3.708399998e+002 +3.1257e+000 -8.0700e-001
17449 0 +1.703638759e-007 -3.708399998e+002 -3.708399998e+002 +3.1089e+000 -8.0093e-001
17470 0 +1.276998773e-007 -3.708399999e+002 -3.708399999e+002 +3.0889e+000 -7.9943e-001
17481 0 +5.298664973e-008 -3.708399999e+002 -3.708399999e+002 +3.0943e+000 -7.9928e-001
17496 0 +5.063196795e-008 -3.708399999e+002 -3.708399999e+002 +3.0933e+000 -8.0008e-001
17527 0 +8.673850971e-009 -3.708400000e+002 -3.708400000e+002 +3.1267e+000 -8.1242e-001
% f evaluations | g evaluations | best noise-free fitness - Fopt (-3.256000000000e+001) + sum g_i+ | measured fitness | best measured fitness or single-digit g-values | x1 | x2...
1 0 +2.998795947e+001 -2.572040531e+000 -2.572040531e+000 +5.0000e+000 -5.0000e+000
4 0 +6.848925767e+000 -2.571107423e+001 -2.571107423e+001 +2.6393e+000 +3.6937e+000
7 0 +3.206687983e+000 -2.935331202e+001 -2.935331202e+001 +2.6779e-001 -4.4632e+000
20 0 +5.014244079e-001 -3.205857559e+001 -3.205857559e+001 +1.6929e+000 -2.4190e+000
33 0 +1.864108288e-001 -3.237358917e+001 -3.237358917e+001 +1.6929e+000 -2.7756e+000
102 0 +1.536797407e-001 -3.240632026e+001 -3.240632026e+001 +1.7065e+000 -2.7276e+000
106 0 +3.419611626e-003 -3.255658039e+001 -3.255658039e+001 +8.0226e-001 -3.4991e+000
139 0 +2.841594500e-003 -3.255715841e+001 -3.255715841e+001 +8.1368e-001 -3.4652e+000
155 0 +2.614829609e-003 -3.255738517e+001 -3.255738517e+001 +8.3262e-001 -3.4274e+000
162 0 +8.196801437e-004 -3.255918032e+001 -3.255918032e+001 +9.2334e-001 -3.3305e+000
175 0 +2.569383005e-004 -3.255974306e+001 -3.255974306e+001 +1.0332e+000 -3.3177e+000
193 0 +1.748814253e-004 -3.255982512e+001 -3.255982512e+001 +9.2829e-001 -3.3750e+000
208 0 +2.087270341e-005 -3.255997913e+001 -3.255997913e+001 +9.9656e-001 -3.3201e+000
209 0 +2.036427453e-005 -3.255997964e+001 -3.255997964e+001 +1.0593e+000 -3.2696e+000
224 0 +1.782758829e-009 -3.256000000e+001 -3.256000000e+001 +1.0566e+000 -3.2476e+000
% f evaluations | g evaluations | best noise-free fitness - Fopt (5.154000000000e+002) + sum g_i+ | measured fitness | best measured fitness or single-digit g-values | x1 | x2...
1 0 +6.665480958e+001 +5.820548096e+002 +5.820548096e+002 -5.0000e+000 -5.0000e+000
3 0 +2.634130875e+001 +5.417413088e+002 +5.417413088e+002 -5.0000e+000 +5.0000e+000
4 0 +1.596554838e+001 +5.313655484e+002 +5.313655484e+002 -9.2152e-001 -1.2388e+000
5 0 +6.941632003e+000 +5.223416320e+002 +5.223416320e+002 -9.2152e-001 -3.0814e+000
6 0 +4.121292779e+000 +5.195212928e+002 +5.195212928e+002 -7.5250e-002 +5.0000e+000
10 0 +3.370578143e+000 +5.187705781e+002 +5.187705781e+002 -5.8856e-001 +3.0182e+000
13 0 +2.189886460e+000 +5.175898865e+002 +5.175898865e+002 -8.4380e-001 +3.2735e+000
22 0 +2.067388708e+000 +5.174673887e+002 +5.174673887e+002 -8.0009e-001 +3.5830e+000
29 0 +2.034642909e+000 +5.174346429e+002 +5.174346429e+002 -8.2613e-001 +3.5170e+000
60 0 +1.801237252e+000 +5.172012373e+002 +5.172012373e+002 -7.0372e-001 +2.9505e-001
68 0 +1.276041513e+000 +5.166760415e+002 +5.166760415e+002 -7.3799e-001 +4.9272e-001
106 0 +1.779464399e-002 +5.154177946e+002 +5.154177946e+002 -2.9382e+000 -5.5494e-001
146 0 +1.371915997e-002 +5.154137192e+002 +5.154137192e+002 -2.9943e+000 -5.7130e-001
186 0 +5.796804923e-003 +5.154057968e+002 +5.154057968e+002 -3.7908e+000 -7.7905e-001
189 0 +4.476485666e-003 +5.154044765e+002 +5.154044765e+002 -3.8027e+000 -7.9216e-001
223 0 +4.194395323e-003 +5.154041944e+002 +5.154041944e+002 -3.7963e+000 -7.9036e-001
226 0 +1.134222160e-003 +5.154011342e+002 +5.154011342e+002 -3.6957e+000 -8.2969e-001
237 0 +2.883216240e-004 +5.154002883e+002 +5.154002883e+002 -3.2975e+000 -6.5920e-001
253 0 +1.935493307e-004 +5.154001935e+002 +5.154001935e+002 -3.3316e+000 -6.6686e-001
260 0 +8.125505099e-005 +5.154000813e+002 +5.154000813e+002 -3.3870e+000 -6.8170e-001
265 0 +6.776014925e-005 +5.154000678e+002 +5.154000678e+002 -3.4161e+000 -7.3354e-001
285 0 +3.543627997e-005 +5.154000354e+002 +5.154000354e+002 -3.4240e+000 -7.3354e-001
300 0 +2.493196689e-007 +5.154000002e+002 +5.154000002e+002 -3.4405e+000 -7.1829e-001
347 0 +5.393371794e-008 +5.154000001e+002 +5.154000001e+002 -3.4565e+000 -7.2670e-001
401 0 +5.049969332e-009 +5.154000000e+002 +5.154000000e+002 -3.4710e+000 -7.2579e-001
% f evaluations | g evaluations | best noise-free fitness - Fopt (-8.628000000000e+001) + sum g_i+ | measured fitness | best measured fitness or single-digit g-values | x1 | x2...
1 0 +6.755554709e+001 -1.872445291e+001 -1.872445291e+001 +5.0000e+000 -5.0000e+000
2 0 +2.465666174e+001 -6.162333826e+001 -6.162333826e+001 -5.0000e+000 -5.0000e+000
5 0 +4.396112132e+000 -8.188388787e+001 -8.188388787e+001 -5.0000e+000 +5.4693e-001
26 0 +2.132165531e+000 -8.414783447e+001 -8.414783447e+001 -3.4590e+000 +1.4820e+000
30 0 +2.004798163e+000 -8.427520184e+001 -8.427520184e+001 -2.2308e+000 -4.3863e+000
40 0 +1.908117522e+000 -8.437188248e+001 -8.437188248e+001 -2.3701e+000 -4.7971e+000
42 0 +1.586059670e+000 -8.469394033e+001 -8.469394033e+001 -2.3745e+000 -4.6425e+000
60 0 +1.478107789e+000 -8.480189221e+001 -8.480189221e+001 -2.3701e+000 -4.4998e+000
69 0 +1.374027971e+000 -8.490597203e+001 -8.490597203e+001 -2.6432e+000 -4.3060e+000
73 0 +1.263024298e+000 -8.501697570e+001 -8.501697570e+001 -2.5692e+000 -4.3434e+000
105 0 +1.251938295e+000 -8.502806171e+001 -8.502806171e+001 -2.5182e+000 -4.3711e+000
125 0 +9.557868534e-001 -8.532421315e+001 -8.532421315e+001 -2.6436e+000 +5.0000e+000
126 0 +3.732512117e-003 -8.627626749e+001 -8.627626749e+001 -2.3177e+000 +2.3165e+000
184 0 +8.541033366e-004 -8.627914590e+001 -8.627914590e+001 -2.3122e+000 +2.2117e+000
222 0 +3.486388856e-004 -8.627965136e+001 -8.627965136e+001 -2.3618e+000 +2.2427e+000
243 0 +3.068385098e-004 -8.627969316e+001 -8.627969316e+001 -2.3661e+000 +2.2486e+000
286 0 +1.245010549e-005 -8.627998755e+001 -8.627998755e+001 -2.4783e+000 +2.4242e+000
370 0 +1.661142676e-006 -8.627999834e+001 -8.627999834e+001 -2.4322e+000 +2.3706e+000
378 0 +5.794844071e-008 -8.627999994e+001 -8.627999994e+001 -2.4553e+000 +2.4088e+000
458 0 +5.291127536e-010 -8.628000000e+001 -8.628000000e+001 -2.4485e+000 +2.4057e+000
% f evaluations | g evaluations | best noise-free fitness - Fopt (2.224000000000e+001) + sum g_i+ | measured fitness | best measured fitness or single-digit g-values | x1 | x2...
1 0 +6.655799045e+001 +8.879799045e+001 +8.879799045e+001 +5.0000e+000 +5.0000e+000
2 0 +2.292942539e+001 +4.516942539e+001 +4.516942539e+001 -5.0000e+000 +5.0000e+000
3 0 +1.888403932e+001 +4.112403932e+001 +4.112403932e+001 +5.0000e+000 -5.0000e+000
5 0 +1.749606433e+001 +3.973606433e+001 +3.973606433e+001 +3.4115e+000 +5.0000e+000
7 0 +1.344778022e+001 +3.568778022e+001 +3.568778022e+001 -4.8931e-002 -7.8904e-001
8 0 +1.238471833e+001 +3.462471833e+001 +3.462471833e+001 -1.0337e-001 -5.9389e-001
11 0 +1.118384028e+001 +3.342384028e+001 +3.342384028e+001 -9.1059e-002 -6.3802e-001
15 0 +7.386222455e+000 +2.962622245e+001 +2.962622245e+001 +2.3000e+000 +2.0498e-001
19 0 +1.169990884e+000 +2.340999088e+001 +2.340999088e+001 +3.3086e+000 -2.1961e+000
30 0 +5.876641031e-001 +2.282766410e+001 +2.282766410e+001 +2.2464e+000 +1.2775e+000
55 0 +2.417996986e-001 +2.248179970e+001 +2.248179970e+001 +2.2892e+000 +1.2328e+000
70 0 +1.187806711e-002 +2.225187807e+001 +2.225187807e+001 +2.1262e+000 +8.9692e-001
90 0 +2.159877435e-004 +2.224021599e+001 +2.224021599e+001 +2.6741e+000 +1.2609e+000
116 0 +1.445587903e-004 +2.224014456e+001 +2.224014456e+001 +2.3995e+000 +1.0996e+000
214 0 +1.250743919e-004 +2.224012507e+001 +2.224012507e+001 +2.3992e+000 +1.0963e+000
236 0 +5.195031848e-005 +2.224005195e+001 +2.224005195e+001 +2.6293e+000 +1.2341e+000
269 0 +4.859368977e-005 +2.224004859e+001 +2.224004859e+001 +2.4200e+000 +1.1035e+000
270 0 +6.499771029e-006 +2.224000650e+001 +2.224000650e+001 +2.4608e+000 +1.1248e+000
277 0 +5.114959230e-007 +2.224000051e+001 +2.224000051e+001 +2.4911e+000 +1.1470e+000
321 0 +1.378210968e-008 +2.224000001e+001 +2.224000001e+001 +2.5316e+000 +1.1733e+000
353 0 +1.212354661e-008 +2.224000001e+001 +2.224000001e+001 +2.5308e+000 +1.1727e+000
367 0 +1.183911635e-008 +2.224000001e+001 +2.224000001e+001 +2.5162e+000 +1.1632e+000
380 0 +3.105309787e-009 +2.224000000e+001 +2.224000000e+001 +2.5215e+000 +1.1662e+000
% f evaluations | g evaluations | best noise-free fitness - Fopt (-2.301000000000e+001) + sum g_i+ | measured fitness | best measured fitness or single-digit g-values | x1 | x2...
1 0 +3.540603192e+001 +1.239603192e+001 +1.239603192e+001 +5.0000e+000 -5.0000e+000
2 0 +4.613410116e+000 -1.839658988e+001 -1.839658988e+001 -5.0000e+000 -5.0000e+000
10 0 +2.641928167e+000 -2.036807183e+001 -2.036807183e+001 -5.0000e+000 -2.4548e+000
11 0 +2.485489730e+000 -2.052451027e+001 -2.052451027e+001 -4.8901e+000 -2.4945e+000
397 0 +2.335891535e+000 -2.067410847e+001 -2.067410847e+001 -3.7145e+000 -4.0019e-001
404 0 +2.051969098e+000 -2.095803090e+001 -2.095803090e+001 -3.0026e+000 -7.7037e-001
434 0 +1.513051666e+000 -2.149694833e+001 -2.149694833e+001 -3.3542e+000 -9.2113e-001
458 0 +1.328874664e+000 -2.168112534e+001 -2.168112534e+001 -3.2676e+000 -9.8618e-001
551 0 +1.284963564e+000 -2.172503644e+001 -2.172503644e+001 -3.2492e+000 -8.9992e-001
585 0 +1.246077335e+000 -2.176392266e+001 -2.176392266e+001 -3.2035e+000 -9.8519e-001
11165 0 +2.167070053e-001 -2.279329299e+001 -2.279329299e+001 +3.6136e+000 -2.1838e+000
11223 0 +1.931118095e-001 -2.281688819e+001 -2.281688819e+001 +3.6639e+000 -2.1849e+000
11251 0 +9.955055966e-002 -2.291044944e+001 -2.291044944e+001 +3.3474e+000 -2.3430e+000
11260 0 +1.591891300e-002 -2.299408109e+001 -2.299408109e+001 +2.4316e+000 -3.0848e+000
11271 0 +5.688894558e-003 -2.300431111e+001 -2.300431111e+001 +2.5778e+000 -3.0158e+000
11287 0 +3.681577089e-003 -2.300631842e+001 -2.300631842e+001 +2.5702e+000 -2.9911e+000
11302 0 +3.622280331e-003 -2.300637772e+001 -2.300637772e+001 +2.5808e+000 -2.9864e+000
11318 0 +3.461080379e-003 -2.300653892e+001 -2.300653892e+001 +2.6066e+000 -2.9782e+000
11320 0 +3.386504065e-003 -2.300661350e+001 -2.300661350e+001 +2.6116e+000 -2.9760e+000
11349 0 +3.093770280e-003 -2.300690623e+001 -2.300690623e+001 +2.6506e+000 -2.9635e+000
11374 0 +1.063579477e-003 -2.300893642e+001 -2.300893642e+001 +2.6833e+000 -2.9347e+000
11394 0 +9.020912917e-004 -2.300909791e+001 -2.300909791e+001 +2.6653e+000 -2.9270e+000
11397 0 +1.343028822e-004 -2.300986570e+001 -2.300986570e+001 +2.9170e+000 -2.7821e+000
11434 0 +2.070107474e-005 -2.300997930e+001 -2.300997930e+001 +2.9561e+000 -2.7247e+000
11465 0 +2.188079620e-007 -2.300999978e+001 -2.300999978e+001 +2.9021e+000 -2.7591e+000
11479 0 +8.832977016e-009 -2.300999999e+001 -2.300999999e+001 +2.8755e+000 -2.7732e+000
% f evaluations | g evaluations | best noise-free fitness - Fopt (-3.323700000000e+002) + sum g_i+ | measured fitness | best measured fitness or single-digit g-values | x1 | x2...
1 0 +2.497482577e+001 -3.073951742e+002 -3.073951742e+002 -5.0000e+000 -5.0000e+000
4 0 +7.091713954e+000 -3.252782860e+002 -3.252782860e+002 +3.2432e+000 -1.4862e+000
6 0 +6.625003975e+000 -3.257449960e+002 -3.257449960e+002 -3.5641e-001 -5.0000e+000
21 0 +3.905134899e+000 -3.284648651e+002 -3.284648651e+002 +3.2432e+000 -2.6106e+000
27 0 +1.901372513e+000 -3.304686275e+002 -3.304686275e+002 +1.2833e+000 -2.5439e+000
29 0 +1.736199016e+000 -3.306338010e+002 -3.306338010e+002 +1.3401e+000 -2.5439e+000
33 0 +1.533403933e+000 -3.308365961e+002 -3.308365961e+002 +1.6926e+000 -2.5439e+000
39 0 +8.206134787e-001 -3.315493865e+002 -3.315493865e+002 +9.8360e-001 -3.2068e+000
49 0 +5.007886215e-001 -3.318692114e+002 -3.318692114e+002 +8.3612e-001 -2.8071e+000
69 0 +2.597578395e-001 -3.321102422e+002 -3.321102422e+002 +1.1851e+000 -2.8071e+000
73 0 +1.558533957e-001 -3.322141466e+002 -3.322141466e+002 +1.0762e+000 -2.8469e+000
85 0 +2.299270490e-004 -3.323697701e+002 -3.323697701e+002 +1.7476e-001 -3.3973e+000
125 0 +3.405214801e-005 -3.323699659e+002 -3.323699659e+002 +1.4558e-001 -3.3780e+000
220 0 +1.337979734e-005 -3.323699866e+002 -3.323699866e+002 +1.7014e-001 -3.3650e+000
234 0 +1.132807199e-005 -3.323699887e+002 -3.323699887e+002 +1.7818e-001 -3.3555e+000
249 0 +4.662541585e-006 -3.323699953e+002 -3.323699953e+002 +1.9080e-001 -3.3569e+000
257 0 +2.829739174e-006 -3.323699972e+002 -3.323699972e+002 +2.0083e-001 -3.3568e+000
287 0 +3.379817031e-007 -3.323699997e+002 -3.323699997e+002 +2.1916e-001 -3.3402e+000
292 0 +1.479105549e-007 -3.323699999e+002 -3.323699999e+002 +2.2497e-001 -3.3383e+000
307 0 +2.936150167e-008 -3.323700000e+002 -3.323700000e+002 +2.3880e-001 -3.3292e+000
317 0 +2.352373940e-008 -3.323700000e+002 -3.323700000e+002 +2.3423e-001 -3.3351e+000
325 0 +6.727304935e-009 -3.323700000e+002 -3.323700000e+002 +2.6029e-001 -3.3227e+000
% f evaluations | g evaluations | best noise-free fitness - Fopt (-1.231300000000e+002) + sum g_i+ | measured fitness | best measured fitness or single-digit g-values | x1 | x2...
1 0 +1.633335560e+001 -1.067966444e+002 -1.067966444e+002 -5.0000e+000 -5.0000e+000
3 0 +7.629001657e+000 -1.155009983e+002 -1.155009983e+002 -5.0000e+000 +5.0000e+000
6 0 +2.002171767e+000 -1.211278282e+002 -1.211278282e+002 -6.1249e-001 +5.0000e+000
69 0 +1.844233281e+000 -1.212857667e+002 -1.212857667e+002 +7.0033e-001 -1.5870e+000
87 0 +1.817735510e+000 -1.213122645e+002 -1.213122645e+002 +7.0732e-001 -1.5870e+000
121 0 +1.362722214e+000 -1.217672778e+002 -1.217672778e+002 +1.4619e+000 -2.9279e+000
122 0 +6.809781278e-002 -1.230619022e+002 -1.230619022e+002 +1.6342e+000 -1.4530e+000
150 0 +5.432376025e-002 -1.230756762e+002 -1.230756762e+002 +1.6967e+000 -1.4441e+000
188 0 +3.886884484e-002 -1.230911312e+002 -1.230911312e+002 +1.7493e+000 -1.4232e+000
194 0 +5.612560116e-004 -1.231294387e+002 -1.231294387e+002 +2.1125e+000 -1.2792e+000
248 0 +2.544331799e-005 -1.231299746e+002 -1.231299746e+002 +2.3740e+000 -1.1766e+000
272 0 +8.749222687e-006 -1.231299913e+002 -1.231299913e+002 +2.3946e+000 -1.1812e+000
299 0 +8.908016866e-007 -1.231299991e+002 -1.231299991e+002 +2.3566e+000 -1.1933e+000
305 0 +4.253266184e-008 -1.231300000e+002 -1.231300000e+002 +2.3241e+000 -1.2102e+000
358 0 +3.974429319e-008 -1.231300000e+002 -1.231300000e+002 +2.3277e+000 -1.2089e+000
365 0 +1.204597311e-008 -1.231300000e+002 -1.231300000e+002 +2.3184e+000 -1.2111e+000
383 0 +2.790386588e-009 -1.231300000e+002 -1.231300000e+002 +2.3262e+000 -1.2073e+000
% f evaluations | g evaluations | best noise-free fitness - Fopt (-1.537900000000e+002) + sum g_i+ | measured fitness | best measured fitness or single-digit g-values | x1 | x2...
1 0 +5.162326120e+001 -1.021667388e+002 -1.021667388e+002 -5.0000e+000 +5.0000e+000
2 0 +4.462402178e+001 -1.091659782e+002 -1.091659782e+002 +5.0000e+000 +5.0000e+000
4 0 +3.906549551e+000 -1.498834504e+002 -1.498834504e+002 +1.7199e+000 -3.2775e+000
5 0 +3.833168027e+000 -1.499568320e+002 -1.499568320e+002 +3.0761e+000 -2.9299e+000
9 0 +3.797709431e+000 -1.499922906e+002 -1.499922906e+002 +4.0949e+000 -2.4032e+000
23 0 +2.090104350e+000 -1.516998957e+002 -1.516998957e+002 +3.6836e+000 -1.7590e+000
25 0 +7.341368509e-001 -1.530558631e+002 -1.530558631e+002 +3.8128e+000 -2.0967e+000
63 0 +7.169977163e-001 -1.530730023e+002 -1.530730023e+002 +3.8022e+000 -2.1756e+000
158 0 +6.974469808e-001 -1.530925530e+002 -1.530925530e+002 +3.7690e+000 -2.2103e+000
11931 0 +9.885703873e-002 -1.536911430e+002 -1.536911430e+002 -2.1088e+000 +2.0831e+000
11942 0 +1.939058866e-002 -1.537706094e+002 -1.537706094e+002 -2.0757e+000 +2.1210e+000
11950 0 +1.620770080e-002 -1.537737923e+002 -1.537737923e+002 -2.0709e+000 +2.1247e+000
11986 0 +1.360777070e-002 -1.537763922e+002 -1.537763922e+002 -2.0649e+000 +2.1313e+000
12022 0 +9.123262932e-004 -1.537890877e+002 -1.537890877e+002 -2.0288e+000 +2.1726e+000
12028 0 +1.501153372e-004 -1.537898499e+002 -1.537898499e+002 -2.0604e+000 +2.2144e+000
12074 0 +1.125279559e-004 -1.537898875e+002 -1.537898875e+002 -2.0636e+000 +2.2245e+000
12081 0 +8.890055540e-005 -1.537899111e+002 -1.537899111e+002 -2.0732e+000 +2.2332e+000
12105 0 +7.978984610e-005 -1.537899202e+002 -1.537899202e+002 -2.0767e+000 +2.2310e+000
12108 0 +6.109098902e-005 -1.537899389e+002 -1.537899389e+002 -2.0922e+000 +2.2302e+000
12125 0 +5.716250547e-005 -1.537899428e+002 -1.537899428e+002 -2.0940e+000 +2.2310e+000
12130 0 +4.991735332e-005 -1.537899501e+002 -1.537899501e+002 -2.2501e+000 +2.2946e+000
12131 0 +4.944302788e-006 -1.537899951e+002 -1.537899951e+002 -2.2594e+000 +2.3178e+000
12134 0 +2.066626109e-006 -1.537899979e+002 -1.537899979e+002 -2.2525e+000 +2.3153e+000
12140 0 +1.335195833e-006 -1.537899987e+002 -1.537899987e+002 -2.1575e+000 +2.2721e+000
12142 0 +1.219250692e-007 -1.537899999e+002 -1.537899999e+002 -2.1800e+000 +2.2803e+000
12149 0 +3.737142151e-009 -1.537900000e+002 -1.537900000e+002 -2.2075e+000 +2.2985e+000
% f evaluations | g evaluations | best noise-free fitness - Fopt (-4.860000000000e+001) + sum g_i+ | measured fitness | best measured fitness or single-digit g-values | x1 | x2...
1 0 +1.655913326e+001 -3.204086674e+001 -3.204086674e+001 -5.0000e+000 +5.0000e+000
2 0 +9.886959671e+000 -3.871304033e+001 -3.871304033e+001 +5.0000e+000 +5.0000e+000
5 0 +7.006606883e+000 -4.159339312e+001 -4.159339312e+001 +5.0000e+000 +4.6479e+000
8 0 +3.862426098e+000 -4.473757390e+001 -4.473757390e+001 +5.0000e+000 +1.1032e+000
9 0 +3.387813625e+000 -4.521218637e+001 -4.521218637e+001 +5.0000e+000 +3.6293e+000
10 0 +2.976270367e+000 -4.562372963e+001 -4.562372963e+001 +5.0000e+000 +3.9732e+000
28 0 +2.936385208e+000 -4.566361479e+001 -4.566361479e+001 +5.0000e+000 +3.8735e+000
53 0 +1.998243385e+000 -4.660175662e+001 -4.660175662e+001 +4.7226e+000 +3.8413e+000
67 0 +1.969523261e+000 -4.663047674e+001 -4.663047674e+001 +4.6980e+000 +3.0659e+000
70 0 +1.896968130e+000 -4.670303187e+001 -4.670303187e+001 +4.6980e+000 +3.7143e+000
74 0 +1.750580811e+000 -4.684941919e+001 -4.684941919e+001 +4.6980e+000 +3.6003e+000
76 0 +1.372293355e+000 -4.722770665e+001 -4.722770665e+001 +4.4939e+000 +3.2525e+000
78 0 +1.323031443e+000 -4.727696856e+001 -4.727696856e+001 +4.4939e+000 +3.2154e+000
84 0 +1.281709134e+000 -4.731829087e+001 -4.731829087e+001 +4.5115e+000 +3.0685e+000
97 0 +1.250940710e+000 -4.734905929e+001 -4.734905929e+001 +4.5420e+000 +3.2154e+000
62925 0 +5.837385616e-002 -4.854162614e+001 -4.854162614e+001 -2.8382e+000 -1.3205e+000
62930 0 +4.492528299e-002 -4.855507472e+001 -4.855507472e+001 -2.8434e+000 -1.2886e+000
62937 0 +2.503975041e-002 -4.857496025e+001 -4.857496025e+001 -2.7784e+000 -1.2864e+000
63004 0 +1.542181211e-002 -4.858457819e+001 -4.858457819e+001 -2.6697e+000 -1.2738e+000
63030 0 +2.998355329e-003 -4.859700164e+001 -4.859700164e+001 -2.4006e+000 -1.3534e+000
63046 0 +1.656266012e-003 -4.859834373e+001 -4.859834373e+001 -2.3924e+000 -1.3618e+000
63058 0 +7.462905365e-004 -4.859925371e+001 -4.859925371e+001 -2.4270e+000 -1.3843e+000
63078 0 +6.408067492e-006 -4.859999359e+001 -4.859999359e+001 -2.2098e+000 -1.4519e+000
63088 0 +2.550884410e-006 -4.859999745e+001 -4.859999745e+001 -2.1690e+000 -1.4880e+000
63095 0 +2.048813386e-007 -4.859999980e+001 -4.859999980e+001 -2.1996e+000 -1.4749e+000
63123 0 +1.895950490e-007 -4.859999981e+001 -4.859999981e+001 -2.2007e+000 -1.4744e+000
63151 0 +8.864039813e-008 -4.859999991e+001 -4.859999991e+001 -2.2221e+000 -1.4654e+000
63158 0 +1.160844931e-008 -4.859999999e+001 -4.859999999e+001 -2.2159e+000 -1.4658e+000
63169 0 +1.490604973e-009 -4.860000000e+001 -4.860000000e+001 -2.1996e+000 -1.4702e+000
63223 0 +0.000000000e+000 -4.860000000e+001 -4.860000000e+001 -2.2062e+000 -1.4669e+000
% f evaluations | g evaluations | best noise-free fitness - Fopt (2.770000000000e+001) + sum g_i+ | measured fitness | best measured fitness or single-digit g-values | x1 | x2...
1 0 +1.236277953e+001 +4.006277953e+001 +4.006277953e+001 +5.0000e+000 +5.0000e+000
4 0 +7.415349561e+000 +3.511534956e+001 +3.511534956e+001 -4.3632e+000 +3.9455e-002
11 0 +5.552121796e-001 +2.825521218e+001 +2.825521218e+001 +5.0000e+000 -7.4975e-002
13 0 +4.969021314e-001 +2.819690213e+001 +2.819690213e+001 +5.0000e+000 -1.2116e-001
40 0 +1.430759869e-001 +2.784307599e+001 +2.784307599e+001 +4.6285e+000 -3.0156e-001
54 0 +1.235789802e-001 +2.782357898e+001 +2.782357898e+001 +4.5733e+000 -1.5643e-001
62 0 +1.075520560e-001 +2.780755206e+001 +2.780755206e+001 +4.6022e+000 -1.8949e-001
64 0 +2.743272257e-002 +2.772743272e+001 +2.772743272e+001 +4.1125e+000 -1.8184e-001
88 0 +3.780086731e-003 +2.770378009e+001 +2.770378009e+001 +3.5182e+000 -3.8092e-001
90 0 +1.009911074e-004 +2.770010099e+001 +2.770010099e+001 +3.6287e+000 -3.1835e-001
100 0 +3.202963446e-005 +2.770003203e+001 +2.770003203e+001 +3.6744e+000 -3.2491e-001
121 0 +2.686125973e-005 +2.770002686e+001 +2.770002686e+001 +3.6874e+000 -3.2490e-001
131 0 +1.784665923e-005 +2.770001785e+001 +2.770001785e+001 +3.6914e+000 -3.2068e-001
155 0 +6.167577677e-006 +2.770000617e+001 +2.770000617e+001 +3.7179e+000 -3.1844e-001
199 0 +1.842410391e-006 +2.770000184e+001 +2.770000184e+001 +3.7246e+000 -3.1464e-001
228 0 +5.287454314e-007 +2.770000053e+001 +2.770000053e+001 +3.7374e+000 -3.1071e-001
230 0 +1.629629516e-007 +2.770000016e+001 +2.770000016e+001 +3.7483e+000 -3.0852e-001
233 0 +1.285509974e-007 +2.770000013e+001 +2.770000013e+001 +3.7515e+000 -3.0672e-001
245 0 +3.118486802e-009 +2.770000000e+001 +2.770000000e+001 +3.7664e+000 -3.0693e-001
% f evaluations | g evaluations | best noise-free fitness - Fopt (2.993000000000e+001) + sum g_i+ | measured fitness | best measured fitness or single-digit g-values | x1 | x2...
1 0 +1.268942090e+001 +4.261942090e+001 +4.261942090e+001 +5.0000e+000 +5.0000e+000
2 0 +8.274522739e+000 +3.820452274e+001 +3.820452274e+001 -5.0000e+000 +5.0000e+000
5 0 +1.914681971e+000 +3.184468197e+001 +3.184468197e+001 -4.3984e+000 +4.6654e+000
19 0 +2.922165227e-001 +3.022221652e+001 +3.022221652e+001 -6.6743e-001 +1.0760e+000
30 0 +2.468685473e-002 +2.995468685e+001 +2.995468685e+001 -8.0485e-001 +1.2738e+000
39 0 +5.973402304e-005 +2.993005973e+001 +2.993005973e+001 -1.0275e+000 +1.7887e+000
142 0 +1.210521386e-006 +2.993000121e+001 +2.993000121e+001 -9.9855e-001 +1.7466e+000
255 0 +2.858996737e-007 +2.993000029e+001 +2.993000029e+001 -9.8128e-001 +1.6990e+000
257 0 +7.223295739e-009 +2.993000001e+001 +2.993000001e+001 -9.8795e-001 +1.7080e+000
% f evaluations | g evaluations | best noise-free fitness - Fopt (-1.983000000000e+001) + sum g_i+ | measured fitness | best measured fitness or single-digit g-values | x1 | x2...
1 0 +6.389596513e+001 +4.406596513e+001 +4.406596513e+001 -5.0000e+000 -5.0000e+000
2 0 +5.885420870e+001 +3.902420870e+001 +3.902420870e+001 +5.0000e+000 -5.0000e+000
3 0 +1.527775125e+001 -4.552248748e+000 -4.552248748e+000 -5.0000e+000 +5.0000e+000
5 0 +2.203677948e+000 -1.762632205e+001 -1.762632205e+001 -1.6885e+000 +5.0000e+000
12 0 +1.917711604e+000 -1.791228840e+001 -1.791228840e+001 -6.1752e-001 +1.3543e+000
22 0 +1.762069176e-002 -1.981237931e+001 -1.981237931e+001 +1.6258e-001 +1.5881e+000
79 0 +4.220874449e-005 -1.982995779e+001 -1.982995779e+001 +4.1789e-001 +1.4350e+000
152 0 +2.737667843e-005 -1.982997262e+001 -1.982997262e+001 +4.8204e-001 +1.4474e+000
259 0 +1.173631285e-005 -1.982998826e+001 -1.982998826e+001 +4.5222e-001 +1.4430e+000
263 0 +9.895535808e-006 -1.982999010e+001 -1.982999010e+001 +4.5099e-001 +1.4436e+000
265 0 +1.183818458e-006 -1.982999882e+001 -1.982999882e+001 +4.1917e-001 +1.4582e+000
272 0 +1.358837451e-007 -1.982999986e+001 -1.982999986e+001 +3.9097e-001 +1.4557e+000
293 0 +7.606671204e-008 -1.982999992e+001 -1.982999992e+001 +3.9187e-001 +1.4564e+000
294 0 +1.277957296e-009 -1.983000000e+001 -1.983000000e+001 +3.7851e-001 +1.4603e+000
386 0 +0.000000000e+000 -1.983000000e+001 -1.983000000e+001 +3.7431e-001 +1.4624e+000
