% function evaluation | noise-free fitness - Fopt (7.948000000000e+01) | best noise-free fitness - Fopt | measured fitness | best measured fitness | x1 | x2...
1 +1.282397568e+01 +1.282397568e+01 +9.230397568e+01 +9.230397568e+01 +0.0000e+00 +0.0000e+00 +0.0000e+00 +0.0000e+00 +0.0000e+00
7 +6.098039689e+00 +6.098039689e+00 +8.557803969e+01 +8.557803969e+01 -1.5809e+00 -1.9867e+00 +4.8718e-01 +2.2350e+00 -1.9848e+00
30 +3.611088219e+00 +3.611088219e+00 +8.309108822e+01 +8.309108822e+01 -1.1460e+00 -2.2738e+00 -9.3607e-01 +2.4966e+00 -2.8717e+00
31 +1.323711251e+00 +1.323711251e+00 +8.080371125e+01 +8.080371125e+01 -4.5190e-01 -1.9292e+00 -5.3538e-01 +1.6973e+00 -3.0583e+00
39 +6.648232585e-01 +6.648232585e-01 +8.014482326e+01 +8.014482326e+01 -2.9878e-01 -1.4589e+00 -3.9811e-01 +2.2963e+00 -2.5187e+00
42 +4.174848921e-01 +4.174848921e-01 +7.989748489e+01 +7.989748489e+01 +5.8987e-01 -7.7161e-01 -1.0170e+00 +2.1891e+00 -2.7064e+00
106 +1.440125173e-01 +1.440125173e-01 +7.962401252e+01 +7.962401252e+01 -3.3876e-02 -1.0851e+00 -9.3971e-01 +1.8272e+00 -2.6628e+00
114 +1.290031146e-01 +1.290031146e-01 +7.960900311e+01 +7.960900311e+01 +9.0438e-02 -1.2790e+00 -6.5436e-01 +2.1619e+00 -2.5153e+00
121 +1.201606752e-01 +1.201606752e-01 +7.960016068e+01 +7.960016068e+01 +1.9240e-01 -8.2129e-01 -6.6944e-01 +1.9224e+00 -2.6499e+00
129 +1.148975334e-01 +1.148975334e-01 +7.959489753e+01 +7.959489753e+01 +5.6731e-02 -1.0225e+00 -8.0171e-01 +2.0452e+00 -2.4852e+00
134 +1.032218724e-01 +1.032218724e-01 +7.958322187e+01 +7.958322187e+01 +3.5670e-01 -1.0936e+00 -6.7793e-01 +2.0028e+00 -2.3971e+00
145 +6.141553845e-02 +6.141553845e-02 +7.954141554e+01 +7.954141554e+01 +3.5395e-01 -1.1637e+00 -7.9730e-01 +1.9309e+00 -2.4669e+00
148 +5.326467648e-02 +5.326467648e-02 +7.953326468e+01 +7.953326468e+01 +2.1381e-01 -1.2160e+00 -6.4030e-01 +1.9333e+00 -2.4779e+00
166 +1.560645008e-02 +1.560645008e-02 +7.949560645e+01 +7.949560645e+01 +2.1707e-01 -1.1129e+00 -7.2453e-01 +1.8347e+00 -2.6176e+00
202 +8.744143770e-03 +8.744143770e-03 +7.948874414e+01 +7.948874414e+01 +1.6929e-01 -1.1447e+00 -7.0384e-01 +1.8988e+00 -2.6594e+00
204 +7.855146149e-03 +7.855146149e-03 +7.948785515e+01 +7.948785515e+01 +2.4630e-01 -1.1632e+00 -6.5964e-01 +1.9163e+00 -2.6214e+00
215 +2.281514606e-03 +2.281514606e-03 +7.948228151e+01 +7.948228151e+01 +2.4874e-01 -1.1860e+00 -7.4105e-01 +1.9506e+00 -2.7039e+00
273 +1.075731896e-03 +1.075731896e-03 +7.948107573e+01 +7.948107573e+01 +2.6822e-01 -1.1704e+00 -7.4216e-01 +1.9357e+00 -2.6962e+00
285 +7.282581686e-04 +7.282581686e-04 +7.948072826e+01 +7.948072826e+01 +2.5941e-01 -1.1776e+00 -7.2078e-01 +1.9194e+00 -2.6670e+00
309 +6.670496368e-04 +6.670496368e-04 +7.948066705e+01 +7.948066705e+01 +2.5617e-01 -1.1773e+00 -7.1785e-01 +1.9351e+00 -2.6917e+00
310 +5.173082997e-04 +5.173082997e-04 +7.948051731e+01 +7.948051731e+01 +2.3989e-01 -1.1436e+00 -7.3270e-01 +1.9236e+00 -2.6905e+00
323 +4.081183095e-04 +4.081183095e-04 +7.948040812e+01 +7.948040812e+01 +2.5717e-01 -1.1378e+00 -7.2299e-01 +1.9228e+00 -2.6845e+00
334 +2.417317966e-04 +2.417317966e-04 +7.948024173e+01 +7.948024173e+01 +2.6270e-01 -1.1532e+00 -7.3386e-01 +1.9306e+00 -2.6848e+00
355 +2.025612238e-04 +2.025612238e-04 +7.948020256e+01 +7.948020256e+01 +2.5239e-01 -1.1502e+00 -7.1931e-01 +1.9195e+00 -2.6903e+00
365 +1.023951536e-04 +1.023951536e-04 +7.948010240e+01 +7.948010240e+01 +2.4614e-01 -1.1502e+00 -7.2339e-01 +1.9228e+00 -2.6798e+00
371 +1.014229281e-04 +1.014229281e-04 +7.948010142e+01 +7.948010142e+01 +2.5527e-01 -1.1485e+00 -7.2272e-01 +1.9225e+00 -2.6777e+00
377 +1.313686344e-05 +1.313686344e-05 +7.948001314e+01 +7.948001314e+01 +2.5241e-01 -1.1541e+00 -7.2348e-01 +1.9267e+00 -2.6785e+00
427 +9.714802118e-06 +9.714802118e-06 +7.948000971e+01 +7.948000971e+01 +2.5414e-01 -1.1591e+00 -7.2284e-01 +1.9275e+00 -2.6809e+00
463 +9.310583124e-06 +9.310583124e-06 +7.948000931e+01 +7.948000931e+01 +2.5234e-01 -1.1583e+00 -7.2581e-01 +1.9248e+00 -2.6799e+00
469 +8.491291339e-06 +8.491291339e-06 +7.948000849e+01 +7.948000849e+01 +2.5122e-01 -1.1552e+00 -7.2579e-01 +1.9260e+00 -2.6809e+00
471 +7.198938192e-06 +7.198938192e-06 +7.948000720e+01 +7.948000720e+01 +2.5371e-01 -1.1565e+00 -7.2580e-01 +1.9252e+00 -2.6796e+00
483 +3.555026495e-06 +3.555026495e-06 +7.948000356e+01 +7.948000356e+01 +2.5214e-01 -1.1579e+00 -7.2283e-01 +1.9261e+00 -2.6801e+00
491 +2.469552314e-06 +2.469552314e-06 +7.948000247e+01 +7.948000247e+01 +2.5192e-01 -1.1578e+00 -7.2389e-01 +1.9256e+00 -2.6807e+00
500 +1.617124269e-06 +1.617124269e-06 +7.948000162e+01 +7.948000162e+01 +2.5179e-01 -1.1569e+00 -7.2376e-01 +1.9257e+00 -2.6807e+00
503 +1.374403396e-06 +1.374403396e-06 +7.948000137e+01 +7.948000137e+01 +2.5181e-01 -1.1571e+00 -7.2429e-01 +1.9262e+00 -2.6804e+00
516 +1.713043787e-07 +1.713043787e-07 +7.948000017e+01 +7.948000017e+01 +2.5256e-01 -1.1570e+00 -7.2401e-01 +1.9264e+00 -2.6811e+00
565 +9.280232405e-08 +9.280232405e-08 +7.948000009e+01 +7.948000009e+01 +2.5291e-01 -1.1569e+00 -7.2383e-01 +1.9263e+00 -2.6810e+00
580 +6.146677833e-08 +6.146677833e-08 +7.948000006e+01 +7.948000006e+01 +2.5286e-01 -1.1568e+00 -7.2393e-01 +1.9266e+00 -2.6807e+00
605 +1.155643758e-08 +1.155643758e-08 +7.948000001e+01 +7.948000001e+01 +2.5277e-01 -1.1568e+00 -7.2394e-01 +1.9265e+00 -2.6808e+00
655 +1.104355363e-08 +1.104355363e-08 +7.948000001e+01 +7.948000001e+01 +2.5283e-01 -1.1568e+00 -7.2401e-01 +1.9264e+00 -2.6807e+00
659 +3.132569759e-09 +3.132569759e-09 +7.948000000e+01 +7.948000000e+01 +2.5282e-01 -1.1568e+00 -7.2399e-01 +1.9264e+00 -2.6808e+00
% function evaluation | noise-free fitness - Fopt (3.944800000000e+02) | best noise-free fitness - Fopt | measured fitness | best measured fitness | x1 | x2...
1 +5.400211648e+01 +5.400211648e+01 +4.484821165e+02 +4.484821165e+02 +0.0000e+00 +0.0000e+00 +0.0000e+00 +0.0000e+00 +0.0000e+00
3 +5.270756821e+01 +5.270756821e+01 +4.471875682e+02 +4.471875682e+02 +2.0250e+00 -3.6411e+00 -6.8992e-01 +3.0693e+00 -1.7235e+00
6 +3.568194762e+01 +3.568194762e+01 +4.301619476e+02 +4.301619476e+02 -1.6902e+00 -2.4547e+00 -2.8432e-01 +2.9322e-01 -1.4189e+00
13 +2.833622126e+01 +2.833622126e+01 +4.228162213e+02 +4.228162213e+02 -5.3466e+00 -2.8860e+00 -2.2329e+00 +4.1759e-01 -2.5481e+00
19 +2.451252915e+01 +2.451252915e+01 +4.189925291e+02 +4.189925291e+02 +3.0655e-01 -4.8239e+00 -4.0249e+00 +2.1645e+00 +9.6610e-01
22 +1.513405861e+01 +1.513405861e+01 +4.096140586e+02 +4.096140586e+02 -3.2080e+00 -4.5433e+00 -1.2973e+00 +2.9706e+00 +3.0446e+00
35 +1.379130910e+01 +1.379130910e+01 +4.082713091e+02 +4.082713091e+02 -4.8337e+00 -4.2686e+00 -6.3369e-01 +3.7176e+00 +1.8293e+00
53 +1.113192023e+01 +1.113192023e+01 +4.056119202e+02 +4.056119202e+02 -1.8856e+00 -1.2648e+00 -3.4163e+00 +2.8671e+00 +2.6510e+00
73 +4.056172309e+00 +4.056172309e+00 +3.985361723e+02 +3.985361723e+02 -4.9885e+00 -3.2499e+00 -5.0709e+00 +4.3452e+00 +1.8268e+00
86 +2.050580398e+00 +2.050580398e+00 +3.965305804e+02 +3.965305804e+02 -4.1471e+00 -3.1705e+00 -4.8954e+00 +4.7313e+00 +6.7512e-01
106 +8.839104992e-01 +8.839104992e-01 +3.953639105e+02 +3.953639105e+02 -4.3551e+00 -2.5293e+00 -4.4262e+00 +4.0794e+00 +5.0474e-01
118 +3.189913522e-01 +3.189913522e-01 +3.947989914e+02 +3.947989914e+02 -3.7902e+00 -2.5512e+00 -4.1513e+00 +4.0589e+00 +6.4244e-01
148 +2.272220102e-01 +2.272220102e-01 +3.947072220e+02 +3.947072220e+02 -3.6894e+00 -3.0565e+00 -3.9270e+00 +4.2511e+00 +1.0044e+00
162 +1.378245286e-01 +1.378245286e-01 +3.946178245e+02 +3.946178245e+02 -3.7268e+00 -2.7217e+00 -3.7169e+00 +3.7806e+00 +6.2045e-01
186 +8.403317026e-02 +8.403317026e-02 +3.945640332e+02 +3.945640332e+02 -3.8911e+00 -2.6334e+00 -3.7892e+00 +3.8900e+00 +7.2685e-01
191 +7.484876384e-02 +7.484876384e-02 +3.945548488e+02 +3.945548488e+02 -3.7764e+00 -2.9427e+00 -3.9583e+00 +3.8086e+00 +7.0589e-01
201 +6.614077780e-02 +6.614077780e-02 +3.945461408e+02 +3.945461408e+02 -3.9092e+00 -3.0930e+00 -3.7398e+00 +4.0330e+00 +7.8958e-01
203 +4.289328817e-02 +4.289328817e-02 +3.945228933e+02 +3.945228933e+02 -3.7491e+00 -3.0326e+00 -3.8091e+00 +3.9205e+00 +8.4896e-01
218 +1.729493980e-02 +1.729493980e-02 +3.944972949e+02 +3.944972949e+02 -3.9566e+00 -2.8956e+00 -3.8969e+00 +3.8378e+00 +8.7824e-01
249 +3.558964845e-03 +3.558964845e-03 +3.944835590e+02 +3.944835590e+02 -3.8984e+00 -2.9382e+00 -3.8168e+00 +3.8845e+00 +8.8410e-01
305 +2.369708724e-03 +2.369708724e-03 +3.944823697e+02 +3.944823697e+02 -3.9434e+00 -2.8830e+00 -3.8159e+00 +3.8954e+00 +8.5892e-01
315 +1.620283539e-03 +1.620283539e-03 +3.944816203e+02 +3.944816203e+02 -3.8620e+00 -2.8896e+00 -3.8068e+00 +3.8895e+00 +8.5520e-01
347 +1.526807127e-03 +1.526807127e-03 +3.944815268e+02 +3.944815268e+02 -3.9151e+00 -2.8840e+00 -3.7880e+00 +3.8890e+00 +8.8608e-01
355 +7.050293622e-04 +7.050293622e-04 +3.944807050e+02 +3.944807050e+02 -3.8890e+00 -2.8725e+00 -3.8045e+00 +3.8956e+00 +8.7306e-01
375 +3.929768233e-04 +3.929768233e-04 +3.944803930e+02 +3.944803930e+02 -3.8914e+00 -2.8833e+00 -3.7903e+00 +3.8956e+00 +8.6605e-01
396 +2.112925477e-04 +2.112925477e-04 +3.944802113e+02 +3.944802113e+02 -3.9046e+00 -2.8811e+00 -3.7991e+00 +3.8969e+00 +8.5883e-01
413 +3.617948289e-05 +3.617948289e-05 +3.944800362e+02 +3.944800362e+02 -3.8980e+00 -2.8875e+00 -3.7981e+00 +3.9031e+00 +8.6088e-01
474 +3.070590162e-05 +3.070590162e-05 +3.944800307e+02 +3.944800307e+02 -3.8997e+00 -2.8910e+00 -3.7981e+00 +3.9025e+00 +8.6006e-01
475 +1.216324540e-05 +1.216324540e-05 +3.944800122e+02 +3.944800122e+02 -3.8971e+00 -2.8884e+00 -3.8017e+00 +3.9042e+00 +8.6125e-01
495 +1.017697690e-05 +1.017697690e-05 +3.944800102e+02 +3.944800102e+02 -3.9005e+00 -2.8884e+00 -3.8016e+00 +3.9046e+00 +8.5918e-01
505 +6.134621856e-06 +6.134621856e-06 +3.944800061e+02 +3.944800061e+02 -3.8996e+00 -2.8917e+00 -3.8012e+00 +3.9062e+00 +8.6028e-01
512 +3.919769028e-06 +3.919769028e-06 +3.944800039e+02 +3.944800039e+02 -3.8991e+00 -2.8906e+00 -3.8019e+00 +3.9056e+00 +8.6098e-01
519 +1.836172430e-06 +1.836172430e-06 +3.944800018e+02 +3.944800018e+02 -3.8987e+00 -2.8916e+00 -3.8021e+00 +3.9060e+00 +8.5898e-01
538 +1.091267848e-06 +1.091267848e-06 +3.944800011e+02 +3.944800011e+02 -3.8979e+00 -2.8895e+00 -3.8026e+00 +3.9058e+00 +8.5928e-01
548 +3.535469091e-07 +3.535469091e-07 +3.944800004e+02 +3.944800004e+02 -3.8981e+00 -2.8906e+00 -3.8025e+00 +3.9053e+00 +8.5888e-01
570 +3.101636139e-07 +3.101636139e-07 +3.944800003e+02 +3.944800003e+02 -3.8980e+00 -2.8906e+00 -3.8023e+00 +3.9056e+00 +8.5887e-01
594 +2.122854994e-07 +2.122854994e-07 +3.944800002e+02 +3.944800002e+02 -3.8983e+00 -2.8901e+00 -3.8021e+00 +3.9056e+00 +8.5927e-01
596 +2.046206191e-07 +2.046206191e-07 +3.944800002e+02 +3.944800002e+02 -3.8982e+00 -2.8904e+00 -3.8028e+00 +3.9056e+00 +8.5912e-01
600 +1.988244662e-07 +1.988244662e-07 +3.944800002e+02 +3.944800002e+02 -3.8983e+00 -2.8905e+00 -3.8028e+00 +3.9058e+00 +8.5918e-01
610 +1.327545647e-07 +1.327545647e-07 +3.944800001e+02 +3.944800001e+02 -3.8983e+00 -2.8906e+00 -3.8025e+00 +3.9056e+00 +8.5944e-01
625 +9.737408391e-08 +9.737408391e-08 +3.944800001e+02 +3.944800001e+02 -3.8984e+00 -2.8903e+00 -3.8024e+00 +3.9058e+00 +8.5944e-01
655 +8.487063496e-08 +8.487063496e-08 +3.944800001e+02 +3.944800001e+02 -3.8982e+00 -2.8905e+00 -3.8023e+00 +3.9055e+00 +8.5938e-01
662 +6.021758736e-08 +6.021758736e-08 +3.944800001e+02 +3.944800001e+02 -3.8985e+00 -2.8906e+00 -3.8023e+00 +3.9055e+00 +8.5914e-01
664 +4.902312867e-08 +4.902312867e-08 +3.944800000e+02 +3.944800000e+02 -3.8983e+00 -2.8904e+00 -3.8025e+00 +3.9054e+00 +8.5926e-01
670 +1.019134288e-08 +1.019134288e-08 +3.944800000e+02 +3.944800000e+02 -3.8984e+00 -2.8905e+00 -3.8024e+00 +3.9057e+00 +8.5924e-01
693 +6.129084795e-09 +6.129084795e-09 +3.944800000e+02 +3.944800000e+02 -3.8984e+00 -2.8904e+00 -3.8024e+00 +3.9056e+00 +8.5914e-01
% function evaluation | noise-free fitness - Fopt (-2.471100000000e+02) | best noise-free fitness - Fopt | measured fitness | best measured fitness | x1 | x2...
1 +3.817688832e+01 +3.817688832e+01 -2.089331117e+02 -2.089331117e+02 +0.0000e+00 +0.0000e+00 +0.0000e+00 +0.0000e+00 +0.0000e+00
6 +2.413879125e+01 +2.413879125e+01 -2.229712087e+02 -2.229712087e+02 -1.0279e+00 +3.9129e-01 -2.6166e+00 -9.1070e-01 -8.6545e-01
12 +1.332048907e+01 +1.332048907e+01 -2.337895109e+02 -2.337895109e+02 -4.4511e+00 -1.8029e+00 -1.1419e+00 -1.0630e+00 -1.7728e+00
18 +5.561670259e+00 +5.561670259e+00 -2.415483297e+02 -2.415483297e+02 -3.2548e+00 -1.5363e+00 +4.2763e-01 -2.6985e+00 -3.0453e+00
46 +4.996642816e+00 +4.996642816e+00 -2.421133572e+02 -2.421133572e+02 -3.2243e+00 -1.5664e+00 -1.4277e+00 -2.9333e+00 -2.4520e+00
47 +3.164402106e+00 +3.164402106e+00 -2.439455979e+02 -2.439455979e+02 -3.0328e+00 -7.4219e-01 -4.3266e-01 -2.5076e+00 -3.5648e+00
50 +2.928885730e+00 +2.928885730e+00 -2.441811143e+02 -2.441811143e+02 -4.2605e+00 -4.5327e-01 -9.4114e-02 -3.0218e+00 -4.3157e+00
57 +1.805658181e+00 +1.805658181e+00 -2.453043418e+02 -2.453043418e+02 -4.3798e+00 +2.4220e-01 +4.9660e-01 -3.7640e+00 -2.8757e+00
80 +8.542837579e-01 +8.542837579e-01 -2.462557162e+02 -2.462557162e+02 -3.7185e+00 -1.1913e-01 -4.6615e-01 -3.3845e+00 -3.8733e+00
87 +3.705804977e-01 +3.705804977e-01 -2.467394195e+02 -2.467394195e+02 -4.2058e+00 -8.8391e-02 -5.8541e-01 -3.8863e+00 -2.8340e+00
137 +3.175279580e-01 +3.175279580e-01 -2.467924720e+02 -2.467924720e+02 -3.9311e+00 +4.1677e-01 -5.8219e-01 -3.2323e+00 -2.9207e+00
146 +1.787587357e-01 +1.787587357e-01 -2.469312413e+02 -2.469312413e+02 -3.8728e+00 -9.6134e-02 -6.9490e-01 -3.4135e+00 -3.0186e+00
149 +8.505780105e-02 +8.505780105e-02 -2.470249422e+02 -2.470249422e+02 -3.6974e+00 +3.3227e-01 -6.1795e-01 -3.8945e+00 -2.9920e+00
165 +7.116484381e-02 +7.116484381e-02 -2.470388352e+02 -2.470388352e+02 -3.7616e+00 +2.8832e-01 -5.5156e-01 -3.8958e+00 -3.1342e+00
171 +5.262533406e-02 +5.262533406e-02 -2.470573747e+02 -2.470573747e+02 -3.7317e+00 +5.2014e-02 -6.1563e-01 -3.8305e+00 -3.1139e+00
175 +2.743893474e-02 +2.743893474e-02 -2.470825611e+02 -2.470825611e+02 -3.8701e+00 +1.9683e-01 -7.3866e-01 -3.6197e+00 -3.2212e+00
177 +2.383204177e-02 +2.383204177e-02 -2.470861680e+02 -2.470861680e+02 -3.8375e+00 +2.3447e-01 -5.6606e-01 -3.6335e+00 -3.1476e+00
207 +5.164952742e-03 +5.164952742e-03 -2.471048350e+02 -2.471048350e+02 -3.7809e+00 +1.8771e-01 -6.7700e-01 -3.6496e+00 -3.0474e+00
257 +4.856054292e-03 +4.856054292e-03 -2.471051439e+02 -2.471051439e+02 -3.7424e+00 +2.1394e-01 -6.7344e-01 -3.6947e+00 -3.1349e+00
258 +3.472126141e-03 +3.472126141e-03 -2.471065279e+02 -2.471065279e+02 -3.7643e+00 +2.1389e-01 -6.9929e-01 -3.6959e+00 -3.0533e+00
265 +1.918521355e-03 +1.918521355e-03 -2.471080815e+02 -2.471080815e+02 -3.7596e+00 +2.2308e-01 -6.9228e-01 -3.6948e+00 -3.0995e+00
276 +1.463632978e-03 +1.463632978e-03 -2.471085364e+02 -2.471085364e+02 -3.7843e+00 +2.2968e-01 -6.7358e-01 -3.6754e+00 -3.1009e+00
279 +7.463150046e-04 +7.463150046e-04 -2.471092537e+02 -2.471092537e+02 -3.8087e+00 +2.2482e-01 -7.0148e-01 -3.6831e+00 -3.1009e+00
292 +6.546563612e-04 +6.546563612e-04 -2.471093453e+02 -2.471093453e+02 -3.8027e+00 +2.0962e-01 -6.8337e-01 -3.6686e+00 -3.1037e+00
313 +5.588558183e-04 +5.588558183e-04 -2.471094411e+02 -2.471094411e+02 -3.8049e+00 +2.2578e-01 -6.8929e-01 -3.6914e+00 -3.1009e+00
335 +2.103675214e-04 +2.103675214e-04 -2.471097896e+02 -2.471097896e+02 -3.7938e+00 +2.1131e-01 -6.8588e-01 -3.6853e+00 -3.1069e+00
357 +8.211739546e-05 +8.211739546e-05 -2.471099179e+02 -2.471099179e+02 -3.7954e+00 +2.0502e-01 -6.9809e-01 -3.6914e+00 -3.0945e+00
375 +2.522032256e-05 +2.522032256e-05 -2.471099748e+02 -2.471099748e+02 -3.7984e+00 +2.0674e-01 -6.9280e-01 -3.6899e+00 -3.0963e+00
419 +8.453617028e-06 +8.453617028e-06 -2.471099915e+02 -2.471099915e+02 -3.7988e+00 +2.0483e-01 -6.9192e-01 -3.6935e+00 -3.0994e+00
439 +2.966822024e-06 +2.966822024e-06 -2.471099970e+02 -2.471099970e+02 -3.7991e+00 +2.0397e-01 -6.9152e-01 -3.6905e+00 -3.1004e+00
476 +3.373519348e-07 +3.373519348e-07 -2.471099997e+02 -2.471099997e+02 -3.7984e+00 +2.0291e-01 -6.9073e-01 -3.6914e+00 -3.0992e+00
558 +1.270524024e-07 +1.270524024e-07 -2.471099999e+02 -2.471099999e+02 -3.7986e+00 +2.0336e-01 -6.9128e-01 -3.6911e+00 -3.0994e+00
563 +7.225455079e-08 +7.225455079e-08 -2.471099999e+02 -2.471099999e+02 -3.7984e+00 +2.0326e-01 -6.9124e-01 -3.6914e+00 -3.0993e+00
569 +2.205703709e-08 +2.205703709e-08 -2.471100000e+02 -2.471100000e+02 -3.7984e+00 +2.0310e-01 -6.9128e-01 -3.6912e+00 -3.0993e+00
626 +2.019672252e-08 +2.019672252e-08 -2.471100000e+02 -2.471100000e+02 -3.7985e+00 +2.0328e-01 -6.9114e-01 -3.6912e+00 -3.0992e+00
636 +1.762029456e-08 +1.762029456e-08 -2.471100000e+02 -2.471100000e+02 -3.7984e+00 +2.0317e-01 -6.9130e-01 -3.6912e+00 -3.0993e+00
658 +1.580906428e-08 +1.580906428e-08 -2.471100000e+02 -2.471100000e+02 -3.7983e+00 +2.0312e-01 -6.9125e-01 -3.6912e+00 -3.0992e+00
700 +2.521943543e-09 +2.521943543e-09 -2.471100000e+02 -2.471100000e+02 -3.7984e+00 +2.0321e-01 -6.9116e-01 -3.6912e+00 -3.0992e+00
% function evaluation | noise-free fitness - Fopt (-1.520400000000e+02) | best noise-free fitness - Fopt | measured fitness | best measured fitness | x1 | x2...
1 +3.422464576e+01 +3.422464576e+01 -1.178153542e+02 -1.178153542e+02 +0.0000e+00 +0.0000e+00 +0.0000e+00 +0.0000e+00 +0.0000e+00
7 +1.184437741e+01 +1.184437741e+01 -1.401956226e+02 -1.401956226e+02 +1.8069e-01 +5.7628e-01 -9.6914e-01 +1.8279e+00 +2.5967e+00
11 +5.822805919e+00 +5.822805919e+00 -1.462171941e+02 -1.462171941e+02 -4.4911e-01 +8.9986e-02 -2.3697e+00 +2.0467e+00 +2.2486e+00
26 +5.481222433e+00 +5.481222433e+00 -1.465587776e+02 -1.465587776e+02 +3.3338e-01 +4.4073e-01 -2.1991e+00 +3.0451e+00 +1.3645e+00
31 +5.249961979e+00 +5.249961979e+00 -1.467900380e+02 -1.467900380e+02 +1.8134e+00 +1.2714e+00 -4.3717e+00 +2.4668e+00 +2.5147e+00
43 +4.784179855e+00 +4.784179855e+00 -1.472558201e+02 -1.472558201e+02 +6.9937e-01 +6.6703e-02 -2.5880e+00 +3.2099e+00 +2.8809e+00
76 +4.290011676e+00 +4.290011676e+00 -1.477499883e+02 -1.477499883e+02 -5.4514e-01 -2.0682e-01 -3.5638e+00 +3.8983e+00 +3.4493e+00
77 +8.769197216e-01 +8.769197216e-01 -1.511630803e+02 -1.511630803e+02 -2.2359e-01 +4.9972e-01 -3.8718e+00 +3.1648e+00 +2.4410e+00
87 +5.582115741e-01 +5.582115741e-01 -1.514817884e+02 -1.514817884e+02 -3.7923e-01 +1.1064e+00 -3.9217e+00 +3.9369e+00 +2.2320e+00
97 +3.722988611e-01 +3.722988611e-01 -1.516677011e+02 -1.516677011e+02 -4.9942e-01 +1.6006e+00 -3.6134e+00 +3.7150e+00 +2.5432e+00
146 +2.256733351e-01 +2.256733351e-01 -1.518143267e+02 -1.518143267e+02 -5.6533e-02 +1.4605e+00 -3.6528e+00 +3.3106e+00 +2.0940e+00
160 +1.454017081e-01 +1.454017081e-01 -1.518945983e+02 -1.518945983e+02 -1.0588e-01 +1.2863e+00 -3.6491e+00 +3.3444e+00 +2.5679e+00
186 +8.789237507e-02 +8.789237507e-02 -1.519521076e+02 -1.519521076e+02 -3.5273e-01 +1.2448e+00 -4.0802e+00 +3.1837e+00 +2.5265e+00
191 +7.548663021e-02 +7.548663021e-02 -1.519645134e+02 -1.519645134e+02 -3.2037e-01 +1.5447e+00 -3.9384e+00 +3.3094e+00 +2.1789e+00
225 +2.988728419e-02 +2.988728419e-02 -1.520101127e+02 -1.520101127e+02 -1.6844e-01 +1.4753e+00 -4.0439e+00 +3.2392e+00 +2.4155e+00
246 +8.026166496e-03 +8.026166496e-03 -1.520319738e+02 -1.520319738e+02 -2.6067e-01 +1.3810e+00 -3.9806e+00 +3.2447e+00 +2.4020e+00
267 +6.915032802e-03 +6.915032802e-03 -1.520330850e+02 -1.520330850e+02 -2.0933e-01 +1.3814e+00 -3.9317e+00 +3.2831e+00 +2.4582e+00
271 +2.869082886e-03 +2.869082886e-03 -1.520371309e+02 -1.520371309e+02 -2.8958e-01 +1.3935e+00 -3.9123e+00 +3.3214e+00 +2.4451e+00
282 +1.656276654e-03 +1.656276654e-03 -1.520383437e+02 -1.520383437e+02 -2.8728e-01 +1.4135e+00 -3.9568e+00 +3.3038e+00 +2.4106e+00
309 +1.160012386e-03 +1.160012386e-03 -1.520388400e+02 -1.520388400e+02 -2.6835e-01 +1.4279e+00 -3.9358e+00 +3.2991e+00 +2.4511e+00
319 +1.078671111e-03 +1.078671111e-03 -1.520389213e+02 -1.520389213e+02 -2.7473e-01 +1.4381e+00 -3.9132e+00 +3.2817e+00 +2.4407e+00
339 +9.860915012e-04 +9.860915012e-04 -1.520390139e+02 -1.520390139e+02 -2.7390e-01 +1.4278e+00 -3.9104e+00 +3.2705e+00 +2.4141e+00
356 +1.769259845e-04 +1.769259845e-04 -1.520398231e+02 -1.520398231e+02 -2.6770e-01 +1.4189e+00 -3.9251e+00 +3.2853e+00 +2.4233e+00
376 +1.617608516e-04 +1.617608516e-04 -1.520398382e+02 -1.520398382e+02 -2.6231e-01 +1.4259e+00 -3.9285e+00 +3.2892e+00 +2.4271e+00
386 +1.565783442e-04 +1.565783442e-04 -1.520398434e+02 -1.520398434e+02 -2.6275e-01 +1.4200e+00 -3.9280e+00 +3.2884e+00 +2.4129e+00
388 +9.289523172e-05 +9.289523172e-05 -1.520399071e+02 -1.520399071e+02 -2.6278e-01 +1.4272e+00 -3.9207e+00 +3.2960e+00 +2.4259e+00
410 +5.481081618e-05 +5.481081618e-05 -1.520399452e+02 -1.520399452e+02 -2.6084e-01 +1.4247e+00 -3.9271e+00 +3.2939e+00 +2.4185e+00
423 +4.504458931e-05 +4.504458931e-05 -1.520399550e+02 -1.520399550e+02 -2.7007e-01 +1.4287e+00 -3.9278e+00 +3.2972e+00 +2.4170e+00
424 +2.917575412e-05 +2.917575412e-05 -1.520399708e+02 -1.520399708e+02 -2.6537e-01 +1.4248e+00 -3.9285e+00 +3.2964e+00 +2.4158e+00
461 +1.653243501e-05 +1.653243501e-05 -1.520399835e+02 -1.520399835e+02 -2.6634e-01 +1.4248e+00 -3.9217e+00 +3.2958e+00 +2.4170e+00
465 +5.857667901e-06 +5.857667901e-06 -1.520399941e+02 -1.520399941e+02 -2.6628e-01 +1.4225e+00 -3.9236e+00 +3.2965e+00 +2.4181e+00
471 +5.506573473e-06 +5.506573473e-06 -1.520399945e+02 -1.520399945e+02 -2.6742e-01 +1.4227e+00 -3.9237e+00 +3.2966e+00 +2.4176e+00
475 +5.136659723e-06 +5.136659723e-06 -1.520399949e+02 -1.520399949e+02 -2.6612e-01 +1.4246e+00 -3.9262e+00 +3.2957e+00 +2.4199e+00
485 +3.129613305e-06 +3.129613305e-06 -1.520399969e+02 -1.520399969e+02 -2.6644e-01 +1.4243e+00 -3.9238e+00 +3.2956e+00 +2.4192e+00
487 +1.790151231e-06 +1.790151231e-06 -1.520399982e+02 -1.520399982e+02 -2.6628e-01 +1.4238e+00 -3.9255e+00 +3.2975e+00 +2.4191e+00
508 +1.350265649e-06 +1.350265649e-06 -1.520399986e+02 -1.520399986e+02 -2.6769e-01 +1.4230e+00 -3.9248e+00 +3.2966e+00 +2.4193e+00
536 +7.793682357e-07 +7.793682357e-07 -1.520399992e+02 -1.520399992e+02 -2.6787e-01 +1.4240e+00 -3.9244e+00 +3.2964e+00 +2.4194e+00
559 +7.134975135e-07 +7.134975135e-07 -1.520399993e+02 -1.520399993e+02 -2.6673e-01 +1.4237e+00 -3.9252e+00 +3.2964e+00 +2.4194e+00
562 +3.422641157e-07 +3.422641157e-07 -1.520399997e+02 -1.520399997e+02 -2.6721e-01 +1.4241e+00 -3.9248e+00 +3.2963e+00 +2.4195e+00
564 +1.065469633e-07 +1.065469633e-07 -1.520399999e+02 -1.520399999e+02 -2.6739e-01 +1.4238e+00 -3.9248e+00 +3.2969e+00 +2.4193e+00
597 +5.086928923e-08 +5.086928923e-08 -1.520399999e+02 -1.520399999e+02 -2.6723e-01 +1.4239e+00 -3.9249e+00 +3.2968e+00 +2.4194e+00
630 +2.759426820e-08 +2.759426820e-08 -1.520400000e+02 -1.520400000e+02 -2.6728e-01 +1.4240e+00 -3.9248e+00 +3.2967e+00 +2.4193e+00
657 +2.651938757e-08 +2.651938757e-08 -1.520400000e+02 -1.520400000e+02 -2.6727e-01 +1.4240e+00 -3.9247e+00 +3.2969e+00 +2.4193e+00
658 +2.520900466e-08 +2.520900466e-08 -1.520400000e+02 -1.520400000e+02 -2.6720e-01 +1.4240e+00 -3.9247e+00 +3.2967e+00 +2.4193e+00
659 +8.889713854e-09 +8.889713854e-09 -1.520400000e+02 -1.520400000e+02 -2.6726e-01 +1.4240e+00 -3.9248e+00 +3.2968e+00 +2.4193e+00
% function evaluation | noise-free fitness - Fopt (-2.525000000000e+01) | best noise-free fitness - Fopt | measured fitness | best measured fitness | x1 | x2...
1 +3.099175104e+01 +3.099175104e+01 +5.741751040e+00 +5.741751040e+00 +0.0000e+00 +0.0000e+00 +0.0000e+00 +0.0000e+00 +0.0000e+00
2 +2.714437615e+01 +2.714437615e+01 +1.894376148e+00 +1.894376148e+00 +2.5092e-01 +2.1833e+00 -2.9701e+00 +7.5725e-01 +1.6941e+00
7 +2.205131736e+01 +2.205131736e+01 -3.198682639e+00 -3.198682639e+00 +3.7923e+00 +1.1938e+00 +2.5733e+00 -1.5062e+00 +9.8804e-01
12 +1.790843902e+01 +1.790843902e+01 -7.341560982e+00 -7.341560982e+00 +9.2859e-01 +1.1892e+00 -2.7899e-01 -4.9988e+00 +4.2881e+00
17 +1.024546786e+01 +1.024546786e+01 -1.500453214e+01 -1.500453214e+01 +2.7499e+00 +2.6670e+00 -2.2055e+00 -6.4985e-01 +1.7167e+00
32 +7.956779122e+00 +7.956779122e+00 -1.729322088e+01 -1.729322088e+01 +3.9129e+00 +1.5089e+00 +5.3553e-01 -2.8939e+00 +1.6461e+00
38 +4.207044484e+00 +4.207044484e+00 -2.104295552e+01 -2.104295552e+01 +3.1872e+00 +2.5558e-01 +4.1266e-01 -2.8486e+00 +3.4752e+00
57 +3.512310609e+00 +3.512310609e+00 -2.173768939e+01 -2.173768939e+01 +2.8383e+00 +1.5483e-01 -1.5994e+00 -3.7408e+00 +3.6517e+00
59 +1.811340158e+00 +1.811340158e+00 -2.343865984e+01 -2.343865984e+01 +2.5182e+00 +8.2959e-02 -1.0990e+00 -2.2274e+00 +2.8551e+00
70 +3.557378324e-01 +3.557378324e-01 -2.489426217e+01 -2.489426217e+01 +3.1539e+00 +9.2784e-01 -1.5506e+00 -2.1370e+00 +3.0939e+00
108 +3.413545584e-01 +3.413545584e-01 -2.490864544e+01 -2.490864544e+01 +3.6506e+00 +7.4001e-01 -1.3239e+00 -2.1389e+00 +3.8619e+00
126 +1.129818504e-01 +1.129818504e-01 -2.513701815e+01 -2.513701815e+01 +3.7307e+00 +8.5460e-01 -1.4031e+00 -2.3784e+00 +3.2891e+00
148 +3.888608073e-02 +3.888608073e-02 -2.521111392e+01 -2.521111392e+01 +3.6888e+00 +7.1593e-01 -1.3166e+00 -2.2587e+00 +3.3645e+00
175 +2.345187138e-02 +2.345187138e-02 -2.522654813e+01 -2.522654813e+01 +3.5910e+00 +6.6373e-01 -1.4661e+00 -2.2856e+00 +3.3466e+00
191 +2.036582954e-02 +2.036582954e-02 -2.522963417e+01 -2.522963417e+01 +3.6506e+00 +5.9537e-01 -1.4218e+00 -2.2627e+00 +3.2233e+00
214 +1.530488970e-02 +1.530488970e-02 -2.523469511e+01 -2.523469511e+01 +3.5341e+00 +5.7657e-01 -1.3560e+00 -2.1196e+00 +3.2942e+00
219 +1.014963145e-02 +1.014963145e-02 -2.523985037e+01 -2.523985037e+01 +3.5708e+00 +6.4737e-01 -1.4829e+00 -2.1665e+00 +3.2323e+00
235 +5.079667446e-03 +5.079667446e-03 -2.524492033e+01 -2.524492033e+01 +3.5586e+00 +6.3714e-01 -1.3967e+00 -2.1162e+00 +3.2989e+00
245 +3.263255523e-03 +3.263255523e-03 -2.524673674e+01 -2.524673674e+01 +3.6321e+00 +6.3626e-01 -1.4696e+00 -2.1522e+00 +3.3223e+00
266 +1.057617618e-03 +1.057617618e-03 -2.524894238e+01 -2.524894238e+01 +3.6253e+00 +6.3125e-01 -1.4132e+00 -2.1647e+00 +3.3235e+00
278 +1.044593056e-03 +1.044593056e-03 -2.524895541e+01 -2.524895541e+01 +3.6141e+00 +6.4737e-01 -1.4213e+00 -2.1570e+00 +3.3264e+00
304 +6.899039531e-04 +6.899039531e-04 -2.524931010e+01 -2.524931010e+01 +3.6095e+00 +6.1416e-01 -1.4277e+00 -2.1648e+00 +3.3032e+00
312 +3.872200613e-04 +3.872200613e-04 -2.524961278e+01 -2.524961278e+01 +3.6099e+00 +6.4136e-01 -1.4396e+00 -2.1527e+00 +3.2991e+00
319 +2.136064502e-04 +2.136064502e-04 -2.524978639e+01 -2.524978639e+01 +3.6233e+00 +6.2857e-01 -1.4188e+00 -2.1562e+00 +3.3052e+00
351 +7.275235150e-05 +7.275235150e-05 -2.524992725e+01 -2.524992725e+01 +3.6078e+00 +6.3200e-01 -1.4253e+00 -2.1542e+00 +3.2985e+00
375 +2.318326846e-05 +2.318326846e-05 -2.524997682e+01 -2.524997682e+01 +3.6121e+00 +6.3212e-01 -1.4196e+00 -2.1519e+00 +3.2987e+00
407 +1.255440785e-05 +1.255440785e-05 -2.524998745e+01 -2.524998745e+01 +3.6130e+00 +6.3345e-01 -1.4219e+00 -2.1506e+00 +3.2984e+00
410 +6.107638168e-06 +6.107638168e-06 -2.524999389e+01 -2.524999389e+01 +3.6146e+00 +6.3380e-01 -1.4210e+00 -2.1517e+00 +3.2952e+00
446 +5.995984370e-06 +5.995984370e-06 -2.524999400e+01 -2.524999400e+01 +3.6159e+00 +6.3604e-01 -1.4212e+00 -2.1544e+00 +3.2963e+00
448 +2.993732988e-06 +2.993732988e-06 -2.524999701e+01 -2.524999701e+01 +3.6137e+00 +6.3613e-01 -1.4226e+00 -2.1524e+00 +3.2974e+00
471 +2.585741697e-06 +2.585741697e-06 -2.524999741e+01 -2.524999741e+01 +3.6137e+00 +6.3477e-01 -1.4217e+00 -2.1527e+00 +3.2954e+00
488 +1.551196540e-06 +1.551196540e-06 -2.524999845e+01 -2.524999845e+01 +3.6143e+00 +6.3439e-01 -1.4219e+00 -2.1524e+00 +3.2960e+00
499 +5.206850666e-07 +5.206850666e-07 -2.524999948e+01 -2.524999948e+01 +3.6142e+00 +6.3484e-01 -1.4215e+00 -2.1523e+00 +3.2964e+00
523 +1.208734801e-07 +1.208734801e-07 -2.524999988e+01 -2.524999988e+01 +3.6144e+00 +6.3517e-01 -1.4219e+00 -2.1526e+00 +3.2967e+00
603 +8.828026310e-08 +8.828026310e-08 -2.524999991e+01 -2.524999991e+01 +3.6142e+00 +6.3535e-01 -1.4217e+00 -2.1529e+00 +3.2968e+00
619 +7.500624477e-08 +7.500624477e-08 -2.524999992e+01 -2.524999992e+01 +3.6143e+00 +6.3516e-01 -1.4218e+00 -2.1526e+00 +3.2969e+00
622 +6.085124227e-08 +6.085124227e-08 -2.524999994e+01 -2.524999994e+01 +3.6142e+00 +6.3526e-01 -1.4215e+00 -2.1529e+00 +3.2967e+00
631 +3.895124578e-08 +3.895124578e-08 -2.524999996e+01 -2.524999996e+01 +3.6142e+00 +6.3524e-01 -1.4216e+00 -2.1528e+00 +3.2969e+00
645 +3.673951809e-08 +3.673951809e-08 -2.524999996e+01 -2.524999996e+01 +3.6144e+00 +6.3528e-01 -1.4214e+00 -2.1528e+00 +3.2968e+00
665 +2.467412585e-08 +2.467412585e-08 -2.524999998e+01 -2.524999998e+01 +3.6144e+00 +6.3521e-01 -1.4215e+00 -2.1527e+00 +3.2967e+00
667 +3.517918401e-09 +3.517918401e-09 -2.525000000e+01 -2.525000000e+01 +3.6143e+00 +6.3520e-01 -1.4216e+00 -2.1528e+00 +3.2968e+00
% function evaluation | noise-free fitness - Fopt (8.790000000000e+01) | best noise-free fitness - Fopt | measured fitness | best measured fitness | x1 | x2...
1 +1.576494400e+01 +1.576494400e+01 +1.036649440e+02 +1.036649440e+02 +0.0000e+00 +0.0000e+00 +0.0000e+00 +0.0000e+00 +0.0000e+00
2 +1.377594605e+01 +1.377594605e+01 +1.016759461e+02 +1.016759461e+02 +1.1879e-01 -1.6294e+00 +1.9290e+00 +9.5511e-01 -1.2164e+00
10 +1.277503764e+01 +1.277503764e+01 +1.006750376e+02 +1.006750376e+02 -2.7353e+00 +1.6374e+00 +1.2522e+00 +2.1945e+00 -1.8836e+00
14 +9.669331340e+00 +9.669331340e+00 +9.756933134e+01 +9.756933134e+01 -2.9834e+00 -1.3362e+00 +3.2221e+00 +1.4853e+00 -2.0037e+00
41 +8.783510401e+00 +8.783510401e+00 +9.668351040e+01 +9.668351040e+01 -2.6986e+00 -4.1479e+00 +1.1136e+00 +2.2958e+00 -1.7812e+00
47 +6.543438537e+00 +6.543438537e+00 +9.444343854e+01 +9.444343854e+01 -1.5534e+00 -3.1051e+00 +6.9230e-01 +2.5745e+00 -7.6252e-01
61 +5.610763386e+00 +5.610763386e+00 +9.351076339e+01 +9.351076339e+01 -1.6333e+00 -1.8585e+00 +3.2893e-01 +6.5997e-01 +5.3844e-01
64 +4.519100826e+00 +4.519100826e+00 +9.241910083e+01 +9.241910083e+01 -2.1844e+00 -2.7891e+00 +1.4315e+00 +1.4786e+00 -2.1369e-01
75 +3.893804602e+00 +3.893804602e+00 +9.179380460e+01 +9.179380460e+01 -3.1917e+00 -4.5324e-01 +8.2591e-01 +2.6337e+00 -1.7051e-01
76 +2.227915935e+00 +2.227915935e+00 +9.012791593e+01 +9.012791593e+01 -2.7357e+00 -1.3472e+00 +3.6710e-01 +2.6263e+00 -1.7910e+00
78 +1.336949749e+00 +1.336949749e+00 +8.923694975e+01 +8.923694975e+01 -3.5049e+00 -1.3502e+00 +1.0914e+00 +2.0577e+00 -1.3615e+00
80 +1.237614631e+00 +1.237614631e+00 +8.913761463e+01 +8.913761463e+01 -2.4103e+00 -1.7765e+00 +5.3913e-01 +1.3443e+00 -1.8200e+00
84 +5.482697923e-01 +5.482697923e-01 +8.844826979e+01 +8.844826979e+01 -3.1459e+00 -2.2662e+00 +5.1322e-01 +1.3795e+00 -9.3576e-01
115 +4.906679809e-01 +4.906679809e-01 +8.839066798e+01 +8.839066798e+01 -2.8382e+00 -1.6323e+00 +9.9133e-02 +9.3367e-01 -1.4240e+00
136 +2.677896287e-01 +2.677896287e-01 +8.816778963e+01 +8.816778963e+01 -2.9178e+00 -1.3805e+00 +5.3788e-01 +1.3353e+00 -1.3733e+00
160 +1.761816618e-01 +1.761816618e-01 +8.807618166e+01 +8.807618166e+01 -3.3448e+00 -1.5939e+00 +5.3780e-01 +1.6433e+00 -1.2201e+00
168 +1.515507466e-01 +1.515507466e-01 +8.805155075e+01 +8.805155075e+01 -3.2899e+00 -1.5904e+00 +1.3644e-01 +1.7114e+00 -1.2510e+00
170 +1.053374528e-01 +1.053374528e-01 +8.800533745e+01 +8.800533745e+01 -3.2302e+00 -1.3870e+00 +1.8076e-01 +1.5593e+00 -1.2621e+00
194 +8.794797865e-02 +8.794797865e-02 +8.798794798e+01 +8.798794798e+01 -3.1141e+00 -1.5972e+00 +2.0819e-01 +1.4075e+00 -7.9287e-01
213 +4.919260785e-02 +4.919260785e-02 +8.794919261e+01 +8.794919261e+01 -3.3392e+00 -1.4996e+00 +1.7584e-01 +1.3562e+00 -1.0899e+00
223 +4.508545449e-02 +4.508545449e-02 +8.794508545e+01 +8.794508545e+01 -3.2939e+00 -1.5471e+00 +4.0066e-01 +1.4321e+00 -1.1791e+00
237 +3.381561529e-02 +3.381561529e-02 +8.793381562e+01 +8.793381562e+01 -3.3158e+00 -1.5010e+00 +3.0019e-01 +1.3513e+00 -1.0771e+00
247 +2.646632691e-02 +2.646632691e-02 +8.792646633e+01 +8.792646633e+01 -3.1004e+00 -1.6078e+00 +2.5861e-01 +1.5396e+00 -1.0025e+00
250 +2.452221161e-02 +2.452221161e-02 +8.792452221e+01 +8.792452221e+01 -3.1901e+00 -1.5345e+00 +3.7697e-01 +1.4385e+00 -9.7896e-01
260 +1.385241553e-02 +1.385241553e-02 +8.791385242e+01 +8.791385242e+01 -3.2652e+00 -1.5566e+00 +3.0564e-01 +1.4316e+00 -1.0343e+00
280 +1.248021665e-02 +1.248021665e-02 +8.791248022e+01 +8.791248022e+01 -3.1835e+00 -1.5346e+00 +3.1032e-01 +1.3420e+00 -1.0222e+00
283 +1.071590570e-02 +1.071590570e-02 +8.791071591e+01 +8.791071591e+01 -3.2121e+00 -1.5988e+00 +2.4641e-01 +1.3421e+00 -1.0271e+00
288 +9.954769007e-03 +9.954769007e-03 +8.790995477e+01 +8.790995477e+01 -3.2575e+00 -1.5638e+00 +2.9546e-01 +1.4404e+00 -1.0768e+00
292 +5.933905556e-03 +5.933905556e-03 +8.790593391e+01 +8.790593391e+01 -3.1987e+00 -1.6071e+00 +2.8589e-01 +1.3537e+00 -1.0587e+00
308 +4.700650846e-03 +4.700650846e-03 +8.790470065e+01 +8.790470065e+01 -3.1727e+00 -1.6017e+00 +3.2719e-01 +1.4448e+00 -1.0895e+00
322 +3.053426100e-03 +3.053426100e-03 +8.790305343e+01 +8.790305343e+01 -3.1970e+00 -1.6117e+00 +2.8480e-01 +1.4468e+00 -1.0753e+00
331 +2.765828403e-03 +2.765828403e-03 +8.790276583e+01 +8.790276583e+01 -3.1596e+00 -1.5818e+00 +3.0083e-01 +1.4528e+00 -1.0954e+00
336 +1.124957715e-03 +1.124957715e-03 +8.790112496e+01 +8.790112496e+01 -3.1838e+00 -1.5909e+00 +2.8774e-01 +1.4257e+00 -1.0597e+00
354 +8.408355704e-04 +8.408355704e-04 +8.790084084e+01 +8.790084084e+01 -3.1497e+00 -1.5906e+00 +2.8017e-01 +1.4167e+00 -1.0578e+00
380 +6.431496952e-04 +6.431496952e-04 +8.790064315e+01 +8.790064315e+01 -3.1731e+00 -1.5766e+00 +2.6506e-01 +1.3921e+00 -1.0840e+00
395 +4.990419199e-04 +4.990419199e-04 +8.790049904e+01 +8.790049904e+01 -3.1690e+00 -1.5886e+00 +2.6155e-01 +1.3981e+00 -1.0671e+00
408 +3.094237128e-04 +3.094237128e-04 +8.790030942e+01 +8.790030942e+01 -3.1675e+00 -1.5799e+00 +2.5886e-01 +1.4113e+00 -1.0902e+00
410 +2.946133125e-04 +2.946133125e-04 +8.790029461e+01 +8.790029461e+01 -3.1630e+00 -1.5750e+00 +2.7951e-01 +1.4024e+00 -1.0770e+00
414 +2.652218711e-04 +2.652218711e-04 +8.790026522e+01 +8.790026522e+01 -3.1681e+00 -1.5797e+00 +2.6142e-01 +1.4014e+00 -1.0800e+00
416 +2.497935363e-04 +2.497935363e-04 +8.790024979e+01 +8.790024979e+01 -3.1555e+00 -1.5760e+00 +2.6903e-01 +1.4176e+00 -1.0864e+00
420 +2.201111080e-04 +2.201111080e-04 +8.790022011e+01 +8.790022011e+01 -3.1620e+00 -1.5867e+00 +2.7919e-01 +1.4180e+00 -1.0872e+00
424 +1.324047396e-04 +1.324047396e-04 +8.790013240e+01 +8.790013240e+01 -3.1680e+00 -1.5808e+00 +2.7156e-01 +1.4033e+00 -1.0792e+00
434 +4.058960465e-05 +4.058960465e-05 +8.790004059e+01 +8.790004059e+01 -3.1649e+00 -1.5836e+00 +2.6558e-01 +1.4178e+00 -1.0791e+00
443 +2.812056427e-05 +2.812056427e-05 +8.790002812e+01 +8.790002812e+01 -3.1673e+00 -1.5848e+00 +2.7092e-01 +1.4113e+00 -1.0810e+00
464 +2.192690272e-05 +2.192690272e-05 +8.790002193e+01 +8.790002193e+01 -3.1668e+00 -1.5807e+00 +2.6869e-01 +1.4117e+00 -1.0806e+00
475 +1.272432586e-05 +1.272432586e-05 +8.790001272e+01 +8.790001272e+01 -3.1689e+00 -1.5818e+00 +2.7053e-01 +1.4120e+00 -1.0781e+00
479 +1.057552095e-05 +1.057552095e-05 +8.790001058e+01 +8.790001058e+01 -3.1691e+00 -1.5829e+00 +2.6892e-01 +1.4152e+00 -1.0774e+00
498 +7.805291574e-06 +7.805291574e-06 +8.790000781e+01 +8.790000781e+01 -3.1685e+00 -1.5810e+00 +2.7144e-01 +1.4140e+00 -1.0776e+00
522 +6.444693696e-06 +6.444693696e-06 +8.790000644e+01 +8.790000644e+01 -3.1667e+00 -1.5805e+00 +2.7084e-01 +1.4143e+00 -1.0760e+00
546 +4.221005454e-06 +4.221005454e-06 +8.790000422e+01 +8.790000422e+01 -3.1673e+00 -1.5809e+00 +2.7114e-01 +1.4151e+00 -1.0778e+00
550 +2.672924893e-06 +2.672924893e-06 +8.790000267e+01 +8.790000267e+01 -3.1667e+00 -1.5818e+00 +2.7053e-01 +1.4129e+00 -1.0779e+00
555 +1.964213880e-06 +1.964213880e-06 +8.790000196e+01 +8.790000196e+01 -3.1665e+00 -1.5815e+00 +2.7119e-01 +1.4137e+00 -1.0780e+00
577 +1.787452348e-06 +1.787452348e-06 +8.790000179e+01 +8.790000179e+01 -3.1670e+00 -1.5821e+00 +2.7038e-01 +1.4134e+00 -1.0782e+00
580 +6.045437715e-07 +6.045437715e-07 +8.790000060e+01 +8.790000060e+01 -3.1662e+00 -1.5820e+00 +2.7058e-01 +1.4148e+00 -1.0781e+00
595 +5.323701657e-07 +5.323701657e-07 +8.790000053e+01 +8.790000053e+01 -3.1668e+00 -1.5825e+00 +2.7102e-01 +1.4144e+00 -1.0776e+00
604 +2.666360785e-07 +2.666360785e-07 +8.790000027e+01 +8.790000027e+01 -3.1667e+00 -1.5824e+00 +2.7080e-01 +1.4145e+00 -1.0777e+00
631 +2.558667944e-07 +2.558667944e-07 +8.790000026e+01 +8.790000026e+01 -3.1666e+00 -1.5823e+00 +2.7004e-01 +1.4144e+00 -1.0773e+00
632 +8.755078795e-08 +8.755078795e-08 +8.790000009e+01 +8.790000009e+01 -3.1664e+00 -1.5824e+00 +2.7042e-01 +1.4147e+00 -1.0777e+00
674 +5.580142215e-08 +5.580142215e-08 +8.790000006e+01 +8.790000006e+01 -3.1663e+00 -1.5825e+00 +2.7056e-01 +1.4144e+00 -1.0775e+00
681 +5.326866415e-08 +5.326866415e-08 +8.790000005e+01 +8.790000005e+01 -3.1665e+00 -1.5822e+00 +2.7031e-01 +1.4145e+00 -1.0777e+00
684 +2.575725944e-08 +2.575725944e-08 +8.790000003e+01 +8.790000003e+01 -3.1665e+00 -1.5823e+00 +2.7044e-01 +1.4143e+00 -1.0776e+00
690 +2.305753810e-08 +2.305753810e-08 +8.790000002e+01 +8.790000002e+01 -3.1664e+00 -1.5823e+00 +2.7052e-01 +1.4144e+00 -1.0776e+00
705 +7.785843081e-10 +7.785843081e-10 +8.790000000e+01 +8.790000000e+01 -3.1664e+00 -1.5824e+00 +2.7042e-01 +1.4144e+00 -1.0776e+00
% function evaluation | noise-free fitness - Fopt (2.199800000000e+02) | best noise-free fitness - Fopt | measured fitness | best measured fitness | x1 | x2...
1 +1.530337472e+01 +1.530337472e+01 +2.352833747e+02 +2.352833747e+02 +0.0000e+00 +0.0000e+00 +0.0000e+00 +0.0000e+00 +0.0000e+00
9 +1.307551229e+01 +1.307551229e+01 +2.330555123e+02 +2.330555123e+02 -3.3068e-01 -1.5230e+00 -5.2350e-01 -2.1164e+00 +1.5650e+00
12 +1.130164182e+01 +1.130164182e+01 +2.312816418e+02 +2.312816418e+02 -1.2423e+00 -2.7122e+00 +5.5171e-01 +3.0253e-01 +1.9635e+00
16 +5.237146167e+00 +5.237146167e+00 +2.252171462e+02 +2.252171462e+02 +3.0939e-02 -2.5111e+00 +8.5198e-01 +8.1148e-01 -7.0914e-01
24 +4.633478396e+00 +4.633478396e+00 +2.246134784e+02 +2.246134784e+02 +1.9480e+00 -3.2750e+00 -1.4362e+00 +7.4695e-01 -1.0902e+00
33 +1.872600558e+00 +1.872600558e+00 +2.218526006e+02 +2.218526006e+02 +1.1097e+00 -4.2144e+00 +6.8443e-01 +7.3838e-02 -9.3740e-01
45 +6.169892092e-01 +6.169892092e-01 +2.205969892e+02 +2.205969892e+02 +7.9656e-01 -3.4856e+00 -3.9523e-01 +4.0705e-01 +1.0251e-02
62 +4.885122771e-01 +4.885122771e-01 +2.204685123e+02 +2.204685123e+02 +1.2386e+00 -3.4449e+00 +2.8749e-01 -5.8823e-02 +1.8164e-01
75 +3.839555101e-01 +3.839555101e-01 +2.203639555e+02 +2.203639555e+02 +1.4664e+00 -3.3872e+00 -3.3760e-01 -3.1610e-01 -2.6864e-01
113 +2.823626664e-01 +2.823626664e-01 +2.202623627e+02 +2.202623627e+02 +9.3524e-01 -4.0624e+00 -4.7329e-01 +5.5257e-02 +2.7696e-02
125 +1.792558031e-01 +1.792558031e-01 +2.201592558e+02 +2.201592558e+02 +8.9698e-01 -3.8848e+00 -5.4587e-01 -8.7646e-02 -6.8055e-02
141 +9.860296495e-02 +9.860296495e-02 +2.200786030e+02 +2.200786030e+02 +9.7988e-01 -3.8229e+00 -3.4708e-01 +5.7318e-03 -1.0608e-01
159 +8.592570571e-02 +8.592570571e-02 +2.200659257e+02 +2.200659257e+02 +1.0499e+00 -3.9425e+00 -3.8649e-01 -3.8561e-01 -1.2994e-01
163 +7.869842330e-02 +7.869842330e-02 +2.200586984e+02 +2.200586984e+02 +1.1178e+00 -3.7338e+00 -4.1927e-01 -3.3450e-01 -2.1364e-01
165 +4.078661038e-03 +4.078661038e-03 +2.199840787e+02 +2.199840787e+02 +1.0136e+00 -3.8017e+00 -1.9430e-01 -2.2119e-01 -6.2558e-02
253 +3.946107536e-03 +3.946107536e-03 +2.199839461e+02 +2.199839461e+02 +1.0456e+00 -3.7836e+00 -1.5940e-01 -2.3634e-01 -8.7236e-02
262 +3.544157263e-03 +3.544157263e-03 +2.199835442e+02 +2.199835442e+02 +1.0189e+00 -3.8009e+00 -1.7364e-01 -2.6422e-01 -5.2903e-02
264 +2.761465494e-03 +2.761465494e-03 +2.199827615e+02 +2.199827615e+02 +1.0038e+00 -3.7935e+00 -1.9108e-01 -2.7543e-01 -7.9454e-02
269 +2.650351608e-03 +2.650351608e-03 +2.199826504e+02 +2.199826504e+02 +1.0437e+00 -3.7957e+00 -2.0069e-01 -2.8326e-01 -9.3007e-02
275 +2.042572895e-03 +2.042572895e-03 +2.199820426e+02 +2.199820426e+02 +1.0041e+00 -3.7624e+00 -1.9696e-01 -2.7488e-01 -4.1767e-02
299 +9.933673466e-04 +9.933673466e-04 +2.199809934e+02 +2.199809934e+02 +1.0399e+00 -3.7830e+00 -2.0557e-01 -2.4596e-01 -8.0932e-02
311 +2.204491896e-04 +2.204491896e-04 +2.199802204e+02 +2.199802204e+02 +1.0370e+00 -3.7504e+00 -1.9747e-01 -2.5383e-01 -6.5373e-02
330 +1.969488801e-04 +1.969488801e-04 +2.199801969e+02 +2.199801969e+02 +1.0409e+00 -3.7601e+00 -2.1409e-01 -2.6929e-01 -7.2261e-02
355 +1.571648940e-04 +1.571648940e-04 +2.199801572e+02 +2.199801572e+02 +1.0414e+00 -3.7575e+00 -2.0927e-01 -2.5095e-01 -7.3487e-02
362 +8.576177152e-05 +8.576177152e-05 +2.199800858e+02 +2.199800858e+02 +1.0289e+00 -3.7600e+00 -2.0883e-01 -2.5454e-01 -6.5363e-02
374 +8.130937786e-05 +8.130937786e-05 +2.199800813e+02 +2.199800813e+02 +1.0344e+00 -3.7549e+00 -2.1087e-01 -2.6500e-01 -7.6320e-02
382 +3.229277760e-05 +3.229277760e-05 +2.199800323e+02 +2.199800323e+02 +1.0297e+00 -3.7559e+00 -2.1073e-01 -2.6110e-01 -7.0944e-02
411 +2.441591846e-05 +2.441591846e-05 +2.199800244e+02 +2.199800244e+02 +1.0327e+00 -3.7617e+00 -2.0555e-01 -2.6144e-01 -6.8918e-02
419 +1.498203895e-05 +1.498203895e-05 +2.199800150e+02 +2.199800150e+02 +1.0301e+00 -3.7571e+00 -2.0561e-01 -2.5986e-01 -7.0600e-02
437 +1.175252234e-05 +1.175252234e-05 +2.199800118e+02 +2.199800118e+02 +1.0309e+00 -3.7590e+00 -2.0658e-01 -2.6023e-01 -7.1840e-02
447 +1.108912537e-05 +1.108912537e-05 +2.199800111e+02 +2.199800111e+02 +1.0319e+00 -3.7595e+00 -2.0506e-01 -2.5998e-01 -7.0144e-02
459 +5.984070498e-06 +5.984070498e-06 +2.199800060e+02 +2.199800060e+02 +1.0325e+00 -3.7580e+00 -2.0677e-01 -2.5859e-01 -7.2000e-02
463 +5.488756841e-06 +5.488756841e-06 +2.199800055e+02 +2.199800055e+02 +1.0321e+00 -3.7580e+00 -2.0597e-01 -2.5965e-01 -7.1546e-02
472 +3.629361942e-06 +3.629361942e-06 +2.199800036e+02 +2.199800036e+02 +1.0338e+00 -3.7576e+00 -2.0704e-01 -2.6128e-01 -7.1791e-02
494 +2.688604837e-06 +2.688604837e-06 +2.199800027e+02 +2.199800027e+02 +1.0336e+00 -3.7586e+00 -2.0748e-01 -2.6018e-01 -7.1666e-02
507 +8.598733814e-07 +8.598733814e-07 +2.199800009e+02 +2.199800009e+02 +1.0340e+00 -3.7581e+00 -2.0694e-01 -2.5959e-01 -7.0938e-02
517 +5.267813776e-07 +5.267813776e-07 +2.199800005e+02 +2.199800005e+02 +1.0331e+00 -3.7574e+00 -2.0678e-01 -2.5999e-01 -7.0553e-02
579 +4.333135166e-07 +4.333135166e-07 +2.199800004e+02 +2.199800004e+02 +1.0336e+00 -3.7579e+00 -2.0722e-01 -2.6056e-01 -7.0457e-02
594 +4.254378041e-07 +4.254378041e-07 +2.199800004e+02 +2.199800004e+02 +1.0337e+00 -3.7571e+00 -2.0741e-01 -2.6035e-01 -7.0600e-02
595 +1.862963472e-07 +1.862963472e-07 +2.199800002e+02 +2.199800002e+02 +1.0339e+00 -3.7578e+00 -2.0710e-01 -2.6013e-01 -7.0550e-02
614 +1.721416822e-07 +1.721416822e-07 +2.199800002e+02 +2.199800002e+02 +1.0338e+00 -3.7574e+00 -2.0693e-01 -2.6001e-01 -7.0370e-02
615 +2.760165785e-08 +2.760165785e-08 +2.199800000e+02 +2.199800000e+02 +1.0337e+00 -3.7576e+00 -2.0715e-01 -2.6005e-01 -7.0478e-02
636 +2.125020160e-08 +2.125020160e-08 +2.199800000e+02 +2.199800000e+02 +1.0337e+00 -3.7576e+00 -2.0715e-01 -2.6007e-01 -7.0401e-02
665 +1.887732992e-08 +1.887732992e-08 +2.199800000e+02 +2.199800000e+02 +1.0337e+00 -3.7575e+00 -2.0727e-01 -2.5997e-01 -7.0460e-02
673 +1.251521553e-08 +1.251521553e-08 +2.199800000e+02 +2.199800000e+02 +1.0336e+00 -3.7576e+00 -2.0711e-01 -2.6000e-01 -7.0365e-02
680 +7.878043107e-09 +7.878043107e-09 +2.199800000e+02 +2.199800000e+02 +1.0336e+00 -3.7576e+00 -2.0717e-01 -2.6006e-01 -7.0368e-02
% function evaluation | noise-free fitness - Fopt (-2.784000000000e+01) | best noise-free fitness - Fopt | measured fitness | best measured fitness | x1 | x2...
1 +7.475564800e+00 +7.475564800e+00 -2.036443520e+01 -2.036443520e+01 +0.0000e+00 +0.0000e+00 +0.0000e+00 +0.0000e+00 +0.0000e+00
8 +4.868404565e+00 +4.868404565e+00 -2.297159544e+01 -2.297159544e+01 -1.3673e+00 +1.6592e+00 +5.8841e-01 +8.0097e-01 +2.3996e+00
20 +4.574381103e+00 +4.574381103e+00 -2.326561890e+01 -2.326561890e+01 +1.0352e-02 +5.9111e-01 +4.3685e-01 -4.8047e-01 -1.0961e-01
22 +2.844788877e+00 +2.844788877e+00 -2.499521112e+01 -2.499521112e+01 -1.0627e+00 +3.1999e+00 +8.2453e-01 +5.8837e-02 +4.5161e-02
27 +8.911232007e-01 +8.911232007e-01 -2.694887680e+01 -2.694887680e+01 +3.0816e-01 +1.7415e+00 +8.0591e-01 -8.5809e-01 +1.1502e+00
59 +7.543991222e-01 +7.543991222e-01 -2.708560088e+01 -2.708560088e+01 -2.3077e-02 +2.7750e+00 +9.7827e-01 -4.4775e-01 +1.6901e+00
74 +6.723543808e-01 +6.723543808e-01 -2.716764562e+01 -2.716764562e+01 -1.7066e-01 +1.8150e+00 +1.4390e+00 -7.5045e-01 +6.2536e-01
80 +5.256733520e-01 +5.256733520e-01 -2.731432665e+01 -2.731432665e+01 -9.2475e-01 +2.0866e+00 +1.1076e+00 -5.9380e-01 +1.2881e+00
87 +4.265559704e-01 +4.265559704e-01 -2.741344403e+01 -2.741344403e+01 -7.3025e-02 +2.1128e+00 +9.0803e-01 -4.8024e-01 +1.6524e+00
93 +3.425856678e-01 +3.425856678e-01 -2.749741433e+01 -2.749741433e+01 -4.4687e-01 +2.0820e+00 +1.2276e+00 -5.5362e-01 +1.5573e+00
109 +3.316182104e-01 +3.316182104e-01 -2.750838179e+01 -2.750838179e+01 -5.1809e-01 +2.3805e+00 +5.9143e-01 -4.6052e-01 +1.2520e+00
129 +1.461513029e-01 +1.461513029e-01 -2.769384870e+01 -2.769384870e+01 -4.9594e-01 +2.2400e+00 +1.1699e+00 -6.7023e-01 +1.1332e+00
142 +1.336484603e-01 +1.336484603e-01 -2.770635154e+01 -2.770635154e+01 -4.2931e-01 +2.3528e+00 +1.0425e+00 -6.0342e-01 +8.5601e-01
151 +1.127703445e-01 +1.127703445e-01 -2.772722966e+01 -2.772722966e+01 -1.6932e-01 +2.2252e+00 +1.2617e+00 -5.4570e-01 +9.0212e-01
152 +6.350166035e-02 +6.350166035e-02 -2.777649834e+01 -2.777649834e+01 -4.8083e-01 +2.1607e+00 +9.2164e-01 -3.5887e-01 +1.0369e+00
164 +5.150911809e-02 +5.150911809e-02 -2.778849088e+01 -2.778849088e+01 -1.3547e-01 +2.3502e+00 +1.0372e+00 -2.6895e-01 +1.0200e+00
192 +2.984898334e-02 +2.984898334e-02 -2.781015102e+01 -2.781015102e+01 -3.5629e-01 +2.3019e+00 +1.1334e+00 -2.6019e-01 +1.0771e+00
204 +1.724422919e-02 +1.724422919e-02 -2.782275577e+01 -2.782275577e+01 -2.1664e-01 +2.3303e+00 +1.0982e+00 -3.4637e-01 +1.0877e+00
221 +1.437293650e-02 +1.437293650e-02 -2.782562706e+01 -2.782562706e+01 -2.3595e-01 +2.2337e+00 +1.0383e+00 -3.0957e-01 +1.1567e+00
222 +1.261852921e-02 +1.261852921e-02 -2.782738147e+01 -2.782738147e+01 -2.4890e-01 +2.2407e+00 +1.1230e+00 -2.9631e-01 +1.0622e+00
227 +6.922648406e-03 +6.922648406e-03 -2.783307735e+01 -2.783307735e+01 -2.3287e-01 +2.2284e+00 +1.0841e+00 -3.2943e-01 +1.1063e+00
260 +4.398839022e-03 +4.398839022e-03 -2.783560116e+01 -2.783560116e+01 -2.4292e-01 +2.2195e+00 +1.0772e+00 -3.3289e-01 +1.0724e+00
267 +1.744636230e-03 +1.744636230e-03 -2.783825536e+01 -2.783825536e+01 -2.7258e-01 +2.2274e+00 +1.0797e+00 -4.0835e-01 +1.0860e+00
277 +1.501593128e-03 +1.501593128e-03 -2.783849841e+01 -2.783849841e+01 -2.7587e-01 +2.2577e+00 +1.0812e+00 -3.7548e-01 +1.0611e+00
295 +1.212297094e-03 +1.212297094e-03 -2.783878770e+01 -2.783878770e+01 -2.6186e-01 +2.2499e+00 +1.0505e+00 -3.6234e-01 +1.0654e+00
304 +1.010695226e-03 +1.010695226e-03 -2.783898930e+01 -2.783898930e+01 -2.8405e-01 +2.2344e+00 +1.0281e+00 -3.9149e-01 +1.0701e+00
308 +9.511216397e-04 +9.511216397e-04 -2.783904888e+01 -2.783904888e+01 -2.8510e-01 +2.2440e+00 +1.0441e+00 -3.9978e-01 +1.0599e+00
316 +7.605100666e-04 +7.605100666e-04 -2.783923949e+01 -2.783923949e+01 -2.8396e-01 +2.2121e+00 +1.0742e+00 -3.7999e-01 +1.0812e+00
335 +3.566257846e-04 +3.566257846e-04 -2.783964337e+01 -2.783964337e+01 -2.8369e-01 +2.2308e+00 +1.0537e+00 -3.7376e-01 +1.0916e+00
358 +3.520386563e-04 +3.520386563e-04 -2.783964796e+01 -2.783964796e+01 -2.8972e-01 +2.2305e+00 +1.0438e+00 -3.7906e-01 +1.0861e+00
376 +1.649258634e-04 +1.649258634e-04 -2.783983507e+01 -2.783983507e+01 -2.7495e-01 +2.2380e+00 +1.0614e+00 -3.7568e-01 +1.0720e+00
384 +1.135215009e-04 +1.135215009e-04 -2.783988648e+01 -2.783988648e+01 -2.8853e-01 +2.2320e+00 +1.0573e+00 -3.8583e-01 +1.0802e+00
389 +1.074600538e-04 +1.074600538e-04 -2.783989254e+01 -2.783989254e+01 -2.8930e-01 +2.2327e+00 +1.0563e+00 -3.8245e-01 +1.0820e+00
391 +6.804032095e-05 +6.804032095e-05 -2.783993196e+01 -2.783993196e+01 -2.8880e-01 +2.2277e+00 +1.0579e+00 -3.7669e-01 +1.0790e+00
411 +5.627503794e-05 +5.627503794e-05 -2.783994372e+01 -2.783994372e+01 -2.9023e-01 +2.2329e+00 +1.0575e+00 -3.7868e-01 +1.0786e+00
416 +4.707579886e-05 +4.707579886e-05 -2.783995292e+01 -2.783995292e+01 -2.8431e-01 +2.2287e+00 +1.0576e+00 -3.7284e-01 +1.0756e+00
417 +1.717054575e-05 +1.717054575e-05 -2.783998283e+01 -2.783998283e+01 -2.8687e-01 +2.2309e+00 +1.0597e+00 -3.8015e-01 +1.0743e+00
426 +1.276693076e-05 +1.276693076e-05 -2.783998723e+01 -2.783998723e+01 -2.8764e-01 +2.2323e+00 +1.0577e+00 -3.8027e-01 +1.0742e+00
462 +1.225303148e-05 +1.225303148e-05 -2.783998775e+01 -2.783998775e+01 -2.8611e-01 +2.2339e+00 +1.0554e+00 -3.7992e-01 +1.0753e+00
463 +1.129289431e-05 +1.129289431e-05 -2.783998871e+01 -2.783998871e+01 -2.8434e-01 +2.2337e+00 +1.0562e+00 -3.8055e-01 +1.0754e+00
478 +8.901208979e-06 +8.901208979e-06 -2.783999110e+01 -2.783999110e+01 -2.8538e-01 +2.2322e+00 +1.0567e+00 -3.7778e-01 +1.0764e+00
480 +7.599656868e-06 +7.599656868e-06 -2.783999240e+01 -2.783999240e+01 -2.8465e-01 +2.2336e+00 +1.0579e+00 -3.7957e-01 +1.0751e+00
483 +6.843137776e-06 +6.843137776e-06 -2.783999316e+01 -2.783999316e+01 -2.8464e-01 +2.2343e+00 +1.0572e+00 -3.7815e-01 +1.0748e+00
487 +5.867174981e-06 +5.867174981e-06 -2.783999413e+01 -2.783999413e+01 -2.8373e-01 +2.2337e+00 +1.0572e+00 -3.7940e-01 +1.0744e+00
492 +3.818796817e-06 +3.818796817e-06 -2.783999618e+01 -2.783999618e+01 -2.8517e-01 +2.2325e+00 +1.0586e+00 -3.7889e-01 +1.0734e+00
494 +2.810979669e-06 +2.810979669e-06 -2.783999719e+01 -2.783999719e+01 -2.8441e-01 +2.2329e+00 +1.0576e+00 -3.7951e-01 +1.0734e+00
497 +1.986394718e-06 +1.986394718e-06 -2.783999801e+01 -2.783999801e+01 -2.8446e-01 +2.2318e+00 +1.0555e+00 -3.7852e-01 +1.0735e+00
503 +3.556842252e-07 +3.556842252e-07 -2.783999964e+01 -2.783999964e+01 -2.8484e-01 +2.2319e+00 +1.0563e+00 -3.7856e-01 +1.0738e+00
561 +3.309630330e-07 +3.309630330e-07 -2.783999967e+01 -2.783999967e+01 -2.8519e-01 +2.2319e+00 +1.0568e+00 -3.7859e-01 +1.0740e+00
576 +2.035483462e-07 +2.035483462e-07 -2.783999980e+01 -2.783999980e+01 -2.8457e-01 +2.2320e+00 +1.0564e+00 -3.7834e-01 +1.0736e+00
585 +4.579462498e-08 +4.579462498e-08 -2.783999995e+01 -2.783999995e+01 -2.8468e-01 +2.2319e+00 +1.0569e+00 -3.7842e-01 +1.0737e+00
629 +3.606530896e-08 +3.606530896e-08 -2.783999996e+01 -2.783999996e+01 -2.8496e-01 +2.2321e+00 +1.0568e+00 -3.7840e-01 +1.0736e+00
635 +3.455540565e-08 +3.455540565e-08 -2.783999997e+01 -2.783999997e+01 -2.8491e-01 +2.2320e+00 +1.0568e+00 -3.7835e-01 +1.0735e+00
647 +2.752265615e-08 +2.752265615e-08 -2.783999997e+01 -2.783999997e+01 -2.8488e-01 +2.2320e+00 +1.0568e+00 -3.7851e-01 +1.0735e+00
648 +1.157208018e-08 +1.157208018e-08 -2.783999999e+01 -2.783999999e+01 -2.8476e-01 +2.2321e+00 +1.0567e+00 -3.7843e-01 +1.0736e+00
665 +6.767454153e-09 +6.767454153e-09 -2.783999999e+01 -2.783999999e+01 -2.8480e-01 +2.2320e+00 +1.0567e+00 -3.7837e-01 +1.0736e+00
% function evaluation | noise-free fitness - Fopt (2.027000000000e+01) | best noise-free fitness - Fopt | measured fitness | best measured fitness | x1 | x2...
1 +3.139960960e+01 +3.139960960e+01 +5.166960960e+01 +5.166960960e+01 +0.0000e+00 +0.0000e+00 +0.0000e+00 +0.0000e+00 +0.0000e+00
9 +2.784648716e+01 +2.784648716e+01 +4.811648716e+01 +4.811648716e+01 -6.8267e-01 -1.3666e+00 -2.0299e+00 -8.6948e-01 +5.1535e-01
14 +2.271972258e+01 +2.271972258e+01 +4.298972258e+01 +4.298972258e+01 -1.0333e+00 -2.7883e-01 -2.1936e+00 -1.5206e+00 -1.1623e+00
24 +1.418127283e+01 +1.418127283e+01 +3.445127283e+01 +3.445127283e+01 +2.3322e+00 -1.6659e+00 -6.0196e-01 -1.9638e+00 -1.0538e+00
29 +1.036390426e+01 +1.036390426e+01 +3.063390426e+01 +3.063390426e+01 +1.2417e+00 -9.9005e-01 -8.3397e-01 -1.1259e+00 -3.1933e+00
33 +6.820722987e+00 +6.820722987e+00 +2.709072299e+01 +2.709072299e+01 +1.4882e+00 -2.1876e+00 -3.0148e+00 -2.3655e+00 -3.3339e+00
47 +6.698970736e+00 +6.698970736e+00 +2.696897074e+01 +2.696897074e+01 +2.5954e+00 -8.5304e-01 -1.6480e+00 -2.4273e+00 -2.7737e+00
53 +3.591920099e+00 +3.591920099e+00 +2.386192010e+01 +2.386192010e+01 +1.5429e+00 -1.7144e+00 -3.4718e+00 +3.2031e-01 -3.2144e+00
71 +2.235656982e+00 +2.235656982e+00 +2.250565698e+01 +2.250565698e+01 +2.7811e+00 -4.5270e-01 -3.5152e+00 +2.0334e-02 -4.0672e+00
74 +1.182255033e+00 +1.182255033e+00 +2.145225503e+01 +2.145225503e+01 +2.8656e+00 -6.8876e-01 -3.5578e+00 -1.5756e+00 -2.6176e+00
120 +4.586482804e-01 +4.586482804e-01 +2.072864828e+01 +2.072864828e+01 +3.3399e+00 -1.0777e+00 -3.3959e+00 -9.3673e-01 -3.4629e+00
129 +2.813402025e-01 +2.813402025e-01 +2.055134020e+01 +2.055134020e+01 +2.7549e+00 -9.8838e-01 -3.6909e+00 -9.6421e-01 -2.7595e+00
167 +1.797151316e-01 +1.797151316e-01 +2.044971513e+01 +2.044971513e+01 +3.0111e+00 -7.5562e-01 -3.4092e+00 -8.2143e-01 -3.0670e+00
171 +1.338387725e-01 +1.338387725e-01 +2.040383877e+01 +2.040383877e+01 +3.0727e+00 -1.1986e+00 -3.4922e+00 -6.4102e-01 -2.5849e+00
199 +1.281411586e-01 +1.281411586e-01 +2.039814116e+01 +2.039814116e+01 +3.0480e+00 -1.2404e+00 -3.6373e+00 -7.3017e-01 -2.6691e+00
205 +1.136137886e-01 +1.136137886e-01 +2.038361379e+01 +2.038361379e+01 +3.1835e+00 -1.3790e+00 -3.3735e+00 -7.6637e-01 -2.9882e+00
206 +4.122554255e-02 +4.122554255e-02 +2.031122554e+01 +2.031122554e+01 +3.0494e+00 -1.0409e+00 -3.5214e+00 -5.3641e-01 -2.8053e+00
214 +1.731214886e-02 +1.731214886e-02 +2.028731215e+01 +2.028731215e+01 +3.0785e+00 -1.0345e+00 -3.4040e+00 -6.4100e-01 -2.8597e+00
227 +8.984152420e-03 +8.984152420e-03 +2.027898415e+01 +2.027898415e+01 +2.9885e+00 -1.1979e+00 -3.4443e+00 -6.7131e-01 -2.9257e+00
272 +4.414665952e-03 +4.414665952e-03 +2.027441467e+01 +2.027441467e+01 +3.0335e+00 -1.1737e+00 -3.4303e+00 -6.7666e-01 -2.9269e+00
287 +3.463589048e-03 +3.463589048e-03 +2.027346359e+01 +2.027346359e+01 +3.0162e+00 -1.1307e+00 -3.4120e+00 -6.4585e-01 -2.9754e+00
291 +2.320055667e-03 +2.320055667e-03 +2.027232006e+01 +2.027232006e+01 +3.0092e+00 -1.1221e+00 -3.4314e+00 -6.8498e-01 -2.9252e+00
298 +1.857559557e-03 +1.857559557e-03 +2.027185756e+01 +2.027185756e+01 +3.0263e+00 -1.1263e+00 -3.4229e+00 -6.7501e-01 -2.9195e+00
302 +3.605743359e-04 +3.605743359e-04 +2.027036057e+01 +2.027036057e+01 +3.0293e+00 -1.1195e+00 -3.4347e+00 -6.4084e-01 -2.9360e+00
346 +2.504762514e-04 +2.504762514e-04 +2.027025048e+01 +2.027025048e+01 +3.0417e+00 -1.1232e+00 -3.4559e+00 -6.4389e-01 -2.9284e+00
365 +1.507347616e-04 +1.507347616e-04 +2.027015073e+01 +2.027015073e+01 +3.0287e+00 -1.1105e+00 -3.4601e+00 -6.5270e-01 -2.9376e+00
416 +1.623197187e-05 +1.623197187e-05 +2.027001623e+01 +2.027001623e+01 +3.0297e+00 -1.1162e+00 -3.4533e+00 -6.4806e-01 -2.9384e+00
479 +8.208738670e-06 +8.208738670e-06 +2.027000821e+01 +2.027000821e+01 +3.0313e+00 -1.1155e+00 -3.4496e+00 -6.5053e-01 -2.9369e+00
483 +4.627594745e-06 +4.627594745e-06 +2.027000463e+01 +2.027000463e+01 +3.0316e+00 -1.1185e+00 -3.4494e+00 -6.4911e-01 -2.9368e+00
533 +4.028964700e-06 +4.028964700e-06 +2.027000403e+01 +2.027000403e+01 +3.0310e+00 -1.1172e+00 -3.4523e+00 -6.5076e-01 -2.9363e+00
549 +3.307677236e-06 +3.307677236e-06 +2.027000331e+01 +2.027000331e+01 +3.0310e+00 -1.1179e+00 -3.4522e+00 -6.5059e-01 -2.9364e+00
557 +2.664246658e-06 +2.664246658e-06 +2.027000266e+01 +2.027000266e+01 +3.0322e+00 -1.1180e+00 -3.4514e+00 -6.5112e-01 -2.9365e+00
567 +2.096368238e-06 +2.096368238e-06 +2.027000210e+01 +2.027000210e+01 +3.0315e+00 -1.1171e+00 -3.4517e+00 -6.5045e-01 -2.9360e+00
576 +1.682850979e-06 +1.682850979e-06 +2.027000168e+01 +2.027000168e+01 +3.0321e+00 -1.1173e+00 -3.4522e+00 -6.5032e-01 -2.9367e+00
585 +1.649044773e-06 +1.649044773e-06 +2.027000165e+01 +2.027000165e+01 +3.0316e+00 -1.1170e+00 -3.4513e+00 -6.4982e-01 -2.9358e+00
598 +1.340035411e-06 +1.340035411e-06 +2.027000134e+01 +2.027000134e+01 +3.0316e+00 -1.1168e+00 -3.4518e+00 -6.4960e-01 -2.9363e+00
609 +1.105485964e-06 +1.105485964e-06 +2.027000111e+01 +2.027000111e+01 +3.0313e+00 -1.1174e+00 -3.4516e+00 -6.5015e-01 -2.9365e+00
615 +8.808304557e-07 +8.808304557e-07 +2.027000088e+01 +2.027000088e+01 +3.0317e+00 -1.1169e+00 -3.4516e+00 -6.4999e-01 -2.9369e+00
618 +4.086504077e-07 +4.086504077e-07 +2.027000041e+01 +2.027000041e+01 +3.0315e+00 -1.1174e+00 -3.4515e+00 -6.4957e-01 -2.9368e+00
621 +3.749016741e-07 +3.749016741e-07 +2.027000037e+01 +2.027000037e+01 +3.0315e+00 -1.1174e+00 -3.4515e+00 -6.4949e-01 -2.9367e+00
630 +2.528898051e-07 +2.528898051e-07 +2.027000025e+01 +2.027000025e+01 +3.0316e+00 -1.1175e+00 -3.4514e+00 -6.4933e-01 -2.9368e+00
656 +1.248774382e-07 +1.248774382e-07 +2.027000012e+01 +2.027000012e+01 +3.0318e+00 -1.1178e+00 -3.4511e+00 -6.4940e-01 -2.9369e+00
660 +1.036831243e-07 +1.036831243e-07 +2.027000010e+01 +2.027000010e+01 +3.0320e+00 -1.1175e+00 -3.4510e+00 -6.4977e-01 -2.9370e+00
677 +1.020461085e-07 +1.020461085e-07 +2.027000010e+01 +2.027000010e+01 +3.0319e+00 -1.1175e+00 -3.4513e+00 -6.4955e-01 -2.9371e+00
697 +7.212588926e-08 +7.212588926e-08 +2.027000007e+01 +2.027000007e+01 +3.0319e+00 -1.1175e+00 -3.4511e+00 -6.4949e-01 -2.9370e+00
701 +5.473888720e-08 +5.473888720e-08 +2.027000005e+01 +2.027000005e+01 +3.0319e+00 -1.1176e+00 -3.4512e+00 -6.4948e-01 -2.9370e+00
710 +1.877286948e-08 +1.877286948e-08 +2.027000002e+01 +2.027000002e+01 +3.0320e+00 -1.1176e+00 -3.4512e+00 -6.4965e-01 -2.9369e+00
718 +9.575852999e-09 +9.575852999e-09 +2.027000001e+01 +2.027000001e+01 +3.0320e+00 -1.1176e+00 -3.4512e+00 -6.4958e-01 -2.9369e+00
% function evaluation | noise-free fitness - Fopt (9.302900000000e+02) | best noise-free fitness - Fopt | measured fitness | best measured fitness | x1 | x2...
1 +1.996927040e+01 +1.996927040e+01 +9.502592704e+02 +9.502592704e+02 +0.0000e+00 +0.0000e+00 +0.0000e+00 +0.0000e+00 +0.0000e+00
11 +1.642636213e+01 +1.642636213e+01 +9.467163621e+02 +9.467163621e+02 -1.3466e+00 -1.8871e+00 -7.9419e-01 -1.8332e+00 +3.7412e+00
14 +1.003168717e+01 +1.003168717e+01 +9.403216872e+02 +9.403216872e+02 -6.0491e-01 +5.4577e-01 -1.5145e+00 -7.2156e-01 +3.0096e+00
16 +6.326547352e+00 +6.326547352e+00 +9.366165474e+02 +9.366165474e+02 -9.1946e-01 +1.1441e+00 -2.7869e+00 -2.4437e-01 +1.9517e+00
18 +8.131070216e-01 +8.131070216e-01 +9.311031070e+02 +9.311031070e+02 -1.8614e+00 -6.4214e-01 -2.7733e+00 +2.1046e-01 +1.9509e+00
93 +3.171368061e-01 +3.171368061e-01 +9.306071368e+02 +9.306071368e+02 -2.1441e+00 -9.4542e-01 -3.4668e+00 +4.6326e-01 +2.1026e+00
104 +2.048195097e-01 +2.048195097e-01 +9.304948195e+02 +9.304948195e+02 -1.3908e+00 -1.1489e+00 -3.3306e+00 +2.6096e-01 +1.6423e+00
139 +1.187777439e-01 +1.187777439e-01 +9.304087777e+02 +9.304087777e+02 -1.5723e+00 -1.1031e+00 -3.4241e+00 +1.7686e-01 +2.1584e+00
157 +7.116395488e-02 +7.116395488e-02 +9.303611640e+02 +9.303611640e+02 -1.6322e+00 -1.1100e+00 -3.4392e+00 +1.9448e-01 +2.0507e+00
166 +4.983626505e-02 +4.983626505e-02 +9.303398363e+02 +9.303398363e+02 -1.6124e+00 -1.1985e+00 -3.4673e+00 +4.0406e-01 +2.1133e+00
169 +1.489526176e-02 +1.489526176e-02 +9.303048953e+02 +9.303048953e+02 -1.6664e+00 -1.0447e+00 -3.5790e+00 +4.8509e-01 +1.9934e+00
194 +1.068141965e-02 +1.068141965e-02 +9.303006814e+02 +9.303006814e+02 -1.5965e+00 -1.1424e+00 -3.5623e+00 +4.2588e-01 +1.9212e+00
204 +7.744611409e-03 +7.744611409e-03 +9.302977446e+02 +9.302977446e+02 -1.5657e+00 -1.0593e+00 -3.5475e+00 +4.5535e-01 +1.8991e+00
212 +5.089748649e-03 +5.089748649e-03 +9.302950897e+02 +9.302950897e+02 -1.6140e+00 -1.0923e+00 -3.5586e+00 +3.9112e-01 +1.9398e+00
214 +3.561321279e-03 +3.561321279e-03 +9.302935613e+02 +9.302935613e+02 -1.6655e+00 -1.0675e+00 -3.5142e+00 +4.4455e-01 +1.9085e+00
265 +2.891782858e-03 +2.891782858e-03 +9.302928918e+02 +9.302928918e+02 -1.6268e+00 -1.0940e+00 -3.4731e+00 +4.3193e-01 +1.9079e+00
296 +1.925274218e-03 +1.925274218e-03 +9.302919253e+02 +9.302919253e+02 -1.6136e+00 -1.0871e+00 -3.4668e+00 +4.3112e-01 +1.9441e+00
310 +6.148044828e-04 +6.148044828e-04 +9.302906148e+02 +9.302906148e+02 -1.6042e+00 -1.0680e+00 -3.5150e+00 +4.3000e-01 +1.9287e+00
315 +4.841357413e-04 +4.841357413e-04 +9.302904841e+02 +9.302904841e+02 -1.6253e+00 -1.0628e+00 -3.5091e+00 +4.0725e-01 +1.9283e+00
358 +2.940583513e-04 +2.940583513e-04 +9.302902941e+02 +9.302902941e+02 -1.6123e+00 -1.0634e+00 -3.5110e+00 +4.1234e-01 +1.9434e+00
369 +2.591271683e-04 +2.591271683e-04 +9.302902591e+02 +9.302902591e+02 -1.6117e+00 -1.0571e+00 -3.5070e+00 +4.1855e-01 +1.9488e+00
372 +2.406308414e-04 +2.406308414e-04 +9.302902406e+02 +9.302902406e+02 -1.6161e+00 -1.0559e+00 -3.5002e+00 +4.2081e-01 +1.9518e+00
384 +8.735354345e-05 +8.735354345e-05 +9.302900874e+02 +9.302900874e+02 -1.6177e+00 -1.0658e+00 -3.5060e+00 +4.1621e-01 +1.9390e+00
389 +6.557265999e-05 +6.557265999e-05 +9.302900656e+02 +9.302900656e+02 -1.6251e+00 -1.0627e+00 -3.5085e+00 +4.2269e-01 +1.9425e+00
419 +4.987550892e-05 +4.987550892e-05 +9.302900499e+02 +9.302900499e+02 -1.6155e+00 -1.0645e+00 -3.5039e+00 +4.1987e-01 +1.9415e+00
436 +2.562133750e-05 +2.562133750e-05 +9.302900256e+02 +9.302900256e+02 -1.6219e+00 -1.0615e+00 -3.5039e+00 +4.2137e-01 +1.9430e+00
442 +2.488089638e-05 +2.488089638e-05 +9.302900249e+02 +9.302900249e+02 -1.6209e+00 -1.0641e+00 -3.5029e+00 +4.2399e-01 +1.9450e+00
448 +2.355398306e-05 +2.355398306e-05 +9.302900236e+02 +9.302900236e+02 -1.6187e+00 -1.0660e+00 -3.5016e+00 +4.2065e-01 +1.9418e+00
453 +1.140541724e-05 +1.140541724e-05 +9.302900114e+02 +9.302900114e+02 -1.6180e+00 -1.0640e+00 -3.5008e+00 +4.2333e-01 +1.9408e+00
471 +4.133947755e-06 +4.133947755e-06 +9.302900041e+02 +9.302900041e+02 -1.6211e+00 -1.0652e+00 -3.5040e+00 +4.2382e-01 +1.9401e+00
501 +3.128546041e-06 +3.128546041e-06 +9.302900031e+02 +9.302900031e+02 -1.6206e+00 -1.0626e+00 -3.5030e+00 +4.2403e-01 +1.9392e+00
507 +2.777716304e-06 +2.777716304e-06 +9.302900028e+02 +9.302900028e+02 -1.6197e+00 -1.0630e+00 -3.5027e+00 +4.2439e-01 +1.9394e+00
518 +1.988639724e-06 +1.988639724e-06 +9.302900020e+02 +9.302900020e+02 -1.6210e+00 -1.0634e+00 -3.5028e+00 +4.2453e-01 +1.9389e+00
525 +1.883565460e-06 +1.883565460e-06 +9.302900019e+02 +9.302900019e+02 -1.6199e+00 -1.0647e+00 -3.5031e+00 +4.2415e-01 +1.9396e+00
532 +1.560432906e-06 +1.560432906e-06 +9.302900016e+02 +9.302900016e+02 -1.6210e+00 -1.0649e+00 -3.5019e+00 +4.2472e-01 +1.9401e+00
552 +1.319560852e-06 +1.319560852e-06 +9.302900013e+02 +9.302900013e+02 -1.6217e+00 -1.0639e+00 -3.5022e+00 +4.2435e-01 +1.9395e+00
571 +1.424710945e-07 +1.424710945e-07 +9.302900001e+02 +9.302900001e+02 -1.6211e+00 -1.0641e+00 -3.5026e+00 +4.2395e-01 +1.9401e+00
588 +1.136315859e-07 +1.136315859e-07 +9.302900001e+02 +9.302900001e+02 -1.6209e+00 -1.0639e+00 -3.5027e+00 +4.2407e-01 +1.9401e+00
598 +8.307767985e-08 +8.307767985e-08 +9.302900001e+02 +9.302900001e+02 -1.6211e+00 -1.0640e+00 -3.5024e+00 +4.2395e-01 +1.9401e+00
611 +5.261279057e-08 +5.261279057e-08 +9.302900001e+02 +9.302900001e+02 -1.6206e+00 -1.0639e+00 -3.5025e+00 +4.2400e-01 +1.9400e+00
659 +3.760237632e-08 +3.760237632e-08 +9.302900000e+02 +9.302900000e+02 -1.6208e+00 -1.0639e+00 -3.5025e+00 +4.2407e-01 +1.9399e+00
685 +6.586788004e-09 +6.586788004e-09 +9.302900000e+02 +9.302900000e+02 -1.6208e+00 -1.0640e+00 -3.5025e+00 +4.2399e-01 +1.9400e+00
% function evaluation | noise-free fitness - Fopt (7.786100000000e+02) | best noise-free fitness - Fopt | measured fitness | best measured fitness | x1 | x2...
1 +3.986452096e+01 +3.986452096e+01 +8.184745210e+02 +8.184745210e+02 +0.0000e+00 +0.0000e+00 +0.0000e+00 +0.0000e+00 +0.0000e+00
9 +2.047224087e+01 +2.047224087e+01 +7.990822409e+02 +7.990822409e+02 -6.8652e-01 -3.1804e+00 -8.2904e-02 +1.9308e-01 -7.8664e-03
15 +1.812183026e+01 +1.812183026e+01 +7.967318303e+02 +7.967318303e+02 -1.7574e+00 -5.9897e-01 -2.3199e+00 -1.0300e+00 -8.0285e-02
18 +1.175342502e+01 +1.175342502e+01 +7.903634250e+02 +7.903634250e+02 -3.2062e+00 -6.7986e-01 -1.7236e+00 +2.0733e-01 -1.1464e+00
29 +7.675026446e+00 +7.675026446e+00 +7.862850264e+02 +7.862850264e+02 -1.6683e+00 -5.1072e+00 -3.6393e+00 -6.7482e-01 -2.1210e+00
32 +5.163537906e+00 +5.163537906e+00 +7.837735379e+02 +7.837735379e+02 -3.6477e+00 -2.0630e+00 -1.5981e+00 -6.8558e-01 -1.3330e+00
33 +1.222343324e+00 +1.222343324e+00 +7.798323433e+02 +7.798323433e+02 -3.5623e+00 -2.9857e+00 -3.5139e+00 -2.4183e-02 -1.7271e+00
90 +8.152857944e-01 +8.152857944e-01 +7.794252858e+02 +7.794252858e+02 -4.5825e+00 -3.7836e+00 -3.1478e+00 -3.9448e-01 -1.3532e+00
105 +6.650883508e-01 +6.650883508e-01 +7.792750884e+02 +7.792750884e+02 -4.3698e+00 -4.0703e+00 -3.0050e+00 -5.5445e-01 -1.3952e+00
106 +4.786319033e-01 +4.786319033e-01 +7.790886319e+02 +7.790886319e+02 -4.2108e+00 -4.1548e+00 -3.1484e+00 -3.5021e-01 -1.3575e+00
117 +3.661870250e-01 +3.661870250e-01 +7.789761870e+02 +7.789761870e+02 -3.6603e+00 -3.9598e+00 -2.6102e+00 -4.3203e-01 -1.8815e+00
139 +3.202730099e-01 +3.202730099e-01 +7.789302730e+02 +7.789302730e+02 -4.1592e+00 -3.9859e+00 -2.9163e+00 -4.2362e-01 -1.7506e+00
146 +2.141385624e-01 +2.141385624e-01 +7.788241386e+02 +7.788241386e+02 -3.7844e+00 -4.0542e+00 -2.7090e+00 -1.3553e-01 -1.9145e+00
164 +1.751901228e-01 +1.751901228e-01 +7.787851901e+02 +7.787851901e+02 -3.7682e+00 -3.7582e+00 -2.6919e+00 -4.1548e-01 -1.5433e+00
178 +8.568021970e-02 +8.568021970e-02 +7.786956802e+02 +7.786956802e+02 -3.6073e+00 -3.6520e+00 -2.9346e+00 -6.8926e-02 -1.5303e+00
180 +2.884317364e-02 +2.884317364e-02 +7.786388432e+02 +7.786388432e+02 -3.7121e+00 -3.8257e+00 -2.8066e+00 -1.4919e-01 -1.5660e+00
210 +9.567941305e-03 +9.567941305e-03 +7.786195679e+02 +7.786195679e+02 -3.8735e+00 -3.8013e+00 -2.8190e+00 +3.2042e-02 -1.5340e+00
255 +8.805828230e-03 +8.805828230e-03 +7.786188058e+02 +7.786188058e+02 -3.8822e+00 -3.7827e+00 -2.9196e+00 -5.4679e-02 -1.5273e+00
265 +3.589356822e-03 +3.589356822e-03 +7.786135894e+02 +7.786135894e+02 -3.8490e+00 -3.7651e+00 -2.8510e+00 -3.9441e-02 -1.5371e+00
274 +1.708151007e-03 +1.708151007e-03 +7.786117082e+02 +7.786117082e+02 -3.8531e+00 -3.8038e+00 -2.8841e+00 -5.7223e-02 -1.5752e+00
326 +1.260967820e-03 +1.260967820e-03 +7.786112610e+02 +7.786112610e+02 -3.8084e+00 -3.8035e+00 -2.8790e+00 -4.2413e-02 -1.5563e+00
328 +1.206687543e-03 +1.206687543e-03 +7.786112067e+02 +7.786112067e+02 -3.8244e+00 -3.8275e+00 -2.8335e+00 -2.2397e-02 -1.5702e+00
331 +1.196835728e-03 +1.196835728e-03 +7.786111968e+02 +7.786111968e+02 -3.8271e+00 -3.8367e+00 -2.8359e+00 -3.4111e-02 -1.5460e+00
333 +5.645041076e-04 +5.645041076e-04 +7.786105645e+02 +7.786105645e+02 -3.8444e+00 -3.8316e+00 -2.8457e+00 -3.3671e-02 -1.5593e+00
377 +5.123067821e-04 +5.123067821e-04 +7.786105123e+02 +7.786105123e+02 -3.8500e+00 -3.8108e+00 -2.8662e+00 -5.1905e-02 -1.5630e+00
397 +1.739138521e-04 +1.739138521e-04 +7.786101739e+02 +7.786101739e+02 -3.8315e+00 -3.8229e+00 -2.8506e+00 -4.6621e-02 -1.5538e+00
403 +8.803766775e-05 +8.803766775e-05 +7.786100880e+02 +7.786100880e+02 -3.8266e+00 -3.8216e+00 -2.8595e+00 -3.8388e-02 -1.5581e+00
439 +1.430558416e-05 +1.430558416e-05 +7.786100143e+02 +7.786100143e+02 -3.8315e+00 -3.8169e+00 -2.8583e+00 -4.0131e-02 -1.5585e+00
535 +1.009627886e-05 +1.009627886e-05 +7.786100101e+02 +7.786100101e+02 -3.8345e+00 -3.8170e+00 -2.8599e+00 -4.1252e-02 -1.5603e+00
552 +8.288825939e-06 +8.288825939e-06 +7.786100083e+02 +7.786100083e+02 -3.8326e+00 -3.8177e+00 -2.8599e+00 -4.2580e-02 -1.5627e+00
555 +5.928612040e-06 +5.928612040e-06 +7.786100059e+02 +7.786100059e+02 -3.8315e+00 -3.8177e+00 -2.8566e+00 -4.2817e-02 -1.5626e+00
574 +5.395138942e-06 +5.395138942e-06 +7.786100054e+02 +7.786100054e+02 -3.8335e+00 -3.8178e+00 -2.8592e+00 -4.1960e-02 -1.5626e+00
578 +2.866303134e-06 +2.866303134e-06 +7.786100029e+02 +7.786100029e+02 -3.8319e+00 -3.8162e+00 -2.8578e+00 -4.1857e-02 -1.5629e+00
601 +4.662637139e-07 +4.662637139e-07 +7.786100005e+02 +7.786100005e+02 -3.8327e+00 -3.8169e+00 -2.8578e+00 -4.2138e-02 -1.5620e+00
640 +2.482443051e-07 +2.482443051e-07 +7.786100002e+02 +7.786100002e+02 -3.8327e+00 -3.8164e+00 -2.8577e+00 -4.1878e-02 -1.5615e+00
650 +1.609843139e-07 +1.609843139e-07 +7.786100002e+02 +7.786100002e+02 -3.8328e+00 -3.8165e+00 -2.8576e+00 -4.1838e-02 -1.5615e+00
692 +1.553818265e-07 +1.553818265e-07 +7.786100002e+02 +7.786100002e+02 -3.8331e+00 -3.8167e+00 -2.8576e+00 -4.1658e-02 -1.5613e+00
698 +7.925939371e-08 +7.925939371e-08 +7.786100001e+02 +7.786100001e+02 -3.8329e+00 -3.8169e+00 -2.8578e+00 -4.1654e-02 -1.5615e+00
710 +5.211609277e-08 +5.211609277e-08 +7.786100001e+02 +7.786100001e+02 -3.8329e+00 -3.8169e+00 -2.8576e+00 -4.1470e-02 -1.5615e+00
714 +4.629100658e-08 +4.629100658e-08 +7.786100000e+02 +7.786100000e+02 -3.8329e+00 -3.8168e+00 -2.8577e+00 -4.1475e-02 -1.5617e+00
715 +1.365083335e-08 +1.365083335e-08 +7.786100000e+02 +7.786100000e+02 -3.8328e+00 -3.8169e+00 -2.8577e+00 -4.1627e-02 -1.5615e+00
748 +1.137209438e-08 +1.137209438e-08 +7.786100000e+02 +7.786100000e+02 -3.8328e+00 -3.8169e+00 -2.8576e+00 -4.1536e-02 -1.5616e+00
750 +3.097284207e-09 +3.097284207e-09 +7.786100000e+02 +7.786100000e+02 -3.8328e+00 -3.8168e+00 -2.8576e+00 -4.1629e-02 -1.5616e+00
% function evaluation | noise-free fitness - Fopt (-2.051000000000e+01) | best noise-free fitness - Fopt | measured fitness | best measured fitness | x1 | x2...
1 +3.703388032e+01 +3.703388032e+01 +1.652388032e+01 +1.652388032e+01 +0.0000e+00 +0.0000e+00 +0.0000e+00 +0.0000e+00 +0.0000e+00
4 +3.298589358e+01 +3.298589358e+01 +1.247589358e+01 +1.247589358e+01 -1.9051e+00 -1.7250e-03 +2.1133e+00 +1.7017e+00 +2.4903e-01
15 +3.204118820e+01 +3.204118820e+01 +1.153118820e+01 +1.153118820e+01 -9.1376e-01 +1.1618e-01 +1.8954e-01 +1.1951e+00 +1.9308e+00
21 +2.849891210e+01 +2.849891210e+01 +7.988912103e+00 +7.988912103e+00 -1.8252e+00 +1.9825e+00 +1.4452e+00 +8.0910e-01 -6.3786e-01
26 +1.377950266e+01 +1.377950266e+01 -6.730497338e+00 -6.730497338e+00 -3.5166e+00 +1.4077e+00 +2.4002e+00 -7.1640e-01 -2.6145e-01
35 +1.067252752e+01 +1.067252752e+01 -9.837472480e+00 -9.837472480e+00 -1.4307e+00 +2.3062e+00 +2.0246e+00 -8.5847e-01 +1.1833e+00
49 +5.139018783e+00 +5.139018783e+00 -1.537098122e+01 -1.537098122e+01 -2.2202e+00 +1.2100e+00 +4.2684e+00 -2.2870e+00 +2.3708e+00
56 +3.540587975e+00 +3.540587975e+00 -1.696941203e+01 -1.696941203e+01 -2.7843e+00 +2.1736e+00 +4.0927e+00 -2.1523e+00 +2.2459e+00
57 +4.544920356e-01 +4.544920356e-01 -2.005550796e+01 -2.005550796e+01 -3.7972e+00 +1.9305e+00 +2.9083e+00 -3.0468e+00 +2.3514e+00
124 +4.192630660e-01 +4.192630660e-01 -2.009073693e+01 -2.009073693e+01 -3.7430e+00 +1.9257e+00 +2.1421e+00 -3.2042e+00 +2.6306e+00
145 +3.288108590e-01 +3.288108590e-01 -2.018118914e+01 -2.018118914e+01 -3.3487e+00 +2.2097e+00 +2.1379e+00 -2.8320e+00 +2.8655e+00
160 +1.702495405e-01 +1.702495405e-01 -2.033975046e+01 -2.033975046e+01 -3.1928e+00 +1.9319e+00 +2.3867e+00 -2.5793e+00 +2.6322e+00
163 +1.324846443e-01 +1.324846443e-01 -2.037751536e+01 -2.037751536e+01 -3.3951e+00 +2.0708e+00 +2.2796e+00 -2.8857e+00 +2.5911e+00
195 +1.098637443e-01 +1.098637443e-01 -2.040013626e+01 -2.040013626e+01 -3.3345e+00 +1.6447e+00 +2.5491e+00 -2.9479e+00 +2.4578e+00
205 +1.003082781e-01 +1.003082781e-01 -2.040969172e+01 -2.040969172e+01 -3.4618e+00 +1.7476e+00 +2.6396e+00 -2.9869e+00 +2.4471e+00
206 +8.953102386e-02 +8.953102386e-02 -2.042046898e+01 -2.042046898e+01 -3.3807e+00 +1.6628e+00 +2.5723e+00 -2.6866e+00 +2.6550e+00
208 +7.454450710e-02 +7.454450710e-02 -2.043545549e+01 -2.043545549e+01 -3.3499e+00 +1.6492e+00 +2.5376e+00 -2.8522e+00 +2.5417e+00
209 +5.740305786e-02 +5.740305786e-02 -2.045259694e+01 -2.045259694e+01 -3.3223e+00 +1.7259e+00 +2.6995e+00 -3.0235e+00 +2.6647e+00
220 +5.431312611e-02 +5.431312611e-02 -2.045568687e+01 -2.045568687e+01 -3.2799e+00 +1.7466e+00 +2.5972e+00 -2.8565e+00 +2.5249e+00
229 +3.684643609e-02 +3.684643609e-02 -2.047315356e+01 -2.047315356e+01 -3.3101e+00 +1.8079e+00 +2.3944e+00 -2.9542e+00 +2.6844e+00
232 +2.116628230e-02 +2.116628230e-02 -2.048883372e+01 -2.048883372e+01 -3.3138e+00 +1.7724e+00 +2.6462e+00 -2.8610e+00 +2.7248e+00
251 +1.890488348e-02 +1.890488348e-02 -2.049109512e+01 -2.049109512e+01 -3.3836e+00 +1.7798e+00 +2.4917e+00 -2.8311e+00 +2.6588e+00
253 +1.847985572e-02 +1.847985572e-02 -2.049152014e+01 -2.049152014e+01 -3.3269e+00 +1.8060e+00 +2.4688e+00 -2.8632e+00 +2.6355e+00
262 +1.535802697e-02 +1.535802697e-02 -2.049464197e+01 -2.049464197e+01 -3.3833e+00 +1.7778e+00 +2.5863e+00 -2.9783e+00 +2.7085e+00
273 +3.899534408e-03 +3.899534408e-03 -2.050610047e+01 -2.050610047e+01 -3.3908e+00 +1.8483e+00 +2.5972e+00 -2.8639e+00 +2.7069e+00
275 +1.587341701e-03 +1.587341701e-03 -2.050841266e+01 -2.050841266e+01 -3.3328e+00 +1.8702e+00 +2.5392e+00 -2.9142e+00 +2.6926e+00
306 +9.482559012e-04 +9.482559012e-04 -2.050905174e+01 -2.050905174e+01 -3.3566e+00 +1.8818e+00 +2.5708e+00 -2.9065e+00 +2.6737e+00
319 +7.778509606e-04 +7.778509606e-04 -2.050922215e+01 -2.050922215e+01 -3.3758e+00 +1.8692e+00 +2.5569e+00 -2.9035e+00 +2.6724e+00
352 +6.513041933e-04 +6.513041933e-04 -2.050934870e+01 -2.050934870e+01 -3.3702e+00 +1.8742e+00 +2.5654e+00 -2.9011e+00 +2.6739e+00
357 +2.734627051e-04 +2.734627051e-04 -2.050972654e+01 -2.050972654e+01 -3.3595e+00 +1.8626e+00 +2.5522e+00 -2.8914e+00 +2.6867e+00
379 +2.373078025e-04 +2.373078025e-04 -2.050976269e+01 -2.050976269e+01 -3.3728e+00 +1.8621e+00 +2.5700e+00 -2.9018e+00 +2.7008e+00
383 +1.538851669e-04 +1.538851669e-04 -2.050984611e+01 -2.050984611e+01 -3.3655e+00 +1.8629e+00 +2.5515e+00 -2.8934e+00 +2.7005e+00
387 +9.317040749e-05 +9.317040749e-05 -2.050990683e+01 -2.050990683e+01 -3.3609e+00 +1.8682e+00 +2.5633e+00 -2.8937e+00 +2.7029e+00
410 +4.228507505e-05 +4.228507505e-05 -2.050995771e+01 -2.050995771e+01 -3.3627e+00 +1.8647e+00 +2.5567e+00 -2.8974e+00 +2.7010e+00
423 +3.008004740e-06 +3.008004740e-06 -2.050999699e+01 -2.050999699e+01 -3.3624e+00 +1.8662e+00 +2.5595e+00 -2.9010e+00 +2.6973e+00
510 +9.645378327e-07 +9.645378327e-07 -2.050999904e+01 -2.050999904e+01 -3.3636e+00 +1.8673e+00 +2.5598e+00 -2.8991e+00 +2.6969e+00
573 +4.251183121e-07 +4.251183121e-07 -2.050999957e+01 -2.050999957e+01 -3.3632e+00 +1.8670e+00 +2.5602e+00 -2.9004e+00 +2.6964e+00
599 +1.211823033e-07 +1.211823033e-07 -2.050999988e+01 -2.050999988e+01 -3.3632e+00 +1.8671e+00 +2.5600e+00 -2.9003e+00 +2.6968e+00
644 +5.809691217e-08 +5.809691217e-08 -2.050999994e+01 -2.050999994e+01 -3.3633e+00 +1.8670e+00 +2.5599e+00 -2.9000e+00 +2.6969e+00
682 +2.734536864e-08 +2.734536864e-08 -2.050999997e+01 -2.050999997e+01 -3.3633e+00 +1.8671e+00 +2.5600e+00 -2.9001e+00 +2.6969e+00
697 +2.474470406e-08 +2.474470406e-08 -2.050999998e+01 -2.050999998e+01 -3.3633e+00 +1.8672e+00 +2.5599e+00 -2.9001e+00 +2.6968e+00
702 +8.341107360e-09 +8.341107360e-09 -2.050999999e+01 -2.050999999e+01 -3.3632e+00 +1.8672e+00 +2.5600e+00 -2.8999e+00 +2.6967e+00
% function evaluation | noise-free fitness - Fopt (-1.000000000000e+03) | best noise-free fitness - Fopt | measured fitness | best measured fitness | x1 | x2...
1 +3.079493120e+01 +3.079493120e+01 -9.692050688e+02 -9.692050688e+02 +0.0000e+00 +0.0000e+00 +0.0000e+00 +0.0000e+00 +0.0000e+00
2 +1.005548787e+01 +1.005548787e+01 -9.899445121e+02 -9.899445121e+02 +3.3067e-01 +3.2951e+00 -1.9655e+00 -3.1511e+00 -2.0128e-01
31 +7.211703192e+00 +7.211703192e+00 -9.927882968e+02 -9.927882968e+02 +1.8826e+00 +1.6873e+00 -1.9075e+00 -4.8859e+00 -1.7060e+00
38 +3.051421480e+00 +3.051421480e+00 -9.969485785e+02 -9.969485785e+02 +2.2388e+00 +1.1607e+00 -2.7035e+00 -2.5419e+00 -9.5854e-01
50 +2.175024149e+00 +2.175024149e+00 -9.978249759e+02 -9.978249759e+02 +1.9202e+00 +1.4047e+00 -2.4702e+00 -2.6876e+00 -3.0615e+00
58 +1.709628066e+00 +1.709628066e+00 -9.982903719e+02 -9.982903719e+02 +2.1700e+00 +2.1277e+00 -2.0000e+00 -3.5198e+00 -2.2286e+00
60 +1.185321011e+00 +1.185321011e+00 -9.988146790e+02 -9.988146790e+02 +3.4415e+00 +2.5360e+00 -3.0299e+00 -2.7927e+00 -2.2787e+00
85 +1.060860523e+00 +1.060860523e+00 -9.989391395e+02 -9.989391395e+02 +2.7043e+00 +2.2784e+00 -3.0202e+00 -3.5143e+00 -2.0370e+00
88 +1.032807953e+00 +1.032807953e+00 -9.989671920e+02 -9.989671920e+02 +2.4288e+00 +2.5822e+00 -2.6065e+00 -3.5357e+00 -2.3003e+00
92 +8.575350694e-01 +8.575350694e-01 -9.991424649e+02 -9.991424649e+02 +1.8960e+00 +1.9182e+00 -2.6286e+00 -2.0472e+00 -1.9425e+00
100 +7.628777150e-01 +7.628777150e-01 -9.992371223e+02 -9.992371223e+02 +1.7778e+00 +2.4996e+00 -2.2261e+00 -2.5202e+00 -2.1019e+00
117 +4.064382116e-01 +4.064382116e-01 -9.995935618e+02 -9.995935618e+02 +2.5832e+00 +2.7055e+00 -3.3062e+00 -2.5371e+00 -2.3726e+00
140 +2.060994511e-01 +2.060994511e-01 -9.997939005e+02 -9.997939005e+02 +2.3828e+00 +2.5819e+00 -2.8430e+00 -2.9768e+00 -2.1058e+00
143 +1.931227215e-01 +1.931227215e-01 -9.998068773e+02 -9.998068773e+02 +2.2812e+00 +2.5486e+00 -2.9554e+00 -2.7556e+00 -2.4807e+00
145 +1.190500741e-01 +1.190500741e-01 -9.998809499e+02 -9.998809499e+02 +2.2433e+00 +2.5841e+00 -2.7930e+00 -2.3931e+00 -2.3339e+00
146 +8.004650538e-02 +8.004650538e-02 -9.999199535e+02 -9.999199535e+02 +2.3371e+00 +2.4877e+00 -2.8207e+00 -2.8243e+00 -2.1490e+00
198 +1.361204916e-02 +1.361204916e-02 -9.999863880e+02 -9.999863880e+02 +2.3729e+00 +2.3140e+00 -2.8269e+00 -2.5075e+00 -2.1776e+00
259 +1.231251056e-02 +1.231251056e-02 -9.999876875e+02 -9.999876875e+02 +2.4020e+00 +2.3916e+00 -2.8375e+00 -2.4620e+00 -2.1423e+00
276 +1.212462928e-02 +1.212462928e-02 -9.999878754e+02 -9.999878754e+02 +2.4807e+00 +2.4533e+00 -2.8580e+00 -2.5274e+00 -2.2084e+00
278 +4.840948438e-03 +4.840948438e-03 -9.999951591e+02 -9.999951591e+02 +2.4762e+00 +2.4143e+00 -2.8308e+00 -2.5861e+00 -2.1749e+00
290 +4.186533135e-03 +4.186533135e-03 -9.999958135e+02 -9.999958135e+02 +2.4334e+00 +2.4032e+00 -2.8136e+00 -2.6241e+00 -2.1480e+00
300 +3.035138292e-03 +3.035138292e-03 -9.999969649e+02 -9.999969649e+02 +2.4443e+00 +2.3635e+00 -2.8305e+00 -2.5603e+00 -2.1716e+00
303 +1.516375733e-03 +1.516375733e-03 -9.999984836e+02 -9.999984836e+02 +2.4086e+00 +2.4135e+00 -2.8218e+00 -2.6019e+00 -2.1651e+00
322 +4.263127075e-04 +4.263127075e-04 -9.999995737e+02 -9.999995737e+02 +2.4155e+00 +2.3876e+00 -2.8092e+00 -2.5729e+00 -2.1590e+00
351 +2.385020997e-04 +2.385020997e-04 -9.999997615e+02 -9.999997615e+02 +2.4058e+00 +2.4104e+00 -2.8072e+00 -2.5555e+00 -2.1625e+00
400 +2.084584712e-04 +2.084584712e-04 -9.999997915e+02 -9.999997915e+02 +2.4123e+00 +2.4105e+00 -2.8244e+00 -2.5677e+00 -2.1712e+00
402 +1.688826114e-04 +1.688826114e-04 -9.999998311e+02 -9.999998311e+02 +2.4142e+00 +2.3941e+00 -2.8123e+00 -2.5705e+00 -2.1726e+00
412 +1.549355562e-04 +1.549355562e-04 -9.999998451e+02 -9.999998451e+02 +2.4140e+00 +2.4012e+00 -2.8089e+00 -2.5718e+00 -2.1769e+00
415 +1.416424011e-04 +1.416424011e-04 -9.999998584e+02 -9.999998584e+02 +2.4103e+00 +2.4019e+00 -2.8171e+00 -2.5670e+00 -2.1769e+00
419 +1.325277887e-04 +1.325277887e-04 -9.999998675e+02 -9.999998675e+02 +2.4114e+00 +2.4043e+00 -2.8135e+00 -2.5706e+00 -2.1772e+00
424 +6.922353361e-05 +6.922353361e-05 -9.999999308e+02 -9.999999308e+02 +2.4119e+00 +2.4069e+00 -2.8095e+00 -2.5731e+00 -2.1674e+00
447 +4.085711214e-05 +4.085711214e-05 -9.999999591e+02 -9.999999591e+02 +2.4134e+00 +2.4005e+00 -2.8108e+00 -2.5614e+00 -2.1690e+00
450 +2.665329930e-05 +2.665329930e-05 -9.999999733e+02 -9.999999733e+02 +2.4116e+00 +2.4018e+00 -2.8142e+00 -2.5654e+00 -2.1702e+00
458 +1.866449850e-05 +1.866449850e-05 -9.999999813e+02 -9.999999813e+02 +2.4121e+00 +2.4033e+00 -2.8115e+00 -2.5680e+00 -2.1643e+00
463 +1.767730510e-05 +1.767730510e-05 -9.999999823e+02 -9.999999823e+02 +2.4162e+00 +2.4025e+00 -2.8136e+00 -2.5673e+00 -2.1679e+00
474 +1.180900779e-05 +1.180900779e-05 -9.999999882e+02 -9.999999882e+02 +2.4150e+00 +2.4027e+00 -2.8140e+00 -2.5666e+00 -2.1666e+00
476 +1.028444808e-05 +1.028444808e-05 -9.999999897e+02 -9.999999897e+02 +2.4143e+00 +2.4032e+00 -2.8127e+00 -2.5662e+00 -2.1647e+00
487 +6.977326393e-06 +6.977326393e-06 -9.999999930e+02 -9.999999930e+02 +2.4131e+00 +2.4061e+00 -2.8110e+00 -2.5674e+00 -2.1663e+00
491 +2.236050364e-06 +2.236050364e-06 -9.999999978e+02 -9.999999978e+02 +2.4128e+00 +2.4045e+00 -2.8114e+00 -2.5645e+00 -2.1673e+00
527 +1.928735401e-06 +1.928735401e-06 -9.999999981e+02 -9.999999981e+02 +2.4139e+00 +2.4037e+00 -2.8123e+00 -2.5659e+00 -2.1665e+00
530 +1.706045509e-06 +1.706045509e-06 -9.999999983e+02 -9.999999983e+02 +2.4132e+00 +2.4040e+00 -2.8115e+00 -2.5662e+00 -2.1667e+00
568 +1.525857328e-06 +1.525857328e-06 -9.999999985e+02 -9.999999985e+02 +2.4139e+00 +2.4059e+00 -2.8119e+00 -2.5652e+00 -2.1675e+00
570 +1.275136356e-06 +1.275136356e-06 -9.999999987e+02 -9.999999987e+02 +2.4133e+00 +2.4052e+00 -2.8113e+00 -2.5656e+00 -2.1665e+00
578 +1.237509423e-06 +1.237509423e-06 -9.999999988e+02 -9.999999988e+02 +2.4134e+00 +2.4052e+00 -2.8112e+00 -2.5657e+00 -2.1666e+00
593 +3.725964461e-07 +3.725964461e-07 -9.999999996e+02 -9.999999996e+02 +2.4132e+00 +2.4050e+00 -2.8116e+00 -2.5655e+00 -2.1672e+00
598 +2.861886514e-07 +2.861886514e-07 -9.999999997e+02 -9.999999997e+02 +2.4136e+00 +2.4053e+00 -2.8121e+00 -2.5657e+00 -2.1670e+00
612 +2.352323918e-07 +2.352323918e-07 -9.999999998e+02 -9.999999998e+02 +2.4136e+00 +2.4051e+00 -2.8120e+00 -2.5653e+00 -2.1672e+00
622 +6.249968010e-08 +6.249968010e-08 -9.999999999e+02 -9.999999999e+02 +2.4136e+00 +2.4049e+00 -2.8120e+00 -2.5657e+00 -2.1670e+00
691 +3.392005965e-08 +3.392005965e-08 -1.000000000e+03 -1.000000000e+03 +2.4135e+00 +2.4048e+00 -2.8121e+00 -2.5656e+00 -2.1673e+00
704 +2.220792794e-08 +2.220792794e-08 -1.000000000e+03 -1.000000000e+03 +2.4136e+00 +2.4048e+00 -2.8120e+00 -2.5655e+00 -2.1671e+00
732 +1.200157840e-08 +1.200157840e-08 -1.000000000e+03 -1.000000000e+03 +2.4135e+00 +2.4048e+00 -2.8120e+00 -2.5656e+00 -2.1672e+00
750 +1.165301455e-08 +1.165301455e-08 -1.000000000e+03 -1.000000000e+03 +2.4136e+00 +2.4049e+00 -2.8120e+00 -2.5656e+00 -2.1672e+00
763 +7.889184417e-09 +7.889184417e-09 -1.000000000e+03 -1.000000000e+03 +2.4136e+00 +2.4048e+00 -2.8120e+00 -2.5656e+00 -2.1673e+00
% function evaluation | noise-free fitness - Fopt (-1.730800000000e+02) | best noise-free fitness - Fopt | measured fitness | best measured fitness | x1 | x2...
1 +4.298789888e+01 +4.298789888e+01 -1.300921011e+02 -1.300921011e+02 +0.0000e+00 +0.0000e+00 +0.0000e+00 +0.0000e+00 +0.0000e+00
4 +4.102758281e+01 +4.102758281e+01 -1.320524172e+02 -1.320524172e+02 +1.4479e+00 -1.4397e+00 +2.1348e+00 +1.7271e+00 +2.7287e+00
7 +2.477269646e+01 +2.477269646e+01 -1.483073035e+02 -1.483073035e+02 -1.5498e+00 -4.0527e+00 -1.5655e+00 +2.5003e+00 -2.7938e+00
11 +8.036580079e+00 +8.036580079e+00 -1.650434199e+02 -1.650434199e+02 -3.0756e+00 -3.1151e+00 -8.4243e-01 +2.1088e+00 +7.6626e-01
29 +5.419913598e+00 +5.419913598e+00 -1.676600864e+02 -1.676600864e+02 -3.2784e+00 -5.5643e+00 +1.3612e+00 +4.3577e+00 -6.5175e-01
33 +5.296948841e+00 +5.296948841e+00 -1.677830512e+02 -1.677830512e+02 -4.0167e+00 -2.2767e+00 +3.4852e-01 +2.7494e+00 +1.6084e+00
34 +4.198971374e+00 +4.198971374e+00 -1.688810286e+02 -1.688810286e+02 -4.7613e+00 -2.7094e+00 +1.5115e+00 +3.5537e+00 +1.8362e+00
44 +2.927450316e+00 +2.927450316e+00 -1.701525497e+02 -1.701525497e+02 -4.5118e+00 -4.8558e+00 +1.2031e+00 +3.2109e+00 +8.0256e-01
91 +1.699876598e+00 +1.699876598e+00 -1.713801234e+02 -1.713801234e+02 -3.8212e+00 -3.5395e+00 +1.8836e+00 +3.6023e+00 -5.8629e-01
101 +1.290068685e+00 +1.290068685e+00 -1.717899313e+02 -1.717899313e+02 -4.1256e+00 -4.5159e+00 +1.4414e+00 +3.6885e+00 +1.2550e-01
112 +5.639861280e-01 +5.639861280e-01 -1.725160139e+02 -1.725160139e+02 -3.6169e+00 -3.2503e+00 +1.7546e+00 +4.0428e+00 +8.1025e-01
118 +2.844436092e-01 +2.844436092e-01 -1.727955564e+02 -1.727955564e+02 -3.2848e+00 -3.8429e+00 +1.0618e+00 +3.7627e+00 +7.5420e-01
132 +2.319508880e-01 +2.319508880e-01 -1.728480491e+02 -1.728480491e+02 -3.8737e+00 -3.3081e+00 +1.0319e+00 +3.7085e+00 +3.8835e-01
160 +1.546848927e-01 +1.546848927e-01 -1.729253151e+02 -1.729253151e+02 -3.6203e+00 -3.5520e+00 +1.2683e+00 +3.6427e+00 +7.5948e-01
167 +7.719947718e-02 +7.719947718e-02 -1.730028005e+02 -1.730028005e+02 -3.3910e+00 -3.5812e+00 +1.2668e+00 +3.9710e+00 +5.9774e-01
170 +4.995836036e-02 +4.995836036e-02 -1.730300416e+02 -1.730300416e+02 -3.8140e+00 -3.6836e+00 +1.1380e+00 +3.8841e+00 +4.9116e-01
196 +2.831551649e-02 +2.831551649e-02 -1.730516845e+02 -1.730516845e+02 -3.5613e+00 -3.7511e+00 +1.2178e+00 +3.8377e+00 +5.2007e-01
207 +1.560483123e-02 +1.560483123e-02 -1.730643952e+02 -1.730643952e+02 -3.6855e+00 -3.6054e+00 +1.1688e+00 +3.8286e+00 +5.3739e-01
227 +1.292845805e-02 +1.292845805e-02 -1.730670715e+02 -1.730670715e+02 -3.6500e+00 -3.5303e+00 +1.1509e+00 +3.8600e+00 +4.5256e-01
241 +1.245370465e-02 +1.245370465e-02 -1.730675463e+02 -1.730675463e+02 -3.5959e+00 -3.6589e+00 +1.2823e+00 +3.8275e+00 +4.5591e-01
242 +4.120942516e-03 +4.120942516e-03 -1.730758791e+02 -1.730758791e+02 -3.6711e+00 -3.6427e+00 +1.1991e+00 +3.8985e+00 +4.7833e-01
247 +3.438797650e-03 +3.438797650e-03 -1.730765612e+02 -1.730765612e+02 -3.6311e+00 -3.5574e+00 +1.2216e+00 +3.8903e+00 +4.5845e-01
280 +2.667249426e-03 +2.667249426e-03 -1.730773328e+02 -1.730773328e+02 -3.6248e+00 -3.5805e+00 +1.2018e+00 +3.9040e+00 +4.3161e-01
285 +1.885589040e-03 +1.885589040e-03 -1.730781144e+02 -1.730781144e+02 -3.6388e+00 -3.6065e+00 +1.2310e+00 +3.8704e+00 +4.5062e-01
288 +1.023519621e-03 +1.023519621e-03 -1.730789765e+02 -1.730789765e+02 -3.6334e+00 -3.6225e+00 +1.1870e+00 +3.8884e+00 +4.7195e-01
308 +9.935098567e-04 +9.935098567e-04 -1.730790065e+02 -1.730790065e+02 -3.6399e+00 -3.6111e+00 +1.2081e+00 +3.9082e+00 +4.5288e-01
314 +6.211252571e-04 +6.211252571e-04 -1.730793789e+02 -1.730793789e+02 -3.6303e+00 -3.6183e+00 +1.2276e+00 +3.9065e+00 +4.7043e-01
326 +5.301941117e-04 +5.301941117e-04 -1.730794698e+02 -1.730794698e+02 -3.6256e+00 -3.6019e+00 +1.2022e+00 +3.8788e+00 +4.6804e-01
328 +1.739454553e-04 +1.739454553e-04 -1.730798261e+02 -1.730798261e+02 -3.6170e+00 -3.6198e+00 +1.2134e+00 +3.9030e+00 +4.6267e-01
386 +8.283091827e-05 +8.283091827e-05 -1.730799172e+02 -1.730799172e+02 -3.6120e+00 -3.6174e+00 +1.2101e+00 +3.8942e+00 +4.7493e-01
392 +2.385317393e-05 +2.385317393e-05 -1.730799761e+02 -1.730799761e+02 -3.6170e+00 -3.6158e+00 +1.2120e+00 +3.8972e+00 +4.6742e-01
436 +1.985326136e-05 +1.985326136e-05 -1.730799801e+02 -1.730799801e+02 -3.6155e+00 -3.6083e+00 +1.2108e+00 +3.8934e+00 +4.7047e-01
450 +6.087356496e-06 +6.087356496e-06 -1.730799939e+02 -1.730799939e+02 -3.6163e+00 -3.6129e+00 +1.2101e+00 +3.8940e+00 +4.7116e-01
495 +2.743187991e-06 +2.743187991e-06 -1.730799973e+02 -1.730799973e+02 -3.6168e+00 -3.6120e+00 +1.2098e+00 +3.8947e+00 +4.7029e-01
509 +2.078768972e-06 +2.078768972e-06 -1.730799979e+02 -1.730799979e+02 -3.6179e+00 -3.6120e+00 +1.2114e+00 +3.8961e+00 +4.6958e-01
515 +8.072713626e-07 +8.072713626e-07 -1.730799992e+02 -1.730799992e+02 -3.6171e+00 -3.6117e+00 +1.2118e+00 +3.8954e+00 +4.7006e-01
541 +7.555150034e-07 +7.555150034e-07 -1.730799992e+02 -1.730799992e+02 -3.6169e+00 -3.6120e+00 +1.2117e+00 +3.8953e+00 +4.7032e-01
546 +4.656966155e-07 +4.656966155e-07 -1.730799995e+02 -1.730799995e+02 -3.6166e+00 -3.6116e+00 +1.2113e+00 +3.8955e+00 +4.7004e-01
564 +4.497471195e-07 +4.497471195e-07 -1.730799996e+02 -1.730799996e+02 -3.6167e+00 -3.6115e+00 +1.2114e+00 +3.8950e+00 +4.7001e-01
565 +1.804133944e-07 +1.804133944e-07 -1.730799998e+02 -1.730799998e+02 -3.6169e+00 -3.6117e+00 +1.2114e+00 +3.8954e+00 +4.6958e-01
584 +7.272251423e-08 +7.272251423e-08 -1.730799999e+02 -1.730799999e+02 -3.6169e+00 -3.6118e+00 +1.2112e+00 +3.8952e+00 +4.6972e-01
624 +6.280052389e-08 +6.280052389e-08 -1.730799999e+02 -1.730799999e+02 -3.6168e+00 -3.6121e+00 +1.2113e+00 +3.8954e+00 +4.6973e-01
631 +1.730251142e-08 +1.730251142e-08 -1.730800000e+02 -1.730800000e+02 -3.6167e+00 -3.6120e+00 +1.2113e+00 +3.8952e+00 +4.6967e-01
632 +7.884466413e-09 +7.884466413e-09 -1.730800000e+02 -1.730800000e+02 -3.6168e+00 -3.6120e+00 +1.2112e+00 +3.8952e+00 +4.6968e-01
% function evaluation | noise-free fitness - Fopt (5.309000000000e+01) | best noise-free fitness - Fopt | measured fitness | best measured fitness | x1 | x2...
1 +2.976110016e+01 +2.976110016e+01 +8.285110016e+01 +8.285110016e+01 +0.0000e+00 +0.0000e+00 +0.0000e+00 +0.0000e+00 +0.0000e+00
9 +2.451007893e+01 +2.451007893e+01 +7.760007893e+01 +7.760007893e+01 -3.3418e+00 +5.2779e-01 +5.9547e-01 -2.3597e+00 +1.5514e+00
11 +1.046942058e+01 +1.046942058e+01 +6.355942058e+01 +6.355942058e+01 -2.8602e+00 -3.4372e+00 +1.1335e+00 -2.1724e+00 -1.1559e+00
36 +1.015918361e+01 +1.015918361e+01 +6.324918361e+01 +6.324918361e+01 -3.6551e+00 -2.3892e+00 -2.4583e-01 -1.9743e+00 -2.9925e-01
43 +7.138330973e+00 +7.138330973e+00 +6.022833097e+01 +6.022833097e+01 -2.9462e+00 -2.7973e+00 -1.2604e+00 -1.9388e+00 -2.5278e-01
47 +6.701986387e+00 +6.701986387e+00 +5.979198639e+01 +5.979198639e+01 -2.0755e+00 -2.3111e+00 +5.7310e-01 -2.3522e+00 -6.2473e-01
49 +6.569450435e+00 +6.569450435e+00 +5.965945043e+01 +5.965945043e+01 -2.0326e+00 -2.8781e+00 +8.9629e-01 -2.3908e+00 -7.1485e-01
52 +2.393181341e+00 +2.393181341e+00 +5.548318134e+01 +5.548318134e+01 -1.1074e+00 -3.0478e+00 +6.8183e-01 -3.7493e+00 -1.3898e-02
68 +6.497439133e-01 +6.497439133e-01 +5.373974391e+01 +5.373974391e+01 -1.4643e+00 -3.0022e+00 -7.3493e-01 -4.1041e+00 +1.0419e+00
100 +4.416854175e-01 +4.416854175e-01 +5.353168542e+01 +5.353168542e+01 -1.4871e+00 -3.7954e+00 -1.0849e+00 -3.9628e+00 +9.0258e-01
119 +2.980481443e-01 +2.980481443e-01 +5.338804814e+01 +5.338804814e+01 -1.7132e+00 -3.5584e+00 -1.0236e+00 -3.6546e+00 +2.8277e-01
129 +2.916484981e-01 +2.916484981e-01 +5.338164850e+01 +5.338164850e+01 -1.4066e+00 -3.4028e+00 -5.8843e-01 -3.6630e+00 +4.1542e-02
130 +2.350096921e-01 +2.350096921e-01 +5.332500969e+01 +5.332500969e+01 -1.3471e+00 -3.3541e+00 -5.6292e-01 -3.3722e+00 +4.7293e-01
138 +1.074617892e-01 +1.074617892e-01 +5.319746179e+01 +5.319746179e+01 -1.3590e+00 -3.5999e+00 -5.3688e-01 -3.5314e+00 +4.2454e-01
139 +5.554215355e-02 +5.554215355e-02 +5.314554215e+01 +5.314554215e+01 -1.5730e+00 -3.4336e+00 -7.9267e-01 -3.7656e+00 +6.2854e-01
172 +2.795440386e-02 +2.795440386e-02 +5.311795440e+01 +5.311795440e+01 -1.5576e+00 -3.6252e+00 -6.3821e-01 -3.7417e+00 +4.2835e-01
184 +2.743428409e-02 +2.743428409e-02 +5.311743428e+01 +5.311743428e+01 -1.4781e+00 -3.4910e+00 -7.7831e-01 -3.7876e+00 +5.6656e-01
193 +1.265767501e-02 +1.265767501e-02 +5.310265768e+01 +5.310265768e+01 -1.4298e+00 -3.5854e+00 -5.6502e-01 -3.7476e+00 +5.8825e-01
232 +8.355885552e-03 +8.355885552e-03 +5.309835589e+01 +5.309835589e+01 -1.5278e+00 -3.5248e+00 -6.9774e-01 -3.7916e+00 +5.1450e-01
241 +3.622970834e-03 +3.622970834e-03 +5.309362297e+01 +5.309362297e+01 -1.5236e+00 -3.5469e+00 -6.5053e-01 -3.7772e+00 +5.7686e-01
253 +2.998534331e-03 +2.998534331e-03 +5.309299853e+01 +5.309299853e+01 -1.4747e+00 -3.5588e+00 -6.2366e-01 -3.7415e+00 +5.5386e-01
266 +2.524750524e-03 +2.524750524e-03 +5.309252475e+01 +5.309252475e+01 -1.5247e+00 -3.5161e+00 -6.3118e-01 -3.7652e+00 +5.3852e-01
269 +2.241569146e-03 +2.241569146e-03 +5.309224157e+01 +5.309224157e+01 -1.4697e+00 -3.5225e+00 -6.4559e-01 -3.7552e+00 +5.4170e-01
275 +2.089114531e-03 +2.089114531e-03 +5.309208911e+01 +5.309208911e+01 -1.4872e+00 -3.5331e+00 -6.5577e-01 -3.7626e+00 +5.5632e-01
289 +8.207332380e-04 +8.207332380e-04 +5.309082073e+01 +5.309082073e+01 -1.4998e+00 -3.5438e+00 -6.3499e-01 -3.7697e+00 +5.5040e-01
307 +7.335898203e-04 +7.335898203e-04 +5.309073359e+01 +5.309073359e+01 -1.4916e+00 -3.5393e+00 -6.4766e-01 -3.7833e+00 +5.3998e-01
315 +7.073378063e-05 +7.073378063e-05 +5.309007073e+01 +5.309007073e+01 -1.4947e+00 -3.5364e+00 -6.2441e-01 -3.7893e+00 +5.3946e-01
410 +2.545793902e-05 +2.545793902e-05 +5.309002546e+01 +5.309002546e+01 -1.4878e+00 -3.5338e+00 -6.2271e-01 -3.7891e+00 +5.4464e-01
443 +2.268448950e-05 +2.268448950e-05 +5.309002268e+01 +5.309002268e+01 -1.4890e+00 -3.5379e+00 -6.2473e-01 -3.7908e+00 +5.4398e-01
450 +9.171743535e-06 +9.171743535e-06 +5.309000917e+01 +5.309000917e+01 -1.4860e+00 -3.5352e+00 -6.2273e-01 -3.7884e+00 +5.4219e-01
495 +5.795224673e-06 +5.795224673e-06 +5.309000580e+01 +5.309000580e+01 -1.4863e+00 -3.5379e+00 -6.2310e-01 -3.7887e+00 +5.4319e-01
513 +4.061375783e-06 +4.061375783e-06 +5.309000406e+01 +5.309000406e+01 -1.4867e+00 -3.5365e+00 -6.2099e-01 -3.7888e+00 +5.4306e-01
522 +2.544185975e-06 +2.544185975e-06 +5.309000254e+01 +5.309000254e+01 -1.4870e+00 -3.5365e+00 -6.2196e-01 -3.7883e+00 +5.4260e-01
544 +1.372440352e-06 +1.372440352e-06 +5.309000137e+01 +5.309000137e+01 -1.4864e+00 -3.5376e+00 -6.2147e-01 -3.7880e+00 +5.4188e-01
559 +7.556790393e-07 +7.556790393e-07 +5.309000076e+01 +5.309000076e+01 -1.4869e+00 -3.5381e+00 -6.2149e-01 -3.7882e+00 +5.4162e-01
561 +6.664791670e-07 +6.664791670e-07 +5.309000067e+01 +5.309000067e+01 -1.4874e+00 -3.5381e+00 -6.2183e-01 -3.7886e+00 +5.4212e-01
586 +5.369834142e-07 +5.369834142e-07 +5.309000054e+01 +5.309000054e+01 -1.4871e+00 -3.5376e+00 -6.2155e-01 -3.7881e+00 +5.4146e-01
615 +4.699048546e-07 +4.699048546e-07 +5.309000047e+01 +5.309000047e+01 -1.4870e+00 -3.5371e+00 -6.2124e-01 -3.7891e+00 +5.4159e-01
631 +2.737682578e-07 +2.737682578e-07 +5.309000027e+01 +5.309000027e+01 -1.4872e+00 -3.5374e+00 -6.2181e-01 -3.7885e+00 +5.4191e-01
632 +1.666182143e-07 +1.666182143e-07 +5.309000017e+01 +5.309000017e+01 -1.4871e+00 -3.5375e+00 -6.2165e-01 -3.7889e+00 +5.4125e-01
659 +1.209805447e-07 +1.209805447e-07 +5.309000012e+01 +5.309000012e+01 -1.4874e+00 -3.5375e+00 -6.2156e-01 -3.7888e+00 +5.4182e-01
664 +9.965279446e-08 +9.965279446e-08 +5.309000010e+01 +5.309000010e+01 -1.4873e+00 -3.5376e+00 -6.2142e-01 -3.7886e+00 +5.4148e-01
671 +8.550868102e-08 +8.550868102e-08 +5.309000009e+01 +5.309000009e+01 -1.4871e+00 -3.5374e+00 -6.2167e-01 -3.7888e+00 +5.4179e-01
678 +4.764209649e-08 +4.764209649e-08 +5.309000005e+01 +5.309000005e+01 -1.4871e+00 -3.5376e+00 -6.2144e-01 -3.7889e+00 +5.4167e-01
690 +3.401173387e-08 +3.401173387e-08 +5.309000003e+01 +5.309000003e+01 -1.4872e+00 -3.5378e+00 -6.2162e-01 -3.7887e+00 +5.4168e-01
697 +2.679897904e-08 +2.679897904e-08 +5.309000003e+01 +5.309000003e+01 -1.4873e+00 -3.5376e+00 -6.2146e-01 -3.7888e+00 +5.4155e-01
700 +1.604528421e-08 +1.604528421e-08 +5.309000002e+01 +5.309000002e+01 -1.4873e+00 -3.5376e+00 -6.2168e-01 -3.7888e+00 +5.4163e-01
704 +1.330408850e-08 +1.330408850e-08 +5.309000001e+01 +5.309000001e+01 -1.4871e+00 -3.5376e+00 -6.2160e-01 -3.7887e+00 +5.4159e-01
709 +1.275575556e-08 +1.275575556e-08 +5.309000001e+01 +5.309000001e+01 -1.4872e+00 -3.5377e+00 -6.2154e-01 -3.7888e+00 +5.4155e-01
729 +1.190843335e-08 +1.190843335e-08 +5.309000001e+01 +5.309000001e+01 -1.4872e+00 -3.5377e+00 -6.2153e-01 -3.7888e+00 +5.4155e-01
736 +6.633349869e-09 +6.633349869e-09 +5.309000001e+01 +5.309000001e+01 -1.4872e+00 -3.5376e+00 -6.2161e-01 -3.7888e+00 +5.4167e-01
