% f evaluations | g evaluations | best noise-free fitness - Fopt (6.870000000000e+000) + sum g_i+ | measured fitness | best measured fitness or single-digit g-values | x1 | x2...
1 0 +7.650603866e+001 +8.337603866e+001 +8.337603866e+001 +5.0000e+000 -5.0000e+000
2 0 +2.272417143e+001 +2.959417143e+001 +2.959417143e+001 -5.0000e+000 -5.0000e+000
3 0 +2.067904420e+001 +2.754904420e+001 +2.754904420e+001 +5.0000e+000 +5.0000e+000
4 0 +1.586229008e+001 +2.273229008e+001 +2.273229008e+001 -5.0000e+000 +5.0000e+000
15 0 +1.495699417e+001 +2.182699417e+001 +2.182699417e+001 -3.3959e+000 +5.0000e+000
18 0 +9.531873059e+000 +1.640187306e+001 +1.640187306e+001 -4.1903e+000 +5.0000e+000
19 0 +2.169080466e+000 +9.039080466e+000 +9.039080466e+000 -4.0923e+000 +5.0000e+000
84 0 +1.790647747e+000 +8.660647747e+000 +8.660647747e+000 -4.0917e+000 +5.0000e+000
87 0 +1.716466379e+000 +8.586466379e+000 +8.586466379e+000 -4.0917e+000 +5.0000e+000
110 0 +1.321956389e+000 +8.191956389e+000 +8.191956389e+000 -4.0912e+000 +5.0000e+000
121 0 +1.265375257e+000 +8.135375257e+000 +8.135375257e+000 -4.0911e+000 +5.0000e+000
131 0 +1.235446907e+000 +8.105446907e+000 +8.105446907e+000 -4.0907e+000 +5.0000e+000
163 0 +1.026292471e+000 +7.896292471e+000 +7.896292471e+000 -4.0909e+000 +5.0000e+000
171 0 +1.000376021e+000 +7.870376021e+000 +7.870376021e+000 -4.0909e+000 +5.0000e+000
203 0 +9.982935788e-001 +7.868293579e+000 +7.868293579e+000 -4.0909e+000 +5.0000e+000
232 0 +9.757680772e-001 +7.845768077e+000 +7.845768077e+000 -4.0909e+000 +5.0000e+000
1203 0 +6.358387997e-001 +7.505838800e+000 +7.505838800e+000 +4.0776e-001 +1.7467e+000
2032 0 +5.960285826e-001 +7.466028583e+000 +7.466028583e+000 +4.0776e-001 +1.7467e+000
2152 0 +5.513970827e-001 +7.421397083e+000 +7.421397083e+000 +4.0776e-001 +1.7467e+000
2157 0 +4.529229000e-001 +7.322922900e+000 +7.322922900e+000 +4.0776e-001 +1.7468e+000
2165 0 +4.212665522e-001 +7.291266552e+000 +7.291266552e+000 +4.0776e-001 +1.7468e+000
2166 0 +2.309768541e-001 +7.100976854e+000 +7.100976854e+000 +4.0776e-001 +1.7469e+000
2177 0 +2.238667812e-001 +7.093866781e+000 +7.093866781e+000 +4.0776e-001 +1.7469e+000
2209 0 +2.173607880e-001 +7.087360788e+000 +7.087360788e+000 +4.0776e-001 +1.7469e+000
2216 0 +2.133137692e-001 +7.083313769e+000 +7.083313769e+000 +4.0776e-001 +1.7469e+000
6733 0 +2.019117299e-001 +7.071911730e+000 +7.071911730e+000 -6.1254e-001 -4.5145e+000
6742 0 +1.928620608e-001 +7.062862061e+000 +7.062862061e+000 -6.1261e-001 -4.5145e+000
6754 0 +1.777581727e-001 +7.047758173e+000 +7.047758173e+000 -6.1257e-001 -4.5145e+000
6798 0 +1.659197888e-001 +7.035919789e+000 +7.035919789e+000 -6.1258e-001 -4.5145e+000
6812 0 +1.566349466e-001 +7.026634947e+000 +7.026634947e+000 -6.1259e-001 -4.5145e+000
7101 0 +1.548571503e-001 +7.024857150e+000 +7.024857150e+000 -6.1257e-001 -4.5145e+000
7121 0 +1.510882020e-001 +7.021088202e+000 +7.021088202e+000 -6.1253e-001 -4.5145e+000
7129 0 +1.458960228e-001 +7.015896023e+000 +7.015896023e+000 -6.1249e-001 -4.5146e+000
7133 0 +1.414913215e-001 +7.011491322e+000 +7.011491322e+000 -6.1245e-001 -4.5146e+000
7137 0 +1.401158085e-001 +7.010115808e+000 +7.010115808e+000 -6.1243e-001 -4.5146e+000
7140 0 +1.356019864e-001 +7.005601986e+000 +7.005601986e+000 -6.1238e-001 -4.5146e+000
7141 0 +1.210250369e-001 +6.991025037e+000 +6.991025037e+000 -6.1225e-001 -4.5147e+000
7143 0 +1.179285365e-001 +6.987928537e+000 +6.987928537e+000 -6.1223e-001 -4.5147e+000
7144 0 +1.121170116e-001 +6.982117012e+000 +6.982117012e+000 -6.1218e-001 -4.5148e+000
7146 0 +1.074683627e-001 +6.977468363e+000 +6.977468363e+000 -6.1215e-001 -4.5148e+000
7147 0 +9.431734542e-002 +6.964317345e+000 +6.964317345e+000 -6.1203e-001 -4.5149e+000
7148 0 +7.954910620e-002 +6.949549106e+000 +6.949549106e+000 -6.1190e-001 -4.5150e+000
7150 0 +7.783131741e-002 +6.947831317e+000 +6.947831317e+000 -6.1188e-001 -4.5150e+000
7151 0 +7.678490129e-002 +6.946784901e+000 +6.946784901e+000 -6.1188e-001 -4.5150e+000
7153 0 +6.343156975e-002 +6.933431570e+000 +6.933431570e+000 -6.1177e-001 -4.5150e+000
7156 0 +3.920268836e-002 +6.909202688e+000 +6.909202688e+000 -6.1159e-001 -4.5152e+000
7160 0 +1.027051546e-002 +6.880270515e+000 +6.880270515e+000 -6.1136e-001 -4.5153e+000
7180 0 +1.009554585e-002 +6.880095546e+000 +6.880095546e+000 -6.1141e-001 -4.5153e+000
7195 0 +7.949335338e-003 +6.877949335e+000 +6.877949335e+000 -6.1139e-001 -4.5153e+000
7199 0 +6.202214367e-003 +6.876202214e+000 +6.876202214e+000 -6.1139e-001 -4.5153e+000
7254 0 +6.102284851e-003 +6.876102285e+000 +6.876102285e+000 -6.1139e-001 -4.5153e+000
7275 0 +5.841142242e-003 +6.875841142e+000 +6.875841142e+000 -6.1139e-001 -4.5153e+000
7283 0 +5.717587900e-003 +6.875717588e+000 +6.875717588e+000 -6.1138e-001 -4.5153e+000
7309 0 +5.534061552e-003 +6.875534062e+000 +6.875534062e+000 -6.1138e-001 -4.5153e+000
7327 0 +2.212922435e-003 +6.872212922e+000 +6.872212922e+000 -6.1138e-001 -4.5153e+000
7347 0 +1.856711982e-003 +6.871856712e+000 +6.871856712e+000 -6.1138e-001 -4.5153e+000
7363 0 +1.803993142e-003 +6.871803993e+000 +6.871803993e+000 -6.1138e-001 -4.5153e+000
7367 0 +1.728803202e-003 +6.871728803e+000 +6.871728803e+000 -6.1138e-001 -4.5153e+000
7378 0 +1.575748805e-003 +6.871575749e+000 +6.871575749e+000 -6.1138e-001 -4.5153e+000
7379 0 +1.065716869e-003 +6.871065717e+000 +6.871065717e+000 -6.1139e-001 -4.5153e+000
7380 0 +1.040732167e-003 +6.871040732e+000 +6.871040732e+000 -6.1139e-001 -4.5153e+000
7381 0 +9.763810031e-004 +6.870976381e+000 +6.870976381e+000 -6.1139e-001 -4.5153e+000
7382 0 +6.519335212e-004 +6.870651934e+000 +6.870651934e+000 -6.1139e-001 -4.5153e+000
7401 0 +6.341412933e-004 +6.870634141e+000 +6.870634141e+000 -6.1139e-001 -4.5153e+000
7413 0 +3.928849070e-004 +6.870392885e+000 +6.870392885e+000 -6.1139e-001 -4.5153e+000
7448 0 +2.560664726e-004 +6.870256066e+000 +6.870256066e+000 -6.1139e-001 -4.5153e+000
7450 0 +1.751431798e-004 +6.870175143e+000 +6.870175143e+000 -6.1139e-001 -4.5153e+000
7455 0 +2.976770986e-005 +6.870029768e+000 +6.870029768e+000 -6.1139e-001 -4.5153e+000
7516 0 +2.820165413e-005 +6.870028202e+000 +6.870028202e+000 -6.1139e-001 -4.5153e+000
7548 0 +1.867733508e-005 +6.870018677e+000 +6.870018677e+000 -6.1139e-001 -4.5153e+000
7553 0 +1.146492735e-005 +6.870011465e+000 +6.870011465e+000 -6.1139e-001 -4.5153e+000
7567 0 +4.729686528e-006 +6.870004730e+000 +6.870004730e+000 -6.1139e-001 -4.5153e+000
7592 0 +4.342877014e-006 +6.870004343e+000 +6.870004343e+000 -6.1139e-001 -4.5153e+000
7641 0 +3.926385088e-006 +6.870003926e+000 +6.870003926e+000 -6.1139e-001 -4.5153e+000
7659 0 +3.174702861e-006 +6.870003175e+000 +6.870003175e+000 -6.1139e-001 -4.5153e+000
7669 0 +2.177759544e-006 +6.870002178e+000 +6.870002178e+000 -6.1139e-001 -4.5153e+000
7685 0 +1.412326528e-006 +6.870001412e+000 +6.870001412e+000 -6.1139e-001 -4.5153e+000
7688 0 +1.285727421e-006 +6.870001286e+000 +6.870001286e+000 -6.1139e-001 -4.5153e+000
7690 0 +5.452769667e-007 +6.870000545e+000 +6.870000545e+000 -6.1139e-001 -4.5153e+000
7714 0 +5.073469627e-007 +6.870000507e+000 +6.870000507e+000 -6.1139e-001 -4.5153e+000
7723 0 +9.904684450e-008 +6.870000099e+000 +6.870000099e+000 -6.1139e-001 -4.5153e+000
7742 0 +7.689485138e-008 +6.870000077e+000 +6.870000077e+000 -6.1139e-001 -4.5153e+000
7752 0 +7.196118990e-008 +6.870000072e+000 +6.870000072e+000 -6.1139e-001 -4.5153e+000
7753 0 +5.463151798e-008 +6.870000055e+000 +6.870000055e+000 -6.1139e-001 -4.5153e+000
7774 0 +3.954352046e-008 +6.870000040e+000 +6.870000040e+000 -6.1139e-001 -4.5153e+000
7777 0 +3.183374631e-008 +6.870000032e+000 +6.870000032e+000 -6.1139e-001 -4.5153e+000
7780 0 +3.076486887e-008 +6.870000031e+000 +6.870000031e+000 -6.1139e-001 -4.5153e+000
7785 0 +2.987908587e-008 +6.870000030e+000 +6.870000030e+000 -6.1139e-001 -4.5153e+000
7800 0 +2.015032052e-008 +6.870000020e+000 +6.870000020e+000 -6.1139e-001 -4.5153e+000
7801 0 +1.035722530e-008 +6.870000010e+000 +6.870000010e+000 -6.1139e-001 -4.5153e+000
7814 0 +4.770360995e-009 +6.870000005e+000 +6.870000005e+000 -6.1139e-001 -4.5153e+000
% f evaluations | g evaluations | best noise-free fitness - Fopt (1.000000000000e-002) + sum g_i+ | measured fitness | best measured fitness or single-digit g-values | x1 | x2...
1 0 +2.913228677e+001 +2.914228677e+001 +2.914228677e+001 +5.0000e+000 -5.0000e+000
4 0 +2.649298325e+001 +2.650298325e+001 +2.650298325e+001 +1.2161e+000 -4.2180e+000
8 0 +2.254268897e+001 +2.255268897e+001 +2.255268897e+001 +1.6303e+000 +5.0000e+000
9 0 +1.172494290e+001 +1.173494290e+001 +1.173494290e+001 +1.6906e+000 +5.0000e+000
20 0 +6.108584442e+000 +6.118584442e+000 +6.118584442e+000 +1.5587e+000 -4.6392e+000
96 0 +5.973444112e+000 +5.983444112e+000 +5.983444112e+000 +2.6115e+000 -4.3214e+000
98 0 +5.014444518e+000 +5.024444518e+000 +5.024444518e+000 +2.5938e+000 -4.3154e+000
138 0 +2.284119497e+000 +2.294119497e+000 +2.294119497e+000 +2.0148e+000 -3.5755e+000
407 0 +5.050802922e-001 +5.150802922e-001 +5.150802922e-001 +1.1437e+000 -4.8331e+000
1218 0 +3.928166437e-001 +4.028166437e-001 +4.028166437e-001 +1.1442e+000 -4.8333e+000
1219 0 +3.721660699e-001 +3.821660699e-001 +3.821660699e-001 +1.1443e+000 -4.8333e+000
1235 0 +3.471501179e-001 +3.571501179e-001 +3.571501179e-001 +1.1446e+000 -4.8334e+000
1239 0 +2.129575210e-001 +2.229575210e-001 +2.229575210e-001 +1.1452e+000 -4.8336e+000
1240 0 +1.217738374e-001 +1.317738374e-001 +1.317738374e-001 +1.1462e+000 -4.8341e+000
1247 0 +9.861083818e-002 +1.086108382e-001 +1.086108382e-001 +1.1463e+000 -4.8342e+000
1252 0 +8.720653144e-002 +9.720653144e-002 +9.720653144e-002 +1.1457e+000 -4.8339e+000
1318 0 +5.386078718e-002 +6.386078718e-002 +6.386078718e-002 +1.1458e+000 -4.8339e+000
1337 0 +5.289003576e-002 +6.289003576e-002 +6.289003576e-002 +1.1462e+000 -4.8341e+000
1354 0 +4.579813098e-002 +5.579813098e-002 +5.579813098e-002 +1.1460e+000 -4.8340e+000
1357 0 +3.004412718e-002 +4.004412718e-002 +4.004412718e-002 +1.1460e+000 -4.8339e+000
1372 0 +1.650231672e-002 +2.650231672e-002 +2.650231672e-002 +1.1460e+000 -4.8340e+000
1398 0 +2.149534671e-003 +1.214953467e-002 +1.214953467e-002 +1.1460e+000 -4.8340e+000
1427 0 +1.199102739e-003 +1.119910274e-002 +1.119910274e-002 +1.1460e+000 -4.8340e+000
1449 0 +9.547900893e-004 +1.095479009e-002 +1.095479009e-002 +1.1460e+000 -4.8340e+000
1510 0 +6.737207680e-004 +1.067372077e-002 +1.067372077e-002 +1.1460e+000 -4.8340e+000
1531 0 +5.284310768e-004 +1.052843108e-002 +1.052843108e-002 +1.1460e+000 -4.8340e+000
1535 0 +3.578253500e-004 +1.035782535e-002 +1.035782535e-002 +1.1460e+000 -4.8340e+000
1538 0 +2.585791081e-004 +1.025857911e-002 +1.025857911e-002 +1.1460e+000 -4.8340e+000
1561 0 +1.839125768e-004 +1.018391258e-002 +1.018391258e-002 +1.1460e+000 -4.8340e+000
1562 0 +7.894369074e-005 +1.007894369e-002 +1.007894369e-002 +1.1460e+000 -4.8340e+000
1575 0 +6.611724041e-005 +1.006611724e-002 +1.006611724e-002 +1.1460e+000 -4.8340e+000
1591 0 +5.463757269e-005 +1.005463757e-002 +1.005463757e-002 +1.1460e+000 -4.8340e+000
1612 0 +2.814473343e-005 +1.002814473e-002 +1.002814473e-002 +1.1460e+000 -4.8340e+000
1624 0 +2.694927738e-005 +1.002694928e-002 +1.002694928e-002 +1.1460e+000 -4.8340e+000
1663 0 +1.885215041e-005 +1.001885215e-002 +1.001885215e-002 +1.1460e+000 -4.8340e+000
1692 0 +1.231917845e-005 +1.001231918e-002 +1.001231918e-002 +1.1460e+000 -4.8340e+000
1704 0 +4.423300496e-006 +1.000442330e-002 +1.000442330e-002 +1.1460e+000 -4.8340e+000
1721 0 +3.420701783e-006 +1.000342070e-002 +1.000342070e-002 +1.1460e+000 -4.8340e+000
1740 0 +3.230004328e-006 +1.000323000e-002 +1.000323000e-002 +1.1460e+000 -4.8340e+000
1743 0 +1.336724124e-006 +1.000133672e-002 +1.000133672e-002 +1.1460e+000 -4.8340e+000
1760 0 +1.778964365e-007 +1.000017790e-002 +1.000017790e-002 +1.1460e+000 -4.8340e+000
1785 0 +1.644404396e-007 +1.000016444e-002 +1.000016444e-002 +1.1460e+000 -4.8340e+000
1830 0 +8.149077746e-008 +1.000008149e-002 +1.000008149e-002 +1.1460e+000 -4.8340e+000
1846 0 +6.429100474e-008 +1.000006429e-002 +1.000006429e-002 +1.1460e+000 -4.8340e+000
1874 0 +4.918197460e-008 +1.000004918e-002 +1.000004918e-002 +1.1460e+000 -4.8340e+000
1886 0 +4.187426683e-008 +1.000004187e-002 +1.000004187e-002 +1.1460e+000 -4.8340e+000
1888 0 +3.106425672e-009 +1.000000311e-002 +1.000000311e-002 +1.1460e+000 -4.8340e+000
% f evaluations | g evaluations | best noise-free fitness - Fopt (-1.306100000000e+002) + sum g_i+ | measured fitness | best measured fitness or single-digit g-values | x1 | x2...
1 0 +6.251310353e+001 -6.809689647e+001 -6.809689647e+001 -5.0000e+000 -5.0000e+000
3 0 +3.639290106e+001 -9.421709894e+001 -9.421709894e+001 -5.0000e+000 +5.0000e+000
6 0 +1.698651493e+001 -1.136234851e+002 -1.136234851e+002 -2.4275e-002 +5.0000e+000
10 0 +7.140326546e+000 -1.234696735e+002 -1.234696735e+002 -5.8038e-001 +3.0404e+000
42 0 +5.315317042e+000 -1.252946830e+002 -1.252946830e+002 +4.4410e+000 +1.6434e+000
144 0 +4.516417510e+000 -1.260935825e+002 -1.260935825e+002 +4.8163e+000 +1.8428e+000
181 0 +3.801874628e+000 -1.268081254e+002 -1.268081254e+002 +9.2498e-001 +6.3845e-001
192 0 +3.500594939e+000 -1.271094051e+002 -1.271094051e+002 -3.8896e+000 +3.7831e+000
255 0 +2.568833779e+000 -1.280411662e+002 -1.280411662e+002 +1.4217e+000 -3.4164e+000
278 0 +2.381888935e+000 -1.282281111e+002 -1.282281111e+002 -7.9170e-002 -2.0560e+000
542 0 +2.093219677e+000 -1.285167803e+002 -1.285167803e+002 +1.6958e-001 -4.4347e+000
706 0 +1.025678721e+000 -1.295843213e+002 -1.295843213e+002 +4.4789e+000 +1.9447e+000
1047 0 +4.908126162e-001 -1.301191874e+002 -1.301191874e+002 +4.8943e+000 +1.7192e+000
1795 0 +4.422181777e-001 -1.301677818e+002 -1.301677818e+002 +4.8943e+000 +1.7190e+000
1839 0 +3.667079933e-001 -1.302432920e+002 -1.302432920e+002 +4.9683e+000 +1.6189e+000
2790 0 +2.461275940e-001 -1.303638724e+002 -1.303638724e+002 +4.9685e+000 +1.6187e+000
2904 0 +2.116861707e-001 -1.303983138e+002 -1.303983138e+002 +4.9686e+000 +1.6186e+000
2919 0 +1.881439255e-001 -1.304218561e+002 -1.304218561e+002 +4.9687e+000 +1.6185e+000
2927 0 +1.531999917e-001 -1.304568000e+002 -1.304568000e+002 +4.9687e+000 +1.6185e+000
2928 0 +1.332637466e-001 -1.304767363e+002 -1.304767363e+002 +4.9688e+000 +1.6184e+000
2931 0 +1.005931121e-001 -1.305094069e+002 -1.305094069e+002 +4.9688e+000 +1.6184e+000
2977 0 +7.515168030e-002 -1.305348483e+002 -1.305348483e+002 +4.9688e+000 +1.6182e+000
2985 0 +5.645696830e-002 -1.305535430e+002 -1.305535430e+002 +4.9689e+000 +1.6183e+000
2995 0 +3.904221229e-002 -1.305709578e+002 -1.305709578e+002 +4.9689e+000 +1.6182e+000
2996 0 +3.112516497e-002 -1.305788748e+002 -1.305788748e+002 +4.9689e+000 +1.6181e+000
3016 0 +2.617059182e-002 -1.305838294e+002 -1.305838294e+002 +4.9689e+000 +1.6181e+000
3027 0 +5.822531472e-003 -1.306041775e+002 -1.306041775e+002 +4.9689e+000 +1.6181e+000
3031 0 +4.945705171e-003 -1.306050543e+002 -1.306050543e+002 +4.9689e+000 +1.6181e+000
3098 0 +4.647340180e-003 -1.306053527e+002 -1.306053527e+002 +4.9689e+000 +1.6181e+000
3105 0 +4.341558744e-003 -1.306056584e+002 -1.306056584e+002 +4.9689e+000 +1.6181e+000
3106 0 +3.482262301e-003 -1.306065177e+002 -1.306065177e+002 +4.9689e+000 +1.6181e+000
3156 0 +1.552996221e-003 -1.306084470e+002 -1.306084470e+002 +4.9689e+000 +1.6181e+000
3157 0 +1.241882664e-003 -1.306087581e+002 -1.306087581e+002 +4.9689e+000 +1.6181e+000
3197 0 +1.229027765e-003 -1.306087710e+002 -1.306087710e+002 +4.9689e+000 +1.6181e+000
3228 0 +6.347091905e-004 -1.306093653e+002 -1.306093653e+002 +4.9689e+000 +1.6181e+000
3232 0 +3.490659670e-004 -1.306096509e+002 -1.306096509e+002 +4.9689e+000 +1.6181e+000
3234 0 +2.691892818e-004 -1.306097308e+002 -1.306097308e+002 +4.9689e+000 +1.6181e+000
3245 0 +2.457767044e-004 -1.306097542e+002 -1.306097542e+002 +4.9689e+000 +1.6181e+000
3289 0 +2.136337819e-004 -1.306097864e+002 -1.306097864e+002 +4.9689e+000 +1.6181e+000
3304 0 +1.413393616e-004 -1.306098587e+002 -1.306098587e+002 +4.9689e+000 +1.6181e+000
3344 0 +7.385456132e-005 -1.306099261e+002 -1.306099261e+002 +4.9689e+000 +1.6181e+000
3355 0 +7.126979796e-005 -1.306099287e+002 -1.306099287e+002 +4.9689e+000 +1.6181e+000
3375 0 +6.375671853e-005 -1.306099362e+002 -1.306099362e+002 +4.9689e+000 +1.6181e+000
3378 0 +6.259904418e-005 -1.306099374e+002 -1.306099374e+002 +4.9689e+000 +1.6181e+000
3380 0 +2.970357215e-005 -1.306099703e+002 -1.306099703e+002 +4.9689e+000 +1.6181e+000
3423 0 +1.753079630e-005 -1.306099825e+002 -1.306099825e+002 +4.9689e+000 +1.6181e+000
3438 0 +1.716311303e-005 -1.306099828e+002 -1.306099828e+002 +4.9689e+000 +1.6181e+000
3442 0 +1.275130430e-005 -1.306099872e+002 -1.306099872e+002 +4.9689e+000 +1.6181e+000
3485 0 +1.098829128e-005 -1.306099890e+002 -1.306099890e+002 +4.9689e+000 +1.6181e+000
3490 0 +4.519102788e-006 -1.306099955e+002 -1.306099955e+002 +4.9689e+000 +1.6181e+000
3497 0 +4.255506298e-006 -1.306099957e+002 -1.306099957e+002 +4.9689e+000 +1.6181e+000
3500 0 +8.446051822e-007 -1.306099992e+002 -1.306099992e+002 +4.9689e+000 +1.6181e+000
3540 0 +7.437723468e-007 -1.306099993e+002 -1.306099993e+002 +4.9689e+000 +1.6181e+000
3546 0 +2.954944023e-007 -1.306099997e+002 -1.306099997e+002 +4.9689e+000 +1.6181e+000
3558 0 +2.621036117e-007 -1.306099997e+002 -1.306099997e+002 +4.9689e+000 +1.6181e+000
3568 0 +1.903744931e-007 -1.306099998e+002 -1.306099998e+002 +4.9689e+000 +1.6181e+000
3578 0 +1.810635979e-007 -1.306099998e+002 -1.306099998e+002 +4.9689e+000 +1.6181e+000
3609 0 +1.760503210e-007 -1.306099998e+002 -1.306099998e+002 +4.9689e+000 +1.6181e+000
3634 0 +1.721583374e-007 -1.306099998e+002 -1.306099998e+002 +4.9689e+000 +1.6181e+000
3635 0 +1.207653781e-007 -1.306099999e+002 -1.306099999e+002 +4.9689e+000 +1.6181e+000
3641 0 +1.148134743e-007 -1.306099999e+002 -1.306099999e+002 +4.9689e+000 +1.6181e+000
3645 0 +7.645979849e-008 -1.306099999e+002 -1.306099999e+002 +4.9689e+000 +1.6181e+000
3647 0 +2.782113029e-008 -1.306100000e+002 -1.306100000e+002 +4.9689e+000 +1.6181e+000
3687 0 +2.109794650e-008 -1.306100000e+002 -1.306100000e+002 +4.9689e+000 +1.6181e+000
3705 0 +1.321066634e-008 -1.306100000e+002 -1.306100000e+002 +4.9689e+000 +1.6181e+000
3732 0 +1.124300297e-008 -1.306100000e+002 -1.306100000e+002 +4.9689e+000 +1.6181e+000
3734 0 +7.493895282e-009 -1.306100000e+002 -1.306100000e+002 +4.9689e+000 +1.6181e+000
% f evaluations | g evaluations | best noise-free fitness - Fopt (-2.231200000000e+002) + sum g_i+ | measured fitness | best measured fitness or single-digit g-values | x1 | x2...
1 0 +2.243060042e+001 -2.006893996e+002 -2.006893996e+002 -5.0000e+000 -5.0000e+000
3 0 +1.604996818e+001 -2.070700318e+002 -2.070700318e+002 -5.0000e+000 +5.0000e+000
4 0 +1.203685324e+001 -2.110831468e+002 -2.110831468e+002 +1.8365e+000 -5.3145e-002
11 0 +5.825949946e+000 -2.172940501e+002 -2.172940501e+002 +1.8365e+000 +1.7319e+000
29 0 +1.074008121e+000 -2.220459919e+002 -2.220459919e+002 -1.0662e+000 +1.7340e+000
1466 0 +9.539581687e-001 -2.221660418e+002 -2.221660418e+002 -1.0778e+000 +1.7278e+000
2625 0 +5.611460520e-001 -2.225588539e+002 -2.225588539e+002 -1.0721e+000 +1.7308e+000
2763 0 +4.722531990e-001 -2.226477468e+002 -2.226477468e+002 -1.0729e+000 +1.7305e+000
2809 0 +4.407257125e-001 -2.226792743e+002 -2.226792743e+002 -1.0733e+000 +1.7302e+000
2828 0 +4.204228657e-001 -2.226995771e+002 -2.226995771e+002 -1.0732e+000 +1.7303e+000
2849 0 +4.069462343e-001 -2.227130538e+002 -2.227130538e+002 -1.0732e+000 +1.7303e+000
2865 0 +3.284220190e-001 -2.227915780e+002 -2.227915780e+002 -1.0732e+000 +1.7299e+000
2868 0 +2.845609058e-001 -2.228354391e+002 -2.228354391e+002 -1.0732e+000 +1.7299e+000
2869 0 +2.716257999e-001 -2.228483742e+002 -2.228483742e+002 -1.0731e+000 +1.7300e+000
2873 0 +2.371826055e-001 -2.228828174e+002 -2.228828174e+002 -1.0731e+000 +1.7300e+000
2877 0 +2.282532716e-001 -2.228917467e+002 -2.228917467e+002 -1.0731e+000 +1.7300e+000
2881 0 +1.475268160e-001 -2.229724732e+002 -2.229724732e+002 -1.0731e+000 +1.7301e+000
2883 0 +9.271982188e-002 -2.230272802e+002 -2.230272802e+002 -1.0726e+000 +1.7303e+000
2889 0 +6.997041627e-002 -2.230500296e+002 -2.230500296e+002 -1.0727e+000 +1.7303e+000
2898 0 +6.873235178e-002 -2.230512676e+002 -2.230512676e+002 -1.0722e+000 +1.7305e+000
2901 0 +4.546343969e-002 -2.230745366e+002 -2.230745366e+002 -1.0725e+000 +1.7304e+000
2918 0 +2.671050777e-002 -2.230932895e+002 -2.230932895e+002 -1.0725e+000 +1.7304e+000
2941 0 +2.608520879e-002 -2.230939148e+002 -2.230939148e+002 -1.0725e+000 +1.7304e+000
2942 0 +1.411988155e-002 -2.231058801e+002 -2.231058801e+002 -1.0725e+000 +1.7303e+000
2958 0 +1.232281648e-002 -2.231076772e+002 -2.231076772e+002 -1.0725e+000 +1.7304e+000
2960 0 +1.172315468e-002 -2.231082768e+002 -2.231082768e+002 -1.0725e+000 +1.7304e+000
3005 0 +1.099188518e-002 -2.231090081e+002 -2.231090081e+002 -1.0725e+000 +1.7304e+000
3023 0 +1.082890534e-002 -2.231091711e+002 -2.231091711e+002 -1.0725e+000 +1.7304e+000
3035 0 +1.063833325e-002 -2.231093617e+002 -2.231093617e+002 -1.0725e+000 +1.7304e+000
3037 0 +9.282038382e-003 -2.231107180e+002 -2.231107180e+002 -1.0725e+000 +1.7304e+000
3041 0 +8.792160042e-003 -2.231112078e+002 -2.231112078e+002 -1.0725e+000 +1.7304e+000
3048 0 +6.570315633e-003 -2.231134297e+002 -2.231134297e+002 -1.0725e+000 +1.7304e+000
3060 0 +5.575926307e-003 -2.231144241e+002 -2.231144241e+002 -1.0725e+000 +1.7304e+000
3062 0 +5.448361600e-003 -2.231145516e+002 -2.231145516e+002 -1.0725e+000 +1.7304e+000
3076 0 +5.244363240e-003 -2.231147556e+002 -2.231147556e+002 -1.0725e+000 +1.7304e+000
3080 0 +4.181864252e-003 -2.231158181e+002 -2.231158181e+002 -1.0725e+000 +1.7304e+000
3084 0 +4.097897599e-003 -2.231159021e+002 -2.231159021e+002 -1.0725e+000 +1.7304e+000
3087 0 +2.452879513e-003 -2.231175471e+002 -2.231175471e+002 -1.0725e+000 +1.7304e+000
3098 0 +1.471699123e-003 -2.231185283e+002 -2.231185283e+002 -1.0725e+000 +1.7304e+000
3100 0 +1.272098735e-003 -2.231187279e+002 -2.231187279e+002 -1.0725e+000 +1.7304e+000
3123 0 +8.010096573e-004 -2.231191990e+002 -2.231191990e+002 -1.0725e+000 +1.7304e+000
3128 0 +5.768509944e-004 -2.231194231e+002 -2.231194231e+002 -1.0725e+000 +1.7304e+000
3153 0 +5.175887804e-004 -2.231194824e+002 -2.231194824e+002 -1.0725e+000 +1.7304e+000
3162 0 +5.089136683e-004 -2.231194911e+002 -2.231194911e+002 -1.0725e+000 +1.7304e+000
3166 0 +4.777042048e-004 -2.231195223e+002 -2.231195223e+002 -1.0725e+000 +1.7304e+000
3185 0 +3.481475788e-004 -2.231196519e+002 -2.231196519e+002 -1.0725e+000 +1.7304e+000
3191 0 +3.089471774e-004 -2.231196911e+002 -2.231196911e+002 -1.0725e+000 +1.7304e+000
3194 0 +2.937982781e-004 -2.231197062e+002 -2.231197062e+002 -1.0725e+000 +1.7304e+000
3196 0 +2.564693264e-004 -2.231197435e+002 -2.231197435e+002 -1.0725e+000 +1.7304e+000
3201 0 +1.278036200e-004 -2.231198722e+002 -2.231198722e+002 -1.0725e+000 +1.7304e+000
3211 0 +1.068544701e-004 -2.231198931e+002 -2.231198931e+002 -1.0725e+000 +1.7304e+000
3238 0 +7.568838632e-005 -2.231199243e+002 -2.231199243e+002 -1.0725e+000 +1.7304e+000
3245 0 +5.578713609e-005 -2.231199442e+002 -2.231199442e+002 -1.0725e+000 +1.7304e+000
3247 0 +4.709408356e-005 -2.231199529e+002 -2.231199529e+002 -1.0725e+000 +1.7304e+000
3249 0 +2.142560081e-005 -2.231199786e+002 -2.231199786e+002 -1.0725e+000 +1.7304e+000
3286 0 +1.956753366e-005 -2.231199804e+002 -2.231199804e+002 -1.0725e+000 +1.7304e+000
3319 0 +1.383340847e-005 -2.231199862e+002 -2.231199862e+002 -1.0725e+000 +1.7304e+000
3331 0 +1.324798257e-005 -2.231199868e+002 -2.231199868e+002 -1.0725e+000 +1.7304e+000
3332 0 +1.187639248e-005 -2.231199881e+002 -2.231199881e+002 -1.0725e+000 +1.7304e+000
3333 0 +1.024065494e-005 -2.231199898e+002 -2.231199898e+002 -1.0725e+000 +1.7304e+000
3339 0 +7.259157826e-006 -2.231199927e+002 -2.231199927e+002 -1.0725e+000 +1.7304e+000
3346 0 +7.191848852e-006 -2.231199928e+002 -2.231199928e+002 -1.0725e+000 +1.7304e+000
3355 0 +1.812630614e-006 -2.231199982e+002 -2.231199982e+002 -1.0725e+000 +1.7304e+000
3366 0 +1.112940168e-006 -2.231199989e+002 -2.231199989e+002 -1.0725e+000 +1.7304e+000
3376 0 +8.082883198e-007 -2.231199992e+002 -2.231199992e+002 -1.0725e+000 +1.7304e+000
3403 0 +6.660274039e-007 -2.231199993e+002 -2.231199993e+002 -1.0725e+000 +1.7304e+000
3424 0 +4.683706436e-007 -2.231199995e+002 -2.231199995e+002 -1.0725e+000 +1.7304e+000
3442 0 +4.093789983e-007 -2.231199996e+002 -2.231199996e+002 -1.0725e+000 +1.7304e+000
3444 0 +3.189902316e-007 -2.231199997e+002 -2.231199997e+002 -1.0725e+000 +1.7304e+000
3473 0 +8.158147580e-008 -2.231199999e+002 -2.231199999e+002 -1.0725e+000 +1.7304e+000
3480 0 +1.948865247e-008 -2.231200000e+002 -2.231200000e+002 -1.0725e+000 +1.7304e+000
3493 0 +1.150260687e-008 -2.231200000e+002 -2.231200000e+002 -1.0725e+000 +1.7304e+000
3526 0 +9.491003539e-009 -2.231200000e+002 -2.231200000e+002 -1.0725e+000 +1.7304e+000
% f evaluations | g evaluations | best noise-free fitness - Fopt (-4.443000000000e+001) + sum g_i+ | measured fitness | best measured fitness or single-digit g-values | x1 | x2...
1 0 +3.200390999e+001 -1.242609001e+001 -1.242609001e+001 -5.0000e+000 +5.0000e+000
8 0 +4.216829829e+000 -4.021317017e+001 -4.021317017e+001 -5.0000e+000 +4.0337e+000
136 0 +3.179339672e+000 -4.125066033e+001 -4.125066033e+001 -4.9837e+000 +4.0179e+000
155 0 +2.608158063e+000 -4.182184194e+001 -4.182184194e+001 -4.9830e+000 +4.0179e+000
174 0 +1.434841284e+000 -4.299515872e+001 -4.299515872e+001 -4.9893e+000 +4.0249e+000
193 0 +1.027601196e+000 -4.340239880e+001 -4.340239880e+001 -4.9952e+000 +4.0304e+000
311 0 +7.997052501e-001 -4.363029475e+001 -4.363029475e+001 -4.9950e+000 +4.0307e+000
316 0 +7.342664923e-001 -4.369573351e+001 -4.369573351e+001 -4.9941e+000 +4.0301e+000
323 0 +6.456069093e-001 -4.378439309e+001 -4.378439309e+001 -4.9962e+000 +4.0320e+000
326 0 +5.120739241e-001 -4.391792608e+001 -4.391792608e+001 -4.9960e+000 +4.0319e+000
341 0 +1.007227122e-001 -4.432927729e+001 -4.432927729e+001 -4.9969e+000 +4.0333e+000
354 0 +8.203132528e-002 -4.434796867e+001 -4.434796867e+001 -4.9970e+000 +4.0335e+000
396 0 +7.311469651e-002 -4.435688530e+001 -4.435688530e+001 -4.9972e+000 +4.0337e+000
407 0 +5.265214267e-002 -4.437734786e+001 -4.437734786e+001 -4.9972e+000 +4.0337e+000
415 0 +1.373961570e-002 -4.441626038e+001 -4.441626038e+001 -4.9971e+000 +4.0336e+000
462 0 +4.601623950e-003 -4.442539838e+001 -4.442539838e+001 -4.9971e+000 +4.0336e+000
466 0 +1.901793822e-003 -4.442809821e+001 -4.442809821e+001 -4.9971e+000 +4.0336e+000
533 0 +1.350328185e-003 -4.442864967e+001 -4.442864967e+001 -4.9971e+000 +4.0336e+000
537 0 +1.219926397e-003 -4.442878007e+001 -4.442878007e+001 -4.9971e+000 +4.0336e+000
568 0 +6.381537839e-004 -4.442936185e+001 -4.442936185e+001 -4.9971e+000 +4.0336e+000
627 0 +1.663319282e-004 -4.442983367e+001 -4.442983367e+001 -4.9971e+000 +4.0336e+000
641 0 +5.293924588e-005 -4.442994706e+001 -4.442994706e+001 -4.9971e+000 +4.0336e+000
712 0 +4.805790169e-005 -4.442995194e+001 -4.442995194e+001 -4.9971e+000 +4.0336e+000
718 0 +4.162735331e-005 -4.442995837e+001 -4.442995837e+001 -4.9971e+000 +4.0336e+000
726 0 +1.149561931e-005 -4.442998850e+001 -4.442998850e+001 -4.9971e+000 +4.0336e+000
771 0 +1.003916940e-005 -4.442998996e+001 -4.442998996e+001 -4.9971e+000 +4.0336e+000
789 0 +7.539313430e-006 -4.442999246e+001 -4.442999246e+001 -4.9971e+000 +4.0336e+000
799 0 +5.220402002e-006 -4.442999478e+001 -4.442999478e+001 -4.9971e+000 +4.0336e+000
807 0 +4.646685312e-006 -4.442999535e+001 -4.442999535e+001 -4.9971e+000 +4.0336e+000
817 0 +2.249239451e-006 -4.442999775e+001 -4.442999775e+001 -4.9971e+000 +4.0336e+000
839 0 +2.021697973e-006 -4.442999798e+001 -4.442999798e+001 -4.9971e+000 +4.0336e+000
851 0 +1.544326743e-006 -4.442999846e+001 -4.442999846e+001 -4.9971e+000 +4.0336e+000
882 0 +1.371095543e-006 -4.442999863e+001 -4.442999863e+001 -4.9971e+000 +4.0336e+000
902 0 +1.242833584e-006 -4.442999876e+001 -4.442999876e+001 -4.9971e+000 +4.0336e+000
912 0 +1.125637581e-006 -4.442999887e+001 -4.442999887e+001 -4.9971e+000 +4.0336e+000
914 0 +9.385615201e-007 -4.442999906e+001 -4.442999906e+001 -4.9971e+000 +4.0336e+000
917 0 +9.158293111e-007 -4.442999908e+001 -4.442999908e+001 -4.9971e+000 +4.0336e+000
918 0 +8.653962738e-007 -4.442999913e+001 -4.442999913e+001 -4.9971e+000 +4.0336e+000
925 0 +8.494781554e-007 -4.442999915e+001 -4.442999915e+001 -4.9971e+000 +4.0336e+000
930 0 +4.058855438e-007 -4.442999959e+001 -4.442999959e+001 -4.9971e+000 +4.0336e+000
933 0 +2.139651016e-007 -4.442999979e+001 -4.442999979e+001 -4.9971e+000 +4.0336e+000
941 0 +9.097018250e-008 -4.442999991e+001 -4.442999991e+001 -4.9971e+000 +4.0336e+000
977 0 +6.502060046e-008 -4.442999993e+001 -4.442999993e+001 -4.9971e+000 +4.0336e+000
992 0 +5.242061718e-008 -4.442999995e+001 -4.442999995e+001 -4.9971e+000 +4.0336e+000
1026 0 +1.745338096e-008 -4.442999998e+001 -4.442999998e+001 -4.9971e+000 +4.0336e+000
1044 0 +1.730987975e-008 -4.442999998e+001 -4.442999998e+001 -4.9971e+000 +4.0336e+000
1053 0 +7.290388737e-009 -4.442999999e+001 -4.442999999e+001 -4.9971e+000 +4.0336e+000
% f evaluations | g evaluations | best noise-free fitness - Fopt (2.557800000000e+002) + sum g_i+ | measured fitness | best measured fitness or single-digit g-values | x1 | x2...
1 0 +2.315794286e+001 +2.789379429e+002 +2.789379429e+002 -5.0000e+000 -5.0000e+000
12 0 +2.145675260e+001 +2.772367526e+002 +2.772367526e+002 +1.9383e+000 -5.0000e+000
22 0 +1.483101987e+001 +2.706110199e+002 +2.706110199e+002 -5.0000e+000 -4.5488e+000
24 0 +1.213741575e+001 +2.679174158e+002 +2.679174158e+002 +4.2677e+000 -4.5488e+000
26 0 +7.094982304e+000 +2.628749823e+002 +2.628749823e+002 +4.9839e+000 -5.0000e+000
27 0 +6.960080564e+000 +2.627400806e+002 +2.627400806e+002 +4.9838e+000 -5.0000e+000
44 0 +6.139111067e+000 +2.619191111e+002 +2.619191111e+002 +3.9133e+000 -4.9766e+000
46 0 +2.521585478e+000 +2.583015855e+002 +2.583015855e+002 +4.9784e+000 -5.0000e+000
69 0 +2.416904968e+000 +2.581969050e+002 +2.581969050e+002 +4.9785e+000 -5.0000e+000
72 0 +1.857050471e+000 +2.576370505e+002 +2.576370505e+002 +4.9795e+000 -5.0000e+000
205 0 +1.813727618e+000 +2.575937276e+002 +2.575937276e+002 +4.9795e+000 -5.0000e+000
1157 0 +1.345381982e+000 +2.571253820e+002 +2.571253820e+002 -4.1980e-001 -1.1052e-001
2090 0 +1.164200523e+000 +2.569442005e+002 +2.569442005e+002 -4.1938e-001 -1.1020e-001
2112 0 +1.111968433e+000 +2.568919684e+002 +2.568919684e+002 -4.1929e-001 -1.1013e-001
2135 0 +1.048149068e+000 +2.568281491e+002 +2.568281491e+002 -4.1978e-001 -1.1077e-001
2138 0 +9.963203863e-001 +2.567763204e+002 +2.567763204e+002 -4.1969e-001 -1.1071e-001
2184 0 +9.144465765e-001 +2.566944466e+002 +2.566944466e+002 -4.2005e-001 -1.1121e-001
2186 0 +8.744103994e-001 +2.566544104e+002 +2.566544104e+002 -4.2021e-001 -1.1145e-001
2190 0 +7.478662642e-001 +2.565278663e+002 +2.565278663e+002 -4.2063e-001 -1.1205e-001
2195 0 +7.309670851e-001 +2.565109671e+002 +2.565109671e+002 -4.2068e-001 -1.1213e-001
2196 0 +6.876564715e-001 +2.564676565e+002 +2.564676565e+002 -4.2100e-001 -1.1272e-001
2199 0 +6.045538865e-001 +2.563845539e+002 +2.563845539e+002 -4.2130e-001 -1.1313e-001
2200 0 +5.999146724e-001 +2.563799147e+002 +2.563799147e+002 -4.2131e-001 -1.1315e-001
2202 0 +3.804907464e-001 +2.561604907e+002 +2.561604907e+002 -4.2414e-001 -1.1613e-001
2209 0 +1.258781587e-001 +2.559058782e+002 +2.559058782e+002 -4.2330e-001 -1.1560e-001
2226 0 +9.601342118e-002 +2.558760134e+002 +2.558760134e+002 -4.2322e-001 -1.1552e-001
2253 0 +7.934004431e-002 +2.558593400e+002 +2.558593400e+002 -4.2319e-001 -1.1547e-001
2303 0 +6.634923415e-002 +2.558463492e+002 +2.558463492e+002 -4.2298e-001 -1.1537e-001
2311 0 +4.003881082e-002 +2.558200388e+002 +2.558200388e+002 -4.2296e-001 -1.1528e-001
2321 0 +2.037602263e-002 +2.558003760e+002 +2.558003760e+002 -4.2302e-001 -1.1538e-001
2349 0 +1.286674700e-002 +2.557928667e+002 +2.557928667e+002 -4.2302e-001 -1.1536e-001
2356 0 +7.395400862e-003 +2.557873954e+002 +2.557873954e+002 -4.2301e-001 -1.1535e-001
2361 0 +5.052500531e-003 +2.557850525e+002 +2.557850525e+002 -4.2301e-001 -1.1535e-001
2395 0 +3.142223596e-003 +2.557831422e+002 +2.557831422e+002 -4.2299e-001 -1.1534e-001
2428 0 +2.951935169e-003 +2.557829519e+002 +2.557829519e+002 -4.2300e-001 -1.1535e-001
2451 0 +2.328032208e-003 +2.557823280e+002 +2.557823280e+002 -4.2300e-001 -1.1535e-001
2455 0 +2.080099687e-003 +2.557820801e+002 +2.557820801e+002 -4.2300e-001 -1.1535e-001
2458 0 +1.582575390e-003 +2.557815826e+002 +2.557815826e+002 -4.2300e-001 -1.1535e-001
2462 0 +1.297285899e-003 +2.557812973e+002 +2.557812973e+002 -4.2300e-001 -1.1535e-001
2499 0 +9.488382092e-004 +2.557809488e+002 +2.557809488e+002 -4.2300e-001 -1.1534e-001
2505 0 +5.622184412e-004 +2.557805622e+002 +2.557805622e+002 -4.2300e-001 -1.1534e-001
2511 0 +2.092655324e-004 +2.557802093e+002 +2.557802093e+002 -4.2300e-001 -1.1534e-001
2531 0 +1.515507533e-004 +2.557801516e+002 +2.557801516e+002 -4.2300e-001 -1.1534e-001
2533 0 +1.306642854e-004 +2.557801307e+002 +2.557801307e+002 -4.2300e-001 -1.1534e-001
2564 0 +1.230096721e-004 +2.557801230e+002 +2.557801230e+002 -4.2300e-001 -1.1534e-001
2581 0 +5.240412679e-005 +2.557800524e+002 +2.557800524e+002 -4.2300e-001 -1.1534e-001
2610 0 +4.639398983e-005 +2.557800464e+002 +2.557800464e+002 -4.2300e-001 -1.1534e-001
2618 0 +4.500888616e-005 +2.557800450e+002 +2.557800450e+002 -4.2300e-001 -1.1534e-001
2641 0 +3.608115361e-005 +2.557800361e+002 +2.557800361e+002 -4.2300e-001 -1.1534e-001
2646 0 +1.998650473e-005 +2.557800200e+002 +2.557800200e+002 -4.2300e-001 -1.1534e-001
2673 0 +1.673730503e-005 +2.557800167e+002 +2.557800167e+002 -4.2300e-001 -1.1534e-001
2697 0 +1.654533995e-005 +2.557800165e+002 +2.557800165e+002 -4.2300e-001 -1.1534e-001
2723 0 +1.495222529e-005 +2.557800150e+002 +2.557800150e+002 -4.2300e-001 -1.1534e-001
2728 0 +1.287969815e-005 +2.557800129e+002 +2.557800129e+002 -4.2300e-001 -1.1534e-001
2730 0 +1.187933631e-005 +2.557800119e+002 +2.557800119e+002 -4.2300e-001 -1.1534e-001
2731 0 +1.165446722e-005 +2.557800117e+002 +2.557800117e+002 -4.2300e-001 -1.1534e-001
2739 0 +6.369655154e-006 +2.557800064e+002 +2.557800064e+002 -4.2300e-001 -1.1534e-001
2742 0 +3.655526882e-006 +2.557800037e+002 +2.557800037e+002 -4.2300e-001 -1.1534e-001
2744 0 +3.255083755e-006 +2.557800033e+002 +2.557800033e+002 -4.2300e-001 -1.1534e-001
2757 0 +1.594139178e-006 +2.557800016e+002 +2.557800016e+002 -4.2300e-001 -1.1534e-001
2772 0 +1.500030152e-006 +2.557800015e+002 +2.557800015e+002 -4.2300e-001 -1.1534e-001
2787 0 +1.163951453e-006 +2.557800012e+002 +2.557800012e+002 -4.2300e-001 -1.1534e-001
2795 0 +1.132713720e-006 +2.557800011e+002 +2.557800011e+002 -4.2300e-001 -1.1534e-001
2807 0 +9.459961916e-007 +2.557800009e+002 +2.557800009e+002 -4.2300e-001 -1.1534e-001
2809 0 +3.619999234e-007 +2.557800004e+002 +2.557800004e+002 -4.2300e-001 -1.1534e-001
2824 0 +2.343381595e-007 +2.557800002e+002 +2.557800002e+002 -4.2300e-001 -1.1534e-001
2880 0 +1.934034231e-007 +2.557800002e+002 +2.557800002e+002 -4.2300e-001 -1.1534e-001
2895 0 +1.613662164e-007 +2.557800002e+002 +2.557800002e+002 -4.2300e-001 -1.1534e-001
2900 0 +1.540369681e-007 +2.557800002e+002 +2.557800002e+002 -4.2300e-001 -1.1534e-001
2901 0 +9.871951079e-008 +2.557800001e+002 +2.557800001e+002 -4.2300e-001 -1.1534e-001
2921 0 +9.617539831e-008 +2.557800001e+002 +2.557800001e+002 -4.2300e-001 -1.1534e-001
2944 0 +9.290536696e-008 +2.557800001e+002 +2.557800001e+002 -4.2300e-001 -1.1534e-001
2955 0 +6.088765758e-008 +2.557800001e+002 +2.557800001e+002 -4.2300e-001 -1.1534e-001
2980 0 +5.667092751e-008 +2.557800001e+002 +2.557800001e+002 -4.2300e-001 -1.1534e-001
2984 0 +4.640153861e-008 +2.557800000e+002 +2.557800000e+002 -4.2300e-001 -1.1534e-001
3000 0 +2.913495223e-008 +2.557800000e+002 +2.557800000e+002 -4.2300e-001 -1.1534e-001
3008 0 +5.615305554e-009 +2.557800000e+002 +2.557800000e+002 -4.2300e-001 -1.1534e-001
% f evaluations | g evaluations | best noise-free fitness - Fopt (1.000000000000e+003) + sum g_i+ | measured fitness | best measured fitness or single-digit g-values | x1 | x2...
1 0 +2.732762023e+001 +1.027327620e+003 +1.027327620e+003 +5.0000e+000 +5.0000e+000
6 0 +2.248127243e+001 +1.022481272e+003 +1.022481272e+003 +3.0341e+000 +5.0000e+000
8 0 +1.061654890e+001 +1.010616549e+003 +1.010616549e+003 +1.7377e+000 +5.0000e+000
11 0 +8.504971573e+000 +1.008504972e+003 +1.008504972e+003 +3.7642e+000 +1.7938e+000
13 0 +2.709845275e+000 +1.002709845e+003 +1.002709845e+003 +4.6045e+000 +3.9740e+000
20 0 +2.131392503e+000 +1.002131393e+003 +1.002131393e+003 +2.0394e+000 +5.0000e+000
32 0 +5.481751351e-001 +1.000548175e+003 +1.000548175e+003 +4.0757e+000 +5.0000e+000
126 0 +5.280979460e-001 +1.000528098e+003 +1.000528098e+003 +4.0758e+000 +5.0000e+000
130 0 +5.020585453e-001 +1.000502059e+003 +1.000502059e+003 +4.0758e+000 +5.0000e+000
136 0 +4.672226258e-001 +1.000467223e+003 +1.000467223e+003 +4.0760e+000 +5.0000e+000
150 0 +3.586703830e-001 +1.000358670e+003 +1.000358670e+003 +4.0763e+000 +5.0000e+000
236 0 +3.301364550e-001 +1.000330136e+003 +1.000330136e+003 +4.0765e+000 +5.0000e+000
276 0 +3.182854972e-001 +1.000318285e+003 +1.000318285e+003 +4.0764e+000 +5.0000e+000
301 0 +2.949121367e-001 +1.000294912e+003 +1.000294912e+003 +4.0764e+000 +5.0000e+000
2003 0 +1.963273035e-001 +1.000196327e+003 +1.000196327e+003 +4.8170e-001 -5.0000e+000
2031 0 +1.771311894e-001 +1.000177131e+003 +1.000177131e+003 +4.8208e-001 -5.0000e+000
2036 0 +1.543773933e-001 +1.000154377e+003 +1.000154377e+003 +4.8202e-001 -5.0000e+000
2037 0 +1.281028333e-001 +1.000128103e+003 +1.000128103e+003 +4.8195e-001 -5.0000e+000
2131 0 +1.063193469e-001 +1.000106319e+003 +1.000106319e+003 +4.8188e-001 -5.0000e+000
2264 0 +1.031872565e-001 +1.000103187e+003 +1.000103187e+003 +4.8189e-001 -5.0000e+000
5820 0 +3.653157354e-002 +1.000036532e+003 +1.000036532e+003 -3.9446e+000 +4.6518e+000
6049 0 +3.394783290e-002 +1.000033948e+003 +1.000033948e+003 -3.9448e+000 +4.6518e+000
6059 0 +1.879238182e-002 +1.000018792e+003 +1.000018792e+003 -3.9447e+000 +4.6518e+000
6183 0 +4.301288897e-003 +1.000004301e+003 +1.000004301e+003 -3.9448e+000 +4.6518e+000
6222 0 +3.807736399e-003 +1.000003808e+003 +1.000003808e+003 -3.9448e+000 +4.6518e+000
6282 0 +1.895201709e-003 +1.000001895e+003 +1.000001895e+003 -3.9448e+000 +4.6518e+000
6318 0 +5.919044432e-004 +1.000000592e+003 +1.000000592e+003 -3.9448e+000 +4.6518e+000
6319 0 +2.503890304e-004 +1.000000250e+003 +1.000000250e+003 -3.9448e+000 +4.6518e+000
6394 0 +2.117999046e-004 +1.000000212e+003 +1.000000212e+003 -3.9448e+000 +4.6518e+000
6411 0 +1.471415394e-004 +1.000000147e+003 +1.000000147e+003 -3.9448e+000 +4.6518e+000
6412 0 +9.484481677e-005 +1.000000095e+003 +1.000000095e+003 -3.9448e+000 +4.6518e+000
6419 0 +5.511269467e-005 +1.000000055e+003 +1.000000055e+003 -3.9448e+000 +4.6518e+000
6451 0 +1.249055560e-005 +1.000000012e+003 +1.000000012e+003 -3.9448e+000 +4.6518e+000
6483 0 +1.207162427e-005 +1.000000012e+003 +1.000000012e+003 -3.9448e+000 +4.6518e+000
6503 0 +1.126951395e-005 +1.000000011e+003 +1.000000011e+003 -3.9448e+000 +4.6518e+000
6504 0 +9.839020549e-006 +1.000000010e+003 +1.000000010e+003 -3.9448e+000 +4.6518e+000
6521 0 +9.074819445e-006 +1.000000009e+003 +1.000000009e+003 -3.9448e+000 +4.6518e+000
6560 0 +8.886717637e-006 +1.000000009e+003 +1.000000009e+003 -3.9448e+000 +4.6518e+000
6565 0 +8.621393476e-006 +1.000000009e+003 +1.000000009e+003 -3.9448e+000 +4.6518e+000
6575 0 +8.388641959e-006 +1.000000008e+003 +1.000000008e+003 -3.9448e+000 +4.6518e+000
6577 0 +8.018006952e-006 +1.000000008e+003 +1.000000008e+003 -3.9448e+000 +4.6518e+000
6578 0 +7.623246233e-006 +1.000000008e+003 +1.000000008e+003 -3.9448e+000 +4.6518e+000
6593 0 +7.445939332e-006 +1.000000007e+003 +1.000000007e+003 -3.9448e+000 +4.6518e+000
6609 0 +6.849788861e-006 +1.000000007e+003 +1.000000007e+003 -3.9448e+000 +4.6518e+000
6618 0 +6.623972126e-006 +1.000000007e+003 +1.000000007e+003 -3.9448e+000 +4.6518e+000
6625 0 +5.914753388e-006 +1.000000006e+003 +1.000000006e+003 -3.9448e+000 +4.6518e+000
6626 0 +5.722479045e-006 +1.000000006e+003 +1.000000006e+003 -3.9448e+000 +4.6518e+000
6632 0 +5.401497333e-006 +1.000000005e+003 +1.000000005e+003 -3.9448e+000 +4.6518e+000
6644 0 +5.095615734e-006 +1.000000005e+003 +1.000000005e+003 -3.9448e+000 +4.6518e+000
6646 0 +4.740429745e-006 +1.000000005e+003 +1.000000005e+003 -3.9448e+000 +4.6518e+000
6647 0 +4.346147875e-006 +1.000000004e+003 +1.000000004e+003 -3.9448e+000 +4.6518e+000
6655 0 +3.822019607e-006 +1.000000004e+003 +1.000000004e+003 -3.9448e+000 +4.6518e+000
6657 0 +3.545565050e-006 +1.000000004e+003 +1.000000004e+003 -3.9448e+000 +4.6518e+000
6658 0 +3.444860113e-006 +1.000000003e+003 +1.000000003e+003 -3.9448e+000 +4.6518e+000
6660 0 +2.296786874e-006 +1.000000002e+003 +1.000000002e+003 -3.9448e+000 +4.6518e+000
6662 0 +1.636443699e-006 +1.000000002e+003 +1.000000002e+003 -3.9448e+000 +4.6518e+000
6666 0 +1.295939342e-006 +1.000000001e+003 +1.000000001e+003 -3.9448e+000 +4.6518e+000
6667 0 +3.300348226e-007 +1.000000000e+003 +1.000000000e+003 -3.9448e+000 +4.6518e+000
6671 0 +3.154407295e-007 +1.000000000e+003 +1.000000000e+003 -3.9448e+000 +4.6518e+000
6682 0 +2.489293820e-007 +1.000000000e+003 +1.000000000e+003 -3.9448e+000 +4.6518e+000
6688 0 +1.580531261e-007 +1.000000000e+003 +1.000000000e+003 -3.9448e+000 +4.6518e+000
6716 0 +1.167109076e-008 +1.000000000e+003 +1.000000000e+003 -3.9448e+000 +4.6518e+000
6791 0 +1.044691089e-008 +1.000000000e+003 +1.000000000e+003 -3.9448e+000 +4.6518e+000
6854 0 +9.164637049e-009 +1.000000000e+003 +1.000000000e+003 -3.9448e+000 +4.6518e+000
% f evaluations | g evaluations | best noise-free fitness - Fopt (-1.869500000000e+002) + sum g_i+ | measured fitness | best measured fitness or single-digit g-values | x1 | x2...
1 0 +7.302373995e+001 -1.139262601e+002 -1.139262601e+002 -5.0000e+000 -5.0000e+000
2 0 +2.009431499e+001 -1.668556850e+002 -1.668556850e+002 +5.0000e+000 -5.0000e+000
7 0 +8.779812576e+000 -1.781701874e+002 -1.781701874e+002 -4.6565e+000 +2.7332e+000
37 0 +3.123684578e+000 -1.838263154e+002 -1.838263154e+002 -7.6019e-001 +3.3096e+000
166 0 +1.735641609e+000 -1.852143584e+002 -1.852143584e+002 +1.5005e+000 +3.2809e+000
601 0 +1.605116383e+000 -1.853448836e+002 -1.853448836e+002 +2.7998e+000 +3.1189e+000
1439 0 +4.963557237e-001 -1.864536443e+002 -1.864536443e+002 +3.7824e+000 +3.9578e-001
2815 0 +4.835843212e-001 -1.864664157e+002 -1.864664157e+002 +3.7824e+000 +3.9575e-001
2897 0 +4.520810675e-001 -1.864979189e+002 -1.864979189e+002 +4.9343e+000 +1.7920e+000
2957 0 +4.021965633e-001 -1.865478034e+002 -1.865478034e+002 +4.9342e+000 +1.7925e+000
3020 0 +3.682134831e-001 -1.865817865e+002 -1.865817865e+002 +4.9341e+000 +1.7928e+000
3047 0 +3.204748212e-001 -1.866295252e+002 -1.866295252e+002 +4.9341e+000 +1.7931e+000
3066 0 +3.071391287e-001 -1.866428609e+002 -1.866428609e+002 +4.9341e+000 +1.7933e+000
3125 0 +3.001400795e-001 -1.866498599e+002 -1.866498599e+002 +4.9341e+000 +1.7933e+000
3138 0 +2.651634169e-001 -1.866848366e+002 -1.866848366e+002 +4.9340e+000 +1.7935e+000
3140 0 +1.814118842e-001 -1.867685881e+002 -1.867685881e+002 +4.9339e+000 +1.7939e+000
3167 0 +1.771372158e-001 -1.867728628e+002 -1.867728628e+002 +4.9339e+000 +1.7940e+000
3177 0 +1.296039519e-001 -1.868203960e+002 -1.868203960e+002 +4.9338e+000 +1.7937e+000
3198 0 +7.259861753e-002 -1.868774014e+002 -1.868774014e+002 +4.9338e+000 +1.7940e+000
3240 0 +5.641539755e-002 -1.868935846e+002 -1.868935846e+002 +4.9337e+000 +1.7941e+000
3253 0 +4.878697396e-002 -1.869012130e+002 -1.869012130e+002 +4.9337e+000 +1.7941e+000
3263 0 +4.750912916e-002 -1.869024909e+002 -1.869024909e+002 +4.9337e+000 +1.7942e+000
3313 0 +4.096994424e-002 -1.869090301e+002 -1.869090301e+002 +4.9337e+000 +1.7941e+000
3316 0 +3.752867959e-002 -1.869124713e+002 -1.869124713e+002 +4.9337e+000 +1.7942e+000
3317 0 +3.295166017e-002 -1.869170483e+002 -1.869170483e+002 +4.9337e+000 +1.7942e+000
3323 0 +2.573788158e-002 -1.869242621e+002 -1.869242621e+002 +4.9337e+000 +1.7942e+000
3357 0 +2.336366078e-002 -1.869266363e+002 -1.869266363e+002 +4.9337e+000 +1.7942e+000
3372 0 +1.278415309e-002 -1.869372158e+002 -1.869372158e+002 +4.9337e+000 +1.7942e+000
3392 0 +1.087319587e-002 -1.869391268e+002 -1.869391268e+002 +4.9337e+000 +1.7942e+000
3412 0 +8.837621157e-003 -1.869411624e+002 -1.869411624e+002 +4.9337e+000 +1.7942e+000
3436 0 +8.057401102e-003 -1.869419426e+002 -1.869419426e+002 +4.9337e+000 +1.7942e+000
3443 0 +5.564411590e-003 -1.869444356e+002 -1.869444356e+002 +4.9337e+000 +1.7942e+000
3448 0 +5.464470392e-003 -1.869445355e+002 -1.869445355e+002 +4.9337e+000 +1.7942e+000
3455 0 +3.807893447e-003 -1.869461921e+002 -1.869461921e+002 +4.9337e+000 +1.7942e+000
3456 0 +3.457125164e-003 -1.869465429e+002 -1.869465429e+002 +4.9337e+000 +1.7942e+000
3495 0 +2.864875105e-003 -1.869471351e+002 -1.869471351e+002 +4.9337e+000 +1.7942e+000
3505 0 +2.304739024e-003 -1.869476953e+002 -1.869476953e+002 +4.9337e+000 +1.7942e+000
3508 0 +2.129597380e-004 -1.869497870e+002 -1.869497870e+002 +4.9337e+000 +1.7942e+000
3529 0 +1.162773466e-004 -1.869498837e+002 -1.869498837e+002 +4.9337e+000 +1.7942e+000
3540 0 +9.496218786e-005 -1.869499050e+002 -1.869499050e+002 +4.9337e+000 +1.7942e+000
3608 0 +3.755692154e-005 -1.869499624e+002 -1.869499624e+002 +4.9337e+000 +1.7942e+000
3622 0 +3.030492738e-005 -1.869499697e+002 -1.869499697e+002 +4.9337e+000 +1.7942e+000
3629 0 +1.331483381e-005 -1.869499867e+002 -1.869499867e+002 +4.9337e+000 +1.7942e+000
3673 0 +1.069505592e-005 -1.869499893e+002 -1.869499893e+002 +4.9337e+000 +1.7942e+000
3708 0 +1.040263479e-005 -1.869499896e+002 -1.869499896e+002 +4.9337e+000 +1.7942e+000
3716 0 +6.412055143e-006 -1.869499936e+002 -1.869499936e+002 +4.9337e+000 +1.7942e+000
3725 0 +5.742218349e-006 -1.869499943e+002 -1.869499943e+002 +4.9337e+000 +1.7942e+000
3726 0 +5.051110776e-006 -1.869499949e+002 -1.869499949e+002 +4.9337e+000 +1.7942e+000
3738 0 +4.883722482e-006 -1.869499951e+002 -1.869499951e+002 +4.9337e+000 +1.7942e+000
3757 0 +3.886750278e-006 -1.869499961e+002 -1.869499961e+002 +4.9337e+000 +1.7942e+000
3767 0 +2.913828467e-006 -1.869499971e+002 -1.869499971e+002 +4.9337e+000 +1.7942e+000
3786 0 +2.636052329e-006 -1.869499974e+002 -1.869499974e+002 +4.9337e+000 +1.7942e+000
3797 0 +2.118414699e-006 -1.869499979e+002 -1.869499979e+002 +4.9337e+000 +1.7942e+000
3820 0 +9.146131958e-007 -1.869499991e+002 -1.869499991e+002 +4.9337e+000 +1.7942e+000
3857 0 +6.223638991e-007 -1.869499994e+002 -1.869499994e+002 +4.9337e+000 +1.7942e+000
3870 0 +5.542322299e-007 -1.869499994e+002 -1.869499994e+002 +4.9337e+000 +1.7942e+000
3877 0 +4.499466684e-007 -1.869499996e+002 -1.869499996e+002 +4.9337e+000 +1.7942e+000
3896 0 +4.053710541e-007 -1.869499996e+002 -1.869499996e+002 +4.9337e+000 +1.7942e+000
3907 0 +2.333723614e-007 -1.869499998e+002 -1.869499998e+002 +4.9337e+000 +1.7942e+000
3926 0 +1.841088988e-007 -1.869499998e+002 -1.869499998e+002 +4.9337e+000 +1.7942e+000
3936 0 +1.713006270e-007 -1.869499998e+002 -1.869499998e+002 +4.9337e+000 +1.7942e+000
3958 0 +1.490948023e-007 -1.869499999e+002 -1.869499999e+002 +4.9337e+000 +1.7942e+000
3969 0 +9.347792229e-008 -1.869499999e+002 -1.869499999e+002 +4.9337e+000 +1.7942e+000
3978 0 +9.020200764e-008 -1.869499999e+002 -1.869499999e+002 +4.9337e+000 +1.7942e+000
3979 0 +7.616617381e-008 -1.869499999e+002 -1.869499999e+002 +4.9337e+000 +1.7942e+000
3980 0 +3.914021818e-008 -1.869500000e+002 -1.869500000e+002 +4.9337e+000 +1.7942e+000
3996 0 +3.327622267e-008 -1.869500000e+002 -1.869500000e+002 +4.9337e+000 +1.7942e+000
4007 0 +2.333840143e-008 -1.869500000e+002 -1.869500000e+002 +4.9337e+000 +1.7942e+000
4026 0 +1.960597729e-008 -1.869500000e+002 -1.869500000e+002 +4.9337e+000 +1.7942e+000
4029 0 +1.898990831e-008 -1.869500000e+002 -1.869500000e+002 +4.9337e+000 +1.7942e+000
4033 0 +1.117248871e-008 -1.869500000e+002 -1.869500000e+002 +4.9337e+000 +1.7942e+000
4040 0 +8.744024171e-009 -1.869500000e+002 -1.869500000e+002 +4.9337e+000 +1.7942e+000
% f evaluations | g evaluations | best noise-free fitness - Fopt (5.859500000000e+002) + sum g_i+ | measured fitness | best measured fitness or single-digit g-values | x1 | x2...
1 0 +6.064167890e+001 +6.465916789e+002 +6.465916789e+002 -5.0000e+000 -5.0000e+000
2 0 +5.651477213e+001 +6.424647721e+002 +6.424647721e+002 +5.0000e+000 -5.0000e+000
3 0 +1.979161274e+001 +6.057416127e+002 +6.057416127e+002 -5.0000e+000 +5.0000e+000
4 0 +1.573803151e+001 +6.016880315e+002 +6.016880315e+002 +5.0000e+000 +5.0000e+000
8 0 +7.433388049e+000 +5.933833880e+002 +5.933833880e+002 +4.2626e+000 -5.0000e+000
10 0 +5.464749830e+000 +5.914147498e+002 +5.914147498e+002 -1.9330e-001 -5.0000e+000
99 0 +5.144743611e+000 +5.910947436e+002 +5.910947436e+002 -1.9345e-001 -5.0000e+000
121 0 +3.422281358e+000 +5.893722814e+002 +5.893722814e+002 -2.9298e-001 -5.0000e+000
124 0 +3.225929409e+000 +5.891759294e+002 +5.891759294e+002 -2.9289e-001 -5.0000e+000
125 0 +3.124416308e+000 +5.890744163e+002 +5.890744163e+002 -2.9284e-001 -5.0000e+000
141 0 +3.027182758e+000 +5.889771828e+002 +5.889771828e+002 -2.9268e-001 -5.0000e+000
186 0 +3.015624217e+000 +5.889656242e+002 +5.889656242e+002 -2.9269e-001 -5.0000e+000
272 0 +2.889288173e+000 +5.888392882e+002 +5.888392882e+002 -2.9274e-001 -5.0000e+000
334 0 +2.879938579e+000 +5.888299386e+002 +5.888299386e+002 -2.9274e-001 -5.0000e+000
438 0 +2.400033852e+000 +5.883500339e+002 +5.883500339e+002 +6.7170e-001 -3.6884e+000
477 0 +2.398730597e+000 +5.883487306e+002 +5.883487306e+002 +6.7170e-001 -3.6884e+000
534 0 +2.337033973e+000 +5.882870340e+002 +5.882870340e+002 +6.7161e-001 -3.6884e+000
543 0 +2.288332187e+000 +5.882383322e+002 +5.882383322e+002 +6.7155e-001 -3.6884e+000
544 0 +2.176388968e+000 +5.881263890e+002 +5.881263890e+002 +6.7144e-001 -3.6884e+000
545 0 +2.120001346e+000 +5.880700013e+002 +5.880700013e+002 +6.7139e-001 -3.6884e+000
552 0 +2.084050429e+000 +5.880340504e+002 +5.880340504e+002 +6.7131e-001 -3.6884e+000
553 0 +2.022107102e+000 +5.879721071e+002 +5.879721071e+002 +6.7122e-001 -3.6884e+000
554 0 +1.928449331e+000 +5.878784493e+002 +5.878784493e+002 +6.7110e-001 -3.6884e+000
556 0 +1.780810461e+000 +5.877308105e+002 +5.877308105e+002 +6.7093e-001 -3.6884e+000
557 0 +1.677552217e+000 +5.876275522e+002 +5.876275522e+002 +6.7083e-001 -3.6884e+000
563 0 +1.398910487e+000 +5.873489105e+002 +5.873489105e+002 +6.7053e-001 -3.6884e+000
564 0 +1.117466068e+000 +5.870674661e+002 +5.870674661e+002 +6.7014e-001 -3.6884e+000
569 0 +9.679643267e-001 +5.869179643e+002 +5.869179643e+002 +6.6997e-001 -3.6884e+000
572 0 +9.466670893e-001 +5.868966671e+002 +5.868966671e+002 +6.6995e-001 -3.6884e+000
574 0 +3.740268430e-001 +5.863240268e+002 +5.863240268e+002 +6.6931e-001 -3.6884e+000
580 0 +2.912867755e-001 +5.862412868e+002 +5.862412868e+002 +6.6891e-001 -3.6884e+000
584 0 +2.421259556e-001 +5.861921260e+002 +5.861921260e+002 +6.6896e-001 -3.6884e+000
591 0 +1.273672434e-001 +5.860773672e+002 +5.860773672e+002 +6.6908e-001 -3.6884e+000
631 0 +1.218446956e-001 +5.860718447e+002 +5.860718447e+002 +6.6907e-001 -3.6884e+000
695 0 +1.184622442e-001 +5.860684622e+002 +5.860684622e+002 +6.6907e-001 -3.6884e+000
714 0 +1.144674351e-001 +5.860644674e+002 +5.860644674e+002 +6.6908e-001 -3.6884e+000
5452 0 +9.496303258e-002 +5.860449630e+002 +5.860449630e+002 +4.8091e+000 -1.1628e+000
5453 0 +6.166663980e-002 +5.860116666e+002 +5.860116666e+002 +4.8091e+000 -1.1628e+000
5477 0 +6.165269795e-002 +5.860116527e+002 +5.860116527e+002 +4.8091e+000 -1.1628e+000
5607 0 +6.010394011e-002 +5.860101039e+002 +5.860101039e+002 +4.8091e+000 -1.1628e+000
5630 0 +5.880644112e-002 +5.860088064e+002 +5.860088064e+002 +4.8090e+000 -1.1628e+000
5645 0 +5.507495314e-002 +5.860050750e+002 +5.860050750e+002 +4.8090e+000 -1.1628e+000
5648 0 +5.482731891e-002 +5.860048273e+002 +5.860048273e+002 +4.8090e+000 -1.1628e+000
5655 0 +5.364198052e-002 +5.860036420e+002 +5.860036420e+002 +4.8090e+000 -1.1628e+000
5666 0 +4.907293436e-002 +5.859990729e+002 +5.859990729e+002 +4.8089e+000 -1.1629e+000
5678 0 +4.723432787e-002 +5.859972343e+002 +5.859972343e+002 +4.8089e+000 -1.1629e+000
5682 0 +3.930325700e-002 +5.859893033e+002 +5.859893033e+002 +4.8089e+000 -1.1629e+000
5687 0 +3.026968951e-002 +5.859802697e+002 +5.859802697e+002 +4.8088e+000 -1.1630e+000
5688 0 +2.868222670e-002 +5.859786822e+002 +5.859786822e+002 +4.8088e+000 -1.1630e+000
5694 0 +2.071036338e-002 +5.859707104e+002 +5.859707104e+002 +4.8087e+000 -1.1630e+000
5696 0 +1.873627720e-002 +5.859687363e+002 +5.859687363e+002 +4.8086e+000 -1.1631e+000
5697 0 +1.526581866e-002 +5.859652658e+002 +5.859652658e+002 +4.8086e+000 -1.1631e+000
5698 0 +1.446954276e-002 +5.859644695e+002 +5.859644695e+002 +4.8086e+000 -1.1631e+000
5704 0 +1.060627166e-002 +5.859606063e+002 +5.859606063e+002 +4.8086e+000 -1.1631e+000
5711 0 +1.034847119e-002 +5.859603485e+002 +5.859603485e+002 +4.8086e+000 -1.1631e+000
5733 0 +7.221323082e-003 +5.859572213e+002 +5.859572213e+002 +4.8086e+000 -1.1631e+000
5743 0 +5.790475982e-003 +5.859557905e+002 +5.859557905e+002 +4.8086e+000 -1.1631e+000
5751 0 +5.284945519e-003 +5.859552849e+002 +5.859552849e+002 +4.8086e+000 -1.1631e+000
5763 0 +1.449705245e-003 +5.859514497e+002 +5.859514497e+002 +4.8086e+000 -1.1631e+000
5796 0 +9.171763023e-004 +5.859509172e+002 +5.859509172e+002 +4.8086e+000 -1.1631e+000
5805 0 +5.960932858e-004 +5.859505961e+002 +5.859505961e+002 +4.8086e+000 -1.1631e+000
5813 0 +5.797937804e-004 +5.859505798e+002 +5.859505798e+002 +4.8086e+000 -1.1631e+000
5827 0 +2.217282143e-004 +5.859502217e+002 +5.859502217e+002 +4.8086e+000 -1.1631e+000
5839 0 +8.714549108e-005 +5.859500871e+002 +5.859500871e+002 +4.8086e+000 -1.1631e+000
5882 0 +7.430511391e-005 +5.859500743e+002 +5.859500743e+002 +4.8086e+000 -1.1631e+000
5901 0 +5.032364606e-005 +5.859500503e+002 +5.859500503e+002 +4.8086e+000 -1.1631e+000
5907 0 +3.321862312e-005 +5.859500332e+002 +5.859500332e+002 +4.8086e+000 -1.1631e+000
5916 0 +1.803253906e-005 +5.859500180e+002 +5.859500180e+002 +4.8086e+000 -1.1631e+000
5928 0 +1.556952770e-005 +5.859500156e+002 +5.859500156e+002 +4.8086e+000 -1.1631e+000
5970 0 +1.064370952e-005 +5.859500106e+002 +5.859500106e+002 +4.8086e+000 -1.1631e+000
5983 0 +1.028951851e-005 +5.859500103e+002 +5.859500103e+002 +4.8086e+000 -1.1631e+000
5998 0 +9.050015365e-006 +5.859500091e+002 +5.859500091e+002 +4.8086e+000 -1.1631e+000
6015 0 +3.389235076e-006 +5.859500034e+002 +5.859500034e+002 +4.8086e+000 -1.1631e+000
6024 0 +2.231445364e-006 +5.859500022e+002 +5.859500022e+002 +4.8086e+000 -1.1631e+000
6026 0 +1.976221824e-006 +5.859500020e+002 +5.859500020e+002 +4.8086e+000 -1.1631e+000
6034 0 +1.441875270e-006 +5.859500014e+002 +5.859500014e+002 +4.8086e+000 -1.1631e+000
6045 0 +1.106234322e-006 +5.859500011e+002 +5.859500011e+002 +4.8086e+000 -1.1631e+000
6049 0 +3.688041943e-007 +5.859500004e+002 +5.859500004e+002 +4.8086e+000 -1.1631e+000
6085 0 +1.263512104e-007 +5.859500001e+002 +5.859500001e+002 +4.8086e+000 -1.1631e+000
6136 0 +1.189466730e-007 +5.859500001e+002 +5.859500001e+002 +4.8086e+000 -1.1631e+000
6165 0 +1.174023510e-007 +5.859500001e+002 +5.859500001e+002 +4.8086e+000 -1.1631e+000
6174 0 +1.096242386e-007 +5.859500001e+002 +5.859500001e+002 +4.8086e+000 -1.1631e+000
6184 0 +1.050792662e-007 +5.859500001e+002 +5.859500001e+002 +4.8086e+000 -1.1631e+000
6187 0 +1.273031103e-008 +5.859500000e+002 +5.859500000e+002 +4.8086e+000 -1.1631e+000
6210 0 +8.787878869e-009 +5.859500000e+002 +5.859500000e+002 +4.8086e+000 -1.1631e+000
% f evaluations | g evaluations | best noise-free fitness - Fopt (2.871600000000e+002) + sum g_i+ | measured fitness | best measured fitness or single-digit g-values | x1 | x2...
1 0 +5.815940459e+001 +3.453194046e+002 +3.453194046e+002 -5.0000e+000 -5.0000e+000
2 0 +4.945951115e+000 +2.921059511e+002 +2.921059511e+002 +5.0000e+000 -5.0000e+000
6 0 +2.573749842e+000 +2.897337498e+002 +2.897337498e+002 +2.6890e+000 -6.3242e-001
336 0 +2.493181176e+000 +2.896531812e+002 +2.896531812e+002 +2.6889e+000 -6.3236e-001
352 0 +2.447076082e+000 +2.896070761e+002 +2.896070761e+002 +2.6889e+000 -6.3232e-001
353 0 +1.701974097e+000 +2.888619741e+002 +2.888619741e+002 +2.6881e+000 -6.3159e-001
361 0 +1.694194098e+000 +2.888541941e+002 +2.888541941e+002 +2.6881e+000 -6.3159e-001
369 0 +1.555535886e+000 +2.887155359e+002 +2.887155359e+002 +2.6882e+000 -6.3168e-001
3069 0 +1.269092298e+000 +2.884290923e+002 +2.884290923e+002 +2.5682e+000 -8.2947e-001
3190 0 +9.836093902e-001 +2.881436094e+002 +2.881436094e+002 +2.5685e+000 -8.3046e-001
3228 0 +4.960534593e-001 +2.876560535e+002 +2.876560535e+002 +2.5684e+000 -8.3085e-001
3280 0 +4.560283807e-001 +2.876160284e+002 +2.876160284e+002 +2.5688e+000 -8.3234e-001
3289 0 +2.076541309e-001 +2.873676541e+002 +2.873676541e+002 +2.5689e+000 -8.3228e-001
3313 0 +1.846910795e-001 +2.873446911e+002 +2.873446911e+002 +2.5681e+000 -8.3060e-001
3331 0 +9.391997633e-002 +2.872539200e+002 +2.872539200e+002 +2.5681e+000 -8.3076e-001
3332 0 +6.247625259e-002 +2.872224763e+002 +2.872224763e+002 +2.5682e+000 -8.3090e-001
3338 0 +6.050576531e-002 +2.872205058e+002 +2.872205058e+002 +2.5682e+000 -8.3091e-001
3356 0 +2.873423018e-002 +2.871887342e+002 +2.871887342e+002 +2.5681e+000 -8.3077e-001
3358 0 +1.935297234e-002 +2.871793530e+002 +2.871793530e+002 +2.5681e+000 -8.3075e-001
3375 0 +1.824317159e-002 +2.871782432e+002 +2.871782432e+002 +2.5680e+000 -8.3072e-001
3393 0 +1.705826126e-002 +2.871770583e+002 +2.871770583e+002 +2.5680e+000 -8.3071e-001
3399 0 +1.597445334e-002 +2.871759745e+002 +2.871759745e+002 +2.5680e+000 -8.3070e-001
3411 0 +1.417550321e-002 +2.871741755e+002 +2.871741755e+002 +2.5681e+000 -8.3083e-001
3416 0 +1.121190319e-002 +2.871712119e+002 +2.871712119e+002 +2.5681e+000 -8.3083e-001
3436 0 +9.171646927e-003 +2.871691716e+002 +2.871691716e+002 +2.5681e+000 -8.3083e-001
3453 0 +5.958653715e-003 +2.871659587e+002 +2.871659587e+002 +2.5681e+000 -8.3077e-001
3454 0 +4.253008948e-003 +2.871642530e+002 +2.871642530e+002 +2.5681e+000 -8.3078e-001
3459 0 +3.127542968e-003 +2.871631275e+002 +2.871631275e+002 +2.5681e+000 -8.3079e-001
3462 0 +2.328923706e-003 +2.871623289e+002 +2.871623289e+002 +2.5681e+000 -8.3080e-001
3467 0 +1.929008757e-003 +2.871619290e+002 +2.871619290e+002 +2.5681e+000 -8.3080e-001
3494 0 +1.868880858e-003 +2.871618689e+002 +2.871618689e+002 +2.5681e+000 -8.3080e-001
3511 0 +1.143971698e-003 +2.871611440e+002 +2.871611440e+002 +2.5681e+000 -8.3080e-001
3517 0 +9.896518592e-004 +2.871609897e+002 +2.871609897e+002 +2.5681e+000 -8.3080e-001
3522 0 +8.962536822e-004 +2.871608963e+002 +2.871608963e+002 +2.5681e+000 -8.3080e-001
3547 0 +4.777999104e-004 +2.871604778e+002 +2.871604778e+002 +2.5681e+000 -8.3080e-001
3559 0 +4.513928512e-004 +2.871604514e+002 +2.871604514e+002 +2.5681e+000 -8.3080e-001
3573 0 +1.331723172e-004 +2.871601332e+002 +2.871601332e+002 +2.5681e+000 -8.3080e-001
3577 0 +7.681599573e-005 +2.871600768e+002 +2.871600768e+002 +2.5681e+000 -8.3080e-001
3597 0 +5.410772133e-005 +2.871600541e+002 +2.871600541e+002 +2.5681e+000 -8.3080e-001
3601 0 +4.470517524e-005 +2.871600447e+002 +2.871600447e+002 +2.5681e+000 -8.3080e-001
3618 0 +2.840072887e-005 +2.871600284e+002 +2.871600284e+002 +2.5681e+000 -8.3080e-001
3621 0 +1.608967170e-005 +2.871600161e+002 +2.871600161e+002 +2.5681e+000 -8.3080e-001
3678 0 +1.440584123e-005 +2.871600144e+002 +2.871600144e+002 +2.5681e+000 -8.3080e-001
3682 0 +1.312850185e-005 +2.871600131e+002 +2.871600131e+002 +2.5681e+000 -8.3080e-001
3693 0 +1.251528988e-005 +2.871600125e+002 +2.871600125e+002 +2.5681e+000 -8.3080e-001
3702 0 +1.217163958e-005 +2.871600122e+002 +2.871600122e+002 +2.5681e+000 -8.3080e-001
3708 0 +1.154483022e-005 +2.871600115e+002 +2.871600115e+002 +2.5681e+000 -8.3080e-001
3741 0 +1.106941863e-005 +2.871600111e+002 +2.871600111e+002 +2.5681e+000 -8.3080e-001
3746 0 +8.890965773e-006 +2.871600089e+002 +2.871600089e+002 +2.5681e+000 -8.3080e-001
3747 0 +7.621809914e-006 +2.871600076e+002 +2.871600076e+002 +2.5681e+000 -8.3080e-001
3749 0 +6.612349694e-006 +2.871600066e+002 +2.871600066e+002 +2.5681e+000 -8.3080e-001
3751 0 +6.475814303e-006 +2.871600065e+002 +2.871600065e+002 +2.5681e+000 -8.3080e-001
3752 0 +5.690863020e-006 +2.871600057e+002 +2.871600057e+002 +2.5681e+000 -8.3080e-001
3754 0 +5.565912431e-006 +2.871600056e+002 +2.871600056e+002 +2.5681e+000 -8.3080e-001
3755 0 +5.270101894e-006 +2.871600053e+002 +2.871600053e+002 +2.5681e+000 -8.3080e-001
3766 0 +4.614350814e-006 +2.871600046e+002 +2.871600046e+002 +2.5681e+000 -8.3080e-001
3785 0 +1.038056837e-006 +2.871600010e+002 +2.871600010e+002 +2.5681e+000 -8.3080e-001
3786 0 +9.503676210e-007 +2.871600010e+002 +2.871600010e+002 +2.5681e+000 -8.3080e-001
3790 0 +4.755867735e-007 +2.871600005e+002 +2.871600005e+002 +2.5681e+000 -8.3080e-001
3797 0 +3.742093213e-007 +2.871600004e+002 +2.871600004e+002 +2.5681e+000 -8.3080e-001
3798 0 +3.185774631e-007 +2.871600003e+002 +2.871600003e+002 +2.5681e+000 -8.3080e-001
3800 0 +1.695899527e-007 +2.871600002e+002 +2.871600002e+002 +2.5681e+000 -8.3080e-001
3864 0 +9.472512374e-008 +2.871600001e+002 +2.871600001e+002 +2.5681e+000 -8.3080e-001
3880 0 +8.365140047e-008 +2.871600001e+002 +2.871600001e+002 +2.5681e+000 -8.3080e-001
3905 0 +7.465348517e-008 +2.871600001e+002 +2.871600001e+002 +2.5681e+000 -8.3080e-001
3936 0 +6.504842531e-008 +2.871600001e+002 +2.871600001e+002 +2.5681e+000 -8.3080e-001
3942 0 +1.819535100e-008 +2.871600000e+002 +2.871600000e+002 +2.5681e+000 -8.3080e-001
3968 0 +1.077694378e-008 +2.871600000e+002 +2.871600000e+002 +2.5681e+000 -8.3080e-001
3969 0 +9.916050203e-009 +2.871600000e+002 +2.871600000e+002 +2.5681e+000 -8.3080e-001
% f evaluations | g evaluations | best noise-free fitness - Fopt (-3.943800000000e+002) + sum g_i+ | measured fitness | best measured fitness or single-digit g-values | x1 | x2...
1 0 +7.599405580e+001 -3.183859442e+002 -3.183859442e+002 +5.0000e+000 -5.0000e+000
2 0 +4.725678811e+001 -3.471232119e+002 -3.471232119e+002 -5.0000e+000 -5.0000e+000
4 0 +3.591342786e+001 -3.584665721e+002 -3.584665721e+002 -5.0000e+000 +5.0000e+000
5 0 +1.253445739e+001 -3.818455426e+002 -3.818455426e+002 -6.7845e-001 +5.0000e+000
16 0 +9.431669351e+000 -3.849483306e+002 -3.849483306e+002 -5.3233e-001 +5.0000e+000
30 0 +2.369097825e+000 -3.920109022e+002 -3.920109022e+002 -1.7549e+000 -2.9101e-001
184 0 +9.020849804e-001 -3.934779150e+002 -3.934779150e+002 -3.4350e-001 +3.5719e-001
519 0 +7.662584838e-001 -3.936137415e+002 -3.936137415e+002 -2.6931e+000 -7.2848e-001
571 0 +6.703806663e-001 -3.937096193e+002 -3.937096193e+002 -3.5246e+000 -1.1163e+000
1119 0 +5.003491176e-001 -3.938796509e+002 -3.938796509e+002 -3.4754e+000 -1.0896e+000
1209 0 +4.117672297e-001 -3.939682328e+002 -3.939682328e+002 -3.4753e+000 -1.0905e+000
1222 0 +4.008725287e-001 -3.939791275e+002 -3.939791275e+002 -3.4753e+000 -1.0904e+000
1482 0 +1.686733285e-001 -3.942113267e+002 -3.942113267e+002 -4.1016e+000 -1.3793e+000
1536 0 +1.501666983e-001 -3.942298333e+002 -3.942298333e+002 -4.1016e+000 -1.3794e+000
1696 0 +1.204971613e-001 -3.942595028e+002 -3.942595028e+002 -4.1016e+000 -1.3794e+000
1731 0 +1.061079171e-001 -3.942738921e+002 -3.942738921e+002 -4.1016e+000 -1.3794e+000
1768 0 +1.010963934e-001 -3.942789036e+002 -3.942789036e+002 -4.1016e+000 -1.3794e+000
1787 0 +9.856738219e-002 -3.942814326e+002 -3.942814326e+002 -4.1016e+000 -1.3794e+000
1826 0 +9.687234892e-002 -3.942831277e+002 -3.942831277e+002 -4.1016e+000 -1.3794e+000
1831 0 +9.543157209e-002 -3.942845684e+002 -3.942845684e+002 -4.1016e+000 -1.3794e+000
1855 0 +9.212730831e-002 -3.942878727e+002 -3.942878727e+002 -4.1015e+000 -1.3794e+000
1862 0 +8.724241078e-002 -3.942927576e+002 -3.942927576e+002 -4.1015e+000 -1.3794e+000
1872 0 +8.325862456e-002 -3.942967414e+002 -3.942967414e+002 -4.1015e+000 -1.3795e+000
1878 0 +8.258123861e-002 -3.942974188e+002 -3.942974188e+002 -4.1015e+000 -1.3795e+000
1880 0 +7.742315692e-002 -3.943025768e+002 -3.943025768e+002 -4.1015e+000 -1.3795e+000
1884 0 +7.450236474e-002 -3.943054976e+002 -3.943054976e+002 -4.1015e+000 -1.3795e+000
1885 0 +7.251083819e-002 -3.943074892e+002 -3.943074892e+002 -4.1014e+000 -1.3795e+000
1886 0 +6.178152375e-002 -3.943182185e+002 -3.943182185e+002 -4.1014e+000 -1.3795e+000
1890 0 +4.378953101e-002 -3.943362105e+002 -3.943362105e+002 -4.1013e+000 -1.3796e+000
1892 0 +3.310017040e-002 -3.943468998e+002 -3.943468998e+002 -4.1013e+000 -1.3796e+000
1898 0 +2.154389657e-002 -3.943584561e+002 -3.943584561e+002 -4.1012e+000 -1.3796e+000
1901 0 +1.787924226e-002 -3.943621208e+002 -3.943621208e+002 -4.1012e+000 -1.3796e+000
1909 0 +1.764089457e-002 -3.943623591e+002 -3.943623591e+002 -4.1012e+000 -1.3796e+000
1910 0 +1.567813708e-002 -3.943643219e+002 -3.943643219e+002 -4.1012e+000 -1.3797e+000
1924 0 +1.218073854e-002 -3.943678193e+002 -3.943678193e+002 -4.1013e+000 -1.3796e+000
1942 0 +6.153988020e-003 -3.943738460e+002 -3.943738460e+002 -4.1012e+000 -1.3797e+000
1971 0 +3.149737065e-003 -3.943768503e+002 -3.943768503e+002 -4.1012e+000 -1.3797e+000
2014 0 +2.297060120e-003 -3.943777029e+002 -3.943777029e+002 -4.1012e+000 -1.3797e+000
2021 0 +1.117903977e-003 -3.943788821e+002 -3.943788821e+002 -4.1012e+000 -1.3797e+000
2022 0 +1.054685348e-003 -3.943789453e+002 -3.943789453e+002 -4.1012e+000 -1.3797e+000
2033 0 +9.858364534e-004 -3.943790142e+002 -3.943790142e+002 -4.1012e+000 -1.3797e+000
2037 0 +9.451704660e-004 -3.943790548e+002 -3.943790548e+002 -4.1012e+000 -1.3797e+000
2053 0 +5.156247968e-004 -3.943794844e+002 -3.943794844e+002 -4.1012e+000 -1.3797e+000
2070 0 +4.270871497e-004 -3.943795729e+002 -3.943795729e+002 -4.1012e+000 -1.3797e+000
2076 0 +4.177086952e-004 -3.943795823e+002 -3.943795823e+002 -4.1012e+000 -1.3797e+000
2078 0 +3.482645366e-004 -3.943796517e+002 -3.943796517e+002 -4.1012e+000 -1.3797e+000
2081 0 +1.008572754e-004 -3.943798991e+002 -3.943798991e+002 -4.1012e+000 -1.3797e+000
2082 0 +9.464213014e-005 -3.943799054e+002 -3.943799054e+002 -4.1012e+000 -1.3797e+000
2109 0 +6.115342319e-005 -3.943799388e+002 -3.943799388e+002 -4.1012e+000 -1.3797e+000
2132 0 +4.527220125e-005 -3.943799547e+002 -3.943799547e+002 -4.1012e+000 -1.3797e+000
2147 0 +3.813109754e-005 -3.943799619e+002 -3.943799619e+002 -4.1012e+000 -1.3797e+000
2157 0 +3.790276156e-005 -3.943799621e+002 -3.943799621e+002 -4.1012e+000 -1.3797e+000
2163 0 +3.480328047e-005 -3.943799652e+002 -3.943799652e+002 -4.1012e+000 -1.3797e+000
2177 0 +1.676442395e-005 -3.943799832e+002 -3.943799832e+002 -4.1012e+000 -1.3797e+000
2190 0 +1.154619554e-005 -3.943799885e+002 -3.943799885e+002 -4.1012e+000 -1.3797e+000
2220 0 +1.110849701e-005 -3.943799889e+002 -3.943799889e+002 -4.1012e+000 -1.3797e+000
2248 0 +8.418877485e-006 -3.943799916e+002 -3.943799916e+002 -4.1012e+000 -1.3797e+000
2249 0 +7.529647462e-006 -3.943799925e+002 -3.943799925e+002 -4.1012e+000 -1.3797e+000
2275 0 +6.756495793e-006 -3.943799932e+002 -3.943799932e+002 -4.1012e+000 -1.3797e+000
2278 0 +6.038103379e-006 -3.943799940e+002 -3.943799940e+002 -4.1012e+000 -1.3797e+000
2290 0 +3.411694820e-006 -3.943799966e+002 -3.943799966e+002 -4.1012e+000 -1.3797e+000
2295 0 +1.753076788e-006 -3.943799982e+002 -3.943799982e+002 -4.1012e+000 -1.3797e+000
2297 0 +1.723885191e-006 -3.943799983e+002 -3.943799983e+002 -4.1012e+000 -1.3797e+000
2309 0 +5.265234790e-007 -3.943799995e+002 -3.943799995e+002 -4.1012e+000 -1.3797e+000
2347 0 +3.184223374e-007 -3.943799997e+002 -3.943799997e+002 -4.1012e+000 -1.3797e+000
2352 0 +2.109396746e-007 -3.943799998e+002 -3.943799998e+002 -4.1012e+000 -1.3797e+000
2362 0 +1.841316362e-007 -3.943799998e+002 -3.943799998e+002 -4.1012e+000 -1.3797e+000
2393 0 +1.766492801e-007 -3.943799998e+002 -3.943799998e+002 -4.1012e+000 -1.3797e+000
2438 0 +1.402290764e-007 -3.943799999e+002 -3.943799999e+002 -4.1012e+000 -1.3797e+000
2455 0 +8.174004051e-008 -3.943799999e+002 -3.943799999e+002 -4.1012e+000 -1.3797e+000
2483 0 +8.122128747e-008 -3.943799999e+002 -3.943799999e+002 -4.1012e+000 -1.3797e+000
2507 0 +6.131301689e-008 -3.943799999e+002 -3.943799999e+002 -4.1012e+000 -1.3797e+000
2516 0 +4.422020083e-008 -3.943800000e+002 -3.943800000e+002 -4.1012e+000 -1.3797e+000
2520 0 +3.552878525e-008 -3.943800000e+002 -3.943800000e+002 -4.1012e+000 -1.3797e+000
2527 0 +2.719713166e-008 -3.943800000e+002 -3.943800000e+002 -4.1012e+000 -1.3797e+000
2547 0 +2.496716434e-008 -3.943800000e+002 -3.943800000e+002 -4.1012e+000 -1.3797e+000
2558 0 +1.818602868e-008 -3.943800000e+002 -3.943800000e+002 -4.1012e+000 -1.3797e+000
2560 0 +1.048397280e-008 -3.943800000e+002 -3.943800000e+002 -4.1012e+000 -1.3797e+000
2569 0 +9.154177860e-009 -3.943800000e+002 -3.943800000e+002 -4.1012e+000 -1.3797e+000
% f evaluations | g evaluations | best noise-free fitness - Fopt (5.443000000000e+001) + sum g_i+ | measured fitness | best measured fitness or single-digit g-values | x1 | x2...
1 0 +7.437547053e+001 +1.288054705e+002 +1.288054705e+002 +5.0000e+000 +5.0000e+000
2 0 +4.004498738e+001 +9.447498738e+001 +9.447498738e+001 -5.0000e+000 +5.0000e+000
5 0 +2.756039788e+001 +8.199039788e+001 +8.199039788e+001 -1.1258e+000 +5.0000e+000
8 0 +2.363990235e+001 +7.806990235e+001 +7.806990235e+001 -1.1258e+000 -5.0000e+000
12 0 +1.884435349e+001 +7.327435349e+001 +7.327435349e+001 -2.0879e+000 +5.0000e+000
13 0 +1.227168144e+001 +6.670168144e+001 +6.670168144e+001 -1.9823e+000 +5.0000e+000
25 0 +2.823080508e+000 +5.725308051e+001 +5.725308051e+001 -2.4828e+000 +5.0000e+000
182 0 +2.554494318e+000 +5.698449432e+001 +5.698449432e+001 -2.4830e+000 +5.0000e+000
268 0 +2.320903731e+000 +5.675090373e+001 +5.675090373e+001 -2.4831e+000 +5.0000e+000
284 0 +2.082072465e+000 +5.651207247e+001 +5.651207247e+001 -2.4832e+000 +5.0000e+000
295 0 +1.521716718e+000 +5.595171672e+001 +5.595171672e+001 -2.4836e+000 +5.0000e+000
303 0 +1.445384058e+000 +5.587538406e+001 +5.587538406e+001 -2.4839e+000 +5.0000e+000
308 0 +1.338831390e+000 +5.576883139e+001 +5.576883139e+001 -2.4836e+000 +5.0000e+000
313 0 +1.315785494e+000 +5.574578549e+001 +5.574578549e+001 -2.4837e+000 +5.0000e+000
338 0 +1.274189931e+000 +5.570418993e+001 +5.570418993e+001 -2.4837e+000 +5.0000e+000
407 0 +1.251637156e+000 +5.568163716e+001 +5.568163716e+001 -2.4837e+000 +5.0000e+000
1138 0 +1.225081717e+000 +5.565508172e+001 +5.565508172e+001 -4.3871e+000 -3.0615e+000
2795 0 +1.087949187e+000 +5.551794919e+001 +5.551794919e+001 -4.3873e+000 -3.0611e+000
2857 0 +9.434145202e-001 +5.537341452e+001 +5.537341452e+001 -4.3876e+000 -3.0605e+000
2861 0 +8.605869270e-001 +5.529058693e+001 +5.529058693e+001 -4.3878e+000 -3.0594e+000
2871 0 +5.216972125e-001 +5.495169721e+001 +5.495169721e+001 -4.3880e+000 -3.0575e+000
2905 0 +4.837387422e-001 +5.491373874e+001 +5.491373874e+001 -4.3880e+000 -3.0553e+000
2907 0 +3.480116200e-001 +5.477801162e+001 +5.477801162e+001 -4.3882e+000 -3.0552e+000
2917 0 +3.110409326e-001 +5.474104093e+001 +5.474104093e+001 -4.3882e+000 -3.0554e+000
2923 0 +2.698779290e-001 +5.469987793e+001 +5.469987793e+001 -4.3882e+000 -3.0552e+000
2926 0 +2.393310877e-001 +5.466933109e+001 +5.466933109e+001 -4.3889e+000 -3.0529e+000
2933 0 +2.219658639e-001 +5.465196586e+001 +5.465196586e+001 -4.3889e+000 -3.0530e+000
2953 0 +1.798222000e-001 +5.460982220e+001 +5.460982220e+001 -4.3888e+000 -3.0532e+000
2970 0 +1.689441629e-001 +5.459894416e+001 +5.459894416e+001 -4.3888e+000 -3.0533e+000
2973 0 +9.608052649e-002 +5.452608053e+001 +5.452608053e+001 -4.3887e+000 -3.0538e+000
2989 0 +9.492237873e-002 +5.452492238e+001 +5.452492238e+001 -4.3887e+000 -3.0538e+000
2997 0 +6.341676410e-002 +5.449341676e+001 +5.449341676e+001 -4.3887e+000 -3.0541e+000
3000 0 +5.539000856e-002 +5.448539001e+001 +5.448539001e+001 -4.3887e+000 -3.0540e+000
3016 0 +5.449463437e-002 +5.448449463e+001 +5.448449463e+001 -4.3887e+000 -3.0540e+000
3019 0 +4.322711932e-002 +5.447322712e+001 +5.447322712e+001 -4.3887e+000 -3.0540e+000
3036 0 +1.762063298e-002 +5.444762063e+001 +5.444762063e+001 -4.3886e+000 -3.0541e+000
3049 0 +1.110643132e-002 +5.444110643e+001 +5.444110643e+001 -4.3886e+000 -3.0542e+000
3056 0 +1.073666644e-002 +5.444073667e+001 +5.444073667e+001 -4.3886e+000 -3.0542e+000
3083 0 +7.822928256e-003 +5.443782293e+001 +5.443782293e+001 -4.3886e+000 -3.0542e+000
3092 0 +7.503335881e-003 +5.443750334e+001 +5.443750334e+001 -4.3886e+000 -3.0542e+000
3100 0 +7.280839528e-003 +5.443728084e+001 +5.443728084e+001 -4.3886e+000 -3.0542e+000
3118 0 +5.472937843e-003 +5.443547294e+001 +5.443547294e+001 -4.3886e+000 -3.0542e+000
3128 0 +4.661308155e-003 +5.443466131e+001 +5.443466131e+001 -4.3886e+000 -3.0542e+000
3142 0 +1.330397427e-003 +5.443133040e+001 +5.443133040e+001 -4.3886e+000 -3.0542e+000
3200 0 +6.976935568e-004 +5.443069769e+001 +5.443069769e+001 -4.3886e+000 -3.0542e+000
3215 0 +6.493890170e-004 +5.443064939e+001 +5.443064939e+001 -4.3886e+000 -3.0542e+000
3266 0 +6.048203776e-004 +5.443060482e+001 +5.443060482e+001 -4.3886e+000 -3.0542e+000
3272 0 +5.639889469e-004 +5.443056399e+001 +5.443056399e+001 -4.3886e+000 -3.0542e+000
3273 0 +5.005092200e-004 +5.443050051e+001 +5.443050051e+001 -4.3886e+000 -3.0542e+000
3275 0 +2.341987314e-004 +5.443023420e+001 +5.443023420e+001 -4.3886e+000 -3.0542e+000
3304 0 +2.202607015e-004 +5.443022026e+001 +5.443022026e+001 -4.3886e+000 -3.0542e+000
3316 0 +1.464174067e-004 +5.443014642e+001 +5.443014642e+001 -4.3886e+000 -3.0542e+000
3341 0 +1.161123549e-004 +5.443011611e+001 +5.443011611e+001 -4.3886e+000 -3.0542e+000
3353 0 +9.858647075e-005 +5.443009859e+001 +5.443009859e+001 -4.3886e+000 -3.0542e+000
3357 0 +6.854546291e-005 +5.443006855e+001 +5.443006855e+001 -4.3886e+000 -3.0542e+000
3362 0 +6.213766370e-005 +5.443006214e+001 +5.443006214e+001 -4.3886e+000 -3.0542e+000
3389 0 +5.686291301e-005 +5.443005686e+001 +5.443005686e+001 -4.3886e+000 -3.0542e+000
3396 0 +4.117749145e-005 +5.443004118e+001 +5.443004118e+001 -4.3886e+000 -3.0542e+000
3407 0 +4.028920576e-005 +5.443004029e+001 +5.443004029e+001 -4.3886e+000 -3.0542e+000
3417 0 +2.435324210e-005 +5.443002435e+001 +5.443002435e+001 -4.3886e+000 -3.0542e+000
3420 0 +2.352893119e-005 +5.443002353e+001 +5.443002353e+001 -4.3886e+000 -3.0542e+000
3435 0 +1.297714928e-005 +5.443001298e+001 +5.443001298e+001 -4.3886e+000 -3.0542e+000
3449 0 +7.512170221e-006 +5.443000751e+001 +5.443000751e+001 -4.3886e+000 -3.0542e+000
3463 0 +5.863041558e-006 +5.443000586e+001 +5.443000586e+001 -4.3886e+000 -3.0542e+000
3488 0 +3.018133150e-006 +5.443000302e+001 +5.443000302e+001 -4.3886e+000 -3.0542e+000
3508 0 +2.678316605e-006 +5.443000268e+001 +5.443000268e+001 -4.3886e+000 -3.0542e+000
3518 0 +2.101449823e-006 +5.443000210e+001 +5.443000210e+001 -4.3886e+000 -3.0542e+000
3533 0 +1.639554661e-006 +5.443000164e+001 +5.443000164e+001 -4.3886e+000 -3.0542e+000
3536 0 +1.548755044e-006 +5.443000155e+001 +5.443000155e+001 -4.3886e+000 -3.0542e+000
3540 0 +3.011658478e-007 +5.443000030e+001 +5.443000030e+001 -4.3886e+000 -3.0542e+000
3549 0 +1.708150421e-007 +5.443000017e+001 +5.443000017e+001 -4.3886e+000 -3.0542e+000
3574 0 +1.403693517e-007 +5.443000014e+001 +5.443000014e+001 -4.3886e+000 -3.0542e+000
3585 0 +1.360950819e-007 +5.443000014e+001 +5.443000014e+001 -4.3886e+000 -3.0542e+000
3641 0 +5.047971996e-008 +5.443000005e+001 +5.443000005e+001 -4.3886e+000 -3.0542e+000
3647 0 +4.285406874e-008 +5.443000004e+001 +5.443000004e+001 -4.3886e+000 -3.0542e+000
3650 0 +3.902392365e-008 +5.443000004e+001 +5.443000004e+001 -4.3886e+000 -3.0542e+000
3658 0 +3.661400427e-008 +5.443000004e+001 +5.443000004e+001 -4.3886e+000 -3.0542e+000
3677 0 +2.791453113e-008 +5.443000003e+001 +5.443000003e+001 -4.3886e+000 -3.0542e+000
3682 0 +1.788885129e-008 +5.443000002e+001 +5.443000002e+001 -4.3886e+000 -3.0542e+000
3685 0 +1.763648072e-008 +5.443000002e+001 +5.443000002e+001 -4.3886e+000 -3.0542e+000
3692 0 +1.532058036e-008 +5.443000002e+001 +5.443000002e+001 -4.3886e+000 -3.0542e+000
3695 0 +1.482572998e-008 +5.443000001e+001 +5.443000001e+001 -4.3886e+000 -3.0542e+000
3706 0 +1.364798408e-008 +5.443000001e+001 +5.443000001e+001 -4.3886e+000 -3.0542e+000
3711 0 +1.131723337e-008 +5.443000001e+001 +5.443000001e+001 -4.3886e+000 -3.0542e+000
3719 0 +9.065665552e-009 +5.443000001e+001 +5.443000001e+001 -4.3886e+000 -3.0542e+000
% f evaluations | g evaluations | best noise-free fitness - Fopt (1.396900000000e+002) + sum g_i+ | measured fitness | best measured fitness or single-digit g-values | x1 | x2...
1 0 +5.938322841e+001 +1.990732284e+002 +1.990732284e+002 -5.0000e+000 -5.0000e+000
2 0 +3.518705810e+001 +1.748770581e+002 +1.748770581e+002 +5.0000e+000 -5.0000e+000
3 0 +2.714065027e+001 +1.668306503e+002 +1.668306503e+002 -5.0000e+000 +5.0000e+000
4 0 +1.411552139e+001 +1.538055214e+002 +1.538055214e+002 +5.0000e+000 +5.0000e+000
7 0 +3.298205429e+000 +1.429882054e+002 +1.429882054e+002 +4.3215e+000 +4.8540e+000
160 0 +2.187581153e+000 +1.418775812e+002 +1.418775812e+002 +8.9939e-001 +4.9076e+000
217 0 +1.506319439e+000 +1.411963194e+002 +1.411963194e+002 +9.1003e-001 +4.8983e+000
249 0 +1.458513722e+000 +1.411485137e+002 +1.411485137e+002 +9.0991e-001 +4.8984e+000
314 0 +7.555488889e-001 +1.404455489e+002 +1.404455489e+002 +1.0590e+000 +4.9570e+000
585 0 +6.761740229e-001 +1.403661740e+002 +1.403661740e+002 +1.0567e+000 +4.9590e+000
595 0 +5.746151898e-001 +1.402646152e+002 +1.402646152e+002 +1.0583e+000 +4.9576e+000
617 0 +5.161699818e-001 +1.402061700e+002 +1.402061700e+002 +1.0580e+000 +4.9575e+000
619 0 +4.734352564e-001 +1.401634353e+002 +1.401634353e+002 +1.0579e+000 +4.9577e+000
654 0 +1.988037884e-001 +1.398888038e+002 +1.398888038e+002 +1.0569e+000 +4.9584e+000
667 0 +1.940427830e-001 +1.398840428e+002 +1.398840428e+002 +1.0563e+000 +4.9588e+000
669 0 +1.008808536e-001 +1.397908809e+002 +1.397908809e+002 +1.0566e+000 +4.9586e+000
707 0 +9.617684354e-002 +1.397861768e+002 +1.397861768e+002 +1.0566e+000 +4.9586e+000
740 0 +8.515124692e-002 +1.397751512e+002 +1.397751512e+002 +1.0565e+000 +4.9586e+000
747 0 +8.506578668e-002 +1.397750658e+002 +1.397750658e+002 +1.0565e+000 +4.9586e+000
768 0 +8.085728381e-002 +1.397708573e+002 +1.397708573e+002 +1.0565e+000 +4.9586e+000
771 0 +1.271716947e-002 +1.397027172e+002 +1.397027172e+002 +1.0562e+000 +4.9588e+000
772 0 +7.092007286e-003 +1.396970920e+002 +1.396970920e+002 +1.0562e+000 +4.9588e+000
774 0 +7.011021809e-003 +1.396970110e+002 +1.396970110e+002 +1.0562e+000 +4.9588e+000
814 0 +4.894486775e-003 +1.396948945e+002 +1.396948945e+002 +1.0562e+000 +4.9588e+000
828 0 +3.527060793e-003 +1.396935271e+002 +1.396935271e+002 +1.0562e+000 +4.9588e+000
829 0 +2.703877125e-003 +1.396927039e+002 +1.396927039e+002 +1.0562e+000 +4.9588e+000
853 0 +2.594848707e-003 +1.396925948e+002 +1.396925948e+002 +1.0562e+000 +4.9588e+000
858 0 +7.582331413e-004 +1.396907582e+002 +1.396907582e+002 +1.0562e+000 +4.9588e+000
924 0 +7.294906850e-004 +1.396907295e+002 +1.396907295e+002 +1.0562e+000 +4.9588e+000
926 0 +3.188003630e-004 +1.396903188e+002 +1.396903188e+002 +1.0562e+000 +4.9588e+000
962 0 +3.104344502e-004 +1.396903104e+002 +1.396903104e+002 +1.0562e+000 +4.9588e+000
972 0 +2.262362475e-004 +1.396902262e+002 +1.396902262e+002 +1.0562e+000 +4.9588e+000
974 0 +2.022819575e-004 +1.396902023e+002 +1.396902023e+002 +1.0562e+000 +4.9588e+000
992 0 +9.036795390e-005 +1.396900904e+002 +1.396900904e+002 +1.0562e+000 +4.9588e+000
1014 0 +8.421128106e-005 +1.396900842e+002 +1.396900842e+002 +1.0562e+000 +4.9588e+000
1019 0 +7.345920727e-005 +1.396900735e+002 +1.396900735e+002 +1.0562e+000 +4.9588e+000
1024 0 +7.147059495e-005 +1.396900715e+002 +1.396900715e+002 +1.0562e+000 +4.9588e+000
1042 0 +1.286124854e-005 +1.396900129e+002 +1.396900129e+002 +1.0562e+000 +4.9588e+000
1051 0 +1.046730262e-005 +1.396900105e+002 +1.396900105e+002 +1.0562e+000 +4.9588e+000
1063 0 +6.925508472e-006 +1.396900069e+002 +1.396900069e+002 +1.0562e+000 +4.9588e+000
1091 0 +6.727676578e-006 +1.396900067e+002 +1.396900067e+002 +1.0562e+000 +4.9588e+000
1098 0 +2.869929062e-006 +1.396900029e+002 +1.396900029e+002 +1.0562e+000 +4.9588e+000
1103 0 +1.725214901e-006 +1.396900017e+002 +1.396900017e+002 +1.0562e+000 +4.9588e+000
1116 0 +9.326990664e-007 +1.396900009e+002 +1.396900009e+002 +1.0562e+000 +4.9588e+000
1188 0 +8.420929589e-007 +1.396900008e+002 +1.396900008e+002 +1.0562e+000 +4.9588e+000
1196 0 +7.750802808e-007 +1.396900008e+002 +1.396900008e+002 +1.0562e+000 +4.9588e+000
1217 0 +7.322309443e-007 +1.396900007e+002 +1.396900007e+002 +1.0562e+000 +4.9588e+000
1245 0 +6.455897221e-007 +1.396900006e+002 +1.396900006e+002 +1.0562e+000 +4.9588e+000
1259 0 +3.702317031e-007 +1.396900004e+002 +1.396900004e+002 +1.0562e+000 +4.9588e+000
1261 0 +3.384685954e-007 +1.396900003e+002 +1.396900003e+002 +1.0562e+000 +4.9588e+000
1267 0 +3.027762432e-007 +1.396900003e+002 +1.396900003e+002 +1.0562e+000 +4.9588e+000
1270 0 +2.803383552e-007 +1.396900003e+002 +1.396900003e+002 +1.0562e+000 +4.9588e+000
1271 0 +1.948718307e-007 +1.396900002e+002 +1.396900002e+002 +1.0562e+000 +4.9588e+000
1283 0 +1.216340877e-007 +1.396900001e+002 +1.396900001e+002 +1.0562e+000 +4.9588e+000
1307 0 +1.083060397e-007 +1.396900001e+002 +1.396900001e+002 +1.0562e+000 +4.9588e+000
1313 0 +1.735625688e-008 +1.396900000e+002 +1.396900000e+002 +1.0562e+000 +4.9588e+000
1318 0 +1.574491648e-008 +1.396900000e+002 +1.396900000e+002 +1.0562e+000 +4.9588e+000
1331 0 +1.053413712e-008 +1.396900000e+002 +1.396900000e+002 +1.0562e+000 +4.9588e+000
1335 0 +6.185643997e-009 +1.396900000e+002 +1.396900000e+002 +1.0562e+000 +4.9588e+000
% f evaluations | g evaluations | best noise-free fitness - Fopt (-5.794000000000e+001) + sum g_i+ | measured fitness | best measured fitness or single-digit g-values | x1 | x2...
1 0 +5.985378794e+001 +1.913787938e+000 +1.913787938e+000 +5.0000e+000 -5.0000e+000
2 0 +5.769515726e+001 -2.448427391e-001 -2.448427391e-001 -5.0000e+000 -5.0000e+000
3 0 +4.205551990e+001 -1.588448010e+001 -1.588448010e+001 +5.0000e+000 +5.0000e+000
4 0 +2.059362865e+001 -3.734637135e+001 -3.734637135e+001 -5.0000e+000 +5.0000e+000
5 0 +1.943178607e+001 -3.850821393e+001 -3.850821393e+001 -5.0000e+000 -3.1687e+000
13 0 +1.371916301e+001 -4.422083699e+001 -4.422083699e+001 -1.5881e+000 -5.0000e+000
17 0 +1.223941568e+001 -4.570058432e+001 -4.570058432e+001 +1.2967e+000 +1.3942e+000
19 0 +8.481998227e+000 -4.945800177e+001 -4.945800177e+001 -4.4275e+000 +1.3942e+000
49 0 +3.728474945e+000 -5.421152506e+001 -5.421152506e+001 -4.6514e+000 +3.1751e+000
50 0 +3.277612503e+000 -5.466238750e+001 -5.466238750e+001 -3.2644e+000 +3.6849e+000
266 0 +1.956702259e+000 -5.598329774e+001 -5.598329774e+001 -4.1739e+000 +1.7706e+000
400 0 +1.750968119e+000 -5.618903188e+001 -5.618903188e+001 -3.8835e+000 +4.8696e+000
781 0 +1.304090542e+000 -5.663590946e+001 -5.663590946e+001 -3.8358e+000 +4.9412e+000
935 0 +5.871303541e-001 -5.735286965e+001 -5.735286965e+001 -3.8344e+000 +4.9435e+000
1019 0 +3.562171013e-001 -5.758378290e+001 -5.758378290e+001 -3.8347e+000 +4.9431e+000
1020 0 +3.479907379e-001 -5.759200926e+001 -5.759200926e+001 -3.8346e+000 +4.9432e+000
1030 0 +3.016730712e-001 -5.763832693e+001 -5.763832693e+001 -3.8346e+000 +4.9429e+000
1096 0 +2.732966394e-001 -5.766670336e+001 -5.766670336e+001 -3.8345e+000 +4.9425e+000
1102 0 +1.940178989e-001 -5.774598210e+001 -5.774598210e+001 -3.8346e+000 +4.9422e+000
1106 0 +1.817681011e-001 -5.775823190e+001 -5.775823190e+001 -3.8344e+000 +4.9418e+000
1113 0 +1.658379648e-001 -5.777416204e+001 -5.777416204e+001 -3.8344e+000 +4.9417e+000
1118 0 +1.608856048e-001 -5.777911440e+001 -5.777911440e+001 -3.8344e+000 +4.9417e+000
1127 0 +1.522563081e-001 -5.778774369e+001 -5.778774369e+001 -3.8344e+000 +4.9417e+000
1134 0 +1.463446743e-001 -5.779365533e+001 -5.779365533e+001 -3.8344e+000 +4.9417e+000
1148 0 +3.344521751e-002 -5.790655478e+001 -5.790655478e+001 -3.8345e+000 +4.9415e+000
1151 0 +1.208943666e-002 -5.792791056e+001 -5.792791056e+001 -3.8345e+000 +4.9415e+000
1154 0 +7.187090082e-003 -5.793281291e+001 -5.793281291e+001 -3.8345e+000 +4.9415e+000
1165 0 +4.902168816e-003 -5.793509783e+001 -5.793509783e+001 -3.8345e+000 +4.9415e+000
1200 0 +3.570540683e-003 -5.793642946e+001 -5.793642946e+001 -3.8345e+000 +4.9415e+000
1236 0 +3.135688695e-003 -5.793686431e+001 -5.793686431e+001 -3.8345e+000 +4.9415e+000
1246 0 +2.228191376e-003 -5.793777181e+001 -5.793777181e+001 -3.8345e+000 +4.9415e+000
1266 0 +2.184959129e-003 -5.793781504e+001 -5.793781504e+001 -3.8345e+000 +4.9415e+000
1289 0 +2.068449647e-003 -5.793793155e+001 -5.793793155e+001 -3.8345e+000 +4.9415e+000
1291 0 +1.487236142e-003 -5.793851276e+001 -5.793851276e+001 -3.8345e+000 +4.9415e+000
1292 0 +1.124109702e-003 -5.793887589e+001 -5.793887589e+001 -3.8345e+000 +4.9415e+000
1296 0 +4.598578781e-004 -5.793954014e+001 -5.793954014e+001 -3.8345e+000 +4.9415e+000
1301 0 +4.144119988e-004 -5.793958559e+001 -5.793958559e+001 -3.8345e+000 +4.9415e+000
1302 0 +4.049964950e-004 -5.793959500e+001 -5.793959500e+001 -3.8345e+000 +4.9415e+000
1311 0 +1.546030950e-004 -5.793984540e+001 -5.793984540e+001 -3.8345e+000 +4.9415e+000
1410 0 +1.145505733e-004 -5.793988545e+001 -5.793988545e+001 -3.8345e+000 +4.9415e+000
1411 0 +1.014858072e-004 -5.793989851e+001 -5.793989851e+001 -3.8345e+000 +4.9415e+000
1417 0 +5.470457113e-005 -5.793994530e+001 -5.793994530e+001 -3.8345e+000 +4.9415e+000
1421 0 +4.506693153e-005 -5.793995493e+001 -5.793995493e+001 -3.8345e+000 +4.9415e+000
1431 0 +2.841118084e-005 -5.793997159e+001 -5.793997159e+001 -3.8345e+000 +4.9415e+000
1441 0 +2.661969602e-005 -5.793997338e+001 -5.793997338e+001 -3.8345e+000 +4.9415e+000
1444 0 +2.415931115e-005 -5.793997584e+001 -5.793997584e+001 -3.8345e+000 +4.9415e+000
1449 0 +2.351601785e-005 -5.793997648e+001 -5.793997648e+001 -3.8345e+000 +4.9415e+000
1450 0 +1.640911082e-005 -5.793998359e+001 -5.793998359e+001 -3.8345e+000 +4.9415e+000
1460 0 +1.437145551e-005 -5.793998563e+001 -5.793998563e+001 -3.8345e+000 +4.9415e+000
1489 0 +9.424568184e-006 -5.793999058e+001 -5.793999058e+001 -3.8345e+000 +4.9415e+000
1521 0 +8.508387602e-006 -5.793999149e+001 -5.793999149e+001 -3.8345e+000 +4.9415e+000
1543 0 +6.233262440e-006 -5.793999377e+001 -5.793999377e+001 -3.8345e+000 +4.9415e+000
1545 0 +4.677358064e-006 -5.793999532e+001 -5.793999532e+001 -3.8345e+000 +4.9415e+000
1551 0 +4.431266639e-006 -5.793999557e+001 -5.793999557e+001 -3.8345e+000 +4.9415e+000
1574 0 +3.103818862e-006 -5.793999690e+001 -5.793999690e+001 -3.8345e+000 +4.9415e+000
1578 0 +2.999218374e-006 -5.793999700e+001 -5.793999700e+001 -3.8345e+000 +4.9415e+000
1611 0 +2.829540868e-006 -5.793999717e+001 -5.793999717e+001 -3.8345e+000 +4.9415e+000
1633 0 +2.623716163e-006 -5.793999738e+001 -5.793999738e+001 -3.8345e+000 +4.9415e+000
1647 0 +2.473000329e-006 -5.793999753e+001 -5.793999753e+001 -3.8345e+000 +4.9415e+000
1649 0 +1.873412529e-006 -5.793999813e+001 -5.793999813e+001 -3.8345e+000 +4.9415e+000
1653 0 +1.442765431e-006 -5.793999856e+001 -5.793999856e+001 -3.8345e+000 +4.9415e+000
1656 0 +1.353266747e-006 -5.793999865e+001 -5.793999865e+001 -3.8345e+000 +4.9415e+000
1659 0 +3.680671128e-007 -5.793999963e+001 -5.793999963e+001 -3.8345e+000 +4.9415e+000
1668 0 +3.149761980e-007 -5.793999969e+001 -5.793999969e+001 -3.8345e+000 +4.9415e+000
1671 0 +2.582007355e-007 -5.793999974e+001 -5.793999974e+001 -3.8345e+000 +4.9415e+000
1711 0 +2.496872966e-007 -5.793999975e+001 -5.793999975e+001 -3.8345e+000 +4.9415e+000
1713 0 +1.534593181e-007 -5.793999985e+001 -5.793999985e+001 -3.8345e+000 +4.9415e+000
1731 0 +6.529400309e-008 -5.793999993e+001 -5.793999993e+001 -3.8345e+000 +4.9415e+000
1748 0 +6.151952903e-008 -5.793999994e+001 -5.793999994e+001 -3.8345e+000 +4.9415e+000
1768 0 +5.914331780e-008 -5.793999994e+001 -5.793999994e+001 -3.8345e+000 +4.9415e+000
1819 0 +5.887734034e-008 -5.793999994e+001 -5.793999994e+001 -3.8345e+000 +4.9415e+000
1830 0 +4.125693920e-008 -5.793999996e+001 -5.793999996e+001 -3.8345e+000 +4.9415e+000
1832 0 +2.789968079e-008 -5.793999997e+001 -5.793999997e+001 -3.8345e+000 +4.9415e+000
1852 0 +1.931278604e-008 -5.793999998e+001 -5.793999998e+001 -3.8345e+000 +4.9415e+000
1854 0 +6.577799638e-009 -5.793999999e+001 -5.793999999e+001 -3.8345e+000 +4.9415e+000
% f evaluations | g evaluations | best noise-free fitness - Fopt (1.253900000000e+002) + sum g_i+ | measured fitness | best measured fitness or single-digit g-values | x1 | x2...
1 0 +7.466827920e+001 +2.000582792e+002 +2.000582792e+002 -5.0000e+000 -5.0000e+000
2 0 +4.184891208e+001 +1.672389121e+002 +1.672389121e+002 +5.0000e+000 -5.0000e+000
7 0 +2.651504266e+001 +1.519050427e+002 +1.519050427e+002 +5.0000e+000 +1.6790e-001
11 0 +9.427126419e+000 +1.348171264e+002 +1.348171264e+002 +5.0000e+000 +1.7976e+000
36 0 +6.453751546e+000 +1.318437515e+002 +1.318437515e+002 +5.0000e+000 +1.7913e+000
63 0 +3.540364378e+000 +1.289303644e+002 +1.289303644e+002 +4.7787e+000 +1.9569e+000
70 0 +2.395169938e+000 +1.277851699e+002 +1.277851699e+002 +5.0000e+000 +1.2286e+000
169 0 +1.570718647e+000 +1.269607186e+002 +1.269607186e+002 +5.0000e+000 +1.2346e+000
199 0 +1.499032560e+000 +1.268890326e+002 +1.268890326e+002 +5.0000e+000 +1.2349e+000
1261 0 +1.447059849e+000 +1.268370598e+002 +1.268370598e+002 +4.6085e+000 +4.3502e+000
1398 0 +1.241435067e+000 +1.266314351e+002 +1.266314351e+002 +4.6084e+000 +4.3475e+000
1817 0 +9.514733118e-001 +1.263414733e+002 +1.263414733e+002 +4.6085e+000 +4.3480e+000
1897 0 +9.131267076e-001 +1.263031267e+002 +1.263031267e+002 +4.6086e+000 +4.3478e+000
1898 0 +9.078101554e-001 +1.262978102e+002 +1.262978102e+002 +4.6085e+000 +4.3478e+000
1926 0 +8.879838775e-001 +1.262779839e+002 +1.262779839e+002 +4.6086e+000 +4.3477e+000
1930 0 +8.219428977e-001 +1.262119429e+002 +1.262119429e+002 +4.6087e+000 +4.3460e+000
1931 0 +7.505261661e-001 +1.261405262e+002 +1.261405262e+002 +4.6088e+000 +4.3450e+000
1942 0 +7.088697632e-001 +1.260988698e+002 +1.260988698e+002 +4.6088e+000 +4.3447e+000
1944 0 +5.939066027e-001 +1.259839066e+002 +1.259839066e+002 +4.6091e+000 +4.3416e+000
1946 0 +2.718446330e-001 +1.256618446e+002 +1.256618446e+002 +4.6095e+000 +4.3367e+000
1952 0 +1.849670702e-001 +1.255749671e+002 +1.255749671e+002 +4.6096e+000 +4.3357e+000
1966 0 +1.518552314e-001 +1.255418552e+002 +1.255418552e+002 +4.6096e+000 +4.3356e+000
1974 0 +1.450489675e-001 +1.255350490e+002 +1.255350490e+002 +4.6096e+000 +4.3355e+000
1993 0 +1.394248244e-001 +1.255294248e+002 +1.255294248e+002 +4.6096e+000 +4.3355e+000
2001 0 +1.258223559e-001 +1.255158224e+002 +1.255158224e+002 +4.6097e+000 +4.3352e+000
2077 0 +1.208146526e-001 +1.255108147e+002 +1.255108147e+002 +4.6097e+000 +4.3353e+000
2078 0 +9.385378798e-002 +1.254838538e+002 +1.254838538e+002 +4.6097e+000 +4.3357e+000
2079 0 +8.865826251e-002 +1.254786583e+002 +1.254786583e+002 +4.6097e+000 +4.3355e+000
2081 0 +3.954866092e-002 +1.254295487e+002 +1.254295487e+002 +4.6097e+000 +4.3352e+000
2082 0 +3.795222360e-002 +1.254279522e+002 +1.254279522e+002 +4.6097e+000 +4.3352e+000
2105 0 +2.285507590e-002 +1.254128551e+002 +1.254128551e+002 +4.6097e+000 +4.3352e+000
2125 0 +2.209207649e-002 +1.254120921e+002 +1.254120921e+002 +4.6097e+000 +4.3352e+000
2130 0 +1.945838948e-002 +1.254094584e+002 +1.254094584e+002 +4.6097e+000 +4.3352e+000
2140 0 +1.259980154e-002 +1.254025998e+002 +1.254025998e+002 +4.6097e+000 +4.3353e+000
2160 0 +8.302033382e-003 +1.253983020e+002 +1.253983020e+002 +4.6097e+000 +4.3352e+000
2173 0 +5.333524771e-003 +1.253953335e+002 +1.253953335e+002 +4.6097e+000 +4.3352e+000
2174 0 +4.985574698e-003 +1.253949856e+002 +1.253949856e+002 +4.6097e+000 +4.3352e+000
2197 0 +3.355344290e-003 +1.253933553e+002 +1.253933553e+002 +4.6097e+000 +4.3352e+000
2221 0 +1.918195228e-003 +1.253919182e+002 +1.253919182e+002 +4.6097e+000 +4.3352e+000
2261 0 +1.433338487e-003 +1.253914333e+002 +1.253914333e+002 +4.6097e+000 +4.3352e+000
2280 0 +8.840070723e-004 +1.253908840e+002 +1.253908840e+002 +4.6097e+000 +4.3352e+000
2282 0 +8.110507283e-004 +1.253908111e+002 +1.253908111e+002 +4.6097e+000 +4.3352e+000
2300 0 +5.664107309e-004 +1.253905664e+002 +1.253905664e+002 +4.6097e+000 +4.3352e+000
2323 0 +1.844000885e-004 +1.253901844e+002 +1.253901844e+002 +4.6097e+000 +4.3352e+000
2335 0 +8.172225463e-005 +1.253900817e+002 +1.253900817e+002 +4.6097e+000 +4.3352e+000
2385 0 +6.180721955e-005 +1.253900618e+002 +1.253900618e+002 +4.6097e+000 +4.3352e+000
2419 0 +5.447515385e-005 +1.253900545e+002 +1.253900545e+002 +4.6097e+000 +4.3352e+000
2425 0 +5.059853989e-005 +1.253900506e+002 +1.253900506e+002 +4.6097e+000 +4.3352e+000
2429 0 +4.720957254e-005 +1.253900472e+002 +1.253900472e+002 +4.6097e+000 +4.3352e+000
2446 0 +3.701332093e-005 +1.253900370e+002 +1.253900370e+002 +4.6097e+000 +4.3352e+000
2467 0 +3.557452045e-005 +1.253900356e+002 +1.253900356e+002 +4.6097e+000 +4.3352e+000
2478 0 +3.111692008e-005 +1.253900311e+002 +1.253900311e+002 +4.6097e+000 +4.3352e+000
2489 0 +2.229738067e-005 +1.253900223e+002 +1.253900223e+002 +4.6097e+000 +4.3352e+000
2490 0 +2.168985783e-005 +1.253900217e+002 +1.253900217e+002 +4.6097e+000 +4.3352e+000
2499 0 +2.074646042e-005 +1.253900207e+002 +1.253900207e+002 +4.6097e+000 +4.3352e+000
2507 0 +1.915912965e-005 +1.253900192e+002 +1.253900192e+002 +4.6097e+000 +4.3352e+000
2510 0 +9.461546270e-006 +1.253900095e+002 +1.253900095e+002 +4.6097e+000 +4.3352e+000
2511 0 +6.594333826e-006 +1.253900066e+002 +1.253900066e+002 +4.6097e+000 +4.3352e+000
2527 0 +5.951703685e-006 +1.253900060e+002 +1.253900060e+002 +4.6097e+000 +4.3352e+000
2547 0 +5.654321100e-006 +1.253900057e+002 +1.253900057e+002 +4.6097e+000 +4.3352e+000
2579 0 +4.211482974e-006 +1.253900042e+002 +1.253900042e+002 +4.6097e+000 +4.3352e+000
2586 0 +3.856067735e-006 +1.253900039e+002 +1.253900039e+002 +4.6097e+000 +4.3352e+000
2632 0 +3.754986864e-006 +1.253900038e+002 +1.253900038e+002 +4.6097e+000 +4.3352e+000
2723 0 +3.620810574e-006 +1.253900036e+002 +1.253900036e+002 +4.6097e+000 +4.3352e+000
2729 0 +3.499172706e-006 +1.253900035e+002 +1.253900035e+002 +4.6097e+000 +4.3352e+000
2787 0 +3.466747586e-006 +1.253900035e+002 +1.253900035e+002 +4.6097e+000 +4.3352e+000
2800 0 +3.195545091e-006 +1.253900032e+002 +1.253900032e+002 +4.6097e+000 +4.3352e+000
2804 0 +3.130743892e-006 +1.253900031e+002 +1.253900031e+002 +4.6097e+000 +4.3352e+000
2805 0 +2.994935826e-006 +1.253900030e+002 +1.253900030e+002 +4.6097e+000 +4.3352e+000
2806 0 +2.946020217e-006 +1.253900029e+002 +1.253900029e+002 +4.6097e+000 +4.3352e+000
2817 0 +2.514582476e-006 +1.253900025e+002 +1.253900025e+002 +4.6097e+000 +4.3352e+000
2818 0 +2.446461167e-006 +1.253900024e+002 +1.253900024e+002 +4.6097e+000 +4.3352e+000
2823 0 +1.704330927e-006 +1.253900017e+002 +1.253900017e+002 +4.6097e+000 +4.3352e+000
2824 0 +1.688644772e-006 +1.253900017e+002 +1.253900017e+002 +4.6097e+000 +4.3352e+000
2825 0 +1.540869206e-006 +1.253900015e+002 +1.253900015e+002 +4.6097e+000 +4.3352e+000
2826 0 +5.201000448e-007 +1.253900005e+002 +1.253900005e+002 +4.6097e+000 +4.3352e+000
2828 0 +3.151399994e-007 +1.253900003e+002 +1.253900003e+002 +4.6097e+000 +4.3352e+000
2843 0 +3.016739498e-007 +1.253900003e+002 +1.253900003e+002 +4.6097e+000 +4.3352e+000
2862 0 +2.901257972e-007 +1.253900003e+002 +1.253900003e+002 +4.6097e+000 +4.3352e+000
2867 0 +2.367866898e-007 +1.253900002e+002 +1.253900002e+002 +4.6097e+000 +4.3352e+000
2893 0 +1.476492599e-007 +1.253900001e+002 +1.253900001e+002 +4.6097e+000 +4.3352e+000
2917 0 +1.179451914e-007 +1.253900001e+002 +1.253900001e+002 +4.6097e+000 +4.3352e+000
2920 0 +1.101543887e-007 +1.253900001e+002 +1.253900001e+002 +4.6097e+000 +4.3352e+000
2935 0 +8.155538467e-008 +1.253900001e+002 +1.253900001e+002 +4.6097e+000 +4.3352e+000
2961 0 +7.884793263e-008 +1.253900001e+002 +1.253900001e+002 +4.6097e+000 +4.3352e+000
2965 0 +7.021162673e-008 +1.253900001e+002 +1.253900001e+002 +4.6097e+000 +4.3352e+000
2995 0 +1.723378773e-008 +1.253900000e+002 +1.253900000e+002 +4.6097e+000 +4.3352e+000
3007 0 +8.729784895e-009 +1.253900000e+002 +1.253900000e+002 +4.6097e+000 +4.3352e+000
