% f evaluations | g evaluations | best noise-free fitness - Fopt (-5.235000000000e+001) + sum g_i+ | measured fitness | best measured fitness or single-digit g-values | x1 | x2...
1 0 +3.434811788e+001 -1.800188212e+001 -1.800188212e+001 -5.0000e+000 -5.0000e+000 +5.0000e+000
2 0 +7.366922799e+000 -4.498307720e+001 -4.498307720e+001 +5.0000e+000 -5.0000e+000 +5.0000e+000
9 0 +3.711652725e+000 -4.863834728e+001 -4.863834728e+001 +1.8532e-001 -2.4833e+000 +5.0000e+000
10 0 +1.548727094e+000 -5.080127291e+001 -5.080127291e+001 -5.4389e-001 -2.0245e+000 +4.0237e+000
11 0 +1.415413758e+000 -5.093458624e+001 -5.093458624e+001 -6.9746e-001 -2.0820e+000 +3.8992e+000
12 0 +1.406184118e+000 -5.094381588e+001 -5.094381588e+001 -7.6009e-001 -2.1129e+000 +3.8622e+000
48 0 +1.192795001e+000 -5.115720500e+001 -5.115720500e+001 -8.3266e-001 -2.4418e+000 +2.8061e+000
55 0 +7.168902594e-001 -5.163310974e+001 -5.163310974e+001 -8.2629e-001 -2.0820e+000 +2.8104e+000
63 0 +6.617245619e-001 -5.168827544e+001 -5.168827544e+001 -8.2387e-001 -1.9804e+000 +2.9086e+000
68 0 +6.569244629e-001 -5.169307554e+001 -5.169307554e+001 -8.1981e-001 -1.9731e+000 +2.9116e+000
84 0 +3.332106350e-001 -5.201678937e+001 -5.201678937e+001 -8.1343e-001 -1.8621e+000 +2.4225e+000
87 0 +3.226146213e-001 -5.202738538e+001 -5.202738538e+001 -8.1594e-001 -1.8989e+000 +2.2918e+000
89 0 +2.617117750e-001 -5.208828823e+001 -5.208828823e+001 -9.4179e-001 -1.2400e+000 +2.0820e+000
104 0 +1.160938109e-001 -5.223390619e+001 -5.223390619e+001 -8.0174e-001 -1.0383e+000 +2.3881e+000
113 0 +1.051757156e-001 -5.224482428e+001 -5.224482428e+001 -8.3364e-001 -1.1524e+000 +2.3265e+000
117 0 +1.011673339e-001 -5.224883267e+001 -5.224883267e+001 -8.4942e-001 -1.1595e+000 +2.8146e+000
118 0 +2.432002267e-002 -5.232567998e+001 -5.232567998e+001 -8.4718e-001 -1.2129e+000 +2.5836e+000
121 0 +1.576033863e-002 -5.233423966e+001 -5.233423966e+001 -8.5141e-001 -1.1928e+000 +2.5201e+000
193 0 +1.230024162e-002 -5.233769976e+001 -5.233769976e+001 -8.3285e-001 -1.3613e+000 +2.3704e+000
271 0 +9.310471719e-003 -5.234068953e+001 -5.234068953e+001 -8.3105e-001 -1.3432e+000 +2.3603e+000
312 0 +7.562486275e-003 -5.234243751e+001 -5.234243751e+001 -8.3448e-001 -1.3421e+000 +2.3812e+000
334 0 +4.940685087e-003 -5.234505931e+001 -5.234505931e+001 -8.2667e-001 -1.2096e+000 +2.5011e+000
351 0 +4.396484496e-003 -5.234560352e+001 -5.234560352e+001 -8.3637e-001 -1.1940e+000 +2.5319e+000
364 0 +2.815329685e-003 -5.234718467e+001 -5.234718467e+001 -8.3729e-001 -1.2214e+000 +2.4970e+000
405 0 +2.404772006e-003 -5.234759523e+001 -5.234759523e+001 -8.4404e-001 -1.2395e+000 +2.5000e+000
414 0 +1.516306118e-003 -5.234848369e+001 -5.234848369e+001 -8.4815e-001 -1.2413e+000 +2.4972e+000
500 0 +1.420361058e-003 -5.234857964e+001 -5.234857964e+001 -8.4877e-001 -1.2320e+000 +2.5137e+000
527 0 +1.369716923e-003 -5.234863028e+001 -5.234863028e+001 -8.4973e-001 -1.2335e+000 +2.5139e+000
631 0 +7.195291726e-004 -5.234928047e+001 -5.234928047e+001 -8.4988e-001 -1.2355e+000 +2.5100e+000
650 0 +7.073591805e-004 -5.234929264e+001 -5.234929264e+001 -8.5106e-001 -1.2373e+000 +2.5088e+000
651 0 +5.609491083e-004 -5.234943905e+001 -5.234943905e+001 -8.5213e-001 -1.2363e+000 +2.5125e+000
665 0 +4.217497747e-004 -5.234957825e+001 -5.234957825e+001 -8.4950e-001 -1.2475e+000 +2.4961e+000
695 0 +3.204173188e-004 -5.234967958e+001 -5.234967958e+001 -8.5039e-001 -1.2490e+000 +2.4966e+000
710 0 +2.888422728e-004 -5.234971116e+001 -5.234971116e+001 -8.5106e-001 -1.2507e+000 +2.4959e+000
726 0 +2.680440337e-004 -5.234973196e+001 -5.234973196e+001 -8.5183e-001 -1.2499e+000 +2.4982e+000
744 0 +2.441047761e-004 -5.234975590e+001 -5.234975590e+001 -8.5191e-001 -1.2515e+000 +2.4967e+000
763 0 +2.322428594e-004 -5.234976776e+001 -5.234976776e+001 -8.5205e-001 -1.2524e+000 +2.4963e+000
776 0 +2.248373852e-004 -5.234977516e+001 -5.234977516e+001 -8.5194e-001 -1.2525e+000 +2.4960e+000
779 0 +1.820863185e-004 -5.234981791e+001 -5.234981791e+001 -8.5517e-001 -1.2622e+000 +2.4917e+000
797 0 +1.447810465e-004 -5.234985522e+001 -5.234985522e+001 -8.5905e-001 -1.2634e+000 +2.4979e+000
805 0 +1.302448102e-004 -5.234986976e+001 -5.234986976e+001 -8.5826e-001 -1.2597e+000 +2.5002e+000
820 0 +1.009803909e-004 -5.234989902e+001 -5.234989902e+001 -8.5815e-001 -1.2594e+000 +2.5002e+000
846 0 +8.670543973e-005 -5.234991329e+001 -5.234991329e+001 -8.5795e-001 -1.2584e+000 +2.5008e+000
855 0 +8.001492152e-005 -5.234991999e+001 -5.234991999e+001 -8.5831e-001 -1.2578e+000 +2.5020e+000
877 0 +7.801838624e-005 -5.234992198e+001 -5.234992198e+001 -8.5832e-001 -1.2567e+000 +2.5031e+000
882 0 +7.141061414e-005 -5.234992859e+001 -5.234992859e+001 -8.5862e-001 -1.2569e+000 +2.5034e+000
908 0 +6.650238029e-005 -5.234993350e+001 -5.234993350e+001 -8.5895e-001 -1.2567e+000 +2.5043e+000
931 0 +6.552470890e-005 -5.234993448e+001 -5.234993448e+001 -8.5968e-001 -1.2576e+000 +2.5047e+000
957 0 +3.306957964e-005 -5.234996693e+001 -5.234996693e+001 -8.6255e-001 -1.2516e+000 +2.5160e+000
970 0 +3.152738089e-005 -5.234996847e+001 -5.234996847e+001 -8.6440e-001 -1.2507e+000 +2.5203e+000
983 0 +2.045576665e-005 -5.234997954e+001 -5.234997954e+001 -8.6428e-001 -1.2504e+000 +2.5204e+000
984 0 +1.907426703e-005 -5.234998093e+001 -5.234998093e+001 -8.6582e-001 -1.2482e+000 +2.5253e+000
997 0 +1.590225965e-005 -5.234998410e+001 -5.234998410e+001 -8.6782e-001 -1.2448e+000 +2.5324e+000
1002 0 +1.462577426e-005 -5.234998537e+001 -5.234998537e+001 -8.6722e-001 -1.2461e+000 +2.5301e+000
1007 0 +1.323677834e-005 -5.234998676e+001 -5.234998676e+001 -8.7089e-001 -1.2419e+000 +2.5409e+000
1021 0 +1.007444432e-005 -5.234998993e+001 -5.234998993e+001 -8.7149e-001 -1.2405e+000 +2.5435e+000
1064 0 +9.915375337e-006 -5.234999008e+001 -5.234999008e+001 -8.7136e-001 -1.2407e+000 +2.5431e+000
1082 0 +4.359167960e-006 -5.234999564e+001 -5.234999564e+001 -8.7144e-001 -1.2425e+000 +2.5414e+000
1107 0 +3.654012509e-006 -5.234999635e+001 -5.234999635e+001 -8.7003e-001 -1.2447e+000 +2.5366e+000
1122 0 +2.729188203e-006 -5.234999727e+001 -5.234999727e+001 -8.7261e-001 -1.2412e+000 +2.5448e+000
1171 0 +2.506508636e-006 -5.234999749e+001 -5.234999749e+001 -8.7305e-001 -1.2406e+000 +2.5462e+000
1175 0 +1.775605632e-006 -5.234999822e+001 -5.234999822e+001 -8.7351e-001 -1.2407e+000 +2.5469e+000
1183 0 +1.162642022e-006 -5.234999884e+001 -5.234999884e+001 -8.7304e-001 -1.2422e+000 +2.5445e+000
1188 0 +6.494891380e-007 -5.234999935e+001 -5.234999935e+001 -8.7342e-001 -1.2419e+000 +2.5456e+000
1206 0 +5.653997661e-007 -5.234999943e+001 -5.234999943e+001 -8.7346e-001 -1.2421e+000 +2.5454e+000
1266 0 +4.186336966e-007 -5.234999958e+001 -5.234999958e+001 -8.7335e-001 -1.2433e+000 +2.5440e+000
1269 0 +3.135701832e-007 -5.234999969e+001 -5.234999969e+001 -8.7332e-001 -1.2433e+000 +2.5439e+000
1284 0 +1.794640241e-007 -5.234999982e+001 -5.234999982e+001 -8.7309e-001 -1.2432e+000 +2.5436e+000
1307 0 +1.279287787e-007 -5.234999987e+001 -5.234999987e+001 -8.7258e-001 -1.2436e+000 +2.5422e+000
1373 0 +1.032061476e-007 -5.234999990e+001 -5.234999990e+001 -8.7263e-001 -1.2436e+000 +2.5423e+000
1389 0 +2.575252012e-008 -5.234999997e+001 -5.234999997e+001 -8.7264e-001 -1.2437e+000 +2.5423e+000
1412 0 +2.360802398e-008 -5.234999998e+001 -5.234999998e+001 -8.7264e-001 -1.2437e+000 +2.5423e+000
1455 0 +2.171408653e-008 -5.234999998e+001 -5.234999998e+001 -8.7260e-001 -1.2437e+000 +2.5422e+000
1456 0 +1.962322216e-008 -5.234999998e+001 -5.234999998e+001 -8.7258e-001 -1.2437e+000 +2.5421e+000
1537 0 +1.949160122e-008 -5.234999998e+001 -5.234999998e+001 -8.7261e-001 -1.2437e+000 +2.5422e+000
1635 0 +1.741794620e-008 -5.234999998e+001 -5.234999998e+001 -8.7258e-001 -1.2437e+000 +2.5421e+000
1649 0 +1.728835741e-008 -5.234999998e+001 -5.234999998e+001 -8.7259e-001 -1.2437e+000 +2.5421e+000
1656 0 +1.583244114e-008 -5.234999998e+001 -5.234999998e+001 -8.7256e-001 -1.2438e+000 +2.5420e+000
1671 0 +1.525217641e-008 -5.234999998e+001 -5.234999998e+001 -8.7257e-001 -1.2438e+000 +2.5420e+000
1672 0 +1.490916901e-008 -5.234999999e+001 -5.234999999e+001 -8.7257e-001 -1.2438e+000 +2.5421e+000
1680 0 +1.440422892e-008 -5.234999999e+001 -5.234999999e+001 -8.7234e-001 -1.2441e+000 +2.5413e+000
1685 0 +5.703412853e-009 -5.234999999e+001 -5.234999999e+001 -8.7242e-001 -1.2441e+000 +2.5415e+000
% f evaluations | g evaluations | best noise-free fitness - Fopt (-1.795400000000e+002) + sum g_i+ | measured fitness | best measured fitness or single-digit g-values | x1 | x2...
1 0 +2.594002130e+002 +7.986021302e+001 +7.986021302e+001 -5.0000e+000 +5.0000e+000 -5.0000e+000
2 0 +4.440564690e+001 -1.351343531e+002 -1.351343531e+002 +5.0000e+000 +5.0000e+000 -5.0000e+000
6 0 +3.036218206e+001 -1.491778179e+002 -1.491778179e+002 -2.9273e+000 -3.7137e+000 +9.5452e-003
7 0 +1.377102208e+001 -1.657689779e+002 -1.657689779e+002 -1.6483e-001 -4.1312e+000 -1.8133e-001
10 0 +9.486588276e+000 -1.700534117e+002 -1.700534117e+002 +1.2201e+000 -5.0000e+000 -9.7001e-001
11 0 +6.972725298e+000 -1.725672747e+002 -1.725672747e+002 +1.3625e+000 -1.5965e+000 -9.4054e-001
46 0 +6.389989073e+000 -1.731500109e+002 -1.731500109e+002 +1.7228e+000 -9.6735e-001 -1.0165e+000
69 0 +4.877115458e+000 -1.746628845e+002 -1.746628845e+002 +1.8453e+000 +1.5115e+000 -1.1647e+000
75 0 +4.685552263e+000 -1.748544477e+002 -1.748544477e+002 +3.3443e-001 +1.5070e+000 -1.2778e+000
79 0 +4.555395175e+000 -1.749846048e+002 -1.749846048e+002 +3.7310e-001 +2.2432e+000 -1.3213e+000
80 0 +4.379063014e+000 -1.751609370e+002 -1.751609370e+002 +4.8946e-001 +2.7838e+000 -1.4027e+000
81 0 +4.330063639e+000 -1.752099364e+002 -1.752099364e+002 +4.0266e-001 +2.7870e+000 -1.4237e+000
84 0 +3.869978658e+000 -1.756700213e+002 -1.756700213e+002 +9.7957e-001 +4.1048e-001 -1.4629e+000
86 0 +3.732497764e+000 -1.758075022e+002 -1.758075022e+002 +7.9460e-001 +4.1874e-001 -1.5123e+000
94 0 +3.188010919e+000 -1.763519891e+002 -1.763519891e+002 +1.2388e+000 +1.2158e+000 -1.6111e+000
95 0 +9.365619681e-002 -1.794463438e+002 -1.794463438e+002 +5.0194e-001 +5.2896e-001 -3.1660e+000
215 0 +8.822288795e-002 -1.794517771e+002 -1.794517771e+002 +4.6383e-001 +6.0155e-001 -3.2429e+000
240 0 +6.394868729e-002 -1.794760513e+002 -1.794760513e+002 +5.5765e-001 +5.1357e-001 -3.2158e+000
275 0 +3.422488657e-002 -1.795057751e+002 -1.795057751e+002 +7.4688e-001 +5.5901e-001 -3.5619e+000
300 0 +2.651522839e-002 -1.795134848e+002 -1.795134848e+002 +7.3176e-001 +5.5251e-001 -3.5340e+000
315 0 +1.718494098e-002 -1.795228151e+002 -1.795228151e+002 +7.0126e-001 +5.3643e-001 -3.5846e+000
336 0 +8.369370459e-003 -1.795316306e+002 -1.795316306e+002 +6.5990e-001 +5.2444e-001 -3.4974e+000
369 0 +7.218919428e-003 -1.795327811e+002 -1.795327811e+002 +6.7889e-001 +5.2388e-001 -3.5038e+000
409 0 +6.817635894e-003 -1.795331824e+002 -1.795331824e+002 +6.9077e-001 +5.3401e-001 -3.4754e+000
415 0 +5.576705393e-003 -1.795344233e+002 -1.795344233e+002 +6.9920e-001 +5.3278e-001 -3.4914e+000
459 0 +2.339291098e-003 -1.795376607e+002 -1.795376607e+002 +7.2069e-001 +5.2425e-001 -3.4979e+000
512 0 +2.288469116e-003 -1.795377115e+002 -1.795377115e+002 +6.9834e-001 +5.2573e-001 -3.4900e+000
522 0 +1.797196221e-003 -1.795382028e+002 -1.795382028e+002 +7.0138e-001 +5.2803e-001 -3.4883e+000
577 0 +1.619681092e-003 -1.795383803e+002 -1.795383803e+002 +6.8058e-001 +5.2709e-001 -3.4465e+000
605 0 +1.189104386e-003 -1.795388109e+002 -1.795388109e+002 +6.9835e-001 +5.2617e-001 -3.4787e+000
616 0 +1.079738387e-003 -1.795389203e+002 -1.795389203e+002 +6.9563e-001 +5.2671e-001 -3.4738e+000
661 0 +1.025277116e-003 -1.795389747e+002 -1.795389747e+002 +7.0546e-001 +5.2486e-001 -3.4738e+000
662 0 +7.485065223e-004 -1.795392515e+002 -1.795392515e+002 +7.8114e-001 +5.1656e-001 -3.4593e+000
668 0 +5.032553740e-004 -1.795394967e+002 -1.795394967e+002 +7.8404e-001 +5.1637e-001 -3.4662e+000
696 0 +3.576890843e-004 -1.795396423e+002 -1.795396423e+002 +7.9739e-001 +5.1403e-001 -3.4638e+000
698 0 +3.261617387e-004 -1.795396738e+002 -1.795396738e+002 +8.2540e-001 +5.1105e-001 -3.4596e+000
731 0 +2.292652629e-004 -1.795397707e+002 -1.795397707e+002 +7.4582e-001 +5.1998e-001 -3.4633e+000
782 0 +1.785570758e-004 -1.795398214e+002 -1.795398214e+002 +7.4299e-001 +5.2017e-001 -3.4605e+000
815 0 +1.621347350e-004 -1.795398379e+002 -1.795398379e+002 +7.4522e-001 +5.1986e-001 -3.4597e+000
827 0 +1.478860815e-004 -1.795398521e+002 -1.795398521e+002 +7.8448e-001 +5.1546e-001 -3.4604e+000
831 0 +1.133591980e-004 -1.795398866e+002 -1.795398866e+002 +8.1230e-001 +5.1213e-001 -3.4567e+000
834 0 +8.805313735e-005 -1.795399119e+002 -1.795399119e+002 +8.2773e-001 +5.0954e-001 -3.4445e+000
854 0 +7.521303894e-005 -1.795399248e+002 -1.795399248e+002 +8.2876e-001 +5.0942e-001 -3.4447e+000
882 0 +4.471689655e-005 -1.795399553e+002 -1.795399553e+002 +8.2629e-001 +5.0967e-001 -3.4447e+000
910 0 +1.087477716e-005 -1.795399891e+002 -1.795399891e+002 +8.1337e-001 +5.1137e-001 -3.4485e+000
1027 0 +6.826190628e-006 -1.795399932e+002 -1.795399932e+002 +8.1181e-001 +5.1155e-001 -3.4483e+000
1071 0 +6.033099766e-006 -1.795399940e+002 -1.795399940e+002 +8.1084e-001 +5.1167e-001 -3.4485e+000
1091 0 +4.382164548e-006 -1.795399956e+002 -1.795399956e+002 +8.0604e-001 +5.1225e-001 -3.4490e+000
1193 0 +4.230037263e-006 -1.795399958e+002 -1.795399958e+002 +8.0578e-001 +5.1229e-001 -3.4491e+000
1197 0 +2.778482468e-006 -1.795399972e+002 -1.795399972e+002 +8.0700e-001 +5.1208e-001 -3.4482e+000
1205 0 +1.729156310e-006 -1.795399983e+002 -1.795399983e+002 +7.9907e-001 +5.1304e-001 -3.4489e+000
1211 0 +1.638514533e-006 -1.795399984e+002 -1.795399984e+002 +8.0160e-001 +5.1273e-001 -3.4487e+000
1268 0 +1.519780170e-006 -1.795399985e+002 -1.795399985e+002 +8.0292e-001 +5.1256e-001 -3.4483e+000
1272 0 +1.325304453e-006 -1.795399987e+002 -1.795399987e+002 +8.0324e-001 +5.1252e-001 -3.4483e+000
1314 0 +1.275102022e-006 -1.795399987e+002 -1.795399987e+002 +8.0331e-001 +5.1250e-001 -3.4482e+000
1327 0 +1.177989787e-006 -1.795399988e+002 -1.795399988e+002 +8.0250e-001 +5.1261e-001 -3.4483e+000
1334 0 +1.080808318e-006 -1.795399989e+002 -1.795399989e+002 +8.0093e-001 +5.1280e-001 -3.4485e+000
1346 0 +8.124988256e-007 -1.795399992e+002 -1.795399992e+002 +8.0086e-001 +5.1279e-001 -3.4483e+000
1354 0 +7.048570581e-007 -1.795399993e+002 -1.795399993e+002 +8.0007e-001 +5.1289e-001 -3.4483e+000
1400 0 +5.797544134e-007 -1.795399994e+002 -1.795399994e+002 +7.9825e-001 +5.1310e-001 -3.4484e+000
1411 0 +3.924913585e-007 -1.795399996e+002 -1.795399996e+002 +7.9564e-001 +5.1339e-001 -3.4483e+000
1425 0 +2.628837876e-007 -1.795399997e+002 -1.795399997e+002 +7.8950e-001 +5.1410e-001 -3.4485e+000
1429 0 +2.328144717e-007 -1.795399998e+002 -1.795399998e+002 +7.8878e-001 +5.1420e-001 -3.4488e+000
1470 0 +1.931805969e-007 -1.795399998e+002 -1.795399998e+002 +7.9000e-001 +5.1405e-001 -3.4486e+000
1483 0 +1.836219496e-007 -1.795399998e+002 -1.795399998e+002 +7.9237e-001 +5.1377e-001 -3.4484e+000
1496 0 +8.051006262e-008 -1.795399999e+002 -1.795399999e+002 +7.9229e-001 +5.1377e-001 -3.4483e+000
1507 0 +7.185411732e-008 -1.795399999e+002 -1.795399999e+002 +7.9168e-001 +5.1384e-001 -3.4484e+000
1530 0 +6.971183097e-008 -1.795399999e+002 -1.795399999e+002 +7.9262e-001 +5.1373e-001 -3.4482e+000
1562 0 +6.739657010e-008 -1.795399999e+002 -1.795399999e+002 +7.9329e-001 +5.1365e-001 -3.4482e+000
1577 0 +1.282947437e-008 -1.795400000e+002 -1.795400000e+002 +7.9164e-001 +5.1383e-001 -3.4481e+000
1622 0 +1.241193104e-008 -1.795400000e+002 -1.795400000e+002 +7.9184e-001 +5.1382e-001 -3.4482e+000
1647 0 +9.718007732e-009 -1.795400000e+002 -1.795400000e+002 +7.9188e-001 +5.1381e-001 -3.4482e+000
% f evaluations | g evaluations | best noise-free fitness - Fopt (7.731000000000e+001) + sum g_i+ | measured fitness | best measured fitness or single-digit g-values | x1 | x2...
1 0 +4.891391286e+002 +5.664491286e+002 +5.664491286e+002 -5.0000e+000 -5.0000e+000 -5.0000e+000
2 0 +3.078338010e+001 +1.080933801e+002 +1.080933801e+002 +5.0000e+000 -5.0000e+000 -5.0000e+000
3 0 +1.293385978e+001 +9.024385978e+001 +9.024385978e+001 -5.0000e+000 +5.0000e+000 -5.0000e+000
9 0 +1.466638502e+000 +7.877663850e+001 +7.877663850e+001 -3.8620e-001 -9.9825e-001 -1.7226e+000
48 0 +1.390710652e+000 +7.870071065e+001 +7.870071065e+001 -3.6401e-001 -9.7932e-001 -1.6686e+000
55 0 +1.376950610e+000 +7.868695061e+001 +7.868695061e+001 -3.5897e-001 -9.7506e-001 -1.6570e+000
60 0 +1.346673570e+000 +7.865667357e+001 +7.865667357e+001 -3.4907e-001 -9.6780e-001 -1.6549e+000
65 0 +1.298651246e+000 +7.860865125e+001 +7.860865125e+001 -2.5239e-001 -9.7770e-001 -1.4661e+000
74 0 +1.281407472e+000 +7.859140747e+001 +7.859140747e+001 -2.4249e-001 -9.7045e-001 -1.4639e+000
80 0 +9.833140309e-001 +7.829331403e+001 +7.829331403e+001 -2.1854e-001 -8.6924e-001 -2.0399e+000
85 0 +4.234676504e-001 +7.773346765e+001 +7.773346765e+001 +9.0956e-002 -8.5254e-001 -2.0091e+000
89 0 +3.288280153e-001 +7.763882802e+001 +7.763882802e+001 +3.9228e-001 -8.3977e-001 -2.5154e+000
95 0 +1.727487649e-001 +7.748274876e+001 +7.748274876e+001 +5.1295e-001 -9.4768e-001 -2.3586e+000
108 0 +1.551109955e-001 +7.746511100e+001 +7.746511100e+001 +8.4270e-001 -9.6749e-001 -2.4613e+000
111 0 +1.536450347e-001 +7.746364503e+001 +7.746364503e+001 +8.3902e-001 -9.6487e-001 -2.4736e+000
133 0 +8.698420009e-002 +7.739698420e+001 +7.739698420e+001 +7.2943e-001 -8.0292e-001 -2.1255e+000
145 0 +2.051269145e-002 +7.733051269e+001 +7.733051269e+001 +7.3207e-001 -6.5474e-001 -2.1042e+000
229 0 +1.392087300e-002 +7.732392087e+001 +7.732392087e+001 +8.3452e-001 -6.0907e-001 -2.0537e+000
247 0 +8.633939426e-003 +7.731863394e+001 +7.731863394e+001 +8.6405e-001 -6.5715e-001 -2.1624e+000
317 0 +5.104728600e-003 +7.731510473e+001 +7.731510473e+001 +8.5836e-001 -6.5629e-001 -2.1636e+000
405 0 +4.699060659e-003 +7.731469906e+001 +7.731469906e+001 +8.9531e-001 -5.9576e-001 -2.0968e+000
428 0 +4.365567915e-003 +7.731436557e+001 +7.731436557e+001 +9.0007e-001 -6.4452e-001 -2.1922e+000
449 0 +1.923627431e-003 +7.731192363e+001 +7.731192363e+001 +9.5970e-001 -5.4683e-001 -2.0843e+000
493 0 +1.482342383e-003 +7.731148234e+001 +7.731148234e+001 +9.5594e-001 -5.4480e-001 -2.0764e+000
652 0 +1.448847393e-003 +7.731144885e+001 +7.731144885e+001 +9.5608e-001 -5.4474e-001 -2.0762e+000
697 0 +1.323283423e-003 +7.731132328e+001 +7.731132328e+001 +9.5543e-001 -5.4487e-001 -2.0730e+000
720 0 +1.296913172e-003 +7.731129691e+001 +7.731129691e+001 +9.4231e-001 -5.8896e-001 -2.1370e+000
724 0 +8.130940916e-004 +7.731081309e+001 +7.731081309e+001 +9.4757e-001 -5.8576e-001 -2.1337e+000
742 0 +5.417314777e-004 +7.731054173e+001 +7.731054173e+001 +9.5927e-001 -5.6948e-001 -2.1179e+000
751 0 +4.230612205e-005 +7.731004231e+001 +7.731004231e+001 +8.7633e-001 -6.2615e-001 -2.1401e+000
810 0 +4.046219448e-005 +7.731004046e+001 +7.731004046e+001 +8.7664e-001 -6.2582e-001 -2.1399e+000
875 0 +2.301010170e-005 +7.731002301e+001 +7.731002301e+001 +8.9394e-001 -6.0610e-001 -2.1222e+000
925 0 +1.455432167e-005 +7.731001455e+001 +7.731001455e+001 +8.9484e-001 -6.0622e-001 -2.1232e+000
991 0 +1.326043105e-005 +7.731001326e+001 +7.731001326e+001 +8.9384e-001 -6.0758e-001 -2.1246e+000
998 0 +5.864183237e-006 +7.731000586e+001 +7.731000586e+001 +8.9428e-001 -6.0721e-001 -2.1243e+000
1007 0 +1.510931284e-006 +7.731000151e+001 +7.731000151e+001 +8.9352e-001 -6.0865e-001 -2.1260e+000
1012 0 +1.329371159e-006 +7.731000133e+001 +7.731000133e+001 +8.9380e-001 -6.0835e-001 -2.1258e+000
1120 0 +5.474808376e-007 +7.731000055e+001 +7.731000055e+001 +8.9379e-001 -6.0868e-001 -2.1263e+000
1151 0 +4.638235396e-007 +7.731000046e+001 +7.731000046e+001 +8.9490e-001 -6.0860e-001 -2.1271e+000
1153 0 +4.393423723e-007 +7.731000044e+001 +7.731000044e+001 +8.9483e-001 -6.0868e-001 -2.1272e+000
1179 0 +2.628075748e-007 +7.731000026e+001 +7.731000026e+001 +8.9548e-001 -6.0799e-001 -2.1266e+000
1200 0 +2.455646069e-007 +7.731000025e+001 +7.731000025e+001 +8.9485e-001 -6.0811e-001 -2.1263e+000
1222 0 +9.375349919e-008 +7.731000009e+001 +7.731000009e+001 +8.9503e-001 -6.0807e-001 -2.1264e+000
1273 0 +8.726418343e-008 +7.731000009e+001 +7.731000009e+001 +8.9503e-001 -6.0807e-001 -2.1264e+000
1283 0 +7.677675740e-008 +7.731000008e+001 +7.731000008e+001 +8.9503e-001 -6.0808e-001 -2.1264e+000
1295 0 +7.246313771e-008 +7.731000007e+001 +7.731000007e+001 +8.9508e-001 -6.0806e-001 -2.1264e+000
1302 0 +4.389657704e-008 +7.731000004e+001 +7.731000004e+001 +8.9514e-001 -6.0803e-001 -2.1264e+000
1324 0 +4.741693260e-009 +7.731000000e+001 +7.731000000e+001 +8.9554e-001 -6.0778e-001 -2.1263e+000
% f evaluations | g evaluations | best noise-free fitness - Fopt (3.992000000000e+001) + sum g_i+ | measured fitness | best measured fitness or single-digit g-values | x1 | x2...
1 0 +1.117640630e+002 +1.516840630e+002 +1.516840630e+002 -5.0000e+000 +5.0000e+000 +5.0000e+000
3 0 +8.109007719e+001 +1.210100772e+002 +1.210100772e+002 -5.0000e+000 -5.0000e+000 +5.0000e+000
4 0 +2.398510571e+001 +6.390510571e+001 +6.390510571e+001 -5.0000e+000 +5.0000e+000 -5.0000e+000
7 0 +1.087164871e+001 +5.079164871e+001 +5.079164871e+001 +2.6750e+000 -4.0241e-002 -1.6685e+000
9 0 +8.029503949e+000 +4.794950395e+001 +4.794950395e+001 -1.6164e+000 +2.5495e+000 +1.4143e+000
12 0 +7.014980460e+000 +4.693498046e+001 +4.693498046e+001 -2.4884e+000 +1.6160e+000 +1.5964e+000
14 0 +6.646187606e+000 +4.656618761e+001 +4.656618761e+001 -2.0861e+000 +1.4891e+000 +1.9846e+000
46 0 +4.662844413e+000 +4.458284441e+001 +4.458284441e+001 +7.4278e-001 +1.6237e+000 +1.4145e+000
55 0 +4.349577152e+000 +4.426957715e+001 +4.426957715e+001 +1.9668e-001 +8.5507e-001 +1.2335e+000
64 0 +2.264679617e+000 +4.218467962e+001 +4.218467962e+001 +1.8111e+000 -2.5941e-001 +2.1272e+000
65 0 +1.309775162e+000 +4.122977516e+001 +4.122977516e+001 +2.8534e+000 -4.0697e-001 +2.0351e+000
89 0 +9.205378867e-001 +4.084053789e+001 +4.084053789e+001 +2.8847e+000 -1.4277e+000 +2.5371e+000
90 0 +8.777724185e-001 +4.079777242e+001 +4.079777242e+001 +3.6918e+000 -2.1349e+000 +2.5003e+000
91 0 +7.224191485e-001 +4.064241915e+001 +4.064241915e+001 +4.5591e+000 -1.5423e+000 +2.4442e+000
99 0 +4.327029938e-001 +4.035270299e+001 +4.035270299e+001 +4.3058e+000 -1.4220e+000 +2.3679e+000
101 0 +2.471272687e-001 +4.016712727e+001 +4.016712727e+001 +4.1194e+000 -1.2805e+000 +2.4651e+000
114 0 +5.891109533e-002 +3.997891110e+001 +3.997891110e+001 +3.8878e+000 -1.2822e+000 +2.4857e+000
142 0 +5.446003618e-002 +3.997446004e+001 +3.997446004e+001 +3.8826e+000 -1.2822e+000 +2.4829e+000
229 0 +3.688115246e-002 +3.995688115e+001 +3.995688115e+001 +3.8614e+000 -1.2675e+000 +2.4757e+000
278 0 +2.852856969e-002 +3.994852857e+001 +3.994852857e+001 +3.9553e+000 -1.1223e+000 +2.2276e+000
284 0 +2.633455440e-002 +3.994633455e+001 +3.994633455e+001 +3.9747e+000 -1.1396e+000 +2.3209e+000
337 0 +7.224748448e-003 +3.992722475e+001 +3.992722475e+001 +3.9082e+000 -1.1794e+000 +2.3607e+000
372 0 +7.022035745e-003 +3.992702204e+001 +3.992702204e+001 +3.9083e+000 -1.1680e+000 +2.3744e+000
395 0 +3.772762289e-003 +3.992377276e+001 +3.992377276e+001 +3.9108e+000 -1.1541e+000 +2.3989e+000
550 0 +3.606194651e-003 +3.992360619e+001 +3.992360619e+001 +3.9150e+000 -1.1541e+000 +2.3991e+000
566 0 +8.578065993e-004 +3.992085781e+001 +3.992085781e+001 +3.9426e+000 -1.1086e+000 +2.3667e+000
605 0 +6.568787975e-004 +3.992065688e+001 +3.992065688e+001 +3.9370e+000 -1.1185e+000 +2.3669e+000
620 0 +1.081676955e-004 +3.992010817e+001 +3.992010817e+001 +3.9505e+000 -1.0858e+000 +2.3667e+000
668 0 +8.892218891e-005 +3.992008892e+001 +3.992008892e+001 +3.9497e+000 -1.0871e+000 +2.3675e+000
761 0 +5.932509035e-005 +3.992005933e+001 +3.992005933e+001 +3.9449e+000 -1.1013e+000 +2.3655e+000
880 0 +5.853176115e-005 +3.992005853e+001 +3.992005853e+001 +3.9445e+000 -1.1022e+000 +2.3655e+000
902 0 +5.721883202e-005 +3.992005722e+001 +3.992005722e+001 +3.9456e+000 -1.0996e+000 +2.3654e+000
967 0 +4.100616734e-005 +3.992004101e+001 +3.992004101e+001 +3.9443e+000 -1.0887e+000 +2.3815e+000
1038 0 +2.257354510e-005 +3.992002257e+001 +3.992002257e+001 +3.9451e+000 -1.0871e+000 +2.3811e+000
1047 0 +2.081592987e-005 +3.992002082e+001 +3.992002082e+001 +3.9453e+000 -1.0868e+000 +2.3808e+000
1092 0 +1.971424344e-005 +3.992001971e+001 +3.992001971e+001 +3.9455e+000 -1.0930e+000 +2.3732e+000
1122 0 +1.939323962e-005 +3.992001939e+001 +3.992001939e+001 +3.9456e+000 -1.0923e+000 +2.3738e+000
1126 0 +1.427955697e-005 +3.992001428e+001 +3.992001428e+001 +3.9462e+000 -1.0899e+000 +2.3746e+000
1134 0 +1.395391543e-005 +3.992001395e+001 +3.992001395e+001 +3.9457e+000 -1.0906e+000 +2.3752e+000
1136 0 +9.863542971e-006 +3.992000986e+001 +3.992000986e+001 +3.9460e+000 -1.0886e+000 +2.3766e+000
1152 0 +7.586593675e-006 +3.992000759e+001 +3.992000759e+001 +3.9463e+000 -1.0859e+000 +2.3790e+000
1161 0 +6.959974883e-006 +3.992000696e+001 +3.992000696e+001 +3.9464e+000 -1.0857e+000 +2.3788e+000
1191 0 +6.632450564e-006 +3.992000663e+001 +3.992000663e+001 +3.9465e+000 -1.0855e+000 +2.3789e+000
1213 0 +5.131929456e-006 +3.992000513e+001 +3.992000513e+001 +3.9468e+000 -1.0844e+000 +2.3792e+000
1235 0 +4.705035643e-006 +3.992000471e+001 +3.992000471e+001 +3.9468e+000 -1.0840e+000 +2.3796e+000
1237 0 +4.653911191e-006 +3.992000465e+001 +3.992000465e+001 +3.9468e+000 -1.0839e+000 +2.3798e+000
1282 0 +4.132811583e-006 +3.992000413e+001 +3.992000413e+001 +3.9470e+000 -1.0832e+000 +2.3801e+000
1325 0 +3.953942716e-006 +3.992000395e+001 +3.992000395e+001 +3.9470e+000 -1.0829e+000 +2.3803e+000
1377 0 +3.274967064e-006 +3.992000327e+001 +3.992000327e+001 +3.9475e+000 -1.0818e+000 +2.3800e+000
1393 0 +3.055185054e-006 +3.992000306e+001 +3.992000306e+001 +3.9476e+000 -1.0817e+000 +2.3801e+000
1397 0 +1.394947851e-006 +3.992000139e+001 +3.992000139e+001 +3.9481e+000 -1.0791e+000 +2.3814e+000
1399 0 +1.369503799e-006 +3.992000137e+001 +3.992000137e+001 +3.9481e+000 -1.0791e+000 +2.3814e+000
1413 0 +1.200324697e-006 +3.992000120e+001 +3.992000120e+001 +3.9483e+000 -1.0788e+000 +2.3813e+000
1416 0 +1.152519566e-006 +3.992000115e+001 +3.992000115e+001 +3.9482e+000 -1.0788e+000 +2.3813e+000
1457 0 +1.138753674e-006 +3.992000114e+001 +3.992000114e+001 +3.9487e+000 -1.0781e+000 +2.3810e+000
1459 0 +8.309331534e-007 +3.992000083e+001 +3.992000083e+001 +3.9486e+000 -1.0775e+000 +2.3818e+000
1463 0 +6.712929093e-007 +3.992000067e+001 +3.992000067e+001 +3.9489e+000 -1.0759e+000 +2.3828e+000
1471 0 +6.047486707e-007 +3.992000060e+001 +3.992000060e+001 +3.9496e+000 -1.0721e+000 +2.3849e+000
1475 0 +5.543362818e-007 +3.992000055e+001 +3.992000055e+001 +3.9502e+000 -1.0716e+000 +2.3841e+000
1492 0 +4.954063826e-008 +3.992000005e+001 +3.992000005e+001 +3.9505e+000 -1.0695e+000 +2.3855e+000
1545 0 +1.270473149e-008 +3.992000001e+001 +3.992000001e+001 +3.9505e+000 -1.0695e+000 +2.3855e+000
1785 0 +1.196315225e-008 +3.992000001e+001 +3.992000001e+001 +3.9504e+000 -1.0698e+000 +2.3854e+000
1793 0 +4.594078007e-009 +3.992000000e+001 +3.992000000e+001 +3.9505e+000 -1.0692e+000 +2.3858e+000
% f evaluations | g evaluations | best noise-free fitness - Fopt (-5.661000000000e+001) + sum g_i+ | measured fitness | best measured fitness or single-digit g-values | x1 | x2...
1 0 +5.758840031e+002 +5.192740031e+002 +5.192740031e+002 -5.0000e+000 +5.0000e+000 -5.0000e+000
2 0 +4.772909904e+002 +4.206809904e+002 +4.206809904e+002 +5.0000e+000 +5.0000e+000 -5.0000e+000
3 0 +1.487715680e+002 +9.216156801e+001 +9.216156801e+001 -5.0000e+000 -5.0000e+000 -5.0000e+000
4 0 +7.672294573e+000 -4.893770543e+001 -4.893770543e+001 -5.0000e+000 +5.0000e+000 +5.0000e+000
51 0 +4.295505531e+000 -5.231449447e+001 -5.231449447e+001 -5.8804e-001 +2.0585e+000 +1.7811e+000
89 0 +3.862746838e+000 -5.274725316e+001 -5.274725316e+001 -1.1567e+000 +2.7112e+000 +1.8430e+000
108 0 +2.019525516e+000 -5.459047448e+001 -5.459047448e+001 +9.8518e-001 +2.9906e+000 +1.8651e+000
115 0 +1.714283247e+000 -5.489571675e+001 -5.489571675e+001 +1.1103e+000 +2.7632e+000 +1.8573e+000
125 0 +1.160152188e+000 -5.544984781e+001 -5.544984781e+001 +1.3761e+000 +2.7006e+000 +2.0240e+000
128 0 +3.506488612e-001 -5.625935114e+001 -5.625935114e+001 +2.1382e+000 +2.3298e+000 +3.1525e+000
170 0 +2.831152169e-001 -5.632688478e+001 -5.632688478e+001 +1.9565e+000 +2.3382e+000 +3.1320e+000
182 0 +2.781409035e-001 -5.633185910e+001 -5.633185910e+001 +2.2514e+000 +3.1323e+000 +3.1983e+000
199 0 +2.076192819e-001 -5.640238072e+001 -5.640238072e+001 +2.1298e+000 +3.2430e+000 +3.4373e+000
209 0 +9.188874152e-002 -5.651811126e+001 -5.651811126e+001 +2.0220e+000 +3.2208e+000 +3.2754e+000
288 0 +4.854727826e-003 -5.660514527e+001 -5.660514527e+001 +1.9447e+000 +2.8967e+000 +3.2217e+000
304 0 +4.168468107e-003 -5.660583153e+001 -5.660583153e+001 +1.9457e+000 +2.9020e+000 +3.2191e+000
365 0 +3.877018954e-003 -5.660612298e+001 -5.660612298e+001 +1.9458e+000 +2.8998e+000 +3.2197e+000
373 0 +2.431182592e-003 -5.660756882e+001 -5.660756882e+001 +1.9457e+000 +2.9063e+000 +3.2029e+000
398 0 +1.758569121e-003 -5.660824143e+001 -5.660824143e+001 +1.9464e+000 +2.9085e+000 +3.2013e+000
472 0 +9.510988994e-004 -5.660904890e+001 -5.660904890e+001 +1.9493e+000 +2.9204e+000 +3.1920e+000
549 0 +1.039106491e-004 -5.660989609e+001 -5.660989609e+001 +1.9483e+000 +2.9184e+000 +3.1939e+000
656 0 +9.138922633e-005 -5.660990861e+001 -5.660990861e+001 +1.9483e+000 +2.9188e+000 +3.1936e+000
695 0 +8.841794886e-005 -5.660991158e+001 -5.660991158e+001 +1.9492e+000 +2.9220e+000 +3.1968e+000
700 0 +6.481595997e-005 -5.660993518e+001 -5.660993518e+001 +1.9489e+000 +2.9210e+000 +3.1953e+000
705 0 +4.186800135e-005 -5.660995813e+001 -5.660995813e+001 +1.9489e+000 +2.9212e+000 +3.1957e+000
731 0 +3.842039531e-005 -5.660996158e+001 -5.660996158e+001 +1.9489e+000 +2.9213e+000 +3.1959e+000
789 0 +3.506224800e-005 -5.660996494e+001 -5.660996494e+001 +1.9491e+000 +2.9214e+000 +3.1967e+000
803 0 +6.237208545e-006 -5.660999376e+001 -5.660999376e+001 +1.9498e+000 +2.9243e+000 +3.1996e+000
805 0 +5.573831942e-006 -5.660999443e+001 -5.660999443e+001 +1.9498e+000 +2.9243e+000 +3.1995e+000
822 0 +3.237160740e-006 -5.660999676e+001 -5.660999676e+001 +1.9502e+000 +2.9261e+000 +3.2011e+000
869 0 +1.089640868e-006 -5.660999891e+001 -5.660999891e+001 +1.9499e+000 +2.9246e+000 +3.2001e+000
881 0 +6.542302842e-007 -5.660999935e+001 -5.660999935e+001 +1.9500e+000 +2.9254e+000 +3.2002e+000
983 0 +4.023870162e-007 -5.660999960e+001 -5.660999960e+001 +1.9500e+000 +2.9254e+000 +3.2002e+000
1012 0 +3.850300914e-007 -5.660999961e+001 -5.660999961e+001 +1.9500e+000 +2.9255e+000 +3.2003e+000
1146 0 +3.774517623e-007 -5.660999962e+001 -5.660999962e+001 +1.9501e+000 +2.9257e+000 +3.2005e+000
1220 0 +3.494057381e-007 -5.660999965e+001 -5.660999965e+001 +1.9501e+000 +2.9256e+000 +3.2006e+000
1240 0 +3.416528642e-007 -5.660999966e+001 -5.660999966e+001 +1.9501e+000 +2.9255e+000 +3.2006e+000
1242 0 +3.316329895e-007 -5.660999967e+001 -5.660999967e+001 +1.9500e+000 +2.9254e+000 +3.2006e+000
1243 0 +3.268685091e-007 -5.660999967e+001 -5.660999967e+001 +1.9501e+000 +2.9254e+000 +3.2007e+000
1255 0 +3.204078851e-007 -5.660999968e+001 -5.660999968e+001 +1.9501e+000 +2.9255e+000 +3.2009e+000
1257 0 +3.160970721e-007 -5.660999968e+001 -5.660999968e+001 +1.9501e+000 +2.9254e+000 +3.2008e+000
1258 0 +2.985117931e-007 -5.660999970e+001 -5.660999970e+001 +1.9500e+000 +2.9252e+000 +3.2009e+000
1270 0 +2.818264022e-007 -5.660999972e+001 -5.660999972e+001 +1.9501e+000 +2.9254e+000 +3.2011e+000
1271 0 +2.744407084e-007 -5.660999973e+001 -5.660999973e+001 +1.9501e+000 +2.9252e+000 +3.2011e+000
1275 0 +2.686422675e-007 -5.660999973e+001 -5.660999973e+001 +1.9501e+000 +2.9252e+000 +3.2011e+000
1286 0 +2.584991066e-007 -5.660999974e+001 -5.660999974e+001 +1.9501e+000 +2.9251e+000 +3.2012e+000
1297 0 +2.469547127e-007 -5.660999975e+001 -5.660999975e+001 +1.9501e+000 +2.9251e+000 +3.2012e+000
1312 0 +2.190319037e-007 -5.660999978e+001 -5.660999978e+001 +1.9501e+000 +2.9249e+000 +3.2014e+000
1320 0 +2.185505537e-007 -5.660999978e+001 -5.660999978e+001 +1.9501e+000 +2.9249e+000 +3.2014e+000
1334 0 +1.915421208e-007 -5.660999981e+001 -5.660999981e+001 +1.9501e+000 +2.9248e+000 +3.2017e+000
1336 0 +1.846553062e-007 -5.660999982e+001 -5.660999982e+001 +1.9501e+000 +2.9248e+000 +3.2018e+000
1339 0 +1.794568902e-007 -5.660999982e+001 -5.660999982e+001 +1.9501e+000 +2.9248e+000 +3.2018e+000
1351 0 +1.640359812e-007 -5.660999984e+001 -5.660999984e+001 +1.9501e+000 +2.9247e+000 +3.2019e+000
1360 0 +1.614119398e-007 -5.660999984e+001 -5.660999984e+001 +1.9502e+000 +2.9247e+000 +3.2020e+000
1361 0 +1.494057145e-007 -5.660999985e+001 -5.660999985e+001 +1.9502e+000 +2.9247e+000 +3.2022e+000
1362 0 +1.205907338e-007 -5.660999988e+001 -5.660999988e+001 +1.9501e+000 +2.9242e+000 +3.2023e+000
1365 0 +1.023709189e-007 -5.660999990e+001 -5.660999990e+001 +1.9502e+000 +2.9242e+000 +3.2025e+000
1371 0 +9.963680014e-008 -5.660999990e+001 -5.660999990e+001 +1.9502e+000 +2.9242e+000 +3.2026e+000
1378 0 +9.521097155e-008 -5.660999990e+001 -5.660999990e+001 +1.9502e+000 +2.9241e+000 +3.2027e+000
1380 0 +8.691906572e-008 -5.660999991e+001 -5.660999991e+001 +1.9502e+000 +2.9240e+000 +3.2028e+000
1383 0 +7.560330317e-008 -5.660999992e+001 -5.660999992e+001 +1.9502e+000 +2.9239e+000 +3.2030e+000
1405 0 +7.105371935e-008 -5.660999993e+001 -5.660999993e+001 +1.9502e+000 +2.9234e+000 +3.2036e+000
1408 0 +6.985843015e-008 -5.660999993e+001 -5.660999993e+001 +1.9502e+000 +2.9234e+000 +3.2036e+000
1413 0 +5.298261385e-008 -5.660999995e+001 -5.660999995e+001 +1.9502e+000 +2.9235e+000 +3.2035e+000
1419 0 +2.722607206e-008 -5.660999997e+001 -5.660999997e+001 +1.9503e+000 +2.9231e+000 +3.2042e+000
1426 0 +2.497409923e-008 -5.660999998e+001 -5.660999998e+001 +1.9503e+000 +2.9223e+000 +3.2054e+000
1427 0 +1.546791140e-008 -5.660999998e+001 -5.660999998e+001 +1.9503e+000 +2.9225e+000 +3.2050e+000
1428 0 +1.280773176e-008 -5.660999999e+001 -5.660999999e+001 +1.9503e+000 +2.9229e+000 +3.2046e+000
1442 0 +9.480523033e-009 -5.660999999e+001 -5.660999999e+001 +1.9505e+000 +2.9207e+000 +3.2077e+000
% f evaluations | g evaluations | best noise-free fitness - Fopt (3.270000000000e+001) + sum g_i+ | measured fitness | best measured fitness or single-digit g-values | x1 | x2...
1 0 +7.235791509e+001 +1.050579151e+002 +1.050579151e+002 -5.0000e+000 -5.0000e+000 +5.0000e+000
4 0 +2.300970685e+001 +5.570970685e+001 +5.570970685e+001 -5.0000e+000 -5.0000e+000 -5.0000e+000
5 0 +1.910029572e+000 +3.461002957e+001 +3.461002957e+001 -3.2185e+000 -1.5260e+000 +1.8972e+000
45 0 +1.870579191e+000 +3.457057919e+001 +3.457057919e+001 -3.2185e+000 -1.5487e+000 +1.8532e+000
50 0 +1.244088018e+000 +3.394408802e+001 +3.394408802e+001 -3.2354e+000 -1.6222e+000 +7.3352e-001
68 0 +1.204285496e+000 +3.390428550e+001 +3.390428550e+001 -3.2282e+000 -1.5654e+000 +6.2602e-001
70 0 +7.875488653e-001 +3.348754887e+001 +3.348754887e+001 -2.5613e+000 -8.8054e-001 -2.6974e-001
72 0 +7.720377415e-001 +3.347203774e+001 +3.347203774e+001 -3.0037e+000 -1.1321e+000 +4.1719e-001
96 0 +5.868449667e-001 +3.328684497e+001 +3.328684497e+001 -2.8270e+000 -1.1014e+000 +4.0872e-001
120 0 +5.339879782e-001 +3.323398798e+001 +3.323398798e+001 -2.7750e+000 -1.0115e+000 +3.0548e-002
123 0 +5.053423593e-001 +3.320534236e+001 +3.320534236e+001 -2.5771e+000 -1.7234e+000 -2.0926e-001
127 0 +4.692450850e-001 +3.316924509e+001 +3.316924509e+001 -2.6063e+000 -1.7393e+000 -1.2918e-001
131 0 +3.227461558e-001 +3.302274616e+001 +3.302274616e+001 -2.6022e+000 -1.7170e+000 +9.5021e-002
134 0 +1.012076175e-001 +3.280120762e+001 +3.280120762e+001 -1.9404e+000 -1.9573e+000 +3.0884e-001
154 0 +8.291622692e-002 +3.278291623e+001 +3.278291623e+001 -1.9103e+000 -1.9809e+000 +3.7110e-001
211 0 +4.784213425e-002 +3.274784213e+001 +3.274784213e+001 -2.1771e+000 -1.9558e+000 +3.4373e-001
255 0 +2.269750457e-002 +3.272269750e+001 +3.272269750e+001 -2.0655e+000 -1.8765e+000 +3.4554e-001
300 0 +1.786125122e-002 +3.271786125e+001 +3.271786125e+001 -2.0655e+000 -1.8442e+000 +3.4554e-001
328 0 +1.027556042e-002 +3.271027556e+001 +3.271027556e+001 -2.1175e+000 -1.7790e+000 +3.1307e-001
409 0 +9.978471039e-003 +3.270997847e+001 +3.270997847e+001 -2.1444e+000 -1.7612e+000 +2.8857e-001
436 0 +5.755700671e-003 +3.270575570e+001 +3.270575570e+001 -2.0822e+000 -1.7472e+000 +3.0248e-001
553 0 +4.770508936e-003 +3.270477051e+001 +3.270477051e+001 -2.1100e+000 -1.7496e+000 +3.0190e-001
563 0 +3.063147160e-003 +3.270306315e+001 +3.270306315e+001 -2.0582e+000 -1.7379e+000 +3.1351e-001
605 0 +2.037133056e-003 +3.270203713e+001 +3.270203713e+001 -2.0838e+000 -1.7243e+000 +3.0091e-001
618 0 +9.050366711e-004 +3.270090504e+001 +3.270090504e+001 -2.0860e+000 -1.6909e+000 +2.9247e-001
631 0 +6.498297576e-004 +3.270064983e+001 +3.270064983e+001 -2.0806e+000 -1.6769e+000 +2.8992e-001
638 0 +3.890933826e-004 +3.270038909e+001 +3.270038909e+001 -2.0712e+000 -1.6622e+000 +2.8924e-001
665 0 +3.178162707e-004 +3.270031782e+001 +3.270031782e+001 -2.0789e+000 -1.6662e+000 +2.8822e-001
688 0 +1.284201269e-004 +3.270012842e+001 +3.270012842e+001 -2.0651e+000 -1.6012e+000 +2.7600e-001
730 0 +8.207630353e-005 +3.270008208e+001 +3.270008208e+001 -2.0731e+000 -1.6273e+000 +2.8026e-001
742 0 +7.555752466e-005 +3.270007556e+001 +3.270007556e+001 -2.0709e+000 -1.6169e+000 +2.7830e-001
751 0 +7.026109123e-005 +3.270007026e+001 +3.270007026e+001 -2.0739e+000 -1.6250e+000 +2.7943e-001
782 0 +5.229693913e-005 +3.270005230e+001 +3.270005230e+001 -2.0738e+000 -1.6273e+000 +2.8000e-001
799 0 +4.194261070e-005 +3.270004194e+001 +3.270004194e+001 -2.0765e+000 -1.6331e+000 +2.8058e-001
864 0 +3.690442806e-005 +3.270003690e+001 +3.270003690e+001 -2.0734e+000 -1.6237e+000 +2.7922e-001
870 0 +2.031896233e-005 +3.270002032e+001 +3.270002032e+001 -2.0731e+000 -1.6222e+000 +2.7891e-001
887 0 +9.737050220e-006 +3.270000974e+001 +3.270000974e+001 -2.0742e+000 -1.6209e+000 +2.7822e-001
903 0 +7.617351059e-006 +3.270000762e+001 +3.270000762e+001 -2.0754e+000 -1.6179e+000 +2.7711e-001
906 0 +6.010464382e-006 +3.270000601e+001 +3.270000601e+001 -2.0751e+000 -1.6167e+000 +2.7688e-001
907 0 +4.804311644e-006 +3.270000480e+001 +3.270000480e+001 -2.0752e+000 -1.6170e+000 +2.7692e-001
939 0 +4.002262138e-006 +3.270000400e+001 +3.270000400e+001 -2.0750e+000 -1.6165e+000 +2.7685e-001
1020 0 +2.155901470e-006 +3.270000216e+001 +3.270000216e+001 -2.0749e+000 -1.6139e+000 +2.7622e-001
1025 0 +2.103429807e-006 +3.270000210e+001 +3.270000210e+001 -2.0749e+000 -1.6138e+000 +2.7621e-001
1049 0 +1.960852835e-006 +3.270000196e+001 +3.270000196e+001 -2.0749e+000 -1.6134e+000 +2.7612e-001
1099 0 +1.899611782e-006 +3.270000190e+001 +3.270000190e+001 -2.0749e+000 -1.6134e+000 +2.7611e-001
1172 0 +1.340057878e-006 +3.270000134e+001 +3.270000134e+001 -2.0746e+000 -1.6116e+000 +2.7573e-001
1178 0 +1.098436549e-006 +3.270000110e+001 +3.270000110e+001 -2.0745e+000 -1.6114e+000 +2.7571e-001
1186 0 +1.096313653e-006 +3.270000110e+001 +3.270000110e+001 -2.0745e+000 -1.6114e+000 +2.7571e-001
1199 0 +7.207806476e-007 +3.270000072e+001 +3.270000072e+001 -2.0747e+000 -1.6101e+000 +2.7533e-001
1215 0 +6.599414277e-007 +3.270000066e+001 +3.270000066e+001 -2.0745e+000 -1.6086e+000 +2.7503e-001
1241 0 +5.703450086e-007 +3.270000057e+001 +3.270000057e+001 -2.0744e+000 -1.6089e+000 +2.7512e-001
1250 0 +5.576177600e-007 +3.270000056e+001 +3.270000056e+001 -2.0744e+000 -1.6089e+000 +2.7511e-001
1340 0 +5.471839941e-007 +3.270000055e+001 +3.270000055e+001 -2.0744e+000 -1.6087e+000 +2.7506e-001
1454 0 +5.368993854e-007 +3.270000054e+001 +3.270000054e+001 -2.0744e+000 -1.6087e+000 +2.7506e-001
1507 0 +5.212078094e-007 +3.270000052e+001 +3.270000052e+001 -2.0745e+000 -1.6086e+000 +2.7504e-001
1536 0 +5.117622877e-007 +3.270000051e+001 +3.270000051e+001 -2.0745e+000 -1.6086e+000 +2.7502e-001
1544 0 +4.895900361e-007 +3.270000049e+001 +3.270000049e+001 -2.0745e+000 -1.6080e+000 +2.7487e-001
1545 0 +4.622421130e-007 +3.270000046e+001 +3.270000046e+001 -2.0746e+000 -1.6076e+000 +2.7472e-001
1551 0 +4.079279492e-007 +3.270000041e+001 +3.270000041e+001 -2.0746e+000 -1.6076e+000 +2.7475e-001
1561 0 +4.063710151e-007 +3.270000041e+001 +3.270000041e+001 -2.0746e+000 -1.6077e+000 +2.7475e-001
1565 0 +3.343002248e-007 +3.270000033e+001 +3.270000033e+001 -2.0747e+000 -1.6068e+000 +2.7449e-001
1568 0 +2.978262401e-007 +3.270000030e+001 +3.270000030e+001 -2.0748e+000 -1.6070e+000 +2.7454e-001
1575 0 +2.828188599e-007 +3.270000028e+001 +3.270000028e+001 -2.0748e+000 -1.6069e+000 +2.7452e-001
1580 0 +2.782545749e-007 +3.270000028e+001 +3.270000028e+001 -2.0748e+000 -1.6068e+000 +2.7447e-001
1589 0 +2.702320359e-007 +3.270000027e+001 +3.270000027e+001 -2.0748e+000 -1.6068e+000 +2.7447e-001
1594 0 +2.536876735e-007 +3.270000025e+001 +3.270000025e+001 -2.0751e+000 -1.6057e+000 +2.7410e-001
1595 0 +2.277828273e-007 +3.270000023e+001 +3.270000023e+001 -2.0751e+000 -1.6056e+000 +2.7407e-001
1598 0 +1.538887915e-007 +3.270000015e+001 +3.270000015e+001 -2.0751e+000 -1.6053e+000 +2.7401e-001
1601 0 +1.452621561e-007 +3.270000015e+001 +3.270000015e+001 -2.0751e+000 -1.6053e+000 +2.7400e-001
1603 0 +1.203219284e-007 +3.270000012e+001 +3.270000012e+001 -2.0752e+000 -1.6052e+000 +2.7394e-001
1610 0 +5.401840042e-008 +3.270000005e+001 +3.270000005e+001 -2.0759e+000 -1.6022e+000 +2.7300e-001
1616 0 +4.574636847e-008 +3.270000005e+001 +3.270000005e+001 -2.0760e+000 -1.6015e+000 +2.7278e-001
1625 0 +2.157353407e-008 +3.270000002e+001 +3.270000002e+001 -2.0761e+000 -1.6014e+000 +2.7271e-001
1686 0 +1.972451713e-008 +3.270000002e+001 +3.270000002e+001 -2.0761e+000 -1.6015e+000 +2.7276e-001
1694 0 +5.473211218e-009 +3.270000001e+001 +3.270000001e+001 -2.0760e+000 -1.6018e+000 +2.7286e-001
% f evaluations | g evaluations | best noise-free fitness - Fopt (-3.943000000000e+001) + sum g_i+ | measured fitness | best measured fitness or single-digit g-values | x1 | x2...
1 0 +7.559116502e+001 +3.616116502e+001 +3.616116502e+001 +5.0000e+000 -5.0000e+000 +5.0000e+000
3 0 +3.450317892e+000 -3.597968211e+001 -3.597968211e+001 +5.0000e+000 +5.0000e+000 +5.0000e+000
48 0 +1.483866253e+000 -3.794613375e+001 -3.794613375e+001 +4.2762e+000 +2.3899e+000 +1.8000e+000
60 0 +1.475246083e+000 -3.795475392e+001 -3.795475392e+001 +4.2850e+000 +2.4027e+000 +1.8000e+000
67 0 +5.540412337e-001 -3.887595877e+001 -3.887595877e+001 +4.5892e+000 +3.5052e+000 +3.1502e+000
107 0 +5.486589295e-001 -3.888134107e+001 -3.888134107e+001 +4.5856e+000 +3.5027e+000 +3.1502e+000
126 0 +4.064295602e-001 -3.902357044e+001 -3.902357044e+001 +4.5599e+000 +3.3707e+000 +2.9423e+000
201 0 +3.829772390e-001 -3.904702276e+001 -3.904702276e+001 +4.4878e+000 +3.1831e+000 +2.8579e+000
305 0 +2.367860793e-001 -3.919321392e+001 -3.919321392e+001 +4.4250e+000 +3.3707e+000 +2.9423e+000
310 0 +2.258123947e-001 -3.920418761e+001 -3.920418761e+001 +4.4177e+000 +3.3718e+000 +2.9294e+000
317 0 +1.667828925e-001 -3.926321711e+001 -3.926321711e+001 +4.3331e+000 +3.3104e+000 +2.8886e+000
352 0 +1.251465375e-001 -3.930485346e+001 -3.930485346e+001 +3.9786e+000 +3.1735e+000 +3.2795e+000
356 0 +2.859311276e-002 -3.940140689e+001 -3.940140689e+001 +4.0333e+000 +3.2803e+000 +3.0313e+000
427 0 +1.952097679e-002 -3.941047902e+001 -3.941047902e+001 +3.7888e+000 +3.3935e+000 +2.8710e+000
436 0 +5.767456396e-003 -3.942423254e+001 -3.942423254e+001 +3.7801e+000 +3.3669e+000 +2.9226e+000
511 0 +5.323829520e-003 -3.942467617e+001 -3.942467617e+001 +3.7757e+000 +3.3668e+000 +2.9235e+000
607 0 +3.439318265e-003 -3.942656068e+001 -3.942656068e+001 +3.7950e+000 +3.3283e+000 +2.9738e+000
618 0 +3.194567588e-003 -3.942680543e+001 -3.942680543e+001 +3.8439e+000 +3.3531e+000 +2.9513e+000
654 0 +9.208316849e-004 -3.942907917e+001 -3.942907917e+001 +3.8301e+000 +3.3616e+000 +2.9382e+000
690 0 +7.355635468e-004 -3.942926444e+001 -3.942926444e+001 +3.8273e+000 +3.3601e+000 +2.9396e+000
725 0 +7.058505034e-004 -3.942929415e+001 -3.942929415e+001 +3.8273e+000 +3.3605e+000 +2.9392e+000
750 0 +3.759461566e-004 -3.942962405e+001 -3.942962405e+001 +3.8262e+000 +3.3619e+000 +2.9370e+000
787 0 +3.448493222e-004 -3.942965515e+001 -3.942965515e+001 +3.8247e+000 +3.3557e+000 +2.9436e+000
878 0 +3.084936837e-004 -3.942969151e+001 -3.942969151e+001 +3.8219e+000 +3.3568e+000 +2.9423e+000
920 0 +2.688743647e-004 -3.942973113e+001 -3.942973113e+001 +3.8193e+000 +3.3554e+000 +2.9441e+000
956 0 +2.583152879e-004 -3.942974168e+001 -3.942974168e+001 +3.8184e+000 +3.3560e+000 +2.9435e+000
968 0 +2.249253230e-004 -3.942977507e+001 -3.942977507e+001 +3.8159e+000 +3.3567e+000 +2.9428e+000
979 0 +2.227168503e-004 -3.942977728e+001 -3.942977728e+001 +3.8149e+000 +3.3565e+000 +2.9430e+000
988 0 +1.853920483e-004 -3.942981461e+001 -3.942981461e+001 +3.8134e+000 +3.3586e+000 +2.9405e+000
995 0 +1.707792287e-004 -3.942982922e+001 -3.942982922e+001 +3.8051e+000 +3.3663e+000 +2.9316e+000
1005 0 +1.562418206e-004 -3.942984376e+001 -3.942984376e+001 +3.8150e+000 +3.3641e+000 +2.9342e+000
1025 0 +1.428681647e-004 -3.942985713e+001 -3.942985713e+001 +3.7845e+000 +3.3655e+000 +2.9332e+000
1031 0 +1.221622219e-004 -3.942987784e+001 -3.942987784e+001 +3.7856e+000 +3.3650e+000 +2.9337e+000
1032 0 +8.080852868e-005 -3.942991919e+001 -3.942991919e+001 +3.7931e+000 +3.3654e+000 +2.9331e+000
1037 0 +5.905702461e-005 -3.942994094e+001 -3.942994094e+001 +3.7943e+000 +3.3651e+000 +2.9333e+000
1051 0 +5.676496902e-005 -3.942994324e+001 -3.942994324e+001 +3.7921e+000 +3.3658e+000 +2.9327e+000
1067 0 +4.657341188e-005 -3.942995343e+001 -3.942995343e+001 +3.7907e+000 +3.3666e+000 +2.9317e+000
1083 0 +3.350422565e-005 -3.942996650e+001 -3.942996650e+001 +3.7815e+000 +3.3708e+000 +2.9269e+000
1085 0 +1.559137232e-005 -3.942998441e+001 -3.942998441e+001 +3.7791e+000 +3.3717e+000 +2.9260e+000
1103 0 +1.215991587e-005 -3.942998784e+001 -3.942998784e+001 +3.7781e+000 +3.3722e+000 +2.9254e+000
1140 0 +8.703306875e-006 -3.942999130e+001 -3.942999130e+001 +3.7841e+000 +3.3732e+000 +2.9241e+000
1186 0 +6.651586261e-006 -3.942999335e+001 -3.942999335e+001 +3.7828e+000 +3.3742e+000 +2.9230e+000
1187 0 +6.425154304e-006 -3.942999357e+001 -3.942999357e+001 +3.7824e+000 +3.3739e+000 +2.9233e+000
1192 0 +4.842153004e-006 -3.942999516e+001 -3.942999516e+001 +3.7804e+000 +3.3750e+000 +2.9221e+000
1236 0 +3.595762514e-006 -3.942999640e+001 -3.942999640e+001 +3.7779e+000 +3.3738e+000 +2.9235e+000
1283 0 +5.761734414e-007 -3.942999942e+001 -3.942999942e+001 +3.7699e+000 +3.3773e+000 +2.9196e+000
1340 0 +2.629455764e-007 -3.942999974e+001 -3.942999974e+001 +3.7696e+000 +3.3773e+000 +2.9196e+000
1355 0 +1.653410777e-007 -3.942999983e+001 -3.942999983e+001 +3.7689e+000 +3.3777e+000 +2.9192e+000
1541 0 +1.608605658e-007 -3.942999984e+001 -3.942999984e+001 +3.7680e+000 +3.3779e+000 +2.9189e+000
1549 0 +1.582682643e-007 -3.942999984e+001 -3.942999984e+001 +3.7680e+000 +3.3779e+000 +2.9189e+000
1561 0 +1.466705584e-007 -3.942999985e+001 -3.942999985e+001 +3.7656e+000 +3.3784e+000 +2.9184e+000
1564 0 +6.923613682e-008 -3.942999993e+001 -3.942999993e+001 +3.7651e+000 +3.3786e+000 +2.9182e+000
1570 0 +2.470329719e-008 -3.942999998e+001 -3.942999998e+001 +3.7649e+000 +3.3786e+000 +2.9181e+000
1607 0 +8.060553114e-009 -3.942999999e+001 -3.942999999e+001 +3.7648e+000 +3.3787e+000 +2.9181e+000
% f evaluations | g evaluations | best noise-free fitness - Fopt (4.197200000000e+002) + sum g_i+ | measured fitness | best measured fitness or single-digit g-values | x1 | x2...
1 0 +1.257178814e+002 +5.454378814e+002 +5.454378814e+002 +5.0000e+000 -5.0000e+000 +5.0000e+000
3 0 +5.336272256e+001 +4.730827226e+002 +4.730827226e+002 +5.0000e+000 +5.0000e+000 +5.0000e+000
6 0 +9.667795006e+000 +4.293877950e+002 +4.293877950e+002 +1.5343e+000 +3.6163e+000 +3.7455e+000
61 0 +7.912519838e+000 +4.276325198e+002 +4.276325198e+002 +1.1803e+000 +4.6663e+000 +4.5859e+000
74 0 +7.507183272e+000 +4.272271833e+002 +4.272271833e+002 +1.1815e+000 +4.8214e+000 +4.3595e+000
92 0 +6.757016668e+000 +4.264770167e+002 +4.264770167e+002 +1.0352e+000 +4.8059e+000 +3.9262e+000
93 0 +5.377192643e+000 +4.250971926e+002 +4.250971926e+002 -1.0712e+000 +2.8070e+000 +3.3813e+000
102 0 +5.068594605e+000 +4.247885946e+002 +4.247885946e+002 -1.0444e+000 +2.8447e+000 +3.2701e+000
105 0 +3.647186654e+000 +4.233671867e+002 +4.233671867e+002 -1.1281e+000 +3.0442e+000 +2.3714e+000
112 0 +2.263547984e+000 +4.219835480e+002 +4.219835480e+002 -1.6054e+000 +3.5519e+000 +8.1835e-001
152 0 +2.233542603e+000 +4.219535426e+002 +4.219535426e+002 -1.5185e+000 +3.4273e+000 +8.4170e-001
194 0 +1.959614947e+000 +4.216796149e+002 +4.216796149e+002 -1.8085e+000 +3.2698e+000 +5.8653e-001
204 0 +1.810219540e+000 +4.215302195e+002 +4.215302195e+002 -2.1995e+000 +3.1662e+000 +2.7318e-001
210 0 +1.258465611e+000 +4.209784656e+002 +4.209784656e+002 -1.4093e+000 +3.8719e+000 -5.1175e-001
232 0 +2.925551491e-001 +4.200125551e+002 +4.200125551e+002 -1.1815e+000 +2.4068e+000 -8.5541e-001
236 0 +2.465423789e-001 +4.199665424e+002 +4.199665424e+002 -6.5006e-001 +2.6273e+000 -1.2090e+000
242 0 +2.288115317e-001 +4.199488115e+002 +4.199488115e+002 -1.1177e+000 +3.3426e+000 -1.3869e+000
285 0 +2.190729575e-001 +4.199390730e+002 +4.199390730e+002 -1.1494e+000 +3.3193e+000 -1.3836e+000
323 0 +1.532875775e-001 +4.198732876e+002 +4.198732876e+002 -1.1434e+000 +2.8225e+000 -1.5090e+000
332 0 +7.890361747e-002 +4.197989036e+002 +4.197989036e+002 -1.2341e+000 +2.7464e+000 -1.3910e+000
379 0 +6.751327256e-002 +4.197875133e+002 +4.197875133e+002 -1.0962e+000 +3.1208e+000 -1.4335e+000
414 0 +3.944754318e-002 +4.197594475e+002 +4.197594475e+002 -1.0444e+000 +2.6273e+000 -1.2757e+000
423 0 +2.056335538e-002 +4.197405634e+002 +4.197405634e+002 -1.1524e+000 +2.8800e+000 -1.3879e+000
486 0 +3.684132611e-003 +4.197236841e+002 +4.197236841e+002 -1.2179e+000 +2.7541e+000 -1.3041e+000
605 0 +1.109777895e-003 +4.197211098e+002 +4.197211098e+002 -1.1814e+000 +2.7712e+000 -1.3174e+000
633 0 +3.298336367e-005 +4.197200330e+002 +4.197200330e+002 -1.1621e+000 +2.7653e+000 -1.3137e+000
851 0 +1.385432643e-005 +4.197200139e+002 +4.197200139e+002 -1.1544e+000 +2.7662e+000 -1.3142e+000
1014 0 +1.163964805e-005 +4.197200116e+002 +4.197200116e+002 -1.1546e+000 +2.7660e+000 -1.3141e+000
1047 0 +5.061856314e-006 +4.197200051e+002 +4.197200051e+002 -1.1585e+000 +2.7664e+000 -1.3142e+000
1060 0 +3.513702438e-006 +4.197200035e+002 +4.197200035e+002 -1.1586e+000 +2.7666e+000 -1.3143e+000
1068 0 +2.128023027e-006 +4.197200021e+002 +4.197200021e+002 -1.1698e+000 +2.7563e+000 -1.3094e+000
1115 0 +2.020243414e-006 +4.197200020e+002 +4.197200020e+002 -1.1698e+000 +2.7564e+000 -1.3095e+000
1170 0 +1.189021134e-006 +4.197200012e+002 +4.197200012e+002 -1.1685e+000 +2.7576e+000 -1.3101e+000
1248 0 +1.160377224e-006 +4.197200012e+002 +4.197200012e+002 -1.1677e+000 +2.7583e+000 -1.3104e+000
1329 0 +9.383550150e-007 +4.197200009e+002 +4.197200009e+002 -1.1674e+000 +2.7586e+000 -1.3105e+000
1334 0 +8.400907063e-007 +4.197200008e+002 +4.197200008e+002 -1.1671e+000 +2.7589e+000 -1.3107e+000
1373 0 +7.501542996e-007 +4.197200008e+002 +4.197200008e+002 -1.1671e+000 +2.7589e+000 -1.3107e+000
1396 0 +7.369249033e-007 +4.197200007e+002 +4.197200007e+002 -1.1671e+000 +2.7589e+000 -1.3107e+000
1414 0 +6.513112680e-007 +4.197200007e+002 +4.197200007e+002 -1.1670e+000 +2.7589e+000 -1.3107e+000
1427 0 +6.293296906e-007 +4.197200006e+002 +4.197200006e+002 -1.1670e+000 +2.7588e+000 -1.3106e+000
1434 0 +4.779611800e-007 +4.197200005e+002 +4.197200005e+002 -1.1667e+000 +2.7589e+000 -1.3107e+000
1439 0 +4.532350886e-007 +4.197200005e+002 +4.197200005e+002 -1.1665e+000 +2.7591e+000 -1.3108e+000
1447 0 +4.304873187e-007 +4.197200004e+002 +4.197200004e+002 -1.1667e+000 +2.7589e+000 -1.3107e+000
1452 0 +3.550328529e-007 +4.197200004e+002 +4.197200004e+002 -1.1665e+000 +2.7590e+000 -1.3107e+000
1457 0 +9.875418527e-008 +4.197200001e+002 +4.197200001e+002 -1.1653e+000 +2.7599e+000 -1.3111e+000
1465 0 +8.093189763e-008 +4.197200001e+002 +4.197200001e+002 -1.1652e+000 +2.7599e+000 -1.3112e+000
1466 0 +3.747612709e-008 +4.197200000e+002 +4.197200000e+002 -1.1651e+000 +2.7599e+000 -1.3112e+000
1486 0 +3.617191169e-008 +4.197200000e+002 +4.197200000e+002 -1.1651e+000 +2.7599e+000 -1.3112e+000
1487 0 +3.278137228e-008 +4.197200000e+002 +4.197200000e+002 -1.1651e+000 +2.7599e+000 -1.3112e+000
1495 0 +2.672521759e-008 +4.197200000e+002 +4.197200000e+002 -1.1651e+000 +2.7600e+000 -1.3112e+000
1502 0 +2.599256277e-008 +4.197200000e+002 +4.197200000e+002 -1.1651e+000 +2.7600e+000 -1.3112e+000
1518 0 +2.486660833e-008 +4.197200000e+002 +4.197200000e+002 -1.1650e+000 +2.7600e+000 -1.3112e+000
1519 0 +2.414816436e-008 +4.197200000e+002 +4.197200000e+002 -1.1650e+000 +2.7600e+000 -1.3112e+000
1607 0 +1.649345904e-008 +4.197200000e+002 +4.197200000e+002 -1.1649e+000 +2.7600e+000 -1.3112e+000
1615 0 +1.461756938e-008 +4.197200000e+002 +4.197200000e+002 -1.1648e+000 +2.7601e+000 -1.3112e+000
1658 0 +1.341908273e-008 +4.197200000e+002 +4.197200000e+002 -1.1648e+000 +2.7601e+000 -1.3112e+000
1703 0 +1.220433887e-008 +4.197200000e+002 +4.197200000e+002 -1.1648e+000 +2.7601e+000 -1.3112e+000
1704 0 +1.059839860e-008 +4.197200000e+002 +4.197200000e+002 -1.1647e+000 +2.7601e+000 -1.3113e+000
1707 0 +2.283229605e-009 +4.197200000e+002 +4.197200000e+002 -1.1645e+000 +2.7603e+000 -1.3113e+000
% f evaluations | g evaluations | best noise-free fitness - Fopt (7.640000000000e+000) + sum g_i+ | measured fitness | best measured fitness or single-digit g-values | x1 | x2...
1 0 +2.459810617e+002 +2.536210617e+002 +2.536210617e+002 +5.0000e+000 -5.0000e+000 -5.0000e+000
2 0 +2.296950232e+002 +2.373350232e+002 +2.373350232e+002 -5.0000e+000 -5.0000e+000 -5.0000e+000
4 0 +5.967048652e+001 +6.731048652e+001 +6.731048652e+001 +5.0000e+000 -5.0000e+000 +5.0000e+000
5 0 +5.191933103e+001 +5.955933103e+001 +5.955933103e+001 -5.0000e+000 -5.0000e+000 +5.0000e+000
6 0 +3.658647325e+001 +4.422647325e+001 +4.422647325e+001 +3.4754e+000 +3.4196e+000 -4.6383e-001
7 0 +3.497841175e+001 +4.261841175e+001 +4.261841175e+001 +2.6302e+000 -3.7441e+000 -1.5857e+000
8 0 +2.053049882e+001 +2.817049882e+001 +2.817049882e+001 -2.5211e-015 -3.8179e-015 +5.0000e+000
9 0 +1.574191144e+001 +2.338191144e+001 +2.338191144e+001 -5.0000e+000 -5.4526e-001 +8.6520e-001
10 0 +1.111141238e+001 +1.875141238e+001 +1.875141238e+001 -2.6802e-001 -5.0000e+000 +1.4623e+000
11 0 +5.818306128e+000 +1.345830613e+001 +1.345830613e+001 +4.8535e-001 -2.1221e+000 +1.6975e+000
68 0 +5.707511300e+000 +1.334751130e+001 +1.334751130e+001 -2.3491e-001 -1.6068e+000 +1.9710e+000
78 0 +2.973369922e+000 +1.061336992e+001 +1.061336992e+001 +5.0000e+000 +5.0000e+000 +2.0858e+000
79 0 +2.517780576e+000 +1.015778058e+001 +1.015778058e+001 +1.5935e+000 +1.1081e+000 +2.0496e+000
80 0 +2.355007749e+000 +9.995007749e+000 +9.995007749e+000 +2.5511e+000 +5.3644e-001 +2.0430e+000
87 0 +1.854582013e+000 +9.494582013e+000 +9.494582013e+000 +3.5106e+000 +1.0414e+000 +2.0304e+000
91 0 +2.479641689e-001 +7.887964169e+000 +7.887964169e+000 +3.3607e+000 +2.9423e+000 +3.2661e+000
116 0 +1.446254988e-001 +7.784625499e+000 +7.784625499e+000 +3.2463e+000 +2.7044e+000 +3.2124e+000
189 0 +1.218186046e-001 +7.761818605e+000 +7.761818605e+000 +3.6808e+000 +2.4610e+000 +3.2132e+000
227 0 +1.124138251e-001 +7.752413825e+000 +7.752413825e+000 +3.6511e+000 +2.4926e+000 +3.2060e+000
244 0 +7.239507519e-002 +7.712395075e+000 +7.712395075e+000 +3.6679e+000 +2.3875e+000 +2.9676e+000
277 0 +6.350320098e-002 +7.703503201e+000 +7.703503201e+000 +3.4292e+000 +2.7648e+000 +2.9423e+000
316 0 +6.157266083e-002 +7.701572661e+000 +7.701572661e+000 +3.4368e+000 +2.7567e+000 +2.9441e+000
319 0 +5.146335472e-002 +7.691463355e+000 +7.691463355e+000 +3.3948e+000 +2.7661e+000 +2.9294e+000
334 0 +4.722997891e-002 +7.687229979e+000 +7.687229979e+000 +3.3610e+000 +2.7437e+000 +2.9245e+000
341 0 +4.651883098e-002 +7.686518831e+000 +7.686518831e+000 +3.3619e+000 +2.7273e+000 +2.9227e+000
372 0 +3.355610951e-002 +7.673556110e+000 +7.673556110e+000 +3.4211e+000 +2.7309e+000 +2.9159e+000
403 0 +3.306463400e-002 +7.673064634e+000 +7.673064634e+000 +3.4185e+000 +2.7311e+000 +2.9163e+000
412 0 +2.228076407e-002 +7.662280764e+000 +7.662280764e+000 +3.4292e+000 +2.7084e+000 +2.9128e+000
495 0 +1.475086810e-002 +7.654750868e+000 +7.654750868e+000 +3.4568e+000 +2.6632e+000 +2.9787e+000
504 0 +1.377498083e-002 +7.653774981e+000 +7.653774981e+000 +3.5338e+000 +2.6084e+000 +2.9065e+000
508 0 +1.260824617e-002 +7.652608246e+000 +7.652608246e+000 +3.4896e+000 +2.6090e+000 +2.9887e+000
543 0 +1.248684788e-002 +7.652486848e+000 +7.652486848e+000 +3.5482e+000 +2.5548e+000 +2.9849e+000
548 0 +5.206567415e-003 +7.645206567e+000 +7.645206567e+000 +3.4838e+000 +2.6419e+000 +2.9154e+000
607 0 +2.804159523e-003 +7.642804160e+000 +7.642804160e+000 +3.5556e+000 +2.6171e+000 +2.6708e+000
610 0 +2.143239697e-003 +7.642143240e+000 +7.642143240e+000 +3.5541e+000 +2.6181e+000 +2.6636e+000
611 0 +1.579040778e-003 +7.641579041e+000 +7.641579041e+000 +3.5440e+000 +2.6284e+000 +2.6660e+000
702 0 +7.154381652e-004 +7.640715438e+000 +7.640715438e+000 +3.5330e+000 +2.6354e+000 +2.6820e+000
742 0 +2.125129349e-004 +7.640212513e+000 +7.640212513e+000 +3.5251e+000 +2.6375e+000 +2.7089e+000
747 0 +1.690179991e-004 +7.640169018e+000 +7.640169018e+000 +3.5253e+000 +2.6359e+000 +2.7146e+000
762 0 +1.638373304e-004 +7.640163837e+000 +7.640163837e+000 +3.5257e+000 +2.6355e+000 +2.7161e+000
777 0 +1.291551079e-004 +7.640129155e+000 +7.640129155e+000 +3.5239e+000 +2.6363e+000 +2.7196e+000
825 0 +8.811702037e-005 +7.640088117e+000 +7.640088117e+000 +3.5208e+000 +2.6378e+000 +2.7293e+000
831 0 +7.298487522e-005 +7.640072985e+000 +7.640072985e+000 +3.5206e+000 +2.6379e+000 +2.7296e+000
849 0 +7.124282601e-005 +7.640071243e+000 +7.640071243e+000 +3.5214e+000 +2.6373e+000 +2.7283e+000
852 0 +6.843218015e-005 +7.640068432e+000 +7.640068432e+000 +3.5248e+000 +2.6337e+000 +2.7294e+000
854 0 +2.102885633e-005 +7.640021029e+000 +7.640021029e+000 +3.5244e+000 +2.6285e+000 +2.7566e+000
862 0 +2.080218853e-005 +7.640020802e+000 +7.640020802e+000 +3.5257e+000 +2.6273e+000 +2.7562e+000
869 0 +1.442546921e-005 +7.640014425e+000 +7.640014425e+000 +3.5250e+000 +2.6278e+000 +2.7574e+000
1000 0 +1.407354595e-005 +7.640014074e+000 +7.640014074e+000 +3.5245e+000 +2.6275e+000 +2.7613e+000
1001 0 +1.129580428e-005 +7.640011296e+000 +7.640011296e+000 +3.5246e+000 +2.6269e+000 +2.7641e+000
1023 0 +1.091424878e-005 +7.640010914e+000 +7.640010914e+000 +3.5247e+000 +2.6267e+000 +2.7649e+000
1025 0 +6.833459302e-006 +7.640006833e+000 +7.640006833e+000 +3.5230e+000 +2.6277e+000 +2.7681e+000
1035 0 +1.212478487e-006 +7.640001212e+000 +7.640001212e+000 +3.5230e+000 +2.6284e+000 +2.7645e+000
1047 0 +5.696326610e-007 +7.640000570e+000 +7.640000570e+000 +3.5229e+000 +2.6284e+000 +2.7648e+000
1062 0 +2.334549114e-007 +7.640000233e+000 +7.640000233e+000 +3.5222e+000 +2.6295e+000 +2.7631e+000
1130 0 +2.203186487e-007 +7.640000220e+000 +7.640000220e+000 +3.5222e+000 +2.6295e+000 +2.7631e+000
1138 0 +1.210822980e-007 +7.640000121e+000 +7.640000121e+000 +3.5222e+000 +2.6296e+000 +2.7629e+000
1218 0 +9.905419507e-008 +7.640000099e+000 +7.640000099e+000 +3.5223e+000 +2.6295e+000 +2.7625e+000
1223 0 +9.371569121e-008 +7.640000094e+000 +7.640000094e+000 +3.5224e+000 +2.6294e+000 +2.7627e+000
1242 0 +4.087031868e-008 +7.640000041e+000 +7.640000041e+000 +3.5224e+000 +2.6293e+000 +2.7629e+000
1288 0 +2.579296599e-008 +7.640000026e+000 +7.640000026e+000 +3.5225e+000 +2.6291e+000 +2.7640e+000
1361 0 +1.353543944e-008 +7.640000014e+000 +7.640000014e+000 +3.5225e+000 +2.6291e+000 +2.7637e+000
1382 0 +7.213692754e-009 +7.640000007e+000 +7.640000007e+000 +3.5224e+000 +2.6291e+000 +2.7639e+000
% f evaluations | g evaluations | best noise-free fitness - Fopt (-1.276800000000e+002) + sum g_i+ | measured fitness | best measured fitness or single-digit g-values | x1 | x2...
1 0 +6.759632119e+002 +5.482832119e+002 +5.482832119e+002 -5.0000e+000 +5.0000e+000 -5.0000e+000
2 0 +7.579832496e+001 -5.188167504e+001 -5.188167504e+001 +5.0000e+000 +5.0000e+000 -5.0000e+000
4 0 +5.194982815e+001 -7.573017185e+001 -7.573017185e+001 -5.0000e+000 +5.0000e+000 +5.0000e+000
8 0 +1.012393420e+001 -1.175560658e+002 -1.175560658e+002 +1.0300e-016 +5.0000e+000 +5.0000e+000
9 0 +7.120078374e+000 -1.205599216e+002 -1.205599216e+002 +5.0000e+000 +4.7415e+000 +2.1218e+000
11 0 +2.212678405e+000 -1.254673216e+002 -1.254673216e+002 +2.8734e+000 +5.0000e+000 +3.1402e+000
81 0 +8.277473786e-001 -1.268522526e+002 -1.268522526e+002 +2.2640e+000 +3.9105e+000 +3.6120e+000
83 0 +1.808281899e-001 -1.274991718e+002 -1.274991718e+002 +2.1346e+000 +4.0092e+000 +2.7043e+000
134 0 +1.738959015e-001 -1.275061041e+002 -1.275061041e+002 +2.2012e+000 +4.0435e+000 +2.7580e+000
163 0 +1.470106772e-001 -1.275329893e+002 -1.275329893e+002 +2.0682e+000 +3.9446e+000 +2.7662e+000
198 0 +4.368586527e-002 -1.276363141e+002 -1.276363141e+002 +2.3596e+000 +3.7448e+000 +2.2864e+000
229 0 +3.111669327e-002 -1.276488833e+002 -1.276488833e+002 +2.3384e+000 +3.7540e+000 +2.3087e+000
263 0 +2.495683884e-002 -1.276550432e+002 -1.276550432e+002 +2.2772e+000 +3.7436e+000 +2.4167e+000
344 0 +1.858653561e-002 -1.276614135e+002 -1.276614135e+002 +2.2855e+000 +3.7395e+000 +2.3635e+000
385 0 +1.511808247e-002 -1.276648819e+002 -1.276648819e+002 +2.2867e+000 +3.7450e+000 +2.3632e+000
404 0 +1.172952085e-002 -1.276682705e+002 -1.276682705e+002 +2.2759e+000 +3.7428e+000 +2.3459e+000
405 0 +1.102840376e-002 -1.276689716e+002 -1.276689716e+002 +2.2796e+000 +3.7479e+000 +2.3597e+000
422 0 +6.885289484e-003 -1.276731147e+002 -1.276731147e+002 +2.3690e+000 +3.8753e+000 +2.6478e+000
427 0 +5.080035187e-003 -1.276749200e+002 -1.276749200e+002 +2.3166e+000 +3.8351e+000 +2.5895e+000
472 0 +3.176342396e-003 -1.276768237e+002 -1.276768237e+002 +2.3039e+000 +3.8386e+000 +2.6073e+000
545 0 +2.597337048e-003 -1.276774027e+002 -1.276774027e+002 +2.3012e+000 +3.8348e+000 +2.5969e+000
593 0 +1.209400025e-003 -1.276787906e+002 -1.276787906e+002 +2.2895e+000 +3.8026e+000 +2.5044e+000
610 0 +1.027935296e-003 -1.276789721e+002 -1.276789721e+002 +2.2850e+000 +3.7980e+000 +2.4933e+000
628 0 +9.583630132e-004 -1.276790416e+002 -1.276790416e+002 +2.3010e+000 +3.8126e+000 +2.5196e+000
635 0 +7.410856787e-004 -1.276792589e+002 -1.276792589e+002 +2.2998e+000 +3.8138e+000 +2.5252e+000
642 0 +5.644440586e-004 -1.276794356e+002 -1.276794356e+002 +2.3008e+000 +3.8169e+000 +2.5330e+000
710 0 +4.980742951e-004 -1.276795019e+002 -1.276795019e+002 +2.2889e+000 +3.8129e+000 +2.5357e+000
711 0 +3.383171384e-004 -1.276796617e+002 -1.276796617e+002 +2.2885e+000 +3.8108e+000 +2.5290e+000
739 0 +2.857475356e-004 -1.276797143e+002 -1.276797143e+002 +2.3018e+000 +3.8235e+000 +2.5524e+000
841 0 +5.142942460e-005 -1.276799486e+002 -1.276799486e+002 +2.2741e+000 +3.8037e+000 +2.5219e+000
871 0 +4.300113592e-005 -1.276799570e+002 -1.276799570e+002 +2.2742e+000 +3.8041e+000 +2.5230e+000
905 0 +2.446983027e-005 -1.276799755e+002 -1.276799755e+002 +2.2722e+000 +3.8034e+000 +2.5231e+000
938 0 +2.039369461e-005 -1.276799796e+002 -1.276799796e+002 +2.2728e+000 +3.8053e+000 +2.5283e+000
947 0 +1.518665303e-005 -1.276799848e+002 -1.276799848e+002 +2.2731e+000 +3.8060e+000 +2.5303e+000
953 0 +1.483490772e-005 -1.276799852e+002 -1.276799852e+002 +2.2731e+000 +3.8060e+000 +2.5303e+000
957 0 +9.748907317e-006 -1.276799903e+002 -1.276799903e+002 +2.2731e+000 +3.8061e+000 +2.5304e+000
972 0 +8.360638844e-006 -1.276799916e+002 -1.276799916e+002 +2.2730e+000 +3.8060e+000 +2.5305e+000
1090 0 +5.520511607e-006 -1.276799945e+002 -1.276799945e+002 +2.2715e+000 +3.8051e+000 +2.5291e+000
1111 0 +5.282308052e-006 -1.276799947e+002 -1.276799947e+002 +2.2706e+000 +3.8043e+000 +2.5276e+000
1135 0 +4.924242077e-006 -1.276799951e+002 -1.276799951e+002 +2.2678e+000 +3.8024e+000 +2.5250e+000
1163 0 +4.385757080e-006 -1.276799956e+002 -1.276799956e+002 +2.2678e+000 +3.8025e+000 +2.5251e+000
1168 0 +2.388010657e-006 -1.276799976e+002 -1.276799976e+002 +2.2653e+000 +3.8009e+000 +2.5231e+000
1192 0 +1.751455443e-006 -1.276799982e+002 -1.276799982e+002 +2.2671e+000 +3.8020e+000 +2.5245e+000
1196 0 +1.359194769e-006 -1.276799986e+002 -1.276799986e+002 +2.2669e+000 +3.8019e+000 +2.5244e+000
1200 0 +5.862779062e-008 -1.276799999e+002 -1.276799999e+002 +2.2625e+000 +3.7978e+000 +2.5165e+000
1276 0 +4.442145496e-008 -1.276800000e+002 -1.276800000e+002 +2.2625e+000 +3.7978e+000 +2.5166e+000
1361 0 +4.048041546e-008 -1.276800000e+002 -1.276800000e+002 +2.2624e+000 +3.7977e+000 +2.5164e+000
1429 0 +1.364693958e-008 -1.276800000e+002 -1.276800000e+002 +2.2629e+000 +3.7981e+000 +2.5169e+000
1440 0 +1.783377002e-009 -1.276800000e+002 -1.276800000e+002 +2.2630e+000 +3.7981e+000 +2.5169e+000
% f evaluations | g evaluations | best noise-free fitness - Fopt (-3.650000000000e+001) + sum g_i+ | measured fitness | best measured fitness or single-digit g-values | x1 | x2...
1 0 +1.424377438e+002 +1.059377438e+002 +1.059377438e+002 -5.0000e+000 -5.0000e+000 +5.0000e+000
2 0 +4.092199536e+001 +4.421995361e+000 +4.421995361e+000 +5.0000e+000 -5.0000e+000 +5.0000e+000
7 0 +1.108555241e+001 -2.541444759e+001 -2.541444759e+001 -6.9783e-001 -2.3203e+000 +4.5764e+000
8 0 +1.054951903e+001 -2.595048097e+001 -2.595048097e+001 +5.0000e+000 -4.8444e-017 +5.0000e+000
10 0 +3.295461218e+000 -3.320453878e+001 -3.320453878e+001 +9.3140e-001 +1.3251e+000 +1.8697e+000
11 0 +5.116570007e-001 -3.598834300e+001 -3.598834300e+001 +1.8005e+000 +4.7342e-001 +3.4547e+000
13 0 +3.755865826e-001 -3.612441342e+001 -3.612441342e+001 +2.4886e+000 +5.3431e-001 +3.6499e+000
55 0 +2.994082050e-001 -3.620059180e+001 -3.620059180e+001 +2.0268e+000 +5.1842e-001 +2.5040e+000
69 0 +2.928999049e-001 -3.620710010e+001 -3.620710010e+001 +2.0240e+000 +4.9662e-001 +2.5022e+000
70 0 +1.185911273e-001 -3.638140887e+001 -3.638140887e+001 +2.3499e+000 +4.7515e-001 +3.1346e+000
72 0 +1.060951232e-001 -3.639390488e+001 -3.639390488e+001 +2.3339e+000 +4.7126e-001 +3.1340e+000
86 0 +7.890351664e-002 -3.642109648e+001 -3.642109648e+001 +2.1434e+000 +4.4005e-001 +2.9232e+000
98 0 +6.158693426e-002 -3.643841307e+001 -3.643841307e+001 +2.1248e+000 +4.4905e-001 +2.9311e+000
100 0 +3.522074954e-002 -3.646477925e+001 -3.646477925e+001 +1.9503e+000 +3.9367e-001 +2.7804e+000
156 0 +2.910500880e-002 -3.647089499e+001 -3.647089499e+001 +1.9502e+000 +3.9884e-001 +2.7954e+000
199 0 +2.791246548e-002 -3.647208753e+001 -3.647208753e+001 +1.9553e+000 +4.0044e-001 +2.8001e+000
213 0 +2.132286379e-003 -3.649786771e+001 -3.649786771e+001 +2.0451e+000 +4.2354e-001 +2.9277e+000
263 0 +1.696045787e-003 -3.649830395e+001 -3.649830395e+001 +2.0492e+000 +4.3827e-001 +2.9365e+000
481 0 +1.655424574e-003 -3.649834458e+001 -3.649834458e+001 +2.0612e+000 +4.4348e-001 +2.9497e+000
496 0 +8.831436492e-004 -3.649911686e+001 -3.649911686e+001 +2.0668e+000 +4.6512e-001 +2.9635e+000
499 0 +6.599263767e-004 -3.649934007e+001 -3.649934007e+001 +2.0954e+000 +4.7812e-001 +3.0023e+000
511 0 +3.079618136e-004 -3.649969204e+001 -3.649969204e+001 +2.0979e+000 +4.7705e-001 +3.0035e+000
530 0 +2.266483871e-004 -3.649977335e+001 -3.649977335e+001 +2.0984e+000 +4.7730e-001 +3.0042e+000
534 0 +1.379553458e-004 -3.649986204e+001 -3.649986204e+001 +2.0993e+000 +4.7920e-001 +3.0061e+000
586 0 +1.335452372e-004 -3.649986645e+001 -3.649986645e+001 +2.0987e+000 +4.7829e-001 +3.0051e+000
621 0 +1.094099388e-004 -3.649989059e+001 -3.649989059e+001 +2.0960e+000 +4.7722e-001 +3.0018e+000
637 0 +8.889363929e-005 -3.649991111e+001 -3.649991111e+001 +2.0963e+000 +4.7605e-001 +3.0017e+000
648 0 +8.699532124e-005 -3.649991300e+001 -3.649991300e+001 +2.0964e+000 +4.7621e-001 +3.0019e+000
677 0 +7.637345140e-005 -3.649992363e+001 -3.649992363e+001 +2.0958e+000 +4.7576e-001 +3.0011e+000
687 0 +5.500042079e-005 -3.649994500e+001 -3.649994500e+001 +2.0941e+000 +4.7401e-001 +2.9986e+000
699 0 +5.455523011e-005 -3.649994544e+001 -3.649994544e+001 +2.0940e+000 +4.7398e-001 +2.9985e+000
744 0 +5.053170725e-005 -3.649994947e+001 -3.649994947e+001 +2.0925e+000 +4.7249e-001 +2.9963e+000
758 0 +4.237757357e-005 -3.649995762e+001 -3.649995762e+001 +2.0901e+000 +4.7169e-001 +2.9933e+000
789 0 +3.843033991e-005 -3.649996157e+001 -3.649996157e+001 +2.0943e+000 +4.7794e-001 +3.0000e+000
791 0 +2.810320000e-005 -3.649997190e+001 -3.649997190e+001 +2.0927e+000 +4.7664e-001 +2.9977e+000
863 0 +2.727824684e-005 -3.649997272e+001 -3.649997272e+001 +2.0923e+000 +4.7644e-001 +2.9973e+000
889 0 +2.593526710e-005 -3.649997406e+001 -3.649997406e+001 +2.0922e+000 +4.7673e-001 +2.9972e+000
900 0 +2.429028175e-005 -3.649997571e+001 -3.649997571e+001 +2.0920e+000 +4.7705e-001 +2.9970e+000
909 0 +2.208873197e-005 -3.649997791e+001 -3.649997791e+001 +2.0913e+000 +4.7764e-001 +2.9964e+000
921 0 +2.048968032e-005 -3.649997951e+001 -3.649997951e+001 +2.0932e+000 +4.7961e-001 +2.9992e+000
922 0 +1.719982050e-005 -3.649998280e+001 -3.649998280e+001 +2.0926e+000 +4.8032e-001 +2.9987e+000
927 0 +1.619816801e-005 -3.649998380e+001 -3.649998380e+001 +2.0927e+000 +4.8065e-001 +2.9989e+000
935 0 +6.776908151e-006 -3.649999322e+001 -3.649999322e+001 +2.0935e+000 +4.8577e-001 +3.0012e+000
942 0 +2.711951730e-006 -3.649999729e+001 -3.649999729e+001 +2.0952e+000 +4.9218e-001 +3.0051e+000
947 0 +2.120814543e-006 -3.649999788e+001 -3.649999788e+001 +2.0943e+000 +4.9087e-001 +3.0037e+000
988 0 +1.514506003e-006 -3.649999849e+001 -3.649999849e+001 +2.0941e+000 +4.9288e-001 +3.0040e+000
1019 0 +1.040588465e-006 -3.649999896e+001 -3.649999896e+001 +2.0945e+000 +4.9490e-001 +3.0050e+000
1025 0 +6.708951616e-007 -3.649999933e+001 -3.649999933e+001 +2.0951e+000 +4.9790e-001 +3.0066e+000
1100 0 +4.654506256e-007 -3.649999953e+001 -3.649999953e+001 +2.0953e+000 +4.9762e-001 +3.0067e+000
1113 0 +3.682073881e-007 -3.649999963e+001 -3.649999963e+001 +2.0952e+000 +4.9769e-001 +3.0066e+000
1127 0 +3.401999820e-007 -3.649999966e+001 -3.649999966e+001 +2.0952e+000 +4.9773e-001 +3.0067e+000
1137 0 +3.974013651e-008 -3.649999996e+001 -3.649999996e+001 +2.0961e+000 +4.9926e-001 +3.0081e+000
1198 0 +2.712415892e-008 -3.649999997e+001 -3.649999997e+001 +2.0962e+000 +4.9993e-001 +3.0085e+000
1227 0 +2.529710486e-008 -3.649999997e+001 -3.649999997e+001 +2.0962e+000 +4.9991e-001 +3.0084e+000
1233 0 +1.111872905e-008 -3.649999999e+001 -3.649999999e+001 +2.0966e+000 +5.0055e-001 +3.0090e+000
1254 0 +4.433744039e-009 -3.650000000e+001 -3.650000000e+001 +2.0964e+000 +5.0031e-001 +3.0088e+000
% f evaluations | g evaluations | best noise-free fitness - Fopt (1.728700000000e+002) + sum g_i+ | measured fitness | best measured fitness or single-digit g-values | x1 | x2...
1 0 +2.710462484e+001 +1.999746248e+002 +1.999746248e+002 +5.0000e+000 -5.0000e+000 +5.0000e+000
4 0 +1.948177659e+001 +1.923517766e+002 +1.923517766e+002 +5.0000e+000 -5.0000e+000 -5.0000e+000
5 0 +3.830335052e+000 +1.767003351e+002 +1.767003351e+002 +2.9812e+000 +1.8900e+000 +2.4750e+000
12 0 +2.477632565e+000 +1.753476326e+002 +1.753476326e+002 +2.5022e+000 -8.0251e-001 -4.3245e-001
25 0 +1.790246634e+000 +1.746602466e+002 +1.746602466e+002 +2.6061e+000 -1.2528e+000 +2.9419e-001
32 0 +1.234801259e+000 +1.741048013e+002 +1.741048013e+002 +2.6017e+000 -1.0949e+000 +8.6005e-001
45 0 +5.926894103e-001 +1.734626894e+002 +1.734626894e+002 +3.7771e+000 -8.6080e-001 +1.4994e+000
58 0 +4.282279230e-001 +1.732982279e+002 +1.732982279e+002 +3.5696e+000 -7.5668e-001 +1.5244e+000
97 0 +4.222704575e-001 +1.732922705e+002 +1.732922705e+002 +3.7699e+000 -9.4332e-001 +2.1436e+000
116 0 +3.251857816e-001 +1.731951858e+002 +1.731951858e+002 +2.6044e+000 -4.3837e-001 +2.1717e+000
133 0 +3.347280517e-002 +1.729034728e+002 +1.729034728e+002 +3.2653e+000 -6.5681e-001 +1.8945e+000
292 0 +1.722130049e-002 +1.728872213e+002 +1.728872213e+002 +3.0538e+000 -8.5670e-001 +2.0971e+000
381 0 +1.649214728e-002 +1.728864921e+002 +1.728864921e+002 +3.0482e+000 -9.1236e-001 +2.1246e+000
414 0 +1.057656084e-002 +1.728805766e+002 +1.728805766e+002 +3.2177e+000 -7.2151e-001 +1.9602e+000
556 0 +6.532903962e-003 +1.728765329e+002 +1.728765329e+002 +3.1689e+000 -7.8747e-001 +2.0096e+000
596 0 +5.972074590e-003 +1.728759721e+002 +1.728759721e+002 +3.1651e+000 -7.8590e-001 +2.0093e+000
657 0 +5.726652074e-003 +1.728757267e+002 +1.728757267e+002 +3.0985e+000 -8.2737e-001 +2.0531e+000
664 0 +5.031402983e-003 +1.728750314e+002 +1.728750314e+002 +3.0711e+000 -8.1506e-001 +2.0537e+000
675 0 +4.633235344e-003 +1.728746332e+002 +1.728746332e+002 +3.0710e+000 -8.1770e-001 +2.0547e+000
687 0 +4.083384563e-003 +1.728740834e+002 +1.728740834e+002 +3.0678e+000 -8.2087e-001 +2.0566e+000
694 0 +3.632407986e-003 +1.728736324e+002 +1.728736324e+002 +3.0644e+000 -8.2135e-001 +2.0571e+000
703 0 +1.857196195e-003 +1.728718572e+002 +1.728718572e+002 +3.0837e+000 -8.0317e-001 +2.0391e+000
720 0 +1.800411260e-003 +1.728718004e+002 +1.728718004e+002 +3.0823e+000 -8.0302e-001 +2.0394e+000
721 0 +1.575796085e-003 +1.728715758e+002 +1.728715758e+002 +3.0896e+000 -7.9651e-001 +2.0321e+000
727 0 +1.307545754e-003 +1.728713075e+002 +1.728713075e+002 +3.0895e+000 -7.9337e-001 +2.0305e+000
737 0 +1.281509792e-003 +1.728712815e+002 +1.728712815e+002 +3.0890e+000 -7.9340e-001 +2.0306e+000
741 0 +1.227066669e-003 +1.728712271e+002 +1.728712271e+002 +3.0869e+000 -7.9437e-001 +2.0319e+000
751 0 +1.059404409e-003 +1.728710594e+002 +1.728710594e+002 +3.0850e+000 -7.9291e-001 +2.0315e+000
784 0 +1.037748052e-003 +1.728710377e+002 +1.728710377e+002 +3.0695e+000 -7.9587e-001 +2.0376e+000
787 0 +7.079421104e-004 +1.728707079e+002 +1.728707079e+002 +3.0821e+000 -7.7863e-001 +2.0240e+000
802 0 +6.889921468e-004 +1.728706890e+002 +1.728706890e+002 +3.0832e+000 -7.7854e-001 +2.0237e+000
803 0 +4.408546909e-004 +1.728704409e+002 +1.728704409e+002 +3.0820e+000 -7.8012e-001 +2.0243e+000
804 0 +3.961761425e-004 +1.728703962e+002 +1.728703962e+002 +3.0749e+000 -7.8345e-001 +2.0280e+000
807 0 +3.282072503e-004 +1.728703282e+002 +1.728703282e+002 +3.0752e+000 -7.8166e-001 +2.0265e+000
815 0 +3.220097230e-004 +1.728703220e+002 +1.728703220e+002 +3.0751e+000 -7.8128e-001 +2.0263e+000
893 0 +3.042331863e-004 +1.728703042e+002 +1.728703042e+002 +3.0735e+000 -7.8269e-001 +2.0276e+000
903 0 +2.966902067e-004 +1.728702967e+002 +1.728702967e+002 +3.0734e+000 -7.8252e-001 +2.0276e+000
904 0 +2.627641641e-004 +1.728702628e+002 +1.728702628e+002 +3.0604e+000 -7.8398e-001 +2.0309e+000
914 0 +1.559738344e-004 +1.728701560e+002 +1.728701560e+002 +3.0608e+000 -7.8645e-001 +2.0327e+000
928 0 +1.437096476e-004 +1.728701437e+002 +1.728701437e+002 +3.0601e+000 -7.8643e-001 +2.0328e+000
932 0 +1.279413078e-004 +1.728701279e+002 +1.728701279e+002 +3.0595e+000 -7.8281e-001 +2.0308e+000
983 0 +7.739583518e-005 +1.728700774e+002 +1.728700774e+002 +3.0527e+000 -7.8408e-001 +2.0329e+000
991 0 +4.577075399e-005 +1.728700458e+002 +1.728700458e+002 +3.0429e+000 -7.8461e-001 +2.0354e+000
1000 0 +2.700236629e-005 +1.728700270e+002 +1.728700270e+002 +3.0475e+000 -7.8527e-001 +2.0348e+000
1009 0 +2.361923691e-005 +1.728700236e+002 +1.728700236e+002 +3.0477e+000 -7.8517e-001 +2.0347e+000
1016 0 +2.332898157e-005 +1.728700233e+002 +1.728700233e+002 +3.0479e+000 -7.8519e-001 +2.0347e+000
1031 0 +1.498720454e-005 +1.728700150e+002 +1.728700150e+002 +3.0441e+000 -7.8558e-001 +2.0357e+000
1057 0 +1.430398797e-005 +1.728700143e+002 +1.728700143e+002 +3.0417e+000 -7.8584e-001 +2.0364e+000
1058 0 +8.044861204e-006 +1.728700080e+002 +1.728700080e+002 +3.0404e+000 -7.8628e-001 +2.0369e+000
1163 0 +6.289525800e-006 +1.728700063e+002 +1.728700063e+002 +3.0381e+000 -7.8749e-001 +2.0382e+000
1170 0 +5.684857967e-006 +1.728700057e+002 +1.728700057e+002 +3.0391e+000 -7.8764e-001 +2.0380e+000
1191 0 +5.149949374e-006 +1.728700051e+002 +1.728700051e+002 +3.0354e+000 -7.8820e-001 +2.0392e+000
1192 0 +4.567387663e-006 +1.728700046e+002 +1.728700046e+002 +3.0356e+000 -7.8813e-001 +2.0391e+000
1200 0 +4.314383176e-006 +1.728700043e+002 +1.728700043e+002 +3.0363e+000 -7.8805e-001 +2.0389e+000
1236 0 +3.971718627e-006 +1.728700040e+002 +1.728700040e+002 +3.0378e+000 -7.8874e-001 +2.0390e+000
1250 0 +3.239049306e-006 +1.728700032e+002 +1.728700032e+002 +3.0367e+000 -7.8911e-001 +2.0394e+000
1275 0 +3.201622945e-006 +1.728700032e+002 +1.728700032e+002 +3.0366e+000 -7.8915e-001 +2.0395e+000
1316 0 +2.320694449e-006 +1.728700023e+002 +1.728700023e+002 +3.0358e+000 -7.9001e-001 +2.0402e+000
1319 0 +2.217170760e-006 +1.728700022e+002 +1.728700022e+002 +3.0357e+000 -7.9000e-001 +2.0402e+000
1320 0 +2.077135264e-006 +1.728700021e+002 +1.728700021e+002 +3.0356e+000 -7.9140e-001 +2.0411e+000
1370 0 +1.459198955e-006 +1.728700015e+002 +1.728700015e+002 +3.0338e+000 -7.9146e-001 +2.0415e+000
1384 0 +1.113586990e-006 +1.728700011e+002 +1.728700011e+002 +3.0338e+000 -7.9145e-001 +2.0415e+000
1395 0 +1.066943156e-006 +1.728700011e+002 +1.728700011e+002 +3.0337e+000 -7.9151e-001 +2.0416e+000
1399 0 +8.744956403e-007 +1.728700009e+002 +1.728700009e+002 +3.0330e+000 -7.9180e-001 +2.0419e+000
1401 0 +3.885527065e-007 +1.728700004e+002 +1.728700004e+002 +3.0313e+000 -7.9290e-001 +2.0430e+000
1434 0 +3.524308454e-007 +1.728700004e+002 +1.728700004e+002 +3.0288e+000 -7.9453e-001 +2.0445e+000
1484 0 +1.560904366e-007 +1.728700002e+002 +1.728700002e+002 +3.0293e+000 -7.9433e-001 +2.0443e+000
1532 0 +1.427652307e-007 +1.728700001e+002 +1.728700001e+002 +3.0294e+000 -7.9433e-001 +2.0442e+000
1557 0 +1.159311012e-007 +1.728700001e+002 +1.728700001e+002 +3.0297e+000 -7.9423e-001 +2.0441e+000
1572 0 +9.283746749e-008 +1.728700001e+002 +1.728700001e+002 +3.0292e+000 -7.9453e-001 +2.0444e+000
1586 0 +7.725748219e-008 +1.728700001e+002 +1.728700001e+002 +3.0286e+000 -7.9491e-001 +2.0448e+000
1620 0 +6.824581078e-008 +1.728700001e+002 +1.728700001e+002 +3.0278e+000 -7.9555e-001 +2.0453e+000
1652 0 +6.371638506e-008 +1.728700001e+002 +1.728700001e+002 +3.0282e+000 -7.9527e-001 +2.0451e+000
1660 0 +3.845855190e-008 +1.728700000e+002 +1.728700000e+002 +3.0279e+000 -7.9553e-001 +2.0453e+000
1680 0 +1.578587216e-008 +1.728700000e+002 +1.728700000e+002 +3.0280e+000 -7.9553e-001 +2.0453e+000
1739 0 +1.192944410e-008 +1.728700000e+002 +1.728700000e+002 +3.0279e+000 -7.9568e-001 +2.0454e+000
1806 0 +1.171292752e-008 +1.728700000e+002 +1.728700000e+002 +3.0279e+000 -7.9564e-001 +2.0454e+000
1812 0 +9.008886082e-009 +1.728700000e+002 +1.728700000e+002 +3.0279e+000 -7.9572e-001 +2.0454e+000
% f evaluations | g evaluations | best noise-free fitness - Fopt (1.577200000000e+002) + sum g_i+ | measured fitness | best measured fitness or single-digit g-values | x1 | x2...
1 0 +1.417147716e+002 +2.994347716e+002 +2.994347716e+002 +5.0000e+000 +5.0000e+000 -5.0000e+000
4 0 +3.425448928e+001 +1.919744893e+002 +1.919744893e+002 +5.0000e+000 +5.0000e+000 +5.0000e+000
5 0 +7.431859569e+000 +1.651518596e+002 +1.651518596e+002 -4.3296e+000 -1.7604e-001 +3.5914e+000
7 0 +1.527806149e+000 +1.592478061e+002 +1.592478061e+002 -1.8935e+000 -9.0163e-001 +3.1195e+000
65 0 +1.202030236e+000 +1.589220302e+002 +1.589220302e+002 -3.9421e+000 -1.1358e+000 +3.4354e+000
66 0 +7.967262449e-001 +1.585167262e+002 +1.585167262e+002 -3.5714e+000 -1.1014e+000 +3.4303e+000
85 0 +6.855535550e-001 +1.584055536e+002 +1.584055536e+002 -3.1993e+000 -8.7372e-001 +3.6653e+000
101 0 +6.241871044e-001 +1.583441871e+002 +1.583441871e+002 -2.6479e+000 -1.1791e+000 +3.2151e+000
114 0 +5.731347766e-001 +1.582931348e+002 +1.582931348e+002 -3.4308e+000 -1.3695e+000 +3.4139e+000
148 0 +4.341585238e-001 +1.581541585e+002 +1.581541585e+002 -3.1610e+000 -1.2405e+000 +3.3081e+000
152 0 +2.410242708e-001 +1.579610243e+002 +1.579610243e+002 -3.2350e+000 -1.5095e+000 +4.0227e+000
171 0 +2.387999760e-001 +1.579588000e+002 +1.579588000e+002 -3.2279e+000 -1.2826e+000 +4.3198e+000
174 0 +1.945311745e-001 +1.579145312e+002 +1.579145312e+002 -3.1993e+000 -1.4999e+000 +4.0751e+000
181 0 +1.881778465e-001 +1.579081778e+002 +1.579081778e+002 -3.1761e+000 -1.5374e+000 +4.0701e+000
185 0 +1.579055268e-001 +1.578779055e+002 +1.578779055e+002 -3.1663e+000 -1.4767e+000 +4.0730e+000
194 0 +1.262439450e-001 +1.578462439e+002 +1.578462439e+002 -3.1332e+000 -1.4687e+000 +4.0738e+000
217 0 +9.028023052e-002 +1.578102802e+002 +1.578102802e+002 -2.9729e+000 -1.5217e+000 +3.7754e+000
218 0 +8.024335463e-002 +1.578002434e+002 +1.578002434e+002 -2.7250e+000 -1.6822e+000 +3.7904e+000
259 0 +5.385302881e-002 +1.577738530e+002 +1.577738530e+002 -2.8019e+000 -1.6418e+000 +3.7155e+000
274 0 +3.932514813e-002 +1.577593251e+002 +1.577593251e+002 -2.7859e+000 -1.8032e+000 +4.0011e+000
289 0 +9.633681728e-003 +1.577296337e+002 +1.577296337e+002 -2.8463e+000 -1.7473e+000 +3.9466e+000
297 0 +7.342155046e-003 +1.577273422e+002 +1.577273422e+002 -2.9092e+000 -1.5165e+000 +3.8619e+000
354 0 +6.758509457e-003 +1.577267585e+002 +1.577267585e+002 -2.9219e+000 -1.5042e+000 +3.9111e+000
390 0 +5.880354098e-003 +1.577258804e+002 +1.577258804e+002 -2.9238e+000 -1.5036e+000 +3.9098e+000
424 0 +4.652063254e-003 +1.577246521e+002 +1.577246521e+002 -2.9285e+000 -1.5349e+000 +3.9421e+000
425 0 +4.313131086e-003 +1.577243131e+002 +1.577243131e+002 -2.9147e+000 -1.5282e+000 +3.9150e+000
436 0 +3.764716842e-003 +1.577237647e+002 +1.577237647e+002 -2.8613e+000 -1.7329e+000 +3.9989e+000
468 0 +2.761148589e-003 +1.577227611e+002 +1.577227611e+002 -2.8812e+000 -1.6489e+000 +3.9659e+000
493 0 +1.037701518e-003 +1.577210377e+002 +1.577210377e+002 -2.8986e+000 -1.5936e+000 +3.9425e+000
612 0 +4.452216291e-004 +1.577204452e+002 +1.577204452e+002 -2.8928e+000 -1.5969e+000 +3.9268e+000
687 0 +2.758526708e-004 +1.577202759e+002 +1.577202759e+002 -2.8888e+000 -1.6093e+000 +3.9313e+000
688 0 +2.423337979e-004 +1.577202423e+002 +1.577202423e+002 -2.8796e+000 -1.6469e+000 +3.9504e+000
716 0 +2.348864243e-004 +1.577202349e+002 +1.577202349e+002 -2.8833e+000 -1.6334e+000 +3.9440e+000
759 0 +2.278257420e-004 +1.577202278e+002 +1.577202278e+002 -2.8819e+000 -1.6357e+000 +3.9428e+000
760 0 +1.512370198e-004 +1.577201512e+002 +1.577201512e+002 -2.8830e+000 -1.6356e+000 +3.9462e+000
792 0 +1.462823347e-004 +1.577201463e+002 +1.577201463e+002 -2.8832e+000 -1.6348e+000 +3.9459e+000
800 0 +1.228765525e-004 +1.577201229e+002 +1.577201229e+002 -2.8844e+000 -1.6301e+000 +3.9437e+000
848 0 +1.149095929e-004 +1.577201149e+002 +1.577201149e+002 -2.8857e+000 -1.6246e+000 +3.9409e+000
933 0 +9.791349655e-005 +1.577200979e+002 +1.577200979e+002 -2.8806e+000 -1.6364e+000 +3.9404e+000
940 0 +9.622399077e-005 +1.577200962e+002 +1.577200962e+002 -2.8808e+000 -1.6359e+000 +3.9401e+000
947 0 +7.368722962e-005 +1.577200737e+002 +1.577200737e+002 -2.8818e+000 -1.6340e+000 +3.9410e+000
980 0 +6.652538667e-005 +1.577200665e+002 +1.577200665e+002 -2.8815e+000 -1.6350e+000 +3.9415e+000
991 0 +6.024544410e-005 +1.577200602e+002 +1.577200602e+002 -2.8779e+000 -1.6393e+000 +3.9367e+000
996 0 +3.834968641e-005 +1.577200383e+002 +1.577200383e+002 -2.8794e+000 -1.6361e+000 +3.9369e+000
1039 0 +2.759305787e-005 +1.577200276e+002 +1.577200276e+002 -2.8655e+000 -1.6713e+000 +3.9403e+000
1041 0 +2.265061002e-005 +1.577200227e+002 +1.577200227e+002 -2.8656e+000 -1.6712e+000 +3.9402e+000
1063 0 +1.880179366e-005 +1.577200188e+002 +1.577200188e+002 -2.8642e+000 -1.6724e+000 +3.9377e+000
1067 0 +9.000358205e-006 +1.577200090e+002 +1.577200090e+002 -2.8639e+000 -1.6728e+000 +3.9373e+000
1071 0 +6.656812531e-006 +1.577200067e+002 +1.577200067e+002 -2.8639e+000 -1.6727e+000 +3.9370e+000
1077 0 +4.706696160e-006 +1.577200047e+002 +1.577200047e+002 -2.8638e+000 -1.6726e+000 +3.9368e+000
1082 0 +1.757130406e-007 +1.577200002e+002 +1.577200002e+002 -2.8666e+000 -1.6670e+000 +3.9379e+000
1153 0 +1.242025576e-007 +1.577200001e+002 +1.577200001e+002 -2.8647e+000 -1.6714e+000 +3.9380e+000
1249 0 +7.679884106e-008 +1.577200001e+002 +1.577200001e+002 -2.8656e+000 -1.6693e+000 +3.9380e+000
1309 0 +7.065261798e-008 +1.577200001e+002 +1.577200001e+002 -2.8657e+000 -1.6693e+000 +3.9380e+000
1343 0 +3.982319186e-008 +1.577200000e+002 +1.577200000e+002 -2.8660e+000 -1.6683e+000 +3.9378e+000
1378 0 +5.312159601e-009 +1.577200000e+002 +1.577200000e+002 -2.8661e+000 -1.6680e+000 +3.9377e+000
% f evaluations | g evaluations | best noise-free fitness - Fopt (2.819000000000e+001) + sum g_i+ | measured fitness | best measured fitness or single-digit g-values | x1 | x2...
1 0 +2.333012671e+001 +5.152012671e+001 +5.152012671e+001 +5.0000e+000 -5.0000e+000 -5.0000e+000
6 0 +6.630336661e+000 +3.482033666e+001 +3.482033666e+001 +2.0872e+000 +4.8222e+000 +4.0629e+000
7 0 +5.043356312e+000 +3.323335631e+001 +3.323335631e+001 +1.7882e+000 +3.4511e+000 +1.5596e+000
49 0 +4.854756861e+000 +3.304475686e+001 +3.304475686e+001 +1.7505e+000 +3.4586e+000 +1.6407e+000
51 0 +4.648746535e+000 +3.283874653e+001 +3.283874653e+001 +1.6874e+000 +3.4692e+000 +1.7697e+000
52 0 +4.487058937e+000 +3.267705894e+001 +3.267705894e+001 +8.8708e-001 +2.8110e+000 +3.0574e+000
56 0 +4.257148697e+000 +3.244714870e+001 +3.244714870e+001 +3.1838e+000 -5.1021e-001 +2.7938e+000
73 0 +1.365433386e+000 +2.955543339e+001 +2.955543339e+001 +7.8724e-001 -7.8659e-001 -1.4608e-001
132 0 +1.257430651e+000 +2.944743065e+001 +2.944743065e+001 +8.0137e-001 -9.4823e-001 -8.2021e-002
144 0 +1.004720470e+000 +2.919472047e+001 +2.919472047e+001 +1.9916e+000 +3.8150e-001 +1.0478e-001
164 0 +7.537591152e-001 +2.894375912e+001 +2.894375912e+001 +2.1056e+000 +1.9057e-001 +1.7782e-001
169 0 +5.173960442e-001 +2.870739604e+001 +2.870739604e+001 +2.3393e+000 -7.8660e-001 -2.4963e-001
191 0 +5.066668343e-001 +2.869666683e+001 +2.869666683e+001 +1.5907e+000 -1.2277e+000 +2.3835e-001
198 0 +4.496427306e-001 +2.863964273e+001 +2.863964273e+001 +2.2649e+000 -1.1864e+000 +3.8053e-001
208 0 +4.214560210e-001 +2.861145602e+001 +2.861145602e+001 +2.3318e+000 -3.0070e-001 -4.2117e-002
254 0 +1.539091424e-001 +2.834390914e+001 +2.834390914e+001 +1.8014e+000 -5.5832e-001 +4.4372e-001
259 0 +1.381195405e-001 +2.832811954e+001 +2.832811954e+001 +1.6305e+000 -8.1214e-001 +3.0914e-001
273 0 +1.199350659e-001 +2.830993507e+001 +2.830993507e+001 +1.6195e+000 -7.7558e-001 +3.0052e-001
330 0 +1.075940389e-001 +2.829759404e+001 +2.829759404e+001 +1.6508e+000 -7.7362e-001 +3.0946e-001
335 0 +6.051461629e-002 +2.825051462e+001 +2.825051462e+001 +1.7676e+000 -6.4444e-001 +2.0848e-001
356 0 +2.270884909e-002 +2.821270885e+001 +2.821270885e+001 +1.8202e+000 -5.7420e-001 +2.3473e-001
446 0 +2.236779480e-002 +2.821236779e+001 +2.821236779e+001 +1.8368e+000 -5.9164e-001 +2.6478e-001
487 0 +1.808719595e-002 +2.820808720e+001 +2.820808720e+001 +1.8396e+000 -5.8043e-001 +2.3786e-001
491 0 +1.758227611e-002 +2.820758228e+001 +2.820758228e+001 +1.8309e+000 -5.9184e-001 +2.5399e-001
499 0 +1.326590888e-002 +2.820326591e+001 +2.820326591e+001 +1.8234e+000 -5.9892e-001 +2.5054e-001
551 0 +1.240228000e-002 +2.820240228e+001 +2.820240228e+001 +1.8174e+000 -6.0580e-001 +2.5525e-001
565 0 +9.687052190e-003 +2.819968705e+001 +2.819968705e+001 +1.8292e+000 -6.2522e-001 +2.6721e-001
580 0 +7.265759688e-003 +2.819726576e+001 +2.819726576e+001 +1.8253e+000 -6.3690e-001 +2.8799e-001
602 0 +7.139259273e-003 +2.819713926e+001 +2.819713926e+001 +1.8255e+000 -6.3638e-001 +2.8803e-001
619 0 +5.066506183e-003 +2.819506651e+001 +2.819506651e+001 +1.8390e+000 -6.3771e-001 +2.9530e-001
640 0 +4.305367897e-003 +2.819430537e+001 +2.819430537e+001 +1.8346e+000 -6.5323e-001 +3.1705e-001
668 0 +4.184487827e-003 +2.819418449e+001 +2.819418449e+001 +1.8316e+000 -6.6278e-001 +3.3079e-001
675 0 +3.314448870e-003 +2.819331445e+001 +2.819331445e+001 +1.8638e+000 -6.5330e-001 +3.1891e-001
678 0 +2.458671687e-003 +2.819245867e+001 +2.819245867e+001 +1.8728e+000 -6.4432e-001 +3.0234e-001
695 0 +2.204553633e-003 +2.819220455e+001 +2.819220455e+001 +1.8752e+000 -6.5088e-001 +3.0935e-001
702 0 +1.714595738e-003 +2.819171460e+001 +2.819171460e+001 +1.9021e+000 -6.6269e-001 +3.2576e-001
704 0 +1.679056640e-003 +2.819167906e+001 +2.819167906e+001 +1.9016e+000 -6.6293e-001 +3.2613e-001
709 0 +1.585075499e-003 +2.819158508e+001 +2.819158508e+001 +1.8976e+000 -6.8418e-001 +3.5372e-001
728 0 +1.545697180e-003 +2.819154570e+001 +2.819154570e+001 +1.8968e+000 -6.8614e-001 +3.5640e-001
729 0 +1.109469310e-003 +2.819110947e+001 +2.819110947e+001 +1.9036e+000 -6.8487e-001 +3.5576e-001
760 0 +9.382144266e-004 +2.819093821e+001 +2.819093821e+001 +1.9065e+000 -6.8017e-001 +3.5011e-001
770 0 +8.379911293e-004 +2.819083799e+001 +2.819083799e+001 +1.9074e+000 -6.8496e-001 +3.5765e-001
792 0 +6.553740162e-004 +2.819065537e+001 +2.819065537e+001 +1.9021e+000 -6.8500e-001 +3.5768e-001
799 0 +6.068388877e-004 +2.819060684e+001 +2.819060684e+001 +1.9005e+000 -6.8660e-001 +3.5985e-001
804 0 +5.984282956e-004 +2.819059843e+001 +2.819059843e+001 +1.8989e+000 -6.8537e-001 +3.5742e-001
805 0 +5.435918839e-004 +2.819054359e+001 +2.819054359e+001 +1.8966e+000 -6.9458e-001 +3.6990e-001
825 0 +5.273948967e-004 +2.819052739e+001 +2.819052739e+001 +1.8974e+000 -6.9389e-001 +3.6920e-001
830 0 +4.683014490e-004 +2.819046830e+001 +2.819046830e+001 +1.8943e+000 -6.9779e-001 +3.7459e-001
832 0 +4.621774205e-004 +2.819046218e+001 +2.819046218e+001 +1.8941e+000 -6.9770e-001 +3.7455e-001
835 0 +4.523487556e-004 +2.819045235e+001 +2.819045235e+001 +1.8877e+000 -7.0760e-001 +3.8752e-001
847 0 +3.933084677e-004 +2.819039331e+001 +2.819039331e+001 +1.8858e+000 -7.0753e-001 +3.8737e-001
851 0 +3.711005500e-004 +2.819037110e+001 +2.819037110e+001 +1.8921e+000 -6.9600e-001 +3.7205e-001
860 0 +3.615810236e-004 +2.819036158e+001 +2.819036158e+001 +1.8919e+000 -6.9389e-001 +3.6911e-001
863 0 +3.057135197e-004 +2.819030571e+001 +2.819030571e+001 +1.8866e+000 -6.9985e-001 +3.7757e-001
864 0 +2.188024134e-004 +2.819021880e+001 +2.819021880e+001 +1.8812e+000 -7.0733e-001 +3.8743e-001
867 0 +1.343781524e-004 +2.819013438e+001 +2.819013438e+001 +1.8784e+000 -7.0270e-001 +3.8092e-001
889 0 +1.310716533e-004 +2.819013107e+001 +2.819013107e+001 +1.8785e+000 -7.0260e-001 +3.8081e-001
900 0 +1.205154474e-004 +2.819012052e+001 +2.819012052e+001 +1.8785e+000 -7.0405e-001 +3.8294e-001
931 0 +4.407037951e-005 +2.819004407e+001 +2.819004407e+001 +1.8688e+000 -7.1049e-001 +3.9142e-001
932 0 +4.158180024e-005 +2.819004158e+001 +2.819004158e+001 +1.8674e+000 -7.1148e-001 +3.9274e-001
946 0 +2.181199365e-005 +2.819002181e+001 +2.819002181e+001 +1.8656e+000 -7.1119e-001 +3.9243e-001
1031 0 +4.054825027e-006 +2.819000405e+001 +2.819000405e+001 +1.8576e+000 -7.2162e-001 +4.0641e-001
1089 0 +3.672077241e-006 +2.819000367e+001 +2.819000367e+001 +1.8573e+000 -7.2163e-001 +4.0642e-001
1107 0 +2.263233409e-006 +2.819000226e+001 +2.819000226e+001 +1.8575e+000 -7.2106e-001 +4.0565e-001
1135 0 +1.225040418e-006 +2.819000123e+001 +2.819000123e+001 +1.8575e+000 -7.2083e-001 +4.0534e-001
1140 0 +9.311495539e-007 +2.819000093e+001 +2.819000093e+001 +1.8575e+000 -7.2077e-001 +4.0525e-001
1205 0 +7.482320683e-007 +2.819000075e+001 +2.819000075e+001 +1.8572e+000 -7.1975e-001 +4.0388e-001
1213 0 +5.887933838e-007 +2.819000059e+001 +2.819000059e+001 +1.8569e+000 -7.2026e-001 +4.0456e-001
1279 0 +3.855506812e-007 +2.819000039e+001 +2.819000039e+001 +1.8570e+000 -7.2065e-001 +4.0509e-001
1313 0 +1.944661037e-007 +2.819000019e+001 +2.819000019e+001 +1.8570e+000 -7.2080e-001 +4.0530e-001
1354 0 +1.732263897e-007 +2.819000017e+001 +2.819000017e+001 +1.8567e+000 -7.2111e-001 +4.0571e-001
1357 0 +1.551597677e-007 +2.819000016e+001 +2.819000016e+001 +1.8565e+000 -7.2199e-001 +4.0690e-001
1407 0 +9.232600817e-008 +2.819000009e+001 +2.819000009e+001 +1.8566e+000 -7.2198e-001 +4.0688e-001
1414 0 +5.180184814e-008 +2.819000005e+001 +2.819000005e+001 +1.8564e+000 -7.2216e-001 +4.0712e-001
1458 0 +1.052869081e-008 +2.819000001e+001 +2.819000001e+001 +1.8559e+000 -7.2283e-001 +4.0803e-001
1529 0 +9.875208207e-009 +2.819000001e+001 +2.819000001e+001 +1.8559e+000 -7.2281e-001 +4.0800e-001
% f evaluations | g evaluations | best noise-free fitness - Fopt (-9.925000000000e+001) + sum g_i+ | measured fitness | best measured fitness or single-digit g-values | x1 | x2...
1 0 +1.019970598e+001 -8.905029402e+001 -8.905029402e+001 -5.0000e+000 -5.0000e+000 -5.0000e+000
8 0 +8.720617850e+000 -9.052938215e+001 -9.052938215e+001 -5.0000e+000 -1.9084e+000 -3.8983e+000
10 0 +8.325066158e+000 -9.092493384e+001 -9.092493384e+001 -5.0000e+000 -2.9059e+000 -3.5556e+000
13 0 +8.182411420e+000 -9.106758858e+001 -9.106758858e+001 -4.8359e+000 -3.1055e+000 -3.5754e+000
15 0 +7.728872983e+000 -9.152112702e+001 -9.152112702e+001 -4.2811e+000 -3.0942e+000 -3.6021e+000
52 0 +7.322370786e+000 -9.192762921e+001 -9.192762921e+001 -3.8214e+000 -3.1653e+000 -3.5479e+000
61 0 +7.019982844e+000 -9.223001716e+001 -9.223001716e+001 -3.4818e+000 -3.2138e+000 -3.5008e+000
62 0 +6.888008162e+000 -9.236199184e+001 -9.236199184e+001 -3.2398e+000 -3.0262e+000 -3.5743e+000
73 0 +6.644696260e+000 -9.260530374e+001 -9.260530374e+001 -2.8422e+000 -1.6121e+000 -3.2616e+000
75 0 +6.378190902e+000 -9.287180910e+001 -9.287180910e+001 -2.3967e+000 -1.6138e+000 -3.2367e+000
79 0 +6.262798731e+000 -9.298720127e+001 -9.298720127e+001 -2.3467e+000 -1.7520e+000 -3.2593e+000
82 0 +6.102394182e+000 -9.314760582e+001 -9.314760582e+001 -1.8827e+000 -2.1529e+000 -3.5666e+000
99 0 +5.564033481e+000 -9.368596652e+001 -9.368596652e+001 -2.7317e+000 -3.5102e+000 -1.9243e+000
104 0 +5.020504353e+000 -9.422949565e+001 -9.422949565e+001 -4.3620e-001 -3.5498e+000 -3.4950e+000
107 0 +4.995737379e+000 -9.425426262e+001 -9.425426262e+001 -5.6685e-001 -3.4974e+000 -3.4705e+000
147 0 +3.064291386e+000 -9.618570861e+001 -9.618570861e+001 +3.4543e-001 -3.6364e+000 -1.9154e+000
150 0 +9.906051347e-001 -9.825939487e+001 -9.825939487e+001 +1.3582e+000 -3.8406e+000 +4.6021e-002
151 0 +9.314628935e-001 -9.831853711e+001 -9.831853711e+001 +3.0872e+000 -4.2194e+000 +6.9307e-001
157 0 +1.161457818e-001 -9.913385422e+001 -9.913385422e+001 +2.2541e+000 -3.2281e+000 +4.0787e-001
318 0 +8.964518042e-002 -9.916035482e+001 -9.916035482e+001 +2.3202e+000 -3.2770e+000 +3.5957e-001
351 0 +5.738882129e-002 -9.919261118e+001 -9.919261118e+001 +2.4419e+000 -3.2710e+000 +4.0039e-001
363 0 +3.465659794e-002 -9.921534340e+001 -9.921534340e+001 +2.4074e+000 -3.2973e+000 +4.0457e-001
396 0 +2.879605748e-002 -9.922120394e+001 -9.922120394e+001 +2.4419e+000 -3.4202e+000 +3.1206e-001
447 0 +2.065229318e-002 -9.922934771e+001 -9.922934771e+001 +2.1753e+000 -3.5263e+000 +6.7131e-001
474 0 +1.304424381e-002 -9.923695576e+001 -9.923695576e+001 +2.1870e+000 -3.5226e+000 +6.4204e-001
477 0 +7.277181888e-003 -9.924272282e+001 -9.924272282e+001 +2.2179e+000 -3.5146e+000 +6.0394e-001
554 0 +6.480900626e-003 -9.924351910e+001 -9.924351910e+001 +2.2227e+000 -3.5919e+000 +5.9392e-001
562 0 +3.461741517e-003 -9.924653826e+001 -9.924653826e+001 +2.2274e+000 -3.5971e+000 +5.8206e-001
570 0 +3.336503659e-003 -9.924666350e+001 -9.924666350e+001 +2.2035e+000 -3.6554e+000 +5.9590e-001
583 0 +2.963584777e-003 -9.924703642e+001 -9.924703642e+001 +2.2122e+000 -3.6725e+000 +5.8462e-001
622 0 +1.656464843e-003 -9.924834354e+001 -9.924834354e+001 +2.2342e+000 -3.5928e+000 +5.7069e-001
632 0 +1.317774468e-003 -9.924868223e+001 -9.924868223e+001 +2.2303e+000 -3.6169e+000 +5.6775e-001
637 0 +6.924853435e-004 -9.924930751e+001 -9.924930751e+001 +2.2277e+000 -3.6133e+000 +5.7299e-001
685 0 +3.498100352e-004 -9.924965019e+001 -9.924965019e+001 +2.2464e+000 -3.5934e+000 +5.5137e-001
703 0 +2.940007433e-004 -9.924970600e+001 -9.924970600e+001 +2.2440e+000 -3.5992e+000 +5.5432e-001
791 0 +1.879533277e-004 -9.924981205e+001 -9.924981205e+001 +2.2373e+000 -3.5801e+000 +5.6593e-001
830 0 +1.690134545e-004 -9.924983099e+001 -9.924983099e+001 +2.2387e+000 -3.5806e+000 +5.6401e-001
831 0 +9.983670563e-005 -9.924990016e+001 -9.924990016e+001 +2.2403e+000 -3.5765e+000 +5.6223e-001
934 0 +7.767313856e-005 -9.924992233e+001 -9.924992233e+001 +2.2420e+000 -3.5748e+000 +5.6027e-001
948 0 +7.642595128e-005 -9.924992357e+001 -9.924992357e+001 +2.2421e+000 -3.5748e+000 +5.6012e-001
978 0 +6.946046078e-005 -9.924993054e+001 -9.924993054e+001 +2.2442e+000 -3.5779e+000 +5.5701e-001
992 0 +6.831966779e-005 -9.924993168e+001 -9.924993168e+001 +2.2442e+000 -3.5779e+000 +5.5697e-001
996 0 +6.755505376e-005 -9.924993244e+001 -9.924993244e+001 +2.2442e+000 -3.5779e+000 +5.5693e-001
1002 0 +6.279655004e-005 -9.924993720e+001 -9.924993720e+001 +2.2455e+000 -3.5760e+000 +5.5545e-001
1007 0 +4.988105624e-005 -9.924995012e+001 -9.924995012e+001 +2.2452e+000 -3.5724e+000 +5.5640e-001
1024 0 +4.773695760e-005 -9.924995226e+001 -9.924995226e+001 +2.2460e+000 -3.5709e+000 +5.5557e-001
1059 0 +4.656863563e-005 -9.924995343e+001 -9.924995343e+001 +2.2458e+000 -3.5707e+000 +5.5586e-001
1064 0 +4.307761787e-005 -9.924995692e+001 -9.924995692e+001 +2.2470e+000 -3.5687e+000 +5.5455e-001
1070 0 +2.259420836e-005 -9.924997741e+001 -9.924997741e+001 +2.2528e+000 -3.5620e+000 +5.4777e-001
1077 0 +1.629609726e-005 -9.924998370e+001 -9.924998370e+001 +2.2540e+000 -3.5603e+000 +5.4654e-001
1115 0 +4.883620960e-006 -9.924999512e+001 -9.924999512e+001 +2.2560e+000 -3.5591e+000 +5.4405e-001
1124 0 +4.641492794e-006 -9.924999536e+001 -9.924999536e+001 +2.2557e+000 -3.5613e+000 +5.4413e-001
1170 0 +3.889228481e-006 -9.924999611e+001 -9.924999611e+001 +2.2598e+000 -3.5543e+000 +5.3973e-001
1172 0 +5.086683359e-007 -9.924999949e+001 -9.924999949e+001 +2.2598e+000 -3.5542e+000 +5.3971e-001
1292 0 +4.612097939e-007 -9.924999954e+001 -9.924999954e+001 +2.2598e+000 -3.5541e+000 +5.3976e-001
1293 0 +4.462275740e-007 -9.924999955e+001 -9.924999955e+001 +2.2608e+000 -3.5530e+000 +5.3859e-001
1305 0 +3.873218475e-007 -9.924999961e+001 -9.924999961e+001 +2.2608e+000 -3.5529e+000 +5.3854e-001
1306 0 +1.226617456e-007 -9.924999988e+001 -9.924999988e+001 +2.2610e+000 -3.5525e+000 +5.3833e-001
1360 0 +1.149048643e-007 -9.924999989e+001 -9.924999989e+001 +2.2622e+000 -3.5509e+000 +5.3706e-001
1369 0 +9.751660457e-008 -9.924999990e+001 -9.924999990e+001 +2.2622e+000 -3.5509e+000 +5.3708e-001
1472 0 +9.385890110e-008 -9.924999991e+001 -9.924999991e+001 +2.2613e+000 -3.5520e+000 +5.3809e-001
1504 0 +9.087302999e-008 -9.924999991e+001 -9.924999991e+001 +2.2612e+000 -3.5521e+000 +5.3814e-001
1506 0 +8.332908408e-008 -9.924999992e+001 -9.924999992e+001 +2.2613e+000 -3.5521e+000 +5.3810e-001
1529 0 +7.133645852e-008 -9.924999993e+001 -9.924999993e+001 +2.2614e+000 -3.5519e+000 +5.3794e-001
1549 0 +6.936080865e-008 -9.924999993e+001 -9.924999993e+001 +2.2617e+000 -3.5515e+000 +5.3760e-001
1564 0 +6.383072559e-008 -9.924999994e+001 -9.924999994e+001 +2.2616e+000 -3.5516e+000 +5.3765e-001
1575 0 +5.677947001e-008 -9.924999994e+001 -9.924999994e+001 +2.2616e+000 -3.5515e+000 +5.3768e-001
1611 0 +5.490029764e-008 -9.924999995e+001 -9.924999995e+001 +2.2617e+000 -3.5514e+000 +5.3759e-001
1615 0 +4.942494058e-008 -9.924999995e+001 -9.924999995e+001 +2.2617e+000 -3.5514e+000 +5.3758e-001
1647 0 +3.922178848e-008 -9.924999996e+001 -9.924999996e+001 +2.2618e+000 -3.5512e+000 +5.3749e-001
1651 0 +3.821912742e-008 -9.924999996e+001 -9.924999996e+001 +2.2618e+000 -3.5512e+000 +5.3750e-001
1662 0 +3.323809494e-008 -9.924999997e+001 -9.924999997e+001 +2.2618e+000 -3.5512e+000 +5.3750e-001
1664 0 +3.000943138e-008 -9.924999997e+001 -9.924999997e+001 +2.2619e+000 -3.5510e+000 +5.3740e-001
1679 0 +2.857294135e-008 -9.924999997e+001 -9.924999997e+001 +2.2620e+000 -3.5509e+000 +5.3732e-001
1682 0 +2.706137536e-008 -9.924999997e+001 -9.924999997e+001 +2.2620e+000 -3.5509e+000 +5.3733e-001
1685 0 +2.626649120e-008 -9.924999997e+001 -9.924999997e+001 +2.2622e+000 -3.5504e+000 +5.3705e-001
1686 0 +2.070507321e-008 -9.924999998e+001 -9.924999998e+001 +2.2629e+000 -3.5493e+000 +5.3628e-001
1691 0 +1.235399338e-008 -9.924999999e+001 -9.924999999e+001 +2.2630e+000 -3.5493e+000 +5.3624e-001
1696 0 +1.016206852e-008 -9.924999999e+001 -9.924999999e+001 +2.2630e+000 -3.5493e+000 +5.3626e-001
1711 0 +6.952049603e-009 -9.924999999e+001 -9.924999999e+001 +2.2629e+000 -3.5494e+000 +5.3637e-001
