% function evaluation | noise-free fitness - Fopt (-1.000000000000e+03) | best noise-free fitness - Fopt | measured fitness | best measured fitness | x1 | x2...
1 +8.549894840e+01 +8.549894840e+01 -9.145010516e+02 -9.145010516e+02 -2.0722e+00 -5.5605e-01 -1.9785e-01 +2.4350e+00 -1.8107e+00
10 +6.008093725e+01 +6.008093725e+01 -9.399190628e+02 -9.399190628e+02 -2.9188e+00 +2.2591e+00 -2.8637e+00 -2.4120e+00 -2.9141e+00
22 +1.888136011e+01 +1.888136011e+01 -9.811186399e+02 -9.811186399e+02 +2.4343e+00 -1.6102e+00 -7.4067e-02 -3.4132e+00 -1.7311e+00
145 +1.543571782e+01 +1.543571782e+01 -9.845642822e+02 -9.845642822e+02 -3.7756e+00 +1.4414e+00 +3.2471e+00 -4.3699e+00 -1.8704e+00
226 +8.781509485e+00 +8.781509485e+00 -9.912184905e+02 -9.912184905e+02 -3.6107e+00 +2.5282e+00 +3.2471e+00 -4.3699e+00 -1.8704e+00
310 +2.217371833e+00 +2.217371833e+00 -9.977826282e+02 -9.977826282e+02 +9.3038e-01 -6.5924e-01 +2.8131e+00 -3.6866e+00 -3.1100e+00
709 +5.252102977e-01 +5.252102977e-01 -9.994747897e+02 -9.994747897e+02 +6.9579e-01 +2.6079e-01 +3.6398e+00 -2.3818e+00 -3.1671e+00
2028 +2.459417731e-01 +2.459417731e-01 -9.997540582e+02 -9.997540582e+02 +5.6901e-01 -3.3583e-02 +3.2118e+00 -3.1647e+00 -3.4521e+00
3053 +2.519124422e-02 +2.519124422e-02 -9.999748088e+02 -9.999748088e+02 +1.0520e+00 +2.6079e-01 +2.4697e+00 -1.3145e+00 -2.2587e+00
3201 +2.506656635e-02 +2.506656635e-02 -9.999749334e+02 -9.999749334e+02 +1.0520e+00 +2.5698e-01 +2.4697e+00 -1.3145e+00 -2.2587e+00
3951 +1.389039009e-02 +1.389039009e-02 -9.999861096e+02 -9.999861096e+02 +1.0520e+00 +2.5698e-01 +2.5465e+00 -1.3145e+00 -2.2587e+00
11351 +9.521677289e-03 +9.521677289e-03 -9.999904783e+02 -9.999904783e+02 +1.0525e+00 +2.7434e-01 +2.6379e+00 -1.3145e+00 -2.2587e+00
15152 +5.210057482e-03 +5.210057482e-03 -9.999947899e+02 -9.999947899e+02 +1.1944e+00 +4.1847e-01 +2.4987e+00 -8.1358e-01 -2.0062e+00
15176 +2.460965862e-03 +2.460965862e-03 -9.999975390e+02 -9.999975390e+02 +1.1944e+00 +4.5063e-01 +2.6197e+00 -8.6790e-01 -2.0062e+00
16477 +1.166577373e-03 +1.166577373e-03 -9.999988334e+02 -9.999988334e+02 +1.3007e+00 +6.3102e-01 +2.6014e+00 -3.4102e-01 -1.7293e+00
16904 +8.805728559e-04 +8.805728559e-04 -9.999991194e+02 -9.999991194e+02 +1.5611e+00 +6.5634e-01 +2.4289e+00 +8.3974e-02 -1.3936e+00
17176 +2.124746156e-04 +2.124746156e-04 -9.999997875e+02 -9.999997875e+02 +1.4860e+00 +6.5634e-01 +2.4189e+00 -6.8907e-02 -1.5267e+00
17452 +8.214449713e-05 +8.214449713e-05 -9.999999179e+02 -9.999999179e+02 +1.3007e+00 +5.8660e-01 +2.5857e+00 -3.4102e-01 -1.7508e+00
18001 +5.776160901e-05 +5.776160901e-05 -9.999999422e+02 -9.999999422e+02 +1.3007e+00 +5.9130e-01 +2.5687e+00 -3.4102e-01 -1.7501e+00
18102 +2.605606835e-05 +2.605606835e-05 -9.999999739e+02 -9.999999739e+02 +1.2381e+00 +6.5634e-01 +2.7045e+00 -3.6749e-01 -1.8547e+00
19651 +1.320085391e-05 +1.320085391e-05 -9.999999868e+02 -9.999999868e+02 +1.2754e+00 +6.5335e-01 +2.6599e+00 -3.0053e-01 -1.7903e+00
19951 +2.172967356e-06 +2.172967356e-06 -9.999999978e+02 -9.999999978e+02 +1.3093e+00 +6.9074e-01 +2.6599e+00 -2.5032e-01 -1.7503e+00
20304 +7.453865010e-07 +7.453865010e-07 -9.999999993e+02 -9.999999993e+02 +1.3573e+00 +6.8164e-01 +2.5965e+00 -1.8908e-01 -1.6839e+00
20607 +3.905254289e-07 +3.905254289e-07 -9.999999996e+02 -9.999999996e+02 +1.3505e+00 +6.9185e-01 +2.6242e+00 -1.8220e-01 -1.6970e+00
20703 +1.014025202e-07 +1.014025202e-07 -9.999999999e+02 -9.999999999e+02 +1.3598e+00 +7.1312e-01 +2.6115e+00 -1.2005e-01 -1.6674e+00
20962 +7.239043498e-08 +7.239043498e-08 -9.999999999e+02 -9.999999999e+02 +1.3501e+00 +7.0554e-01 +2.6264e+00 -1.8336e-01 -1.7012e+00
21330 +4.245805485e-08 +4.245805485e-08 -1.000000000e+03 -1.000000000e+03 +1.3429e+00 +7.0742e-01 +2.6349e+00 -1.8748e-01 -1.7099e+00
21512 +3.309878593e-09 +3.309878593e-09 -1.000000000e+03 -1.000000000e+03 +1.3564e+00 +7.1156e-01 +2.6247e+00 -1.5251e-01 -1.6853e+00
% function evaluation | noise-free fitness - Fopt (1.000000000000e+03) | best noise-free fitness - Fopt | measured fitness | best measured fitness | x1 | x2...
1 +7.470859366e+01 +7.470859366e+01 +1.074708594e+03 +1.074708594e+03 +4.4870e+00 -1.2662e+00 -2.2592e+00 -2.7930e+00 -2.6037e+00
7 +6.276432688e+01 +6.276432688e+01 +1.062764327e+03 +1.062764327e+03 -4.1697e+00 -4.2458e-02 -1.8210e+00 -4.0320e+00 -3.0096e-01
60 +3.675962024e+01 +3.675962024e+01 +1.036759620e+03 +1.036759620e+03 +2.8165e+00 +4.0827e+00 -7.3865e-01 +2.1281e+00 -2.6509e-01
88 +1.975314268e+01 +1.975314268e+01 +1.019753143e+03 +1.019753143e+03 -2.2792e+00 -1.1544e+00 -7.1229e-01 -9.9427e-01 -2.0758e+00
176 +7.755633475e+00 +7.755633475e+00 +1.007755633e+03 +1.007755633e+03 -2.6955e+00 +6.8841e-01 +2.9644e-01 -3.4241e+00 -1.5051e+00
402 +3.080193771e+00 +3.080193771e+00 +1.003080194e+03 +1.003080194e+03 -2.6955e+00 +6.8841e-01 +4.6484e-01 -3.4241e+00 -2.3486e+00
479 +1.972641956e+00 +1.972641956e+00 +1.001972642e+03 +1.001972642e+03 -3.1086e+00 +1.2567e+00 +5.2742e-01 -3.9181e+00 -2.0429e+00
507 +1.414690865e+00 +1.414690865e+00 +1.001414691e+03 +1.001414691e+03 -3.4145e+00 +1.1246e+00 +3.2217e-01 -3.1891e+00 -2.3754e+00
701 +9.920076020e-01 +9.920076020e-01 +1.000992008e+03 +1.000992008e+03 -3.4298e+00 +8.6853e-01 +5.2862e-01 -3.5770e+00 -2.2706e+00
9278 +6.082679892e-01 +6.082679892e-01 +1.000608268e+03 +1.000608268e+03 -1.6050e+00 -1.6646e+00 -3.4358e+00 +1.7923e+00 -2.5976e+00
10801 +3.822770704e-01 +3.822770704e-01 +1.000382277e+03 +1.000382277e+03 -1.0178e+00 -8.8060e-01 -2.6785e+00 +2.9160e+00 -1.3208e+00
11227 +7.774466561e-02 +7.774466561e-02 +1.000077745e+03 +1.000077745e+03 -2.6678e-01 -6.7240e-01 -1.4674e+00 +3.9023e+00 -4.3664e-01
13602 +4.872381476e-02 +4.872381476e-02 +1.000048724e+03 +1.000048724e+03 -5.1980e-01 -7.6192e-01 -2.0848e+00 +3.4322e+00 -8.0426e-01
14176 +3.940161543e-02 +3.940161543e-02 +1.000039402e+03 +1.000039402e+03 -5.6690e-01 -7.7289e-01 -2.0499e+00 +3.4322e+00 -8.0426e-01
16176 +1.418463809e-02 +1.418463809e-02 +1.000014185e+03 +1.000014185e+03 -8.1906e-01 -1.1299e+00 -2.2821e+00 +2.9513e+00 -1.4404e+00
17101 +7.924332647e-03 +7.924332647e-03 +1.000007924e+03 +1.000007924e+03 -7.6409e-01 -1.1299e+00 -2.2357e+00 +2.9513e+00 -1.4836e+00
18851 +5.942305846e-03 +5.942305846e-03 +1.000005942e+03 +1.000005942e+03 -7.5652e-01 -1.1414e+00 -2.2238e+00 +2.9513e+00 -1.4836e+00
20926 +3.876657978e-03 +3.876657978e-03 +1.000003877e+03 +1.000003877e+03 -7.5652e-01 -1.1592e+00 -2.1682e+00 +2.9580e+00 -1.5296e+00
24602 +2.051938011e-03 +2.051938011e-03 +1.000002052e+03 +1.000002052e+03 -6.9467e-01 -1.1679e+00 -2.0771e+00 +2.9911e+00 -1.4796e+00
25127 +1.422160625e-03 +1.422160625e-03 +1.000001422e+03 +1.000001422e+03 -9.6896e-01 -1.6512e+00 -2.3700e+00 +2.1648e+00 -2.8608e+00
27376 +9.556276779e-04 +9.556276779e-04 +1.000000956e+03 +1.000000956e+03 -6.5054e-01 -1.1819e+00 -2.0326e+00 +2.9914e+00 -1.5046e+00
39376 +6.012518402e-04 +6.012518402e-04 +1.000000601e+03 +1.000000601e+03 -5.8257e-01 -1.2128e+00 -1.8995e+00 +2.9932e+00 -1.6630e+00
43227 +3.969063907e-04 +3.969063907e-04 +1.000000397e+03 +1.000000397e+03 -5.9054e-01 -1.2211e+00 -1.9412e+00 +2.9666e+00 -1.6656e+00
46676 +2.313722466e-04 +2.313722466e-04 +1.000000231e+03 +1.000000231e+03 -6.1541e-01 -1.2313e+00 -1.9734e+00 +2.9254e+00 -1.7459e+00
56101 +1.582912389e-04 +1.582912389e-04 +1.000000158e+03 +1.000000158e+03 -6.2918e-01 -1.2469e+00 -1.9835e+00 +2.8960e+00 -1.8159e+00
60588 +6.099325526e-05 +6.099325526e-05 +1.000000061e+03 +1.000000061e+03 -8.2026e-01 -1.5059e+00 -2.1868e+00 +2.4632e+00 -2.4593e+00
61005 +3.042942888e-05 +3.042942888e-05 +1.000000030e+03 +1.000000030e+03 -7.8425e-01 -1.4499e+00 -2.1500e+00 +2.5485e+00 -2.3531e+00
61877 +1.245006592e-05 +1.245006592e-05 +1.000000012e+03 +1.000000012e+03 -7.8425e-01 -1.4718e+00 -2.1500e+00 +2.5039e+00 -2.4125e+00
65877 +8.911713053e-06 +8.911713053e-06 +1.000000009e+03 +1.000000009e+03 -7.6857e-01 -1.4440e+00 -2.1261e+00 +2.5664e+00 -2.2777e+00
67128 +4.430705417e-06 +4.430705417e-06 +1.000000004e+03 +1.000000004e+03 -7.3592e-01 -1.3898e+00 -2.0915e+00 +2.6293e+00 -2.2348e+00
67476 +2.068171966e-06 +2.068171966e-06 +1.000000002e+03 +1.000000002e+03 -7.3592e-01 -1.3898e+00 -2.0915e+00 +2.6293e+00 -2.2424e+00
69002 +1.563792580e-06 +1.563792580e-06 +1.000000002e+03 +1.000000002e+03 -7.3046e-01 -1.3944e+00 -2.0821e+00 +2.6340e+00 -2.2298e+00
69426 +9.222706012e-07 +9.222706012e-07 +1.000000001e+03 +1.000000001e+03 -7.3108e-01 -1.3991e+00 -2.0810e+00 +2.6292e+00 -2.2417e+00
70078 +5.619435797e-07 +5.619435797e-07 +1.000000001e+03 +1.000000001e+03 -7.3583e-01 -1.4037e+00 -2.0833e+00 +2.6206e+00 -2.2634e+00
70581 +2.796389253e-07 +2.796389253e-07 +1.000000000e+03 +1.000000000e+03 -7.3415e-01 -1.4205e+00 -2.0812e+00 +2.5963e+00 -2.3100e+00
70592 +2.262190719e-07 +2.262190719e-07 +1.000000000e+03 +1.000000000e+03 -7.2309e-01 -1.3882e+00 -2.0665e+00 +2.6365e+00 -2.2803e+00
70879 +1.177047579e-07 +1.177047579e-07 +1.000000000e+03 +1.000000000e+03 -7.2689e-01 -1.4020e+00 -2.0732e+00 +2.6217e+00 -2.2892e+00
71276 +4.601190540e-08 +4.601190540e-08 +1.000000000e+03 +1.000000000e+03 -7.2451e-01 -1.4020e+00 -2.0666e+00 +2.6223e+00 -2.2963e+00
71331 +3.739080512e-08 +3.739080512e-08 +1.000000000e+03 +1.000000000e+03 -7.2631e-01 -1.4240e+00 -2.0619e+00 +2.5905e+00 -2.3600e+00
71381 +1.914349923e-08 +1.914349923e-08 +1.000000000e+03 +1.000000000e+03 -7.2026e-01 -1.3984e+00 -2.0619e+00 +2.6271e+00 -2.2904e+00
71404 +1.187595444e-08 +1.187595444e-08 +1.000000000e+03 +1.000000000e+03 -7.2451e-01 -1.4142e+00 -2.0683e+00 +2.6034e+00 -2.3321e+00
71452 +1.540001904e-09 +1.540001904e-09 +1.000000000e+03 +1.000000000e+03 -7.2072e-01 -1.4079e+00 -2.0594e+00 +2.6129e+00 -2.3236e+00
% function evaluation | noise-free fitness - Fopt (-4.913000000000e+01) | best noise-free fitness - Fopt | measured fitness | best measured fitness | x1 | x2...
1 +7.846423845e+01 +7.846423845e+01 +2.933423845e+01 +2.933423845e+01 +4.6684e+00 -1.5952e-01 -4.2579e+00 -2.3861e+00 -4.2160e-01
17 +3.781968567e+01 +3.781968567e+01 -1.131031433e+01 -1.131031433e+01 -4.9836e+00 +2.9487e+00 +2.1326e+00 +2.8076e-01 +3.7305e+00
90 +9.864869028e+00 +9.864869028e+00 -3.926513097e+01 -3.926513097e+01 +4.7495e+00 +2.5777e+00 +5.0207e+00 +2.2815e+00 +1.2518e+00
539 +3.708022686e+00 +3.708022686e+00 -4.542197731e+01 -4.542197731e+01 +1.3577e+00 -5.1207e-01 +2.3434e+00 +1.1027e+00 +2.5482e-01
585 +2.280978848e+00 +2.280978848e+00 -4.684902115e+01 -4.684902115e+01 +3.5557e+00 +3.0757e+00 +4.8357e+00 +2.3080e+00 +2.6464e-01
981 +9.159705880e-01 +9.159705880e-01 -4.821402941e+01 -4.821402941e+01 +4.2596e+00 +4.4244e+00 +4.5292e+00 +1.1467e-01 +6.4023e-01
1254 +4.910881188e-01 +4.910881188e-01 -4.863891188e+01 -4.863891188e+01 +3.8717e+00 +2.9087e+00 +4.1413e+00 +5.1560e-01 +7.6891e-01
1284 +7.229928676e-02 +7.229928676e-02 -4.905770071e+01 -4.905770071e+01 +3.1115e+00 +1.3183e+00 +2.9887e+00 +2.8513e-01 +7.9185e-01
1351 +3.083606928e-02 +3.083606928e-02 -4.909916393e+01 -4.909916393e+01 +3.1115e+00 +1.3183e+00 +2.9887e+00 +2.8513e-01 +8.2167e-01
1377 +7.277332765e-03 +7.277332765e-03 -4.912272267e+01 -4.912272267e+01 +3.9920e+00 +2.9280e+00 +3.4950e+00 +1.1467e-01 +9.5711e-01
1806 +1.173557468e-03 +1.173557468e-03 -4.912882644e+01 -4.912882644e+01 +3.8441e+00 +2.7447e+00 +3.4768e+00 +1.0274e-01 +9.1022e-01
1926 +6.715084743e-04 +6.715084743e-04 -4.912932849e+01 -4.912932849e+01 +3.7091e+00 +2.5414e+00 +3.3785e+00 +3.9995e-02 +9.1022e-01
2131 +2.023270258e-04 +2.023270258e-04 -4.912979767e+01 -4.912979767e+01 +3.7122e+00 +2.5868e+00 +3.2014e+00 -1.5425e-01 +9.5711e-01
2381 +1.376525570e-04 +1.376525570e-04 -4.912986235e+01 -4.912986235e+01 +3.7150e+00 +2.5533e+00 +3.2304e+00 -1.4121e-01 +9.7382e-01
2429 +4.955320225e-05 +4.955320225e-05 -4.912995045e+01 -4.912995045e+01 +3.6735e+00 +2.5062e+00 +3.2278e+00 -6.0218e-02 +9.4487e-01
2606 +3.758254032e-06 +3.758254032e-06 -4.912999624e+01 -4.912999624e+01 +3.7310e+00 +2.5749e+00 +3.3176e+00 +3.5050e-03 +9.5816e-01
2904 +2.391908907e-06 +2.391908907e-06 -4.912999761e+01 -4.912999761e+01 +3.7588e+00 +2.6577e+00 +3.3339e+00 -6.1097e-03 +9.4410e-01
2940 +5.014720443e-07 +5.014720443e-07 -4.912999950e+01 -4.912999950e+01 +3.7559e+00 +2.6717e+00 +3.3405e+00 +8.6075e-03 +9.4371e-01
3169 +1.973109889e-07 +1.973109889e-07 -4.912999980e+01 -4.912999980e+01 +3.7610e+00 +2.6420e+00 +3.3129e+00 -1.9772e-02 +9.6685e-01
3285 +4.960166677e-08 +4.960166677e-08 -4.912999995e+01 -4.912999995e+01 +3.7518e+00 +2.6186e+00 +3.3168e+00 -5.1849e-03 +9.6251e-01
3416 +1.189760468e-08 +1.189760468e-08 -4.912999999e+01 -4.912999999e+01 +3.7621e+00 +2.6539e+00 +3.3390e+00 +6.4477e-03 +9.5420e-01
3535 +1.755708467e-09 +1.755708467e-09 -4.913000000e+01 -4.913000000e+01 +3.7709e+00 +2.6628e+00 +3.3351e+00 -1.3968e-03 +9.5893e-01
% function evaluation | noise-free fitness - Fopt (2.977300000000e+02) | best noise-free fitness - Fopt | measured fitness | best measured fitness | x1 | x2...
1 +8.035340158e+01 +8.035340158e+01 +3.780834016e+02 +3.780834016e+02 -9.6256e-02 +2.1331e+00 -2.5164e-01 -6.0089e-01 +3.9576e+00
29 +3.244477684e+01 +3.244477684e+01 +3.301747768e+02 +3.301747768e+02 +2.3669e+00 +1.9811e+00 +2.5358e+00 -3.0829e+00 -1.4975e+00
126 +1.843015473e+01 +1.843015473e+01 +3.161601547e+02 +3.161601547e+02 +2.3669e+00 -4.3461e+00 +2.5358e+00 -3.0829e+00 -1.4975e+00
209 +1.341425463e+01 +1.341425463e+01 +3.111442546e+02 +3.111442546e+02 +1.9754e+00 +3.5642e+00 +4.7607e+00 -2.4409e+00 -4.1676e-01
378 +7.040846708e+00 +7.040846708e+00 +3.047708467e+02 +3.047708467e+02 +1.6589e+00 +4.2063e+00 +4.6023e+00 -3.0460e+00 +7.2311e-01
379 +3.402008440e+00 +3.402008440e+00 +3.011320084e+02 +3.011320084e+02 +1.8216e+00 +3.9793e+00 +3.2343e+00 -2.9621e+00 +2.7287e-03
380 +1.805568380e+00 +1.805568380e+00 +2.995355684e+02 +2.995355684e+02 +1.2321e+00 +3.8983e+00 +3.8513e+00 -3.0592e+00 +6.5928e-01
609 +1.262252666e+00 +1.262252666e+00 +2.989922527e+02 +2.989922527e+02 +1.0309e+00 +3.2931e+00 +4.0245e+00 -3.2661e+00 +7.2034e-01
952 +9.483792398e-01 +9.483792398e-01 +2.986783792e+02 +2.986783792e+02 +1.0656e+00 +3.6533e+00 +3.8513e+00 -3.2575e+00 +3.9397e-01
18901 +5.081413855e-01 +5.081413855e-01 +2.982381414e+02 +2.982381414e+02 -4.0143e-01 +6.8995e-01 +3.1113e+00 +2.2819e+00 +8.9208e-01
19626 +3.896642072e-01 +3.896642072e-01 +2.981196642e+02 +2.981196642e+02 -5.3699e-01 +6.9136e-01 +3.2146e+00 +2.3653e+00 +8.9208e-01
20576 +1.784616502e-01 +1.784616502e-01 +2.979084617e+02 +2.979084617e+02 -1.0363e+00 +6.9136e-01 +3.2146e+00 +2.3653e+00 +8.9208e-01
20651 +1.476676613e-01 +1.476676613e-01 +2.978776677e+02 +2.978776677e+02 -1.2593e+00 +6.9136e-01 +3.2146e+00 +2.3653e+00 +8.9208e-01
21376 +7.032177458e-02 +7.032177458e-02 +2.978003218e+02 +2.978003218e+02 -1.7881e+00 +6.9406e-01 +3.3010e+00 +2.3862e+00 +9.0797e-01
21601 +5.562444532e-02 +5.562444532e-02 +2.977856244e+02 +2.977856244e+02 -1.7881e+00 +6.9406e-01 +3.3010e+00 +2.4147e+00 +9.1161e-01
21776 +3.976324881e-02 +3.976324881e-02 +2.977697632e+02 +2.977697632e+02 -2.2048e+00 +6.9406e-01 +3.3010e+00 +2.5668e+00 +9.1161e-01
24152 +2.453725880e-02 +2.453725880e-02 +2.977545373e+02 +2.977545373e+02 -2.2048e+00 +6.9406e-01 +3.3325e+00 +2.4806e+00 +9.4514e-01
25152 +8.457180976e-03 +8.457180976e-03 +2.977384572e+02 +2.977384572e+02 -2.7629e+00 +6.9406e-01 +3.4934e+00 +2.4806e+00 +9.4514e-01
29276 +5.396120619e-03 +5.396120619e-03 +2.977353961e+02 +2.977353961e+02 -2.7891e+00 +7.0755e-01 +3.4934e+00 +2.4583e+00 +9.4514e-01
30201 +3.883810883e-03 +3.883810883e-03 +2.977338838e+02 +2.977338838e+02 -2.6815e+00 +7.7401e-01 +3.5241e+00 +2.4088e+00 +8.8361e-01
35628 +1.569835968e-03 +1.569835968e-03 +2.977315698e+02 +2.977315698e+02 -3.0085e+00 +7.6147e-01 +3.6176e+00 +2.3639e+00 +9.0024e-01
37476 +9.542530370e-04 +9.542530370e-04 +2.977309543e+02 +2.977309543e+02 -3.1003e+00 +7.7404e-01 +3.6323e+00 +2.3782e+00 +9.0506e-01
43601 +5.724556585e-04 +5.724556585e-04 +2.977305725e+02 +2.977305725e+02 -3.1360e+00 +7.3187e-01 +3.6657e+00 +2.3772e+00 +9.6362e-01
49101 +3.976786510e-04 +3.976786510e-04 +2.977303977e+02 +2.977303977e+02 -3.2393e+00 +7.3264e-01 +3.6721e+00 +2.3795e+00 +9.6767e-01
49606 +2.376169654e-04 +2.376169654e-04 +2.977302376e+02 +2.977302376e+02 -3.6736e+00 +7.3662e-01 +3.7881e+00 +2.3128e+00 +9.6181e-01
50101 +1.365918812e-04 +1.365918812e-04 +2.977301366e+02 +2.977301366e+02 -3.5682e+00 +7.3981e-01 +3.7623e+00 +2.3348e+00 +9.6014e-01
50126 +8.997191378e-05 +8.997191378e-05 +2.977300900e+02 +2.977300900e+02 -3.5682e+00 +7.3981e-01 +3.7681e+00 +2.3348e+00 +9.6710e-01
50952 +5.812591473e-05 +5.812591473e-05 +2.977300581e+02 +2.977300581e+02 -3.5251e+00 +7.4464e-01 +3.7681e+00 +2.3348e+00 +9.7230e-01
52528 +3.693953323e-05 +3.693953323e-05 +2.977300369e+02 +2.977300369e+02 -3.5257e+00 +7.4656e-01 +3.7817e+00 +2.3345e+00 +9.7272e-01
53776 +2.511025804e-05 +2.511025804e-05 +2.977300251e+02 +2.977300251e+02 -3.5276e+00 +7.4213e-01 +3.7960e+00 +2.3381e+00 +9.8902e-01
55951 +1.534150550e-05 +1.534150550e-05 +2.977300153e+02 +2.977300153e+02 -3.5567e+00 +7.3644e-01 +3.8068e+00 +2.3380e+00 +1.0013e+00
58104 +9.875506862e-06 +9.875506862e-06 +2.977300099e+02 +2.977300099e+02 -3.5875e+00 +7.3505e-01 +3.8117e+00 +2.3353e+00 +1.0062e+00
62005 +6.158766894e-06 +6.158766894e-06 +2.977300062e+02 +2.977300062e+02 -3.6223e+00 +7.2199e-01 +3.8171e+00 +2.3382e+00 +1.0246e+00
62801 +3.865112205e-06 +3.865112205e-06 +2.977300039e+02 +2.977300039e+02 -3.6226e+00 +7.1196e-01 +3.8172e+00 +2.3371e+00 +1.0381e+00
63206 +2.331313226e-06 +2.331313226e-06 +2.977300023e+02 +2.977300023e+02 -3.6382e+00 +7.0726e-01 +3.8233e+00 +2.3360e+00 +1.0439e+00
64177 +1.537724529e-06 +1.537724529e-06 +2.977300015e+02 +2.977300015e+02 -3.6473e+00 +7.0276e-01 +3.8237e+00 +2.3430e+00 +1.0520e+00
64737 +7.071154187e-07 +7.071154187e-07 +2.977300007e+02 +2.977300007e+02 -3.6642e+00 +6.9406e-01 +3.8277e+00 +2.3438e+00 +1.0641e+00
65251 +5.771595966e-07 +5.771595966e-07 +2.977300006e+02 +2.977300006e+02 -3.6829e+00 +6.9406e-01 +3.8294e+00 +2.3455e+00 +1.0612e+00
65402 +3.907655923e-07 +3.907655923e-07 +2.977300004e+02 +2.977300004e+02 -3.6656e+00 +6.8477e-01 +3.8284e+00 +2.3485e+00 +1.0783e+00
65626 +2.177379201e-07 +2.177379201e-07 +2.977300002e+02 +2.977300002e+02 -3.6838e+00 +6.8275e-01 +3.8301e+00 +2.3500e+00 +1.0810e+00
66337 +1.451969069e-07 +1.451969069e-07 +2.977300001e+02 +2.977300001e+02 -3.7060e+00 +6.8182e-01 +3.8345e+00 +2.3537e+00 +1.0818e+00
66380 +8.728090961e-08 +8.728090961e-08 +2.977300001e+02 +2.977300001e+02 -3.6982e+00 +6.7294e-01 +3.8327e+00 +2.3522e+00 +1.0942e+00
66426 +5.660581337e-08 +5.660581337e-08 +2.977300001e+02 +2.977300001e+02 -3.7153e+00 +6.7294e-01 +3.8327e+00 +2.3522e+00 +1.0942e+00
66960 +2.604139127e-08 +2.604139127e-08 +2.977300000e+02 +2.977300000e+02 -3.7349e+00 +6.7484e-01 +3.8399e+00 +2.3526e+00 +1.0929e+00
67077 +1.753755896e-08 +1.753755896e-08 +2.977300000e+02 +2.977300000e+02 -3.7269e+00 +6.7198e-01 +3.8349e+00 +2.3547e+00 +1.0932e+00
67127 +1.516741577e-08 +1.516741577e-08 +2.977300000e+02 +2.977300000e+02 -3.7491e+00 +6.7619e-01 +3.8388e+00 +2.3517e+00 +1.0882e+00
67264 +9.456243788e-09 +9.456243788e-09 +2.977300000e+02 +2.977300000e+02 -3.7399e+00 +6.6163e-01 +3.8392e+00 +2.3565e+00 +1.1094e+00
% function evaluation | noise-free fitness - Fopt (5.157000000000e+01) | best noise-free fitness - Fopt | measured fitness | best measured fitness | x1 | x2...
1 +7.636683604e+01 +7.636683604e+01 +1.279368360e+02 +1.279368360e+02 -2.8026e+00 +2.2939e+00 +2.2121e+00 +2.4713e+00 -4.8705e+00
5 +5.901475153e+01 +5.901475153e+01 +1.105847515e+02 +1.105847515e+02 -3.7845e+00 -2.5630e+00 +2.0748e+00 -4.0314e+00 +1.5432e+00
14 +2.761450051e+01 +2.761450051e+01 +7.918450051e+01 +7.918450051e+01 -3.7567e+00 +1.1820e+00 +8.9190e-01 -4.1905e+00 +4.8778e+00
70 +8.223970332e+00 +8.223970332e+00 +5.979397033e+01 +5.979397033e+01 -4.9000e+00 +3.9303e+00 -4.5606e-01 -3.5548e+00 +3.3473e+00
431 +1.998018247e+00 +1.998018247e+00 +5.356801825e+01 +5.356801825e+01 +1.1040e+00 -1.5959e+00 -5.5821e-01 -3.8515e+00 +2.2568e+00
801 +5.417003343e-01 +5.417003343e-01 +5.211170033e+01 +5.211170033e+01 +1.1040e+00 -9.4261e-01 -5.5821e-01 -3.8515e+00 +2.2568e+00
1035 +3.859656849e-01 +3.859656849e-01 +5.195596568e+01 +5.195596568e+01 +1.3062e+00 -1.0211e+00 -7.8161e-01 -3.7322e+00 +2.2316e+00
1180 +1.317488314e-01 +1.317488314e-01 +5.170174883e+01 +5.170174883e+01 +2.2498e+00 -5.6592e-01 -1.3825e+00 -2.5193e+00 +2.0445e+00
2507 +7.688766788e-02 +7.688766788e-02 +5.164688767e+01 +5.164688767e+01 +2.3251e+00 -6.4550e-01 -1.7793e+00 -2.7043e+00 +1.8084e+00
2780 +4.275325157e-02 +4.275325157e-02 +5.161275325e+01 +5.161275325e+01 +2.3623e+00 -5.6592e-01 -1.7836e+00 -2.5052e+00 +1.8949e+00
2983 +2.624679600e-02 +2.624679600e-02 +5.159624680e+01 +5.159624680e+01 +2.2143e+00 -4.9829e-01 -1.7288e+00 -2.6107e+00 +1.7959e+00
3076 +1.238994885e-02 +1.238994885e-02 +5.158238995e+01 +5.158238995e+01 +2.2193e+00 +3.2478e-01 -1.9306e+00 -2.1776e+00 +1.7081e+00
3451 +5.507370693e-03 +5.507370693e-03 +5.157550737e+01 +5.157550737e+01 +2.0600e+00 +2.8640e-01 -1.8048e+00 -2.3820e+00 +1.7081e+00
3476 +3.642379749e-03 +3.642379749e-03 +5.157364238e+01 +5.157364238e+01 +2.0600e+00 +2.8640e-01 -1.8048e+00 -2.3285e+00 +1.6421e+00
3752 +3.208859740e-04 +3.208859740e-04 +5.157032089e+01 +5.157032089e+01 +2.0789e+00 +9.2424e-01 -2.0160e+00 -1.9488e+00 +1.4838e+00
4935 +6.125355812e-05 +6.125355812e-05 +5.157006125e+01 +5.157006125e+01 +2.0162e+00 +1.1592e+00 -2.1067e+00 -1.9324e+00 +1.3902e+00
5180 +2.916633879e-05 +2.916633879e-05 +5.157002917e+01 +5.157002917e+01 +2.0396e+00 +1.1766e+00 -2.1572e+00 -1.8906e+00 +1.3474e+00
5532 +1.985694254e-05 +1.985694254e-05 +5.157001986e+01 +5.157001986e+01 +2.0884e+00 +9.8250e-01 -2.1235e+00 -1.9563e+00 +1.4260e+00
5710 +7.833584533e-06 +7.833584533e-06 +5.157000783e+01 +5.157000783e+01 +2.1230e+00 +1.2103e+00 -2.1867e+00 -1.7784e+00 +1.3539e+00
5926 +4.022690533e-06 +4.022690533e-06 +5.157000402e+01 +5.157000402e+01 +2.0953e+00 +1.2418e+00 -2.1836e+00 -1.7926e+00 +1.3592e+00
5983 +1.686570428e-06 +1.686570428e-06 +5.157000169e+01 +5.157000169e+01 +2.0334e+00 +1.1862e+00 -2.1606e+00 -1.8969e+00 +1.3666e+00
6180 +1.202927180e-06 +1.202927180e-06 +5.157000120e+01 +5.157000120e+01 +2.0602e+00 +1.1838e+00 -2.1800e+00 -1.8731e+00 +1.3575e+00
6205 +4.661302171e-07 +4.661302171e-07 +5.157000047e+01 +5.157000047e+01 +2.0981e+00 +1.3005e+00 -2.2427e+00 -1.7811e+00 +1.3196e+00
6351 +8.844973820e-08 +8.844973820e-08 +5.157000009e+01 +5.157000009e+01 +2.0820e+00 +1.2950e+00 -2.2274e+00 -1.7887e+00 +1.3217e+00
6612 +7.469289187e-09 +7.469289187e-09 +5.157000001e+01 +5.157000001e+01 +2.0687e+00 +1.2495e+00 -2.2011e+00 -1.8277e+00 +1.3457e+00
% function evaluation | noise-free fitness - Fopt (4.886000000000e+01) | best noise-free fitness - Fopt | measured fitness | best measured fitness | x1 | x2...
1 +7.955447536e+01 +7.955447536e+01 +1.284144754e+02 +1.284144754e+02 -4.7885e+00 +1.0408e+00 -3.9752e-01 -4.2678e+00 -3.3532e+00
5 +6.281510573e+01 +6.281510573e+01 +1.116751057e+02 +1.116751057e+02 -2.4658e+00 +1.0951e+00 -3.7912e+00 -3.1134e+00 +1.6759e+00
24 +2.595732532e+01 +2.595732532e+01 +7.481732532e+01 +7.481732532e+01 +4.2508e+00 -4.2299e+00 -3.7821e+00 +1.9243e+00 -1.4610e+00
51 +5.883904006e+00 +5.883904006e+00 +5.474390401e+01 +5.474390401e+01 +1.8061e+00 -4.2299e+00 -3.7821e+00 +2.1697e-02 +8.4133e-01
139 +2.929340272e+00 +2.929340272e+00 +5.178934027e+01 +5.178934027e+01 -3.7334e+00 +3.1139e+00 +1.2660e+00 -2.2145e+00 +1.9703e+00
381 +1.548133158e+00 +1.548133158e+00 +5.040813316e+01 +5.040813316e+01 -3.9386e+00 +1.0417e+00 -4.0655e+00 -4.5585e+00 +4.0475e-01
401 +8.346315254e-01 +8.346315254e-01 +4.969463153e+01 +4.969463153e+01 -3.9386e+00 +1.0417e+00 -4.0655e+00 -4.5585e+00 +6.5958e-01
657 +4.148590082e-01 +4.148590082e-01 +4.927485901e+01 +4.927485901e+01 +1.8542e-02 -2.6446e+00 -3.7541e+00 -1.2144e+00 -1.0625e-02
778 +1.916639290e-01 +1.916639290e-01 +4.905166393e+01 +4.905166393e+01 -1.9112e+00 -1.9788e-01 -3.6622e+00 -3.5430e+00 +8.7499e-01
1051 +1.533235949e-01 +1.533235949e-01 +4.901332359e+01 +4.901332359e+01 -1.8556e-01 -8.8502e-01 -3.7675e+00 -2.4949e+00 +6.3685e-01
1508 +7.212029023e-02 +7.212029023e-02 +4.893212029e+01 +4.893212029e+01 -2.1706e+00 -4.2052e-01 -3.9436e+00 -3.2173e+00 +4.9910e-01
1527 +5.688097090e-02 +5.688097090e-02 +4.891688097e+01 +4.891688097e+01 -8.3825e-01 -9.2528e-01 -3.9887e+00 -2.6621e+00 +7.0608e-01
1784 +1.924854644e-02 +1.924854644e-02 +4.887924855e+01 +4.887924855e+01 -9.5465e-01 -3.4251e-01 -3.5654e+00 -3.3002e+00 +1.2044e+00
1902 +9.586381929e-03 +9.586381929e-03 +4.886958638e+01 +4.886958638e+01 -1.2581e+00 -3.3907e-01 -3.6650e+00 -3.3161e+00 +1.0516e+00
2279 +3.609750965e-03 +3.609750965e-03 +4.886360975e+01 +4.886360975e+01 -7.0388e-01 -1.0397e+00 -3.8014e+00 -2.6489e+00 +7.4750e-01
2353 +1.907806208e-03 +1.907806208e-03 +4.886190781e+01 +4.886190781e+01 -8.3176e-01 -8.5543e-01 -3.7422e+00 -2.9273e+00 +1.0676e+00
2503 +4.504054049e-04 +4.504054049e-04 +4.886045041e+01 +4.886045041e+01 -5.5396e-01 -1.0691e+00 -3.6983e+00 -2.5989e+00 +8.2787e-01
2528 +2.938909825e-04 +2.938909825e-04 +4.886029389e+01 +4.886029389e+01 -9.1504e-01 -9.7855e-01 -3.8541e+00 -2.6631e+00 +6.9791e-01
2802 +1.483570856e-04 +1.483570856e-04 +4.886014836e+01 +4.886014836e+01 -9.3193e-01 -8.8940e-01 -3.7422e+00 -2.7890e+00 +8.0169e-01
2855 +5.746340219e-05 +5.746340219e-05 +4.886005746e+01 +4.886005746e+01 -8.0704e-01 -1.1335e+00 -3.8166e+00 -2.5946e+00 +7.8751e-01
3040 +2.720300422e-06 +2.720300422e-06 +4.886000272e+01 +4.886000272e+01 -9.9959e-01 -9.0921e-01 -3.7970e+00 -2.8035e+00 +8.3257e-01
3364 +1.680057878e-06 +1.680057878e-06 +4.886000168e+01 +4.886000168e+01 -8.1629e-01 -1.1014e+00 -3.7888e+00 -2.6317e+00 +7.8925e-01
3387 +8.474956488e-07 +8.474956488e-07 +4.886000085e+01 +4.886000085e+01 -9.2322e-01 -9.6093e-01 -3.7863e+00 -2.7457e+00 +8.2217e-01
3480 +5.263903944e-07 +5.263903944e-07 +4.886000053e+01 +4.886000053e+01 -8.2517e-01 -1.0862e+00 -3.7939e+00 -2.6356e+00 +7.8722e-01
3538 +3.358823761e-07 +3.358823761e-07 +4.886000034e+01 +4.886000034e+01 -8.3924e-01 -1.0445e+00 -3.7891e+00 -2.6499e+00 +7.6383e-01
3577 +2.258419727e-07 +2.258419727e-07 +4.886000023e+01 +4.886000023e+01 -8.0982e-01 -1.0823e+00 -3.7743e+00 -2.6380e+00 +7.9546e-01
3586 +1.177474473e-08 +1.177474473e-08 +4.886000001e+01 +4.886000001e+01 -8.9559e-01 -1.0115e+00 -3.7908e+00 -2.6984e+00 +7.9288e-01
3809 +4.041346813e-09 +4.041346813e-09 +4.886000000e+01 +4.886000000e+01 -8.7705e-01 -1.0193e+00 -3.7882e+00 -2.6861e+00 +7.8547e-01
% function evaluation | noise-free fitness - Fopt (-3.442000000000e+01) | best noise-free fitness - Fopt | measured fitness | best measured fitness | x1 | x2...
1 +7.438613979e+01 +7.438613979e+01 +3.996613979e+01 +3.996613979e+01 +8.9439e-01 +1.7672e+00 +2.9274e+00 +1.1678e+00 -1.9372e+00
4 +6.034345563e+01 +6.034345563e+01 +2.592345563e+01 +2.592345563e+01 -2.9423e+00 +3.2817e+00 -1.1965e+00 -2.8158e+00 +5.0564e-01
19 +2.946547494e+01 +2.946547494e+01 -4.954525057e+00 -4.954525057e+00 -1.7773e+00 +5.6897e-01 -1.9958e+00 +5.0605e-01 +1.5411e+00
42 +2.478639804e+01 +2.478639804e+01 -9.633601955e+00 -9.633601955e+00 +2.0895e+00 +4.8494e-01 -4.7604e+00 -4.1101e+00 +1.0925e+00
122 +9.107305097e+00 +9.107305097e+00 -2.531269490e+01 -2.531269490e+01 -5.1415e-02 +4.1249e-01 -2.3220e+00 -1.7052e+00 +1.1559e+00
253 +4.939455195e-01 +4.939455195e-01 -3.392605448e+01 -3.392605448e+01 +9.7979e-01 +4.1249e-01 -3.4762e+00 -2.4131e+00 +1.1559e+00
428 +2.267411965e-01 +2.267411965e-01 -3.419325880e+01 -3.419325880e+01 +2.3508e+00 +5.0493e-01 -3.6007e+00 -3.2268e+00 +1.0321e+00
573 +1.427236184e-01 +1.427236184e-01 -3.427727638e+01 -3.427727638e+01 +2.2190e+00 +6.0588e-01 -3.3868e+00 -2.3412e+00 +7.1609e-01
654 +4.562613882e-02 +4.562613882e-02 -3.437437386e+01 -3.437437386e+01 +1.8854e+00 +8.0605e-01 -3.1668e+00 -8.7131e-01 +5.7727e-01
1181 +2.718881072e-02 +2.718881072e-02 -3.439281119e+01 -3.439281119e+01 +1.8571e+00 +7.3205e-01 -3.3651e+00 -1.8379e+00 +8.7295e-01
1413 +1.515109761e-02 +1.515109761e-02 -3.440484890e+01 -3.440484890e+01 +1.5864e+00 +6.9830e-01 -3.2448e+00 -1.3291e+00 +8.5355e-01
1426 +8.026566740e-04 +8.026566740e-04 -3.441919734e+01 -3.441919734e+01 +2.1217e+00 +7.8920e-01 -3.2448e+00 -1.3291e+00 +6.7100e-01
1681 +3.968294986e-04 +3.968294986e-04 -3.441960317e+01 -3.441960317e+01 +2.4741e+00 +9.2949e-01 -3.1035e+00 -1.1253e+00 +5.0954e-01
1910 +1.282952285e-04 +1.282952285e-04 -3.441987170e+01 -3.441987170e+01 +2.5749e+00 +9.4948e-01 -3.2204e+00 -9.1919e-01 +4.5773e-01
2133 +5.499580105e-05 +5.499580105e-05 -3.441994500e+01 -3.441994500e+01 +2.5288e+00 +9.7873e-01 -3.2204e+00 -7.2224e-01 +4.4618e-01
2157 +2.965143215e-05 +2.965143215e-05 -3.441997035e+01 -3.441997035e+01 +2.3576e+00 +9.0589e-01 -3.2551e+00 -9.6700e-01 +5.4783e-01
2517 +1.288165330e-05 +1.288165330e-05 -3.441998712e+01 -3.441998712e+01 +2.5000e+00 +9.7877e-01 -3.1775e+00 -7.6081e-01 +4.7284e-01
2522 +6.618879617e-06 +6.618879617e-06 -3.441999338e+01 -3.441999338e+01 +2.5983e+00 +1.0041e+00 -3.1065e+00 -7.6220e-01 +4.0943e-01
2601 +2.826493294e-06 +2.826493294e-06 -3.441999717e+01 -3.441999717e+01 +2.5760e+00 +1.0041e+00 -3.1000e+00 -7.2503e-01 +4.0943e-01
2753 +2.309068350e-07 +2.309068350e-07 -3.441999977e+01 -3.441999977e+01 +2.4778e+00 +9.6291e-01 -3.1633e+00 -8.1294e-01 +4.6892e-01
3194 +5.359969180e-08 +5.359969180e-08 -3.441999995e+01 -3.441999995e+01 +2.4670e+00 +9.6901e-01 -3.1445e+00 -7.9057e-01 +4.7230e-01
3277 +3.880804655e-08 +3.880804655e-08 -3.441999996e+01 -3.441999996e+01 +2.4876e+00 +9.6988e-01 -3.1552e+00 -7.8200e-01 +4.6040e-01
3372 +1.612601608e-08 +1.612601608e-08 -3.441999998e+01 -3.441999998e+01 +2.4925e+00 +9.7838e-01 -3.1403e+00 -7.5858e-01 +4.5353e-01
3428 +1.317332021e-08 +1.317332021e-08 -3.441999999e+01 -3.441999999e+01 +2.4876e+00 +9.6890e-01 -3.1583e+00 -7.8776e-01 +4.6419e-01
3456 +8.055636158e-10 +8.055636158e-10 -3.442000000e+01 -3.442000000e+01 +2.5113e+00 +9.8093e-01 -3.1431e+00 -7.5872e-01 +4.4955e-01
% function evaluation | noise-free fitness - Fopt (-1.379300000000e+02) | best noise-free fitness - Fopt | measured fitness | best measured fitness | x1 | x2...
1 +8.593973780e+01 +8.593973780e+01 -5.199026220e+01 -5.199026220e+01 -3.2087e+00 +2.1274e-02 +2.7577e+00 +1.3991e+00 -4.3401e+00
11 +1.409933835e+01 +1.409933835e+01 -1.238306616e+02 -1.238306616e+02 +3.6931e+00 -2.2506e+00 +1.9272e+00 -3.3333e+00 +2.5967e+00
104 +8.670774951e+00 +8.670774951e+00 -1.292592250e+02 -1.292592250e+02 +2.5520e+00 -4.1715e+00 -2.6193e+00 +3.2406e+00 +1.1158e-02
249 +3.241395018e+00 +3.241395018e+00 -1.346886050e+02 -1.346886050e+02 +3.2968e+00 +3.8821e+00 -2.9201e+00 +4.9402e+00 -4.5534e+00
1006 +2.038510411e+00 +2.038510411e+00 -1.358914896e+02 -1.358914896e+02 +2.5028e+00 +4.4040e+00 -2.8867e+00 +4.6410e+00 -4.1277e+00
1976 +1.582466036e+00 +1.582466036e+00 -1.363475340e+02 -1.363475340e+02 +3.3636e+00 -2.9318e+00 -4.0158e+00 +2.3448e+00 -9.5392e-01
2927 +9.204996383e-01 +9.204996383e-01 -1.370095004e+02 -1.370095004e+02 +3.4744e+00 -2.5681e+00 -4.3481e+00 +2.2907e+00 -6.0837e-01
12030 +6.094655056e-01 +6.094655056e-01 -1.373205345e+02 -1.373205345e+02 +4.7267e+00 +2.2829e+00 +4.6991e+00 -4.1196e-01 +1.4878e+00
14188 +3.916821448e-01 +3.916821448e-01 -1.375383179e+02 -1.375383179e+02 +4.3873e+00 +1.7354e+00 +4.2154e+00 -1.0196e+00 +1.4449e+00
14421 +2.406780570e-01 +2.406780570e-01 -1.376893219e+02 -1.376893219e+02 +4.0918e+00 +1.6293e+00 +3.9644e+00 -1.1830e+00 +1.4584e+00
14501 +1.567956165e-01 +1.567956165e-01 -1.377732044e+02 -1.377732044e+02 +3.6700e+00 +1.2417e+00 +3.6309e+00 -1.6908e+00 +1.4061e+00
14580 +7.863957061e-02 +7.863957061e-02 -1.378513604e+02 -1.378513604e+02 +3.5055e+00 +9.0059e-01 +3.2995e+00 -1.8301e+00 +1.5922e+00
14707 +5.421493930e-02 +5.421493930e-02 -1.378757851e+02 -1.378757851e+02 +3.2019e+00 +3.7123e-01 +2.8447e+00 -2.3943e+00 +1.5739e+00
14743 +2.453637661e-02 +2.453637661e-02 -1.379054636e+02 -1.379054636e+02 +3.4866e+00 +3.0366e-01 +2.9549e+00 -2.1548e+00 +1.8492e+00
14786 +1.364333573e-02 +1.364333573e-02 -1.379163567e+02 -1.379163567e+02 +3.0802e+00 +1.3770e-02 +2.5787e+00 -2.4484e+00 +1.8462e+00
14956 +2.585898991e-03 +2.585898991e-03 -1.379274141e+02 -1.379274141e+02 +3.4021e+00 -7.4335e-01 +2.2159e+00 -2.7454e+00 +2.2744e+00
14980 +2.486122438e-04 +2.486122438e-04 -1.379297514e+02 -1.379297514e+02 +3.2137e+00 -8.9390e-01 +2.0193e+00 -2.9818e+00 +2.2028e+00
15077 +9.144196682e-05 +9.144196682e-05 -1.379299086e+02 -1.379299086e+02 +3.2769e+00 -1.2447e+00 +1.7530e+00 -3.0900e+00 +2.4056e+00
15316 +3.067255406e-05 +3.067255406e-05 -1.379299693e+02 -1.379299693e+02 +3.3412e+00 -8.8481e-01 +1.9991e+00 -2.8435e+00 +2.2790e+00
15378 +6.780016207e-06 +6.780016207e-06 -1.379299932e+02 -1.379299932e+02 +3.2314e+00 -8.8498e-01 +2.0001e+00 -2.9369e+00 +2.2187e+00
15489 +1.868943912e-06 +1.868943912e-06 -1.379299981e+02 -1.379299981e+02 +3.2835e+00 -9.9186e-01 +1.9130e+00 -2.9476e+00 +2.2962e+00
15684 +1.578342619e-06 +1.578342619e-06 -1.379299984e+02 -1.379299984e+02 +3.2380e+00 -9.7335e-01 +1.9042e+00 -2.9557e+00 +2.2749e+00
15701 +1.945705321e-07 +1.945705321e-07 -1.379299998e+02 -1.379299998e+02 +3.2439e+00 -9.4652e-01 +1.9322e+00 -2.9393e+00 +2.2656e+00
16052 +1.452883680e-08 +1.452883680e-08 -1.379300000e+02 -1.379300000e+02 +3.2737e+00 -9.6145e-01 +1.9452e+00 -2.9523e+00 +2.2693e+00
16282 +7.604427310e-09 +7.604427310e-09 -1.379300000e+02 -1.379300000e+02 +3.2487e+00 -9.6110e-01 +1.9380e+00 -2.9582e+00 +2.2645e+00
16286 +5.411777693e-09 +5.411777693e-09 -1.379300000e+02 -1.379300000e+02 +3.2379e+00 -9.5372e-01 +1.9324e+00 -2.9546e+00 +2.2629e+00
% function evaluation | noise-free fitness - Fopt (1.000000000000e+03) | best noise-free fitness - Fopt | measured fitness | best measured fitness | x1 | x2...
1 +8.356361927e+01 +8.356361927e+01 +1.083563619e+03 +1.083563619e+03 +2.0637e+00 +6.9881e-01 -4.8257e-01 -4.1022e+00 -4.1657e+00
5 +5.096711621e+01 +5.096711621e+01 +1.050967116e+03 +1.050967116e+03 +1.3077e+00 +4.5551e+00 +1.9839e+00 +4.9538e+00 +1.5347e+00
12 +3.513894514e+01 +3.513894514e+01 +1.035138945e+03 +1.035138945e+03 +4.5957e+00 +4.6832e+00 +3.0021e+00 +4.2667e+00 +1.4989e+00
65 +7.124954346e+00 +7.124954346e+00 +1.007124954e+03 +1.007124954e+03 +1.7303e+00 +5.0339e-01 +4.2854e+00 +3.2455e+00 +1.5112e+00
177 +1.083347770e+00 +1.083347770e+00 +1.001083348e+03 +1.001083348e+03 +1.7506e+00 +1.7767e+00 +5.5525e+00 +1.9917e+00 +5.1654e-01
2127 +9.714902000e-01 +9.714902000e-01 +1.000971490e+03 +1.000971490e+03 +2.0081e+00 +1.5269e+00 +5.1109e+00 +2.2627e+00 +6.5495e-01
2576 +5.481613537e-01 +5.481613537e-01 +1.000548161e+03 +1.000548161e+03 +1.3638e+00 +1.8224e+00 +5.0877e+00 +2.2771e+00 +5.4318e-01
2701 +2.141499841e-01 +2.141499841e-01 +1.000214150e+03 +1.000214150e+03 +1.9492e-01 +1.9039e+00 +4.3704e+00 +2.6171e+00 +1.9120e-01
3101 +1.008089227e-01 +1.008089227e-01 +1.000100809e+03 +1.000100809e+03 -3.6082e-01 +1.8684e+00 +4.3704e+00 +2.7055e+00 +1.9120e-01
3451 +8.120067332e-02 +8.120067332e-02 +1.000081201e+03 +1.000081201e+03 -3.3417e-01 +1.9709e+00 +4.3704e+00 +2.7055e+00 +1.9120e-01
4109 +2.772160654e-02 +2.772160654e-02 +1.000027722e+03 +1.000027722e+03 -1.2536e+00 +2.1072e+00 +4.0560e+00 +2.8040e+00 -1.1070e-01
4351 +1.790123641e-02 +1.790123641e-02 +1.000017901e+03 +1.000017901e+03 -1.2536e+00 +2.1744e+00 +4.0560e+00 +2.8040e+00 -1.7255e-01
4604 +1.179759561e-02 +1.179759561e-02 +1.000011798e+03 +1.000011798e+03 -1.4487e+00 +2.2429e+00 +3.8690e+00 +2.7973e+00 -3.0747e-01
4611 +4.142736472e-03 +4.142736472e-03 +1.000004143e+03 +1.000004143e+03 -1.3451e+00 +2.3987e+00 +4.0249e+00 +2.5810e+00 -5.1607e-01
4702 +3.080807181e-03 +3.080807181e-03 +1.000003081e+03 +1.000003081e+03 -1.9907e+00 +2.4992e+00 +3.8084e+00 +2.6920e+00 -7.3434e-01
4810 +2.543676271e-04 +2.543676271e-04 +1.000000254e+03 +1.000000254e+03 -2.2337e+00 +2.6157e+00 +3.7640e+00 +2.7838e+00 -6.3947e-01
4906 +1.036670279e-04 +1.036670279e-04 +1.000000104e+03 +1.000000104e+03 -2.7195e+00 +2.7365e+00 +3.5346e+00 +2.7995e+00 -9.4535e-01
5157 +2.735309749e-05 +2.735309749e-05 +1.000000027e+03 +1.000000027e+03 -2.4032e+00 +2.6290e+00 +3.7010e+00 +2.8178e+00 -6.9261e-01
5433 +1.579522473e-05 +1.579522473e-05 +1.000000016e+03 +1.000000016e+03 -2.4726e+00 +2.7122e+00 +3.6637e+00 +2.7485e+00 -8.5335e-01
5440 +7.133954227e-06 +7.133954227e-06 +1.000000007e+03 +1.000000007e+03 -2.4170e+00 +2.6667e+00 +3.6738e+00 +2.7888e+00 -7.8365e-01
5461 +3.794195322e-06 +3.794195322e-06 +1.000000004e+03 +1.000000004e+03 -2.4824e+00 +2.6969e+00 +3.6753e+00 +2.7634e+00 -8.2902e-01
5707 +1.990640044e-06 +1.990640044e-06 +1.000000002e+03 +1.000000002e+03 -2.5217e+00 +2.7200e+00 +3.6569e+00 +2.7709e+00 -8.5688e-01
5751 +9.417192359e-08 +9.417192359e-08 +1.000000000e+03 +1.000000000e+03 -2.5510e+00 +2.6924e+00 +3.6549e+00 +2.8145e+00 -7.8934e-01
5951 +4.494847872e-08 +4.494847872e-08 +1.000000000e+03 +1.000000000e+03 -2.5603e+00 +2.7049e+00 +3.6477e+00 +2.7966e+00 -8.2629e-01
5954 +2.532863164e-08 +2.532863164e-08 +1.000000000e+03 +1.000000000e+03 -2.5740e+00 +2.6983e+00 +3.6471e+00 +2.8164e+00 -7.9994e-01
5983 +1.570799668e-08 +1.570799668e-08 +1.000000000e+03 +1.000000000e+03 -2.5661e+00 +2.7023e+00 +3.6499e+00 +2.8038e+00 -8.1479e-01
6107 +6.056211532e-09 +6.056211532e-09 +1.000000000e+03 +1.000000000e+03 -2.5840e+00 +2.7142e+00 +3.6505e+00 +2.8049e+00 -8.2052e-01
6113 +2.272372512e-09 +2.272372512e-09 +1.000000000e+03 +1.000000000e+03 -2.5714e+00 +2.7055e+00 +3.6503e+00 +2.8052e+00 -8.1595e-01
% function evaluation | noise-free fitness - Fopt (1.785000000000e+01) | best noise-free fitness - Fopt | measured fitness | best measured fitness | x1 | x2...
1 +7.409301987e+01 +7.409301987e+01 +9.194301987e+01 +9.194301987e+01 -2.6266e+00 -3.6019e+00 +6.1835e-01 +1.7635e+00 -4.6390e+00
17 +6.162574185e+01 +6.162574185e+01 +7.947574185e+01 +7.947574185e+01 -3.9798e+00 -8.4312e-01 +3.5222e+00 +6.4309e-01 +4.1992e-01
77 +3.431310275e+01 +3.431310275e+01 +5.216310275e+01 +5.216310275e+01 -3.6154e+00 -7.8471e-01 +2.7031e+00 +1.5668e+00 +4.1992e-01
79 +1.082504319e+01 +1.082504319e+01 +2.867504319e+01 +2.867504319e+01 -1.7950e+00 -2.2047e+00 +2.9133e+00 +1.2554e+00 -1.9363e+00
254 +8.867032378e+00 +8.867032378e+00 +2.671703238e+01 +2.671703238e+01 -2.0257e+00 -3.9056e+00 +1.0732e+00 +2.1656e+00 -6.8907e-01
708 +6.203794012e+00 +6.203794012e+00 +2.405379401e+01 +2.405379401e+01 -1.9026e+00 -3.3635e+00 +1.3946e+00 +2.5042e+00 -7.7069e-01
732 +3.603132991e+00 +3.603132991e+00 +2.145313299e+01 +2.145313299e+01 -1.9134e+00 -3.3604e+00 +1.9892e+00 +2.5222e+00 -1.1945e+00
6971 +1.606781043e+00 +1.606781043e+00 +1.945678104e+01 +1.945678104e+01 +2.3156e+00 -3.2357e+00 +2.1182e+00 -1.6546e-01 +3.3802e+00
7301 +4.422976594e-01 +4.422976594e-01 +1.829229766e+01 +1.829229766e+01 +2.3156e+00 -3.2357e+00 +2.0144e+00 -4.7626e-01 +3.3802e+00
7401 +3.353572148e-01 +3.353572148e-01 +1.818535721e+01 +1.818535721e+01 +1.4795e+00 -3.2357e+00 +1.5119e+00 -4.7626e-01 +3.6783e+00
8717 +1.315671959e-01 +1.315671959e-01 +1.798156720e+01 +1.798156720e+01 +1.7093e+00 -3.1455e+00 +1.6108e+00 -7.7954e-01 +3.4850e+00
8751 +9.965023485e-02 +9.965023485e-02 +1.794965023e+01 +1.794965023e+01 +1.6905e+00 -3.2418e+00 +1.4758e+00 -5.7816e-01 +3.6204e+00
8801 +5.027048591e-02 +5.027048591e-02 +1.790027049e+01 +1.790027049e+01 +1.5039e+00 -2.8175e+00 +1.5465e+00 -9.1795e-01 +3.7327e+00
8826 +3.091859439e-02 +3.091859439e-02 +1.788091859e+01 +1.788091859e+01 +1.5039e+00 -2.8175e+00 +1.4815e+00 -9.1795e-01 +3.7327e+00
8977 +1.782510567e-02 +1.782510567e-02 +1.786782511e+01 +1.786782511e+01 +1.9575e+00 -2.7419e+00 +1.7951e+00 -9.1584e-01 +3.6052e+00
9160 +1.509512879e-02 +1.509512879e-02 +1.786509513e+01 +1.786509513e+01 +1.7573e+00 -2.5236e+00 +1.7099e+00 -1.1496e+00 +3.6965e+00
9259 +9.396589872e-03 +9.396589872e-03 +1.785939659e+01 +1.785939659e+01 +1.7987e+00 -2.6682e+00 +1.5623e+00 -1.0955e+00 +3.6731e+00
9332 +4.591003219e-03 +4.591003219e-03 +1.785459100e+01 +1.785459100e+01 +1.8570e+00 -2.8036e+00 +1.4457e+00 -9.9550e-01 +3.7850e+00
9365 +1.758720548e-03 +1.758720548e-03 +1.785175872e+01 +1.785175872e+01 +1.9027e+00 -2.8982e+00 +1.4893e+00 -1.0360e+00 +3.6625e+00
9403 +2.484108903e-04 +2.484108903e-04 +1.785024841e+01 +1.785024841e+01 +1.8570e+00 -2.8036e+00 +1.4457e+00 -1.0518e+00 +3.7245e+00
9735 +1.035138022e-04 +1.035138022e-04 +1.785010351e+01 +1.785010351e+01 +1.9917e+00 -2.7950e+00 +1.4712e+00 -1.1773e+00 +3.6540e+00
9851 +6.410210852e-05 +6.410210852e-05 +1.785006410e+01 +1.785006410e+01 +1.9917e+00 -2.7950e+00 +1.4401e+00 -1.1773e+00 +3.6789e+00
10078 +5.406150321e-05 +5.406150321e-05 +1.785005406e+01 +1.785005406e+01 +2.0221e+00 -2.7970e+00 +1.4850e+00 -1.1373e+00 +3.6552e+00
10108 +2.945168497e-05 +2.945168497e-05 +1.785002945e+01 +1.785002945e+01 +1.9521e+00 -2.7941e+00 +1.4364e+00 -1.1301e+00 +3.6944e+00
10160 +1.872057647e-05 +1.872057647e-05 +1.785001872e+01 +1.785001872e+01 +1.9123e+00 -2.7228e+00 +1.4641e+00 -1.1806e+00 +3.7131e+00
10272 +6.600931240e-06 +6.600931240e-06 +1.785000660e+01 +1.785000660e+01 +1.8896e+00 -2.7568e+00 +1.4161e+00 -1.1566e+00 +3.7279e+00
10277 +6.001259699e-06 +6.001259699e-06 +1.785000600e+01 +1.785000600e+01 +1.8486e+00 -2.7378e+00 +1.4126e+00 -1.1533e+00 +3.7498e+00
10755 +3.089419081e-06 +3.089419081e-06 +1.785000309e+01 +1.785000309e+01 +1.7850e+00 -2.7288e+00 +1.3780e+00 -1.1521e+00 +3.7820e+00
11006 +1.482018860e-06 +1.482018860e-06 +1.785000148e+01 +1.785000148e+01 +1.7255e+00 -2.6893e+00 +1.3480e+00 -1.1854e+00 +3.8192e+00
11077 +1.703360972e-07 +1.703360972e-07 +1.785000017e+01 +1.785000017e+01 +1.7255e+00 -2.7085e+00 +1.3223e+00 -1.1854e+00 +3.8214e+00
11329 +4.569060508e-08 +4.569060508e-08 +1.785000005e+01 +1.785000005e+01 +1.6978e+00 -2.6859e+00 +1.3071e+00 -1.1905e+00 +3.8482e+00
11463 +2.504653551e-08 +2.504653551e-08 +1.785000003e+01 +1.785000003e+01 +1.6997e+00 -2.6999e+00 +1.2962e+00 -1.1887e+00 +3.8499e+00
11559 +8.401041640e-09 +8.401041640e-09 +1.785000001e+01 +1.785000001e+01 +1.7128e+00 -2.7027e+00 +1.3119e+00 -1.1843e+00 +3.8365e+00
% function evaluation | noise-free fitness - Fopt (1.453500000000e+02) | best noise-free fitness - Fopt | measured fitness | best measured fitness | x1 | x2...
1 +7.238453314e+01 +7.238453314e+01 +2.177345331e+02 +2.177345331e+02 +1.9575e-01 -1.9896e+00 -3.4604e-01 +3.8716e+00 +3.9581e+00
12 +4.850060881e+01 +4.850060881e+01 +1.938506088e+02 +1.938506088e+02 -4.8243e+00 -3.6791e+00 -9.0498e-01 +3.3439e+00 +1.5840e-01
46 +3.979480097e+01 +3.979480097e+01 +1.851448010e+02 +1.851448010e+02 -5.0536e+00 +9.2145e-01 +2.5737e-01 +3.2843e+00 +2.2388e-01
51 +1.272639446e+01 +1.272639446e+01 +1.580763945e+02 +1.580763945e+02 -4.8625e+00 -8.5370e-01 -1.5679e-01 +3.2843e+00 -7.2205e-01
157 +9.464253946e+00 +9.464253946e+00 +1.548142539e+02 +1.548142539e+02 -3.4790e+00 -1.1056e-01 -7.2147e-01 +4.3882e+00 +6.2543e-01
177 +2.589937969e+00 +2.589937969e+00 +1.479399380e+02 +1.479399380e+02 -3.9947e+00 -3.2682e-03 -1.4844e+00 +2.7248e+00 -1.2969e+00
226 +2.120393925e+00 +2.120393925e+00 +1.474703939e+02 +1.474703939e+02 -3.9947e+00 -1.0618e+00 -1.4844e+00 +2.7248e+00 -2.6452e-01
529 +1.072675963e+00 +1.072675963e+00 +1.464226760e+02 +1.464226760e+02 -3.5637e+00 -3.8215e-01 -1.7185e+00 +3.4721e+00 -7.5252e-01
689 +9.459886682e-01 +9.459886682e-01 +1.462959887e+02 +1.462959887e+02 -3.7037e+00 -3.6337e-01 -1.4482e+00 +3.4017e+00 -7.1872e-01
34568 +4.906831256e-01 +4.906831256e-01 +1.458406831e+02 +1.458406831e+02 -6.1159e-01 +3.2376e+00 -2.5036e+00 -2.8503e+00 +1.3318e+00
37331 +3.841057360e-01 +3.841057360e-01 +1.457341057e+02 +1.457341057e+02 -5.9880e-01 +3.2510e+00 -2.5386e+00 -2.8909e+00 +1.2243e+00
38702 +2.477098110e-01 +2.477098110e-01 +1.455977098e+02 +1.455977098e+02 -5.6198e-01 +3.2621e+00 -2.5678e+00 -2.9497e+00 +1.1021e+00
39476 +1.568863192e-01 +1.568863192e-01 +1.455068863e+02 +1.455068863e+02 -5.7256e-01 +3.2514e+00 -2.6544e+00 -2.9504e+00 +1.0347e+00
40005 +9.903080957e-02 +9.903080957e-02 +1.454490308e+02 +1.454490308e+02 -5.6855e-01 +3.2599e+00 -2.8299e+00 -2.9519e+00 +8.2915e-01
40503 +5.264537379e-02 +5.264537379e-02 +1.454026454e+02 +1.454026454e+02 -5.9886e-01 +3.3352e+00 -3.0014e+00 -2.9668e+00 +7.1324e-01
40607 +2.435111161e-02 +2.435111161e-02 +1.453743511e+02 +1.453743511e+02 -6.5315e-01 +3.4378e+00 -3.1952e+00 -2.9883e+00 +5.7605e-01
41254 +1.547925582e-02 +1.547925582e-02 +1.453654793e+02 +1.453654793e+02 -6.8947e-01 +3.5260e+00 -3.3053e+00 -2.9960e+00 +5.0743e-01
41660 +7.900162826e-03 +7.900162826e-03 +1.453579002e+02 +1.453579002e+02 -7.8925e-01 +3.5342e+00 -3.3503e+00 -3.0314e+00 +5.8495e-01
41701 +5.628015581e-03 +5.628015581e-03 +1.453556280e+02 +1.453556280e+02 -7.8925e-01 +3.6010e+00 -3.3438e+00 -3.0137e+00 +5.8495e-01
41807 +3.956787239e-03 +3.956787239e-03 +1.453539568e+02 +1.453539568e+02 -7.9755e-01 +3.6204e+00 -3.4536e+00 -3.0175e+00 +4.9888e-01
41955 +1.109279866e-03 +1.109279866e-03 +1.453511093e+02 +1.453511093e+02 -8.6473e-01 +3.7199e+00 -3.5086e+00 -3.0405e+00 +4.9955e-01
41976 +9.281512693e-04 +9.281512693e-04 +1.453509282e+02 +1.453509282e+02 -8.7147e-01 +3.7363e+00 -3.6008e+00 -3.0405e+00 +4.2770e-01
42008 +6.064790089e-04 +6.064790089e-04 +1.453506065e+02 +1.453506065e+02 -9.6749e-01 +3.8591e+00 -3.7113e+00 -3.0726e+00 +4.4967e-01
42029 +2.059866973e-04 +2.059866973e-04 +1.453502060e+02 +1.453502060e+02 -9.4873e-01 +3.8505e+00 -3.6949e+00 -3.0269e+00 +3.8501e-01
42154 +9.461546929e-05 +9.461546929e-05 +1.453500946e+02 +1.453500946e+02 -9.6080e-01 +3.8640e+00 -3.7238e+00 -3.0556e+00 +4.0367e-01
42454 +4.032819817e-05 +4.032819817e-05 +1.453500403e+02 +1.453500403e+02 -1.0323e+00 +4.0045e+00 -3.8637e+00 -3.0433e+00 +3.4749e-01
42472 +1.151962655e-05 +1.151962655e-05 +1.453500115e+02 +1.453500115e+02 -1.0380e+00 +3.9130e+00 -3.8690e+00 -3.1288e+00 +3.3962e-01
42728 +6.511572536e-06 +6.511572536e-06 +1.453500065e+02 +1.453500065e+02 -1.0455e+00 +3.8744e+00 -3.8206e+00 -3.1482e+00 +3.8758e-01
42777 +4.165757218e-06 +4.165757218e-06 +1.453500042e+02 +1.453500042e+02 -1.0067e+00 +3.9280e+00 -3.8322e+00 -3.0735e+00 +3.2310e-01
42860 +2.656006274e-06 +2.656006274e-06 +1.453500027e+02 +1.453500027e+02 -1.0517e+00 +3.9234e+00 -3.8775e+00 -3.1334e+00 +3.3604e-01
42863 +2.131024075e-06 +2.131024075e-06 +1.453500021e+02 +1.453500021e+02 -1.0350e+00 +3.8542e+00 -3.8564e+00 -3.1751e+00 +3.3381e-01
42905 +1.451177724e-06 +1.451177724e-06 +1.453500015e+02 +1.453500015e+02 -1.0274e+00 +3.8598e+00 -3.8115e+00 -3.1511e+00 +3.6381e-01
43053 +8.437956467e-08 +8.437956467e-08 +1.453500001e+02 +1.453500001e+02 -1.0350e+00 +3.8154e+00 -3.8392e+00 -3.1931e+00 +3.4711e-01
43354 +4.401360343e-08 +4.401360343e-08 +1.453500000e+02 +1.453500000e+02 -1.0301e+00 +3.7855e+00 -3.8281e+00 -3.2044e+00 +3.5220e-01
43441 +1.146358386e-08 +1.146358386e-08 +1.453500000e+02 +1.453500000e+02 -1.0387e+00 +3.7725e+00 -3.8393e+00 -3.2220e+00 +3.5293e-01
43456 +2.542577704e-09 +2.542577704e-09 +1.453500000e+02 +1.453500000e+02 -1.0326e+00 +3.8105e+00 -3.8341e+00 -3.1854e+00 +3.5260e-01
% function evaluation | noise-free fitness - Fopt (-6.811100000000e+02) | best noise-free fitness - Fopt | measured fitness | best measured fitness | x1 | x2...
1 +7.891085761e+01 +7.891085761e+01 -6.021991424e+02 -6.021991424e+02 -4.1378e-02 +2.8088e+00 -4.8771e-01 +8.5096e-01 -2.5335e+00
4 +4.748893168e+01 +4.748893168e+01 -6.336210683e+02 -6.336210683e+02 +1.7774e+00 +1.9855e+00 +1.5631e+00 +1.8543e+00 +3.5137e+00
22 +3.816150113e+01 +3.816150113e+01 -6.429484989e+02 -6.429484989e+02 +4.2992e+00 +3.6489e+00 -2.8713e+00 +1.4630e+00 +3.1816e+00
74 +7.549097051e+00 +7.549097051e+00 -6.735609029e+02 -6.735609029e+02 +1.7454e+00 +4.2141e+00 -3.5712e+00 -1.1922e+00 -2.4511e-01
184 +1.804386540e-01 +1.804386540e-01 -6.809295613e+02 -6.809295613e+02 -1.9218e-01 +1.2772e+00 -2.0164e+00 +2.8951e-01 -8.1773e-01
426 +1.368188205e-01 +1.368188205e-01 -6.809731812e+02 -6.809731812e+02 -1.4946e-01 +1.2511e+00 -2.1823e+00 +2.8951e-01 -8.1773e-01
477 +2.358284320e-02 +2.358284320e-02 -6.810864172e+02 -6.810864172e+02 +2.2645e-01 +1.4517e+00 -2.4056e+00 +1.7579e-01 -9.3072e-01
1253 +1.530393878e-02 +1.530393878e-02 -6.810946961e+02 -6.810946961e+02 +5.5424e-01 +1.3383e+00 -2.4319e+00 +1.5705e-01 -1.0076e+00
1406 +8.831724787e-03 +8.831724787e-03 -6.811011683e+02 -6.811011683e+02 +1.4115e+00 +8.6013e-01 -2.1823e+00 -1.8958e-01 -1.2350e+00
1589 +4.117134272e-03 +4.117134272e-03 -6.811058829e+02 -6.811058829e+02 +1.6036e+00 +1.5960e+00 -2.5572e+00 -4.7062e-01 -1.0226e+00
1658 +1.208894925e-03 +1.208894925e-03 -6.811087911e+02 -6.811087911e+02 +1.1421e+00 +9.9903e-01 -2.3110e+00 -1.0376e-01 -1.1715e+00
1831 +1.133955005e-04 +1.133955005e-04 -6.811098866e+02 -6.811098866e+02 +1.5394e+00 +1.1673e+00 -2.4790e+00 -3.3332e-01 -1.1715e+00
2127 +7.111392279e-06 +7.111392279e-06 -6.811099929e+02 -6.811099929e+02 +1.2732e+00 +1.4289e+00 -2.4371e+00 -2.5587e-01 -1.0175e+00
2715 +1.692740284e-06 +1.692740284e-06 -6.811099983e+02 -6.811099983e+02 +1.4417e+00 +1.2776e+00 -2.4023e+00 -3.1651e-01 -1.0738e+00
2857 +5.288502507e-07 +5.288502507e-07 -6.811099995e+02 -6.811099995e+02 +1.3863e+00 +1.2467e+00 -2.4267e+00 -2.8839e-01 -1.0922e+00
3092 +2.476323289e-07 +2.476323289e-07 -6.811099998e+02 -6.811099998e+02 +1.3990e+00 +1.2950e+00 -2.4036e+00 -3.0121e-01 -1.0664e+00
3165 +4.745220394e-08 +4.745220394e-08 -6.811100000e+02 -6.811100000e+02 +1.3645e+00 +1.2910e+00 -2.3983e+00 -2.9098e-01 -1.0629e+00
3228 +2.901185781e-08 +2.901185781e-08 -6.811100000e+02 -6.811100000e+02 +1.3490e+00 +1.2825e+00 -2.3942e+00 -2.8042e-01 -1.0650e+00
3286 +1.450757736e-08 +1.450757736e-08 -6.811100000e+02 -6.811100000e+02 +1.3544e+00 +1.2863e+00 -2.4011e+00 -2.8582e-01 -1.0643e+00
3376 +2.337060323e-09 +2.337060323e-09 -6.811100000e+02 -6.811100000e+02 +1.3820e+00 +1.2601e+00 -2.4075e+00 -2.8894e-01 -1.0809e+00
% function evaluation | noise-free fitness - Fopt (2.357000000000e+02) | best noise-free fitness - Fopt | measured fitness | best measured fitness | x1 | x2...
1 +8.167523481e+01 +8.167523481e+01 +3.173752348e+02 +3.173752348e+02 +3.0113e+00 -4.5343e+00 -4.9289e+00 -1.8389e+00 -3.2065e+00
35 +6.238898196e+01 +6.238898196e+01 +2.980889820e+02 +2.980889820e+02 +8.6831e-01 -2.2077e+00 -2.2719e+00 -2.4220e+00 -2.3733e+00
147 +3.801789397e+01 +3.801789397e+01 +2.737178940e+02 +2.737178940e+02 +1.7513e+00 -2.3833e-01 -6.4623e-01 -7.4181e-02 -3.9243e+00
193 +2.434508274e+01 +2.434508274e+01 +2.600450827e+02 +2.600450827e+02 -2.7450e+00 -3.0262e+00 -2.8263e+00 +1.3759e+00 +5.4666e-01
214 +2.079417707e+00 +2.079417707e+00 +2.377794177e+02 +2.377794177e+02 +2.8032e-01 +4.2207e-01 +4.8294e-01 -1.3259e+00 +2.8975e+00
271 +1.061646641e+00 +1.061646641e+00 +2.367616466e+02 +2.367616466e+02 -1.4239e+00 -1.3141e+00 +1.2445e+00 -1.4148e+00 +4.4449e+00
1178 +5.169474451e-01 +5.169474451e-01 +2.362169474e+02 +2.362169474e+02 -4.8315e-01 +1.7115e-01 +5.7995e-01 -7.1610e-01 +3.5681e+00
1455 +2.121016961e-01 +2.121016961e-01 +2.359121017e+02 +2.359121017e+02 +7.8348e-01 +1.3586e-01 +8.5670e-01 -2.2629e+00 +2.4442e+00
3101 +1.354885256e-01 +1.354885256e-01 +2.358354885e+02 +2.358354885e+02 +5.4135e-01 -1.9128e-01 +9.8429e-01 -2.6227e+00 +2.4443e+00
3281 +6.009427059e-02 +6.009427059e-02 +2.357600943e+02 +2.357600943e+02 -1.6892e-01 -5.0174e-01 +1.0678e+00 -2.2489e+00 +3.2379e+00
3354 +2.543026504e-02 +2.543026504e-02 +2.357254303e+02 +2.357254303e+02 -5.3662e-01 -5.4115e-01 +1.0409e+00 -1.1778e+00 +3.7959e+00
3526 +2.163833552e-02 +2.163833552e-02 +2.357216383e+02 +2.357216383e+02 -5.3662e-01 -5.4115e-01 +1.0409e+00 -1.1778e+00 +3.7787e+00
4033 +9.714101179e-03 +9.714101179e-03 +2.357097141e+02 +2.357097141e+02 +7.1378e-01 -6.3090e-02 +1.1327e+00 -1.4167e+00 +2.8003e+00
4151 +4.870027899e-03 +4.870027899e-03 +2.357048700e+02 +2.357048700e+02 +7.1378e-01 -1.1526e-01 +1.1327e+00 -1.4167e+00 +2.8577e+00
4876 +3.596272050e-03 +3.596272050e-03 +2.357035963e+02 +2.357035963e+02 +7.1378e-01 -1.1526e-01 +1.1108e+00 -1.4224e+00 +2.8465e+00
5152 +2.920197896e-04 +2.920197896e-04 +2.357002920e+02 +2.357002920e+02 +7.4969e-01 -2.6938e-01 +1.2279e+00 -1.9937e+00 +2.6043e+00
5785 +2.405547840e-04 +2.405547840e-04 +2.357002406e+02 +2.357002406e+02 +5.5104e-01 -2.4870e-01 +1.1371e+00 -1.4999e+00 +2.9369e+00
6453 +4.221884473e-05 +4.221884473e-05 +2.357000422e+02 +2.357000422e+02 +7.1432e-01 -2.5930e-01 +1.1990e+00 -1.8972e+00 +2.6721e+00
6926 +3.329028942e-05 +3.329028942e-05 +2.357000333e+02 +2.357000333e+02 +7.1432e-01 -2.5930e-01 +1.1990e+00 -1.6716e+00 +2.7291e+00
7303 +4.609998200e-06 +4.609998200e-06 +2.357000046e+02 +2.357000046e+02 +7.1432e-01 -2.5237e-01 +1.1995e+00 -1.6716e+00 +2.7514e+00
7376 +1.195820829e-06 +1.195820829e-06 +2.357000012e+02 +2.357000012e+02 +6.8884e-01 -2.5237e-01 +1.1995e+00 -1.6716e+00 +2.7514e+00
7576 +5.933769387e-07 +5.933769387e-07 +2.357000006e+02 +2.357000006e+02 +5.7279e-01 -2.3205e-01 +1.1587e+00 -1.5376e+00 +2.8518e+00
8352 +7.981734029e-08 +7.981734029e-08 +2.357000001e+02 +2.357000001e+02 +6.2066e-01 -2.5971e-01 +1.1850e+00 -1.6316e+00 +2.8089e+00
8809 +5.562534966e-08 +5.562534966e-08 +2.357000001e+02 +2.357000001e+02 +6.1162e-01 -2.4435e-01 +1.1760e+00 -1.5474e+00 +2.8359e+00
9061 +1.343082090e-08 +1.343082090e-08 +2.357000000e+02 +2.357000000e+02 +6.3851e-01 -2.4474e-01 +1.1837e+00 -1.5971e+00 +2.8025e+00
9226 +3.830280093e-09 +3.830280093e-09 +2.357000000e+02 +2.357000000e+02 +6.2328e-01 -2.4147e-01 +1.1763e+00 -1.6056e+00 +2.8076e+00
% function evaluation | noise-free fitness - Fopt (2.246000000000e+01) | best noise-free fitness - Fopt | measured fitness | best measured fitness | x1 | x2...
1 +8.397686961e+01 +8.397686961e+01 +1.064368696e+02 +1.064368696e+02 +2.9848e+00 -4.9286e+00 -4.6424e+00 -1.5536e+00 -4.8262e-01
2 +5.351675751e+01 +5.351675751e+01 +7.597675751e+01 +7.597675751e+01 -2.0421e+00 -1.9168e+00 +3.9632e+00 -9.2802e-01 +3.5756e+00
20 +3.440210851e+01 +3.440210851e+01 +5.686210851e+01 +5.686210851e+01 +1.0902e+00 +1.0392e+00 -3.9927e+00 +3.0614e+00 -1.3422e+00
25 +2.020125836e+01 +2.020125836e+01 +4.266125836e+01 +4.266125836e+01 +2.9791e+00 -1.8490e+00 +1.0743e+00 -3.4406e+00 -5.3054e-01
104 +1.180548406e+01 +1.180548406e+01 +3.426548406e+01 +3.426548406e+01 -2.1120e+00 +2.9577e+00 -1.6450e-02 +9.5216e-01 +2.1284e+00
131 +8.906348301e+00 +8.906348301e+00 +3.136634830e+01 +3.136634830e+01 -1.8196e+00 +3.3893e+00 -2.1021e-01 -2.4278e+00 +1.9024e+00
157 +1.945728957e+00 +1.945728957e+00 +2.440572896e+01 +2.440572896e+01 -3.0189e+00 +2.1500e+00 +2.6631e+00 +1.4682e+00 +8.2792e-01
226 +6.366654260e-01 +6.366654260e-01 +2.309666543e+01 +2.309666543e+01 -3.0189e+00 +2.1500e+00 +2.8086e+00 +1.4682e+00 +8.2792e-01
542 +4.564286454e-01 +4.564286454e-01 +2.291642865e+01 +2.291642865e+01 -2.2876e+00 +4.7658e+00 +5.8694e-01 +8.4704e-01 +6.7284e-01
629 +1.973655729e-02 +1.973655729e-02 +2.247973656e+01 +2.247973656e+01 -2.3309e+00 +2.3245e+00 +1.5170e+00 +1.1988e+00 +1.7247e+00
1934 +1.527545954e-02 +1.527545954e-02 +2.247527546e+01 +2.247527546e+01 -2.6222e+00 +1.5574e+00 +2.2432e+00 +1.2453e+00 +1.5710e+00
1952 +3.659828330e-03 +3.659828330e-03 +2.246365983e+01 +2.246365983e+01 -2.7197e+00 +2.4787e+00 +1.9354e+00 +1.0494e+00 +1.3288e+00
2609 +1.288792853e-03 +1.288792853e-03 +2.246128879e+01 +2.246128879e+01 -2.0705e+00 +1.5301e+00 +1.5754e+00 +1.2005e+00 +1.8892e+00
2707 +1.169682740e-04 +1.169682740e-04 +2.246011697e+01 +2.246011697e+01 -2.4583e+00 +1.9662e+00 +1.8052e+00 +1.1234e+00 +1.6291e+00
2860 +5.741278740e-05 +5.741278740e-05 +2.246005741e+01 +2.246005741e+01 -2.3830e+00 +2.2529e+00 +1.6063e+00 +1.1042e+00 +1.5863e+00
2929 +3.199118922e-05 +3.199118922e-05 +2.246003199e+01 +2.246003199e+01 -2.3219e+00 +1.7379e+00 +1.7116e+00 +1.1528e+00 +1.7824e+00
3259 +1.257649921e-05 +1.257649921e-05 +2.246001258e+01 +2.246001258e+01 -2.2947e+00 +1.8542e+00 +1.6713e+00 +1.1644e+00 +1.7296e+00
3381 +8.690070555e-06 +8.690070555e-06 +2.246000869e+01 +2.246000869e+01 -2.3953e+00 +1.9976e+00 +1.6759e+00 +1.1042e+00 +1.6888e+00
3489 +5.832838159e-06 +5.832838159e-06 +2.246000583e+01 +2.246000583e+01 -2.3362e+00 +1.9329e+00 +1.6712e+00 +1.1575e+00 +1.7096e+00
3598 +4.517743442e-07 +4.517743442e-07 +2.246000045e+01 +2.246000045e+01 -2.3833e+00 +1.9734e+00 +1.6892e+00 +1.1280e+00 +1.7080e+00
3957 +3.616579605e-07 +3.616579605e-07 +2.246000036e+01 +2.246000036e+01 -2.3266e+00 +1.9196e+00 +1.6272e+00 +1.1293e+00 +1.7622e+00
4058 +1.893908568e-07 +1.893908568e-07 +2.246000019e+01 +2.246000019e+01 -2.3437e+00 +1.9234e+00 +1.6488e+00 +1.1308e+00 +1.7492e+00
4194 +5.683449089e-08 +5.683449089e-08 +2.246000006e+01 +2.246000006e+01 -2.3410e+00 +1.9270e+00 +1.6581e+00 +1.1362e+00 +1.7332e+00
4202 +1.127136073e-08 +1.127136073e-08 +2.246000001e+01 +2.246000001e+01 -2.3437e+00 +1.9408e+00 +1.6488e+00 +1.1308e+00 +1.7394e+00
4307 +7.004384628e-09 +7.004384628e-09 +2.246000001e+01 +2.246000001e+01 -2.3565e+00 +1.9672e+00 +1.6499e+00 +1.1222e+00 +1.7276e+00
% function evaluation | noise-free fitness - Fopt (1.031400000000e+02) | best noise-free fitness - Fopt | measured fitness | best measured fitness | x1 | x2...
1 +7.431781888e+01 +7.431781888e+01 +1.774578189e+02 +1.774578189e+02 -3.5266e+00 +3.1408e+00 +3.3908e-01 -4.0704e+00 -4.9224e+00
3 +6.299957699e+01 +6.299957699e+01 +1.661395770e+02 +1.661395770e+02 -1.0411e+00 +2.2202e-01 -4.2685e-01 +8.2217e-01 +1.2876e+00
26 +2.371967611e+01 +2.371967611e+01 +1.268596761e+02 +1.268596761e+02 -3.3036e+00 +8.7168e-01 +7.5732e-01 -5.4020e-01 -2.6249e+00
75 +5.508685955e+00 +5.508685955e+00 +1.086486860e+02 +1.086486860e+02 -4.6992e+00 +2.6471e-01 +3.2740e+00 -3.1277e+00 +4.0147e+00
252 +7.909610780e-02 +7.909610780e-02 +1.032190961e+02 +1.032190961e+02 -3.3036e+00 +8.0387e-01 +2.2766e+00 -3.4519e+00 +2.2438e+00
752 +5.770580884e-02 +5.770580884e-02 +1.031977058e+02 +1.031977058e+02 -2.4643e+00 -9.8667e-01 +8.5469e-01 -2.4725e+00 +1.1109e+00
926 +3.914681962e-02 +3.914681962e-02 +1.031791468e+02 +1.031791468e+02 -2.3587e+00 -9.8667e-01 +7.7627e-01 -2.4725e+00 +1.1109e+00
1079 +3.340154291e-03 +3.340154291e-03 +1.031433402e+02 +1.031433402e+02 -2.3069e+00 -6.4723e-01 +9.8503e-01 -2.8924e+00 +1.1948e+00
1885 +9.177823435e-04 +9.177823435e-04 +1.031409178e+02 +1.031409178e+02 -2.7017e+00 -1.2190e-01 +1.2411e+00 -2.8913e+00 +1.3752e+00
3427 +1.414683822e-04 +1.414683822e-04 +1.031401415e+02 +1.031401415e+02 -2.4656e+00 -1.8536e-01 +1.2243e+00 -2.9741e+00 +1.3150e+00
4703 +2.062221159e-05 +2.062221159e-05 +1.031400206e+02 +1.031400206e+02 -2.7205e+00 -1.3871e-01 +1.3792e+00 -2.9223e+00 +1.5086e+00
4901 +3.848239558e-06 +3.848239558e-06 +1.031400038e+02 +1.031400038e+02 -2.7476e+00 -1.3871e-01 +1.3868e+00 -2.9223e+00 +1.5363e+00
5587 +1.622414260e-06 +1.622414260e-06 +1.031400016e+02 +1.031400016e+02 -2.8520e+00 -1.2297e-01 +1.4258e+00 -2.8621e+00 +1.6042e+00
6028 +5.856169736e-07 +5.856169736e-07 +1.031400006e+02 +1.031400006e+02 -2.7689e+00 -1.5094e-01 +1.3689e+00 -2.8748e+00 +1.5322e+00
6280 +1.801635676e-07 +1.801635676e-07 +1.031400002e+02 +1.031400002e+02 -2.7516e+00 -1.3548e-01 +1.3841e+00 -2.8954e+00 +1.5363e+00
6451 +9.254765132e-08 +9.254765132e-08 +1.031400001e+02 +1.031400001e+02 -2.8479e+00 -6.6843e-02 +1.4608e+00 -2.8986e+00 +1.6145e+00
6653 +1.207864386e-08 +1.207864386e-08 +1.031400000e+02 +1.031400000e+02 -2.8268e+00 -8.7903e-02 +1.4473e+00 -2.8928e+00 +1.6027e+00
6951 +1.971798724e-09 +1.971798724e-09 +1.031400000e+02 +1.031400000e+02 -2.7969e+00 -1.0244e-01 +1.4188e+00 -2.8929e+00 +1.5704e+00
